:START_ID(Entity-ID),:END_ID(Agent-ID)
2,2
3,1
4,1
5,1
6,1
7,1
8,2
9,2
10,2
11,2
12,2
13,2
14,4
15,2
16,2
17,0
18,0
19,0
20,0
21,0
22,0
23,0
24,0
25,0
26,0
27,0
28,1
29,7
30,7
31,7
32,7
33,7
34,7
35,0
36,0
37,0
38,1
39,1
40,4
41,4
42,4
43,4
44,3
45,3
46,0
47,0
48,0
49,0
50,0
51,0
52,0
53,0
54,0
55,0
56,0
57,0
58,0
59,3
60,3
61,3
62,3
63,1
64,1
65,2
66,2
67,2
68,5
69,5
70,5
71,5
72,5
73,8
74,8
75,8
76,0
77,0
78,0
79,4
80,4
81,4
82,5
83,5
84,5
85,5
86,1
87,1
88,1
89,1
90,1
91,1
92,1
93,1
94,1
95,0
96,0
97,0
98,0
99,0
100,0
101,0
102,0
103,0
104,0
105,0
106,0
107,0
108,0
109,0
110,0
111,6
112,6
113,6
114,6
115,0
116,0
117,1
118,4
119,4
120,4
121,1
122,1
123,1
124,1
125,1
126,1
127,1
128,1
129,0
130,0
131,0
132,1
133,1
134,1
135,1
136,1
137,0
138,0
139,0
140,0
141,0
142,0
143,1
144,1
145,1
146,8
147,8
148,2
149,2
150,2
151,2
152,2
153,0
154,1
155,1
156,1
157,1
158,1
159,3
160,3
161,3
162,3
163,6
164,6
165,6
166,1
167,1
168,1
169,1
170,1
171,0
172,0
173,0
174,0
175,0
176,0
177,0
178,0
179,1
180,1
181,1
182,1
183,0
184,1
185,1
186,1
187,1
188,1
189,0
190,0
191,0
192,0
193,0
194,0
195,0
196,3
197,3
198,3
199,3
200,3
201,3
202,1
203,4
204,4
205,4
206,4
207,0
208,0
209,0
210,6
211,6
212,6
213,6
214,6
215,6
216,6
217,6
218,4
219,4
220,4
221,4
222,0
223,3
224,3
225,3
226,0
227,0
228,0
229,0
230,4
231,0
232,0
233,0
234,0
235,0
236,0
237,0
238,0
239,0
240,0
241,0
242,0
243,0
244,0
245,0
246,2
247,2
248,2
249,2
250,3
251,3
252,3
253,3
254,0
255,1
256,1
257,1
258,1
259,0
260,0
261,0
262,0
263,0
264,0
265,0
266,3
267,3
268,3
269,3
270,3
271,3
272,0
273,0
274,3
275,3
276,3
277,3
278,3
279,0
280,0
281,0
282,0
283,0
284,0
285,0
286,5
287,5
288,4
289,4
290,0
291,0
292,0
293,0
294,1
295,0
296,0
297,0
298,0
299,1
300,1
301,1
302,2
303,3
304,3
305,3
306,0
307,0
308,0
309,0
310,0
311,0
312,5
313,5
314,5
315,0
316,0
317,0
318,0
319,0
320,0
321,5
322,5
323,5
324,0
325,0
326,0
327,0
328,0
329,0
330,6
331,6
332,6
333,6
334,0
335,0
336,0
337,1
338,1
339,0
340,0
341,0
342,0
343,0
344,0
345,0
346,1
347,1
348,1
349,1
350,1
351,1
352,1
353,1
354,1
355,1
356,1
357,1
358,1
359,1
360,1
361,1
362,0
363,6
364,6
365,6
366,6
367,6
368,1
369,1
370,0
371,2
372,2
373,2
374,2
375,0
376,0
377,1
378,1
379,1
380,1
381,4
382,4
383,4
384,4
385,3
386,3
387,3
388,8
389,8
390,8
391,8
392,1
393,1
394,1
395,6
396,6
397,6
398,0
399,0
400,0
401,0
402,2
403,2
404,2
405,0
406,0
407,7
408,7
409,7
410,7
411,2
412,2
413,2
414,2
415,0
416,0
417,0
418,0
419,1
420,1
421,1
422,0
423,0
424,0
425,0
426,5
427,5
428,5
429,5
430,1
431,1
432,1
433,1
434,1
435,1
436,1
437,1
438,4
439,4
440,4
441,4
442,1
443,2
444,2
445,1
446,1
447,1
448,1
449,0
450,0
451,0
452,0
453,0
454,3
455,3
456,3
457,3
458,0
459,0
460,0
461,0
462,0
463,1
464,1
465,1
466,0
467,0
468,2
469,2
470,3
471,3
472,6
473,6
474,6
475,6
476,6
477,0
478,0
479,0
480,0
481,0
482,0
483,0
484,0
485,0
486,1
487,1
488,1
489,1
490,4
491,4
492,7
493,7
494,4
495,4
496,4
497,4
498,2
499,2
500,2
501,2
502,2
503,3
504,3
505,3
506,3
507,3
508,3
509,1
510,1
511,1
512,1
513,3
514,3
515,3
516,0
517,0
518,0
519,6
520,6
521,0
522,0
523,0
524,0
525,0
526,0
527,0
528,0
529,0
530,0
531,0
532,0
533,0
534,0
535,0
536,0
537,2
538,1
539,2
540,2
541,2
542,2
543,2
544,0
545,0
546,0
547,0
548,0
549,0
550,3
551,3
552,0
553,0
554,0
555,0
556,0
557,0
558,0
559,0
560,0
561,1
562,1
563,1
564,0
565,0
566,0
567,0
568,0
569,0
570,0
571,0
572,0
573,0
574,0
575,0
576,0
577,0
578,2
579,2
580,2
581,2
582,4
583,4
584,4
585,0
586,0
587,0
588,4
589,4
590,0
591,0
592,0
593,5
594,6
595,6
596,6
597,2
598,2
599,2
600,2
601,0
602,0
603,1
604,1
605,1
606,0
607,0
608,1
609,1
610,1
611,1
612,1
613,1
614,1
615,1
616,1
617,1
618,2
619,2
620,2
621,2
622,2
623,0
624,0
625,0
626,0
627,0
628,0
629,3
630,3
631,0
632,0
633,0
634,0
635,0
636,0
637,0
638,0
639,0
640,0
641,0
642,0
643,1
644,0
645,0
646,2
647,2
648,3
649,3
650,3
651,3
652,3
653,4
654,4
655,4
656,4
657,3
658,3
659,3
660,3
661,0
662,0
663,1
664,1
665,1
666,1
667,7
668,1
669,1
670,1
671,1
672,1
673,1
674,1
675,1
676,1
677,1
678,1
679,1
680,2
681,2
682,2
683,2
684,2
685,6
686,6
687,6
688,1
689,1
690,1
691,1
692,3
693,3
694,3
695,3
696,3
697,0
698,1
699,1
700,1
701,1
702,6
703,6
704,6
705,6
706,4
707,4
708,4
709,1
710,1
711,1
712,6
713,6
714,0
715,0
716,0
717,2
718,2
719,2
720,2
721,6
722,6
723,6
724,6
725,6
726,6
727,5
728,6
729,6
730,6
731,2
732,5
733,5
734,0
735,0
736,8
737,8
738,0
739,6
740,6
741,6
742,6
743,5
744,2
745,2
746,1
747,3
748,3
749,3
750,3
751,3
752,2
753,2
754,0
755,0
756,0
757,2
758,2
759,2
760,2
761,2
762,0
763,0
764,0
765,0
766,0
767,4
768,4
769,6
770,6
771,0
772,0
773,0
774,5
775,5
776,6
777,6
778,6
779,4
780,4
781,4
782,4
783,4
784,5
785,5
786,0
787,0
788,0
789,0
790,0
791,3
792,3
793,3
794,0
795,0
796,0
797,0
798,0
799,0
800,0
801,0
802,0
803,4
804,4
805,1
806,1
807,1
808,1
809,1
810,1
811,0
812,0
813,8
814,8
815,0
816,0
817,0
818,4
819,4
820,0
821,0
822,0
823,0
824,0
825,0
826,1
827,5
828,5
829,1
830,1
831,1
832,4
833,4
834,4
835,4
836,4
837,4
838,2
839,2
840,2
841,2
842,2
843,2
844,0
845,0
846,0
847,0
848,0
849,0
850,0
851,0
852,0
853,1
854,0
855,0
856,0
857,0
858,0
859,0
860,1
861,1
862,1
863,1
864,0
865,1
866,1
867,1
868,3
869,3
870,3
871,3
872,3
873,3
874,5
875,5
876,5
877,6
878,6
879,0
880,0
881,0
882,0
883,0
884,0
885,0
886,0
887,0
888,1
889,1
890,1
891,1
892,1
893,2
894,2
895,2
896,2
897,5
898,5
899,5
900,5
901,5
902,0
903,0
904,0
905,0
906,0
907,5
908,0
909,0
910,1
911,1
912,1
913,3
914,3
915,0
916,0
917,0
918,0
919,5
920,0
921,0
922,0
923,0
924,0
925,6
926,6
927,6
928,1
929,1
930,1
931,1
932,1
933,0
934,0
935,0
936,2
937,2
938,0
939,0
940,0
941,4
942,4
943,4
944,4
945,4
946,0
947,0
948,0
949,0
950,0
951,0
952,0
953,0
954,0
955,8
956,0
957,0
958,0
959,0
960,0
961,3
962,3
963,3
964,3
965,0
966,0
967,0
968,0
969,0
970,0
971,0
972,0
973,0
974,0
975,0
976,3
977,3
978,3
979,0
980,0
981,0
982,0
983,2
984,2
985,2
986,1
987,1
988,1
989,3
990,3
991,0
992,0
993,7
994,7
995,0
996,0
997,0
998,0
999,0
1000,0
1001,0
1002,1
1003,1
1004,1
1005,5
1006,5
1007,5
1008,5
1009,0
1010,0
1011,0
1012,0
1013,0
1014,1
1015,2
1016,2
1017,2
1018,2
1019,2
1020,2
1021,2
1022,1
1023,1
1024,1
1025,1
1026,1
1027,8
1028,8
1029,0
1030,0
1031,0
1032,1
1033,1
1034,1
1035,0
1036,6
1037,1
1038,1
1039,0
1040,0
1041,0
1042,0
1043,0
1044,0
1045,0
1046,0
1047,0
1048,0
1049,6
1050,6
1051,6
1052,0
1053,0
1054,0
1055,0
1056,7
1057,7
1058,4
1059,4
1060,4
1061,0
1062,0
1063,0
1064,7
1065,3
1066,6
1067,6
1068,0
1069,0
1070,0
1071,0
1072,0
1073,0
1074,2
1075,2
1076,2
1077,2
1078,2
1079,0
1080,0
1081,0
1082,0
1083,0
1084,0
1085,0
1086,3
1087,3
1088,3
1089,3
1090,3
1091,3
1092,0
1093,0
1094,0
1095,0
1096,0
1097,0
1098,0
1099,1
1100,1
1101,1
1102,1
1103,0
1104,0
1105,0
1106,2
1107,2
1108,2
1109,2
1110,2
1111,2
1112,2
1113,0
1114,0
1115,1
1116,0
1117,0
1118,4
1119,4
1120,3
1121,3
1122,3
1123,1
1124,1
1125,1
1126,1
1127,1
1128,1
1129,1
1130,2
1131,2
1132,2
1133,7
1134,7
1135,7
1136,7
1137,2
1138,2
1139,2
1140,2
1141,2
1142,2
1143,2
1144,2
1145,2
1146,2
1147,2
1148,0
1149,0
1150,0
1151,0
1152,0
1153,4
1154,4
1155,6
1156,6
1157,4
1158,4
1159,0
1160,0
1161,0
1162,0
1163,0
1164,0
1165,0
1166,0
1167,8
1168,8
1169,4
1170,4
1171,4
1172,4
1173,4
1174,8
1175,8
1176,0
1177,0
1178,0
1179,0
1180,0
1181,0
1182,0
1183,0
1184,0
1185,0
1186,0
1187,0
1188,0
1189,0
1190,8
1191,8
1192,1
1193,4
1194,4
1195,4
1196,0
1197,0
1198,0
1199,0
1200,1
1201,1
1202,1
1203,1
1204,1
1205,1
1206,2
1207,2
1208,2
1209,0
1210,0
1211,0
1212,5
1213,5
1214,7
1215,7
1216,7
1217,7
1218,7
1219,7
1220,0
1221,0
1222,0
1223,0
1224,1
1225,1
1226,1
1227,1
1228,1
1229,1
1230,0
1231,0
1232,0
1233,0
1234,0
1235,0
1236,0
1237,2
1238,2
1239,0
1240,0
1241,0
1242,0
1243,0
1244,6
1245,0
1246,0
1247,0
1248,0
1249,1
1250,1
1251,7
1252,7
1253,7
1254,7
1255,7
1256,7
1257,7
1258,0
1259,0
1260,0
1261,0
1262,0
1263,0
1264,0
1265,0
1266,0
1267,7
1268,7
1269,7
1270,7
1271,7
1272,0
1273,0
1274,0
1275,0
1276,0
1277,0
1278,0
1279,0
1280,0
1281,0
1282,0
1283,8
1284,8
1285,8
1286,8
1287,0
1288,0
1289,0
1290,0
1291,0
1292,0
1293,0
1294,0
1295,0
1296,0
1297,0
1298,0
1299,0
1300,6
1301,6
1302,6
1303,2
1304,2
1305,2
1306,4
1307,4
1308,4
1309,2
1310,2
1311,2
1312,2
1313,0
1314,0
1315,0
1316,0
1317,4
1318,0
1319,0
1320,0
1321,0
1322,5
1323,5
1324,5
1325,0
1326,0
1327,0
1328,0
1329,0
1330,0
1331,0
1332,0
1333,0
1334,3
1335,3
1336,0
1337,0
1338,0
1339,0
1340,0
1341,0
1342,0
1343,0
1344,0
1345,5
1346,5
1347,5
1348,7
1349,7
1350,7
1351,2
1352,2
1353,3
1354,3
1355,2
1356,2
1357,2
1358,2
1359,0
1360,0
1361,0
1362,0
1363,4
1364,4
1365,4
1366,4
1367,3
1368,3
1369,3
1370,3
1371,3
1372,1
1373,1
1374,0
1375,0
1376,0
1377,0
1378,0
1379,0
1380,0
1381,0
1382,8
1383,8
1384,8
1385,8
1386,0
1387,0
1388,4
1389,4
1390,1
1391,1
1392,0
1393,0
1394,0
1395,0
1396,0
1397,0
1398,0
1399,0
1400,0
1401,0
1402,0
1403,0
1404,4
1405,4
1406,4
1407,0
1408,0
1409,0
1410,0
1411,0
1412,4
1413,0
1414,0
1415,3
1416,3
1417,3
1418,3
1419,3
1420,3
1421,0
1422,0
1423,8
1424,8
1425,1
1426,1
1427,1
1428,1
1429,1
1430,1
1431,2
1432,6
1433,0
1434,0
1435,0
1436,0
1437,3
1438,3
1439,2
1440,2
1441,2
1442,1
1443,1
1444,0
1445,0
1446,0
1447,0
1448,0
1449,0
1450,0
1451,4
1452,4
1453,4
1454,0
1455,0
1456,0
1457,1
1458,2
1459,3
1460,3
1461,0
1462,8
1463,8
1464,8
1465,8
1466,3
1467,0
1468,0
1469,0
1470,0
1471,3
1472,1
1473,1
1474,1
1475,3
1476,0
1477,0
1478,0
1479,5
1480,5
1481,5
1482,5
1483,5
1484,4
1485,4
1486,4
1487,6
1488,6
1489,6
1490,1
1491,1
1492,1
1493,0
1494,0
1495,0
1496,0
1497,0
1498,0
1499,1
1500,1
1501,1
1502,1
1503,1
1504,1
1505,1
1506,2
1507,0
1508,0
1509,0
1510,2
1511,2
1512,2
1513,0
1514,3
1515,3
1516,3
1517,2
1518,2
1519,0
1520,0
1521,0
1522,0
1523,0
1524,0
1525,0
1526,0
1527,0
1528,0
1529,0
1530,0
1531,0
1532,0
1533,0
1534,0
1535,4
1536,4
1537,4
1538,2
1539,2
1540,2
1541,2
1542,2
1543,2
1544,2
1545,6
1546,6
1547,6
1548,6
1549,6
1550,0
1551,0
1552,0
1553,4
1554,4
1555,4
1556,1
1557,1
1558,1
1559,1
1560,1
1561,0
1562,0
1563,0
1564,0
1565,0
1566,0
1567,0
1568,0
1569,0
1570,4
1571,4
1572,4
1573,4
1574,4
1575,0
1576,0
1577,3
1578,3
1579,3
1580,3
1581,0
1582,0
1583,1
1584,1
1585,1
1586,8
1587,8
1588,4
1589,4
1590,4
1591,4
1592,4
1593,1
1594,1
1595,2
1596,2
1597,8
1598,8
1599,8
1600,2
1601,2
1602,2
1603,2
1604,1
1605,1
1606,1
1607,1
1608,1
1609,1
1610,1
1611,0
1612,1
1613,1
1614,1
1615,1
1616,1
1617,1
1618,1
1619,0
1620,0
1621,0
1622,0
1623,0
1624,3
1625,3
1626,7
1627,7
1628,7
1629,1
1630,1
1631,1
1632,2
1633,2
1634,2
1635,2
1636,0
1637,0
1638,0
1639,0
1640,0
1641,0
1642,0
1643,0
1644,3
1645,3
1646,3
1647,5
1648,5
1649,5
1650,6
1651,6
1652,6
1653,6
1654,0
1655,0
1656,0
1657,0
1658,3
1659,0
1660,0
1661,1
1662,1
1663,1
1664,1
1665,0
1666,0
1667,0
1668,0
1669,0
1670,0
1671,0
1672,0
1673,0
1674,0
1675,0
1676,0
1677,0
1678,2
1679,2
1680,2
1681,6
1682,6
1683,6
1684,6
1685,0
1686,0
1687,0
1688,3
1689,3
1690,0
1691,4
1692,4
1693,1
1694,1
1695,1
1696,0
1697,0
1698,0
1699,0
1700,0
1701,0
1702,0
1703,0
1704,6
1705,6
1706,6
1707,6
1708,6
1709,0
1710,0
1711,2
1712,2
1713,2
1714,2
1715,1
1716,1
1717,4
1718,4
1719,4
1720,4
1721,4
1722,0
1723,0
1724,0
1725,8
1726,8
1727,8
1728,0
1729,0
1730,0
1731,0
1732,0
1733,2
1734,2
1735,2
1736,4
1737,4
1738,1
1739,1
1740,0
1741,0
1742,0
1743,0
1744,3
1745,0
1746,0
1747,0
1748,1
1749,1
1750,1
1751,0
1752,0
1753,0
1754,0
1755,4
1756,4
1757,0
1758,0
1759,4
1760,4
1761,4
1762,4
1763,4
1764,4
1765,4
1766,4
1767,4
1768,3
1769,3
1770,3
1771,3
1772,3
1773,3
1774,0
1775,0
1776,0
1777,0
1778,0
1779,0
1780,0
1781,0
1782,0
1783,0
1784,0
1785,0
1786,3
1787,3
1788,3
1789,3
1790,0
1791,0
1792,0
1793,0
1794,0
1795,2
1796,2
1797,2
1798,2
1799,0
1800,0
1801,0
1802,0
1803,0
1804,4
1805,4
1806,4
1807,4
1808,4
1809,4
1810,0
1811,0
1812,7
1813,7
1814,7
1815,0
1816,0
1817,0
1818,0
1819,0
1820,0
1821,6
1822,6
1823,6
1824,6
1825,6
1826,6
1827,2
1828,2
1829,2
1830,6
1831,6
1832,6
1833,6
1834,0
1835,0
1836,1
1837,0
1838,0
1839,0
1840,0
1841,0
1842,0
1843,0
1844,0
1845,0
1846,0
1847,0
1848,0
1849,0
1850,0
1851,2
1852,2
1853,2
1854,2
1855,1
1856,1
1857,1
1858,0
1859,0
1860,0
1861,0
1862,1
1863,1
1864,1
1865,1
1866,2
1867,2
1868,2
1869,2
1870,2
1871,0
1872,0
1873,0
1874,0
1875,0
1876,0
1877,0
1878,0
1879,0
1880,0
1881,3
1882,0
1883,0
1884,0
1885,0
1886,5
1887,5
1888,5
1889,5
1890,1
1891,1
1892,1
1893,0
1894,0
1895,2
1896,2
1897,3
1898,3
1899,3
1900,3
1901,0
1902,0
1903,0
1904,0
1905,0
1906,0
1907,0
1908,0
1909,2
1910,1
1911,1
1912,1
1913,4
1914,4
1915,4
1916,4
1917,4
1918,0
1919,0
1920,0
1921,0
1922,3
1923,3
1924,1
1925,1
1926,1
1927,1
1928,1
1929,1
1930,0
1931,0
1932,0
1933,0
1934,1
1935,1
1936,1
1937,0
1938,0
1939,0
1940,0
1941,0
1942,0
1943,0
1944,0
1945,0
1946,0
1947,0
1948,2
1949,2
1950,1
1951,0
1952,0
1953,0
1954,1
1955,1
1956,0
1957,0
1958,0
1959,1
1960,1
1961,1
1962,1
1963,1
1964,4
1965,4
1966,4
1967,4
1968,0
1969,0
1970,0
1971,0
1972,0
1973,0
1974,0
1975,0
1976,1
1977,1
1978,1
1979,1
1980,7
1981,0
1982,0
1983,0
1984,0
1985,0
1986,0
1987,1
1988,1
1989,1
1990,1
1991,1
1992,1
1993,1
1994,0
1995,0
1996,5
1997,5
1998,5
1999,0
2000,0
2001,0
2002,0
2003,0
2004,0
2005,0
2006,2
2007,2
2008,2
2009,2
2010,2
2011,2
2012,2
2013,2
2014,2
2015,2
2016,1
2017,1
2018,1
2019,1
2020,1
2021,2
2022,2
2023,5
2024,5
2025,0
2026,0
2027,0
2028,0
2029,1
2030,1
2031,1
2032,4
2033,4
2034,4
2035,4
2036,0
2037,0
2038,0
2039,0
2040,0
2041,1
2042,1
2043,1
2044,1
2045,3
2046,3
2047,3
2048,3
2049,3
2050,3
2051,3
2052,0
2053,0
2054,0
2055,0
2056,0
2057,0
2058,1
2059,1
2060,0
2061,0
2062,1
2063,1
2064,1
2065,1
2066,1
2067,1
2068,1
2069,1
2070,1
2071,1
2072,1
2073,1
2074,1
2075,0
2076,0
2077,0
2078,0
2079,0
2080,0
2081,3
2082,3
2083,3
2084,8
2085,8
2086,3
2087,3
2088,3
2089,0
2090,0
2091,0
2092,0
2093,2
2094,2
2095,0
2096,0
2097,1
2098,1
2099,1
2100,1
2101,1
2102,0
2103,0
2104,0
2105,0
2106,2
2107,2
2108,2
2109,1
2110,1
2111,3
2112,3
2113,3
2114,0
2115,0
2116,0
2117,0
2118,0
2119,0
2120,6
2121,3
2122,3
2123,3
2124,3
2125,3
2126,3
2127,1
2128,1
2129,0
2130,0
2131,0
2132,0
2133,0
2134,0
2135,4
2136,1
2137,0
2138,0
2139,0
2140,0
2141,0
2142,0
2143,0
2144,0
2145,0
2146,0
2147,3
2148,3
2149,3
2150,0
2151,0
2152,0
2153,0
2154,0
2155,4
2156,0
2157,0
2158,4
2159,4
2160,4
2161,1
2162,1
2163,1
2164,5
2165,5
2166,0
2167,0
2168,2
2169,2
2170,2
2171,0
2172,0
2173,0
2174,0
2175,0
2176,0
2177,0
2178,0
2179,4
2180,4
2181,4
2182,0
2183,0
2184,5
2185,5
2186,2
2187,0
2188,0
2189,0
2190,0
2191,0
2192,0
2193,0
2194,6
2195,6
2196,6
2197,6
2198,1
2199,1
2200,0
2201,0
2202,0
2203,0
2204,0
2205,0
2206,1
2207,1
2208,2
2209,2
2210,2
2211,2
2212,1
2213,1
2214,1
2215,1
2216,1
2217,5
2218,5
2219,5
2220,0
2221,0
2222,0
2223,0
2224,0
2225,0
2226,0
2227,0
2228,0
2229,6
2230,6
2231,6
2232,7
2233,7
2234,7
2235,0
2236,0
2237,0
2238,0
2239,0
2240,0
2241,0
2242,1
2243,1
2244,1
2245,1
2246,0
2247,0
2248,0
2249,0
2250,0
2251,0
2252,0
2253,0
2254,6
2255,6
2256,6
2257,6
2258,6
2259,6
2260,6
2261,6
2262,6
2263,6
2264,3
2265,3
2266,0
2267,0
2268,0
2269,0
2270,0
2271,2
2272,2
2273,2
2274,0
2275,0
2276,0
2277,0
2278,0
2279,0
2280,0
2281,0
2282,2
2283,2
2284,2
2285,2
2286,0
2287,0
2288,4
2289,4
2290,4
2291,4
2292,0
2293,0
2294,0
2295,0
2296,6
2297,1
2298,1
2299,1
2300,3
2301,3
2302,3
2303,2
2304,2
2305,2
2306,2
2307,0
2308,0
2309,2
2310,2
2311,2
2312,2
2313,0
2314,0
2315,0
2316,0
2317,0
2318,0
2319,0
2320,0
2321,0
2322,0
2323,0
2324,0
2325,4
2326,4
2327,4
2328,1
2329,1
2330,1
2331,3
2332,3
2333,3
2334,3
2335,3
2336,3
2337,1
2338,1
2339,1
2340,1
2341,1
2342,1
2343,1
2344,2
2345,0
2346,0
2347,0
2348,0
2349,0
2350,0
2351,0
2352,0
2353,0
2354,0
2355,0
2356,0
2357,0
2358,1
2359,1
2360,1
2361,4
2362,4
2363,2
2364,2
2365,2
2366,2
2367,1
2368,1
2369,3
2370,3
2371,3
2372,3
2373,1
2374,1
2375,7
2376,6
2377,6
2378,0
2379,0
2380,0
2381,0
2382,4
2383,4
2384,8
2385,6
2386,6
2387,0
2388,0
2389,0
2390,0
2391,5
2392,5
2393,0
2394,0
2395,0
2396,0
2397,0
2398,0
2399,0
2400,0
2401,0
2402,0
2403,0
2404,0
2405,4
2406,4
2407,0
2408,0
2409,0
2410,1
2411,1
2412,1
2413,1
2414,7
2415,7
2416,2
2417,2
2418,4
2419,4
2420,0
2421,0
2422,0
2423,1
2424,1
2425,0
2426,0
2427,1
2428,5
2429,5
2430,1
2431,1
2432,1
2433,1
2434,1
2435,1
2436,1
2437,1
2438,0
2439,0
2440,0
2441,0
2442,0
2443,0
2444,0
2445,0
2446,5
2447,5
2448,0
2449,2
2450,2
2451,2
2452,1
2453,1
2454,1
2455,1
2456,0
2457,0
2458,0
2459,0
2460,0
2461,0
2462,0
2463,0
2464,1
2465,1
2466,8
2467,8
2468,7
2469,7
2470,0
2471,0
2472,0
2473,0
2474,0
2475,0
2476,4
2477,4
2478,0
2479,0
2480,5
2481,2
2482,2
2483,2
2484,8
2485,8
2486,8
2487,6
2488,6
2489,6
2490,6
2491,6
2492,6
2493,6
2494,3
2495,6
2496,6
2497,1
2498,1
2499,1
2500,0
2501,0
2502,0
2503,0
2504,0
2505,0
2506,0
2507,0
2508,0
2509,0
2510,0
2511,0
2512,0
2513,6
2514,3
2515,3
2516,0
2517,0
2518,0
2519,0
2520,0
2521,0
2522,0
2523,0
2524,0
2525,0
2526,0
2527,0
2528,0
2529,0
2530,0
2531,0
2532,1
2533,1
2534,7
2535,7
2536,7
2537,7
2538,7
2539,2
2540,2
2541,2
2542,8
2543,8
2544,8
2545,1
2546,1
2547,1
2548,1
2549,1
2550,1
2551,0
2552,0
2553,0
2554,0
2555,0
2556,0
2557,0
2558,0
2559,0
2560,0
2561,0
2562,0
2563,0
2564,0
2565,0
2566,0
2567,1
2568,1
2569,1
2570,1
2571,1
2572,0
2573,0
2574,0
2575,0
2576,0
2577,0
2578,0
2579,0
2580,0
2581,0
2582,0
2583,0
2584,0
2585,7
2586,7
2587,7
2588,7
2589,0
2590,0
2591,4
2592,0
2593,0
2594,0
2595,0
2596,0
2597,0
2598,0
2599,0
2600,0
2601,0
2602,0
2603,0
2604,0
2605,0
2606,0
2607,0
2608,4
2609,4
2610,8
2611,8
2612,8
2613,8
2614,0
2615,0
2616,0
2617,0
2618,0
2619,5
2620,5
2621,5
2622,5
2623,5
2624,5
2625,0
2626,0
2627,0
2628,0
2629,1
2630,1
2631,0
2632,0
2633,0
2634,3
2635,3
2636,3
2637,3
2638,3
2639,1
2640,1
2641,1
2642,7
2643,0
2644,0
2645,0
2646,0
2647,6
2648,4
2649,4
2650,4
2651,4
2652,4
2653,0
2654,0
2655,0
2656,0
2657,0
2658,0
2659,0
2660,0
2661,0
2662,0
2663,0
2664,0
2665,0
2666,0
2667,3
2668,1
2669,1
2670,1
2671,1
2672,1
2673,1
2674,2
2675,2
2676,7
2677,7
2678,1
2679,2
2680,2
2681,2
2682,2
2683,0
2684,0
2685,0
2686,0
2687,0
2688,0
2689,1
2690,1
2691,3
2692,3
2693,0
2694,0
2695,0
2696,0
2697,0
2698,0
2699,0
2700,0
2701,0
2702,0
2703,0
2704,0
2705,0
2706,0
2707,0
2708,0
2709,2
2710,2
2711,2
2712,2
2713,2
2714,7
2715,7
2716,1
2717,1
2718,1
2719,1
2720,1
2721,4
2722,4
2723,4
2724,4
2725,4
2726,5
2727,5
2728,0
2729,6
2730,1
2731,1
2732,1
2733,1
2734,1
2735,1
2736,1
2737,1
2738,3
2739,3
2740,3
2741,1
2742,1
2743,1
2744,7
2745,7
2746,7
2747,0
2748,0
2749,0
2750,2
2751,2
2752,2
2753,5
2754,5
2755,5
2756,0
2757,0
2758,0
2759,2
2760,2
2761,2
2762,2
2763,2
2764,2
2765,2
2766,0
2767,0
2768,0
2769,0
2770,4
2771,4
2772,4
2773,4
2774,4
2775,0
2776,0
2777,1
2778,1
2779,4
2780,4
2781,1
2782,1
2783,1
2784,6
2785,6
2786,6
2787,0
2788,0
2789,0
2790,0
2791,0
2792,5
2793,5
2794,5
2795,0
2796,0
2797,0
2798,7
2799,7
2800,7
2801,2
2802,2
2803,2
2804,1
2805,1
2806,0
2807,0
2808,0
2809,0
2810,0
2811,7
2812,7
2813,7
2814,0
2815,0
2816,0
2817,0
2818,0
2819,0
2820,0
2821,0
2822,0
2823,0
2824,0
2825,0
2826,0
2827,0
2828,0
2829,0
2830,7
2831,6
2832,6
2833,2
2834,2
2835,0
2836,0
2837,3
2838,4
2839,4
2840,4
2841,0
2842,0
2843,0
2844,2
2845,2
2846,2
2847,5
2848,5
2849,5
2850,7
2851,7
2852,2
2853,2
2854,2
2855,2
2856,2
2857,4
2858,4
2859,4
2860,4
2861,4
2862,4
2863,0
2864,0
2865,2
2866,2
2867,2
2868,2
2869,2
2870,1
2871,1
2872,1
2873,1
2874,0
2875,0
2876,0
2877,1
2878,1
2879,1
2880,1
2881,0
2882,0
2883,0
2884,0
2885,0
2886,0
2887,0
2888,3
2889,3
2890,3
2891,3
2892,3
2893,0
2894,0
2895,0
2896,3
2897,3
2898,3
2899,3
2900,0
2901,0
2902,0
2903,0
2904,1
2905,1
2906,1
2907,5
2908,5
2909,0
2910,0
2911,0
2912,0
2913,0
2914,0
2915,0
2916,1
2917,1
2918,1
2919,0
2920,0
2921,0
2922,3
2923,3
2924,3
2925,2
2926,2
2927,4
2928,4
2929,4
2930,0
2931,0
2932,4
2933,4
2934,0
2935,0
2936,0
2937,0
2938,1
2939,1
2940,1
2941,4
2942,4
2943,4
2944,4
2945,0
2946,6
2947,6
2948,6
2949,6
2950,2
2951,2
2952,2
2953,1
2954,7
2955,7
2956,7
2957,7
2958,7
2959,7
2960,7
2961,0
2962,0
2963,0
2964,0
2965,1
2966,1
2967,0
2968,0
2969,0
2970,2
2971,2
2972,2
2973,2
2974,2
2975,0
2976,0
2977,0
2978,0
2979,0
2980,0
2981,0
2982,0
2983,0
2984,1
2985,1
2986,1
2987,2
2988,2
2989,2
2990,2
2991,0
2992,0
2993,0
2994,0
2995,0
2996,0
2997,0
2998,0
2999,0
3000,0
3001,0
3002,0
3003,0
3004,0
3005,0
3006,0
3007,0
3008,0
3009,0
3010,0
3011,0
3012,0
3013,0
3014,0
3015,0
3016,0
3017,0
3018,0
3019,0
3020,0
3021,0
3022,0
3023,0
3024,0
3025,0
3026,0
3027,0
3028,0
3029,0
3030,0
3031,0
3032,0
3033,0
3034,0
3035,0
3036,0
3037,0
3038,2
3039,2
3040,2
3041,4
3042,4
3043,4
3044,0
3045,0
3046,0
3047,0
3048,0
3049,0
3050,0
3051,0
3052,0
3053,0
3054,0
3055,0
3056,0
3057,0
3058,0
3059,0
3060,0
3061,0
3062,0
3063,0
3064,3
3065,3
3066,3
3067,0
3068,0
3069,0
3070,0
3071,0
3072,3
3073,3
3074,3
3075,3
3076,3
3077,3
3078,5
3079,5
3080,0
3081,0
3082,0
3083,0
3084,1
3085,1
3086,1
3087,1
3088,1
3089,4
3090,4
3091,4
3092,0
3093,0
3094,0
3095,0
3096,0
3097,1
3098,1
3099,1
3100,1
3101,1
3102,1
3103,1
3104,3
3105,3
3106,8
3107,8
3108,8
3109,2
3110,2
3111,2
3112,8
3113,8
3114,4
3115,4
3116,4
3117,4
3118,4
3119,0
3120,0
3121,0
3122,0
3123,0
3124,3
3125,3
3126,3
3127,3
3128,2
3129,3
3130,1
3131,1
3132,1
3133,1
3134,2
3135,6
3136,6
3137,6
3138,6
3139,2
3140,2
3141,2
3142,8
3143,8
3144,8
3145,8
3146,0
3147,0
3148,0
3149,0
3150,8
3151,8
3152,0
3153,2
3154,2
3155,4
3156,4
3157,4
3158,4
3159,4
3160,1
3161,1
3162,1
3163,1
3164,0
3165,0
3166,0
3167,0
3168,1
3169,1
3170,1
3171,0
3172,0
3173,0
3174,0
3175,0
3176,0
3177,0
3178,0
3179,0
3180,1
3181,1
3182,0
3183,1
3184,0
3185,0
3186,0
3187,0
3188,0
3189,0
3190,0
3191,2
3192,2
3193,2
3194,2
3195,1
3196,1
3197,1
3198,0
3199,0
3200,2
3201,2
3202,2
3203,0
3204,0
3205,0
3206,0
3207,0
3208,1
3209,0
3210,0
3211,0
3212,2
3213,2
3214,2
3215,2
3216,2
3217,0
3218,0
3219,0
3220,0
3221,0
3222,1
3223,1
3224,0
3225,0
3226,0
3227,0
3228,0
3229,4
3230,4
3231,7
3232,7
3233,7
3234,2
3235,2
3236,2
3237,1
3238,1
3239,1
3240,3
3241,6
3242,6
3243,6
3244,6
3245,6
3246,0
3247,0
3248,3
3249,3
3250,3
3251,3
3252,3
3253,2
3254,2
3255,2
3256,2
3257,0
3258,0
3259,0
3260,0
3261,0
3262,1
3263,1
3264,4
3265,4
3266,4
3267,1
3268,1
3269,1
3270,0
3271,0
3272,0
3273,2
3274,2
3275,1
3276,2
3277,2
3278,0
3279,0
3280,0
3281,0
3282,8
3283,8
3284,8
3285,0
3286,0
3287,0
3288,0
3289,1
3290,1
3291,1
3292,4
3293,4
3294,0
3295,0
3296,0
3297,0
3298,0
3299,0
3300,0
3301,0
3302,0
3303,0
3304,0
3305,0
3306,7
3307,7
3308,0
3309,0
3310,0
3311,0
3312,1
3313,1
3314,0
3315,0
3316,0
3317,0
3318,0
3319,0
3320,1
3321,1
3322,1
3323,1
3324,1
3325,6
3326,6
3327,0
3328,4
3329,4
3330,4
3331,4
3332,3
3333,3
3334,3
3335,2
3336,2
3337,2
3338,2
3339,2
3340,2
3341,1
3342,1
3343,1
3344,0
3345,0
3346,3
3347,3
3348,3
3349,0
3350,0
3351,0
3352,0
3353,0
3354,0
3355,0
3356,2
3357,2
3358,6
3359,6
3360,6
3361,6
3362,6
3363,6
3364,2
3365,2
3366,2
3367,1
3368,1
3369,1
3370,0
3371,0
3372,0
3373,0
3374,0
3375,0
3376,0
3377,0
3378,0
3379,0
3380,0
3381,1
3382,1
3383,1
3384,1
3385,1
3386,1
3387,1
3388,6
3389,6
3390,4
3391,4
3392,4
3393,4
3394,2
3395,2
3396,2
3397,4
3398,4
3399,4
3400,1
3401,0
3402,6
3403,6
3404,6
3405,3
3406,3
3407,4
3408,0
3409,0
3410,0
3411,0
3412,0
3413,7
3414,1
3415,1
3416,1
3417,1
3418,0
3419,0
3420,0
3421,0
3422,0
3423,1
3424,1
3425,1
3426,6
3427,6
3428,6
3429,1
3430,1
3431,0
3432,0
3433,3
3434,3
3435,3
3436,0
3437,0
3438,0
3439,0
3440,0
3441,0
3442,0
3443,0
3444,0
3445,0
3446,0
3447,0
3448,0
3449,0
3450,0
3451,7
3452,7
3453,3
3454,3
3455,3
3456,3
3457,3
3458,5
3459,5
3460,0
3461,0
3462,0
3463,4
3464,4
3465,4
3466,1
3467,1
3468,1
3469,0
3470,0
3471,0
3472,1
3473,0
3474,8
3475,0
3476,0
3477,0
3478,0
3479,0
3480,0
3481,0
3482,0
3483,5
3484,5
3485,8
3486,8
3487,8
3488,0
3489,0
3490,0
3491,0
3492,0
3493,0
3494,0
3495,0
3496,0
3497,6
3498,6
3499,6
3500,0
3501,0
3502,0
3503,0
3504,1
3505,1
3506,1
3507,0
3508,0
3509,0
3510,0
3511,0
3512,0
3513,0
3514,0
3515,0
3516,0
3517,0
3518,0
3519,0
3520,0
3521,0
3522,0
3523,0
3524,0
3525,5
3526,5
3527,4
3528,4
3529,4
3530,0
3531,0
3532,0
3533,0
3534,0
3535,0
3536,0
3537,0
3538,0
3539,0
3540,0
3541,0
3542,0
3543,0
3544,0
3545,0
3546,0
3547,0
3548,0
3549,0
3550,0
3551,0
3552,0
3553,7
3554,7
3555,2
3556,2
3557,2
3558,2
3559,2
3560,1
3561,1
3562,1
3563,1
3564,1
3565,1
3566,1
3567,0
3568,0
3569,0
3570,0
3571,0
3572,0
3573,2
3574,2
3575,2
3576,3
3577,3
3578,4
3579,4
3580,4
3581,4
3582,4
3583,4
3584,4
3585,4
3586,5
3587,5
3588,5
3589,5
3590,5
3591,5
3592,3
3593,3
3594,3
3595,0
3596,0
3597,8
3598,8
3599,8
3600,8
3601,8
3602,0
3603,0
3604,0
3605,0
3606,1
3607,1
3608,0
3609,0
3610,0
3611,0
3612,0
3613,0
3614,0
3615,4
3616,4
3617,4
3618,1
3619,5
3620,5
3621,5
3622,5
3623,3
3624,3
3625,3
3626,3
3627,0
3628,0
3629,0
3630,0
3631,0
3632,0
3633,1
3634,1
3635,3
3636,3
3637,0
3638,0
3639,0
3640,1
3641,1
3642,1
3643,1
3644,1
3645,1
3646,1
3647,1
3648,0
3649,5
3650,5
3651,5
3652,4
3653,4
3654,4
3655,4
3656,0
3657,4
3658,0
3659,0
3660,0
3661,2
3662,2
3663,1
3664,1
3665,1
3666,1
3667,1
3668,1
3669,1
3670,0
3671,3
3672,3
3673,3
3674,7
3675,7
3676,7
3677,7
3678,2
3679,2
3680,7
3681,7
3682,2
3683,2
3684,2
3685,6
3686,6
3687,6
3688,1
3689,1
3690,1
3691,1
3692,0
3693,3
3694,3
3695,3
3696,3
3697,3
3698,3
3699,3
3700,1
3701,0
3702,0
3703,0
3704,0
3705,0
3706,0
3707,0
3708,0
3709,2
3710,2
3711,2
3712,1
3713,1
3714,1
3715,1
3716,0
3717,0
3718,1
3719,1
3720,1
3721,1
3722,1
3723,1
3724,7
3725,7
3726,7
3727,7
3728,7
3729,7
3730,0
3731,0
3732,0
3733,0
3734,0
3735,0
3736,0
3737,0
3738,5
3739,5
3740,5
3741,5
3742,5
3743,0
3744,0
3745,0
3746,0
3747,0
3748,0
3749,0
3750,0
3751,5
3752,5
3753,0
3754,0
3755,0
3756,0
3757,0
3758,0
3759,0
3760,0
3761,0
3762,4
3763,4
3764,8
3765,8
3766,8
3767,1
3768,1
3769,1
3770,0
3771,0
3772,0
3773,0
3774,0
3775,0
3776,0
3777,0
3778,0
3779,7
3780,7
3781,7
3782,7
3783,1
3784,1
3785,0
3786,0
3787,0
3788,0
3789,0
3790,0
3791,0
3792,0
3793,0
3794,0
3795,0
3796,0
3797,0
3798,0
3799,0
3800,0
3801,0
3802,0
3803,3
3804,3
3805,1
3806,1
3807,0
3808,0
3809,0
3810,2
3811,2
3812,2
3813,2
3814,1
3815,1
3816,1
3817,0
3818,0
3819,0
3820,0
3821,5
3822,5
3823,0
3824,0
3825,0
3826,1
3827,0
3828,0
3829,0
3830,0
3831,2
3832,1
3833,0
3834,0
3835,1
3836,2
3837,2
3838,2
3839,2
3840,2
3841,2
3842,2
3843,2
3844,0
3845,0
3846,0
3847,0
3848,0
3849,0
3850,0
3851,2
3852,3
3853,3
3854,3
3855,0
3856,0
3857,0
3858,0
3859,0
3860,1
3861,7
3862,7
3863,7
3864,7
3865,7
3866,0
3867,0
3868,0
3869,0
3870,0
3871,3
3872,3
3873,5
3874,5
3875,5
3876,0
3877,0
3878,0
3879,0
3880,0
3881,0
3882,3
3883,3
3884,3
3885,3
3886,3
3887,5
3888,5
3889,5
3890,5
3891,5
3892,1
3893,1
3894,1
3895,1
3896,2
3897,2
3898,0
3899,0
3900,4
3901,1
3902,2
3903,2
3904,1
3905,1
3906,1
3907,0
3908,0
3909,0
3910,0
3911,0
3912,0
3913,0
3914,0
3915,3
3916,3
3917,3
3918,3
3919,2
3920,2
3921,2
3922,0
3923,0
3924,0
3925,0
3926,0
3927,0
3928,0
3929,1
3930,1
3931,1
3932,0
3933,0
3934,0
3935,0
3936,0
3937,0
3938,0
3939,0
3940,4
3941,4
3942,4
3943,4
3944,5
3945,2
3946,0
3947,0
3948,0
3949,0
3950,0
3951,0
3952,0
3953,0
3954,0
3955,0
3956,0
3957,0
3958,3
3959,3
3960,1
3961,1
3962,1
3963,1
3964,1
3965,1
3966,0
3967,0
3968,2
3969,2
3970,0
3971,0
3972,0
3973,0
3974,0
3975,0
3976,2
3977,2
3978,2
3979,0
3980,0
3981,0
3982,0
3983,0
3984,6
3985,6
3986,4
3987,4
3988,4
3989,4
3990,4
3991,1
3992,1
3993,1
3994,0
3995,0
3996,0
3997,2
3998,2
3999,2
4000,2
4001,2
4002,2
4003,6
4004,6
4005,6
4006,3
4007,0
4008,0
4009,0
4010,0
4011,0
4012,5
4013,5
4014,5
4015,5
4016,5
4017,5
4018,0
4019,0
4020,0
4021,0
4022,0
4023,0
4024,1
4025,1
4026,1
4027,1
4028,0
4029,0
4030,0
4031,0
4032,0
4033,0
4034,3
4035,3
4036,0
4037,0
4038,0
4039,0
4040,0
4041,0
4042,0
4043,0
4044,0
4045,0
4046,0
4047,6
4048,6
4049,6
4050,1
4051,1
4052,1
4053,1
4054,1
4055,0
4056,0
4057,2
4058,4
4059,4
4060,4
4061,4
4062,4
4063,4
4064,4
4065,4
4066,4
4067,2
4068,2
4069,2
4070,6
4071,6
4072,6
4073,0
4074,0
4075,1
4076,1
4077,1
4078,1
4079,2
4080,2
4081,2
4082,2
4083,2
4084,2
4085,2
4086,0
4087,0
4088,0
4089,0
4090,0
4091,0
4092,0
4093,0
4094,0
4095,0
4096,0
4097,4
4098,4
4099,0
4100,0
4101,0
4102,0
4103,0
4104,0
4105,0
4106,7
4107,7
4108,7
4109,1
4110,1
4111,2
4112,2
4113,2
4114,2
4115,2
4116,7
4117,7
4118,7
4119,7
4120,7
4121,4
4122,4
4123,4
4124,4
4125,8
4126,8
4127,8
4128,8
4129,0
4130,0
4131,0
4132,0
4133,0
4134,0
4135,0
4136,0
4137,3
4138,3
4139,3
4140,3
4141,0
4142,0
4143,0
4144,0
4145,0
4146,5
4147,4
4148,2
4149,2
4150,2
4151,2
4152,3
4153,3
4154,3
4155,7
4156,7
4157,7
4158,7
4159,0
4160,0
4161,1
4162,1
4163,0
4164,1
4165,7
4166,7
4167,7
4168,0
4169,1
4170,1
4171,1
4172,1
4173,1
4174,1
4175,1
4176,1
4177,7
4178,7
4179,7
4180,7
4181,7
4182,2
4183,2
4184,2
4185,0
4186,0
4187,0
4188,1
4189,1
4190,0
4191,0
4192,6
4193,6
4194,6
4195,0
4196,0
4197,0
4198,0
4199,0
4200,3
4201,0
4202,0
4203,0
4204,0
4205,0
4206,0
4207,0
4208,1
4209,4
4210,4
4211,4
4212,0
4213,8
4214,8
4215,8
4216,8
4217,8
4218,8
4219,6
4220,6
4221,1
4222,1
4223,3
4224,3
4225,0
4226,0
4227,1
4228,1
4229,1
4230,6
4231,6
4232,6
4233,0
4234,0
4235,0
4236,5
4237,5
4238,5
4239,1
4240,1
4241,2
4242,2
4243,2
4244,3
4245,3
4246,3
4247,6
4248,6
4249,6
4250,5
4251,5
4252,5
4253,6
4254,6
4255,6
4256,5
4257,5
4258,5
4259,5
4260,0
4261,0
4262,0
4263,0
4264,0
4265,0
4266,0
4267,7
4268,7
4269,7
4270,7
4271,5
4272,5
4273,0
4274,0
4275,0
4276,0
4277,1
4278,1
4279,2
4280,2
4281,2
4282,8
4283,8
4284,0
4285,0
4286,0
4287,0
4288,1
4289,0
4290,0
4291,0
4292,2
4293,2
4294,2
4295,2
4296,0
4297,0
4298,0
4299,1
4300,1
4301,1
4302,1
4303,1
4304,1
4305,1
4306,2
4307,2
4308,2
4309,0
4310,0
4311,0
4312,0
4313,0
4314,0
4315,0
4316,0
4317,5
4318,5
4319,0
4320,0
4321,0
4322,8
4323,8
4324,8
4325,8
4326,3
4327,3
4328,4
4329,4
4330,4
4331,4
4332,0
4333,0
4334,2
4335,2
4336,2
4337,3
4338,3
4339,0
4340,0
4341,0
4342,0
4343,0
4344,0
4345,0
4346,0
4347,0
4348,0
4349,0
4350,0
4351,0
4352,0
4353,1
4354,1
4355,1
4356,2
4357,2
4358,2
4359,2
4360,1
4361,1
4362,1
4363,0
4364,3
4365,3
4366,3
4367,0
4368,0
4369,0
4370,0
4371,0
4372,0
4373,0
4374,2
4375,2
4376,0
4377,0
4378,0
4379,0
4380,0
4381,0
4382,0
4383,0
4384,0
4385,0
4386,0
4387,0
4388,0
4389,0
4390,0
4391,0
4392,0
4393,0
4394,0
4395,0
4396,0
4397,0
4398,1
4399,1
4400,1
4401,1
4402,1
4403,1
4404,1
4405,1
4406,0
4407,0
4408,0
4409,0
4410,0
4411,0
4412,0
4413,0
4414,8
4415,8
4416,5
4417,5
4418,3
4419,5
4420,5
4421,5
4422,5
4423,2
4424,2
4425,2
4426,2
4427,2
4428,0
4429,0
4430,0
4431,0
4432,0
4433,0
4434,2
4435,2
4436,2
4437,2
4438,5
4439,0
4440,0
4441,0
4442,0
4443,0
4444,0
4445,0
4446,0
4447,0
4448,0
4449,0
4450,0
4451,3
4452,1
4453,1
4454,1
4455,1
4456,1
4457,1
4458,1
4459,4
4460,4
4461,4
4462,3
4463,3
4464,2
4465,2
4466,2
4467,2
4468,2
4469,1
4470,1
4471,1
4472,1
4473,1
4474,0
4475,0
4476,0
4477,0
4478,0
4479,0
4480,0
4481,0
4482,0
4483,0
4484,0
4485,0
4486,0
4487,3
4488,3
4489,3
4490,0
4491,0
4492,0
4493,0
4494,0
4495,0
4496,0
4497,0
4498,3
4499,3
4500,3
4501,3
4502,0
4503,0
4504,0
4505,4
4506,4
4507,4
4508,3
4509,3
4510,3
4511,3
4512,4
4513,0
4514,0
4515,0
4516,3
4517,3
4518,3
4519,1
4520,1
4521,7
4522,2
4523,2
4524,8
4525,8
4526,8
4527,0
4528,0
4529,0
4530,7
4531,7
4532,7
4533,7
4534,0
4535,0
4536,0
4537,0
4538,0
4539,0
4540,3
4541,3
4542,3
4543,3
4544,1
4545,1
4546,8
4547,8
4548,8
4549,8
4550,0
4551,0
4552,0
4553,0
4554,0
4555,0
4556,0
4557,0
4558,0
4559,0
4560,0
4561,0
4562,5
4563,5
4564,5
4565,5
4566,5
4567,0
4568,0
4569,1
4570,1
4571,1
4572,0
4573,0
4574,2
4575,2
4576,2
4577,2
4578,2
4579,1
4580,1
4581,1
4582,1
4583,8
4584,6
4585,6
4586,6
4587,6
4588,4
4589,5
4590,5
4591,0
4592,0
4593,2
4594,2
4595,2
4596,2
4597,2
4598,3
4599,5
4600,5
4601,5
4602,5
4603,0
4604,0
4605,0
4606,0
4607,0
4608,1
4609,1
4610,1
4611,1
4612,1
4613,2
4614,2
4615,4
4616,4
4617,0
4618,0
4619,0
4620,0
4621,0
4622,6
4623,6
4624,6
4625,6
4626,3
4627,8
4628,8
4629,8
4630,2
4631,1
4632,1
4633,1
4634,1
4635,1
4636,1
4637,1
4638,0
4639,0
4640,0
4641,0
4642,0
4643,3
4644,3
4645,3
4646,3
4647,0
4648,0
4649,0
4650,0
4651,0
4652,0
4653,0
4654,0
4655,0
4656,2
4657,2
4658,2
4659,2
4660,2
4661,0
4662,0
4663,2
4664,2
4665,2
4666,3
4667,3
4668,1
4669,1
4670,0
4671,0
4672,0
4673,7
4674,7
4675,7
4676,6
4677,6
4678,1
4679,1
4680,1
4681,1
4682,0
4683,0
4684,0
4685,1
4686,1
4687,1
4688,0
4689,0
4690,0
4691,0
4692,0
4693,0
4694,0
4695,0
4696,0
4697,0
4698,0
4699,0
4700,0
4701,2
4702,2
4703,2
4704,2
4705,2
4706,2
4707,2
4708,1
4709,1
4710,1
4711,0
4712,0
4713,0
4714,0
4715,0
4716,0
4717,0
4718,5
4719,5
4720,5
4721,5
4722,1
4723,1
4724,1
4725,1
4726,1
4727,2
4728,7
4729,7
4730,2
4731,2
4732,3
4733,3
4734,0
4735,0
4736,0
4737,0
4738,0
4739,0
4740,0
4741,3
4742,3
4743,3
4744,4
4745,4
4746,4
4747,3
4748,3
4749,1
4750,1
4751,1
4752,2
4753,2
4754,2
4755,2
4756,0
4757,0
4758,0
4759,1
4760,1
4761,1
4762,1
4763,0
4764,0
4765,0
4766,0
4767,0
4768,1
4769,1
4770,1
4771,1
4772,1
4773,1
4774,2
4775,2
4776,0
4777,0
4778,2
4779,1
4780,1
4781,1
4782,0
4783,0
4784,8
4785,8
4786,8
4787,8
4788,8
4789,1
4790,1
4791,0
4792,0
4793,0
4794,0
4795,0
4796,0
4797,0
4798,0
4799,0
4800,0
4801,0
4802,0
4803,2
4804,2
4805,2
4806,2
4807,2
4808,1
4809,1
4810,1
4811,1
4812,0
4813,0
4814,0
4815,0
4816,0
4817,0
4818,0
4819,0
4820,0
4821,0
4822,0
4823,0
4824,0
4825,0
4826,0
4827,0
4828,5
4829,5
4830,5
4831,0
4832,0
4833,0
4834,2
4835,2
4836,2
4837,7
4838,7
4839,7
4840,7
4841,0
4842,0
4843,0
4844,0
4845,0
4846,0
4847,3
4848,3
4849,3
4850,0
4851,0
4852,1
4853,1
4854,1
4855,0
4856,0
4857,0
4858,0
4859,0
4860,0
4861,0
4862,0
4863,5
4864,5
4865,5
4866,0
4867,0
4868,2
4869,2
4870,2
4871,2
4872,2
4873,1
4874,1
4875,1
4876,1
4877,0
4878,0
4879,0
4880,0
4881,0
4882,0
4883,0
4884,0
4885,0
4886,7
4887,4
4888,4
4889,4
4890,0
4891,0
4892,0
4893,0
4894,0
4895,0
4896,0
4897,0
4898,0
4899,0
4900,1
4901,1
4902,1
4903,1
4904,5
4905,5
4906,5
4907,5
4908,5
4909,3
4910,3
4911,3
4912,5
4913,5
4914,0
4915,0
4916,0
4917,0
4918,0
4919,0
4920,0
4921,0
4922,5
4923,5
4924,5
4925,0
4926,0
4927,8
4928,8
4929,8
4930,0
4931,0
4932,0
4933,0
4934,0
4935,0
4936,0
4937,0
4938,0
4939,0
4940,0
4941,0
4942,5
4943,5
4944,5
4945,5
4946,5
4947,2
4948,2
4949,2
4950,2
4951,0
4952,0
4953,2
4954,2
4955,2
4956,2
4957,3
4958,3
4959,6
4960,6
4961,6
4962,6
4963,6
4964,0
4965,0
4966,0
4967,0
4968,0
4969,0
4970,0
4971,0
4972,0
4973,0
4974,0
4975,5
4976,5
4977,5
4978,5
4979,5
4980,5
4981,5
4982,5
4983,5
4984,0
4985,0
4986,0
4987,0
4988,1
4989,1
4990,2
4991,2
4992,0
4993,0
4994,0
4995,5
4996,5
4997,5
4998,5
4999,0
5000,0
5001,0
5002,0
5003,3
5004,2
5005,2
5006,2
5007,7
5008,7
5009,7
5010,2
5011,2
5012,2
5013,2
5014,0
5015,0
5016,0
5017,0
5018,0
5019,0
5020,0
5021,0
5022,0
5023,0
5024,0
5025,1
5026,1
5027,1
5028,1
5029,0
5030,0
5031,0
5032,0
5033,0
5034,0
5035,0
5036,0
5037,0
5038,2
5039,2
5040,2
5041,6
5042,6
5043,6
5044,6
5045,1
5046,1
5047,0
5048,0
5049,0
5050,5
5051,5
5052,5
5053,2
5054,2
5055,2
5056,7
5057,7
5058,7
5059,7
5060,7
5061,7
5062,0
5063,0
5064,0
5065,1
5066,1
5067,1
5068,1
5069,1
5070,1
5071,1
5072,1
5073,1
5074,2
5075,2
5076,2
5077,2
5078,2
5079,0
5080,0
5081,0
5082,0
5083,0
5084,0
5085,7
5086,7
5087,7
5088,7
5089,7
5090,2
5091,2
5092,2
5093,2
5094,0
5095,0
5096,0
5097,0
5098,6
5099,4
5100,4
5101,4
5102,2
5103,2
5104,3
5105,3
5106,3
5107,3
5108,3
5109,3
5110,3
5111,0
5112,0
5113,0
5114,0
5115,0
5116,0
5117,0
5118,1
5119,1
5120,1
5121,2
5122,2
5123,2
5124,0
5125,0
5126,0
5127,0
5128,0
5129,0
5130,0
5131,0
5132,0
5133,0
5134,6
5135,6
5136,2
5137,2
5138,2
5139,2
5140,2
5141,6
5142,6
5143,1
5144,1
5145,1
5146,0
5147,5
5148,6
5149,6
5150,6
5151,6
5152,1
5153,4
5154,4
5155,4
5156,4
5157,4
5158,0
5159,0
5160,0
5161,0
5162,1
5163,1
5164,1
5165,7
5166,7
5167,7
5168,1
5169,0
5170,1
5171,1
5172,1
5173,4
5174,4
5175,0
5176,0
5177,0
5178,0
5179,0
5180,0
5181,0
5182,0
5183,0
5184,0
5185,2
5186,2
5187,2
5188,2
5189,4
5190,4
5191,4
5192,4
5193,0
5194,1
5195,1
5196,1
5197,4
5198,4
5199,1
5200,1
5201,1
5202,6
5203,6
5204,6
5205,1
5206,1
5207,1
5208,1
5209,1
5210,1
5211,0
5212,0
5213,0
5214,0
5215,0
5216,0
5217,0
5218,0
5219,1
5220,1
5221,2
5222,2
5223,0
5224,0
5225,0
5226,0
5227,0
5228,0
5229,0
5230,0
5231,0
5232,2
5233,1
5234,5
5235,5
5236,5
5237,0
5238,0
5239,0
5240,1
5241,1
5242,1
5243,1
5244,0
5245,0
5246,0
5247,0
5248,0
5249,0
5250,0
5251,0
5252,0
5253,0
5254,0
5255,0
5256,0
5257,3
5258,0
5259,0
5260,0
5261,3
5262,3
5263,1
5264,1
5265,4
5266,0
5267,0
5268,0
5269,0
5270,0
5271,0
5272,0
5273,0
5274,0
5275,0
5276,0
5277,0
5278,0
5279,0
5280,0
5281,3
5282,3
5283,1
5284,1
5285,1
5286,1
5287,1
5288,0
5289,0
5290,0
5291,0
5292,5
5293,1
5294,1
5295,1
5296,1
5297,1
5298,1
5299,7
5300,7
5301,7
5302,0
5303,0
5304,0
5305,0
5306,0
5307,0
5308,1
5309,4
5310,4
5311,4
5312,5
5313,5
5314,5
5315,0
5316,0
5317,0
5318,0
5319,0
5320,1
5321,1
5322,1
5323,3
5324,3
5325,3
5326,3
5327,3
5328,3
5329,0
5330,0
5331,5
5332,3
5333,0
5334,0
5335,2
5336,2
5337,2
5338,2
5339,2
5340,0
5341,1
5342,1
5343,1
5344,1
5345,0
5346,0
5347,0
5348,0
5349,3
5350,3
5351,3
5352,3
5353,3
5354,3
5355,0
5356,0
5357,0
5358,0
5359,0
5360,0
5361,0
5362,0
5363,1
5364,1
5365,1
5366,0
5367,0
5368,0
5369,0
5370,0
5371,2
5372,2
5373,0
5374,0
5375,0
5376,0
5377,0
5378,0
5379,8
5380,8
5381,8
5382,8
5383,8
5384,4
5385,4
5386,4
5387,0
5388,0
5389,0
5390,0
5391,2
5392,2
5393,1
5394,1
5395,1
5396,4
5397,4
5398,4
5399,4
5400,4
5401,1
5402,1
5403,1
5404,1
5405,1
5406,1
5407,1
5408,0
5409,0
5410,0
5411,0
5412,1
5413,1
5414,1
5415,1
5416,3
5417,3
5418,3
5419,3
5420,3
5421,6
5422,3
5423,3
5424,3
5425,0
5426,0
5427,0
5428,0
5429,5
5430,5
5431,0
5432,0
5433,0
5434,0
5435,0
5436,0
5437,7
5438,7
5439,7
5440,7
5441,3
5442,3
5443,3
5444,3
5445,0
5446,0
5447,0
5448,0
5449,0
5450,0
5451,0
5452,1
5453,1
5454,0
5455,0
5456,6
5457,6
5458,6
5459,6
5460,1
5461,1
5462,3
5463,3
5464,3
5465,3
5466,0
5467,0
5468,0
5469,0
5470,0
5471,0
5472,0
5473,0
5474,0
5475,0
5476,2
5477,2
5478,2
5479,0
5480,0
5481,0
5482,0
5483,0
5484,0
5485,3
5486,3
5487,0
5488,0
5489,0
5490,0
5491,3
5492,3
5493,3
5494,3
5495,6
5496,6
5497,6
5498,5
5499,5
5500,5
5501,5
5502,0
5503,0
5504,0
5505,0
5506,0
5507,1
5508,1
5509,1
5510,1
5511,1
5512,1
5513,1
5514,1
5515,1
5516,3
5517,6
5518,6
5519,6
5520,0
5521,1
5522,1
5523,1
5524,1
5525,2
5526,2
5527,2
5528,2
5529,2
5530,2
5531,0
5532,1
5533,1
5534,1
5535,1
5536,0
5537,0
5538,0
5539,0
5540,0
5541,0
5542,3
5543,3
5544,3
5545,3
5546,3
5547,3
5548,3
5549,3
5550,3
5551,3
5552,3
5553,0
5554,0
5555,0
5556,6
5557,6
5558,0
5559,0
5560,0
5561,0
5562,0
5563,0
5564,0
5565,0
5566,1
5567,1
5568,0
5569,0
5570,0
5571,0
5572,0
5573,0
5574,0
5575,0
5576,0
5577,0
5578,0
5579,0
5580,0
5581,3
5582,3
5583,3
5584,1
5585,1
5586,1
5587,1
5588,1
5589,2
5590,2
5591,2
5592,3
5593,0
5594,0
5595,0
5596,0
5597,0
5598,1
5599,7
5600,7
5601,0
5602,0
5603,0
5604,0
5605,0
5606,0
5607,0
5608,0
5609,0
5610,0
5611,0
5612,0
5613,2
5614,2
5615,2
5616,7
5617,7
5618,4
5619,4
5620,4
5621,4
5622,4
5623,1
5624,1
5625,1
5626,0
5627,0
5628,0
5629,1
5630,1
5631,1
5632,1
5633,1
5634,1
5635,0
5636,0
5637,0
5638,4
5639,0
5640,0
5641,0
5642,0
5643,0
5644,0
5645,0
5646,0
5647,0
5648,0
5649,5
5650,5
5651,1
5652,1
5653,0
5654,0
5655,0
5656,0
5657,0
5658,0
5659,0
5660,0
5661,0
5662,0
5663,0
5664,0
5665,0
5666,0
5667,0
5668,0
5669,0
5670,0
5671,4
5672,4
5673,7
5674,7
5675,0
5676,0
5677,0
5678,0
5679,6
5680,6
5681,6
5682,6
5683,1
5684,1
5685,3
5686,3
5687,0
5688,0
5689,0
5690,0
5691,0
5692,0
5693,0
5694,6
5695,0
5696,0
5697,0
5698,2
5699,2
5700,2
5701,2
5702,2
5703,2
5704,2
5705,0
5706,0
5707,0
5708,6
5709,6
5710,6
5711,6
5712,6
5713,6
5714,6
5715,4
5716,0
5717,0
5718,0
5719,8
5720,8
5721,8
5722,8
5723,8
5724,2
5725,2
5726,2
5727,0
5728,0
5729,0
5730,0
5731,0
5732,0
5733,0
5734,0
5735,1
5736,1
5737,3
5738,3
5739,0
5740,0
5741,0
5742,2
5743,2
5744,2
5745,0
5746,0
5747,0
5748,0
5749,0
5750,0
5751,0
5752,0
5753,0
5754,2
5755,2
5756,0
5757,0
5758,0
5759,4
5760,0
5761,0
5762,3
5763,2
5764,2
5765,7
5766,3
5767,3
5768,4
5769,4
5770,4
5771,7
5772,0
5773,0
5774,0
5775,0
5776,0
5777,0
5778,0
5779,3
5780,3
5781,1
5782,1
5783,1
5784,0
5785,0
5786,0
5787,0
5788,0
5789,0
5790,0
5791,0
5792,1
5793,1
5794,0
5795,0
5796,0
5797,2
5798,2
5799,2
5800,0
5801,0
5802,0
5803,4
5804,4
5805,4
5806,2
5807,1
5808,1
5809,1
5810,1
5811,1
5812,1
5813,2
5814,2
5815,2
5816,2
5817,0
5818,0
5819,0
5820,0
5821,0
5822,5
5823,0
5824,0
5825,0
5826,2
5827,2
5828,2
5829,3
5830,3
5831,3
5832,3
5833,2
5834,4
5835,1
5836,1
5837,0
5838,0
5839,1
5840,1
5841,1
5842,1
5843,3
5844,3
5845,3
5846,6
5847,1
5848,1
5849,1
5850,1
5851,1
5852,1
5853,0
5854,0
5855,0
5856,3
5857,3
5858,0
5859,0
5860,0
5861,0
5862,0
5863,0
5864,8
5865,8
5866,0
5867,6
5868,6
5869,3
5870,3
5871,0
5872,0
5873,0
5874,0
5875,0
5876,0
5877,0
5878,0
5879,0
5880,0
5881,0
5882,0
5883,0
5884,0
5885,1
5886,1
5887,1
5888,1
5889,1
5890,1
5891,0
5892,0
5893,2
5894,2
5895,2
5896,0
5897,0
5898,0
5899,0
5900,0
5901,0
5902,0
5903,0
5904,0
5905,0
5906,0
5907,0
5908,0
5909,0
5910,0
5911,0
5912,0
5913,0
5914,0
5915,0
5916,1
5917,1
5918,0
5919,0
5920,0
5921,0
5922,3
5923,8
5924,8
5925,0
5926,4
5927,4
5928,4
5929,4
5930,1
5931,1
5932,2
5933,2
5934,2
5935,2
5936,2
5937,2
5938,0
5939,0
5940,0
5941,0
5942,0
5943,0
5944,3
5945,3
5946,3
5947,2
5948,1
5949,1
5950,1
5951,1
5952,1
5953,0
5954,0
5955,0
5956,0
5957,5
5958,2
5959,2
5960,2
5961,0
5962,0
5963,0
5964,0
5965,0
5966,0
5967,0
5968,0
5969,1
5970,0
5971,0
5972,0
5973,0
5974,0
5975,0
5976,1
5977,1
5978,1
5979,1
5980,3
5981,3
5982,3
5983,3
5984,3
5985,0
5986,0
5987,0
5988,6
5989,6
5990,6
5991,1
5992,1
5993,1
5994,1
5995,0
5996,0
5997,0
5998,6
5999,6
6000,6
6001,0
6002,0
6003,0
6004,0
6005,3
6006,0
6007,0
6008,1
6009,1
6010,2
6011,2
6012,3
6013,2
6014,2
6015,2
6016,2
6017,1
6018,1
6019,2
6020,2
6021,7
6022,7
6023,7
6024,7
6025,7
6026,0
6027,0
6028,0
6029,0
6030,0
6031,0
6032,0
6033,0
6034,0
6035,1
6036,3
6037,3
6038,3
6039,0
6040,0
6041,0
6042,0
6043,3
6044,3
6045,1
6046,1
6047,1
6048,7
6049,7
6050,7
6051,7
6052,7
6053,7
6054,7
6055,0
6056,0
6057,0
6058,0
6059,0
6060,0
6061,0
6062,0
6063,0
6064,0
6065,0
6066,0
6067,0
6068,1
6069,1
6070,1
6071,1
6072,0
6073,0
6074,0
6075,0
6076,0
6077,0
6078,0
6079,0
6080,0
6081,0
6082,3
6083,3
6084,5
6085,5
6086,5
6087,5
6088,0
6089,0
6090,0
6091,0
6092,0
6093,0
6094,0
6095,1
6096,1
6097,1
6098,1
6099,1
6100,2
6101,2
6102,1
6103,1
6104,1
6105,1
6106,1
6107,0
6108,5
6109,5
6110,2
6111,2
6112,2
6113,3
6114,3
6115,3
6116,3
6117,8
6118,8
6119,1
6120,1
6121,1
6122,1
6123,4
6124,1
6125,1
6126,0
6127,0
6128,0
6129,2
6130,0
6131,0
6132,1
6133,1
6134,1
6135,4
6136,4
6137,1
6138,1
6139,1
6140,3
6141,3
6142,3
6143,3
6144,0
6145,0
6146,0
6147,5
6148,5
6149,1
6150,1
6151,1
6152,1
6153,0
6154,0
6155,0
6156,0
6157,0
6158,2
6159,2
6160,2
6161,2
6162,2
6163,2
6164,6
6165,6
6166,6
6167,6
6168,6
6169,6
6170,6
6171,6
6172,6
6173,6
6174,1
6175,1
6176,0
6177,0
6178,0
6179,0
6180,0
6181,0
6182,0
6183,2
6184,2
6185,8
6186,8
6187,8
6188,8
6189,8
6190,8
6191,8
6192,0
6193,0
6194,0
6195,0
6196,0
6197,0
6198,0
6199,3
6200,3
6201,0
6202,0
6203,0
6204,0
6205,6
6206,6
6207,6
6208,2
6209,2
6210,5
6211,5
6212,1
6213,1
6214,1
6215,5
6216,5
6217,5
6218,0
6219,0
6220,0
6221,0
6222,0
6223,0
6224,0
6225,0
6226,0
6227,0
6228,4
6229,4
6230,4
6231,0
6232,0
6233,0
6234,0
6235,0
6236,3
6237,3
6238,3
6239,7
6240,1
6241,1
6242,1
6243,1
6244,1
6245,2
6246,2
6247,2
6248,2
6249,2
6250,2
6251,3
6252,3
6253,3
6254,3
6255,5
6256,5
6257,5
6258,5
6259,5
6260,0
6261,5
6262,5
6263,2
6264,2
6265,2
6266,2
6267,1
6268,1
6269,1
6270,1
6271,3
6272,3
6273,3
6274,3
6275,3
6276,3
6277,2
6278,2
6279,0
6280,0
6281,0
6282,0
6283,0
6284,0
6285,0
6286,3
6287,3
6288,1
6289,1
6290,1
6291,0
6292,0
6293,0
6294,0
6295,0
6296,0
6297,0
6298,0
6299,7
6300,7
6301,7
6302,7
6303,7
6304,1
6305,1
6306,4
6307,0
6308,0
6309,0
6310,0
6311,0
6312,1
6313,1
6314,1
6315,5
6316,5
6317,2
6318,2
6319,1
6320,1
6321,1
6322,1
6323,1
6324,3
6325,3
6326,0
6327,8
6328,8
6329,8
6330,4
6331,4
6332,1
6333,1
6334,1
6335,1
6336,1
6337,1
6338,1
6339,0
6340,0
6341,0
6342,0
6343,0
6344,0
6345,0
6346,0
6347,0
6348,8
6349,8
6350,8
6351,4
6352,4
6353,4
6354,4
6355,4
6356,4
6357,5
6358,5
6359,5
6360,5
6361,2
6362,1
6363,1
6364,1
6365,1
6366,1
6367,2
6368,2
6369,2
6370,2
6371,2
6372,0
6373,0
6374,0
6375,0
6376,0
6377,0
6378,0
6379,3
6380,3
6381,3
6382,0
6383,5
6384,0
6385,0
6386,0
6387,0
6388,2
6389,2
6390,2
6391,1
6392,1
6393,1
6394,0
6395,0
6396,0
6397,0
6398,1
6399,1
6400,1
6401,0
6402,0
6403,3
6404,3
6405,3
6406,0
6407,8
6408,2
6409,2
6410,2
6411,3
6412,3
6413,0
6414,0
6415,6
6416,6
6417,6
6418,6
6419,4
6420,4
6421,1
6422,1
6423,1
6424,1
6425,2
6426,5
6427,5
6428,5
6429,5
6430,5
6431,0
6432,0
6433,0
6434,0
6435,0
6436,0
6437,8
6438,8
6439,8
6440,8
6441,8
6442,8
6443,5
6444,5
6445,5
6446,5
6447,5
6448,2
6449,2
6450,2
6451,2
6452,2
6453,4
6454,4
6455,4
6456,4
6457,1
6458,1
6459,1
6460,1
6461,0
6462,0
6463,0
6464,0
6465,0
6466,0
6467,0
6468,0
6469,0
6470,0
6471,5
6472,5
6473,5
6474,5
6475,6
6476,2
6477,2
6478,2
6479,8
6480,8
6481,8
6482,5
6483,5
6484,0
6485,0
6486,0
6487,0
6488,0
6489,0
6490,0
6491,0
6492,0
6493,0
6494,0
6495,0
6496,0
6497,0
6498,0
6499,0
6500,0
6501,3
6502,3
6503,3
6504,3
6505,8
6506,8
6507,0
6508,0
6509,0
6510,0
6511,3
6512,3
6513,7
6514,7
6515,7
6516,7
6517,1
6518,1
6519,3
6520,3
6521,2
6522,2
6523,2
6524,5
6525,5
6526,0
6527,0
6528,0
6529,0
6530,0
6531,0
6532,0
6533,0
6534,0
6535,0
6536,0
6537,0
6538,0
6539,0
6540,0
6541,2
6542,2
6543,2
6544,3
6545,3
6546,3
6547,2
6548,2
6549,2
6550,4
6551,4
6552,1
6553,0
6554,0
6555,0
6556,0
6557,0
6558,2
6559,2
6560,2
6561,5
6562,5
6563,5
6564,0
6565,0
6566,0
6567,0
6568,2
6569,2
6570,0
6571,0
6572,0
6573,0
6574,0
6575,0
6576,0
6577,0
6578,0
6579,1
6580,1
6581,1
6582,1
6583,1
6584,1
6585,0
6586,0
6587,2
6588,2
6589,2
6590,2
6591,5
6592,5
6593,5
6594,3
6595,3
6596,0
6597,0
6598,7
6599,7
6600,7
6601,2
6602,2
6603,2
6604,2
6605,2
6606,2
6607,0
6608,0
6609,0
6610,1
6611,1
6612,3
6613,3
6614,3
6615,6
6616,6
6617,6
6618,0
6619,0
6620,0
6621,5
6622,5
6623,5
6624,5
6625,8
6626,8
6627,2
6628,2
6629,6
6630,6
6631,6
6632,5
6633,5
6634,5
6635,5
6636,5
6637,5
6638,1
6639,1
6640,1
6641,0
6642,0
6643,0
6644,0
6645,1
6646,1
6647,1
6648,1
6649,1
6650,1
6651,1
6652,0
6653,0
6654,0
6655,0
6656,0
6657,0
6658,0
6659,0
6660,3
6661,3
6662,3
6663,3
6664,3
6665,0
6666,0
6667,0
6668,0
6669,0
6670,0
6671,0
6672,0
6673,0
6674,1
6675,2
6676,3
6677,3
6678,3
6679,1
6680,1
6681,2
6682,2
6683,2
6684,2
6685,0
6686,0
6687,0
6688,0
6689,7
6690,7
6691,0
6692,0
6693,0
6694,0
6695,0
6696,0
6697,0
6698,0
6699,0
6700,0
6701,0
6702,0
6703,0
6704,0
6705,3
6706,3
6707,3
6708,1
6709,1
6710,1
6711,1
6712,2
6713,2
6714,2
6715,0
6716,0
6717,0
6718,0
6719,0
6720,0
6721,3
6722,3
6723,3
6724,3
6725,0
6726,0
6727,0
6728,0
6729,0
6730,0
6731,4
6732,3
6733,3
6734,3
6735,8
6736,1
6737,1
6738,1
6739,1
6740,3
6741,3
6742,3
6743,3
6744,0
6745,0
6746,1
6747,1
6748,1
6749,1
6750,6
6751,6
6752,7
6753,7
6754,7
6755,7
6756,7
6757,3
6758,3
6759,3
6760,0
6761,2
6762,2
6763,2
6764,2
6765,1
6766,1
6767,1
6768,0
6769,0
6770,0
6771,1
6772,1
6773,1
6774,1
6775,1
6776,1
6777,1
6778,0
6779,0
6780,0
6781,0
6782,5
6783,5
6784,5
6785,1
6786,1
6787,1
6788,1
6789,8
6790,8
6791,8
6792,8
6793,0
6794,0
6795,0
6796,0
6797,6
6798,6
6799,6
6800,6
6801,4
6802,4
6803,4
6804,4
6805,4
6806,4
6807,3
6808,8
6809,8
6810,8
6811,8
6812,0
6813,0
6814,0
6815,0
6816,0
6817,1
6818,1
6819,0
6820,0
6821,0
6822,1
6823,1
6824,1
6825,4
6826,4
6827,4
6828,7
6829,7
6830,7
6831,7
6832,0
6833,0
6834,0
6835,0
6836,0
6837,4
6838,4
6839,0
6840,0
6841,1
6842,1
6843,1
6844,1
6845,1
6846,1
6847,1
6848,1
6849,1
6850,1
6851,1
6852,1
6853,1
6854,0
6855,0
6856,1
6857,1
6858,2
6859,2
6860,4
6861,4
6862,4
6863,4
6864,3
6865,3
6866,3
6867,3
6868,1
6869,1
6870,1
6871,1
6872,1
6873,2
6874,2
6875,2
6876,2
6877,0
6878,0
6879,7
6880,7
6881,1
6882,1
6883,1
6884,1
6885,1
6886,1
6887,4
6888,4
6889,4
6890,4
6891,4
6892,4
6893,4
6894,8
6895,8
6896,8
6897,8
6898,8
6899,8
6900,2
6901,5
6902,5
6903,5
6904,5
6905,0
6906,0
6907,3
6908,3
6909,3
6910,3
6911,3
6912,8
6913,8
6914,8
6915,4
6916,4
6917,4
6918,0
6919,0
6920,0
6921,0
6922,1
6923,1
6924,1
6925,6
6926,6
6927,0
6928,0
6929,0
6930,0
6931,1
6932,1
6933,1
6934,1
6935,0
6936,0
6937,0
6938,0
6939,4
6940,4
6941,4
6942,7
6943,7
6944,7
6945,0
6946,0
6947,4
6948,4
6949,4
6950,4
6951,4
6952,2
6953,2
6954,2
6955,2
6956,2
6957,0
6958,0
6959,0
6960,0
6961,1
6962,1
6963,1
6964,4
6965,4
6966,0
6967,0
6968,0
6969,0
6970,2
6971,2
6972,3
6973,3
6974,3
6975,2
6976,2
6977,4
6978,0
6979,0
6980,0
6981,0
6982,0
6983,1
6984,1
6985,1
6986,1
6987,0
6988,0
6989,1
6990,1
6991,0
6992,0
6993,1
6994,1
6995,1
6996,0
6997,0
6998,0
6999,0
7000,3
7001,3
7002,3
7003,3
7004,0
7005,0
7006,8
7007,8
7008,8
7009,3
7010,3
7011,3
7012,3
7013,3
7014,3
7015,3
7016,1
7017,1
7018,2
7019,2
7020,2
7021,0
7022,0
7023,0
7024,0
7025,3
7026,3
7027,0
7028,0
7029,0
7030,0
7031,0
7032,0
7033,0
7034,0
7035,0
7036,0
7037,0
7038,0
7039,0
7040,0
7041,0
7042,3
7043,3
7044,3
7045,3
7046,3
7047,3
7048,3
7049,1
7050,1
7051,1
7052,0
7053,0
7054,0
7055,0
7056,4
7057,7
7058,7
7059,7
7060,1
7061,1
7062,2
7063,1
7064,1
7065,1
7066,1
7067,1
7068,1
7069,1
7070,1
7071,1
7072,1
7073,0
7074,0
7075,1
7076,1
7077,1
7078,1
7079,5
7080,5
7081,5
7082,8
7083,8
7084,0
7085,0
7086,0
7087,0
7088,7
7089,7
7090,7
7091,5
7092,5
7093,5
7094,0
7095,5
7096,5
7097,5
7098,0
7099,0
7100,0
7101,0
7102,0
7103,1
7104,1
7105,0
7106,0
7107,0
7108,0
7109,0
7110,0
7111,0
7112,0
7113,0
7114,2
7115,2
7116,0
7117,0
7118,0
7119,0
7120,1
7121,1
7122,1
7123,2
7124,2
7125,2
7126,0
7127,0
7128,0
7129,0
7130,0
7131,0
7132,0
7133,1
7134,1
7135,1
7136,1
7137,1
7138,0
7139,0
7140,0
7141,0
7142,0
7143,0
7144,0
7145,0
7146,0
7147,0
7148,0
7149,0
7150,0
7151,7
7152,7
7153,7
7154,1
7155,1
7156,1
7157,1
7158,1
7159,1
7160,1
7161,1
7162,0
7163,0
7164,1
7165,1
7166,0
7167,0
7168,0
7169,0
7170,0
7171,1
7172,1
7173,1
7174,1
7175,6
7176,0
7177,0
7178,1
7179,2
7180,2
7181,0
7182,0
7183,0
7184,3
7185,3
7186,3
7187,3
7188,1
7189,1
7190,1
7191,1
7192,1
7193,7
7194,7
7195,0
7196,0
7197,0
7198,0
7199,0
7200,0
7201,0
7202,0
7203,0
7204,0
7205,0
7206,0
7207,0
7208,0
7209,0
7210,1
7211,1
7212,1
7213,7
7214,0
7215,0
7216,0
7217,0
7218,0
7219,0
7220,6
7221,6
7222,6
7223,2
7224,2
7225,2
7226,2
7227,2
7228,2
7229,2
7230,2
7231,2
7232,2
7233,2
7234,2
7235,2
7236,8
7237,8
7238,8
7239,8
7240,0
7241,0
7242,0
7243,1
7244,1
7245,1
7246,3
7247,3
7248,3
7249,3
7250,0
7251,0
7252,0
7253,0
7254,0
7255,0
7256,0
7257,0
7258,0
7259,0
7260,0
7261,0
7262,0
7263,0
7264,0
7265,2
7266,2
7267,2
7268,0
7269,0
7270,0
7271,0
7272,0
7273,0
7274,0
7275,0
7276,0
7277,0
7278,7
7279,7
7280,7
7281,7
7282,1
7283,1
7284,1
7285,1
7286,1
7287,6
7288,6
7289,6
7290,6
7291,6
7292,0
7293,0
7294,0
7295,6
7296,2
7297,2
7298,2
7299,2
7300,4
7301,4
7302,4
7303,4
7304,2
7305,2
7306,2
7307,2
7308,2
7309,0
7310,0
7311,0
7312,0
7313,0
7314,0
7315,5
7316,0
7317,0
7318,0
7319,1
7320,1
7321,0
7322,0
7323,0
7324,0
7325,0
7326,1
7327,1
7328,1
7329,1
7330,0
7331,0
7332,0
7333,0
7334,2
7335,2
7336,7
7337,7
7338,7
7339,0
7340,0
7341,0
7342,0
7343,0
7344,7
7345,7
7346,0
7347,1
7348,0
7349,0
7350,3
7351,3
7352,3
7353,3
7354,6
7355,0
7356,0
7357,0
7358,0
7359,3
7360,3
7361,3
7362,3
7363,0
7364,0
7365,0
7366,0
7367,0
7368,0
7369,0
7370,7
7371,0
7372,0
7373,6
7374,6
7375,6
7376,6
7377,6
7378,6
7379,0
7380,0
7381,0
7382,3
7383,3
7384,1
7385,1
7386,1
7387,0
7388,0
7389,0
7390,0
7391,0
7392,0
7393,0
7394,0
7395,0
7396,0
7397,0
7398,0
7399,0
7400,0
7401,0
7402,0
7403,1
7404,1
7405,1
7406,1
7407,0
7408,0
7409,0
7410,2
7411,0
7412,5
7413,5
7414,5
7415,5
7416,1
7417,1
7418,1
7419,1
7420,0
7421,0
7422,0
7423,3
7424,5
7425,5
7426,5
7427,5
7428,5
7429,0
7430,0
7431,5
7432,5
7433,5
7434,5
7435,2
7436,2
7437,2
7438,2
7439,2
7440,2
7441,0
7442,0
7443,1
7444,1
7445,1
7446,1
7447,1
7448,1
7449,1
7450,1
7451,0
7452,0
7453,0
7454,0
7455,0
7456,0
7457,0
7458,3
7459,3
7460,3
7461,0
7462,0
7463,0
7464,1
7465,1
7466,1
7467,1
7468,1
7469,0
7470,0
7471,0
7472,5
7473,5
7474,0
7475,0
7476,0
7477,0
7478,0
7479,0
7480,0
7481,0
7482,0
7483,0
7484,1
7485,1
7486,1
7487,7
7488,7
7489,1
7490,1
7491,1
7492,1
7493,4
7494,3
7495,3
7496,3
7497,3
7498,3
7499,1
7500,6
7501,6
7502,6
7503,4
7504,4
7505,0
7506,0
7507,0
7508,0
7509,0
7510,0
7511,0
7512,0
7513,0
7514,0
7515,0
7516,1
7517,1
7518,1
7519,1
7520,1
7521,1
7522,1
7523,0
7524,0
7525,0
7526,0
7527,0
7528,1
7529,4
7530,4
7531,4
7532,8
7533,8
7534,8
7535,8
7536,2
7537,2
7538,3
7539,3
7540,0
7541,0
7542,0
7543,0
7544,0
7545,0
7546,1
7547,1
7548,1
7549,1
7550,0
7551,5
7552,5
7553,5
