:START_ID(Activity-ID),:END_ID(Agent-ID)
0,1
1,0
2,0
3,1
4,1
5,0
6,1
7,0
8,3
9,0
10,0
11,0
12,0
13,0
14,3
15,1
16,0
17,2
18,1
19,1
20,0
21,2
22,1
23,1
24,3
25,1
26,0
27,0
28,3
29,1
30,0
31,0
32,0
33,0
34,4
35,0
36,4
37,0
38,4
39,0
40,0
41,3
42,1
43,0
44,0
45,0
46,3
47,0
48,0
49,1
50,1
51,2
52,0
53,2
54,4
55,1
56,2
57,0
58,0
59,3
60,1
61,3
62,0
63,2
64,0
65,0
66,0
67,4
68,4
69,0
70,0
71,2
72,0
73,2
74,0
75,2
76,0
77,0
78,1
79,2
80,0
81,0
82,0
83,0
84,2
85,0
86,2
87,0
88,0
89,3
90,0
91,4
92,0
93,0
94,0
95,0
96,1
97,2
98,2
99,0
100,0
101,2
102,3
103,4
104,0
105,4
106,0
107,0
108,0
109,0
110,0
111,0
112,1
113,0
114,0
115,4
116,1
117,2
118,1
119,5
120,0
121,0
122,2
123,1
124,1
