:START_ID(Entity-ID),:END_ID(Activity-ID)
6,0
7,0
8,1
9,1
10,1
11,2
12,2
13,2
14,3
15,3
16,3
17,4
18,4
19,5
20,5
21,6
22,6
23,7
24,7
25,7
26,7
27,7
28,8
29,8
30,8
31,8
32,9
33,9
34,9
35,9
36,10
37,10
38,10
39,11
40,11
41,12
42,12
43,12
44,13
45,13
46,13
47,13
48,14
49,14
50,15
51,15
52,16
53,16
54,16
55,16
56,17
57,17
58,17
59,17
60,17
61,18
62,18
63,19
64,19
65,19
66,20
67,20
68,20
69,21
70,22
71,22
72,22
73,22
74,23
75,23
76,24
77,24
78,24
79,25
80,25
81,25
82,25
83,25
84,26
85,26
86,27
87,27
88,27
89,27
90,27
91,27
92,28
93,28
94,28
95,28
96,29
97,29
98,30
99,30
100,30
101,31
102,31
103,31
104,32
105,33
106,34
107,34
108,35
109,35
110,35
111,35
112,35
113,36
114,37
115,37
116,37
117,38
118,38
119,38
120,39
121,40
122,40
123,41
124,41
125,41
126,42
127,42
128,42
129,42
130,43
131,43
132,43
133,43
134,44
135,44
136,44
137,45
138,46
139,46
140,46
141,47
142,47
143,48
144,48
145,49
146,49
147,50
148,50
149,50
150,50
151,51
152,51
153,51
154,51
155,52
156,53
157,53
158,53
159,54
160,54
161,54
162,54
163,54
164,55
165,55
166,56
167,56
168,57
169,57
170,57
171,58
172,58
173,59
174,59
175,60
176,60
177,60
178,61
179,62
180,62
181,62
182,63
183,63
184,63
185,63
186,64
187,64
188,64
189,65
190,65
191,66
192,66
193,66
194,67
195,68
196,68
197,68
198,68
199,68
200,68
201,68
202,69
203,69
204,69
205,70
206,70
207,70
208,71
209,71
210,71
211,72
212,73
213,73
214,73
215,73
216,73
217,74
218,74
219,75
220,75
221,76
222,76
223,77
224,77
225,77
226,78
227,78
228,78
229,79
230,79
231,79
232,80
233,80
234,81
235,81
236,81
237,81
238,82
239,82
240,83
241,83
242,84
243,85
244,85
245,86
246,86
247,87
248,87
249,87
250,87
251,87
252,88
253,88
254,89
255,89
256,89
257,90
258,91
259,91
260,92
261,92
262,92
263,93
264,94
265,94
266,94
267,94
268,94
269,94
270,95
271,96
272,96
273,97
274,97
275,98
276,98
277,99
278,99
279,100
280,100
281,100
282,100
283,101
284,101
285,101
286,102
287,102
288,102
289,102
290,102
291,103
292,103
293,103
294,103
295,103
296,103
297,104
298,104
299,105
300,106
301,106
302,106
303,106
304,107
305,107
306,107
307,108
308,108
309,109
310,109
311,109
312,109
313,110
314,110
315,110
316,110
317,111
318,111
319,112
320,112
321,112
322,113
323,113
324,113
325,114
326,114
327,114
328,114
329,115
330,116
331,116
332,116
333,116
334,116
335,116
336,117
337,117
338,117
339,118
340,118
341,118
342,118
343,118
344,119
345,119
346,119
347,120
348,120
349,120
350,120
351,120
352,121
353,121
354,121
355,122
356,123
357,123
358,123
359,124
360,124
361,124
362,125
363,125
364,126
365,126
366,127
367,128
368,128
369,128
370,128
371,129
372,129
373,130
374,131
375,131
376,131
377,131
378,131
379,132
380,132
381,132
382,132
383,132
384,133
385,133
386,133
387,134
388,134
389,134
390,135
391,135
392,135
393,136
394,136
395,137
396,137
397,137
398,137
399,138
400,139
401,139
402,139
403,140
404,140
405,140
406,141
407,141
408,141
409,141
410,141
411,142
412,142
413,142
414,142
415,142
416,142
417,143
418,143
419,143
420,144
421,144
422,144
423,145
424,145
425,146
426,146
427,146
428,147
429,147
430,147
431,147
432,148
433,148
434,148
435,149
436,149
437,149
438,149
439,150
440,150
441,150
442,150
443,151
444,151
445,152
446,152
447,152
448,152
449,153
450,153
451,153
452,154
453,155
454,155
455,155
456,155
457,155
458,156
459,156
460,157
461,158
462,158
463,159
464,159
465,160
466,161
467,161
468,162
469,162
470,162
471,162
472,162
473,162
474,163
475,163
476,164
477,165
478,166
479,166
480,167
481,167
482,167
483,167
484,167
485,167
486,168
487,168
488,169
489,169
490,170
491,171
492,171
493,171
494,171
495,171
496,171
497,172
498,172
499,173
500,173
501,173
502,173
503,173
504,173
505,174
506,174
507,174
508,174
509,175
510,175
511,176
512,176
513,177
514,177
515,177
516,178
517,178
518,178
519,179
520,179
521,179
522,180
523,180
524,180
525,180
526,180
527,181
528,181
529,181
530,181
531,181
532,182
533,182
534,183
535,183
536,184
537,184
538,184
539,184
540,184
541,185
542,186
543,186
544,186
545,187
546,188
547,188
548,188
549,189
550,189
551,189
552,190
553,190
554,190
555,191
556,191
557,191
558,191
559,192
560,192
561,192
562,192
563,192
564,193
565,193
566,194
567,194
568,195
569,195
570,196
571,196
572,196
573,197
574,197
575,197
576,197
577,197
578,198
579,199
580,199
581,200
582,200
583,200
584,200
585,200
586,200
587,200
588,201
589,201
590,201
591,201
592,202
593,202
594,202
595,202
596,203
597,203
598,204
599,204
600,204
601,205
602,205
603,205
604,205
605,205
606,206
607,206
608,206
609,206
610,207
611,207
612,207
613,208
614,208
615,209
616,209
617,209
618,210
619,210
620,211
621,211
622,211
623,212
624,212
625,212
626,213
627,213
628,213
629,214
630,214
631,214
632,214
633,215
634,215
635,215
636,215
637,216
638,216
639,216
640,217
641,217
642,218
643,218
644,218
645,219
646,219
647,220
648,220
649,220
650,220
651,220
652,220
653,221
654,221
655,221
656,221
657,221
658,222
659,222
660,223
661,223
662,224
663,224
664,224
665,224
666,224
667,224
668,225
669,225
670,226
671,226
672,226
673,227
674,227
675,227
676,227
677,227
678,228
679,228
680,228
681,228
682,229
683,229
684,229
685,229
686,230
687,230
688,230
689,230
690,230
691,230
692,231
693,231
694,231
695,232
696,233
697,233
698,233
699,234
700,234
701,234
702,235
703,235
704,236
705,236
706,236
707,236
708,236
709,237
710,237
711,238
712,238
713,238
714,238
715,238
716,238
717,239
718,239
719,240
720,240
721,240
722,240
723,241
724,241
725,241
726,242
727,242
728,243
729,243
730,243
731,244
732,244
733,244
734,245
735,245
736,245
737,245
738,245
739,245
740,246
741,246
742,246
743,247
744,247
745,248
746,248
747,249
748,250
749,251
750,251
751,252
752,252
753,252
754,252
755,253
756,253
757,253
758,253
759,254
760,254
761,255
762,256
763,256
764,256
765,257
766,257
767,257
768,258
769,258
770,258
771,258
772,259
773,259
774,260
775,261
776,261
777,261
778,261
779,262
780,262
781,263
782,263
783,263
784,263
785,263
786,264
787,264
788,265
789,265
790,265
791,265
792,266
793,267
794,267
795,268
796,268
797,269
798,269
799,269
800,270
801,270
802,270
803,270
804,270
805,270
806,271
807,272
808,273
809,273
810,274
811,274
812,274
813,274
814,274
815,275
816,275
817,276
818,276
819,276
820,276
821,276
822,276
823,277
824,277
825,277
826,277
827,278
828,278
829,279
830,279
831,279
832,279
833,280
834,280
835,280
836,281
837,282
838,282
839,282
840,283
841,283
842,284
843,284
844,284
845,285
846,285
847,285
848,286
849,286
850,287
851,287
852,287
853,288
854,289
855,289
856,290
857,290
858,290
859,290
860,291
861,291
862,292
863,293
864,293
865,293
866,294
867,294
868,295
869,295
870,295
871,296
872,296
873,296
874,297
875,297
876,297
877,297
878,297
879,298
880,298
881,298
882,298
883,299
884,300
885,300
886,300
887,300
888,301
889,301
890,301
891,301
892,302
893,302
894,302
895,302
896,303
897,303
898,304
899,304
900,304
901,305
902,305
903,305
904,306
905,307
906,307
907,308
908,308
909,309
910,309
911,310
912,310
913,311
914,311
915,312
916,312
917,312
918,312
919,313
920,313
921,313
922,313
923,313
924,314
925,314
926,314
927,315
928,316
929,316
930,316
931,316
932,317
933,318
934,319
935,319
936,319
937,319
938,319
939,320
940,320
941,320
942,321
943,321
944,321
945,322
946,322
947,322
948,322
949,323
950,323
951,323
952,323
953,324
954,324
955,325
956,325
957,325
958,325
959,326
960,327
961,327
962,328
963,329
964,329
965,329
966,329
967,330
968,331
969,332
970,332
971,332
972,332
973,332
974,332
975,333
976,333
977,334
978,334
979,334
980,334
981,334
982,335
983,335
984,335
985,336
986,336
987,336
988,336
989,336
990,336
991,337
992,338
993,339
994,339
995,340
996,340
997,340
998,340
999,340
1000,341
1001,342
1002,342
1003,342
1004,343
1005,343
1006,343
1007,343
1008,344
1009,345
1010,345
1011,345
1012,345
1013,346
1014,346
1015,347
1016,347
1017,347
1018,347
1019,347
1020,348
1021,348
1022,349
1023,349
1024,349
1025,349
1026,350
1027,350
1028,350
1029,351
1030,351
1031,351
1032,352
1033,352
1034,352
1035,353
1036,353
1037,353
1038,353
1039,353
1040,353
1041,354
1042,354
1043,354
1044,354
1045,354
1046,355
1047,355
1048,355
1049,356
1050,356
1051,357
1052,358
1053,358
1054,358
1055,358
1056,358
1057,358
1058,359
1059,359
1060,360
1061,360
1062,361
1063,362
1064,362
1065,362
1066,363
1067,363
1068,364
1069,364
1070,364
1071,364
1072,365
1073,365
1074,365
1075,366
1076,366
1077,366
1078,366
1079,366
1080,366
1081,367
1082,367
1083,368
1084,368
1085,368
1086,369
1087,369
1088,370
1089,371
1090,371
1091,371
1092,372
1093,372
1094,372
1095,372
1096,373
1097,373
1098,373
1099,374
1100,374
1101,374
1102,375
1103,375
1104,376
1105,376
1106,376
1107,377
1108,378
1109,378
1110,378
1111,378
1112,379
1113,380
1114,381
1115,382
1116,382
1117,382
1118,382
1119,383
1120,384
1121,385
1122,385
1123,386
1124,386
1125,386
1126,386
1127,387
1128,387
1129,388
1130,388
1131,389
1132,389
1133,390
1134,391
1135,391
1136,391
1137,391
1138,392
1139,392
1140,393
1141,393
1142,393
1143,393
1144,394
1145,394
1146,395
1147,395
1148,396
1149,396
1150,396
1151,396
1152,396
1153,397
1154,397
1155,398
1156,398
1157,398
1158,399
1159,399
1160,399
1161,399
1162,400
1163,401
1164,401
1165,401
1166,402
1167,402
1168,403
1169,403
1170,403
1171,403
1172,404
1173,404
1174,404
1175,405
1176,405
1177,406
1178,406
1179,406
1180,407
1181,407
1182,407
1183,407
1184,408
1185,408
1186,408
1187,408
1188,408
1189,408
1190,408
1191,408
1192,408
1193,409
1194,409
1195,409
1196,410
1197,411
1198,411
1199,411
1200,411
1201,412
1202,412
1203,412
1204,413
1205,413
1206,413
1207,413
1208,413
1209,414
1210,415
1211,415
1212,416
1213,416
1214,416
1215,416
1216,416
1217,417
1218,417
1219,417
1220,418
1221,418
1222,418
1223,418
1224,418
1225,419
1226,419
1227,419
1228,419
1229,420
1230,421
1231,421
1232,421
1233,421
1234,421
1235,421
1236,422
1237,422
1238,422
1239,422
1240,423
1241,424
1242,424
1243,424
1244,424
1245,424
1246,425
1247,425
1248,425
1249,425
1250,426
1251,427
1252,427
1253,427
1254,428
1255,428
1256,428
1257,428
1258,428
1259,429
1260,429
1261,429
1262,430
1263,431
1264,431
1265,431
1266,432
1267,432
1268,432
1269,433
1270,433
1271,433
1272,434
1273,434
1274,434
1275,434
1276,435
1277,435
1278,435
1279,436
1280,436
1281,437
1282,437
1283,437
1284,437
1285,438
1286,438
1287,439
1288,439
1289,440
1290,440
1291,441
1292,441
1293,441
1294,441
1295,442
1296,442
1297,442
1298,443
1299,443
1300,443
1301,444
1302,444
1303,445
1304,446
1305,446
1306,446
1307,446
1308,447
1309,447
1310,448
1311,448
1312,449
1313,449
1314,449
1315,450
1316,450
1317,450
1318,451
1319,451
1320,451
1321,451
1322,451
1323,452
1324,452
1325,452
1326,452
1327,453
1328,453
1329,453
1330,454
1331,454
1332,454
1333,454
1334,455
1335,455
1336,455
1337,456
1338,457
1339,458
1340,458
1341,458
1342,459
1343,459
1344,460
1345,460
1346,460
1347,460
1348,461
1349,462
1350,462
1351,462
1352,463
1353,463
1354,463
1355,463
1356,463
1357,464
1358,464
1359,465
1360,465
1361,466
1362,466
1363,466
1364,467
1365,467
1366,468
1367,468
1368,469
1369,469
1370,470
1371,471
1372,471
1373,471
1374,471
1375,472
1376,472
1377,472
1378,473
1379,473
1380,474
1381,474
1382,474
1383,474
1384,475
1385,475
1386,475
1387,475
1388,476
1389,476
1390,476
1391,477
1392,477
1393,478
1394,478
1395,479
1396,479
1397,479
1398,480
1399,480
1400,480
1401,481
1402,481
1403,482
1404,482
1405,482
1406,483
1407,483
1408,483
1409,483
1410,484
1411,484
1412,484
1413,484
1414,485
1415,485
1416,485
1417,485
1418,486
1419,486
1420,487
1421,487
1422,488
1423,488
1424,488
1425,489
1426,489
1427,489
1428,489
1429,490
1430,490
1431,490
1432,491
1433,491
1434,491
1435,491
1436,491
1437,492
1438,492
1439,493
1440,493
1441,493
1442,494
1443,494
1444,494
1445,494
1446,495
1447,495
1448,495
1449,495
1450,495
1451,496
1452,496
1453,496
1454,497
1455,498
1456,498
1457,499
1458,500
1459,500
1460,500
1461,500
1462,500
1463,501
1464,502
1465,503
1466,503
1467,504
1468,504
1469,505
1470,505
1471,505
1472,505
1473,506
1474,507
1475,508
1476,508
1477,508
1478,509
1479,509
1480,509
1481,510
1482,511
1483,511
1484,511
1485,511
1486,511
1487,511
1488,512
1489,512
1490,512
1491,513
1492,513
1493,513
1494,514
1495,515
1496,515
1497,516
1498,516
1499,517
1500,517
1501,517
1502,518
1503,518
1504,518
1505,518
1506,519
1507,519
1508,519
1509,520
1510,520
1511,520
1512,521
1513,522
1514,522
1515,522
1516,523
1517,523
1518,523
1519,523
1520,524
1521,524
1522,524
1523,524
1524,525
1525,525
1526,525
1527,525
1528,526
1529,526
1530,526
1531,526
1532,526
1533,527
1534,528
1535,528
1536,528
1537,528
1538,529
1539,529
1540,529
1541,529
1542,529
1543,530
1544,530
1545,531
1546,531
1547,531
1548,531
1549,532
1550,533
1551,533
1552,534
1553,534
1554,534
1555,534
1556,535
1557,536
1558,537
1559,538
1560,538
1561,538
1562,539
1563,539
1564,539
1565,540
1566,540
1567,541
1568,542
1569,542
1570,542
1571,542
1572,543
1573,543
1574,544
1575,544
1576,544
1577,545
1578,545
1579,545
1580,546
1581,546
1582,547
1583,547
1584,548
1585,548
1586,548
1587,549
1588,549
1589,549
1590,549
1591,550
1592,550
1593,550
1594,551
1595,551
1596,551
1597,552
1598,552
1599,552
1600,552
1601,552
1602,553
1603,553
1604,553
1605,553
1606,553
1607,553
1608,553
1609,554
1610,554
1611,554
1612,554
1613,555
1614,555
1615,555
1616,556
1617,556
1618,556
1619,556
1620,556
1621,556
1622,557
1623,557
1624,557
1625,558
1626,558
1627,558
1628,559
1629,560
1630,561
1631,561
1632,561
1633,561
1634,561
1635,561
1636,562
1637,562
1638,562
1639,563
1640,563
1641,564
1642,564
1643,564
1644,564
1645,565
1646,565
1647,565
1648,565
1649,565
1650,566
1651,567
1652,567
1653,568
1654,568
1655,568
1656,569
1657,569
1658,569
1659,569
1660,570
1661,570
1662,570
1663,570
1664,570
1665,571
1666,571
1667,571
1668,572
1669,572
1670,573
1671,573
1672,573
1673,573
1674,574
1675,574
1676,575
1677,575
1678,575
1679,575
1680,576
1681,576
1682,577
1683,577
1684,578
1685,578
1686,578
1687,579
1688,580
1689,580
1690,580
1691,581
1692,581
1693,581
1694,582
1695,582
1696,582
1697,583
1698,583
1699,584
1700,585
1701,586
1702,587
1703,587
1704,587
1705,588
1706,589
1707,589
1708,590
1709,590
1710,590
1711,590
1712,590
1713,590
1714,590
1715,591
1716,592
1717,592
1718,593
1719,593
1720,593
1721,593
1722,593
1723,593
1724,594
1725,594
1726,594
1727,594
1728,595
1729,596
1730,596
1731,596
1732,597
1733,598
1734,598
1735,598
1736,598
1737,599
1738,599
1739,599
1740,599
1741,600
1742,600
1743,600
1744,600
1745,601
1746,601
1747,602
1748,602
1749,602
1750,602
1751,602
1752,602
1753,603
1754,603
1755,603
1756,603
1757,603
1758,603
1759,604
1760,604
1761,604
1762,604
1763,605
1764,605
1765,605
1766,606
1767,606
1768,606
1769,607
1770,607
1771,608
1772,608
1773,608
1774,609
1775,609
1776,609
1777,609
1778,610
1779,610
1780,610
1781,611
1782,611
1783,612
1784,612
1785,613
1786,613
1787,613
1788,614
1789,614
1790,614
1791,614
1792,615
1793,616
1794,616
1795,616
1796,617
1797,617
1798,617
1799,617
1800,617
1801,618
1802,619
1803,619
1804,619
1805,619
1806,620
1807,620
1808,620
1809,621
1810,621
1811,621
1812,622
1813,622
1814,623
1815,623
1816,623
1817,624
1818,624
1819,625
1820,625
1821,625
1822,625
1823,626
1824,626
1825,626
1826,626
1827,627
1828,627
1829,628
1830,628
1831,628
1832,629
1833,629
1834,629
1835,629
1836,630
1837,630
1838,630
1839,630
1840,631
1841,632
1842,632
1843,632
1844,633
1845,633
1846,633
1847,633
1848,634
1849,634
1850,635
1851,635
1852,635
1853,635
1854,636
1855,636
1856,637
1857,637
1858,637
1859,637
1860,637
1861,638
1862,638
1863,639
1864,639
1865,640
1866,640
1867,641
1868,641
1869,641
1870,642
1871,643
1872,644
1873,644
1874,645
1875,645
1876,645
1877,645
1878,645
1879,645
1880,645
1881,645
1882,646
1883,646
1884,647
1885,647
1886,647
1887,647
1888,648
1889,648
1890,648
1891,649
1892,649
1893,650
1894,650
1895,651
1896,651
1897,651
1898,652
1899,652
1900,652
1901,653
1902,653
1903,654
1904,654
1905,654
1906,654
1907,655
1908,655
1909,656
1910,657
1911,657
1912,658
1913,658
1914,659
1915,659
1916,659
1917,660
1918,660
1919,660
1920,661
1921,661
1922,662
1923,662
1924,662
1925,663
1926,663
1927,663
1928,663
1929,664
1930,664
1931,664
1932,665
1933,666
1934,666
1935,666
1936,666
1937,666
1938,666
1939,666
1940,667
1941,667
1942,667
1943,668
1944,668
1945,668
1946,668
1947,669
1948,669
1949,670
1950,670
1951,670
1952,670
1953,671
1954,671
1955,671
1956,671
1957,672
1958,672
1959,672
1960,672
1961,673
1962,673
1963,673
1964,674
1965,674
1966,675
1967,675
1968,675
1969,675
1970,675
1971,676
1972,676
1973,677
1974,677
1975,677
1976,677
1977,678
1978,678
1979,678
1980,678
1981,679
1982,679
1983,679
1984,680
1985,680
1986,680
1987,681
1988,681
1989,681
1990,681
1991,681
1992,682
1993,682
1994,682
1995,682
1996,683
1997,683
1998,683
1999,683
2000,684
2001,684
2002,684
2003,684
2004,685
2005,685
2006,685
2007,685
2008,686
2009,686
2010,686
2011,687
2012,687
2013,688
2014,688
2015,688
2016,688
2017,689
2018,690
2019,690
2020,690
2021,690
2022,691
2023,692
2024,692
2025,692
2026,693
2027,693
2028,693
2029,694
2030,694
2031,695
2032,695
2033,695
2034,696
2035,696
2036,696
2037,696
2038,697
2039,698
2040,699
2041,699
2042,700
2043,700
2044,700
2045,701
2046,701
2047,702
2048,702
2049,702
2050,702
2051,703
2052,703
2053,703
2054,704
2055,704
2056,705
2057,705
2058,705
2059,705
2060,706
2061,706
2062,706
2063,707
2064,707
2065,707
2066,707
2067,707
2068,708
2069,708
2070,708
2071,708
2072,708
2073,709
2074,709
2075,710
2076,711
2077,712
2078,712
2079,712
2080,713
2081,713
2082,714
2083,714
2084,715
2085,715
2086,715
2087,716
2088,717
2089,717
2090,717
2091,717
2092,717
2093,717
2094,718
2095,719
2096,719
2097,720
2098,721
2099,721
2100,721
2101,722
2102,722
2103,722
2104,722
2105,722
2106,723
2107,723
2108,723
2109,723
2110,723
2111,724
2112,724
2113,724
2114,725
2115,725
2116,725
2117,726
2118,726
2119,726
2120,727
2121,728
2122,728
2123,728
2124,728
2125,729
2126,729
2127,729
2128,730
2129,730
2130,730
2131,730
2132,731
2133,731
2134,731
2135,732
2136,732
2137,732
2138,732
2139,733
2140,733
2141,733
2142,733
2143,733
2144,734
2145,734
2146,734
2147,734
2148,735
2149,735
2150,736
2151,736
2152,737
2153,738
2154,738
2155,738
2156,738
2157,739
2158,739
2159,739
2160,739
2161,740
2162,740
2163,740
2164,740
2165,741
2166,741
2167,741
2168,741
2169,742
2170,742
2171,743
2172,743
2173,743
2174,744
2175,744
2176,745
2177,745
2178,746
2179,746
2180,747
2181,747
2182,747
2183,748
2184,748
2185,749
2186,749
2187,749
2188,749
2189,749
2190,750
2191,750
2192,750
2193,751
2194,751
2195,751
2196,751
2197,752
2198,752
2199,752
2200,752
2201,753
2202,753
2203,753
2204,753
2205,753
2206,754
2207,754
2208,755
2209,755
2210,755
2211,755
2212,756
2213,756
2214,756
2215,757
2216,757
2217,757
2218,757
2219,757
2220,757
2221,758
2222,758
2223,758
2224,759
2225,759
2226,759
2227,760
2228,760
2229,760
2230,760
2231,760
2232,760
2233,761
2234,761
2235,762
2236,762
2237,762
2238,762
2239,763
2240,763
2241,764
2242,764
2243,764
2244,765
2245,765
2246,765
2247,765
2248,766
2249,766
2250,766
2251,766
2252,766
2253,767
2254,767
2255,768
2256,768
2257,768
2258,769
2259,769
2260,769
2261,769
2262,770
2263,770
2264,770
2265,770
2266,771
2267,771
2268,771
2269,771
2270,771
2271,772
2272,772
2273,772
2274,773
2275,773
2276,773
2277,774
2278,775
2279,775
2280,775
2281,775
2282,776
2283,776
2284,776
2285,777
2286,777
2287,778
2288,778
2289,778
2290,779
2291,779
2292,780
2293,780
2294,781
2295,781
2296,782
2297,782
2298,782
2299,783
2300,783
2301,783
2302,784
2303,784
2304,784
2305,784
2306,784
2307,784
2308,785
2309,785
2310,785
2311,785
2312,786
2313,786
2314,787
2315,787
2316,787
2317,787
2318,788
2319,788
2320,789
2321,790
2322,790
2323,791
2324,792
2325,792
2326,792
2327,793
2328,793
2329,793
2330,793
2331,793
2332,794
2333,794
2334,794
2335,794
2336,794
2337,795
2338,795
2339,796
2340,796
2341,796
2342,797
2343,797
2344,797
2345,797
2346,798
2347,798
2348,799
2349,799
2350,800
2351,800
2352,801
2353,801
2354,801
2355,802
2356,803
2357,803
2358,803
2359,803
2360,803
2361,803
2362,803
2363,804
2364,805
2365,805
2366,806
2367,806
2368,806
2369,807
2370,807
2371,807
2372,807
2373,808
2374,808
2375,809
2376,809
2377,809
2378,809
2379,809
2380,809
2381,809
2382,810
2383,810
2384,811
2385,811
2386,811
2387,812
2388,812
2389,812
2390,813
2391,813
2392,814
2393,814
2394,815
2395,816
2396,816
2397,817
2398,817
2399,818
2400,818
2401,819
2402,819
2403,820
2404,820
2405,820
2406,820
2407,821
2408,822
2409,822
2410,822
2411,822
2412,822
2413,822
2414,823
2415,823
2416,823
2417,824
2418,824
2419,824
2420,825
2421,825
2422,826
2423,826
2424,827
2425,827
2426,827
2427,827
2428,827
2429,828
2430,828
2431,828
2432,828
2433,829
2434,829
2435,829
2436,830
2437,830
2438,830
2439,831
2440,831
2441,832
2442,832
2443,833
2444,833
2445,833
2446,834
2447,834
2448,834
2449,835
2450,835
2451,835
2452,836
2453,837
2454,837
2455,838
2456,838
2457,839
2458,839
2459,839
2460,839
2461,839
2462,840
2463,840
2464,840
2465,840
2466,841
2467,841
2468,841
2469,841
2470,841
2471,841
2472,842
2473,842
2474,842
2475,843
2476,843
2477,843
2478,843
2479,844
2480,844
2481,844
2482,844
2483,844
2484,844
2485,845
2486,845
2487,845
2488,845
2489,846
2490,846
2491,846
2492,847
2493,848
2494,848
2495,848
2496,849
2497,849
2498,849
2499,850
2500,850
2501,850
2502,851
2503,851
2504,852
2505,852
2506,852
2507,853
2508,853
2509,853
2510,853
2511,854
2512,854
2513,854
2514,854
2515,854
2516,854
2517,854
2518,854
2519,855
2520,855
2521,855
2522,856
2523,856
2524,856
2525,856
2526,857
2527,857
2528,858
2529,858
2530,858
2531,859
2532,859
2533,860
2534,860
2535,860
2536,861
2537,861
2538,861
2539,862
2540,862
2541,862
2542,863
2543,864
2544,865
2545,865
2546,866
2547,866
2548,867
2549,867
2550,868
2551,868
2552,868
2553,868
2554,869
2555,870
2556,870
2557,871
2558,871
2559,872
2560,873
2561,873
2562,873
2563,874
2564,874
2565,874
2566,875
2567,875
2568,875
2569,875
2570,876
2571,876
2572,876
2573,877
2574,877
2575,877
2576,878
2577,878
2578,878
2579,878
2580,878
2581,879
2582,879
2583,879
2584,880
2585,880
2586,880
2587,881
2588,882
2589,883
2590,883
2591,884
2592,884
2593,884
2594,885
2595,885
2596,885
2597,885
2598,885
2599,886
2600,886
2601,886
2602,886
2603,887
2604,887
2605,887
2606,887
2607,888
2608,888
2609,888
2610,888
2611,888
2612,889
2613,890
2614,890
2615,890
2616,890
2617,891
2618,891
2619,892
2620,893
2621,893
2622,894
2623,894
2624,894
2625,895
2626,895
2627,895
2628,895
2629,896
2630,896
2631,896
2632,896
2633,897
2634,897
2635,897
2636,897
2637,897
2638,898
2639,899
2640,900
2641,900
2642,900
2643,900
2644,901
2645,901
2646,901
2647,901
2648,902
2649,903
2650,903
2651,904
2652,904
2653,904
2654,904
2655,904
2656,905
2657,905
2658,906
2659,906
2660,907
2661,907
2662,908
2663,908
2664,908
2665,908
2666,908
2667,908
2668,909
2669,909
2670,909
2671,910
2672,910
2673,911
2674,911
2675,912
2676,912
2677,912
2678,913
2679,913
2680,913
2681,913
2682,914
2683,914
2684,914
2685,915
2686,915
2687,915
2688,916
2689,916
2690,916
2691,916
2692,917
2693,918
2694,918
2695,918
2696,918
2697,918
2698,918
2699,918
2700,919
2701,919
2702,919
2703,920
2704,920
2705,921
2706,921
2707,921
2708,922
2709,922
2710,923
2711,923
2712,923
2713,923
2714,924
2715,924
2716,924
2717,925
2718,925
2719,925
2720,926
2721,926
2722,927
2723,927
2724,927
2725,927
2726,927
2727,927
2728,927
2729,928
2730,929
2731,929
2732,929
2733,929
2734,930
2735,931
2736,931
2737,931
2738,931
2739,931
2740,931
2741,932
2742,933
2743,933
2744,933
2745,933
2746,934
2747,934
2748,934
2749,935
2750,935
2751,936
2752,936
2753,937
2754,937
2755,937
2756,938
2757,938
2758,939
2759,940
2760,940
2761,940
2762,941
2763,941
2764,941
2765,942
2766,942
2767,942
2768,942
2769,943
2770,943
2771,944
2772,944
2773,944
2774,945
2775,945
2776,946
2777,946
2778,946
2779,947
2780,947
2781,947
2782,947
2783,947
2784,947
2785,948
2786,948
2787,948
2788,948
2789,949
2790,949
2791,949
2792,950
2793,950
2794,950
2795,950
2796,950
2797,950
2798,951
2799,952
2800,952
2801,952
2802,953
2803,953
2804,953
2805,953
2806,953
2807,953
2808,953
2809,954
2810,954
2811,954
2812,954
2813,955
2814,955
2815,956
2816,956
2817,956
2818,957
2819,957
2820,957
2821,958
2822,958
2823,958
2824,959
2825,959
2826,959
2827,959
2828,960
2829,960
2830,961
2831,961
2832,961
2833,961
2834,961
2835,962
2836,962
2837,963
2838,963
2839,964
2840,964
2841,964
2842,964
2843,965
2844,965
2845,965
2846,965
2847,966
2848,966
2849,966
2850,967
2851,967
2852,968
2853,968
2854,969
2855,970
2856,970
2857,970
2858,971
2859,972
2860,972
2861,972
2862,973
2863,973
2864,974
2865,974
2866,974
2867,975
2868,975
2869,975
2870,976
2871,976
2872,976
2873,976
2874,977
2875,977
2876,978
2877,978
2878,978
2879,978
2880,979
2881,979
2882,980
2883,980
2884,980
2885,981
2886,981
2887,982
2888,983
2889,983
2890,983
2891,984
2892,984
2893,984
2894,985
2895,985
2896,986
2897,986
2898,986
2899,987
2900,987
2901,987
2902,988
2903,989
2904,989
2905,990
2906,990
2907,991
2908,991
2909,991
2910,991
2911,992
2912,993
2913,994
2914,995
2915,995
2916,996
2917,997
2918,997
2919,997
2920,998
2921,998
2922,999
2923,999
2924,1000
2925,1000
2926,1000
2927,1001
2928,1001
2929,1001
2930,1001
2931,1002
2932,1002
2933,1002
2934,1003
2935,1004
2936,1004
2937,1004
2938,1005
2939,1005
2940,1005
2941,1005
2942,1006
2943,1006
2944,1006
2945,1007
2946,1007
2947,1007
2948,1008
2949,1008
2950,1008
2951,1008
2952,1008
2953,1009
2954,1009
2955,1009
2956,1010
2957,1010
2958,1010
2959,1011
2960,1011
2961,1011
2962,1011
2963,1012
2964,1012
2965,1013
2966,1014
2967,1014
2968,1015
2969,1015
2970,1016
2971,1016
2972,1016
2973,1017
2974,1017
2975,1017
2976,1017
2977,1017
2978,1018
2979,1018
2980,1018
2981,1018
2982,1019
2983,1019
2984,1019
2985,1019
2986,1020
2987,1020
2988,1020
2989,1020
2990,1021
2991,1022
2992,1022
2993,1022
2994,1023
2995,1023
2996,1023
2997,1023
2998,1023
2999,1023
3000,1024
3001,1025
3002,1025
3003,1026
3004,1026
3005,1027
3006,1027
3007,1028
3008,1028
3009,1029
3010,1029
3011,1029
3012,1030
3013,1030
3014,1031
3015,1031
3016,1031
3017,1032
3018,1032
3019,1032
3020,1032
3021,1033
3022,1033
3023,1033
3024,1034
3025,1035
3026,1035
3027,1036
3028,1036
3029,1037
3030,1037
3031,1037
3032,1037
3033,1037
3034,1038
3035,1038
3036,1038
3037,1038
3038,1038
3039,1039
3040,1039
3041,1039
3042,1039
3043,1039
3044,1040
3045,1040
3046,1040
3047,1041
3048,1041
3049,1041
3050,1041
3051,1042
3052,1042
3053,1042
3054,1043
3055,1043
3056,1043
3057,1043
3058,1043
3059,1043
3060,1043
3061,1043
3062,1044
3063,1044
3064,1045
3065,1045
3066,1045
3067,1045
3068,1045
3069,1046
3070,1046
3071,1047
3072,1047
3073,1047
3074,1048
3075,1049
3076,1050
3077,1050
3078,1050
3079,1050
3080,1051
3081,1051
3082,1051
3083,1051
3084,1051
3085,1052
3086,1052
3087,1053
3088,1053
3089,1054
3090,1055
3091,1055
3092,1055
3093,1056
3094,1056
3095,1056
3096,1056
3097,1057
3098,1057
3099,1057
3100,1058
3101,1058
3102,1058
3103,1058
3104,1059
3105,1059
3106,1059
3107,1059
3108,1059
3109,1060
3110,1060
3111,1060
3112,1060
3113,1060
3114,1061
3115,1061
3116,1061
3117,1062
3118,1062
3119,1062
3120,1062
3121,1062
3122,1062
3123,1063
3124,1063
3125,1063
3126,1064
3127,1064
3128,1065
3129,1066
3130,1066
3131,1066
3132,1067
3133,1068
3134,1068
3135,1068
3136,1069
3137,1069
3138,1069
3139,1069
3140,1070
3141,1070
3142,1070
3143,1071
3144,1072
3145,1072
3146,1072
3147,1072
3148,1072
3149,1072
3150,1073
3151,1073
3152,1073
3153,1073
3154,1074
3155,1074
3156,1074
3157,1075
3158,1075
3159,1075
3160,1075
3161,1076
3162,1077
3163,1077
3164,1078
3165,1079
3166,1079
3167,1080
3168,1080
3169,1081
3170,1081
3171,1081
3172,1082
3173,1082
3174,1082
3175,1082
3176,1083
3177,1083
3178,1083
3179,1084
3180,1084
3181,1084
3182,1085
3183,1085
3184,1085
3185,1085
3186,1086
3187,1086
3188,1087
3189,1087
3190,1087
3191,1087
3192,1087
3193,1088
3194,1089
3195,1089
3196,1089
3197,1089
3198,1090
3199,1090
3200,1090
3201,1090
3202,1091
3203,1091
3204,1091
3205,1091
3206,1091
3207,1091
3208,1092
3209,1092
3210,1092
3211,1093
3212,1094
3213,1094
3214,1094
3215,1095
3216,1095
3217,1095
3218,1096
3219,1096
3220,1097
3221,1097
3222,1097
3223,1097
3224,1098
3225,1098
3226,1099
3227,1099
3228,1100
3229,1100
3230,1101
3231,1101
3232,1102
3233,1102
3234,1103
3235,1103
3236,1103
3237,1104
3238,1104
3239,1105
3240,1105
3241,1105
3242,1105
3243,1106
3244,1106
3245,1106
3246,1107
3247,1107
3248,1107
3249,1108
3250,1108
3251,1109
3252,1109
3253,1110
3254,1110
3255,1110
3256,1111
3257,1111
3258,1112
3259,1112
3260,1112
3261,1112
3262,1113
3263,1113
3264,1113
3265,1114
3266,1114
3267,1115
3268,1115
3269,1115
3270,1116
3271,1116
3272,1117
3273,1117
3274,1117
3275,1118
3276,1118
3277,1118
3278,1119
3279,1119
3280,1120
3281,1120
3282,1120
3283,1120
3284,1120
3285,1120
3286,1121
3287,1121
3288,1121
3289,1121
3290,1122
3291,1122
3292,1122
3293,1123
3294,1123
3295,1123
3296,1123
3297,1123
3298,1124
3299,1124
3300,1124
3301,1124
3302,1124
3303,1124
3304,1125
3305,1125
3306,1126
3307,1126
3308,1126
3309,1127
3310,1127
3311,1127
3312,1128
3313,1128
3314,1128
3315,1128
3316,1129
3317,1129
3318,1130
3319,1131
3320,1131
3321,1131
3322,1131
3323,1132
3324,1132
3325,1132
3326,1133
3327,1133
3328,1133
3329,1134
3330,1134
3331,1134
3332,1134
3333,1134
3334,1135
3335,1136
3336,1137
3337,1137
3338,1137
3339,1137
3340,1137
3341,1138
3342,1138
3343,1138
3344,1139
3345,1139
3346,1139
3347,1140
3348,1141
3349,1141
3350,1142
3351,1142
3352,1142
3353,1142
3354,1142
3355,1142
3356,1143
3357,1143
3358,1143
3359,1144
3360,1144
3361,1144
3362,1144
3363,1145
3364,1145
3365,1146
3366,1146
3367,1146
3368,1146
3369,1147
3370,1147
3371,1147
3372,1147
3373,1148
3374,1148
3375,1148
3376,1148
3377,1149
3378,1149
3379,1150
3380,1150
3381,1151
3382,1151
3383,1152
3384,1152
3385,1152
3386,1152
3387,1153
3388,1153
3389,1154
3390,1155
3391,1155
3392,1156
3393,1156
3394,1156
3395,1157
3396,1157
3397,1157
3398,1158
3399,1158
3400,1159
3401,1159
3402,1159
3403,1159
3404,1160
3405,1160
3406,1160
3407,1160
3408,1161
3409,1161
3410,1161
3411,1162
3412,1163
3413,1163
3414,1164
3415,1164
3416,1164
3417,1165
3418,1165
3419,1165
3420,1166
3421,1167
3422,1167
3423,1167
3424,1167
3425,1167
3426,1167
3427,1168
3428,1168
3429,1168
3430,1169
3431,1169
3432,1169
3433,1170
3434,1170
3435,1170
3436,1170
3437,1170
3438,1171
3439,1171
3440,1171
3441,1171
3442,1171
3443,1172
3444,1172
3445,1173
3446,1173
3447,1173
3448,1174
3449,1174
3450,1174
3451,1175
3452,1175
3453,1176
3454,1176
3455,1176
3456,1177
3457,1177
3458,1177
3459,1178
3460,1178
3461,1178
3462,1179
3463,1179
3464,1179
3465,1179
3466,1179
3467,1179
3468,1180
3469,1181
3470,1181
3471,1181
3472,1181
3473,1182
3474,1182
3475,1183
3476,1183
3477,1183
3478,1184
3479,1184
3480,1185
3481,1185
3482,1186
3483,1186
3484,1187
3485,1187
3486,1187
3487,1187
3488,1188
3489,1188
3490,1189
3491,1189
3492,1190
3493,1190
3494,1190
3495,1191
3496,1191
3497,1191
3498,1192
3499,1192
3500,1192
3501,1193
3502,1193
3503,1193
3504,1193
3505,1193
3506,1194
3507,1194
3508,1194
3509,1195
3510,1196
3511,1196
3512,1197
3513,1197
3514,1197
3515,1198
3516,1198
3517,1199
3518,1199
3519,1199
3520,1200
3521,1200
3522,1201
3523,1201
3524,1201
3525,1202
3526,1203
3527,1204
3528,1204
3529,1204
3530,1204
3531,1204
3532,1204
3533,1205
3534,1205
3535,1206
3536,1206
3537,1206
3538,1206
3539,1207
3540,1208
3541,1208
3542,1208
3543,1209
3544,1209
3545,1209
3546,1209
3547,1209
3548,1210
3549,1210
3550,1210
3551,1210
3552,1211
3553,1211
3554,1212
3555,1212
3556,1212
3557,1212
3558,1213
3559,1213
3560,1213
3561,1213
3562,1214
3563,1215
3564,1215
3565,1215
3566,1215
3567,1215
3568,1216
3569,1216
3570,1216
3571,1216
3572,1216
3573,1217
3574,1218
3575,1218
3576,1219
3577,1219
3578,1219
3579,1220
3580,1221
3581,1222
3582,1222
3583,1222
3584,1222
3585,1223
3586,1223
3587,1223
3588,1224
3589,1224
3590,1224
3591,1224
3592,1224
3593,1225
3594,1225
3595,1225
3596,1225
3597,1226
3598,1226
3599,1227
3600,1227
3601,1227
3602,1227
3603,1227
3604,1228
3605,1228
3606,1229
3607,1229
3608,1229
3609,1230
3610,1230
3611,1231
3612,1231
3613,1231
3614,1231
3615,1232
3616,1232
3617,1233
3618,1233
3619,1233
3620,1234
3621,1234
3622,1234
3623,1234
3624,1234
3625,1235
3626,1235
3627,1235
3628,1236
3629,1236
3630,1236
3631,1237
3632,1237
3633,1237
3634,1237
3635,1238
3636,1238
3637,1238
3638,1238
3639,1238
3640,1239
3641,1239
3642,1240
3643,1240
3644,1240
3645,1240
3646,1241
3647,1241
3648,1241
3649,1241
3650,1242
3651,1242
3652,1243
3653,1243
3654,1243
3655,1244
3656,1244
3657,1245
3658,1245
3659,1245
3660,1245
3661,1245
3662,1246
3663,1246
3664,1246
3665,1246
3666,1247
3667,1247
3668,1247
3669,1247
3670,1247
3671,1248
3672,1248
3673,1249
3674,1249
