segment: [0]
vertex id: label
135: 0
136: 4
137: 3
138: 2
139: 2
140: 2
141: 2
142: 2
143: 2
144: 2
145: 2
146: 2
147: 2
148: 2
149: 2
150: 2
151: 2
152: 2
153: 2
154: 2
155: 2
156: 2
157: 2
158: 2
159: 2
160: 2
161: 2
162: 2
163: 2
164: 2
165: 2
166: 2
167: 2
168: 2
169: 2
170: 2
171: 2
172: 2
173: 2
174: 2
175: 2
176: 2
177: 2
178: 2
179: 2
180: 2
181: 2
182: 2
183: 2
184: 2
0: 5
1: 5
2: 5
3: 5
4: 5
5: 5
6: 5
7: 5
8: 5
9: 5
10: 5
11: 5
12: 5
13: 5
14: 5
15: 5
16: 5
17: 5
18: 5
19: 5
20: 5
21: 5
22: 5
23: 5
24: 5
25: 5
26: 5
27: 5
28: 5
29: 5
30: 5
31: 5
32: 5
33: 5
34: 5
35: 5
36: 5
37: 5
38: 5
39: 5
40: 5
41: 5
42: 5
43: 5
44: 5
45: 5
46: 5
47: 5
48: 5
49: 5
50: 5
51: 5
52: 5
53: 5
54: 5
55: 5
56: 5
57: 5
58: 5
59: 5
60: 5
61: 5
62: 5
63: 5
64: 5
65: 5
66: 5
67: 5
68: 5
69: 5
70: 5
71: 5
72: 5
73: 5
74: 5
75: 5
76: 5
77: 5
78: 5
79: 5
80: 5
81: 5
82: 5
83: 5
84: 5
85: 5
86: 5
87: 5
88: 5
89: 5
90: 5
91: 5
92: 5
93: 5
94: 5
95: 5
96: 5
97: 5
98: 5
99: 5
100: 5
101: 5
102: 5
103: 5
104: 5
105: 5
106: 5
107: 5
108: 5
109: 5
110: 5
111: 5
112: 5
113: 5
114: 5
115: 5
116: 5
117: 5
118: 5
119: 5
120: 5
121: 5
122: 5
123: 5
124: 5
125: 5
126: 5
127: 5
128: 5
129: 5
130: 5
131: 5
132: 5
133: 5
134: 5
edge from: to
135: 0
135: 1
136: 3
137: 1
137: 4
138: 7
138: 8
139: 2
140: 12
140: 13
141: 15
142: 16
142: 17
142: 18
143: 23
144: 23
144: 24
145: 26
145: 27
146: 29
147: 32
147: 33
148: 34
149: 35
149: 37
150: 39
151: 41
151: 44
151: 45
152: 45
153: 9
154: 50
154: 51
155: 4
155: 50
155: 53
155: 54
156: 55
157: 57
158: 54
158: 57
158: 58
158: 59
159: 61
159: 62
160: 12
161: 65
162: 68
162: 69
163: 69
164: 72
165: 73
165: 74
166: 73
166: 76
166: 77
167: 80
168: 82
169: 85
170: 86
171: 88
171: 89
172: 91
172: 92
173: 95
173: 96
174: 94
174: 98
175: 19
176: 102
176: 103
177: 99
177: 104
178: 107
179: 113
180: 109
180: 114
180: 115
181: 112
181: 116
181: 117
181: 118
182: 116
182: 122
183: 124
183: 125
184: 129
2: 135
3: 135
4: 136
5: 136
6: 137
7: 137
8: 137
9: 138
10: 138
11: 139
12: 139
13: 139
14: 140
15: 140
16: 141
17: 141
18: 141
19: 142
20: 142
21: 142
22: 142
23: 142
24: 143
25: 143
26: 144
27: 144
28: 144
29: 145
30: 145
31: 146
32: 146
33: 146
34: 147
35: 147
36: 148
37: 148
38: 148
39: 149
40: 149
41: 150
42: 150
43: 150
44: 150
45: 150
46: 151
47: 152
48: 152
49: 153
50: 153
51: 153
52: 154
53: 154
54: 154
55: 155
56: 155
57: 156
58: 156
59: 157
60: 158
61: 158
62: 158
63: 159
64: 159
65: 160
66: 160
67: 161
68: 161
69: 161
70: 162
71: 163
72: 163
73: 163
74: 164
75: 165
76: 165
77: 165
78: 165
79: 166
80: 166
81: 166
82: 167
83: 167
84: 168
85: 168
86: 168
87: 169
88: 170
89: 170
90: 170
91: 171
92: 171
93: 171
94: 172
95: 172
96: 172
97: 172
98: 173
99: 173
100: 173
101: 174
102: 174
103: 175
104: 175
105: 176
106: 176
107: 177
108: 177
109: 177
110: 178
111: 178
112: 178
113: 178
114: 178
115: 178
116: 179
117: 180
118: 180
119: 180
120: 180
121: 181
122: 181
123: 181
124: 181
125: 182
126: 182
127: 183
128: 183
129: 183
130: 183
131: 183
132: 184
133: 184
134: 184
segment: [1]
vertex id: label
149: 0
150: 3
151: 2
152: 2
153: 2
154: 2
155: 2
156: 2
157: 2
158: 2
159: 2
160: 2
161: 2
162: 2
163: 2
164: 2
165: 2
166: 2
167: 2
168: 2
169: 2
170: 2
171: 2
172: 2
173: 2
174: 2
175: 2
176: 2
177: 2
178: 2
179: 2
180: 2
181: 2
182: 2
183: 2
184: 2
185: 2
186: 2
187: 2
188: 2
189: 2
190: 2
191: 2
192: 2
193: 2
194: 2
195: 2
196: 2
197: 2
198: 2
0: 5
1: 5
2: 5
3: 5
4: 5
5: 5
6: 5
7: 5
8: 5
9: 5
10: 5
11: 5
12: 5
13: 5
14: 5
15: 5
16: 5
17: 5
18: 5
19: 5
20: 5
21: 5
22: 5
23: 5
24: 5
25: 5
26: 5
27: 5
28: 5
29: 5
30: 5
31: 5
32: 5
33: 5
34: 5
35: 5
36: 5
37: 5
38: 5
39: 5
40: 5
41: 5
42: 5
43: 5
44: 5
45: 5
46: 5
47: 5
48: 5
49: 5
50: 5
51: 5
52: 5
53: 5
54: 5
55: 5
56: 5
57: 5
58: 5
59: 5
60: 5
61: 5
62: 5
63: 5
64: 5
65: 5
66: 5
67: 5
68: 5
69: 5
70: 5
71: 5
72: 5
73: 5
74: 5
75: 5
76: 5
77: 5
78: 5
79: 5
80: 5
81: 5
82: 5
83: 5
84: 5
85: 5
86: 5
87: 5
88: 5
89: 5
90: 5
91: 5
92: 5
93: 5
94: 5
95: 5
96: 5
97: 5
98: 5
99: 5
100: 5
101: 5
102: 5
103: 5
104: 5
105: 5
106: 5
107: 5
108: 5
109: 5
110: 5
111: 5
112: 5
113: 5
114: 5
115: 5
116: 5
117: 5
118: 5
119: 5
120: 5
121: 5
122: 5
123: 5
124: 5
125: 5
126: 5
127: 5
128: 5
129: 5
130: 5
131: 5
132: 5
133: 5
134: 5
135: 5
136: 5
137: 5
138: 5
139: 5
140: 5
141: 5
142: 5
143: 5
144: 5
145: 5
146: 5
147: 5
148: 5
edge from: to
149: 0
150: 6
151: 0
151: 7
151: 8
152: 2
152: 10
153: 11
154: 12
154: 14
154: 15
155: 18
156: 4
157: 24
158: 26
158: 27
159: 30
160: 31
160: 32
160: 33
160: 34
161: 35
162: 38
163: 38
163: 40
163: 41
163: 42
164: 42
164: 45
165: 45
165: 47
165: 48
166: 51
166: 52
167: 54
167: 55
168: 60
168: 61
169: 64
170: 63
170: 66
170: 67
171: 68
171: 71
171: 72
171: 73
172: 73
173: 76
173: 77
174: 78
175: 76
175: 79
175: 80
176: 78
176: 81
176: 82
177: 80
177: 83
177: 85
178: 86
178: 87
179: 88
179: 89
180: 87
180: 91
180: 92
181: 90
181: 94
182: 92
182: 96
183: 94
183: 96
183: 98
183: 100
184: 103
185: 106
185: 107
186: 103
186: 108
187: 110
188: 106
188: 111
188: 112
189: 113
190: 110
190: 115
191: 114
191: 119
191: 120
191: 121
192: 124
193: 126
193: 127
194: 130
195: 129
195: 134
195: 135
195: 136
196: 130
196: 136
196: 137
197: 138
198: 142
1: 149
2: 149
3: 149
4: 149
5: 149
6: 149
7: 150
8: 150
9: 151
10: 151
11: 152
12: 153
13: 153
14: 153
15: 153
16: 154
17: 154
18: 154
19: 155
20: 155
21: 155
22: 156
23: 156
24: 156
25: 156
26: 157
27: 157
28: 157
29: 158
30: 158
31: 158
32: 159
33: 159
34: 159
35: 160
36: 160
37: 161
38: 161
39: 161
40: 162
41: 162
42: 162
43: 163
44: 163
45: 163
46: 163
47: 164
48: 164
49: 164
50: 165
51: 165
52: 165
53: 166
54: 166
55: 166
56: 167
57: 167
58: 167
59: 167
60: 167
61: 167
62: 168
63: 168
64: 168
65: 168
66: 169
67: 169
68: 170
69: 170
70: 170
71: 170
72: 170
73: 170
74: 171
75: 172
76: 172
77: 172
78: 172
79: 173
80: 174
81: 174
82: 175
83: 175
84: 176
85: 176
86: 176
87: 177
88: 177
89: 178
90: 178
91: 179
92: 179
93: 179
94: 180
95: 180
96: 180
97: 181
98: 181
99: 182
100: 182
101: 183
102: 183
103: 183
104: 183
105: 183
106: 184
107: 184
108: 184
109: 185
110: 185
111: 186
112: 186
113: 187
114: 188
115: 188
116: 189
117: 189
118: 190
119: 190
120: 190
121: 190
122: 190
123: 191
124: 191
125: 191
126: 191
127: 192
128: 192
129: 193
130: 193
131: 193
132: 193
133: 194
134: 194
135: 194
136: 194
137: 194
138: 195
139: 196
140: 196
141: 197
142: 197
143: 197
144: 197
145: 198
146: 198
147: 198
148: 198
segment: [2]
vertex id: label
147: 0
148: 4
149: 3
150: 0
151: 3
152: 0
153: 4
154: 3
155: 2
156: 2
157: 2
158: 2
159: 2
160: 2
161: 2
162: 2
163: 2
164: 2
165: 2
166: 2
167: 2
168: 2
169: 2
170: 2
171: 2
172: 2
173: 2
174: 2
175: 2
176: 2
177: 2
178: 2
179: 2
180: 2
181: 2
182: 2
183: 2
184: 2
185: 2
186: 2
187: 2
188: 2
189: 2
190: 2
191: 2
192: 2
193: 2
194: 2
195: 2
196: 2
0: 5
1: 5
2: 5
3: 5
4: 5
5: 5
6: 5
7: 5
8: 5
9: 5
10: 5
11: 5
12: 5
13: 5
14: 5
15: 5
16: 5
17: 5
18: 5
19: 5
20: 5
21: 5
22: 5
23: 5
24: 5
25: 5
26: 5
27: 5
28: 5
29: 5
30: 5
31: 5
32: 5
33: 5
34: 5
35: 5
36: 5
37: 5
38: 5
39: 5
40: 5
41: 5
42: 5
43: 5
44: 5
45: 5
46: 5
47: 5
48: 5
49: 5
50: 5
51: 5
52: 5
53: 5
54: 5
55: 5
56: 5
57: 5
58: 5
59: 5
60: 5
61: 5
62: 5
63: 5
64: 5
65: 5
66: 5
67: 5
68: 5
69: 5
70: 5
71: 5
72: 5
73: 5
74: 5
75: 5
76: 5
77: 5
78: 5
79: 5
80: 5
81: 5
82: 5
83: 5
84: 5
85: 5
86: 5
87: 5
88: 5
89: 5
90: 5
91: 5
92: 5
93: 5
94: 5
95: 5
96: 5
97: 5
98: 5
99: 5
100: 5
101: 5
102: 5
103: 5
104: 5
105: 5
106: 5
107: 5
108: 5
109: 5
110: 5
111: 5
112: 5
113: 5
114: 5
115: 5
116: 5
117: 5
118: 5
119: 5
120: 5
121: 5
122: 5
123: 5
124: 5
125: 5
126: 5
127: 5
128: 5
129: 5
130: 5
131: 5
132: 5
133: 5
134: 5
135: 5
136: 5
137: 5
138: 5
139: 5
140: 5
141: 5
142: 5
143: 5
144: 5
145: 5
146: 5
edge from: to
147: 0
147: 1
148: 4
149: 2
149: 10
150: 11
151: 13
152: 14
152: 15
153: 14
153: 16
153: 17
154: 18
154: 19
155: 4
155: 17
155: 19
155: 20
155: 21
156: 24
156: 25
157: 2
157: 25
157: 26
157: 27
158: 27
158: 28
159: 6
159: 29
159: 31
160: 32
161: 35
161: 36
162: 37
163: 41
164: 43
164: 44
165: 46
165: 47
166: 53
167: 57
167: 58
168: 57
168: 61
168: 62
169: 64
169: 65
170: 68
170: 69
171: 74
171: 75
172: 78
173: 77
173: 79
173: 81
174: 81
174: 82
175: 85
176: 87
176: 88
177: 17
178: 94
179: 96
180: 94
180: 96
180: 98
180: 100
181: 99
181: 104
181: 105
182: 100
182: 105
183: 108
184: 110
185: 107
185: 112
186: 110
186: 115
187: 119
187: 120
188: 119
188: 125
189: 126
189: 127
190: 130
190: 131
191: 131
192: 133
192: 134
193: 129
193: 135
193: 136
194: 133
194: 137
194: 139
194: 141
195: 135
195: 139
195: 140
195: 141
195: 142
196: 142
2: 147
3: 147
4: 147
5: 148
6: 148
7: 148
8: 148
9: 148
10: 148
11: 149
12: 150
13: 150
14: 151
15: 151
16: 152
17: 152
18: 153
19: 153
20: 154
21: 154
22: 155
23: 155
24: 155
25: 155
26: 155
27: 156
28: 157
29: 157
30: 158
31: 158
32: 158
33: 159
34: 160
35: 160
36: 160
37: 161
38: 161
39: 162
40: 162
41: 162
42: 162
43: 163
44: 163
45: 164
46: 164
47: 164
48: 165
49: 165
50: 165
51: 165
52: 165
53: 165
54: 165
55: 166
56: 166
57: 166
58: 166
59: 167
60: 167
61: 167
62: 167
63: 168
64: 168
65: 168
66: 169
67: 169
68: 169
69: 169
70: 170
71: 170
72: 170
73: 170
74: 170
75: 170
76: 170
77: 171
78: 171
79: 171
80: 172
81: 172
82: 172
83: 173
84: 174
85: 174
86: 174
87: 175
88: 175
89: 175
90: 176
91: 176
92: 177
93: 177
94: 177
95: 177
96: 177
97: 178
98: 178
99: 179
100: 179
101: 180
102: 180
103: 180
104: 180
105: 180
106: 180
107: 181
108: 182
109: 182
110: 182
111: 183
112: 183
113: 184
114: 184
115: 185
116: 185
117: 185
118: 186
119: 186
120: 186
121: 186
122: 187
123: 187
124: 187
125: 187
126: 187
127: 187
128: 188
129: 189
130: 189
131: 189
132: 189
133: 190
134: 191
135: 191
136: 192
137: 192
138: 193
139: 193
140: 193
141: 193
142: 194
143: 194
144: 195
145: 196
146: 196
segment: [3]
vertex id: label
169: 0
170: 3
171: 2
172: 2
173: 2
174: 2
175: 2
176: 2
177: 2
178: 2
179: 2
180: 2
181: 2
182: 2
183: 2
184: 2
185: 2
186: 2
187: 2
188: 2
189: 2
190: 2
191: 2
192: 2
193: 2
194: 2
195: 2
196: 2
197: 2
198: 2
199: 2
200: 2
201: 2
202: 2
203: 2
204: 2
205: 2
206: 2
207: 2
208: 2
209: 2
210: 2
211: 2
212: 2
213: 2
214: 2
215: 2
216: 2
217: 2
218: 2
0: 5
1: 5
2: 5
3: 5
4: 5
5: 5
6: 5
7: 5
8: 5
9: 5
10: 5
11: 5
12: 5
13: 5
14: 5
15: 5
16: 5
17: 5
18: 5
19: 5
20: 5
21: 5
22: 5
23: 5
24: 5
25: 5
26: 5
27: 5
28: 5
29: 5
30: 5
31: 5
32: 5
33: 5
34: 5
35: 5
36: 5
37: 5
38: 5
39: 5
40: 5
41: 5
42: 5
43: 5
44: 5
45: 5
46: 5
47: 5
48: 5
49: 5
50: 5
51: 5
52: 5
53: 5
54: 5
55: 5
56: 5
57: 5
58: 5
59: 5
60: 5
61: 5
62: 5
63: 5
64: 5
65: 5
66: 5
67: 5
68: 5
69: 5
70: 5
71: 5
72: 5
73: 5
74: 5
75: 5
76: 5
77: 5
78: 5
79: 5
80: 5
81: 5
82: 5
83: 5
84: 5
85: 5
86: 5
87: 5
88: 5
89: 5
90: 5
91: 5
92: 5
93: 5
94: 5
95: 5
96: 5
97: 5
98: 5
99: 5
100: 5
101: 5
102: 5
103: 5
104: 5
105: 5
106: 5
107: 5
108: 5
109: 5
110: 5
111: 5
112: 5
113: 5
114: 5
115: 5
116: 5
117: 5
118: 5
119: 5
120: 5
121: 5
122: 5
123: 5
124: 5
125: 5
126: 5
127: 5
128: 5
129: 5
130: 5
131: 5
132: 5
133: 5
134: 5
135: 5
136: 5
137: 5
138: 5
139: 5
140: 5
141: 5
142: 5
143: 5
144: 5
145: 5
146: 5
147: 5
148: 5
149: 5
150: 5
151: 5
152: 5
153: 5
154: 5
155: 5
156: 5
157: 5
158: 5
159: 5
160: 5
161: 5
162: 5
163: 5
164: 5
165: 5
166: 5
167: 5
168: 5
edge from: to
169: 0
169: 1
169: 2
170: 3
171: 0
171: 4
172: 10
172: 11
173: 3
173: 13
173: 15
173: 16
174: 18
174: 19
175: 22
175: 23
176: 28
177: 34
178: 35
178: 37
179: 38
179: 40
180: 42
181: 42
181: 45
181: 46
182: 48
183: 48
183: 51
183: 52
184: 50
184: 54
184: 55
185: 53
185: 57
185: 58
186: 62
186: 63
187: 1
187: 12
187: 62
187: 64
188: 1
188: 65
188: 66
189: 67
190: 69
190: 70
191: 67
191: 70
191: 71
191: 72
192: 14
193: 77
194: 78
194: 81
194: 82
195: 80
195: 83
195: 85
196: 91
197: 95
197: 96
198: 98
199: 101
200: 99
200: 104
201: 103
201: 106
201: 108
201: 109
202: 114
203: 118
204: 124
205: 119
205: 125
206: 24
206: 128
207: 128
208: 131
209: 128
209: 132
209: 134
209: 135
210: 133
210: 137
210: 139
211: 135
211: 140
211: 141
211: 142
212: 144
213: 145
214: 148
215: 150
215: 151
216: 29
216: 153
217: 156
217: 157
218: 163
3: 169
4: 170
5: 171
6: 171
7: 171
8: 171
9: 171
10: 171
11: 171
12: 172
13: 172
14: 172
15: 172
16: 172
17: 173
18: 173
19: 173
20: 174
21: 174
22: 174
23: 174
24: 175
25: 175
26: 175
27: 175
28: 175
29: 175
30: 176
31: 176
32: 176
33: 176
34: 176
35: 176
36: 177
37: 177
38: 177
39: 178
40: 178
41: 178
42: 179
43: 179
44: 180
45: 180
46: 180
47: 181
48: 181
49: 181
50: 182
51: 182
52: 182
53: 183
54: 183
55: 183
56: 184
57: 184
58: 184
59: 185
60: 185
61: 185
62: 185
63: 185
64: 186
65: 187
66: 187
67: 188
68: 188
69: 189
70: 189
71: 190
72: 190
73: 191
74: 191
75: 191
76: 192
77: 192
78: 192
79: 193
80: 193
81: 193
82: 193
83: 193
84: 194
85: 194
86: 194
87: 195
88: 195
89: 195
90: 195
91: 195
92: 195
93: 196
94: 196
95: 196
96: 196
97: 196
98: 197
99: 197
100: 197
101: 198
102: 198
103: 198
104: 199
105: 199
106: 199
107: 200
108: 200
109: 200
110: 200
111: 201
112: 201
113: 201
114: 201
115: 201
116: 201
117: 202
118: 202
119: 202
120: 202
121: 203
122: 203
123: 203
124: 203
125: 203
126: 203
127: 204
128: 205
129: 205
130: 206
131: 207
132: 207
133: 207
134: 208
135: 208
136: 208
137: 209
138: 209
139: 209
140: 209
141: 209
142: 210
143: 210
144: 211
145: 211
146: 211
147: 212
148: 213
149: 213
150: 213
151: 214
152: 214
153: 214
154: 215
155: 215
156: 215
157: 216
158: 216
159: 216
160: 217
161: 217
162: 217
163: 217
164: 217
165: 217
166: 218
167: 218
168: 218
segment: [4]
vertex id: label
147: 0
148: 3
149: 2
150: 2
151: 2
152: 2
153: 2
154: 2
155: 2
156: 2
157: 2
158: 2
159: 2
160: 2
161: 2
162: 2
163: 2
164: 2
165: 2
166: 2
167: 2
168: 2
169: 2
170: 2
171: 2
172: 2
173: 2
174: 2
175: 2
176: 2
177: 2
178: 2
179: 2
180: 2
181: 2
182: 2
183: 2
184: 2
185: 2
186: 2
187: 2
188: 2
189: 2
190: 2
191: 2
192: 2
193: 2
194: 2
195: 2
196: 2
0: 5
1: 5
2: 5
3: 5
4: 5
5: 5
6: 5
7: 5
8: 5
9: 5
10: 5
11: 5
12: 5
13: 5
14: 5
15: 5
16: 5
17: 5
18: 5
19: 5
20: 5
21: 5
22: 5
23: 5
24: 5
25: 5
26: 5
27: 5
28: 5
29: 5
30: 5
31: 5
32: 5
33: 5
34: 5
35: 5
36: 5
37: 5
38: 5
39: 5
40: 5
41: 5
42: 5
43: 5
44: 5
45: 5
46: 5
47: 5
48: 5
49: 5
50: 5
51: 5
52: 5
53: 5
54: 5
55: 5
56: 5
57: 5
58: 5
59: 5
60: 5
61: 5
62: 5
63: 5
64: 5
65: 5
66: 5
67: 5
68: 5
69: 5
70: 5
71: 5
72: 5
73: 5
74: 5
75: 5
76: 5
77: 5
78: 5
79: 5
80: 5
81: 5
82: 5
83: 5
84: 5
85: 5
86: 5
87: 5
88: 5
89: 5
90: 5
91: 5
92: 5
93: 5
94: 5
95: 5
96: 5
97: 5
98: 5
99: 5
100: 5
101: 5
102: 5
103: 5
104: 5
105: 5
106: 5
107: 5
108: 5
109: 5
110: 5
111: 5
112: 5
113: 5
114: 5
115: 5
116: 5
117: 5
118: 5
119: 5
120: 5
121: 5
122: 5
123: 5
124: 5
125: 5
126: 5
127: 5
128: 5
129: 5
130: 5
131: 5
132: 5
133: 5
134: 5
135: 5
136: 5
137: 5
138: 5
139: 5
140: 5
141: 5
142: 5
143: 5
144: 5
145: 5
146: 5
edge from: to
147: 0
148: 0
148: 4
149: 6
149: 7
150: 8
151: 8
151: 9
152: 14
153: 14
153: 15
154: 3
155: 18
155: 19
156: 23
157: 26
157: 27
158: 27
158: 29
158: 30
159: 28
159: 32
159: 33
159: 34
160: 35
161: 39
162: 43
163: 46
163: 47
164: 48
165: 50
165: 51
166: 50
166: 53
167: 55
167: 56
168: 58
168: 59
169: 62
169: 63
170: 1
170: 64
170: 65
171: 65
171: 69
171: 70
172: 71
173: 68
173: 72
173: 73
174: 14
174: 70
174: 73
175: 77
175: 78
176: 6
176: 69
176: 76
176: 79
176: 80
176: 81
177: 84
178: 88
178: 89
179: 17
180: 91
181: 90
181: 93
181: 94
181: 96
182: 98
183: 96
183: 101
184: 104
185: 103
185: 108
186: 110
186: 111
187: 106
187: 111
187: 112
188: 114
189: 119
189: 120
190: 120
190: 121
191: 116
191: 121
191: 122
192: 124
193: 24
193: 128
194: 129
195: 133
196: 130
196: 136
196: 137
1: 147
2: 147
3: 147
4: 147
5: 148
6: 148
7: 148
8: 149
9: 150
10: 151
11: 151
12: 151
13: 151
14: 151
15: 152
16: 153
17: 154
18: 154
19: 154
20: 155
21: 155
22: 155
23: 155
24: 156
25: 156
26: 156
27: 156
28: 156
29: 157
30: 157
31: 158
32: 158
33: 158
34: 158
35: 158
36: 159
37: 160
38: 160
39: 160
40: 160
41: 161
42: 161
43: 161
44: 161
45: 162
46: 162
47: 162
48: 163
49: 163
50: 164
51: 164
52: 165
53: 165
54: 165
55: 166
56: 166
57: 167
58: 167
59: 167
60: 168
61: 168
62: 168
63: 168
64: 169
65: 169
66: 170
67: 170
68: 170
69: 170
70: 170
71: 171
72: 171
73: 172
74: 173
75: 173
76: 174
77: 174
78: 174
79: 174
80: 175
81: 175
82: 176
83: 176
84: 176
85: 176
86: 177
87: 177
88: 177
89: 177
90: 177
91: 178
92: 179
93: 179
94: 180
95: 180
96: 180
97: 181
98: 181
99: 181
100: 181
101: 182
102: 182
103: 182
104: 183
105: 183
106: 183
107: 184
108: 184
109: 184
110: 184
111: 185
112: 185
113: 186
114: 187
115: 187
116: 187
117: 188
118: 188
119: 188
120: 188
121: 188
122: 189
123: 190
124: 190
125: 191
126: 191
127: 192
128: 192
129: 192
130: 193
131: 193
132: 194
133: 194
134: 194
135: 194
136: 195
137: 195
138: 195
139: 196
140: 196
141: 196
142: 196
143: 196
144: 196
145: 196
146: 196
segment: [5]
vertex id: label
158: 0
159: 3
160: 2
161: 2
162: 2
163: 2
164: 2
165: 2
166: 2
167: 2
168: 2
169: 2
170: 2
171: 2
172: 2
173: 2
174: 2
175: 2
176: 2
177: 2
178: 2
179: 2
180: 2
181: 2
182: 2
183: 2
184: 2
185: 2
186: 2
187: 2
188: 2
189: 2
190: 2
191: 2
192: 2
193: 2
194: 2
195: 2
196: 2
197: 2
198: 2
199: 2
200: 2
201: 2
202: 2
203: 2
204: 2
205: 2
206: 2
207: 2
0: 5
1: 5
2: 5
3: 5
4: 5
5: 5
6: 5
7: 5
8: 5
9: 5
10: 5
11: 5
12: 5
13: 5
14: 5
15: 5
16: 5
17: 5
18: 5
19: 5
20: 5
21: 5
22: 5
23: 5
24: 5
25: 5
26: 5
27: 5
28: 5
29: 5
30: 5
31: 5
32: 5
33: 5
34: 5
35: 5
36: 5
37: 5
38: 5
39: 5
40: 5
41: 5
42: 5
43: 5
44: 5
45: 5
46: 5
47: 5
48: 5
49: 5
50: 5
51: 5
52: 5
53: 5
54: 5
55: 5
56: 5
57: 5
58: 5
59: 5
60: 5
61: 5
62: 5
63: 5
64: 5
65: 5
66: 5
67: 5
68: 5
69: 5
70: 5
71: 5
72: 5
73: 5
74: 5
75: 5
76: 5
77: 5
78: 5
79: 5
80: 5
81: 5
82: 5
83: 5
84: 5
85: 5
86: 5
87: 5
88: 5
89: 5
90: 5
91: 5
92: 5
93: 5
94: 5
95: 5
96: 5
97: 5
98: 5
99: 5
100: 5
101: 5
102: 5
103: 5
104: 5
105: 5
106: 5
107: 5
108: 5
109: 5
110: 5
111: 5
112: 5
113: 5
114: 5
115: 5
116: 5
117: 5
118: 5
119: 5
120: 5
121: 5
122: 5
123: 5
124: 5
125: 5
126: 5
127: 5
128: 5
129: 5
130: 5
131: 5
132: 5
133: 5
134: 5
135: 5
136: 5
137: 5
138: 5
139: 5
140: 5
141: 5
142: 5
143: 5
144: 5
145: 5
146: 5
147: 5
148: 5
149: 5
150: 5
151: 5
152: 5
153: 5
154: 5
155: 5
156: 5
157: 5
edge from: to
158: 0
159: 0
159: 1
159: 2
160: 0
160: 2
160: 5
160: 6
161: 0
161: 8
161: 9
162: 13
163: 15
164: 17
164: 18
165: 20
165: 21
165: 22
166: 25
167: 23
167: 27
167: 28
167: 29
168: 32
168: 33
169: 7
169: 34
169: 36
170: 39
171: 41
172: 41
172: 44
172: 45
173: 9
174: 46
174: 49
174: 50
175: 52
176: 51
176: 55
176: 56
177: 57
178: 58
178: 59
179: 60
179: 61
180: 12
180: 64
181: 64
182: 67
183: 69
183: 70
184: 67
184: 71
184: 72
185: 69
185: 73
185: 74
186: 79
187: 77
187: 81
188: 86
188: 87
189: 86
189: 90
189: 91
190: 92
190: 96
191: 94
191: 99
191: 100
192: 96
192: 101
193: 100
193: 103
193: 105
194: 110
195: 113
196: 110
196: 115
197: 120
197: 121
198: 123
199: 24
200: 130
200: 131
201: 126
201: 131
201: 132
202: 127
202: 132
203: 131
203: 137
203: 138
204: 133
204: 139
205: 141
206: 137
206: 141
206: 143
206: 144
207: 148
1: 158
3: 159
4: 159
5: 159
6: 159
7: 160
8: 160
9: 160
10: 161
11: 161
12: 161
13: 161
14: 162
15: 162
16: 163
17: 163
18: 163
19: 164
20: 164
21: 164
22: 164
23: 165
24: 165
25: 165
26: 165
27: 166
28: 166
29: 166
30: 167
31: 167
32: 167
33: 167
34: 168
35: 168
36: 168
37: 168
38: 169
39: 169
40: 169
41: 170
42: 170
43: 171
44: 171
45: 171
46: 172
47: 172
48: 172
49: 173
50: 173
51: 174
52: 174
53: 174
54: 175
55: 175
56: 175
57: 176
58: 176
59: 177
60: 178
61: 178
62: 179
63: 179
64: 179
65: 180
66: 181
67: 181
68: 181
69: 182
70: 182
71: 183
72: 183
73: 184
74: 184
75: 185
76: 185
77: 185
78: 185
79: 185
80: 185
81: 186
82: 186
83: 187
84: 187
85: 187
86: 187
87: 187
88: 187
89: 188
90: 188
91: 188
92: 188
93: 189
94: 189
95: 189
96: 189
97: 189
98: 189
99: 190
100: 190
101: 190
102: 191
103: 191
104: 192
105: 192
106: 192
107: 192
108: 193
109: 193
110: 193
111: 193
112: 193
113: 194
114: 194
115: 194
116: 195
117: 195
118: 196
119: 196
120: 196
121: 196
122: 196
123: 197
124: 197
125: 197
126: 198
127: 198
128: 198
129: 198
130: 199
131: 199
132: 199
133: 200
134: 201
135: 202
136: 202
137: 202
138: 202
139: 202
140: 203
141: 203
142: 204
143: 204
144: 205
145: 205
146: 206
147: 206
148: 206
149: 206
150: 206
151: 207
152: 207
153: 207
154: 207
155: 207
156: 207
157: 207
segment: [6]
vertex id: label
149: 0
150: 3
151: 2
152: 2
153: 2
154: 2
155: 2
156: 2
157: 2
158: 2
159: 2
160: 2
161: 2
162: 2
163: 2
164: 2
165: 2
166: 2
167: 2
168: 2
169: 2
170: 2
171: 2
172: 2
173: 2
174: 2
175: 2
176: 2
177: 2
178: 2
179: 2
180: 2
181: 2
182: 2
183: 2
184: 2
185: 2
186: 2
187: 2
188: 2
189: 2
190: 2
191: 2
192: 2
193: 2
194: 2
195: 2
196: 2
197: 2
198: 2
0: 5
1: 5
2: 5
3: 5
4: 5
5: 5
6: 5
7: 5
8: 5
9: 5
10: 5
11: 5
12: 5
13: 5
14: 5
15: 5
16: 5
17: 5
18: 5
19: 5
20: 5
21: 5
22: 5
23: 5
24: 5
25: 5
26: 5
27: 5
28: 5
29: 5
30: 5
31: 5
32: 5
33: 5
34: 5
35: 5
36: 5
37: 5
38: 5
39: 5
40: 5
41: 5
42: 5
43: 5
44: 5
45: 5
46: 5
47: 5
48: 5
49: 5
50: 5
51: 5
52: 5
53: 5
54: 5
55: 5
56: 5
57: 5
58: 5
59: 5
60: 5
61: 5
62: 5
63: 5
64: 5
65: 5
66: 5
67: 5
68: 5
69: 5
70: 5
71: 5
72: 5
73: 5
74: 5
75: 5
76: 5
77: 5
78: 5
79: 5
80: 5
81: 5
82: 5
83: 5
84: 5
85: 5
86: 5
87: 5
88: 5
89: 5
90: 5
91: 5
92: 5
93: 5
94: 5
95: 5
96: 5
97: 5
98: 5
99: 5
100: 5
101: 5
102: 5
103: 5
104: 5
105: 5
106: 5
107: 5
108: 5
109: 5
110: 5
111: 5
112: 5
113: 5
114: 5
115: 5
116: 5
117: 5
118: 5
119: 5
120: 5
121: 5
122: 5
123: 5
124: 5
125: 5
126: 5
127: 5
128: 5
129: 5
130: 5
131: 5
132: 5
133: 5
134: 5
135: 5
136: 5
137: 5
138: 5
139: 5
140: 5
141: 5
142: 5
143: 5
144: 5
145: 5
146: 5
147: 5
148: 5
edge from: to
149: 0
149: 1
150: 7
151: 10
151: 11
152: 11
152: 12
153: 13
153: 14
154: 3
155: 20
156: 22
156: 23
157: 24
158: 32
158: 33
159: 32
159: 33
159: 34
160: 7
161: 37
161: 39
161: 40
162: 38
162: 41
162: 42
163: 43
163: 44
164: 43
164: 46
164: 47
165: 47
165: 49
165: 50
165: 51
166: 50
166: 53
166: 54
167: 54
168: 55
169: 59
170: 58
170: 62
170: 63
171: 65
171: 66
172: 69
172: 70
173: 73
174: 71
174: 74
174: 75
175: 75
175: 76
176: 77
176: 81
177: 82
177: 86
177: 87
178: 88
179: 88
179: 92
180: 93
180: 97
180: 98
181: 99
181: 100
182: 96
182: 101
183: 99
183: 104
184: 106
185: 102
185: 107
185: 108
186: 104
186: 109
186: 110
187: 110
187: 111
188: 116
188: 117
189: 111
189: 117
189: 118
190: 120
190: 121
191: 126
192: 128
192: 129
193: 125
193: 128
193: 129
193: 130
193: 131
194: 133
195: 136
195: 137
196: 132
196: 138
196: 139
197: 140
198: 142
198: 143
2: 149
3: 149
4: 149
5: 149
6: 149
7: 149
8: 150
9: 150
10: 150
11: 150
12: 151
13: 152
14: 152
15: 153
16: 153
17: 154
18: 154
19: 154
20: 154
21: 155
22: 155
23: 155
24: 156
25: 156
26: 157
27: 157
28: 157
29: 157
30: 157
31: 157
32: 157
33: 157
34: 158
35: 158
36: 159
37: 159
38: 160
39: 160
40: 160
41: 161
42: 161
43: 162
44: 162
45: 163
46: 163
47: 163
48: 164
49: 164
50: 164
51: 164
52: 165
53: 165
54: 165
55: 166
56: 167
57: 168
58: 168
59: 168
60: 168
61: 169
62: 169
63: 169
64: 170
65: 170
66: 170
67: 171
68: 171
69: 171
70: 171
71: 172
72: 172
73: 172
74: 172
75: 173
76: 173
77: 174
78: 175
79: 175
80: 175
81: 175
82: 175
83: 176
84: 176
85: 176
86: 176
87: 176
88: 176
89: 177
90: 177
91: 178
92: 178
93: 178
94: 178
95: 179
96: 179
97: 179
98: 179
99: 179
100: 180
101: 180
102: 181
103: 181
104: 182
105: 182
106: 182
107: 183
108: 183
109: 184
110: 185
111: 185
112: 186
113: 187
114: 187
115: 187
116: 187
117: 187
118: 187
119: 188
120: 189
121: 189
122: 189
123: 190
124: 190
125: 190
126: 190
127: 190
128: 190
129: 191
130: 191
131: 192
132: 192
133: 193
134: 193
135: 193
136: 194
137: 194
138: 194
139: 195
140: 195
141: 196
142: 196
143: 197
144: 197
145: 198
146: 198
147: 198
148: 198
segment: [7]
vertex id: label
123: 0
124: 3
125: 2
126: 2
127: 2
128: 2
129: 2
130: 2
131: 2
132: 2
133: 2
134: 2
135: 2
136: 2
137: 2
138: 2
139: 2
140: 2
141: 2
142: 2
143: 2
144: 2
145: 2
146: 2
147: 2
148: 2
149: 2
150: 2
151: 2
152: 2
153: 2
154: 2
155: 2
156: 2
157: 2
158: 2
159: 2
160: 2
161: 2
162: 2
163: 2
164: 2
165: 2
166: 2
167: 2
168: 2
169: 2
170: 2
171: 2
172: 2
0: 5
1: 5
2: 5
3: 5
4: 5
5: 5
6: 5
7: 5
8: 5
9: 5
10: 5
11: 5
12: 5
13: 5
14: 5
15: 5
16: 5
17: 5
18: 5
19: 5
20: 5
21: 5
22: 5
23: 5
24: 5
25: 5
26: 5
27: 5
28: 5
29: 5
30: 5
31: 5
32: 5
33: 5
34: 5
35: 5
36: 5
37: 5
38: 5
39: 5
40: 5
41: 5
42: 5
43: 5
44: 5
45: 5
46: 5
47: 5
48: 5
49: 5
50: 5
51: 5
52: 5
53: 5
54: 5
55: 5
56: 5
57: 5
58: 5
59: 5
60: 5
61: 5
62: 5
63: 5
64: 5
65: 5
66: 5
67: 5
68: 5
69: 5
70: 5
71: 5
72: 5
73: 5
74: 5
75: 5
76: 5
77: 5
78: 5
79: 5
80: 5
81: 5
82: 5
83: 5
84: 5
85: 5
86: 5
87: 5
88: 5
89: 5
90: 5
91: 5
92: 5
93: 5
94: 5
95: 5
96: 5
97: 5
98: 5
99: 5
100: 5
101: 5
102: 5
103: 5
104: 5
105: 5
106: 5
107: 5
108: 5
109: 5
110: 5
111: 5
112: 5
113: 5
114: 5
115: 5
116: 5
117: 5
118: 5
119: 5
120: 5
121: 5
122: 5
edge from: to
123: 0
124: 3
125: 6
126: 2
127: 11
127: 12
128: 13
128: 14
129: 3
129: 15
130: 16
130: 17
130: 18
131: 21
131: 22
132: 24
133: 26
133: 27
133: 28
134: 27
134: 29
134: 30
135: 30
135: 31
135: 32
135: 33
136: 34
137: 37
138: 40
139: 40
139: 43
139: 44
140: 45
141: 46
141: 47
142: 9
142: 44
142: 48
143: 47
143: 49
143: 50
143: 51
144: 52
144: 53
145: 53
146: 52
146: 56
146: 57
147: 60
148: 1
148: 12
148: 64
149: 1
149: 64
149: 65
150: 1
150: 65
150: 66
151: 68
152: 56
152: 66
152: 68
152: 69
152: 70
152: 71
153: 73
153: 74
154: 71
154: 74
154: 75
155: 73
155: 75
155: 76
155: 77
156: 79
157: 82
158: 82
158: 83
159: 85
159: 86
160: 91
161: 73
161: 87
161: 89
161: 91
161: 92
162: 93
163: 97
164: 94
164: 96
164: 98
165: 19
166: 102
166: 103
167: 102
167: 107
168: 109
169: 110
169: 111
170: 107
170: 112
171: 110
171: 115
172: 117
1: 123
2: 123
3: 123
4: 124
5: 124
6: 124
7: 125
8: 125
9: 125
10: 125
11: 126
12: 126
13: 127
14: 127
15: 128
16: 128
17: 129
18: 129
19: 130
20: 130
21: 130
22: 130
23: 131
24: 131
25: 131
26: 132
27: 132
28: 132
29: 133
30: 133
31: 134
32: 134
33: 134
34: 135
35: 135
36: 136
37: 136
38: 136
39: 137
40: 137
41: 137
42: 138
43: 138
44: 138
45: 139
46: 139
47: 140
48: 141
49: 142
50: 142
51: 142
52: 143
53: 143
54: 144
55: 145
56: 145
57: 145
58: 146
59: 146
60: 146
61: 146
62: 147
63: 147
64: 147
65: 148
66: 149
67: 150
68: 150
69: 150
70: 151
71: 151
72: 152
73: 152
74: 152
75: 153
76: 153
77: 154
78: 154
79: 155
80: 155
81: 156
82: 156
83: 156
84: 157
85: 158
86: 158
87: 158
88: 159
89: 159
90: 159
91: 159
92: 159
93: 160
94: 161
95: 161
96: 162
97: 162
98: 162
99: 162
100: 163
101: 164
102: 164
103: 165
104: 165
105: 166
106: 166
107: 166
108: 166
109: 166
110: 167
111: 167
112: 168
113: 169
114: 169
115: 170
116: 170
117: 170
118: 171
119: 171
120: 172
121: 172
122: 172
segment: [8]
vertex id: label
141: 0
142: 3
143: 2
144: 2
145: 2
146: 2
147: 2
148: 2
149: 2
150: 2
151: 2
152: 2
153: 2
154: 2
155: 2
156: 2
157: 2
158: 2
159: 2
160: 2
161: 2
162: 2
163: 2
164: 2
165: 2
166: 2
167: 2
168: 2
169: 2
170: 2
171: 2
172: 2
173: 2
174: 2
175: 2
176: 2
177: 2
178: 2
179: 2
180: 2
181: 2
182: 2
183: 2
184: 2
185: 2
186: 2
187: 2
188: 2
189: 2
190: 2
0: 5
1: 5
2: 5
3: 5
4: 5
5: 5
6: 5
7: 5
8: 5
9: 5
10: 5
11: 5
12: 5
13: 5
14: 5
15: 5
16: 5
17: 5
18: 5
19: 5
20: 5
21: 5
22: 5
23: 5
24: 5
25: 5
26: 5
27: 5
28: 5
29: 5
30: 5
31: 5
32: 5
33: 5
34: 5
35: 5
36: 5
37: 5
38: 5
39: 5
40: 5
41: 5
42: 5
43: 5
44: 5
45: 5
46: 5
47: 5
48: 5
49: 5
50: 5
51: 5
52: 5
53: 5
54: 5
55: 5
56: 5
57: 5
58: 5
59: 5
60: 5
61: 5
62: 5
63: 5
64: 5
65: 5
66: 5
67: 5
68: 5
69: 5
70: 5
71: 5
72: 5
73: 5
74: 5
75: 5
76: 5
77: 5
78: 5
79: 5
80: 5
81: 5
82: 5
83: 5
84: 5
85: 5
86: 5
87: 5
88: 5
89: 5
90: 5
91: 5
92: 5
93: 5
94: 5
95: 5
96: 5
97: 5
98: 5
99: 5
100: 5
101: 5
102: 5
103: 5
104: 5
105: 5
106: 5
107: 5
108: 5
109: 5
110: 5
111: 5
112: 5
113: 5
114: 5
115: 5
116: 5
117: 5
118: 5
119: 5
120: 5
121: 5
122: 5
123: 5
124: 5
125: 5
126: 5
127: 5
128: 5
129: 5
130: 5
131: 5
132: 5
133: 5
134: 5
135: 5
136: 5
137: 5
138: 5
139: 5
140: 5
edge from: to
141: 0
141: 1
142: 6
142: 7
143: 12
143: 13
144: 1
144: 13
144: 14
145: 2
145: 3
145: 13
145: 15
145: 16
146: 19
147: 4
147: 19
147: 21
148: 22
148: 23
149: 23
149: 24
150: 26
150: 27
151: 6
151: 31
152: 35
152: 36
153: 40
154: 44
155: 43
155: 45
155: 46
155: 47
156: 9
157: 47
157: 50
157: 51
158: 53
159: 53
159: 57
159: 58
160: 58
160: 59
161: 60
162: 62
163: 1
163: 12
163: 62
163: 64
164: 66
165: 65
165: 69
165: 70
166: 14
166: 70
166: 73
167: 74
167: 75
168: 77
169: 79
169: 80
170: 78
170: 81
170: 82
171: 79
171: 83
171: 84
172: 86
172: 87
173: 17
173: 89
174: 91
175: 95
175: 96
176: 99
177: 19
178: 104
179: 108
180: 109
181: 106
181: 111
181: 112
182: 113
183: 117
184: 120
184: 121
185: 121
185: 122
186: 118
186: 124
186: 125
187: 125
188: 129
189: 130
189: 131
190: 133
190: 134
2: 141
3: 141
4: 141
5: 141
6: 141
7: 141
8: 142
9: 142
10: 142
11: 142
12: 142
13: 142
14: 143
15: 144
16: 144
17: 145
18: 145
19: 145
20: 146
21: 146
22: 147
23: 147
24: 148
25: 148
26: 149
27: 149
28: 149
29: 150
30: 150
31: 150
32: 150
33: 151
34: 151
35: 151
36: 151
37: 152
38: 152
39: 152
40: 152
41: 152
42: 153
43: 153
44: 153
45: 153
46: 154
47: 154
48: 155
49: 156
50: 156
51: 156
52: 157
53: 157
54: 157
55: 158
56: 158
57: 158
58: 158
59: 159
60: 160
61: 160
62: 161
63: 161
64: 162
65: 163
66: 163
67: 163
68: 164
69: 164
70: 164
71: 165
72: 165
73: 165
74: 165
75: 165
76: 166
77: 167
78: 167
79: 168
80: 168
81: 168
82: 169
83: 169
84: 170
85: 170
86: 171
87: 171
88: 171
89: 172
90: 172
91: 172
92: 173
93: 173
94: 174
95: 174
96: 174
97: 174
98: 175
99: 175
100: 175
101: 175
102: 176
103: 177
104: 177
105: 177
106: 177
107: 178
108: 178
109: 178
110: 178
111: 179
112: 180
113: 180
114: 181
115: 181
116: 182
117: 182
118: 182
119: 182
120: 183
121: 183
122: 183
123: 184
124: 185
125: 185
126: 185
127: 186
128: 187
129: 187
130: 187
131: 187
132: 188
133: 189
134: 189
135: 189
136: 190
137: 190
138: 190
139: 190
140: 190
segment: [9]
vertex id: label
152: 0
153: 3
154: 0
155: 4
156: 3
157: 3
158: 2
159: 2
160: 2
161: 2
162: 2
163: 2
164: 2
165: 2
166: 2
167: 2
168: 2
169: 2
170: 2
171: 2
172: 2
173: 2
174: 2
175: 2
176: 2
177: 2
178: 2
179: 2
180: 2
181: 2
182: 2
183: 2
184: 2
185: 2
186: 2
187: 2
188: 2
189: 2
190: 2
191: 2
192: 2
193: 2
194: 2
195: 2
196: 2
197: 2
198: 2
199: 2
200: 2
201: 2
0: 5
1: 5
2: 5
3: 5
4: 5
5: 5
6: 5
7: 5
8: 5
9: 5
10: 5
11: 5
12: 5
13: 5
14: 5
15: 5
16: 5
17: 5
18: 5
19: 5
20: 5
21: 5
22: 5
23: 5
24: 5
25: 5
26: 5
27: 5
28: 5
29: 5
30: 5
31: 5
32: 5
33: 5
34: 5
35: 5
36: 5
37: 5
38: 5
39: 5
40: 5
41: 5
42: 5
43: 5
44: 5
45: 5
46: 5
47: 5
48: 5
49: 5
50: 5
51: 5
52: 5
53: 5
54: 5
55: 5
56: 5
57: 5
58: 5
59: 5
60: 5
61: 5
62: 5
63: 5
64: 5
65: 5
66: 5
67: 5
68: 5
69: 5
70: 5
71: 5
72: 5
73: 5
74: 5
75: 5
76: 5
77: 5
78: 5
79: 5
80: 5
81: 5
82: 5
83: 5
84: 5
85: 5
86: 5
87: 5
88: 5
89: 5
90: 5
91: 5
92: 5
93: 5
94: 5
95: 5
96: 5
97: 5
98: 5
99: 5
100: 5
101: 5
102: 5
103: 5
104: 5
105: 5
106: 5
107: 5
108: 5
109: 5
110: 5
111: 5
112: 5
113: 5
114: 5
115: 5
116: 5
117: 5
118: 5
119: 5
120: 5
121: 5
122: 5
123: 5
124: 5
125: 5
126: 5
127: 5
128: 5
129: 5
130: 5
131: 5
132: 5
133: 5
134: 5
135: 5
136: 5
137: 5
138: 5
139: 5
140: 5
141: 5
142: 5
143: 5
144: 5
145: 5
146: 5
147: 5
148: 5
149: 5
150: 5
151: 5
edge from: to
152: 0
153: 0
153: 2
154: 0
154: 3
154: 4
155: 8
156: 2
157: 14
158: 7
158: 14
158: 15
158: 16
158: 17
159: 22
159: 23
160: 24
161: 26
162: 23
162: 27
162: 28
162: 29
163: 34
164: 38
165: 41
166: 39
166: 42
167: 42
167: 45
168: 49
168: 50
168: 52
168: 53
169: 52
169: 56
169: 57
170: 58
170: 62
170: 63
171: 1
171: 64
171: 65
172: 66
172: 67
173: 56
173: 66
173: 68
173: 70
173: 71
174: 72
174: 73
175: 76
175: 77
176: 79
177: 81
178: 78
178: 82
178: 83
179: 85
179: 86
180: 17
180: 89
181: 88
181: 92
181: 93
182: 96
183: 96
183: 101
184: 103
184: 104
185: 102
185: 107
186: 104
186: 107
186: 109
186: 110
187: 113
187: 114
188: 117
188: 118
189: 118
190: 113
190: 119
190: 120
191: 124
192: 24
192: 128
193: 129
194: 131
195: 132
196: 135
196: 136
197: 132
197: 138
197: 139
198: 136
198: 142
198: 143
199: 144
200: 145
201: 148
201: 149
1: 152
2: 152
3: 153
4: 153
5: 154
6: 154
7: 154
8: 154
9: 155
10: 155
11: 156
12: 156
13: 156
14: 156
15: 157
16: 157
17: 157
18: 158
19: 158
20: 158
21: 158
22: 158
23: 158
24: 159
25: 159
26: 160
27: 160
28: 161
29: 161
30: 162
31: 162
32: 162
33: 162
34: 162
35: 162
36: 163
37: 163
38: 163
39: 163
40: 164
41: 164
42: 164
43: 165
44: 166
45: 166
46: 166
47: 167
48: 167
49: 167
50: 167
51: 167
52: 167
53: 167
54: 168
55: 168
56: 168
57: 168
58: 169
59: 169
60: 169
61: 169
62: 169
63: 169
64: 170
65: 170
66: 171
67: 171
68: 172
69: 172
70: 172
71: 172
72: 173
73: 173
74: 174
75: 174
76: 174
77: 174
78: 174
79: 175
80: 175
81: 176
82: 176
83: 177
84: 177
85: 178
86: 178
87: 178
88: 179
89: 179
90: 179
91: 179
92: 180
93: 180
94: 180
95: 181
96: 181
97: 181
98: 181
99: 182
100: 182
101: 182
102: 182
103: 182
104: 183
105: 183
106: 184
107: 184
108: 184
109: 184
110: 185
111: 185
112: 186
113: 186
114: 186
115: 186
116: 187
117: 187
118: 187
119: 187
120: 188
121: 189
122: 190
123: 190
124: 190
125: 190
126: 190
127: 191
128: 191
129: 191
130: 192
131: 192
132: 193
133: 193
134: 194
135: 195
136: 195
137: 195
138: 196
139: 196
140: 196
141: 197
142: 197
143: 197
144: 197
145: 198
146: 198
147: 199
148: 200
149: 200
150: 200
151: 201
