segment: [0]
vertex id: label
148: 0
149: 1
150: 2
151: 4
152: 0
153: 1
154: 2
155: 4
156: 1
157: 2
158: 4
159: 0
160: 2
161: 3
162: 2
163: 4
164: 0
165: 2
166: 3
167: 3
168: 2
169: 4
170: 0
171: 2
172: 4
173: 0
174: 1
175: 2
176: 4
177: 0
178: 1
179: 2
180: 4
181: 3
182: 2
183: 3
184: 0
185: 1
186: 2
187: 4
188: 0
189: 1
190: 2
191: 4
192: 0
193: 1
194: 2
195: 4
196: 0
197: 2
0: 5
1: 5
2: 5
3: 5
4: 5
5: 5
6: 5
7: 5
8: 5
9: 5
10: 5
11: 5
12: 5
13: 5
14: 5
15: 5
16: 5
17: 5
18: 5
19: 5
20: 5
21: 5
22: 5
23: 5
24: 5
25: 5
26: 5
27: 5
28: 5
29: 5
30: 5
31: 5
32: 5
33: 5
34: 5
35: 5
36: 5
37: 5
38: 5
39: 5
40: 5
41: 5
42: 5
43: 5
44: 5
45: 5
46: 5
47: 5
48: 5
49: 5
50: 5
51: 5
52: 5
53: 5
54: 5
55: 5
56: 5
57: 5
58: 5
59: 5
60: 5
61: 5
62: 5
63: 5
64: 5
65: 5
66: 5
67: 5
68: 5
69: 5
70: 5
71: 5
72: 5
73: 5
74: 5
75: 5
76: 5
77: 5
78: 5
79: 5
80: 5
81: 5
82: 5
83: 5
84: 5
85: 5
86: 5
87: 5
88: 5
89: 5
90: 5
91: 5
92: 5
93: 5
94: 5
95: 5
96: 5
97: 5
98: 5
99: 5
100: 5
101: 5
102: 5
103: 5
104: 5
105: 5
106: 5
107: 5
108: 5
109: 5
110: 5
111: 5
112: 5
113: 5
114: 5
115: 5
116: 5
117: 5
118: 5
119: 5
120: 5
121: 5
122: 5
123: 5
124: 5
125: 5
126: 5
127: 5
128: 5
129: 5
130: 5
131: 5
132: 5
133: 5
134: 5
135: 5
136: 5
137: 5
138: 5
139: 5
140: 5
141: 5
142: 5
143: 5
144: 5
145: 5
146: 5
147: 5
edge from: to
148: 0
148: 1
148: 2
149: 3
150: 5
150: 7
151: 8
152: 6
152: 9
153: 10
154: 16
154: 17
155: 10
155: 17
155: 20
155: 22
156: 27
156: 29
157: 31
157: 32
158: 26
158: 31
158: 32
158: 34
159: 24
160: 23
160: 34
160: 36
160: 37
161: 26
161: 39
162: 41
163: 41
163: 44
163: 45
164: 52
165: 55
166: 37
167: 39
168: 41
168: 62
169: 61
169: 64
170: 68
171: 32
171: 68
171: 72
172: 71
172: 75
173: 74
173: 78
174: 36
174: 78
174: 81
175: 84
175: 87
176: 92
177: 90
177: 93
178: 87
178: 91
178: 96
179: 97
180: 96
180: 100
181: 67
181: 102
182: 68
182: 99
182: 104
183: 107
184: 105
184: 109
185: 108
185: 112
186: 102
186: 109
186: 113
187: 51
187: 115
188: 113
188: 117
189: 120
190: 122
191: 121
191: 127
192: 129
193: 88
194: 88
194: 130
194: 135
195: 132
195: 138
196: 137
196: 142
197: 131
197: 138
197: 145
3: 148
4: 148
5: 149
6: 149
7: 149
8: 150
9: 150
10: 150
11: 150
12: 150
13: 151
14: 152
15: 152
16: 153
17: 153
18: 154
19: 154
20: 154
21: 154
22: 154
23: 155
24: 155
25: 155
26: 155
27: 155
28: 155
29: 155
30: 156
31: 156
32: 156
33: 157
34: 157
35: 158
36: 158
37: 159
38: 160
39: 160
40: 161
41: 161
42: 162
43: 162
44: 162
45: 162
46: 163
47: 163
48: 163
49: 163
50: 163
51: 163
52: 163
53: 164
54: 164
55: 164
56: 165
57: 166
58: 166
59: 166
60: 167
61: 167
62: 167
63: 168
64: 168
65: 169
66: 169
67: 169
68: 169
69: 170
70: 170
71: 170
72: 170
73: 171
74: 171
75: 171
76: 172
77: 172
78: 172
79: 173
80: 173
81: 173
82: 174
83: 174
84: 174
85: 174
86: 174
87: 174
88: 175
89: 175
90: 175
91: 175
92: 175
93: 176
94: 177
95: 177
96: 177
97: 178
98: 179
99: 179
100: 179
101: 180
102: 180
103: 181
104: 181
105: 182
106: 182
107: 182
108: 183
109: 183
110: 184
111: 184
112: 184
113: 185
114: 186
115: 186
116: 187
117: 187
118: 188
119: 188
120: 188
121: 189
122: 189
123: 190
124: 190
125: 190
126: 190
127: 190
128: 191
129: 191
130: 192
131: 192
132: 192
133: 192
134: 192
135: 193
136: 194
137: 194
138: 194
139: 195
140: 195
141: 195
142: 195
143: 196
144: 196
145: 196
146: 197
147: 197
segment: [1]
vertex id: label
148: 0
149: 2
150: 4
151: 0
152: 1
153: 2
154: 4
155: 0
156: 1
157: 2
158: 4
159: 0
160: 2
161: 4
162: 0
163: 2
164: 4
165: 0
166: 1
167: 2
168: 4
169: 0
170: 1
171: 1
172: 1
173: 1
174: 2
175: 4
176: 0
177: 1
178: 2
179: 4
180: 4
181: 0
182: 1
183: 2
184: 4
185: 0
186: 0
187: 1
188: 2
189: 4
190: 0
191: 1
192: 1
193: 2
194: 4
195: 3
196: 2
197: 4
0: 5
1: 5
2: 5
3: 5
4: 5
5: 5
6: 5
7: 5
8: 5
9: 5
10: 5
11: 5
12: 5
13: 5
14: 5
15: 5
16: 5
17: 5
18: 5
19: 5
20: 5
21: 5
22: 5
23: 5
24: 5
25: 5
26: 5
27: 5
28: 5
29: 5
30: 5
31: 5
32: 5
33: 5
34: 5
35: 5
36: 5
37: 5
38: 5
39: 5
40: 5
41: 5
42: 5
43: 5
44: 5
45: 5
46: 5
47: 5
48: 5
49: 5
50: 5
51: 5
52: 5
53: 5
54: 5
55: 5
56: 5
57: 5
58: 5
59: 5
60: 5
61: 5
62: 5
63: 5
64: 5
65: 5
66: 5
67: 5
68: 5
69: 5
70: 5
71: 5
72: 5
73: 5
74: 5
75: 5
76: 5
77: 5
78: 5
79: 5
80: 5
81: 5
82: 5
83: 5
84: 5
85: 5
86: 5
87: 5
88: 5
89: 5
90: 5
91: 5
92: 5
93: 5
94: 5
95: 5
96: 5
97: 5
98: 5
99: 5
100: 5
101: 5
102: 5
103: 5
104: 5
105: 5
106: 5
107: 5
108: 5
109: 5
110: 5
111: 5
112: 5
113: 5
114: 5
115: 5
116: 5
117: 5
118: 5
119: 5
120: 5
121: 5
122: 5
123: 5
124: 5
125: 5
126: 5
127: 5
128: 5
129: 5
130: 5
131: 5
132: 5
133: 5
134: 5
135: 5
136: 5
137: 5
138: 5
139: 5
140: 5
141: 5
142: 5
143: 5
144: 5
145: 5
146: 5
147: 5
edge from: to
148: 0
148: 1
148: 2
149: 0
149: 7
149: 8
150: 7
150: 9
150: 10
151: 0
151: 16
151: 17
152: 17
152: 20
153: 21
153: 23
154: 23
154: 25
155: 28
156: 32
157: 34
158: 37
159: 26
159: 38
159: 39
160: 18
160: 40
161: 43
161: 44
162: 43
162: 46
162: 49
163: 48
163: 51
164: 54
165: 37
166: 38
166: 53
166: 55
166: 56
166: 58
167: 40
167: 59
167: 61
168: 57
168: 61
168: 63
169: 29
169: 43
170: 44
170: 65
170: 67
171: 68
172: 75
173: 50
174: 78
175: 54
175: 78
175: 82
176: 84
177: 56
177: 77
177: 78
177: 81
177: 83
177: 85
178: 58
178: 88
179: 92
180: 84
180: 90
180: 93
181: 97
182: 100
183: 103
184: 106
185: 105
185: 109
186: 113
187: 117
188: 119
189: 123
190: 82
190: 125
191: 114
191: 120
191: 126
192: 115
192: 121
192: 127
193: 58
193: 86
194: 88
194: 134
195: 130
195: 135
196: 132
196: 138
197: 136
197: 143
3: 148
4: 148
5: 148
6: 148
7: 148
8: 148
9: 149
10: 149
11: 150
12: 150
13: 150
14: 150
15: 150
16: 150
17: 150
18: 151
19: 151
20: 151
21: 152
22: 152
23: 152
24: 153
25: 153
26: 154
27: 154
28: 154
29: 155
30: 155
31: 155
32: 155
33: 156
34: 156
35: 157
36: 157
37: 157
38: 158
39: 158
40: 159
41: 160
42: 160
43: 160
44: 160
45: 161
46: 161
47: 161
48: 161
49: 161
50: 162
51: 162
52: 163
53: 163
54: 163
55: 164
56: 164
57: 165
58: 165
59: 166
60: 166
61: 166
62: 167
63: 167
64: 168
65: 168
66: 169
67: 169
68: 170
69: 171
70: 171
71: 171
72: 171
73: 171
74: 171
75: 171
76: 172
77: 173
78: 173
79: 174
80: 174
81: 174
82: 174
83: 175
84: 175
85: 176
86: 177
87: 177
88: 177
89: 178
90: 178
91: 178
92: 178
93: 179
94: 180
95: 180
96: 180
97: 180
98: 181
99: 181
100: 181
101: 182
102: 182
103: 182
104: 183
105: 183
106: 183
107: 184
108: 184
109: 184
110: 185
111: 185
112: 185
113: 185
114: 186
115: 186
116: 186
117: 186
118: 187
119: 187
120: 188
121: 188
122: 188
123: 188
124: 189
125: 189
126: 190
127: 191
128: 192
129: 192
130: 192
131: 192
132: 193
133: 193
134: 193
135: 194
136: 195
137: 195
138: 195
139: 196
140: 196
141: 196
142: 196
143: 196
144: 197
145: 197
146: 197
147: 197
segment: [2]
vertex id: label
140: 0
141: 0
142: 1
143: 2
144: 4
145: 0
146: 2
147: 4
148: 0
149: 1
150: 2
151: 4
152: 0
153: 2
154: 4
155: 0
156: 2
157: 4
158: 0
159: 2
160: 0
161: 0
162: 1
163: 2
164: 4
165: 0
166: 1
167: 2
168: 4
169: 0
170: 1
171: 2
172: 4
173: 0
174: 1
175: 2
176: 4
177: 0
178: 0
179: 2
180: 4
181: 0
182: 1
183: 2
184: 4
185: 0
186: 2
187: 4
188: 0
189: 2
0: 5
1: 5
2: 5
3: 5
4: 5
5: 5
6: 5
7: 5
8: 5
9: 5
10: 5
11: 5
12: 5
13: 5
14: 5
15: 5
16: 5
17: 5
18: 5
19: 5
20: 5
21: 5
22: 5
23: 5
24: 5
25: 5
26: 5
27: 5
28: 5
29: 5
30: 5
31: 5
32: 5
33: 5
34: 5
35: 5
36: 5
37: 5
38: 5
39: 5
40: 5
41: 5
42: 5
43: 5
44: 5
45: 5
46: 5
47: 5
48: 5
49: 5
50: 5
51: 5
52: 5
53: 5
54: 5
55: 5
56: 5
57: 5
58: 5
59: 5
60: 5
61: 5
62: 5
63: 5
64: 5
65: 5
66: 5
67: 5
68: 5
69: 5
70: 5
71: 5
72: 5
73: 5
74: 5
75: 5
76: 5
77: 5
78: 5
79: 5
80: 5
81: 5
82: 5
83: 5
84: 5
85: 5
86: 5
87: 5
88: 5
89: 5
90: 5
91: 5
92: 5
93: 5
94: 5
95: 5
96: 5
97: 5
98: 5
99: 5
100: 5
101: 5
102: 5
103: 5
104: 5
105: 5
106: 5
107: 5
108: 5
109: 5
110: 5
111: 5
112: 5
113: 5
114: 5
115: 5
116: 5
117: 5
118: 5
119: 5
120: 5
121: 5
122: 5
123: 5
124: 5
125: 5
126: 5
127: 5
128: 5
129: 5
130: 5
131: 5
132: 5
133: 5
134: 5
135: 5
136: 5
137: 5
138: 5
139: 5
edge from: to
140: 0
140: 1
141: 0
141: 1
141: 2
141: 3
142: 3
142: 4
143: 6
144: 6
144: 9
145: 11
146: 12
147: 0
147: 17
147: 20
148: 14
148: 18
148: 19
148: 21
149: 21
149: 23
150: 18
151: 29
152: 31
153: 22
153: 30
153: 32
153: 33
154: 31
154: 32
154: 34
155: 24
155: 34
155: 36
156: 17
156: 38
157: 18
157: 38
157: 40
158: 43
159: 41
159: 44
159: 45
160: 21
160: 44
160: 47
161: 48
161: 51
162: 49
162: 52
162: 54
163: 39
163: 59
164: 43
165: 66
166: 67
167: 70
168: 67
168: 70
168: 74
169: 51
169: 74
169: 78
170: 52
170: 79
171: 54
171: 82
172: 80
172: 84
173: 58
173: 88
174: 88
174: 91
175: 91
175: 94
176: 90
176: 95
177: 93
177: 98
178: 99
179: 99
179: 104
180: 107
181: 98
181: 105
181: 109
182: 106
182: 110
183: 51
183: 115
184: 114
184: 120
185: 117
185: 123
186: 84
187: 58
187: 86
188: 132
189: 131
189: 136
2: 140
3: 140
4: 141
5: 141
6: 141
7: 142
8: 142
9: 142
10: 143
11: 143
12: 143
13: 143
14: 144
15: 144
16: 144
17: 145
18: 145
19: 146
20: 146
21: 147
22: 148
23: 148
24: 149
25: 149
26: 149
27: 149
28: 150
29: 150
30: 151
31: 151
32: 152
33: 152
34: 153
35: 154
36: 154
37: 155
38: 155
39: 156
40: 156
41: 157
42: 157
43: 157
44: 158
45: 158
46: 159
47: 159
48: 160
49: 160
50: 160
51: 160
52: 161
53: 161
54: 161
55: 162
56: 162
57: 162
58: 162
59: 162
60: 163
61: 163
62: 163
63: 163
64: 163
65: 163
66: 164
67: 165
68: 166
69: 166
70: 166
71: 167
72: 167
73: 167
74: 167
75: 168
76: 168
77: 168
78: 168
79: 169
80: 170
81: 170
82: 170
83: 171
84: 171
85: 172
86: 172
87: 172
88: 172
89: 173
90: 173
91: 173
92: 174
93: 174
94: 174
95: 175
96: 176
97: 176
98: 176
99: 177
100: 178
101: 178
102: 178
103: 178
104: 178
105: 179
106: 179
107: 179
108: 180
109: 180
110: 181
111: 182
112: 182
113: 182
114: 182
115: 182
116: 183
117: 183
118: 183
119: 183
120: 183
121: 184
122: 184
123: 184
124: 185
125: 185
126: 185
127: 185
128: 185
129: 186
130: 186
131: 186
132: 187
133: 188
134: 188
135: 188
136: 188
137: 189
138: 189
139: 189
segment: [3]
vertex id: label
139: 0
140: 1
141: 2
142: 4
143: 0
144: 1
145: 2
146: 4
147: 0
148: 1
149: 1
150: 2
151: 4
152: 1
153: 2
154: 4
155: 4
156: 0
157: 1
158: 2
159: 4
160: 0
161: 0
162: 1
163: 2
164: 4
165: 0
166: 2
167: 0
168: 1
169: 2
170: 4
171: 1
172: 2
173: 4
174: 0
175: 0
176: 1
177: 2
178: 4
179: 0
180: 2
181: 4
182: 0
183: 2
184: 4
185: 0
186: 2
187: 0
188: 1
0: 5
1: 5
2: 5
3: 5
4: 5
5: 5
6: 5
7: 5
8: 5
9: 5
10: 5
11: 5
12: 5
13: 5
14: 5
15: 5
16: 5
17: 5
18: 5
19: 5
20: 5
21: 5
22: 5
23: 5
24: 5
25: 5
26: 5
27: 5
28: 5
29: 5
30: 5
31: 5
32: 5
33: 5
34: 5
35: 5
36: 5
37: 5
38: 5
39: 5
40: 5
41: 5
42: 5
43: 5
44: 5
45: 5
46: 5
47: 5
48: 5
49: 5
50: 5
51: 5
52: 5
53: 5
54: 5
55: 5
56: 5
57: 5
58: 5
59: 5
60: 5
61: 5
62: 5
63: 5
64: 5
65: 5
66: 5
67: 5
68: 5
69: 5
70: 5
71: 5
72: 5
73: 5
74: 5
75: 5
76: 5
77: 5
78: 5
79: 5
80: 5
81: 5
82: 5
83: 5
84: 5
85: 5
86: 5
87: 5
88: 5
89: 5
90: 5
91: 5
92: 5
93: 5
94: 5
95: 5
96: 5
97: 5
98: 5
99: 5
100: 5
101: 5
102: 5
103: 5
104: 5
105: 5
106: 5
107: 5
108: 5
109: 5
110: 5
111: 5
112: 5
113: 5
114: 5
115: 5
116: 5
117: 5
118: 5
119: 5
120: 5
121: 5
122: 5
123: 5
124: 5
125: 5
126: 5
127: 5
128: 5
129: 5
130: 5
131: 5
132: 5
133: 5
134: 5
135: 5
136: 5
137: 5
138: 5
edge from: to
139: 0
139: 1
139: 2
140: 5
141: 7
141: 10
142: 8
143: 6
143: 9
143: 12
144: 10
145: 16
145: 17
146: 13
146: 16
146: 19
147: 25
148: 18
148: 25
148: 27
149: 20
149: 30
150: 32
151: 24
152: 37
153: 28
154: 45
154: 46
155: 33
155: 47
155: 50
156: 48
156: 51
157: 53
157: 55
158: 55
158: 58
159: 39
159: 59
160: 60
161: 41
161: 62
162: 60
162: 64
162: 66
163: 61
163: 67
163: 69
164: 63
164: 68
164: 70
165: 32
165: 68
165: 72
166: 77
167: 80
168: 54
168: 74
168: 78
168: 82
169: 75
169: 79
169: 83
170: 83
170: 86
171: 40
171: 87
171: 90
172: 89
172: 92
173: 91
173: 96
174: 64
174: 89
174: 93
174: 98
175: 96
175: 101
176: 103
177: 99
177: 104
178: 47
178: 106
179: 71
179: 108
180: 85
180: 101
180: 104
180: 108
180: 112
181: 113
182: 113
182: 117
183: 119
184: 116
184: 122
185: 118
185: 124
186: 82
186: 125
187: 84
187: 122
187: 128
188: 127
188: 132
3: 139
4: 139
5: 139
6: 140
7: 140
8: 140
9: 140
10: 140
11: 141
12: 141
13: 142
14: 143
15: 143
16: 144
17: 144
18: 145
19: 145
20: 146
21: 146
22: 146
23: 146
24: 146
25: 146
26: 147
27: 147
28: 148
29: 148
30: 148
31: 149
32: 149
33: 150
34: 150
35: 150
36: 150
37: 151
38: 152
39: 152
40: 152
41: 152
42: 152
43: 153
44: 153
45: 153
46: 153
47: 154
48: 154
49: 154
50: 154
51: 155
52: 156
53: 156
54: 156
55: 156
56: 157
57: 157
58: 157
59: 158
60: 159
61: 160
62: 160
63: 161
64: 161
65: 161
66: 161
67: 162
68: 162
69: 162
70: 163
71: 164
72: 164
73: 165
74: 165
75: 165
76: 165
77: 165
78: 166
79: 166
80: 166
81: 167
82: 167
83: 168
84: 169
85: 169
86: 169
87: 170
88: 170
89: 170
90: 170
91: 171
92: 171
93: 172
94: 172
95: 172
96: 172
97: 173
98: 173
99: 174
100: 174
101: 174
102: 175
103: 175
104: 176
105: 177
106: 177
107: 178
108: 178
109: 179
110: 179
111: 179
112: 179
113: 180
114: 181
115: 181
116: 181
117: 181
118: 182
119: 182
120: 183
121: 183
122: 183
123: 184
124: 184
125: 185
126: 186
127: 186
128: 186
129: 187
130: 187
131: 187
132: 187
133: 188
134: 188
135: 188
136: 188
137: 188
138: 188
segment: [4]
vertex id: label
135: 0
136: 2
137: 4
138: 3
139: 2
140: 4
141: 0
142: 1
143: 2
144: 4
145: 0
146: 0
147: 1
148: 2
149: 4
150: 3
151: 0
152: 1
153: 2
154: 4
155: 0
156: 2
157: 4
158: 0
159: 2
160: 4
161: 0
162: 1
163: 2
164: 4
165: 3
166: 2
167: 4
168: 3
169: 2
170: 4
171: 0
172: 1
173: 2
174: 4
175: 0
176: 2
177: 4
178: 0
179: 0
180: 2
181: 4
182: 4
183: 0
184: 1
0: 5
1: 5
2: 5
3: 5
4: 5
5: 5
6: 5
7: 5
8: 5
9: 5
10: 5
11: 5
12: 5
13: 5
14: 5
15: 5
16: 5
17: 5
18: 5
19: 5
20: 5
21: 5
22: 5
23: 5
24: 5
25: 5
26: 5
27: 5
28: 5
29: 5
30: 5
31: 5
32: 5
33: 5
34: 5
35: 5
36: 5
37: 5
38: 5
39: 5
40: 5
41: 5
42: 5
43: 5
44: 5
45: 5
46: 5
47: 5
48: 5
49: 5
50: 5
51: 5
52: 5
53: 5
54: 5
55: 5
56: 5
57: 5
58: 5
59: 5
60: 5
61: 5
62: 5
63: 5
64: 5
65: 5
66: 5
67: 5
68: 5
69: 5
70: 5
71: 5
72: 5
73: 5
74: 5
75: 5
76: 5
77: 5
78: 5
79: 5
80: 5
81: 5
82: 5
83: 5
84: 5
85: 5
86: 5
87: 5
88: 5
89: 5
90: 5
91: 5
92: 5
93: 5
94: 5
95: 5
96: 5
97: 5
98: 5
99: 5
100: 5
101: 5
102: 5
103: 5
104: 5
105: 5
106: 5
107: 5
108: 5
109: 5
110: 5
111: 5
112: 5
113: 5
114: 5
115: 5
116: 5
117: 5
118: 5
119: 5
120: 5
121: 5
122: 5
123: 5
124: 5
125: 5
126: 5
127: 5
128: 5
129: 5
130: 5
131: 5
132: 5
133: 5
134: 5
edge from: to
135: 0
136: 2
136: 3
137: 7
137: 8
138: 7
138: 10
139: 17
140: 13
141: 14
141: 18
141: 21
142: 25
142: 26
143: 26
143: 27
143: 28
144: 20
144: 26
144: 28
144: 30
145: 31
145: 32
146: 24
146: 34
146: 36
147: 40
148: 40
148: 41
149: 43
149: 44
150: 42
150: 45
150: 46
151: 46
151: 49
152: 35
153: 52
153: 54
154: 54
154: 57
155: 59
155: 61
156: 64
157: 29
157: 43
158: 66
158: 68
159: 64
159: 67
159: 71
160: 32
160: 72
161: 70
161: 73
161: 77
162: 78
163: 52
163: 76
163: 79
164: 55
164: 76
164: 77
164: 80
164: 84
165: 86
166: 58
166: 85
166: 88
167: 40
167: 90
168: 90
168: 93
169: 85
169: 87
169: 91
169: 94
170: 93
170: 98
170: 103
171: 106
172: 110
173: 112
174: 114
175: 51
175: 115
176: 113
176: 117
177: 119
178: 110
178: 116
178: 122
179: 118
179: 124
180: 114
180: 120
180: 126
181: 129
182: 117
182: 121
182: 125
182: 127
182: 130
183: 127
183: 132
184: 120
184: 128
184: 133
1: 135
2: 135
3: 135
4: 136
5: 136
6: 136
7: 136
8: 136
9: 137
10: 137
11: 137
12: 137
13: 137
14: 137
15: 137
16: 138
17: 138
18: 139
19: 139
20: 140
21: 140
22: 141
23: 141
24: 141
25: 141
26: 141
27: 142
28: 142
29: 143
30: 143
31: 144
32: 144
33: 145
34: 145
35: 145
36: 145
37: 146
38: 146
39: 146
40: 146
41: 147
42: 148
43: 148
44: 148
45: 149
46: 149
47: 150
48: 150
49: 150
50: 151
51: 151
52: 151
53: 151
54: 152
55: 153
56: 153
57: 153
58: 154
59: 154
60: 154
61: 154
62: 155
63: 155
64: 155
65: 156
66: 157
67: 157
68: 157
69: 158
70: 158
71: 158
72: 159
73: 160
74: 160
75: 160
76: 160
77: 160
78: 161
79: 162
80: 163
81: 163
82: 163
83: 163
84: 163
85: 164
86: 164
87: 165
88: 165
89: 166
90: 166
91: 167
92: 167
93: 167
94: 168
95: 169
96: 169
97: 169
98: 169
99: 169
100: 169
101: 169
102: 169
103: 169
104: 170
105: 170
106: 170
107: 171
108: 171
109: 171
110: 171
111: 172
112: 172
113: 173
114: 173
115: 174
116: 175
117: 175
118: 176
119: 176
120: 177
121: 177
122: 177
123: 178
124: 178
125: 179
126: 179
127: 180
128: 180
129: 180
130: 181
131: 182
132: 182
133: 183
134: 184
segment: [5]
vertex id: label
150: 0
151: 1
152: 2
153: 4
154: 4
155: 0
156: 2
157: 3
158: 2
159: 4
160: 3
161: 2
162: 4
163: 0
164: 1
165: 2
166: 4
167: 0
168: 1
169: 2
170: 4
171: 0
172: 2
173: 4
174: 0
175: 1
176: 2
177: 4
178: 4
179: 0
180: 1
181: 2
182: 4
183: 0
184: 2
185: 4
186: 3
187: 2
188: 4
189: 4
190: 0
191: 1
192: 1
193: 1
194: 2
195: 4
196: 0
197: 4
198: 0
199: 1
0: 5
1: 5
2: 5
3: 5
4: 5
5: 5
6: 5
7: 5
8: 5
9: 5
10: 5
11: 5
12: 5
13: 5
14: 5
15: 5
16: 5
17: 5
18: 5
19: 5
20: 5
21: 5
22: 5
23: 5
24: 5
25: 5
26: 5
27: 5
28: 5
29: 5
30: 5
31: 5
32: 5
33: 5
34: 5
35: 5
36: 5
37: 5
38: 5
39: 5
40: 5
41: 5
42: 5
43: 5
44: 5
45: 5
46: 5
47: 5
48: 5
49: 5
50: 5
51: 5
52: 5
53: 5
54: 5
55: 5
56: 5
57: 5
58: 5
59: 5
60: 5
61: 5
62: 5
63: 5
64: 5
65: 5
66: 5
67: 5
68: 5
69: 5
70: 5
71: 5
72: 5
73: 5
74: 5
75: 5
76: 5
77: 5
78: 5
79: 5
80: 5
81: 5
82: 5
83: 5
84: 5
85: 5
86: 5
87: 5
88: 5
89: 5
90: 5
91: 5
92: 5
93: 5
94: 5
95: 5
96: 5
97: 5
98: 5
99: 5
100: 5
101: 5
102: 5
103: 5
104: 5
105: 5
106: 5
107: 5
108: 5
109: 5
110: 5
111: 5
112: 5
113: 5
114: 5
115: 5
116: 5
117: 5
118: 5
119: 5
120: 5
121: 5
122: 5
123: 5
124: 5
125: 5
126: 5
127: 5
128: 5
129: 5
130: 5
131: 5
132: 5
133: 5
134: 5
135: 5
136: 5
137: 5
138: 5
139: 5
140: 5
141: 5
142: 5
143: 5
144: 5
145: 5
146: 5
147: 5
148: 5
149: 5
edge from: to
150: 0
150: 1
151: 2
151: 3
151: 4
152: 5
152: 7
153: 8
153: 11
153: 12
154: 9
155: 14
156: 0
156: 13
156: 16
156: 19
157: 14
157: 21
158: 25
159: 26
160: 28
161: 14
161: 30
161: 31
162: 31
162: 32
163: 17
163: 37
163: 38
164: 40
164: 41
165: 28
166: 21
166: 44
166: 47
167: 49
167: 52
168: 39
168: 59
169: 60
170: 41
170: 60
170: 62
171: 29
171: 43
171: 62
172: 60
172: 61
172: 62
172: 64
172: 66
173: 70
174: 73
175: 77
176: 54
176: 74
176: 78
176: 82
177: 56
178: 86
179: 40
179: 81
179: 83
179: 87
179: 90
180: 91
180: 94
181: 90
181: 95
182: 98
183: 96
183: 100
184: 67
185: 69
185: 100
185: 105
186: 107
187: 71
187: 108
188: 109
188: 113
189: 105
189: 112
189: 116
190: 113
190: 117
191: 119
192: 123
193: 120
193: 126
194: 124
194: 129
195: 127
195: 132
196: 88
196: 134
197: 62
197: 140
198: 128
198: 137
198: 142
199: 132
199: 139
199: 146
2: 150
3: 150
4: 150
5: 151
6: 151
7: 151
8: 152
9: 152
10: 152
11: 152
12: 152
13: 153
14: 154
15: 155
16: 155
17: 155
18: 155
19: 155
20: 156
21: 156
22: 157
23: 157
24: 157
25: 157
26: 158
27: 159
28: 159
29: 160
30: 160
31: 160
32: 161
33: 162
34: 162
35: 162
36: 162
37: 162
38: 162
39: 163
40: 163
41: 163
42: 164
43: 165
44: 165
45: 165
46: 165
47: 165
48: 166
49: 166
50: 166
51: 166
52: 166
53: 167
54: 167
55: 167
56: 167
57: 167
58: 167
59: 167
60: 168
61: 169
62: 169
63: 170
64: 170
65: 170
66: 171
67: 172
68: 172
69: 172
70: 172
71: 173
72: 173
73: 173
74: 174
75: 174
76: 174
77: 174
78: 175
79: 175
80: 175
81: 175
82: 175
83: 176
84: 176
85: 176
86: 177
87: 178
88: 178
89: 178
90: 178
91: 179
92: 179
93: 179
94: 179
95: 180
96: 181
97: 181
98: 181
99: 182
100: 182
101: 183
102: 183
103: 184
104: 184
105: 184
106: 185
107: 185
108: 186
109: 187
110: 187
111: 187
112: 187
113: 187
114: 188
115: 188
116: 188
117: 189
118: 190
119: 190
120: 191
121: 191
122: 191
123: 191
124: 192
125: 192
126: 192
127: 193
128: 193
129: 193
130: 194
131: 194
132: 194
133: 195
134: 195
135: 196
136: 196
137: 196
138: 196
139: 196
140: 196
141: 197
142: 197
143: 198
144: 198
145: 198
146: 198
147: 199
148: 199
149: 199
segment: [6]
vertex id: label
157: 0
158: 0
159: 4
160: 0
161: 2
162: 4
163: 0
164: 2
165: 4
166: 3
167: 2
168: 4
169: 0
170: 2
171: 4
172: 4
173: 0
174: 2
175: 4
176: 3
177: 2
178: 4
179: 0
180: 1
181: 2
182: 4
183: 0
184: 4
185: 0
186: 0
187: 2
188: 4
189: 3
190: 3
191: 2
192: 0
193: 1
194: 2
195: 4
196: 0
197: 1
198: 2
199: 4
200: 0
201: 2
202: 4
203: 0
204: 2
205: 4
206: 0
0: 5
1: 5
2: 5
3: 5
4: 5
5: 5
6: 5
7: 5
8: 5
9: 5
10: 5
11: 5
12: 5
13: 5
14: 5
15: 5
16: 5
17: 5
18: 5
19: 5
20: 5
21: 5
22: 5
23: 5
24: 5
25: 5
26: 5
27: 5
28: 5
29: 5
30: 5
31: 5
32: 5
33: 5
34: 5
35: 5
36: 5
37: 5
38: 5
39: 5
40: 5
41: 5
42: 5
43: 5
44: 5
45: 5
46: 5
47: 5
48: 5
49: 5
50: 5
51: 5
52: 5
53: 5
54: 5
55: 5
56: 5
57: 5
58: 5
59: 5
60: 5
61: 5
62: 5
63: 5
64: 5
65: 5
66: 5
67: 5
68: 5
69: 5
70: 5
71: 5
72: 5
73: 5
74: 5
75: 5
76: 5
77: 5
78: 5
79: 5
80: 5
81: 5
82: 5
83: 5
84: 5
85: 5
86: 5
87: 5
88: 5
89: 5
90: 5
91: 5
92: 5
93: 5
94: 5
95: 5
96: 5
97: 5
98: 5
99: 5
100: 5
101: 5
102: 5
103: 5
104: 5
105: 5
106: 5
107: 5
108: 5
109: 5
110: 5
111: 5
112: 5
113: 5
114: 5
115: 5
116: 5
117: 5
118: 5
119: 5
120: 5
121: 5
122: 5
123: 5
124: 5
125: 5
126: 5
127: 5
128: 5
129: 5
130: 5
131: 5
132: 5
133: 5
134: 5
135: 5
136: 5
137: 5
138: 5
139: 5
140: 5
141: 5
142: 5
143: 5
144: 5
145: 5
146: 5
147: 5
148: 5
149: 5
150: 5
151: 5
152: 5
153: 5
154: 5
155: 5
156: 5
edge from: to
157: 0
157: 1
158: 2
159: 8
160: 6
160: 8
160: 9
161: 0
161: 6
161: 9
161: 12
162: 7
162: 10
163: 17
163: 20
164: 16
165: 31
165: 32
166: 24
167: 34
167: 36
167: 37
168: 41
169: 42
169: 43
170: 43
170: 45
170: 46
170: 49
171: 52
172: 39
172: 59
173: 40
173: 59
173: 61
174: 63
175: 66
176: 68
177: 68
177: 70
178: 75
179: 50
179: 69
179: 72
179: 76
180: 78
181: 36
181: 78
181: 81
182: 87
183: 86
183: 89
184: 89
184: 92
185: 93
186: 91
186: 96
187: 93
187: 98
188: 68
188: 99
188: 104
189: 103
189: 107
190: 106
190: 110
191: 103
191: 109
191: 114
192: 113
192: 117
193: 77
193: 114
193: 118
194: 120
195: 110
195: 113
195: 116
195: 122
196: 82
196: 113
196: 119
196: 125
197: 129
198: 117
198: 125
198: 130
199: 132
200: 88
200: 129
200: 134
201: 123
201: 126
201: 131
201: 136
202: 132
202: 138
203: 136
203: 141
204: 129
204: 136
204: 143
205: 140
205: 147
206: 99
2: 157
3: 158
4: 158
5: 158
6: 158
7: 158
8: 158
9: 159
10: 160
11: 160
12: 160
13: 160
14: 161
15: 161
16: 162
17: 162
18: 162
19: 162
20: 162
21: 163
22: 163
23: 163
24: 163
25: 164
26: 164
27: 164
28: 164
29: 164
30: 164
31: 164
32: 164
33: 165
34: 165
35: 165
36: 165
37: 166
38: 167
39: 167
40: 167
41: 167
42: 168
43: 168
44: 169
45: 169
46: 169
47: 169
48: 169
49: 169
50: 170
51: 170
52: 170
53: 171
54: 171
55: 171
56: 171
57: 171
58: 171
59: 171
60: 172
61: 172
62: 173
63: 173
64: 174
65: 174
66: 174
67: 175
68: 175
69: 176
70: 176
71: 177
72: 177
73: 177
74: 177
75: 177
76: 178
77: 179
78: 179
79: 180
80: 180
81: 180
82: 181
83: 181
84: 181
85: 181
86: 181
87: 181
88: 182
89: 182
90: 183
91: 183
92: 183
93: 184
94: 185
95: 185
96: 185
97: 186
98: 186
99: 187
100: 187
101: 187
102: 187
103: 187
104: 187
105: 188
106: 188
107: 188
108: 189
109: 189
110: 189
111: 190
112: 190
113: 190
114: 190
115: 191
116: 191
117: 191
118: 192
119: 193
120: 193
121: 194
122: 194
123: 195
124: 195
125: 195
126: 196
127: 196
128: 196
129: 196
130: 197
131: 198
132: 198
133: 199
134: 199
135: 200
136: 200
137: 201
138: 201
139: 202
140: 202
141: 202
142: 203
143: 203
144: 204
145: 204
146: 204
147: 204
148: 205
149: 205
150: 205
151: 205
152: 206
153: 206
154: 206
155: 206
156: 206
segment: [7]
vertex id: label
152: 0
153: 2
154: 4
155: 4
156: 0
157: 2
158: 3
159: 2
160: 4
161: 4
162: 0
163: 1
164: 1
165: 2
166: 4
167: 0
168: 1
169: 2
170: 4
171: 0
172: 1
173: 2
174: 4
175: 3
176: 2
177: 3
178: 3
179: 2
180: 4
181: 0
182: 2
183: 4
184: 0
185: 2
186: 4
187: 0
188: 1
189: 1
190: 1
191: 2
192: 4
193: 4
194: 0
195: 1
196: 2
197: 4
198: 0
199: 1
200: 2
201: 3
0: 5
1: 5
2: 5
3: 5
4: 5
5: 5
6: 5
7: 5
8: 5
9: 5
10: 5
11: 5
12: 5
13: 5
14: 5
15: 5
16: 5
17: 5
18: 5
19: 5
20: 5
21: 5
22: 5
23: 5
24: 5
25: 5
26: 5
27: 5
28: 5
29: 5
30: 5
31: 5
32: 5
33: 5
34: 5
35: 5
36: 5
37: 5
38: 5
39: 5
40: 5
41: 5
42: 5
43: 5
44: 5
45: 5
46: 5
47: 5
48: 5
49: 5
50: 5
51: 5
52: 5
53: 5
54: 5
55: 5
56: 5
57: 5
58: 5
59: 5
60: 5
61: 5
62: 5
63: 5
64: 5
65: 5
66: 5
67: 5
68: 5
69: 5
70: 5
71: 5
72: 5
73: 5
74: 5
75: 5
76: 5
77: 5
78: 5
79: 5
80: 5
81: 5
82: 5
83: 5
84: 5
85: 5
86: 5
87: 5
88: 5
89: 5
90: 5
91: 5
92: 5
93: 5
94: 5
95: 5
96: 5
97: 5
98: 5
99: 5
100: 5
101: 5
102: 5
103: 5
104: 5
105: 5
106: 5
107: 5
108: 5
109: 5
110: 5
111: 5
112: 5
113: 5
114: 5
115: 5
116: 5
117: 5
118: 5
119: 5
120: 5
121: 5
122: 5
123: 5
124: 5
125: 5
126: 5
127: 5
128: 5
129: 5
130: 5
131: 5
132: 5
133: 5
134: 5
135: 5
136: 5
137: 5
138: 5
139: 5
140: 5
141: 5
142: 5
143: 5
144: 5
145: 5
146: 5
147: 5
148: 5
149: 5
150: 5
151: 5
edge from: to
152: 0
152: 1
153: 0
153: 1
153: 3
153: 4
153: 5
154: 8
155: 0
155: 9
155: 13
155: 14
156: 13
156: 19
157: 17
157: 20
158: 22
159: 18
160: 32
161: 34
161: 36
161: 37
162: 18
162: 40
163: 43
163: 44
164: 45
164: 46
165: 33
165: 50
166: 52
167: 35
167: 48
167: 51
167: 53
168: 55
168: 58
169: 63
170: 43
171: 44
171: 65
171: 67
172: 61
172: 67
172: 69
173: 32
173: 68
173: 72
174: 77
175: 52
175: 79
176: 72
176: 77
176: 80
177: 56
178: 89
179: 91
180: 89
180: 92
181: 90
181: 95
182: 91
182: 96
183: 64
183: 93
183: 98
184: 66
184: 96
184: 101
185: 47
185: 106
186: 71
186: 108
187: 98
187: 105
187: 109
188: 108
188: 112
189: 115
190: 113
190: 117
191: 107
191: 110
191: 114
191: 119
192: 118
192: 124
193: 126
194: 127
195: 84
196: 58
196: 86
197: 120
197: 128
197: 133
198: 124
198: 131
198: 137
199: 127
199: 136
199: 141
200: 143
201: 134
201: 137
201: 141
201: 148
2: 152
3: 152
4: 152
5: 152
6: 153
7: 153
8: 153
9: 154
10: 154
11: 154
12: 154
13: 154
14: 154
15: 155
16: 155
17: 155
18: 155
19: 155
20: 156
21: 157
22: 157
23: 158
24: 158
25: 158
26: 158
27: 158
28: 159
29: 159
30: 159
31: 159
32: 159
33: 160
34: 160
35: 160
36: 160
37: 160
38: 161
39: 161
40: 161
41: 162
42: 162
43: 162
44: 162
45: 163
46: 163
47: 164
48: 164
49: 164
50: 164
51: 165
52: 165
53: 166
54: 167
55: 167
56: 167
57: 167
58: 167
59: 168
60: 168
61: 168
62: 168
63: 168
64: 169
65: 169
66: 170
67: 170
68: 171
69: 171
70: 172
71: 172
72: 172
73: 173
74: 173
75: 173
76: 173
77: 173
78: 174
79: 174
80: 175
81: 176
82: 176
83: 176
84: 176
85: 176
86: 177
87: 177
88: 177
89: 177
90: 178
91: 178
92: 179
93: 180
94: 180
95: 180
96: 181
97: 182
98: 182
99: 183
100: 183
101: 183
102: 184
103: 184
104: 184
105: 184
106: 184
107: 185
108: 185
109: 186
110: 187
111: 187
112: 187
113: 188
114: 188
115: 188
116: 189
117: 189
118: 190
119: 190
120: 191
121: 191
122: 191
123: 191
124: 191
125: 192
126: 192
127: 193
128: 194
129: 195
130: 195
131: 195
132: 196
133: 196
134: 197
135: 197
136: 197
137: 197
138: 198
139: 198
140: 198
141: 198
142: 199
143: 199
144: 200
145: 200
146: 200
147: 200
148: 200
149: 201
150: 201
151: 201
segment: [8]
vertex id: label
150: 0
151: 2
152: 4
153: 0
154: 2
155: 4
156: 0
157: 1
158: 2
159: 4
160: 0
161: 2
162: 4
163: 0
164: 1
165: 2
166: 4
167: 0
168: 1
169: 2
170: 4
171: 0
172: 2
173: 4
174: 4
175: 0
176: 2
177: 4
178: 0
179: 1
180: 1
181: 2
182: 4
183: 4
184: 3
185: 2
186: 4
187: 0
188: 1
189: 2
190: 4
191: 0
192: 1
193: 2
194: 4
195: 0
196: 1
197: 2
198: 4
199: 0
0: 5
1: 5
2: 5
3: 5
4: 5
5: 5
6: 5
7: 5
8: 5
9: 5
10: 5
11: 5
12: 5
13: 5
14: 5
15: 5
16: 5
17: 5
18: 5
19: 5
20: 5
21: 5
22: 5
23: 5
24: 5
25: 5
26: 5
27: 5
28: 5
29: 5
30: 5
31: 5
32: 5
33: 5
34: 5
35: 5
36: 5
37: 5
38: 5
39: 5
40: 5
41: 5
42: 5
43: 5
44: 5
45: 5
46: 5
47: 5
48: 5
49: 5
50: 5
51: 5
52: 5
53: 5
54: 5
55: 5
56: 5
57: 5
58: 5
59: 5
60: 5
61: 5
62: 5
63: 5
64: 5
65: 5
66: 5
67: 5
68: 5
69: 5
70: 5
71: 5
72: 5
73: 5
74: 5
75: 5
76: 5
77: 5
78: 5
79: 5
80: 5
81: 5
82: 5
83: 5
84: 5
85: 5
86: 5
87: 5
88: 5
89: 5
90: 5
91: 5
92: 5
93: 5
94: 5
95: 5
96: 5
97: 5
98: 5
99: 5
100: 5
101: 5
102: 5
103: 5
104: 5
105: 5
106: 5
107: 5
108: 5
109: 5
110: 5
111: 5
112: 5
113: 5
114: 5
115: 5
116: 5
117: 5
118: 5
119: 5
120: 5
121: 5
122: 5
123: 5
124: 5
125: 5
126: 5
127: 5
128: 5
129: 5
130: 5
131: 5
132: 5
133: 5
134: 5
135: 5
136: 5
137: 5
138: 5
139: 5
140: 5
141: 5
142: 5
143: 5
144: 5
145: 5
146: 5
147: 5
148: 5
149: 5
edge from: to
150: 0
151: 2
151: 3
152: 0
152: 5
153: 3
153: 4
154: 8
155: 8
156: 9
157: 11
158: 13
158: 19
159: 14
159: 18
159: 19
159: 21
160: 10
160: 20
160: 22
161: 16
161: 22
161: 24
162: 18
163: 32
164: 32
164: 34
165: 17
165: 38
166: 40
167: 28
167: 41
167: 42
168: 46
169: 49
170: 51
171: 50
171: 53
171: 55
172: 39
172: 52
172: 56
172: 59
173: 58
173: 60
174: 41
174: 62
175: 67
176: 66
176: 68
177: 32
177: 68
177: 72
178: 75
179: 50
179: 72
179: 76
180: 52
181: 56
181: 85
182: 84
182: 87
183: 88
183: 91
184: 93
185: 91
185: 96
186: 93
186: 98
187: 100
188: 67
188: 97
188: 102
189: 71
189: 108
190: 112
191: 113
191: 117
192: 107
192: 114
192: 119
193: 121
194: 114
194: 120
194: 126
195: 86
195: 127
195: 132
196: 131
196: 136
197: 140
198: 136
198: 143
199: 139
199: 146
1: 150
2: 150
3: 150
4: 151
5: 151
6: 152
7: 153
8: 153
9: 154
10: 154
11: 154
12: 154
13: 155
14: 156
15: 156
16: 156
17: 157
18: 157
19: 157
20: 158
21: 158
22: 159
23: 160
24: 160
25: 161
26: 161
27: 161
28: 162
29: 162
30: 162
31: 162
32: 162
33: 163
34: 163
35: 164
36: 164
37: 164
38: 164
39: 165
40: 165
41: 166
42: 166
43: 167
44: 167
45: 167
46: 167
47: 168
48: 168
49: 168
50: 169
51: 169
52: 170
53: 170
54: 170
55: 170
56: 171
57: 171
58: 171
59: 171
60: 172
61: 173
62: 173
63: 174
64: 174
65: 174
66: 174
67: 174
68: 175
69: 176
70: 176
71: 176
72: 176
73: 177
74: 177
75: 177
76: 178
77: 179
78: 179
79: 179
80: 180
81: 180
82: 180
83: 180
84: 180
85: 180
86: 181
87: 181
88: 182
89: 182
90: 182
91: 182
92: 183
93: 183
94: 184
95: 184
96: 184
97: 185
98: 185
99: 186
100: 186
101: 187
102: 187
103: 188
104: 188
105: 188
106: 188
107: 188
108: 188
109: 189
110: 189
111: 189
112: 189
113: 190
114: 190
115: 190
116: 190
117: 190
118: 191
119: 191
120: 192
121: 192
122: 193
123: 193
124: 193
125: 193
126: 193
127: 194
128: 194
129: 194
130: 194
131: 194
132: 194
133: 195
134: 195
135: 195
136: 195
137: 196
138: 196
139: 196
140: 196
141: 197
142: 197
143: 197
144: 198
145: 198
146: 198
147: 199
148: 199
149: 199
segment: [9]
vertex id: label
146: 0
147: 2
148: 0
149: 1
150: 1
151: 2
152: 4
153: 3
154: 2
155: 4
156: 0
157: 1
158: 2
159: 4
160: 0
161: 1
162: 2
163: 4
164: 4
165: 0
166: 2
167: 4
168: 0
169: 2
170: 4
171: 3
172: 2
173: 4
174: 0
175: 1
176: 2
177: 3
178: 2
179: 4
180: 0
181: 1
182: 2
183: 4
184: 0
185: 0
186: 2
187: 4
188: 0
189: 0
190: 1
191: 2
192: 4
193: 0
194: 2
195: 4
0: 5
1: 5
2: 5
3: 5
4: 5
5: 5
6: 5
7: 5
8: 5
9: 5
10: 5
11: 5
12: 5
13: 5
14: 5
15: 5
16: 5
17: 5
18: 5
19: 5
20: 5
21: 5
22: 5
23: 5
24: 5
25: 5
26: 5
27: 5
28: 5
29: 5
30: 5
31: 5
32: 5
33: 5
34: 5
35: 5
36: 5
37: 5
38: 5
39: 5
40: 5
41: 5
42: 5
43: 5
44: 5
45: 5
46: 5
47: 5
48: 5
49: 5
50: 5
51: 5
52: 5
53: 5
54: 5
55: 5
56: 5
57: 5
58: 5
59: 5
60: 5
61: 5
62: 5
63: 5
64: 5
65: 5
66: 5
67: 5
68: 5
69: 5
70: 5
71: 5
72: 5
73: 5
74: 5
75: 5
76: 5
77: 5
78: 5
79: 5
80: 5
81: 5
82: 5
83: 5
84: 5
85: 5
86: 5
87: 5
88: 5
89: 5
90: 5
91: 5
92: 5
93: 5
94: 5
95: 5
96: 5
97: 5
98: 5
99: 5
100: 5
101: 5
102: 5
103: 5
104: 5
105: 5
106: 5
107: 5
108: 5
109: 5
110: 5
111: 5
112: 5
113: 5
114: 5
115: 5
116: 5
117: 5
118: 5
119: 5
120: 5
121: 5
122: 5
123: 5
124: 5
125: 5
126: 5
127: 5
128: 5
129: 5
130: 5
131: 5
132: 5
133: 5
134: 5
135: 5
136: 5
137: 5
138: 5
139: 5
140: 5
141: 5
142: 5
143: 5
144: 5
145: 5
edge from: to
146: 0
146: 1
147: 3
148: 5
149: 6
149: 9
150: 8
151: 11
151: 15
151: 16
152: 12
152: 17
152: 18
153: 14
153: 21
154: 25
155: 27
155: 29
156: 29
156: 31
156: 32
157: 33
157: 35
158: 24
158: 34
158: 36
159: 37
160: 18
160: 35
160: 38
160: 40
161: 44
161: 45
162: 45
162: 46
163: 45
163: 48
164: 35
165: 54
165: 57
166: 59
166: 61
167: 61
167: 64
168: 44
168: 65
168: 67
169: 73
170: 57
170: 68
170: 69
170: 71
170: 73
170: 75
171: 51
171: 71
171: 74
171: 78
172: 54
172: 78
172: 82
173: 86
174: 89
175: 94
176: 95
177: 97
178: 99
179: 67
180: 98
180: 103
181: 69
182: 107
183: 110
184: 73
184: 107
184: 111
185: 114
186: 113
186: 117
187: 114
187: 119
188: 116
188: 122
189: 82
190: 127
191: 130
192: 127
192: 132
193: 88
194: 131
194: 137
195: 130
195: 137
195: 144
2: 146
3: 146
4: 146
5: 147
6: 147
7: 147
8: 148
9: 148
10: 149
11: 149
12: 149
13: 150
14: 150
15: 150
16: 150
17: 151
18: 151
19: 152
20: 152
21: 152
22: 153
23: 153
24: 153
25: 153
26: 154
27: 154
28: 154
29: 154
30: 155
31: 155
32: 155
33: 156
34: 156
35: 156
36: 157
37: 158
38: 159
39: 159
40: 159
41: 160
42: 160
43: 160
44: 160
45: 160
46: 161
47: 162
48: 162
49: 163
50: 163
51: 163
52: 163
53: 163
54: 164
55: 164
56: 164
57: 164
58: 165
59: 165
60: 165
61: 165
62: 166
63: 166
64: 166
65: 167
66: 167
67: 167
68: 168
69: 168
70: 168
71: 168
72: 168
73: 168
74: 169
75: 169
76: 170
77: 170
78: 170
79: 171
80: 171
81: 171
82: 171
83: 172
84: 172
85: 172
86: 172
87: 173
88: 173
89: 173
90: 174
91: 174
92: 174
93: 174
94: 174
95: 175
96: 176
97: 176
98: 177
99: 177
100: 178
101: 178
102: 178
103: 179
104: 180
105: 180
106: 181
107: 181
108: 182
109: 182
110: 182
111: 183
112: 184
113: 184
114: 184
115: 185
116: 185
117: 185
118: 186
119: 186
120: 187
121: 187
122: 187
123: 188
124: 188
125: 188
126: 189
127: 189
128: 190
129: 190
130: 190
131: 191
132: 191
133: 192
134: 192
135: 193
136: 193
137: 193
138: 194
139: 194
140: 194
141: 194
142: 194
143: 194
144: 194
145: 195
