segment: [0]
vertex id: label
92: 0
93: 1
94: 0
95: 2
96: 4
97: 3
98: 1
99: 0
100: 2
101: 4
102: 3
103: 1
104: 0
105: 2
106: 4
107: 3
108: 0
109: 2
110: 4
111: 3
112: 1
113: 0
114: 2
115: 4
116: 3
117: 1
118: 0
119: 2
120: 4
121: 3
0: 5
1: 5
2: 5
3: 5
4: 5
5: 5
6: 5
7: 5
8: 5
9: 5
10: 5
11: 5
12: 5
13: 5
14: 5
15: 5
16: 5
17: 5
18: 5
19: 5
20: 5
21: 5
22: 5
23: 5
24: 5
25: 5
26: 5
27: 5
28: 5
29: 5
30: 5
31: 5
32: 5
33: 5
34: 5
35: 5
36: 5
37: 5
38: 5
39: 5
40: 5
41: 5
42: 5
43: 5
44: 5
45: 5
46: 5
47: 5
48: 5
49: 5
50: 5
51: 5
52: 5
53: 5
54: 5
55: 5
56: 5
57: 5
58: 5
59: 5
60: 5
61: 5
62: 5
63: 5
64: 5
65: 5
66: 5
67: 5
68: 5
69: 5
70: 5
71: 5
72: 5
73: 5
74: 5
75: 5
76: 5
77: 5
78: 5
79: 5
80: 5
81: 5
82: 5
83: 5
84: 5
85: 5
86: 5
87: 5
88: 5
89: 5
90: 5
91: 5
edge from: to
92: 0
92: 1
93: 0
93: 6
93: 7
94: 1
94: 13
94: 14
95: 14
95: 15
96: 17
97: 20
97: 21
98: 21
98: 22
99: 22
99: 24
100: 26
101: 27
101: 29
102: 30
102: 31
103: 33
104: 37
105: 38
105: 39
106: 3
106: 39
107: 38
107: 41
107: 43
108: 45
108: 47
109: 1
109: 42
109: 44
109: 50
110: 4
110: 48
110: 53
111: 59
112: 60
113: 53
113: 62
113: 63
113: 66
114: 63
114: 65
115: 67
116: 70
117: 73
118: 75
119: 79
119: 82
120: 81
121: 83
2: 92
3: 92
4: 92
5: 92
6: 92
7: 92
8: 93
9: 93
10: 93
11: 93
12: 93
13: 93
14: 93
15: 93
16: 94
17: 95
18: 95
19: 95
20: 96
21: 96
22: 96
23: 97
24: 98
25: 98
26: 98
27: 99
28: 99
29: 100
30: 100
31: 101
32: 101
33: 101
34: 102
35: 102
36: 102
37: 103
38: 103
39: 103
40: 103
41: 104
42: 105
43: 105
44: 106
45: 106
46: 107
47: 107
48: 107
49: 107
50: 108
51: 108
52: 108
53: 109
54: 109
55: 109
56: 109
57: 109
58: 110
59: 110
60: 110
61: 110
62: 110
63: 110
64: 111
65: 112
66: 112
67: 113
68: 113
69: 114
70: 114
71: 114
72: 114
73: 115
74: 115
75: 115
76: 116
77: 116
78: 116
79: 117
80: 117
81: 118
82: 118
83: 118
84: 118
85: 118
86: 119
87: 119
88: 120
89: 120
90: 121
91: 121
segment: [1]
vertex id: label
97: 0
98: 2
99: 4
100: 3
101: 0
102: 1
103: 3
104: 0
105: 1
106: 0
107: 2
108: 4
109: 3
110: 0
111: 2
112: 4
113: 3
114: 0
115: 1
116: 0
117: 1
118: 3
119: 0
120: 2
121: 4
122: 4
123: 3
124: 0
125: 1
126: 0
0: 5
1: 5
2: 5
3: 5
4: 5
5: 5
6: 5
7: 5
8: 5
9: 5
10: 5
11: 5
12: 5
13: 5
14: 5
15: 5
16: 5
17: 5
18: 5
19: 5
20: 5
21: 5
22: 5
23: 5
24: 5
25: 5
26: 5
27: 5
28: 5
29: 5
30: 5
31: 5
32: 5
33: 5
34: 5
35: 5
36: 5
37: 5
38: 5
39: 5
40: 5
41: 5
42: 5
43: 5
44: 5
45: 5
46: 5
47: 5
48: 5
49: 5
50: 5
51: 5
52: 5
53: 5
54: 5
55: 5
56: 5
57: 5
58: 5
59: 5
60: 5
61: 5
62: 5
63: 5
64: 5
65: 5
66: 5
67: 5
68: 5
69: 5
70: 5
71: 5
72: 5
73: 5
74: 5
75: 5
76: 5
77: 5
78: 5
79: 5
80: 5
81: 5
82: 5
83: 5
84: 5
85: 5
86: 5
87: 5
88: 5
89: 5
90: 5
91: 5
92: 5
93: 5
94: 5
95: 5
96: 5
edge from: to
97: 0
97: 1
97: 2
98: 0
99: 10
99: 11
100: 1
100: 13
100: 14
101: 15
101: 16
102: 15
102: 16
102: 17
102: 18
103: 16
103: 17
103: 18
104: 21
105: 23
105: 25
106: 25
106: 27
106: 29
107: 32
108: 35
109: 32
109: 34
109: 37
109: 38
110: 41
110: 43
111: 41
111: 45
111: 47
111: 49
112: 1
112: 42
112: 48
112: 50
113: 50
113: 51
114: 47
114: 52
114: 53
115: 49
115: 54
115: 56
116: 58
116: 59
117: 63
118: 59
118: 65
118: 67
119: 71
119: 73
120: 74
121: 66
121: 69
121: 77
121: 79
122: 78
123: 74
123: 82
123: 85
124: 75
124: 83
124: 86
125: 86
125: 89
125: 92
126: 87
126: 89
3: 97
4: 97
5: 97
6: 97
7: 98
8: 98
9: 98
10: 98
11: 98
12: 98
13: 99
14: 99
15: 99
16: 100
17: 100
18: 101
19: 102
20: 103
21: 103
22: 103
23: 103
24: 104
25: 104
26: 104
27: 104
28: 105
29: 105
30: 105
31: 106
32: 106
33: 106
34: 106
35: 106
36: 107
37: 107
38: 107
39: 108
40: 108
41: 109
42: 109
43: 109
44: 109
45: 109
46: 110
47: 110
48: 110
49: 110
50: 111
51: 112
52: 112
53: 112
54: 112
55: 113
56: 113
57: 114
58: 114
59: 115
60: 115
61: 115
62: 115
63: 116
64: 116
65: 116
66: 116
67: 116
68: 117
69: 117
70: 117
71: 118
72: 118
73: 118
74: 118
75: 118
76: 118
77: 119
78: 119
79: 119
80: 120
81: 120
82: 120
83: 121
84: 121
85: 122
86: 122
87: 122
88: 122
89: 123
90: 124
91: 124
92: 124
93: 125
94: 126
95: 126
96: 126
segment: [2]
vertex id: label
101: 0
102: 2
103: 4
104: 4
105: 3
106: 0
107: 1
108: 0
109: 2
110: 4
111: 3
112: 0
113: 1
114: 0
115: 2
116: 4
117: 3
118: 1
119: 0
120: 1
121: 0
122: 2
123: 4
124: 3
125: 0
126: 2
127: 4
128: 4
129: 3
130: 0
0: 5
1: 5
2: 5
3: 5
4: 5
5: 5
6: 5
7: 5
8: 5
9: 5
10: 5
11: 5
12: 5
13: 5
14: 5
15: 5
16: 5
17: 5
18: 5
19: 5
20: 5
21: 5
22: 5
23: 5
24: 5
25: 5
26: 5
27: 5
28: 5
29: 5
30: 5
31: 5
32: 5
33: 5
34: 5
35: 5
36: 5
37: 5
38: 5
39: 5
40: 5
41: 5
42: 5
43: 5
44: 5
45: 5
46: 5
47: 5
48: 5
49: 5
50: 5
51: 5
52: 5
53: 5
54: 5
55: 5
56: 5
57: 5
58: 5
59: 5
60: 5
61: 5
62: 5
63: 5
64: 5
65: 5
66: 5
67: 5
68: 5
69: 5
70: 5
71: 5
72: 5
73: 5
74: 5
75: 5
76: 5
77: 5
78: 5
79: 5
80: 5
81: 5
82: 5
83: 5
84: 5
85: 5
86: 5
87: 5
88: 5
89: 5
90: 5
91: 5
92: 5
93: 5
94: 5
95: 5
96: 5
97: 5
98: 5
99: 5
100: 5
edge from: to
101: 0
101: 1
102: 0
102: 3
103: 0
103: 6
103: 7
104: 10
105: 12
106: 14
106: 15
107: 17
108: 19
109: 21
110: 21
110: 22
110: 24
110: 26
111: 2
111: 24
111: 26
112: 28
112: 29
113: 30
113: 31
113: 34
113: 35
114: 32
114: 35
114: 36
115: 41
116: 45
116: 47
117: 1
117: 44
117: 50
118: 51
118: 52
119: 49
119: 54
119: 56
119: 58
120: 57
120: 58
121: 62
121: 63
122: 65
123: 69
123: 71
124: 71
124: 73
125: 73
125: 75
126: 75
127: 78
128: 75
128: 83
128: 86
128: 89
129: 78
129: 87
129: 89
130: 91
130: 93
2: 101
3: 101
4: 102
5: 102
6: 102
7: 102
8: 103
9: 103
10: 103
11: 103
12: 104
13: 104
14: 105
15: 105
16: 105
17: 106
18: 106
19: 106
20: 107
21: 107
22: 108
23: 108
24: 109
25: 109
26: 109
27: 110
28: 110
29: 111
30: 111
31: 111
32: 112
33: 112
34: 112
35: 112
36: 112
37: 112
38: 113
39: 114
40: 114
41: 114
42: 114
43: 114
44: 114
45: 114
46: 115
47: 115
48: 115
49: 115
50: 116
51: 116
52: 116
53: 117
54: 117
55: 117
56: 118
57: 118
58: 118
59: 119
60: 119
61: 119
62: 120
63: 120
64: 120
65: 120
66: 120
67: 121
68: 121
69: 121
70: 121
71: 122
72: 122
73: 122
74: 122
75: 123
76: 123
77: 124
78: 124
79: 125
80: 125
81: 126
82: 126
83: 126
84: 127
85: 127
86: 127
87: 127
88: 127
89: 127
90: 128
91: 128
92: 128
93: 128
94: 129
95: 129
96: 129
97: 129
98: 130
99: 130
100: 130
segment: [3]
vertex id: label
87: 0
88: 2
89: 4
90: 3
91: 0
92: 1
93: 3
94: 1
95: 0
96: 2
97: 4
98: 3
99: 0
100: 2
101: 4
102: 3
103: 0
104: 1
105: 0
106: 1
107: 3
108: 0
109: 2
110: 4
111: 3
112: 0
113: 1
114: 0
115: 1
116: 2
0: 5
1: 5
2: 5
3: 5
4: 5
5: 5
6: 5
7: 5
8: 5
9: 5
10: 5
11: 5
12: 5
13: 5
14: 5
15: 5
16: 5
17: 5
18: 5
19: 5
20: 5
21: 5
22: 5
23: 5
24: 5
25: 5
26: 5
27: 5
28: 5
29: 5
30: 5
31: 5
32: 5
33: 5
34: 5
35: 5
36: 5
37: 5
38: 5
39: 5
40: 5
41: 5
42: 5
43: 5
44: 5
45: 5
46: 5
47: 5
48: 5
49: 5
50: 5
51: 5
52: 5
53: 5
54: 5
55: 5
56: 5
57: 5
58: 5
59: 5
60: 5
61: 5
62: 5
63: 5
64: 5
65: 5
66: 5
67: 5
68: 5
69: 5
70: 5
71: 5
72: 5
73: 5
74: 5
75: 5
76: 5
77: 5
78: 5
79: 5
80: 5
81: 5
82: 5
83: 5
84: 5
85: 5
86: 5
edge from: to
87: 0
88: 0
89: 0
89: 7
90: 8
90: 9
91: 10
91: 11
92: 1
92: 12
92: 13
93: 17
94: 18
94: 19
94: 20
94: 21
94: 22
95: 20
95: 22
95: 23
96: 21
96: 23
96: 24
97: 2
97: 25
97: 27
98: 29
99: 31
100: 34
101: 32
101: 35
101: 36
102: 36
103: 38
104: 42
105: 45
106: 1
106: 49
107: 51
107: 52
108: 45
108: 47
108: 52
108: 53
109: 56
109: 57
110: 58
110: 59
111: 62
111: 63
112: 65
113: 68
113: 70
114: 71
114: 73
115: 72
116: 75
1: 87
2: 87
3: 87
4: 88
5: 88
6: 88
7: 88
8: 89
9: 89
10: 90
11: 90
12: 90
13: 91
14: 91
15: 92
16: 92
17: 92
18: 92
19: 93
20: 93
21: 93
22: 93
23: 94
24: 94
25: 95
26: 96
27: 96
28: 96
29: 96
30: 97
31: 97
32: 97
33: 98
34: 98
35: 99
36: 99
37: 99
38: 100
39: 101
40: 102
41: 102
42: 103
43: 103
44: 103
45: 103
46: 103
47: 104
48: 104
49: 104
50: 105
51: 105
52: 106
53: 106
54: 106
55: 106
56: 107
57: 108
58: 108
59: 108
60: 108
61: 109
62: 109
63: 110
64: 110
65: 110
66: 110
67: 111
68: 111
69: 111
70: 111
71: 112
72: 112
73: 112
74: 113
75: 113
76: 113
77: 114
78: 115
79: 115
80: 115
81: 116
82: 116
83: 116
84: 116
85: 116
86: 116
segment: [4]
vertex id: label
97: 0
98: 2
99: 4
100: 3
101: 1
102: 3
103: 0
104: 2
105: 4
106: 1
107: 0
108: 2
109: 4
110: 3
111: 0
112: 1
113: 3
114: 1
115: 0
116: 1
117: 0
118: 1
119: 0
120: 2
121: 4
122: 4
123: 3
124: 1
125: 3
126: 0
0: 5
1: 5
2: 5
3: 5
4: 5
5: 5
6: 5
7: 5
8: 5
9: 5
10: 5
11: 5
12: 5
13: 5
14: 5
15: 5
16: 5
17: 5
18: 5
19: 5
20: 5
21: 5
22: 5
23: 5
24: 5
25: 5
26: 5
27: 5
28: 5
29: 5
30: 5
31: 5
32: 5
33: 5
34: 5
35: 5
36: 5
37: 5
38: 5
39: 5
40: 5
41: 5
42: 5
43: 5
44: 5
45: 5
46: 5
47: 5
48: 5
49: 5
50: 5
51: 5
52: 5
53: 5
54: 5
55: 5
56: 5
57: 5
58: 5
59: 5
60: 5
61: 5
62: 5
63: 5
64: 5
65: 5
66: 5
67: 5
68: 5
69: 5
70: 5
71: 5
72: 5
73: 5
74: 5
75: 5
76: 5
77: 5
78: 5
79: 5
80: 5
81: 5
82: 5
83: 5
84: 5
85: 5
86: 5
87: 5
88: 5
89: 5
90: 5
91: 5
92: 5
93: 5
94: 5
95: 5
96: 5
edge from: to
97: 0
97: 1
98: 0
99: 0
99: 7
100: 6
100: 9
100: 10
101: 11
101: 12
102: 14
103: 15
103: 17
103: 18
104: 18
104: 19
105: 21
106: 23
106: 25
107: 26
108: 28
108: 30
108: 31
109: 34
110: 38
110: 41
110: 43
110: 45
111: 45
111: 47
112: 49
113: 4
113: 53
114: 57
114: 58
115: 61
116: 63
117: 66
117: 68
118: 68
118: 70
118: 73
119: 70
120: 72
121: 74
122: 78
123: 66
123: 78
123: 81
123: 84
124: 6
124: 80
125: 84
125: 87
126: 87
126: 89
2: 97
3: 97
4: 97
5: 98
6: 98
7: 98
8: 99
9: 99
10: 99
11: 99
12: 100
13: 100
14: 101
15: 101
16: 102
17: 102
18: 102
19: 103
20: 103
21: 104
22: 104
23: 104
24: 105
25: 105
26: 105
27: 105
28: 106
29: 107
30: 107
31: 107
32: 107
33: 107
34: 108
35: 108
36: 108
37: 108
38: 109
39: 109
40: 109
41: 109
42: 109
43: 109
44: 109
45: 109
46: 110
47: 110
48: 110
49: 110
50: 111
51: 111
52: 111
53: 111
54: 112
55: 112
56: 112
57: 112
58: 113
59: 113
60: 113
61: 113
62: 114
63: 114
64: 114
65: 114
66: 115
67: 115
68: 115
69: 116
70: 116
71: 116
72: 117
73: 117
74: 118
75: 118
76: 119
77: 119
78: 120
79: 120
80: 121
81: 121
82: 121
83: 121
84: 122
85: 123
86: 123
87: 124
88: 124
89: 124
90: 124
91: 125
92: 125
93: 125
94: 126
95: 126
96: 126
segment: [5]
vertex id: label
89: 0
90: 2
91: 4
92: 3
93: 0
94: 2
95: 4
96: 3
97: 0
98: 2
99: 4
100: 3
101: 0
102: 2
103: 4
104: 3
105: 1
106: 0
107: 1
108: 0
109: 1
110: 0
111: 1
112: 0
113: 2
114: 4
115: 3
116: 0
117: 2
118: 4
0: 5
1: 5
2: 5
3: 5
4: 5
5: 5
6: 5
7: 5
8: 5
9: 5
10: 5
11: 5
12: 5
13: 5
14: 5
15: 5
16: 5
17: 5
18: 5
19: 5
20: 5
21: 5
22: 5
23: 5
24: 5
25: 5
26: 5
27: 5
28: 5
29: 5
30: 5
31: 5
32: 5
33: 5
34: 5
35: 5
36: 5
37: 5
38: 5
39: 5
40: 5
41: 5
42: 5
43: 5
44: 5
45: 5
46: 5
47: 5
48: 5
49: 5
50: 5
51: 5
52: 5
53: 5
54: 5
55: 5
56: 5
57: 5
58: 5
59: 5
60: 5
61: 5
62: 5
63: 5
64: 5
65: 5
66: 5
67: 5
68: 5
69: 5
70: 5
71: 5
72: 5
73: 5
74: 5
75: 5
76: 5
77: 5
78: 5
79: 5
80: 5
81: 5
82: 5
83: 5
84: 5
85: 5
86: 5
87: 5
88: 5
edge from: to
89: 0
89: 1
90: 0
90: 3
90: 4
91: 0
91: 6
92: 4
92: 6
92: 7
92: 8
93: 12
94: 15
94: 17
95: 20
95: 21
96: 23
96: 24
97: 23
97: 25
98: 29
98: 30
99: 30
99: 32
99: 33
100: 34
101: 35
101: 36
102: 38
102: 39
103: 40
103: 42
104: 43
104: 45
105: 44
105: 46
105: 48
106: 45
106: 47
107: 1
108: 49
108: 50
109: 56
110: 60
110: 61
111: 53
111: 62
111: 63
111: 66
112: 66
112: 68
113: 69
114: 72
115: 73
115: 75
116: 67
116: 75
116: 77
117: 69
117: 77
117: 79
118: 78
118: 81
2: 89
3: 89
4: 89
5: 90
6: 90
7: 91
8: 91
9: 92
10: 92
11: 92
12: 92
13: 92
14: 93
15: 93
16: 93
17: 93
18: 93
19: 94
20: 94
21: 94
22: 94
23: 95
24: 95
25: 95
26: 96
27: 96
28: 97
29: 97
30: 97
31: 97
32: 97
33: 98
34: 98
35: 98
36: 99
37: 99
38: 100
39: 101
40: 101
41: 101
42: 102
43: 102
44: 102
45: 103
46: 103
47: 103
48: 104
49: 105
50: 106
51: 106
52: 106
53: 107
54: 108
55: 108
56: 108
57: 108
58: 108
59: 108
60: 108
61: 109
62: 109
63: 109
64: 109
65: 110
66: 110
67: 111
68: 111
69: 111
70: 111
71: 111
72: 112
73: 112
74: 112
75: 113
76: 113
77: 113
78: 114
79: 115
80: 115
81: 116
82: 116
83: 117
84: 117
85: 118
86: 118
87: 118
88: 118
segment: [6]
vertex id: label
100: 0
101: 2
102: 4
103: 4
104: 3
105: 1
106: 0
107: 2
108: 4
109: 3
110: 0
111: 1
112: 0
113: 2
114: 4
115: 3
116: 0
117: 2
118: 4
119: 3
120: 1
121: 0
122: 1
123: 0
124: 2
125: 4
126: 3
127: 1
128: 0
129: 2
0: 5
1: 5
2: 5
3: 5
4: 5
5: 5
6: 5
7: 5
8: 5
9: 5
10: 5
11: 5
12: 5
13: 5
14: 5
15: 5
16: 5
17: 5
18: 5
19: 5
20: 5
21: 5
22: 5
23: 5
24: 5
25: 5
26: 5
27: 5
28: 5
29: 5
30: 5
31: 5
32: 5
33: 5
34: 5
35: 5
36: 5
37: 5
38: 5
39: 5
40: 5
41: 5
42: 5
43: 5
44: 5
45: 5
46: 5
47: 5
48: 5
49: 5
50: 5
51: 5
52: 5
53: 5
54: 5
55: 5
56: 5
57: 5
58: 5
59: 5
60: 5
61: 5
62: 5
63: 5
64: 5
65: 5
66: 5
67: 5
68: 5
69: 5
70: 5
71: 5
72: 5
73: 5
74: 5
75: 5
76: 5
77: 5
78: 5
79: 5
80: 5
81: 5
82: 5
83: 5
84: 5
85: 5
86: 5
87: 5
88: 5
89: 5
90: 5
91: 5
92: 5
93: 5
94: 5
95: 5
96: 5
97: 5
98: 5
99: 5
edge from: to
100: 0
100: 1
101: 0
101: 6
102: 0
102: 7
103: 6
103: 9
103: 10
104: 14
105: 15
106: 17
107: 20
108: 21
108: 23
108: 24
109: 28
110: 31
111: 28
111: 30
111: 32
111: 33
112: 34
112: 37
112: 38
113: 38
114: 39
114: 42
114: 44
115: 1
115: 48
116: 50
116: 51
117: 52
117: 53
118: 52
118: 58
118: 59
119: 62
119: 63
119: 66
120: 64
120: 66
121: 67
121: 69
122: 71
123: 76
124: 78
125: 79
126: 6
126: 80
127: 84
128: 73
128: 78
128: 87
128: 89
128: 93
129: 89
129: 91
2: 100
3: 100
4: 100
5: 100
6: 100
7: 101
8: 102
9: 102
10: 102
11: 102
12: 103
13: 103
14: 103
15: 103
16: 104
17: 105
18: 105
19: 106
20: 106
21: 106
22: 106
23: 107
24: 107
25: 107
26: 108
27: 108
28: 108
29: 108
30: 108
31: 108
32: 109
33: 109
34: 109
35: 110
36: 111
37: 111
38: 111
39: 111
40: 111
41: 112
42: 113
43: 113
44: 113
45: 113
46: 113
47: 114
48: 114
49: 114
50: 114
51: 115
52: 115
53: 115
54: 115
55: 116
56: 116
57: 117
58: 117
59: 117
60: 117
61: 117
62: 117
63: 118
64: 118
65: 118
66: 118
67: 119
68: 119
69: 119
70: 120
71: 120
72: 120
73: 121
74: 121
75: 121
76: 121
77: 122
78: 122
79: 122
80: 122
81: 122
82: 123
83: 123
84: 124
85: 124
86: 125
87: 126
88: 126
89: 126
90: 126
91: 127
92: 127
93: 127
94: 128
95: 128
96: 129
97: 129
98: 129
99: 129
segment: [7]
vertex id: label
90: 0
91: 1
92: 0
93: 2
94: 4
95: 4
96: 4
97: 3
98: 0
99: 1
100: 0
101: 1
102: 3
103: 0
104: 2
105: 4
106: 3
107: 1
108: 0
109: 1
110: 0
111: 1
112: 0
113: 1
114: 0
115: 2
116: 4
117: 3
118: 0
119: 2
0: 5
1: 5
2: 5
3: 5
4: 5
5: 5
6: 5
7: 5
8: 5
9: 5
10: 5
11: 5
12: 5
13: 5
14: 5
15: 5
16: 5
17: 5
18: 5
19: 5
20: 5
21: 5
22: 5
23: 5
24: 5
25: 5
26: 5
27: 5
28: 5
29: 5
30: 5
31: 5
32: 5
33: 5
34: 5
35: 5
36: 5
37: 5
38: 5
39: 5
40: 5
41: 5
42: 5
43: 5
44: 5
45: 5
46: 5
47: 5
48: 5
49: 5
50: 5
51: 5
52: 5
53: 5
54: 5
55: 5
56: 5
57: 5
58: 5
59: 5
60: 5
61: 5
62: 5
63: 5
64: 5
65: 5
66: 5
67: 5
68: 5
69: 5
70: 5
71: 5
72: 5
73: 5
74: 5
75: 5
76: 5
77: 5
78: 5
79: 5
80: 5
81: 5
82: 5
83: 5
84: 5
85: 5
86: 5
87: 5
88: 5
89: 5
edge from: to
90: 0
90: 1
91: 0
92: 9
93: 1
93: 13
94: 14
94: 15
95: 15
95: 16
96: 18
96: 19
97: 18
97: 19
97: 20
97: 21
98: 22
98: 24
99: 25
100: 25
100: 27
100: 29
101: 25
101: 26
101: 27
101: 28
101: 29
101: 31
102: 31
103: 34
103: 35
104: 38
104: 39
105: 42
105: 44
106: 40
106: 43
106: 45
107: 1
107: 44
107: 50
108: 46
108: 51
108: 52
109: 56
110: 58
111: 60
111: 61
112: 61
113: 63
114: 59
114: 65
114: 67
115: 68
116: 73
116: 75
117: 76
118: 78
118: 81
119: 80
2: 90
3: 90
4: 90
5: 90
6: 90
7: 91
8: 91
9: 91
10: 91
11: 92
12: 92
13: 92
14: 92
15: 93
16: 93
17: 94
18: 95
19: 95
20: 95
21: 96
22: 96
23: 97
24: 97
25: 97
26: 97
27: 98
28: 99
29: 99
30: 99
31: 100
32: 101
33: 101
34: 101
35: 102
36: 102
37: 102
38: 103
39: 103
40: 103
41: 103
42: 104
43: 104
44: 104
45: 104
46: 104
47: 105
48: 106
49: 106
50: 106
51: 106
52: 106
53: 107
54: 107
55: 107
56: 108
57: 108
58: 108
59: 108
60: 108
61: 109
62: 109
63: 110
64: 110
65: 111
66: 112
67: 112
68: 113
69: 113
70: 113
71: 114
72: 114
73: 114
74: 115
75: 115
76: 115
77: 115
78: 115
79: 116
80: 116
81: 116
82: 117
83: 117
84: 117
85: 118
86: 118
87: 119
88: 119
89: 119
segment: [8]
vertex id: label
116: 0
117: 2
118: 4
119: 3
120: 0
121: 1
122: 0
123: 2
124: 4
125: 3
126: 1
127: 0
128: 2
129: 4
130: 3
131: 0
132: 2
133: 4
134: 3
135: 0
136: 1
137: 0
138: 2
139: 4
140: 3
141: 0
142: 2
143: 4
144: 3
145: 0
0: 5
1: 5
2: 5
3: 5
4: 5
5: 5
6: 5
7: 5
8: 5
9: 5
10: 5
11: 5
12: 5
13: 5
14: 5
15: 5
16: 5
17: 5
18: 5
19: 5
20: 5
21: 5
22: 5
23: 5
24: 5
25: 5
26: 5
27: 5
28: 5
29: 5
30: 5
31: 5
32: 5
33: 5
34: 5
35: 5
36: 5
37: 5
38: 5
39: 5
40: 5
41: 5
42: 5
43: 5
44: 5
45: 5
46: 5
47: 5
48: 5
49: 5
50: 5
51: 5
52: 5
53: 5
54: 5
55: 5
56: 5
57: 5
58: 5
59: 5
60: 5
61: 5
62: 5
63: 5
64: 5
65: 5
66: 5
67: 5
68: 5
69: 5
70: 5
71: 5
72: 5
73: 5
74: 5
75: 5
76: 5
77: 5
78: 5
79: 5
80: 5
81: 5
82: 5
83: 5
84: 5
85: 5
86: 5
87: 5
88: 5
89: 5
90: 5
91: 5
92: 5
93: 5
94: 5
95: 5
96: 5
97: 5
98: 5
99: 5
100: 5
101: 5
102: 5
103: 5
104: 5
105: 5
106: 5
107: 5
108: 5
109: 5
110: 5
111: 5
112: 5
113: 5
114: 5
115: 5
edge from: to
116: 0
116: 1
116: 2
116: 3
117: 0
117: 6
118: 8
118: 9
119: 9
119: 10
120: 15
120: 16
121: 21
122: 23
122: 24
123: 2
123: 27
124: 30
124: 31
125: 32
126: 31
126: 34
126: 35
127: 35
127: 38
127: 39
128: 41
129: 41
129: 45
129: 47
130: 50
130: 51
130: 54
131: 52
131: 58
131: 59
132: 62
132: 63
133: 59
133: 65
133: 67
134: 68
134: 70
135: 72
136: 75
136: 77
137: 69
137: 70
137: 78
137: 80
137: 83
138: 81
138: 84
139: 85
139: 88
140: 78
140: 87
140: 89
140: 93
141: 93
142: 2
142: 85
142: 97
143: 100
144: 102
144: 104
145: 107
4: 116
5: 116
6: 116
7: 117
8: 117
9: 117
10: 117
11: 118
12: 119
13: 119
14: 119
15: 119
16: 119
17: 119
18: 120
19: 120
20: 120
21: 120
22: 120
23: 120
24: 121
25: 121
26: 122
27: 122
28: 122
29: 122
30: 123
31: 123
32: 123
33: 123
34: 124
35: 124
36: 125
37: 125
38: 126
39: 126
40: 126
41: 126
42: 127
43: 127
44: 127
45: 127
46: 128
47: 128
48: 128
49: 128
50: 129
51: 129
52: 129
53: 129
54: 129
55: 130
56: 130
57: 130
58: 130
59: 130
60: 130
61: 130
62: 130
63: 131
64: 131
65: 131
66: 131
67: 132
68: 132
69: 132
70: 132
71: 133
72: 133
73: 133
74: 134
75: 134
76: 134
77: 134
78: 135
79: 135
80: 135
81: 136
82: 136
83: 136
84: 137
85: 137
86: 137
87: 137
88: 138
89: 138
90: 138
91: 138
92: 139
93: 139
94: 140
95: 140
96: 140
97: 140
98: 140
99: 140
100: 141
101: 141
102: 142
103: 142
104: 142
105: 142
106: 142
107: 143
108: 143
109: 144
110: 144
111: 144
112: 144
113: 144
114: 145
115: 145
segment: [9]
vertex id: label
95: 0
96: 2
97: 4
98: 3
99: 1
100: 0
101: 1
102: 0
103: 1
104: 2
105: 4
106: 3
107: 0
108: 1
109: 0
110: 1
111: 3
112: 0
113: 2
114: 4
115: 4
116: 3
117: 0
118: 2
119: 4
120: 3
121: 0
122: 1
123: 0
124: 1
0: 5
1: 5
2: 5
3: 5
4: 5
5: 5
6: 5
7: 5
8: 5
9: 5
10: 5
11: 5
12: 5
13: 5
14: 5
15: 5
16: 5
17: 5
18: 5
19: 5
20: 5
21: 5
22: 5
23: 5
24: 5
25: 5
26: 5
27: 5
28: 5
29: 5
30: 5
31: 5
32: 5
33: 5
34: 5
35: 5
36: 5
37: 5
38: 5
39: 5
40: 5
41: 5
42: 5
43: 5
44: 5
45: 5
46: 5
47: 5
48: 5
49: 5
50: 5
51: 5
52: 5
53: 5
54: 5
55: 5
56: 5
57: 5
58: 5
59: 5
60: 5
61: 5
62: 5
63: 5
64: 5
65: 5
66: 5
67: 5
68: 5
69: 5
70: 5
71: 5
72: 5
73: 5
74: 5
75: 5
76: 5
77: 5
78: 5
79: 5
80: 5
81: 5
82: 5
83: 5
84: 5
85: 5
86: 5
87: 5
88: 5
89: 5
90: 5
91: 5
92: 5
93: 5
94: 5
edge from: to
95: 0
96: 0
97: 0
97: 2
97: 5
97: 6
98: 0
98: 7
99: 9
99: 10
100: 1
100: 14
101: 20
102: 24
103: 2
103: 27
104: 26
104: 28
104: 29
105: 28
105: 30
105: 31
106: 35
107: 36
108: 38
108: 39
109: 40
109: 42
110: 43
111: 45
112: 50
112: 51
113: 51
113: 52
114: 53
115: 57
115: 58
115: 61
116: 60
117: 63
118: 65
118: 67
119: 67
119: 69
119: 72
120: 73
121: 77
122: 79
122: 82
123: 82
123: 85
124: 78
124: 87
124: 89
1: 95
2: 95
3: 96
4: 96
5: 96
6: 96
7: 97
8: 98
9: 98
10: 98
11: 98
12: 99
13: 99
14: 99
15: 99
16: 100
17: 100
18: 100
19: 100
20: 100
21: 100
22: 100
23: 101
24: 101
25: 101
26: 101
27: 102
28: 102
29: 102
30: 103
31: 103
32: 104
33: 104
34: 105
35: 105
36: 105
37: 105
38: 105
39: 106
40: 107
41: 107
42: 108
43: 108
44: 108
45: 109
46: 109
47: 109
48: 110
49: 110
50: 111
51: 111
52: 111
53: 111
54: 111
55: 112
56: 113
57: 113
58: 114
59: 114
60: 114
61: 114
62: 115
63: 115
64: 115
65: 116
66: 116
67: 116
68: 117
69: 117
70: 117
71: 118
72: 118
73: 119
74: 119
75: 119
76: 119
77: 119
78: 119
79: 120
80: 120
81: 120
82: 120
83: 121
84: 121
85: 121
86: 122
87: 122
88: 122
89: 123
90: 123
91: 123
92: 123
93: 123
94: 124
