segment: [0]
vertex id: label
125: 0
126: 1
127: 0
128: 1
129: 0
130: 1
131: 3
132: 0
133: 1
134: 4
135: 3
136: 0
137: 1
138: 0
139: 1
140: 3
141: 2
142: 3
143: 0
144: 1
145: 0
146: 1
147: 0
148: 1
149: 0
150: 1
151: 0
152: 1
153: 0
154: 1
155: 4
156: 3
157: 0
158: 1
159: 0
160: 1
161: 0
162: 1
163: 0
164: 1
0: 5
1: 5
2: 5
3: 5
4: 5
5: 5
6: 5
7: 5
8: 5
9: 5
10: 5
11: 5
12: 5
13: 5
14: 5
15: 5
16: 5
17: 5
18: 5
19: 5
20: 5
21: 5
22: 5
23: 5
24: 5
25: 5
26: 5
27: 5
28: 5
29: 5
30: 5
31: 5
32: 5
33: 5
34: 5
35: 5
36: 5
37: 5
38: 5
39: 5
40: 5
41: 5
42: 5
43: 5
44: 5
45: 5
46: 5
47: 5
48: 5
49: 5
50: 5
51: 5
52: 5
53: 5
54: 5
55: 5
56: 5
57: 5
58: 5
59: 5
60: 5
61: 5
62: 5
63: 5
64: 5
65: 5
66: 5
67: 5
68: 5
69: 5
70: 5
71: 5
72: 5
73: 5
74: 5
75: 5
76: 5
77: 5
78: 5
79: 5
80: 5
81: 5
82: 5
83: 5
84: 5
85: 5
86: 5
87: 5
88: 5
89: 5
90: 5
91: 5
92: 5
93: 5
94: 5
95: 5
96: 5
97: 5
98: 5
99: 5
100: 5
101: 5
102: 5
103: 5
104: 5
105: 5
106: 5
107: 5
108: 5
109: 5
110: 5
111: 5
112: 5
113: 5
114: 5
115: 5
116: 5
117: 5
118: 5
119: 5
120: 5
121: 5
122: 5
123: 5
124: 5
edge from: to
125: 0
125: 1
126: 0
126: 1
127: 0
128: 2
128: 12
129: 16
130: 17
130: 18
131: 20
132: 22
133: 25
133: 26
134: 27
134: 28
135: 28
136: 31
136: 33
137: 37
137: 39
138: 38
138: 40
138: 43
139: 7
139: 42
140: 40
140: 41
140: 43
140: 46
141: 43
141: 46
141: 49
142: 47
143: 50
143: 53
144: 53
145: 52
145: 53
145: 56
145: 60
146: 60
146: 62
146: 63
146: 65
147: 58
147: 63
147: 66
148: 1
148: 11
148: 62
149: 71
149: 74
150: 75
151: 78
151: 82
151: 84
152: 76
152: 83
152: 87
153: 86
154: 91
155: 94
156: 88
156: 96
156: 101
157: 97
157: 102
158: 90
158: 99
158: 104
159: 91
159: 100
159: 105
160: 104
160: 109
161: 107
161: 112
162: 108
163: 110
163: 115
163: 117
164: 18
164: 112
2: 125
3: 125
4: 125
5: 125
6: 125
7: 126
8: 126
9: 126
10: 127
11: 127
12: 127
13: 127
14: 128
15: 128
16: 128
17: 128
18: 129
19: 129
20: 130
21: 130
22: 130
23: 131
24: 131
25: 132
26: 132
27: 132
28: 133
29: 133
30: 134
31: 134
32: 135
33: 135
34: 135
35: 136
36: 136
37: 136
38: 136
39: 136
40: 136
41: 137
42: 137
43: 137
44: 137
45: 138
46: 138
47: 139
48: 140
49: 140
50: 140
51: 141
52: 142
53: 142
54: 142
55: 143
56: 143
57: 143
58: 143
59: 144
60: 144
61: 144
62: 145
63: 145
64: 145
65: 145
66: 146
67: 146
68: 146
69: 147
70: 147
71: 147
72: 147
73: 147
74: 148
75: 148
76: 148
77: 149
78: 149
79: 149
80: 149
81: 150
82: 150
83: 150
84: 150
85: 151
86: 151
87: 151
88: 151
89: 151
90: 152
91: 152
92: 152
93: 153
94: 153
95: 153
96: 153
97: 153
98: 154
99: 154
100: 154
101: 155
102: 155
103: 155
104: 156
105: 157
106: 157
107: 158
108: 159
109: 159
110: 159
111: 159
112: 160
113: 160
114: 160
115: 161
116: 162
117: 162
118: 163
119: 163
120: 163
121: 164
122: 164
123: 164
124: 164
segment: [1]
vertex id: label
114: 0
115: 1
116: 0
117: 1
118: 0
119: 1
120: 0
121: 1
122: 4
123: 3
124: 0
125: 1
126: 0
127: 1
128: 4
129: 3
130: 0
131: 1
132: 0
133: 1
134: 0
135: 1
136: 4
137: 3
138: 0
139: 1
140: 3
141: 2
142: 3
143: 0
144: 1
145: 0
146: 1
147: 3
148: 0
149: 1
150: 0
151: 1
152: 0
153: 1
0: 5
1: 5
2: 5
3: 5
4: 5
5: 5
6: 5
7: 5
8: 5
9: 5
10: 5
11: 5
12: 5
13: 5
14: 5
15: 5
16: 5
17: 5
18: 5
19: 5
20: 5
21: 5
22: 5
23: 5
24: 5
25: 5
26: 5
27: 5
28: 5
29: 5
30: 5
31: 5
32: 5
33: 5
34: 5
35: 5
36: 5
37: 5
38: 5
39: 5
40: 5
41: 5
42: 5
43: 5
44: 5
45: 5
46: 5
47: 5
48: 5
49: 5
50: 5
51: 5
52: 5
53: 5
54: 5
55: 5
56: 5
57: 5
58: 5
59: 5
60: 5
61: 5
62: 5
63: 5
64: 5
65: 5
66: 5
67: 5
68: 5
69: 5
70: 5
71: 5
72: 5
73: 5
74: 5
75: 5
76: 5
77: 5
78: 5
79: 5
80: 5
81: 5
82: 5
83: 5
84: 5
85: 5
86: 5
87: 5
88: 5
89: 5
90: 5
91: 5
92: 5
93: 5
94: 5
95: 5
96: 5
97: 5
98: 5
99: 5
100: 5
101: 5
102: 5
103: 5
104: 5
105: 5
106: 5
107: 5
108: 5
109: 5
110: 5
111: 5
112: 5
113: 5
edge from: to
114: 0
115: 0
116: 0
116: 1
116: 5
116: 6
117: 0
118: 9
118: 10
119: 2
119: 12
120: 16
120: 17
121: 18
121: 20
122: 19
122: 20
123: 22
123: 23
124: 27
125: 29
125: 31
126: 30
127: 33
127: 35
128: 35
128: 37
129: 34
129: 37
129: 39
130: 40
130: 43
131: 45
132: 46
132: 50
132: 53
133: 53
133: 57
134: 54
135: 57
136: 61
137: 59
137: 60
137: 63
137: 67
138: 1
139: 64
139: 70
139: 73
140: 75
141: 78
142: 81
142: 85
143: 76
143: 83
143: 87
144: 84
144: 88
145: 86
146: 14
146: 79
146: 87
147: 88
148: 91
148: 95
149: 15
149: 94
150: 96
151: 98
152: 101
153: 104
1: 114
2: 114
3: 114
4: 115
5: 115
6: 115
7: 116
8: 117
9: 117
10: 117
11: 118
12: 118
13: 118
14: 119
15: 119
16: 119
17: 119
18: 120
19: 120
20: 120
21: 121
22: 122
23: 122
24: 122
25: 123
26: 123
27: 123
28: 123
29: 123
30: 123
31: 124
32: 124
33: 125
34: 126
35: 126
36: 126
37: 127
38: 127
39: 128
40: 128
41: 129
42: 129
43: 129
44: 129
45: 130
46: 130
47: 130
48: 130
49: 130
50: 131
51: 131
52: 131
53: 131
54: 131
55: 132
56: 132
57: 132
58: 132
59: 133
60: 134
61: 134
62: 134
63: 135
64: 135
65: 135
66: 135
67: 136
68: 136
69: 136
70: 137
71: 137
72: 137
73: 138
74: 138
75: 138
76: 139
77: 139
78: 139
79: 139
80: 139
81: 140
82: 140
83: 140
84: 140
85: 141
86: 141
87: 141
88: 142
89: 142
90: 143
91: 144
92: 144
93: 145
94: 146
95: 147
96: 147
97: 147
98: 148
99: 148
100: 148
101: 149
102: 149
103: 149
104: 150
105: 150
106: 151
107: 151
108: 151
109: 152
110: 152
111: 152
112: 153
113: 153
segment: [2]
vertex id: label
137: 0
138: 1
139: 3
140: 0
141: 1
142: 0
143: 1
144: 4
145: 4
146: 3
147: 0
148: 2
149: 3
150: 0
151: 1
152: 0
153: 1
154: 4
155: 3
156: 0
157: 1
158: 0
159: 1
160: 0
161: 1
162: 3
163: 0
164: 1
165: 0
166: 1
167: 4
168: 3
169: 0
170: 1
171: 0
172: 1
173: 0
174: 1
175: 4
176: 3
0: 5
1: 5
2: 5
3: 5
4: 5
5: 5
6: 5
7: 5
8: 5
9: 5
10: 5
11: 5
12: 5
13: 5
14: 5
15: 5
16: 5
17: 5
18: 5
19: 5
20: 5
21: 5
22: 5
23: 5
24: 5
25: 5
26: 5
27: 5
28: 5
29: 5
30: 5
31: 5
32: 5
33: 5
34: 5
35: 5
36: 5
37: 5
38: 5
39: 5
40: 5
41: 5
42: 5
43: 5
44: 5
45: 5
46: 5
47: 5
48: 5
49: 5
50: 5
51: 5
52: 5
53: 5
54: 5
55: 5
56: 5
57: 5
58: 5
59: 5
60: 5
61: 5
62: 5
63: 5
64: 5
65: 5
66: 5
67: 5
68: 5
69: 5
70: 5
71: 5
72: 5
73: 5
74: 5
75: 5
76: 5
77: 5
78: 5
79: 5
80: 5
81: 5
82: 5
83: 5
84: 5
85: 5
86: 5
87: 5
88: 5
89: 5
90: 5
91: 5
92: 5
93: 5
94: 5
95: 5
96: 5
97: 5
98: 5
99: 5
100: 5
101: 5
102: 5
103: 5
104: 5
105: 5
106: 5
107: 5
108: 5
109: 5
110: 5
111: 5
112: 5
113: 5
114: 5
115: 5
116: 5
117: 5
118: 5
119: 5
120: 5
121: 5
122: 5
123: 5
124: 5
125: 5
126: 5
127: 5
128: 5
129: 5
130: 5
131: 5
132: 5
133: 5
134: 5
135: 5
136: 5
edge from: to
137: 0
137: 1
137: 2
138: 0
138: 1
139: 4
139: 10
139: 11
140: 11
141: 14
141: 15
142: 16
142: 17
143: 17
143: 18
143: 20
144: 21
144: 22
145: 27
146: 31
146: 33
147: 38
147: 40
148: 38
149: 7
149: 39
149: 42
150: 44
150: 47
151: 46
151: 49
152: 50
152: 53
153: 52
153: 56
154: 54
155: 61
155: 64
156: 58
156: 63
156: 66
157: 1
157: 69
158: 1
159: 70
159: 73
160: 73
160: 76
161: 75
161: 78
162: 77
163: 80
163: 84
164: 82
164: 86
165: 14
165: 87
166: 81
166: 89
166: 93
167: 86
167: 93
167: 95
167: 97
167: 99
168: 86
168: 94
168: 99
169: 98
169: 103
170: 92
170: 101
170: 106
171: 105
171: 110
172: 97
172: 107
172: 112
173: 110
174: 114
175: 119
176: 122
3: 137
4: 137
5: 137
6: 137
7: 137
8: 138
9: 138
10: 138
11: 138
12: 139
13: 140
14: 140
15: 140
16: 141
17: 141
18: 142
19: 142
20: 142
21: 143
22: 143
23: 143
24: 144
25: 144
26: 144
27: 144
28: 144
29: 144
30: 144
31: 145
32: 145
33: 145
34: 145
35: 146
36: 146
37: 146
38: 146
39: 146
40: 146
41: 146
42: 147
43: 148
44: 148
45: 148
46: 148
47: 149
48: 149
49: 150
50: 150
51: 151
52: 151
53: 151
54: 151
55: 152
56: 152
57: 152
58: 153
59: 153
60: 154
61: 154
62: 154
63: 154
64: 154
65: 154
66: 154
67: 155
68: 155
69: 156
70: 156
71: 156
72: 157
73: 157
74: 158
75: 158
76: 159
77: 159
78: 159
79: 160
80: 160
81: 161
82: 161
83: 162
84: 162
85: 162
86: 162
87: 163
88: 163
89: 164
90: 164
91: 164
92: 164
93: 164
94: 165
95: 165
96: 166
97: 166
98: 166
99: 166
100: 167
101: 167
102: 168
103: 168
104: 168
105: 168
106: 169
107: 169
108: 169
109: 170
110: 170
111: 170
112: 170
113: 171
114: 171
115: 172
116: 172
117: 172
118: 172
119: 173
120: 173
121: 173
122: 173
123: 174
124: 174
125: 174
126: 174
127: 174
128: 175
129: 175
130: 175
131: 176
132: 176
133: 176
134: 176
135: 176
136: 176
segment: [3]
vertex id: label
121: 0
122: 1
123: 0
124: 1
125: 0
126: 1
127: 4
128: 3
129: 0
130: 1
131: 0
132: 1
133: 0
134: 1
135: 0
136: 1
137: 4
138: 3
139: 2
140: 3
141: 2
142: 3
143: 0
144: 1
145: 0
146: 1
147: 0
148: 1
149: 0
150: 1
151: 0
152: 1
153: 3
154: 0
155: 1
156: 0
157: 1
158: 0
159: 1
160: 0
0: 5
1: 5
2: 5
3: 5
4: 5
5: 5
6: 5
7: 5
8: 5
9: 5
10: 5
11: 5
12: 5
13: 5
14: 5
15: 5
16: 5
17: 5
18: 5
19: 5
20: 5
21: 5
22: 5
23: 5
24: 5
25: 5
26: 5
27: 5
28: 5
29: 5
30: 5
31: 5
32: 5
33: 5
34: 5
35: 5
36: 5
37: 5
38: 5
39: 5
40: 5
41: 5
42: 5
43: 5
44: 5
45: 5
46: 5
47: 5
48: 5
49: 5
50: 5
51: 5
52: 5
53: 5
54: 5
55: 5
56: 5
57: 5
58: 5
59: 5
60: 5
61: 5
62: 5
63: 5
64: 5
65: 5
66: 5
67: 5
68: 5
69: 5
70: 5
71: 5
72: 5
73: 5
74: 5
75: 5
76: 5
77: 5
78: 5
79: 5
80: 5
81: 5
82: 5
83: 5
84: 5
85: 5
86: 5
87: 5
88: 5
89: 5
90: 5
91: 5
92: 5
93: 5
94: 5
95: 5
96: 5
97: 5
98: 5
99: 5
100: 5
101: 5
102: 5
103: 5
104: 5
105: 5
106: 5
107: 5
108: 5
109: 5
110: 5
111: 5
112: 5
113: 5
114: 5
115: 5
116: 5
117: 5
118: 5
119: 5
120: 5
edge from: to
121: 0
121: 1
122: 0
123: 9
124: 10
124: 11
125: 13
125: 14
126: 16
126: 17
127: 18
127: 20
128: 20
129: 26
130: 27
130: 29
131: 29
132: 31
132: 33
133: 35
134: 34
134: 35
134: 37
134: 38
134: 39
135: 40
135: 43
136: 44
137: 46
138: 48
138: 51
139: 3
139: 47
139: 48
139: 50
139: 54
140: 50
140: 53
140: 57
140: 58
141: 56
142: 54
142: 55
142: 58
142: 61
143: 61
143: 64
144: 63
144: 67
145: 1
146: 64
146: 70
146: 73
147: 72
147: 75
148: 74
148: 77
148: 79
149: 68
149: 75
149: 78
150: 71
150: 78
150: 81
151: 82
152: 88
152: 92
153: 91
153: 95
153: 97
154: 92
154: 96
154: 98
155: 93
156: 95
157: 99
157: 104
158: 92
158: 101
158: 106
159: 105
159: 110
160: 110
2: 121
3: 121
4: 122
5: 122
6: 122
7: 122
8: 122
9: 122
10: 122
11: 123
12: 124
13: 124
14: 124
15: 125
16: 125
17: 125
18: 126
19: 126
20: 126
21: 127
22: 127
23: 128
24: 128
25: 128
26: 128
27: 128
28: 128
29: 129
30: 129
31: 130
32: 130
33: 131
34: 131
35: 132
36: 132
37: 132
38: 132
39: 133
40: 133
41: 134
42: 134
43: 134
44: 134
45: 135
46: 135
47: 135
48: 135
49: 136
50: 136
51: 137
52: 137
53: 138
54: 138
55: 138
56: 139
57: 139
58: 139
59: 140
60: 140
61: 140
62: 141
63: 141
64: 142
65: 142
66: 142
67: 143
68: 143
69: 143
70: 144
71: 144
72: 144
73: 144
74: 145
75: 145
76: 146
77: 146
78: 147
79: 147
80: 148
81: 149
82: 149
83: 149
84: 150
85: 150
86: 150
87: 150
88: 150
89: 151
90: 151
91: 151
92: 151
93: 151
94: 151
95: 152
96: 152
97: 152
98: 153
99: 154
100: 155
101: 155
102: 155
103: 156
104: 156
105: 156
106: 156
107: 157
108: 157
109: 158
110: 158
111: 158
112: 158
113: 159
114: 159
115: 159
116: 159
117: 159
118: 160
119: 160
120: 160
segment: [4]
vertex id: label
137: 0
138: 1
139: 0
140: 1
141: 0
142: 1
143: 0
144: 1
145: 0
146: 1
147: 0
148: 1
149: 0
150: 1
151: 4
152: 3
153: 0
154: 1
155: 0
156: 1
157: 0
158: 1
159: 0
160: 1
161: 4
162: 3
163: 0
164: 1
165: 0
166: 1
167: 0
168: 1
169: 0
170: 1
171: 0
172: 1
173: 4
174: 3
175: 0
176: 1
0: 5
1: 5
2: 5
3: 5
4: 5
5: 5
6: 5
7: 5
8: 5
9: 5
10: 5
11: 5
12: 5
13: 5
14: 5
15: 5
16: 5
17: 5
18: 5
19: 5
20: 5
21: 5
22: 5
23: 5
24: 5
25: 5
26: 5
27: 5
28: 5
29: 5
30: 5
31: 5
32: 5
33: 5
34: 5
35: 5
36: 5
37: 5
38: 5
39: 5
40: 5
41: 5
42: 5
43: 5
44: 5
45: 5
46: 5
47: 5
48: 5
49: 5
50: 5
51: 5
52: 5
53: 5
54: 5
55: 5
56: 5
57: 5
58: 5
59: 5
60: 5
61: 5
62: 5
63: 5
64: 5
65: 5
66: 5
67: 5
68: 5
69: 5
70: 5
71: 5
72: 5
73: 5
74: 5
75: 5
76: 5
77: 5
78: 5
79: 5
80: 5
81: 5
82: 5
83: 5
84: 5
85: 5
86: 5
87: 5
88: 5
89: 5
90: 5
91: 5
92: 5
93: 5
94: 5
95: 5
96: 5
97: 5
98: 5
99: 5
100: 5
101: 5
102: 5
103: 5
104: 5
105: 5
106: 5
107: 5
108: 5
109: 5
110: 5
111: 5
112: 5
113: 5
114: 5
115: 5
116: 5
117: 5
118: 5
119: 5
120: 5
121: 5
122: 5
123: 5
124: 5
125: 5
126: 5
127: 5
128: 5
129: 5
130: 5
131: 5
132: 5
133: 5
134: 5
135: 5
136: 5
edge from: to
137: 0
137: 1
138: 0
138: 1
139: 10
139: 11
140: 9
140: 12
140: 13
140: 14
140: 15
141: 18
141: 20
142: 26
142: 27
143: 28
143: 30
144: 31
144: 33
145: 36
145: 38
146: 38
146: 41
147: 7
147: 42
148: 45
149: 48
150: 50
151: 52
152: 57
153: 63
153: 66
154: 1
154: 69
155: 1
155: 11
155: 62
156: 64
156: 70
156: 73
157: 74
158: 76
159: 78
160: 73
160: 75
160: 80
160: 84
161: 84
161: 88
162: 14
162: 79
162: 81
162: 87
162: 89
163: 89
163: 93
164: 94
165: 97
166: 91
166: 100
166: 105
167: 105
167: 110
168: 107
168: 112
169: 110
170: 112
171: 116
172: 117
172: 123
173: 121
173: 127
174: 122
174: 128
174: 130
175: 125
176: 126
2: 137
3: 137
4: 137
5: 137
6: 137
7: 137
8: 138
9: 138
10: 138
11: 138
12: 139
13: 139
14: 139
15: 139
16: 140
17: 140
18: 140
19: 140
20: 140
21: 141
22: 141
23: 141
24: 141
25: 141
26: 141
27: 141
28: 141
29: 142
30: 142
31: 142
32: 143
33: 143
34: 143
35: 144
36: 144
37: 144
38: 144
39: 144
40: 145
41: 145
42: 145
43: 146
44: 146
45: 146
46: 146
47: 147
48: 147
49: 147
50: 148
51: 148
52: 148
53: 149
54: 149
55: 150
56: 150
57: 150
58: 151
59: 151
60: 151
61: 151
62: 151
63: 152
64: 152
65: 152
66: 152
67: 152
68: 152
69: 153
70: 153
71: 153
72: 154
73: 154
74: 155
75: 155
76: 156
77: 156
78: 156
79: 156
80: 157
81: 157
82: 158
83: 158
84: 158
85: 159
86: 159
87: 160
88: 160
89: 160
90: 160
91: 161
92: 161
93: 161
94: 162
95: 162
96: 163
97: 163
98: 163
99: 163
100: 163
101: 164
102: 164
103: 164
104: 164
105: 165
106: 165
107: 165
108: 166
109: 166
110: 166
111: 166
112: 166
113: 167
114: 167
115: 168
116: 168
117: 168
118: 168
119: 169
120: 169
121: 170
122: 170
123: 170
124: 170
125: 171
126: 172
127: 172
128: 172
129: 172
130: 173
131: 174
132: 174
133: 174
134: 175
135: 176
136: 176
segment: [5]
vertex id: label
110: 0
111: 1
112: 3
113: 0
114: 1
115: 4
116: 3
117: 0
118: 1
119: 0
120: 1
121: 4
122: 3
123: 0
124: 1
125: 0
126: 1
127: 0
128: 1
129: 0
130: 1
131: 4
132: 3
133: 0
134: 2
135: 3
136: 0
137: 1
138: 4
139: 3
140: 0
141: 1
142: 0
143: 1
144: 4
145: 3
146: 0
147: 1
148: 0
149: 1
0: 5
1: 5
2: 5
3: 5
4: 5
5: 5
6: 5
7: 5
8: 5
9: 5
10: 5
11: 5
12: 5
13: 5
14: 5
15: 5
16: 5
17: 5
18: 5
19: 5
20: 5
21: 5
22: 5
23: 5
24: 5
25: 5
26: 5
27: 5
28: 5
29: 5
30: 5
31: 5
32: 5
33: 5
34: 5
35: 5
36: 5
37: 5
38: 5
39: 5
40: 5
41: 5
42: 5
43: 5
44: 5
45: 5
46: 5
47: 5
48: 5
49: 5
50: 5
51: 5
52: 5
53: 5
54: 5
55: 5
56: 5
57: 5
58: 5
59: 5
60: 5
61: 5
62: 5
63: 5
64: 5
65: 5
66: 5
67: 5
68: 5
69: 5
70: 5
71: 5
72: 5
73: 5
74: 5
75: 5
76: 5
77: 5
78: 5
79: 5
80: 5
81: 5
82: 5
83: 5
84: 5
85: 5
86: 5
87: 5
88: 5
89: 5
90: 5
91: 5
92: 5
93: 5
94: 5
95: 5
96: 5
97: 5
98: 5
99: 5
100: 5
101: 5
102: 5
103: 5
104: 5
105: 5
106: 5
107: 5
108: 5
109: 5
edge from: to
110: 0
110: 1
111: 0
111: 2
112: 0
112: 4
113: 0
114: 10
115: 14
115: 15
116: 15
117: 18
117: 19
117: 20
117: 21
118: 20
118: 21
119: 23
120: 26
120: 27
121: 29
121: 31
122: 2
122: 31
122: 33
122: 35
123: 33
123: 36
123: 38
124: 35
124: 38
124: 40
125: 40
126: 44
126: 47
127: 46
127: 49
128: 50
129: 55
130: 58
130: 61
131: 62
132: 58
132: 63
132: 66
133: 1
133: 69
134: 69
134: 72
135: 66
135: 72
135: 75
136: 69
136: 76
136: 79
137: 78
137: 81
138: 78
138: 82
139: 79
140: 73
140: 80
140: 84
141: 75
141: 82
141: 86
141: 88
142: 84
143: 85
144: 87
145: 88
145: 92
146: 92
147: 86
147: 94
147: 99
148: 90
148: 97
148: 100
148: 102
148: 104
149: 90
149: 92
149: 99
149: 104
2: 110
3: 111
4: 111
5: 112
6: 112
7: 113
8: 113
9: 113
10: 113
11: 113
12: 114
13: 114
14: 114
15: 114
16: 115
17: 116
18: 116
19: 116
20: 116
21: 116
22: 117
23: 118
24: 118
25: 118
26: 119
27: 119
28: 119
29: 120
30: 120
31: 120
32: 120
33: 121
34: 121
35: 121
36: 121
37: 122
38: 122
39: 122
40: 123
41: 123
42: 124
43: 124
44: 124
45: 125
46: 125
47: 125
48: 125
49: 126
50: 126
51: 127
52: 127
53: 127
54: 127
55: 128
56: 128
57: 128
58: 128
59: 128
60: 128
61: 129
62: 129
63: 129
64: 130
65: 130
66: 130
67: 130
68: 131
69: 132
70: 132
71: 132
72: 133
73: 133
74: 133
75: 134
76: 134
77: 134
78: 135
79: 135
80: 135
81: 135
82: 136
83: 136
84: 137
85: 138
86: 139
87: 140
88: 140
89: 141
90: 141
91: 142
92: 143
93: 143
94: 144
95: 145
96: 145
97: 145
98: 145
99: 146
100: 146
101: 146
102: 147
103: 147
104: 147
105: 148
106: 148
107: 149
108: 149
109: 149
segment: [6]
vertex id: label
129: 0
130: 1
131: 0
132: 1
133: 0
134: 1
135: 3
136: 0
137: 1
138: 0
139: 1
140: 0
141: 1
142: 0
143: 1
144: 3
145: 0
146: 1
147: 3
148: 0
149: 1
150: 0
151: 1
152: 4
153: 3
154: 0
155: 1
156: 0
157: 1
158: 3
159: 0
160: 1
161: 0
162: 1
163: 0
164: 1
165: 0
166: 1
167: 3
168: 0
0: 5
1: 5
2: 5
3: 5
4: 5
5: 5
6: 5
7: 5
8: 5
9: 5
10: 5
11: 5
12: 5
13: 5
14: 5
15: 5
16: 5
17: 5
18: 5
19: 5
20: 5
21: 5
22: 5
23: 5
24: 5
25: 5
26: 5
27: 5
28: 5
29: 5
30: 5
31: 5
32: 5
33: 5
34: 5
35: 5
36: 5
37: 5
38: 5
39: 5
40: 5
41: 5
42: 5
43: 5
44: 5
45: 5
46: 5
47: 5
48: 5
49: 5
50: 5
51: 5
52: 5
53: 5
54: 5
55: 5
56: 5
57: 5
58: 5
59: 5
60: 5
61: 5
62: 5
63: 5
64: 5
65: 5
66: 5
67: 5
68: 5
69: 5
70: 5
71: 5
72: 5
73: 5
74: 5
75: 5
76: 5
77: 5
78: 5
79: 5
80: 5
81: 5
82: 5
83: 5
84: 5
85: 5
86: 5
87: 5
88: 5
89: 5
90: 5
91: 5
92: 5
93: 5
94: 5
95: 5
96: 5
97: 5
98: 5
99: 5
100: 5
101: 5
102: 5
103: 5
104: 5
105: 5
106: 5
107: 5
108: 5
109: 5
110: 5
111: 5
112: 5
113: 5
114: 5
115: 5
116: 5
117: 5
118: 5
119: 5
120: 5
121: 5
122: 5
123: 5
124: 5
125: 5
126: 5
127: 5
128: 5
edge from: to
129: 0
129: 1
129: 2
129: 3
130: 0
130: 3
130: 5
131: 0
131: 1
131: 5
132: 0
133: 11
134: 15
135: 16
135: 17
135: 18
136: 18
136: 19
136: 20
136: 21
137: 1
137: 22
137: 23
137: 24
138: 27
138: 28
138: 29
138: 30
139: 33
140: 37
140: 39
141: 36
141: 38
141: 41
142: 40
142: 43
142: 46
143: 47
143: 50
144: 8
144: 49
145: 48
145: 51
145: 55
146: 54
147: 56
147: 60
148: 54
148: 58
148: 61
149: 57
149: 58
149: 62
149: 65
150: 1
151: 70
151: 73
152: 73
153: 69
153: 76
153: 79
154: 71
154: 72
154: 78
154: 79
154: 81
154: 83
155: 75
155: 82
155: 86
156: 84
156: 88
157: 14
157: 79
157: 87
158: 89
158: 93
159: 92
160: 15
160: 94
161: 98
161: 103
162: 92
162: 101
162: 106
163: 106
164: 107
164: 112
165: 110
165: 116
165: 118
166: 115
167: 116
168: 119
168: 125
4: 129
5: 129
6: 130
7: 131
8: 131
9: 131
10: 132
11: 132
12: 132
13: 133
14: 133
15: 133
16: 133
17: 134
18: 134
19: 134
20: 135
21: 135
22: 136
23: 136
24: 136
25: 136
26: 137
27: 137
28: 137
29: 137
30: 137
31: 137
32: 138
33: 138
34: 138
35: 138
36: 138
37: 139
38: 139
39: 139
40: 139
41: 140
42: 140
43: 141
44: 141
45: 141
46: 141
47: 141
48: 142
49: 142
50: 142
51: 142
52: 143
53: 143
54: 144
55: 144
56: 144
57: 145
58: 145
59: 145
60: 146
61: 146
62: 147
63: 147
64: 148
65: 148
66: 148
67: 148
68: 149
69: 149
70: 149
71: 149
72: 150
73: 150
74: 150
75: 150
76: 151
77: 151
78: 151
79: 152
80: 152
81: 152
82: 153
83: 153
84: 154
85: 154
86: 154
87: 154
88: 154
89: 155
90: 155
91: 156
92: 156
93: 156
94: 157
95: 157
96: 158
97: 158
98: 158
99: 159
100: 159
101: 160
102: 160
103: 160
104: 160
105: 160
106: 161
107: 161
108: 161
109: 162
110: 162
111: 162
112: 162
113: 162
114: 163
115: 164
116: 164
117: 164
118: 164
119: 165
120: 165
121: 165
122: 165
123: 165
124: 166
125: 167
126: 167
127: 167
128: 168
segment: [7]
vertex id: label
123: 0
124: 1
125: 4
126: 3
127: 0
128: 1
129: 3
130: 0
131: 1
132: 4
133: 3
134: 0
135: 1
136: 4
137: 3
138: 0
139: 1
140: 0
141: 1
142: 0
143: 1
144: 0
145: 1
146: 3
147: 0
148: 1
149: 0
150: 1
151: 0
152: 1
153: 0
154: 1
155: 4
156: 3
157: 2
158: 3
159: 0
160: 1
161: 0
162: 1
0: 5
1: 5
2: 5
3: 5
4: 5
5: 5
6: 5
7: 5
8: 5
9: 5
10: 5
11: 5
12: 5
13: 5
14: 5
15: 5
16: 5
17: 5
18: 5
19: 5
20: 5
21: 5
22: 5
23: 5
24: 5
25: 5
26: 5
27: 5
28: 5
29: 5
30: 5
31: 5
32: 5
33: 5
34: 5
35: 5
36: 5
37: 5
38: 5
39: 5
40: 5
41: 5
42: 5
43: 5
44: 5
45: 5
46: 5
47: 5
48: 5
49: 5
50: 5
51: 5
52: 5
53: 5
54: 5
55: 5
56: 5
57: 5
58: 5
59: 5
60: 5
61: 5
62: 5
63: 5
64: 5
65: 5
66: 5
67: 5
68: 5
69: 5
70: 5
71: 5
72: 5
73: 5
74: 5
75: 5
76: 5
77: 5
78: 5
79: 5
80: 5
81: 5
82: 5
83: 5
84: 5
85: 5
86: 5
87: 5
88: 5
89: 5
90: 5
91: 5
92: 5
93: 5
94: 5
95: 5
96: 5
97: 5
98: 5
99: 5
100: 5
101: 5
102: 5
103: 5
104: 5
105: 5
106: 5
107: 5
108: 5
109: 5
110: 5
111: 5
112: 5
113: 5
114: 5
115: 5
116: 5
117: 5
118: 5
119: 5
120: 5
121: 5
122: 5
edge from: to
123: 0
123: 1
124: 0
124: 4
125: 0
125: 1
126: 0
127: 9
127: 10
128: 2
128: 12
129: 14
129: 15
129: 16
130: 17
130: 18
131: 4
131: 20
131: 21
131: 22
131: 23
132: 24
133: 25
134: 28
135: 31
135: 33
136: 33
136: 36
136: 38
137: 37
137: 39
138: 36
138: 38
138: 41
139: 41
139: 44
140: 45
141: 49
142: 51
143: 54
143: 57
144: 57
145: 60
145: 63
146: 57
146: 62
146: 65
147: 1
147: 69
148: 69
148: 72
149: 72
150: 75
150: 78
151: 73
151: 80
151: 84
152: 85
152: 89
153: 88
153: 92
154: 94
155: 87
155: 95
155: 100
156: 96
157: 99
158: 94
158: 103
158: 108
159: 105
159: 110
159: 112
160: 107
161: 108
162: 103
162: 111
162: 113
162: 114
162: 117
162: 119
2: 123
3: 123
4: 123
5: 124
6: 124
7: 125
8: 126
9: 126
10: 126
11: 127
12: 127
13: 127
14: 128
15: 128
16: 128
17: 129
18: 129
19: 129
20: 130
21: 130
22: 130
23: 130
24: 131
25: 131
26: 131
27: 132
28: 133
29: 133
30: 133
31: 133
32: 134
33: 134
34: 134
35: 135
36: 135
37: 135
38: 135
39: 135
40: 136
41: 137
42: 137
43: 138
44: 138
45: 138
46: 139
47: 139
48: 139
49: 139
50: 140
51: 140
52: 140
53: 140
54: 141
55: 141
56: 141
57: 142
58: 142
59: 142
60: 143
61: 143
62: 143
63: 144
64: 144
65: 144
66: 145
67: 145
68: 146
69: 146
70: 146
71: 146
72: 147
73: 147
74: 147
75: 148
76: 148
77: 148
78: 149
79: 149
80: 149
81: 150
82: 150
83: 150
84: 150
85: 150
86: 150
87: 151
88: 151
89: 151
90: 151
91: 151
92: 152
93: 152
94: 152
95: 153
96: 153
97: 153
98: 153
99: 153
100: 153
101: 154
102: 154
103: 155
104: 156
105: 156
106: 156
107: 157
108: 157
109: 157
110: 157
111: 158
112: 158
113: 159
114: 159
115: 160
116: 161
117: 161
118: 161
119: 161
120: 162
121: 162
122: 162
segment: [8]
vertex id: label
136: 0
137: 1
138: 0
139: 1
140: 0
141: 1
142: 0
143: 1
144: 4
145: 3
146: 0
147: 1
148: 0
149: 1
150: 0
151: 1
152: 0
153: 1
154: 0
155: 1
156: 0
157: 1
158: 0
159: 2
160: 3
161: 2
162: 3
163: 2
164: 3
165: 0
166: 1
167: 0
168: 1
169: 4
170: 3
171: 0
172: 1
173: 3
174: 2
175: 3
0: 5
1: 5
2: 5
3: 5
4: 5
5: 5
6: 5
7: 5
8: 5
9: 5
10: 5
11: 5
12: 5
13: 5
14: 5
15: 5
16: 5
17: 5
18: 5
19: 5
20: 5
21: 5
22: 5
23: 5
24: 5
25: 5
26: 5
27: 5
28: 5
29: 5
30: 5
31: 5
32: 5
33: 5
34: 5
35: 5
36: 5
37: 5
38: 5
39: 5
40: 5
41: 5
42: 5
43: 5
44: 5
45: 5
46: 5
47: 5
48: 5
49: 5
50: 5
51: 5
52: 5
53: 5
54: 5
55: 5
56: 5
57: 5
58: 5
59: 5
60: 5
61: 5
62: 5
63: 5
64: 5
65: 5
66: 5
67: 5
68: 5
69: 5
70: 5
71: 5
72: 5
73: 5
74: 5
75: 5
76: 5
77: 5
78: 5
79: 5
80: 5
81: 5
82: 5
83: 5
84: 5
85: 5
86: 5
87: 5
88: 5
89: 5
90: 5
91: 5
92: 5
93: 5
94: 5
95: 5
96: 5
97: 5
98: 5
99: 5
100: 5
101: 5
102: 5
103: 5
104: 5
105: 5
106: 5
107: 5
108: 5
109: 5
110: 5
111: 5
112: 5
113: 5
114: 5
115: 5
116: 5
117: 5
118: 5
119: 5
120: 5
121: 5
122: 5
123: 5
124: 5
125: 5
126: 5
127: 5
128: 5
129: 5
130: 5
131: 5
132: 5
133: 5
134: 5
135: 5
edge from: to
136: 0
137: 0
138: 0
138: 1
138: 6
139: 9
140: 11
140: 12
141: 14
141: 15
142: 16
142: 17
142: 18
143: 19
143: 20
144: 22
144: 23
145: 23
145: 24
146: 24
146: 26
146: 27
147: 30
148: 33
148: 35
149: 34
149: 36
150: 36
151: 7
151: 42
152: 42
152: 45
152: 48
153: 47
153: 50
153: 54
154: 54
155: 58
156: 61
156: 64
157: 1
158: 72
159: 74
160: 79
161: 83
162: 77
162: 78
162: 84
162: 88
163: 88
163: 92
164: 92
164: 96
165: 95
165: 100
166: 99
166: 104
167: 101
167: 106
168: 107
168: 112
169: 109
169: 114
170: 111
171: 104
171: 106
171: 114
171: 117
171: 120
172: 119
173: 121
174: 124
174: 130
175: 126
175: 132
1: 136
2: 136
3: 136
4: 137
5: 137
6: 137
7: 137
8: 138
9: 138
10: 138
11: 139
12: 139
13: 140
14: 140
15: 140
16: 141
17: 141
18: 141
19: 141
20: 142
21: 142
22: 143
23: 143
24: 143
25: 144
26: 145
27: 145
28: 145
29: 146
30: 146
31: 146
32: 146
33: 146
34: 147
35: 147
36: 147
37: 148
38: 149
39: 149
40: 150
41: 150
42: 150
43: 150
44: 150
45: 150
46: 150
47: 151
48: 151
49: 151
50: 152
51: 152
52: 152
53: 152
54: 152
55: 152
56: 153
57: 153
58: 153
59: 153
60: 154
61: 154
62: 154
63: 154
64: 155
65: 155
66: 155
67: 156
68: 156
69: 156
70: 156
71: 157
72: 157
73: 157
74: 157
75: 157
76: 157
77: 157
78: 158
79: 158
80: 159
81: 159
82: 159
83: 159
84: 159
85: 159
86: 160
87: 160
88: 160
89: 160
90: 161
91: 162
92: 162
93: 162
94: 162
95: 163
96: 163
97: 163
98: 163
99: 164
100: 164
101: 164
102: 164
103: 165
104: 165
105: 165
106: 165
107: 166
108: 166
109: 167
110: 167
111: 167
112: 167
113: 167
114: 167
115: 168
116: 168
117: 169
118: 169
119: 169
120: 170
121: 170
122: 170
123: 171
124: 171
125: 171
126: 171
127: 171
128: 172
129: 172
130: 173
131: 173
132: 173
133: 174
134: 174
135: 175
segment: [9]
vertex id: label
122: 0
123: 1
124: 0
125: 1
126: 0
127: 1
128: 0
129: 1
130: 3
131: 0
132: 1
133: 0
134: 1
135: 0
136: 1
137: 0
138: 1
139: 0
140: 1
141: 0
142: 1
143: 0
144: 1
145: 4
146: 3
147: 2
148: 3
149: 0
150: 1
151: 0
152: 1
153: 0
154: 1
155: 0
156: 1
157: 0
158: 1
159: 0
160: 1
161: 3
0: 5
1: 5
2: 5
3: 5
4: 5
5: 5
6: 5
7: 5
8: 5
9: 5
10: 5
11: 5
12: 5
13: 5
14: 5
15: 5
16: 5
17: 5
18: 5
19: 5
20: 5
21: 5
22: 5
23: 5
24: 5
25: 5
26: 5
27: 5
28: 5
29: 5
30: 5
31: 5
32: 5
33: 5
34: 5
35: 5
36: 5
37: 5
38: 5
39: 5
40: 5
41: 5
42: 5
43: 5
44: 5
45: 5
46: 5
47: 5
48: 5
49: 5
50: 5
51: 5
52: 5
53: 5
54: 5
55: 5
56: 5
57: 5
58: 5
59: 5
60: 5
61: 5
62: 5
63: 5
64: 5
65: 5
66: 5
67: 5
68: 5
69: 5
70: 5
71: 5
72: 5
73: 5
74: 5
75: 5
76: 5
77: 5
78: 5
79: 5
80: 5
81: 5
82: 5
83: 5
84: 5
85: 5
86: 5
87: 5
88: 5
89: 5
90: 5
91: 5
92: 5
93: 5
94: 5
95: 5
96: 5
97: 5
98: 5
99: 5
100: 5
101: 5
102: 5
103: 5
104: 5
105: 5
106: 5
107: 5
108: 5
109: 5
110: 5
111: 5
112: 5
113: 5
114: 5
115: 5
116: 5
117: 5
118: 5
119: 5
120: 5
121: 5
edge from: to
122: 0
122: 1
123: 0
123: 1
124: 0
124: 9
125: 2
125: 12
125: 13
125: 14
126: 12
126: 14
126: 15
126: 16
127: 20
128: 27
129: 29
130: 38
131: 41
131: 42
131: 44
131: 47
132: 48
133: 49
134: 47
134: 50
134: 54
135: 53
135: 57
136: 51
136: 55
136: 59
137: 56
138: 58
138: 61
139: 60
140: 1
141: 1
141: 11
142: 71
142: 74
143: 73
143: 76
144: 74
144: 77
145: 71
145: 72
145: 78
145: 81
146: 73
146: 80
146: 84
147: 82
147: 86
148: 84
148: 88
149: 85
150: 14
150: 87
151: 81
151: 89
151: 93
152: 90
153: 93
153: 97
153: 99
154: 15
154: 85
154: 87
154: 94
155: 94
155: 99
156: 99
157: 92
157: 94
157: 101
157: 106
158: 104
158: 109
159: 105
160: 107
160: 112
161: 110
161: 116
2: 122
3: 122
4: 122
5: 122
6: 122
7: 122
8: 123
9: 123
10: 124
11: 124
12: 124
13: 124
14: 124
15: 125
16: 125
17: 126
18: 126
19: 126
20: 126
21: 126
22: 126
23: 127
24: 127
25: 127
26: 127
27: 127
28: 127
29: 127
30: 128
31: 128
32: 128
33: 129
34: 129
35: 129
36: 129
37: 129
38: 129
39: 129
40: 129
41: 129
42: 130
43: 130
44: 130
45: 130
46: 130
47: 130
48: 130
49: 131
50: 131
51: 131
52: 131
53: 132
54: 133
55: 133
56: 134
57: 134
58: 134
59: 135
60: 135
61: 136
62: 137
63: 137
64: 138
65: 138
66: 139
67: 139
68: 139
69: 139
70: 139
71: 140
72: 140
73: 140
74: 141
75: 141
76: 141
77: 142
78: 142
79: 143
80: 144
81: 144
82: 144
83: 144
84: 145
85: 145
86: 145
87: 146
88: 146
89: 147
90: 147
91: 148
92: 149
93: 149
94: 150
95: 150
96: 151
97: 152
98: 152
99: 152
100: 153
101: 154
102: 155
103: 155
104: 155
105: 155
106: 155
107: 156
108: 156
109: 157
110: 157
111: 157
112: 158
113: 159
114: 159
115: 160
116: 160
117: 160
118: 160
119: 161
120: 161
121: 161
