segment: [0]
vertex id: label
92: 0
93: 2
94: 1
95: 0
96: 2
97: 1
98: 0
99: 2
100: 1
101: 0
102: 2
103: 1
104: 0
105: 2
106: 1
107: 0
108: 2
109: 1
110: 0
111: 2
112: 1
113: 0
114: 2
115: 1
116: 0
117: 2
118: 1
119: 0
120: 2
121: 1
0: 5
1: 5
2: 5
3: 5
4: 5
5: 5
6: 5
7: 5
8: 5
9: 5
10: 5
11: 5
12: 5
13: 5
14: 5
15: 5
16: 5
17: 5
18: 5
19: 5
20: 5
21: 5
22: 5
23: 5
24: 5
25: 5
26: 5
27: 5
28: 5
29: 5
30: 5
31: 5
32: 5
33: 5
34: 5
35: 5
36: 5
37: 5
38: 5
39: 5
40: 5
41: 5
42: 5
43: 5
44: 5
45: 5
46: 5
47: 5
48: 5
49: 5
50: 5
51: 5
52: 5
53: 5
54: 5
55: 5
56: 5
57: 5
58: 5
59: 5
60: 5
61: 5
62: 5
63: 5
64: 5
65: 5
66: 5
67: 5
68: 5
69: 5
70: 5
71: 5
72: 5
73: 5
74: 5
75: 5
76: 5
77: 5
78: 5
79: 5
80: 5
81: 5
82: 5
83: 5
84: 5
85: 5
86: 5
87: 5
88: 5
89: 5
90: 5
91: 5
edge from: to
92: 0
92: 1
93: 1
93: 4
94: 8
94: 9
95: 7
96: 12
96: 13
97: 5
97: 15
97: 17
98: 19
98: 20
99: 3
99: 25
100: 24
100: 26
100: 28
100: 29
101: 27
101: 30
101: 31
102: 31
102: 34
102: 35
103: 38
104: 35
104: 39
104: 40
105: 36
105: 38
105: 42
105: 43
106: 43
106: 44
107: 26
107: 44
108: 49
109: 44
109: 46
109: 51
109: 53
110: 54
110: 56
111: 7
111: 51
111: 58
112: 59
113: 60
114: 56
114: 62
114: 64
115: 67
116: 69
116: 71
117: 74
118: 77
119: 80
119: 81
119: 82
120: 74
120: 83
120: 85
121: 87
2: 92
3: 92
4: 92
5: 93
6: 93
7: 93
8: 93
9: 93
10: 94
11: 94
12: 94
13: 95
14: 96
15: 96
16: 96
17: 96
18: 97
19: 97
20: 97
21: 98
22: 98
23: 98
24: 98
25: 98
26: 99
27: 99
28: 99
29: 99
30: 100
31: 100
32: 101
33: 101
34: 101
35: 101
36: 102
37: 102
38: 102
39: 103
40: 103
41: 104
42: 104
43: 104
44: 105
45: 106
46: 106
47: 107
48: 107
49: 107
50: 108
51: 108
52: 108
53: 108
54: 109
55: 109
56: 109
57: 110
58: 110
59: 111
60: 112
61: 113
62: 113
63: 113
64: 113
65: 114
66: 114
67: 114
68: 115
69: 115
70: 115
71: 115
72: 116
73: 116
74: 116
75: 117
76: 117
77: 117
78: 118
79: 118
80: 118
81: 118
82: 118
83: 119
84: 119
85: 119
86: 120
87: 120
88: 121
89: 121
90: 121
91: 121
segment: [1]
vertex id: label
106: 0
107: 2
108: 1
109: 0
110: 2
111: 1
112: 0
113: 2
114: 1
115: 0
116: 2
117: 1
118: 0
119: 2
120: 1
121: 0
122: 2
123: 1
124: 0
125: 2
126: 1
127: 0
128: 2
129: 1
130: 0
131: 2
132: 1
133: 0
134: 2
135: 1
0: 5
1: 5
2: 5
3: 5
4: 5
5: 5
6: 5
7: 5
8: 5
9: 5
10: 5
11: 5
12: 5
13: 5
14: 5
15: 5
16: 5
17: 5
18: 5
19: 5
20: 5
21: 5
22: 5
23: 5
24: 5
25: 5
26: 5
27: 5
28: 5
29: 5
30: 5
31: 5
32: 5
33: 5
34: 5
35: 5
36: 5
37: 5
38: 5
39: 5
40: 5
41: 5
42: 5
43: 5
44: 5
45: 5
46: 5
47: 5
48: 5
49: 5
50: 5
51: 5
52: 5
53: 5
54: 5
55: 5
56: 5
57: 5
58: 5
59: 5
60: 5
61: 5
62: 5
63: 5
64: 5
65: 5
66: 5
67: 5
68: 5
69: 5
70: 5
71: 5
72: 5
73: 5
74: 5
75: 5
76: 5
77: 5
78: 5
79: 5
80: 5
81: 5
82: 5
83: 5
84: 5
85: 5
86: 5
87: 5
88: 5
89: 5
90: 5
91: 5
92: 5
93: 5
94: 5
95: 5
96: 5
97: 5
98: 5
99: 5
100: 5
101: 5
102: 5
103: 5
104: 5
105: 5
edge from: to
106: 0
106: 1
107: 2
108: 6
109: 11
110: 14
110: 15
111: 5
111: 15
111: 17
112: 19
112: 20
113: 22
114: 16
114: 25
114: 27
115: 17
115: 29
116: 31
117: 30
117: 31
117: 33
117: 34
118: 31
118: 34
118: 35
119: 33
119: 37
119: 38
120: 43
120: 44
121: 44
121: 45
122: 49
122: 51
123: 54
123: 56
124: 7
124: 58
125: 54
125: 60
125: 62
126: 65
127: 62
127: 69
127: 70
127: 71
128: 72
128: 74
129: 78
130: 71
130: 79
130: 81
131: 90
132: 92
132: 94
133: 95
133: 97
134: 12
134: 100
135: 103
2: 106
3: 106
4: 107
5: 107
6: 107
7: 108
8: 108
9: 108
10: 108
11: 108
12: 109
13: 109
14: 109
15: 109
16: 110
17: 110
18: 111
19: 111
20: 111
21: 112
22: 112
23: 113
24: 113
25: 113
26: 113
27: 113
28: 113
29: 114
30: 114
31: 115
32: 116
33: 116
34: 116
35: 117
36: 118
37: 118
38: 118
39: 119
40: 119
41: 119
42: 119
43: 119
44: 119
45: 120
46: 121
47: 121
48: 121
49: 121
50: 121
51: 121
52: 122
53: 122
54: 122
55: 122
56: 122
57: 123
58: 123
59: 124
60: 124
61: 124
62: 124
63: 125
64: 125
65: 125
66: 126
67: 126
68: 126
69: 126
70: 126
71: 126
72: 127
73: 127
74: 127
75: 128
76: 128
77: 128
78: 128
79: 129
80: 129
81: 129
82: 130
83: 130
84: 130
85: 130
86: 130
87: 130
88: 130
89: 130
90: 130
91: 131
92: 131
93: 131
94: 131
95: 132
96: 132
97: 132
98: 133
99: 133
100: 133
101: 134
102: 134
103: 134
104: 135
105: 135
segment: [2]
vertex id: label
101: 0
102: 2
103: 1
104: 0
105: 2
106: 1
107: 0
108: 2
109: 1
110: 0
111: 2
112: 1
113: 0
114: 2
115: 1
116: 0
117: 2
118: 1
119: 0
120: 2
121: 1
122: 0
123: 2
124: 1
125: 0
126: 2
127: 1
128: 0
129: 2
130: 1
0: 5
1: 5
2: 5
3: 5
4: 5
5: 5
6: 5
7: 5
8: 5
9: 5
10: 5
11: 5
12: 5
13: 5
14: 5
15: 5
16: 5
17: 5
18: 5
19: 5
20: 5
21: 5
22: 5
23: 5
24: 5
25: 5
26: 5
27: 5
28: 5
29: 5
30: 5
31: 5
32: 5
33: 5
34: 5
35: 5
36: 5
37: 5
38: 5
39: 5
40: 5
41: 5
42: 5
43: 5
44: 5
45: 5
46: 5
47: 5
48: 5
49: 5
50: 5
51: 5
52: 5
53: 5
54: 5
55: 5
56: 5
57: 5
58: 5
59: 5
60: 5
61: 5
62: 5
63: 5
64: 5
65: 5
66: 5
67: 5
68: 5
69: 5
70: 5
71: 5
72: 5
73: 5
74: 5
75: 5
76: 5
77: 5
78: 5
79: 5
80: 5
81: 5
82: 5
83: 5
84: 5
85: 5
86: 5
87: 5
88: 5
89: 5
90: 5
91: 5
92: 5
93: 5
94: 5
95: 5
96: 5
97: 5
98: 5
99: 5
100: 5
edge from: to
101: 0
101: 1
102: 1
102: 2
102: 3
103: 6
104: 8
104: 9
105: 7
105: 11
105: 12
106: 2
106: 16
107: 11
108: 13
109: 25
109: 26
110: 32
111: 30
111: 31
111: 32
111: 33
111: 34
112: 36
113: 21
113: 36
114: 41
114: 42
115: 44
115: 45
116: 27
116: 42
116: 46
117: 51
117: 53
118: 54
118: 56
119: 58
120: 61
121: 61
121: 63
122: 68
123: 67
123: 69
124: 42
124: 73
125: 74
125: 76
126: 78
126: 80
127: 86
127: 88
128: 89
128: 91
129: 96
130: 95
130: 98
2: 101
3: 101
4: 102
5: 102
6: 102
7: 103
8: 103
9: 103
10: 104
11: 104
12: 104
13: 105
14: 105
15: 105
16: 105
17: 106
18: 106
19: 106
20: 107
21: 107
22: 107
23: 107
24: 108
25: 108
26: 108
27: 109
28: 109
29: 109
30: 109
31: 109
32: 109
33: 110
34: 110
35: 111
36: 111
37: 112
38: 113
39: 113
40: 113
41: 113
42: 113
43: 114
44: 114
45: 114
46: 115
47: 115
48: 115
49: 116
50: 116
51: 116
52: 116
53: 116
54: 117
55: 117
56: 117
57: 118
58: 118
59: 119
60: 119
61: 119
62: 120
63: 120
64: 121
65: 121
66: 121
67: 121
68: 121
69: 122
70: 123
71: 123
72: 123
73: 123
74: 123
75: 123
76: 124
77: 125
78: 125
79: 125
80: 125
81: 126
82: 126
83: 126
84: 126
85: 126
86: 126
87: 126
88: 126
89: 127
90: 127
91: 127
92: 128
93: 128
94: 128
95: 128
96: 128
97: 129
98: 129
99: 130
100: 130
segment: [3]
vertex id: label
93: 0
94: 2
95: 1
96: 0
97: 2
98: 1
99: 0
100: 2
101: 1
102: 0
103: 2
104: 1
105: 0
106: 2
107: 1
108: 0
109: 2
110: 1
111: 0
112: 2
113: 1
114: 0
115: 2
116: 1
117: 0
118: 2
119: 1
120: 0
121: 2
122: 1
0: 5
1: 5
2: 5
3: 5
4: 5
5: 5
6: 5
7: 5
8: 5
9: 5
10: 5
11: 5
12: 5
13: 5
14: 5
15: 5
16: 5
17: 5
18: 5
19: 5
20: 5
21: 5
22: 5
23: 5
24: 5
25: 5
26: 5
27: 5
28: 5
29: 5
30: 5
31: 5
32: 5
33: 5
34: 5
35: 5
36: 5
37: 5
38: 5
39: 5
40: 5
41: 5
42: 5
43: 5
44: 5
45: 5
46: 5
47: 5
48: 5
49: 5
50: 5
51: 5
52: 5
53: 5
54: 5
55: 5
56: 5
57: 5
58: 5
59: 5
60: 5
61: 5
62: 5
63: 5
64: 5
65: 5
66: 5
67: 5
68: 5
69: 5
70: 5
71: 5
72: 5
73: 5
74: 5
75: 5
76: 5
77: 5
78: 5
79: 5
80: 5
81: 5
82: 5
83: 5
84: 5
85: 5
86: 5
87: 5
88: 5
89: 5
90: 5
91: 5
92: 5
edge from: to
93: 0
94: 4
95: 1
95: 7
95: 8
96: 9
96: 10
96: 11
97: 17
97: 18
98: 13
99: 23
99: 25
99: 26
100: 31
101: 33
102: 34
102: 35
103: 21
103: 32
103: 36
104: 22
104: 34
104: 38
105: 42
106: 43
106: 44
107: 44
107: 45
108: 45
108: 47
109: 48
109: 50
110: 45
110: 47
110: 52
110: 54
111: 31
111: 43
111: 46
111: 48
111: 53
111: 54
112: 32
112: 50
112: 55
112: 56
113: 7
113: 58
114: 54
114: 60
114: 62
115: 65
116: 69
116: 71
117: 42
117: 73
117: 74
117: 75
118: 74
118: 76
119: 69
119: 77
119: 79
120: 47
120: 73
120: 82
121: 85
121: 87
122: 89
1: 93
2: 93
3: 93
4: 93
5: 93
6: 93
7: 93
8: 94
9: 95
10: 95
11: 95
12: 96
13: 96
14: 96
15: 96
16: 96
17: 96
18: 96
19: 97
20: 97
21: 97
22: 97
23: 97
24: 98
25: 98
26: 98
27: 99
28: 99
29: 99
30: 99
31: 99
32: 100
33: 100
34: 101
35: 101
36: 102
37: 102
38: 103
39: 103
40: 104
41: 104
42: 104
43: 105
44: 105
45: 106
46: 107
47: 107
48: 108
49: 108
50: 108
51: 109
52: 109
53: 109
54: 109
55: 110
56: 111
57: 111
58: 112
59: 113
60: 113
61: 113
62: 113
63: 114
64: 114
65: 114
66: 115
67: 115
68: 115
69: 115
70: 115
71: 115
72: 116
73: 116
74: 116
75: 116
76: 117
77: 118
78: 118
79: 118
80: 119
81: 119
82: 119
83: 119
84: 119
85: 120
86: 120
87: 120
88: 121
89: 121
90: 122
91: 122
92: 122
segment: [4]
vertex id: label
97: 0
98: 2
99: 1
100: 0
101: 2
102: 1
103: 0
104: 2
105: 1
106: 0
107: 2
108: 1
109: 0
110: 2
111: 1
112: 0
113: 2
114: 1
115: 0
116: 2
117: 1
118: 0
119: 2
120: 1
121: 0
122: 0
123: 2
124: 1
125: 0
126: 2
0: 5
1: 5
2: 5
3: 5
4: 5
5: 5
6: 5
7: 5
8: 5
9: 5
10: 5
11: 5
12: 5
13: 5
14: 5
15: 5
16: 5
17: 5
18: 5
19: 5
20: 5
21: 5
22: 5
23: 5
24: 5
25: 5
26: 5
27: 5
28: 5
29: 5
30: 5
31: 5
32: 5
33: 5
34: 5
35: 5
36: 5
37: 5
38: 5
39: 5
40: 5
41: 5
42: 5
43: 5
44: 5
45: 5
46: 5
47: 5
48: 5
49: 5
50: 5
51: 5
52: 5
53: 5
54: 5
55: 5
56: 5
57: 5
58: 5
59: 5
60: 5
61: 5
62: 5
63: 5
64: 5
65: 5
66: 5
67: 5
68: 5
69: 5
70: 5
71: 5
72: 5
73: 5
74: 5
75: 5
76: 5
77: 5
78: 5
79: 5
80: 5
81: 5
82: 5
83: 5
84: 5
85: 5
86: 5
87: 5
88: 5
89: 5
90: 5
91: 5
92: 5
93: 5
94: 5
95: 5
96: 5
edge from: to
97: 0
98: 0
98: 1
99: 5
99: 6
100: 9
101: 10
101: 11
101: 12
101: 13
102: 5
102: 15
102: 17
103: 13
104: 24
104: 26
104: 27
105: 28
105: 29
106: 30
106: 31
107: 31
107: 32
108: 33
108: 34
109: 30
109: 32
109: 35
109: 36
110: 21
110: 32
110: 36
111: 5
111: 41
112: 37
112: 39
112: 42
112: 43
112: 44
113: 27
113: 42
113: 46
113: 48
114: 51
115: 51
115: 53
116: 7
116: 58
117: 53
117: 59
117: 61
118: 60
118: 62
119: 68
120: 72
121: 42
122: 76
122: 78
123: 81
124: 84
124: 86
125: 90
125: 92
126: 52
1: 97
2: 97
3: 98
4: 98
5: 98
6: 98
7: 99
8: 99
9: 99
10: 100
11: 100
12: 100
13: 100
14: 101
15: 101
16: 101
17: 101
18: 102
19: 102
20: 102
21: 102
22: 102
23: 102
24: 103
25: 103
26: 103
27: 103
28: 104
29: 104
30: 105
31: 105
32: 106
33: 107
34: 107
35: 108
36: 108
37: 109
38: 110
39: 110
40: 110
41: 110
42: 111
43: 111
44: 111
45: 112
46: 112
47: 112
48: 112
49: 113
50: 113
51: 113
52: 114
53: 114
54: 115
55: 115
56: 115
57: 115
58: 115
59: 116
60: 116
61: 116
62: 117
63: 118
64: 118
65: 118
66: 118
67: 118
68: 118
69: 119
70: 119
71: 119
72: 119
73: 120
74: 120
75: 120
76: 121
77: 121
78: 121
79: 122
80: 122
81: 122
82: 123
83: 123
84: 123
85: 123
86: 123
87: 124
88: 124
89: 124
90: 124
91: 124
92: 124
93: 125
94: 126
95: 126
96: 126
segment: [5]
vertex id: label
86: 0
87: 2
88: 1
89: 0
90: 2
91: 1
92: 0
93: 2
94: 1
95: 0
96: 2
97: 1
98: 0
99: 2
100: 1
101: 0
102: 2
103: 1
104: 0
105: 2
106: 1
107: 0
108: 2
109: 1
110: 0
111: 2
112: 1
113: 0
114: 2
115: 1
0: 5
1: 5
2: 5
3: 5
4: 5
5: 5
6: 5
7: 5
8: 5
9: 5
10: 5
11: 5
12: 5
13: 5
14: 5
15: 5
16: 5
17: 5
18: 5
19: 5
20: 5
21: 5
22: 5
23: 5
24: 5
25: 5
26: 5
27: 5
28: 5
29: 5
30: 5
31: 5
32: 5
33: 5
34: 5
35: 5
36: 5
37: 5
38: 5
39: 5
40: 5
41: 5
42: 5
43: 5
44: 5
45: 5
46: 5
47: 5
48: 5
49: 5
50: 5
51: 5
52: 5
53: 5
54: 5
55: 5
56: 5
57: 5
58: 5
59: 5
60: 5
61: 5
62: 5
63: 5
64: 5
65: 5
66: 5
67: 5
68: 5
69: 5
70: 5
71: 5
72: 5
73: 5
74: 5
75: 5
76: 5
77: 5
78: 5
79: 5
80: 5
81: 5
82: 5
83: 5
84: 5
85: 5
edge from: to
86: 0
86: 1
87: 2
87: 3
87: 4
87: 5
88: 4
89: 6
90: 10
90: 11
91: 8
91: 13
91: 14
92: 17
93: 18
94: 12
94: 19
94: 20
95: 25
96: 16
97: 29
98: 30
98: 31
99: 4
99: 33
100: 35
101: 21
102: 42
103: 44
104: 41
104: 45
104: 47
105: 45
105: 50
105: 52
106: 52
106: 54
107: 32
107: 55
108: 60
109: 62
110: 65
111: 68
111: 70
112: 42
112: 73
113: 77
114: 78
115: 47
115: 73
115: 82
115: 83
2: 86
3: 86
4: 86
5: 86
6: 87
7: 87
8: 88
9: 88
10: 88
11: 89
12: 90
13: 90
14: 90
15: 91
16: 91
17: 91
18: 92
19: 93
20: 93
21: 93
22: 94
23: 94
24: 94
25: 94
26: 95
27: 95
28: 95
29: 96
30: 97
31: 97
32: 98
33: 98
34: 99
35: 99
36: 100
37: 100
38: 101
39: 101
40: 101
41: 101
42: 101
43: 102
44: 102
45: 103
46: 103
47: 103
48: 104
49: 104
50: 104
51: 104
52: 104
53: 105
54: 105
55: 106
56: 106
57: 106
58: 107
59: 107
60: 107
61: 108
62: 108
63: 109
64: 109
65: 109
66: 110
67: 110
68: 110
69: 110
70: 110
71: 111
72: 111
73: 111
74: 111
75: 111
76: 112
77: 112
78: 113
79: 114
80: 114
81: 114
82: 114
83: 114
84: 114
85: 115
segment: [6]
vertex id: label
93: 0
94: 2
95: 1
96: 0
97: 2
98: 1
99: 0
100: 2
101: 1
102: 0
103: 2
104: 1
105: 0
106: 2
107: 1
108: 0
109: 2
110: 1
111: 0
112: 2
113: 1
114: 0
115: 2
116: 1
117: 0
118: 2
119: 1
120: 0
121: 2
122: 1
0: 5
1: 5
2: 5
3: 5
4: 5
5: 5
6: 5
7: 5
8: 5
9: 5
10: 5
11: 5
12: 5
13: 5
14: 5
15: 5
16: 5
17: 5
18: 5
19: 5
20: 5
21: 5
22: 5
23: 5
24: 5
25: 5
26: 5
27: 5
28: 5
29: 5
30: 5
31: 5
32: 5
33: 5
34: 5
35: 5
36: 5
37: 5
38: 5
39: 5
40: 5
41: 5
42: 5
43: 5
44: 5
45: 5
46: 5
47: 5
48: 5
49: 5
50: 5
51: 5
52: 5
53: 5
54: 5
55: 5
56: 5
57: 5
58: 5
59: 5
60: 5
61: 5
62: 5
63: 5
64: 5
65: 5
66: 5
67: 5
68: 5
69: 5
70: 5
71: 5
72: 5
73: 5
74: 5
75: 5
76: 5
77: 5
78: 5
79: 5
80: 5
81: 5
82: 5
83: 5
84: 5
85: 5
86: 5
87: 5
88: 5
89: 5
90: 5
91: 5
92: 5
edge from: to
93: 0
94: 0
94: 1
94: 2
94: 3
95: 3
96: 1
96: 2
96: 7
96: 8
97: 10
97: 11
98: 14
98: 15
99: 5
99: 15
99: 17
100: 17
100: 18
101: 12
102: 13
103: 24
104: 29
105: 17
105: 29
106: 4
106: 33
107: 21
107: 32
107: 36
107: 37
108: 37
108: 41
108: 42
109: 42
109: 43
110: 26
110: 44
111: 48
111: 50
112: 50
112: 52
113: 31
113: 48
113: 53
114: 54
114: 56
115: 57
115: 59
116: 65
117: 69
118: 68
118: 70
119: 65
119: 72
119: 74
120: 66
120: 74
120: 76
121: 78
121: 80
122: 88
1: 93
2: 93
3: 93
4: 94
5: 94
6: 95
7: 95
8: 95
9: 96
10: 96
11: 96
12: 97
13: 97
14: 97
15: 97
16: 98
17: 98
18: 99
19: 100
20: 100
21: 100
22: 101
23: 101
24: 102
25: 103
26: 103
27: 103
28: 103
29: 103
30: 104
31: 105
32: 105
33: 105
34: 106
35: 106
36: 106
37: 106
38: 107
39: 107
40: 107
41: 107
42: 107
43: 108
44: 109
45: 109
46: 109
47: 110
48: 110
49: 110
50: 110
51: 111
52: 111
53: 112
54: 112
55: 112
56: 113
57: 114
58: 114
59: 114
60: 115
61: 115
62: 115
63: 115
64: 115
65: 115
66: 116
67: 116
68: 116
69: 116
70: 117
71: 118
72: 118
73: 118
74: 118
75: 119
76: 119
77: 120
78: 120
79: 120
80: 120
81: 121
82: 121
83: 121
84: 121
85: 121
86: 121
87: 121
88: 121
89: 122
90: 122
91: 122
92: 122
segment: [7]
vertex id: label
88: 0
89: 2
90: 1
91: 0
92: 2
93: 1
94: 0
95: 2
96: 1
97: 0
98: 2
99: 1
100: 0
101: 2
102: 1
103: 0
104: 2
105: 1
106: 0
107: 2
108: 1
109: 0
110: 2
111: 1
112: 0
113: 2
114: 1
115: 0
116: 2
117: 1
0: 5
1: 5
2: 5
3: 5
4: 5
5: 5
6: 5
7: 5
8: 5
9: 5
10: 5
11: 5
12: 5
13: 5
14: 5
15: 5
16: 5
17: 5
18: 5
19: 5
20: 5
21: 5
22: 5
23: 5
24: 5
25: 5
26: 5
27: 5
28: 5
29: 5
30: 5
31: 5
32: 5
33: 5
34: 5
35: 5
36: 5
37: 5
38: 5
39: 5
40: 5
41: 5
42: 5
43: 5
44: 5
45: 5
46: 5
47: 5
48: 5
49: 5
50: 5
51: 5
52: 5
53: 5
54: 5
55: 5
56: 5
57: 5
58: 5
59: 5
60: 5
61: 5
62: 5
63: 5
64: 5
65: 5
66: 5
67: 5
68: 5
69: 5
70: 5
71: 5
72: 5
73: 5
74: 5
75: 5
76: 5
77: 5
78: 5
79: 5
80: 5
81: 5
82: 5
83: 5
84: 5
85: 5
86: 5
87: 5
edge from: to
88: 0
88: 1
89: 2
89: 3
90: 2
90: 5
90: 6
91: 1
91: 8
92: 0
92: 8
92: 11
92: 12
92: 13
92: 14
93: 16
94: 11
95: 13
95: 22
96: 25
97: 9
97: 27
97: 30
97: 31
98: 33
99: 35
99: 36
100: 11
100: 33
100: 37
100: 38
101: 41
101: 42
102: 43
102: 44
103: 26
103: 44
104: 49
105: 52
106: 31
107: 32
107: 55
108: 57
108: 59
109: 53
109: 59
109: 61
110: 62
110: 64
111: 65
111: 67
112: 63
112: 70
112: 72
113: 64
113: 71
113: 73
114: 74
114: 76
115: 79
116: 81
117: 85
2: 88
3: 88
4: 89
5: 89
6: 89
7: 90
8: 90
9: 91
10: 91
11: 91
12: 91
13: 91
14: 91
15: 92
16: 92
17: 93
18: 93
19: 93
20: 94
21: 94
22: 94
23: 94
24: 95
25: 95
26: 96
27: 96
28: 96
29: 96
30: 96
31: 96
32: 97
33: 97
34: 98
35: 98
36: 98
37: 99
38: 99
39: 100
40: 100
41: 100
42: 100
43: 101
44: 101
45: 102
46: 102
47: 103
48: 103
49: 103
50: 104
51: 104
52: 104
53: 105
54: 105
55: 105
56: 106
57: 106
58: 107
59: 107
60: 108
61: 108
62: 109
63: 109
64: 109
65: 110
66: 110
67: 110
68: 111
69: 111
70: 111
71: 111
72: 111
73: 112
74: 113
75: 113
76: 113
77: 114
78: 114
79: 114
80: 115
81: 115
82: 116
83: 116
84: 116
85: 116
86: 117
87: 117
segment: [8]
vertex id: label
105: 0
106: 2
107: 1
108: 0
109: 2
110: 1
111: 0
112: 2
113: 1
114: 0
115: 2
116: 1
117: 0
118: 0
119: 2
120: 1
121: 0
122: 2
123: 1
124: 0
125: 2
126: 1
127: 0
128: 2
129: 1
130: 0
131: 2
132: 1
133: 0
134: 2
0: 5
1: 5
2: 5
3: 5
4: 5
5: 5
6: 5
7: 5
8: 5
9: 5
10: 5
11: 5
12: 5
13: 5
14: 5
15: 5
16: 5
17: 5
18: 5
19: 5
20: 5
21: 5
22: 5
23: 5
24: 5
25: 5
26: 5
27: 5
28: 5
29: 5
30: 5
31: 5
32: 5
33: 5
34: 5
35: 5
36: 5
37: 5
38: 5
39: 5
40: 5
41: 5
42: 5
43: 5
44: 5
45: 5
46: 5
47: 5
48: 5
49: 5
50: 5
51: 5
52: 5
53: 5
54: 5
55: 5
56: 5
57: 5
58: 5
59: 5
60: 5
61: 5
62: 5
63: 5
64: 5
65: 5
66: 5
67: 5
68: 5
69: 5
70: 5
71: 5
72: 5
73: 5
74: 5
75: 5
76: 5
77: 5
78: 5
79: 5
80: 5
81: 5
82: 5
83: 5
84: 5
85: 5
86: 5
87: 5
88: 5
89: 5
90: 5
91: 5
92: 5
93: 5
94: 5
95: 5
96: 5
97: 5
98: 5
99: 5
100: 5
101: 5
102: 5
103: 5
104: 5
edge from: to
105: 0
105: 1
106: 3
106: 5
107: 4
107: 7
108: 7
108: 12
109: 15
109: 17
110: 13
110: 20
110: 22
111: 23
111: 25
111: 26
112: 16
112: 25
112: 27
113: 30
113: 31
114: 35
114: 36
115: 22
115: 38
116: 45
117: 27
118: 45
118: 50
118: 52
119: 53
120: 32
120: 55
121: 59
121: 61
122: 62
122: 64
123: 65
124: 66
124: 68
125: 70
125: 72
126: 65
126: 72
126: 74
127: 75
127: 77
128: 81
129: 85
130: 87
131: 91
132: 94
132: 96
133: 96
133: 99
134: 101
2: 105
3: 105
4: 105
5: 105
6: 106
7: 106
8: 107
9: 107
10: 107
11: 107
12: 107
13: 108
14: 108
15: 108
16: 108
17: 108
18: 109
19: 109
20: 109
21: 109
22: 109
23: 109
24: 110
25: 110
26: 110
27: 111
28: 111
29: 112
30: 112
31: 112
32: 113
33: 113
34: 113
35: 113
36: 113
37: 114
38: 114
39: 114
40: 115
41: 115
42: 115
43: 115
44: 115
45: 115
46: 116
47: 116
48: 116
49: 117
50: 117
51: 117
52: 117
53: 118
54: 119
55: 119
56: 119
57: 119
58: 120
59: 120
60: 120
61: 120
62: 121
63: 121
64: 121
65: 122
66: 123
67: 123
68: 123
69: 124
70: 124
71: 124
72: 124
73: 125
74: 125
75: 126
76: 126
77: 126
78: 127
79: 127
80: 127
81: 127
82: 128
83: 128
84: 128
85: 128
86: 129
87: 129
88: 130
89: 130
90: 130
91: 130
92: 131
93: 131
94: 131
95: 131
96: 131
97: 132
98: 132
99: 132
100: 133
101: 133
102: 134
103: 134
104: 134
segment: [9]
vertex id: label
105: 0
106: 2
107: 1
108: 0
109: 2
110: 1
111: 0
112: 2
113: 1
114: 0
115: 2
116: 1
117: 0
118: 2
119: 1
120: 0
121: 2
122: 1
123: 0
124: 2
125: 1
126: 0
127: 2
128: 1
129: 0
130: 2
131: 1
132: 0
133: 2
134: 1
0: 5
1: 5
2: 5
3: 5
4: 5
5: 5
6: 5
7: 5
8: 5
9: 5
10: 5
11: 5
12: 5
13: 5
14: 5
15: 5
16: 5
17: 5
18: 5
19: 5
20: 5
21: 5
22: 5
23: 5
24: 5
25: 5
26: 5
27: 5
28: 5
29: 5
30: 5
31: 5
32: 5
33: 5
34: 5
35: 5
36: 5
37: 5
38: 5
39: 5
40: 5
41: 5
42: 5
43: 5
44: 5
45: 5
46: 5
47: 5
48: 5
49: 5
50: 5
51: 5
52: 5
53: 5
54: 5
55: 5
56: 5
57: 5
58: 5
59: 5
60: 5
61: 5
62: 5
63: 5
64: 5
65: 5
66: 5
67: 5
68: 5
69: 5
70: 5
71: 5
72: 5
73: 5
74: 5
75: 5
76: 5
77: 5
78: 5
79: 5
80: 5
81: 5
82: 5
83: 5
84: 5
85: 5
86: 5
87: 5
88: 5
89: 5
90: 5
91: 5
92: 5
93: 5
94: 5
95: 5
96: 5
97: 5
98: 5
99: 5
100: 5
101: 5
102: 5
103: 5
104: 5
edge from: to
105: 0
105: 1
105: 2
105: 3
105: 4
106: 4
106: 7
107: 7
107: 8
107: 9
108: 8
109: 15
109: 17
110: 12
110: 20
111: 16
111: 27
112: 30
112: 31
113: 34
114: 34
114: 35
115: 38
116: 42
117: 44
118: 49
119: 53
120: 54
121: 31
121: 48
121: 53
122: 32
122: 50
122: 55
122: 56
123: 55
123: 61
123: 62
123: 63
124: 68
124: 70
125: 64
125: 71
125: 73
126: 67
126: 75
126: 76
126: 77
127: 78
128: 79
128: 81
129: 47
130: 76
130: 85
130: 87
131: 88
131: 89
131: 90
132: 52
132: 81
132: 91
133: 94
133: 96
134: 99
5: 105
6: 105
7: 105
8: 106
9: 106
10: 107
11: 107
12: 107
13: 107
14: 107
15: 108
16: 108
17: 108
18: 109
19: 109
20: 109
21: 109
22: 110
23: 110
24: 110
25: 110
26: 110
27: 110
28: 110
29: 111
30: 111
31: 111
32: 112
33: 112
34: 112
35: 113
36: 114
37: 114
38: 114
39: 115
40: 115
41: 115
42: 115
43: 116
44: 116
45: 117
46: 117
47: 117
48: 117
49: 117
50: 118
51: 118
52: 118
53: 118
54: 119
55: 120
56: 121
57: 121
58: 122
59: 122
60: 122
61: 122
62: 122
63: 122
64: 123
65: 123
66: 123
67: 123
68: 123
69: 123
70: 123
71: 124
72: 124
73: 124
74: 125
75: 125
76: 125
77: 125
78: 126
79: 127
80: 127
81: 127
82: 128
83: 128
84: 128
85: 129
86: 129
87: 129
88: 130
89: 130
90: 130
91: 131
92: 131
93: 131
94: 132
95: 132
96: 132
97: 133
98: 133
99: 133
100: 134
101: 134
102: 134
103: 134
104: 134
