segment: [0]
vertex id: label
29: 0
30: 1
31: 4
32: 4
33: 0
34: 1
35: 4
36: 4
37: 4
38: 4
0: 5
1: 5
2: 5
3: 5
4: 5
5: 5
6: 5
7: 5
8: 5
9: 5
10: 5
11: 5
12: 5
13: 5
14: 5
15: 5
16: 5
17: 5
18: 5
19: 5
20: 5
21: 5
22: 5
23: 5
24: 5
25: 5
26: 5
27: 5
28: 5
edge from: to
29: 0
30: 0
30: 2
31: 1
31: 4
32: 1
32: 6
33: 0
33: 7
33: 9
34: 8
34: 11
35: 15
36: 3
36: 18
37: 15
37: 16
37: 20
38: 20
38: 24
38: 25
1: 29
2: 29
3: 30
4: 30
5: 31
6: 31
7: 32
8: 32
9: 32
10: 33
11: 33
12: 34
13: 34
14: 34
15: 34
16: 35
17: 35
18: 35
19: 36
20: 36
21: 37
22: 37
23: 37
24: 37
25: 37
26: 38
27: 38
28: 38
segment: [1]
vertex id: label
37: 0
38: 1
39: 4
40: 4
41: 4
42: 4
43: 4
44: 4
45: 4
46: 4
0: 5
1: 5
2: 5
3: 5
4: 5
5: 5
6: 5
7: 5
8: 5
9: 5
10: 5
11: 5
12: 5
13: 5
14: 5
15: 5
16: 5
17: 5
18: 5
19: 5
20: 5
21: 5
22: 5
23: 5
24: 5
25: 5
26: 5
27: 5
28: 5
29: 5
30: 5
31: 5
32: 5
33: 5
34: 5
35: 5
36: 5
edge from: to
37: 0
37: 1
37: 2
38: 2
38: 6
38: 8
39: 2
39: 12
40: 14
40: 15
40: 17
40: 18
40: 19
41: 17
41: 19
41: 20
41: 21
42: 4
42: 24
43: 24
43: 25
44: 28
44: 29
45: 32
46: 8
46: 32
46: 34
46: 35
3: 37
4: 37
5: 37
6: 37
7: 37
8: 37
9: 38
10: 38
11: 38
12: 38
13: 39
14: 39
15: 39
16: 39
17: 39
18: 39
19: 39
20: 40
21: 40
22: 41
23: 41
24: 41
25: 42
26: 43
27: 43
28: 43
29: 43
30: 44
31: 44
32: 44
33: 44
34: 45
35: 45
36: 46
segment: [2]
vertex id: label
26: 0
27: 1
28: 4
29: 4
30: 4
31: 4
32: 4
33: 4
34: 4
35: 4
0: 5
1: 5
2: 5
3: 5
4: 5
5: 5
6: 5
7: 5
8: 5
9: 5
10: 5
11: 5
12: 5
13: 5
14: 5
15: 5
16: 5
17: 5
18: 5
19: 5
20: 5
21: 5
22: 5
23: 5
24: 5
25: 5
edge from: to
26: 0
27: 0
27: 3
28: 2
29: 9
30: 8
30: 11
31: 2
31: 9
31: 12
32: 11
32: 14
33: 12
33: 16
34: 18
35: 10
35: 16
35: 17
35: 19
35: 20
35: 21
1: 26
2: 26
3: 26
4: 27
5: 27
6: 27
7: 27
8: 27
9: 28
10: 29
11: 29
12: 30
13: 31
14: 31
15: 32
16: 32
17: 33
18: 33
19: 34
20: 34
21: 34
22: 35
23: 35
24: 35
25: 35
segment: [3]
vertex id: label
31: 0
32: 1
33: 4
34: 4
35: 4
36: 4
37: 0
38: 1
39: 4
40: 4
0: 5
1: 5
2: 5
3: 5
4: 5
5: 5
6: 5
7: 5
8: 5
9: 5
10: 5
11: 5
12: 5
13: 5
14: 5
15: 5
16: 5
17: 5
18: 5
19: 5
20: 5
21: 5
22: 5
23: 5
24: 5
25: 5
26: 5
27: 5
28: 5
29: 5
30: 5
edge from: to
31: 0
31: 1
31: 2
32: 1
32: 4
33: 1
33: 5
33: 6
34: 0
34: 2
34: 6
34: 8
35: 0
35: 5
35: 8
35: 10
36: 15
37: 14
37: 15
37: 19
38: 17
38: 20
38: 21
39: 5
40: 26
40: 27
3: 31
4: 31
5: 32
6: 32
7: 33
8: 33
9: 34
10: 34
11: 35
12: 35
13: 35
14: 35
15: 35
16: 36
17: 36
18: 36
19: 36
20: 37
21: 37
22: 38
23: 39
24: 39
25: 39
26: 39
27: 39
28: 40
29: 40
30: 40
segment: [4]
vertex id: label
28: 0
29: 1
30: 4
31: 4
32: 4
33: 4
34: 0
35: 1
36: 4
37: 4
0: 5
1: 5
2: 5
3: 5
4: 5
5: 5
6: 5
7: 5
8: 5
9: 5
10: 5
11: 5
12: 5
13: 5
14: 5
15: 5
16: 5
17: 5
18: 5
19: 5
20: 5
21: 5
22: 5
23: 5
24: 5
25: 5
26: 5
27: 5
edge from: to
28: 0
28: 1
29: 1
29: 3
29: 4
30: 0
30: 2
30: 4
30: 6
30: 8
31: 12
32: 3
32: 13
33: 16
34: 18
35: 17
35: 20
35: 21
36: 4
36: 19
36: 24
37: 24
37: 25
2: 28
3: 28
4: 28
5: 29
6: 29
7: 29
8: 29
9: 30
10: 30
11: 30
12: 30
13: 31
14: 32
15: 32
16: 32
17: 33
18: 33
19: 34
20: 34
21: 34
22: 35
23: 35
24: 35
25: 36
26: 37
27: 37
segment: [5]
vertex id: label
27: 0
28: 1
29: 4
30: 4
31: 4
32: 4
33: 4
34: 0
35: 1
36: 4
0: 5
1: 5
2: 5
3: 5
4: 5
5: 5
6: 5
7: 5
8: 5
9: 5
10: 5
11: 5
12: 5
13: 5
14: 5
15: 5
16: 5
17: 5
18: 5
19: 5
20: 5
21: 5
22: 5
23: 5
24: 5
25: 5
26: 5
edge from: to
27: 0
27: 1
27: 2
28: 1
28: 3
28: 4
29: 5
29: 7
30: 9
31: 3
31: 13
32: 16
33: 14
33: 15
33: 19
34: 20
34: 21
35: 22
35: 23
36: 24
3: 27
4: 27
5: 28
6: 28
7: 28
8: 29
9: 29
10: 30
11: 30
12: 30
13: 30
14: 31
15: 31
16: 31
17: 32
18: 32
19: 32
20: 33
21: 33
22: 34
23: 34
24: 35
25: 36
26: 36
segment: [6]
vertex id: label
30: 0
31: 1
32: 4
33: 4
34: 4
35: 4
36: 0
37: 1
38: 4
39: 4
0: 5
1: 5
2: 5
3: 5
4: 5
5: 5
6: 5
7: 5
8: 5
9: 5
10: 5
11: 5
12: 5
13: 5
14: 5
15: 5
16: 5
17: 5
18: 5
19: 5
20: 5
21: 5
22: 5
23: 5
24: 5
25: 5
26: 5
27: 5
28: 5
29: 5
edge from: to
30: 0
30: 1
31: 0
31: 1
31: 2
31: 3
32: 5
33: 7
34: 11
35: 2
35: 12
36: 11
36: 14
37: 4
37: 17
38: 18
39: 23
2: 30
3: 30
4: 31
5: 31
6: 32
7: 32
8: 33
9: 33
10: 33
11: 33
12: 34
13: 35
14: 35
15: 36
16: 36
17: 36
18: 37
19: 38
20: 38
21: 38
22: 38
23: 38
24: 39
25: 39
26: 39
27: 39
28: 39
29: 39
segment: [7]
vertex id: label
32: 0
33: 1
34: 4
35: 4
36: 0
37: 1
38: 4
39: 4
40: 0
41: 1
0: 5
1: 5
2: 5
3: 5
4: 5
5: 5
6: 5
7: 5
8: 5
9: 5
10: 5
11: 5
12: 5
13: 5
14: 5
15: 5
16: 5
17: 5
18: 5
19: 5
20: 5
21: 5
22: 5
23: 5
24: 5
25: 5
26: 5
27: 5
28: 5
29: 5
30: 5
31: 5
edge from: to
32: 0
32: 1
33: 1
33: 6
34: 2
34: 8
35: 10
36: 11
36: 14
37: 15
37: 20
38: 5
38: 16
38: 21
39: 24
39: 25
40: 26
40: 27
41: 22
41: 27
41: 28
2: 32
3: 32
4: 32
5: 32
6: 32
7: 33
8: 33
9: 34
10: 34
11: 35
12: 35
13: 35
14: 35
15: 36
16: 36
17: 36
18: 36
19: 36
20: 36
21: 37
22: 37
23: 38
24: 38
25: 38
26: 39
27: 39
28: 40
29: 41
30: 41
31: 41
segment: [8]
vertex id: label
32: 0
33: 1
34: 4
35: 4
36: 4
37: 0
38: 1
39: 4
40: 4
41: 4
0: 5
1: 5
2: 5
3: 5
4: 5
5: 5
6: 5
7: 5
8: 5
9: 5
10: 5
11: 5
12: 5
13: 5
14: 5
15: 5
16: 5
17: 5
18: 5
19: 5
20: 5
21: 5
22: 5
23: 5
24: 5
25: 5
26: 5
27: 5
28: 5
29: 5
30: 5
31: 5
edge from: to
32: 0
33: 0
33: 2
34: 0
34: 1
34: 5
34: 6
35: 8
35: 10
36: 8
36: 9
36: 11
37: 3
38: 14
38: 19
39: 6
39: 25
40: 20
40: 25
40: 26
40: 27
41: 29
1: 32
2: 32
3: 33
4: 33
5: 33
6: 33
7: 34
8: 34
9: 34
10: 34
11: 35
12: 36
13: 36
14: 37
15: 37
16: 37
17: 37
18: 37
19: 37
20: 38
21: 38
22: 38
23: 38
24: 38
25: 38
26: 38
27: 39
28: 40
29: 40
30: 41
31: 41
segment: [9]
vertex id: label
31: 0
32: 1
33: 4
34: 4
35: 4
36: 0
37: 1
38: 4
39: 4
40: 4
0: 5
1: 5
2: 5
3: 5
4: 5
5: 5
6: 5
7: 5
8: 5
9: 5
10: 5
11: 5
12: 5
13: 5
14: 5
15: 5
16: 5
17: 5
18: 5
19: 5
20: 5
21: 5
22: 5
23: 5
24: 5
25: 5
26: 5
27: 5
28: 5
29: 5
30: 5
edge from: to
31: 0
32: 0
32: 2
33: 3
34: 6
35: 2
36: 0
36: 3
36: 7
36: 9
37: 14
38: 4
38: 13
38: 16
38: 17
39: 5
39: 16
39: 21
40: 6
40: 14
40: 19
40: 20
40: 24
40: 25
40: 26
1: 31
2: 31
3: 32
4: 33
5: 33
6: 33
7: 34
8: 34
9: 35
10: 36
11: 36
12: 36
13: 36
14: 36
15: 37
16: 37
17: 37
18: 38
19: 38
20: 38
21: 38
22: 38
23: 39
24: 39
25: 39
26: 39
27: 40
28: 40
29: 40
30: 40
