segment: [0]
vertex id: label
100: 0
101: 0
102: 3
103: 2
104: 0
105: 3
106: 2
107: 0
108: 3
109: 0
110: 0
111: 0
112: 0
113: 0
114: 1
115: 1
116: 1
117: 1
118: 1
119: 1
120: 1
121: 1
122: 1
123: 1
124: 1
125: 1
126: 1
127: 1
128: 1
129: 1
0: 5
1: 5
2: 5
3: 5
4: 5
5: 5
6: 5
7: 5
8: 5
9: 5
10: 5
11: 5
12: 5
13: 5
14: 5
15: 5
16: 5
17: 5
18: 5
19: 5
20: 5
21: 5
22: 5
23: 5
24: 5
25: 5
26: 5
27: 5
28: 5
29: 5
30: 5
31: 5
32: 5
33: 5
34: 5
35: 5
36: 5
37: 5
38: 5
39: 5
40: 5
41: 5
42: 5
43: 5
44: 5
45: 5
46: 5
47: 5
48: 5
49: 5
50: 5
51: 5
52: 5
53: 5
54: 5
55: 5
56: 5
57: 5
58: 5
59: 5
60: 5
61: 5
62: 5
63: 5
64: 5
65: 5
66: 5
67: 5
68: 5
69: 5
70: 5
71: 5
72: 5
73: 5
74: 5
75: 5
76: 5
77: 5
78: 5
79: 5
80: 5
81: 5
82: 5
83: 5
84: 5
85: 5
86: 5
87: 5
88: 5
89: 5
90: 5
91: 5
92: 5
93: 5
94: 5
95: 5
96: 5
97: 5
98: 5
99: 5
edge from: to
100: 0
100: 1
101: 4
102: 8
103: 3
103: 11
104: 14
105: 15
106: 17
106: 18
107: 19
107: 21
108: 22
109: 23
109: 25
110: 27
110: 30
110: 31
111: 34
112: 34
112: 39
113: 42
114: 44
115: 42
115: 47
116: 48
117: 53
118: 58
119: 54
119: 60
120: 58
120: 65
120: 66
121: 59
121: 61
121: 68
122: 60
122: 61
122: 69
122: 70
123: 64
123: 72
123: 73
124: 77
125: 69
125: 78
126: 71
126: 81
127: 88
128: 79
128: 90
129: 82
129: 94
2: 100
3: 100
4: 100
5: 100
6: 101
7: 101
8: 101
9: 101
10: 102
11: 102
12: 102
13: 103
14: 103
15: 103
16: 104
17: 105
18: 105
19: 105
20: 106
21: 106
22: 107
23: 107
24: 108
25: 108
26: 108
27: 109
28: 109
29: 109
30: 109
31: 109
32: 110
33: 110
34: 110
35: 110
36: 111
37: 111
38: 111
39: 111
40: 112
41: 112
42: 112
43: 113
44: 113
45: 113
46: 114
47: 114
48: 114
49: 115
50: 116
51: 116
52: 116
53: 116
54: 117
55: 117
56: 117
57: 117
58: 117
59: 118
60: 118
61: 118
62: 119
63: 119
64: 119
65: 119
66: 119
67: 120
68: 120
69: 120
70: 121
71: 122
72: 122
73: 122
74: 123
75: 123
76: 123
77: 123
78: 124
79: 124
80: 125
81: 125
82: 126
83: 126
84: 126
85: 126
86: 126
87: 126
88: 126
89: 127
90: 127
91: 128
92: 128
93: 128
94: 128
95: 129
96: 129
97: 129
98: 129
99: 129
segment: [1]
vertex id: label
92: 0
93: 3
94: 2
95: 4
96: 0
97: 0
98: 1
99: 1
100: 1
101: 1
102: 1
103: 1
104: 1
105: 1
106: 1
107: 1
108: 1
109: 1
110: 1
111: 1
112: 1
113: 1
114: 1
115: 1
116: 1
117: 1
118: 1
119: 1
120: 1
121: 1
0: 5
1: 5
2: 5
3: 5
4: 5
5: 5
6: 5
7: 5
8: 5
9: 5
10: 5
11: 5
12: 5
13: 5
14: 5
15: 5
16: 5
17: 5
18: 5
19: 5
20: 5
21: 5
22: 5
23: 5
24: 5
25: 5
26: 5
27: 5
28: 5
29: 5
30: 5
31: 5
32: 5
33: 5
34: 5
35: 5
36: 5
37: 5
38: 5
39: 5
40: 5
41: 5
42: 5
43: 5
44: 5
45: 5
46: 5
47: 5
48: 5
49: 5
50: 5
51: 5
52: 5
53: 5
54: 5
55: 5
56: 5
57: 5
58: 5
59: 5
60: 5
61: 5
62: 5
63: 5
64: 5
65: 5
66: 5
67: 5
68: 5
69: 5
70: 5
71: 5
72: 5
73: 5
74: 5
75: 5
76: 5
77: 5
78: 5
79: 5
80: 5
81: 5
82: 5
83: 5
84: 5
85: 5
86: 5
87: 5
88: 5
89: 5
90: 5
91: 5
edge from: to
92: 0
92: 1
93: 4
93: 5
94: 2
94: 6
94: 7
95: 7
96: 3
96: 11
97: 13
97: 14
98: 18
99: 20
99: 22
100: 24
101: 27
102: 8
102: 29
102: 33
103: 32
103: 36
104: 35
104: 36
104: 40
105: 45
106: 42
106: 47
107: 50
108: 46
108: 52
109: 51
109: 58
110: 53
110: 60
111: 62
112: 63
113: 58
113: 66
114: 60
114: 68
115: 72
116: 63
116: 65
116: 73
117: 66
117: 75
117: 76
117: 77
118: 19
118: 69
118: 78
119: 73
119: 83
120: 76
120: 87
121: 89
2: 92
3: 92
4: 92
5: 92
6: 93
7: 93
8: 94
9: 95
10: 95
11: 95
12: 95
13: 96
14: 96
15: 97
16: 97
17: 97
18: 97
19: 97
20: 98
21: 98
22: 98
23: 98
24: 99
25: 99
26: 100
27: 100
28: 101
29: 101
30: 101
31: 101
32: 101
33: 101
34: 102
35: 102
36: 102
37: 103
38: 103
39: 103
40: 103
41: 103
42: 104
43: 104
44: 104
45: 104
46: 104
47: 105
48: 105
49: 106
50: 106
51: 107
52: 107
53: 108
54: 108
55: 108
56: 108
57: 108
58: 108
59: 109
60: 109
61: 110
62: 110
63: 111
64: 112
65: 112
66: 112
67: 113
68: 113
69: 114
70: 114
71: 114
72: 114
73: 115
74: 115
75: 116
76: 116
77: 116
78: 117
79: 117
80: 118
81: 118
82: 118
83: 118
84: 119
85: 119
86: 119
87: 119
88: 120
89: 120
90: 121
91: 121
segment: [2]
vertex id: label
92: 0
93: 0
94: 3
95: 4
96: 1
97: 1
98: 1
99: 1
100: 1
101: 1
102: 1
103: 1
104: 1
105: 1
106: 0
107: 3
108: 2
109: 0
110: 0
111: 0
112: 0
113: 3
114: 3
115: 0
116: 3
117: 2
118: 0
119: 0
120: 0
121: 0
0: 5
1: 5
2: 5
3: 5
4: 5
5: 5
6: 5
7: 5
8: 5
9: 5
10: 5
11: 5
12: 5
13: 5
14: 5
15: 5
16: 5
17: 5
18: 5
19: 5
20: 5
21: 5
22: 5
23: 5
24: 5
25: 5
26: 5
27: 5
28: 5
29: 5
30: 5
31: 5
32: 5
33: 5
34: 5
35: 5
36: 5
37: 5
38: 5
39: 5
40: 5
41: 5
42: 5
43: 5
44: 5
45: 5
46: 5
47: 5
48: 5
49: 5
50: 5
51: 5
52: 5
53: 5
54: 5
55: 5
56: 5
57: 5
58: 5
59: 5
60: 5
61: 5
62: 5
63: 5
64: 5
65: 5
66: 5
67: 5
68: 5
69: 5
70: 5
71: 5
72: 5
73: 5
74: 5
75: 5
76: 5
77: 5
78: 5
79: 5
80: 5
81: 5
82: 5
83: 5
84: 5
85: 5
86: 5
87: 5
88: 5
89: 5
90: 5
91: 5
edge from: to
92: 0
92: 1
93: 1
93: 3
94: 3
94: 5
94: 6
95: 7
96: 10
96: 11
96: 12
96: 13
97: 14
98: 18
98: 19
98: 20
99: 20
99: 22
99: 23
100: 24
101: 25
101: 27
102: 27
102: 30
103: 30
103: 33
104: 32
104: 36
105: 39
106: 36
106: 40
107: 42
108: 40
108: 45
109: 50
110: 47
110: 52
110: 53
111: 55
112: 52
112: 58
113: 62
114: 63
115: 59
115: 67
116: 63
116: 72
117: 66
117: 76
117: 77
118: 70
118: 80
119: 85
120: 87
121: 76
121: 78
121: 88
121: 89
2: 92
3: 92
4: 93
5: 93
6: 93
7: 94
8: 94
9: 95
10: 95
11: 95
12: 95
13: 95
14: 96
15: 96
16: 97
17: 97
18: 97
19: 97
20: 97
21: 98
22: 98
23: 98
24: 99
25: 99
26: 100
27: 100
28: 100
29: 101
30: 101
31: 101
32: 102
33: 102
34: 102
35: 103
36: 103
37: 104
38: 104
39: 104
40: 105
41: 105
42: 106
43: 106
44: 107
45: 107
46: 107
47: 108
48: 108
49: 108
50: 108
51: 109
52: 109
53: 109
54: 110
55: 110
56: 110
57: 111
58: 111
59: 111
60: 112
61: 112
62: 112
63: 113
64: 113
65: 114
66: 114
67: 114
68: 115
69: 115
70: 115
71: 115
72: 115
73: 116
74: 116
75: 116
76: 116
77: 116
78: 117
79: 117
80: 117
81: 118
82: 118
83: 118
84: 118
85: 118
86: 119
87: 119
88: 120
89: 120
90: 121
91: 121
segment: [3]
vertex id: label
83: 0
84: 1
85: 1
86: 1
87: 1
88: 1
89: 1
90: 1
91: 1
92: 1
93: 1
94: 1
95: 1
96: 1
97: 0
98: 0
99: 1
100: 1
101: 1
102: 1
103: 1
104: 1
105: 1
106: 1
107: 1
108: 1
109: 1
110: 1
111: 1
112: 1
0: 5
1: 5
2: 5
3: 5
4: 5
5: 5
6: 5
7: 5
8: 5
9: 5
10: 5
11: 5
12: 5
13: 5
14: 5
15: 5
16: 5
17: 5
18: 5
19: 5
20: 5
21: 5
22: 5
23: 5
24: 5
25: 5
26: 5
27: 5
28: 5
29: 5
30: 5
31: 5
32: 5
33: 5
34: 5
35: 5
36: 5
37: 5
38: 5
39: 5
40: 5
41: 5
42: 5
43: 5
44: 5
45: 5
46: 5
47: 5
48: 5
49: 5
50: 5
51: 5
52: 5
53: 5
54: 5
55: 5
56: 5
57: 5
58: 5
59: 5
60: 5
61: 5
62: 5
63: 5
64: 5
65: 5
66: 5
67: 5
68: 5
69: 5
70: 5
71: 5
72: 5
73: 5
74: 5
75: 5
76: 5
77: 5
78: 5
79: 5
80: 5
81: 5
82: 5
edge from: to
83: 0
83: 1
84: 0
84: 2
85: 3
85: 5
85: 6
86: 8
86: 9
87: 10
87: 11
88: 12
88: 13
88: 14
89: 17
90: 18
90: 19
91: 20
91: 21
92: 22
93: 27
94: 27
94: 30
94: 31
95: 29
95: 33
96: 31
96: 34
97: 32
97: 36
98: 34
98: 39
99: 37
99: 38
99: 41
99: 42
100: 40
100: 44
101: 42
101: 43
101: 48
102: 52
103: 49
103: 55
104: 52
104: 58
105: 63
106: 57
106: 65
107: 61
107: 70
108: 63
108: 72
109: 64
109: 73
110: 67
110: 76
111: 69
111: 78
112: 81
2: 83
3: 84
4: 84
5: 84
6: 84
7: 85
8: 85
9: 85
10: 86
11: 86
12: 87
13: 87
14: 87
15: 88
16: 88
17: 88
18: 88
19: 89
20: 89
21: 90
22: 90
23: 91
24: 92
25: 92
26: 92
27: 92
28: 92
29: 93
30: 93
31: 93
32: 94
33: 94
34: 95
35: 95
36: 96
37: 97
38: 97
39: 97
40: 98
41: 98
42: 98
43: 98
44: 99
45: 99
46: 100
47: 100
48: 100
49: 100
50: 101
51: 101
52: 101
53: 102
54: 102
55: 102
56: 102
57: 103
58: 103
59: 103
60: 104
61: 104
62: 104
63: 104
64: 105
65: 105
66: 106
67: 106
68: 106
69: 106
70: 106
71: 107
72: 107
73: 108
74: 109
75: 109
76: 109
77: 110
78: 110
79: 110
80: 111
81: 111
82: 112
segment: [4]
vertex id: label
80: 0
81: 3
82: 2
83: 0
84: 3
85: 2
86: 0
87: 3
88: 2
89: 0
90: 0
91: 0
92: 0
93: 3
94: 2
95: 0
96: 3
97: 2
98: 0
99: 3
100: 2
101: 0
102: 0
103: 1
104: 1
105: 1
106: 1
107: 1
108: 1
109: 1
0: 5
1: 5
2: 5
3: 5
4: 5
5: 5
6: 5
7: 5
8: 5
9: 5
10: 5
11: 5
12: 5
13: 5
14: 5
15: 5
16: 5
17: 5
18: 5
19: 5
20: 5
21: 5
22: 5
23: 5
24: 5
25: 5
26: 5
27: 5
28: 5
29: 5
30: 5
31: 5
32: 5
33: 5
34: 5
35: 5
36: 5
37: 5
38: 5
39: 5
40: 5
41: 5
42: 5
43: 5
44: 5
45: 5
46: 5
47: 5
48: 5
49: 5
50: 5
51: 5
52: 5
53: 5
54: 5
55: 5
56: 5
57: 5
58: 5
59: 5
60: 5
61: 5
62: 5
63: 5
64: 5
65: 5
66: 5
67: 5
68: 5
69: 5
70: 5
71: 5
72: 5
73: 5
74: 5
75: 5
76: 5
77: 5
78: 5
79: 5
edge from: to
80: 0
81: 0
81: 1
81: 2
82: 1
82: 4
83: 3
83: 5
83: 6
84: 9
84: 10
85: 10
85: 11
86: 5
86: 12
86: 13
86: 14
87: 14
87: 15
88: 18
88: 19
89: 19
89: 21
90: 21
90: 24
91: 3
91: 13
91: 23
91: 24
91: 27
92: 26
92: 27
92: 30
93: 27
93: 30
94: 33
95: 31
95: 34
96: 34
96: 39
97: 37
97: 42
98: 40
98: 45
99: 42
99: 47
100: 50
101: 49
101: 55
102: 53
102: 60
103: 54
103: 61
103: 62
104: 57
104: 65
105: 57
105: 59
105: 66
105: 67
106: 68
107: 72
108: 64
108: 72
108: 73
109: 67
109: 76
1: 80
3: 81
4: 81
5: 82
6: 82
7: 83
8: 83
9: 83
10: 83
11: 84
12: 85
13: 85
14: 85
15: 86
16: 86
17: 87
18: 87
19: 87
20: 87
21: 88
22: 89
23: 89
24: 89
25: 90
26: 90
27: 90
28: 91
29: 91
30: 91
31: 92
32: 93
33: 93
34: 93
35: 94
36: 95
37: 95
38: 95
39: 95
40: 96
41: 96
42: 96
43: 97
44: 97
45: 97
46: 97
47: 98
48: 98
49: 99
50: 99
51: 99
52: 100
53: 100
54: 100
55: 100
56: 100
57: 101
58: 101
59: 101
60: 101
61: 102
62: 102
63: 103
64: 103
65: 103
66: 104
67: 104
68: 105
69: 105
70: 106
71: 106
72: 106
73: 107
74: 108
75: 108
76: 108
77: 109
78: 109
79: 109
segment: [5]
vertex id: label
101: 0
102: 0
103: 0
104: 0
105: 0
106: 0
107: 0
108: 0
109: 0
110: 0
111: 0
112: 0
113: 0
114: 0
115: 0
116: 0
117: 0
118: 0
119: 0
120: 0
121: 0
122: 3
123: 2
124: 0
125: 0
126: 0
127: 0
128: 1
129: 1
130: 1
0: 5
1: 5
2: 5
3: 5
4: 5
5: 5
6: 5
7: 5
8: 5
9: 5
10: 5
11: 5
12: 5
13: 5
14: 5
15: 5
16: 5
17: 5
18: 5
19: 5
20: 5
21: 5
22: 5
23: 5
24: 5
25: 5
26: 5
27: 5
28: 5
29: 5
30: 5
31: 5
32: 5
33: 5
34: 5
35: 5
36: 5
37: 5
38: 5
39: 5
40: 5
41: 5
42: 5
43: 5
44: 5
45: 5
46: 5
47: 5
48: 5
49: 5
50: 5
51: 5
52: 5
53: 5
54: 5
55: 5
56: 5
57: 5
58: 5
59: 5
60: 5
61: 5
62: 5
63: 5
64: 5
65: 5
66: 5
67: 5
68: 5
69: 5
70: 5
71: 5
72: 5
73: 5
74: 5
75: 5
76: 5
77: 5
78: 5
79: 5
80: 5
81: 5
82: 5
83: 5
84: 5
85: 5
86: 5
87: 5
88: 5
89: 5
90: 5
91: 5
92: 5
93: 5
94: 5
95: 5
96: 5
97: 5
98: 5
99: 5
100: 5
edge from: to
101: 0
102: 0
102: 1
102: 2
103: 1
103: 4
103: 6
103: 7
103: 8
103: 9
104: 11
105: 15
106: 16
106: 17
107: 21
108: 24
109: 25
110: 26
110: 28
110: 29
111: 33
112: 37
113: 39
114: 38
114: 42
115: 45
116: 42
116: 43
116: 48
117: 45
117: 50
118: 46
118: 51
118: 52
119: 47
119: 53
120: 49
120: 55
121: 52
121: 58
121: 59
122: 56
122: 63
123: 68
124: 63
124: 71
124: 72
125: 76
126: 77
127: 70
127: 80
128: 86
129: 90
130: 81
130: 92
1: 101
2: 101
3: 102
4: 102
5: 102
6: 102
7: 102
8: 102
9: 102
10: 103
11: 103
12: 103
13: 104
14: 104
15: 104
16: 104
17: 105
18: 105
19: 106
20: 106
21: 106
22: 107
23: 107
24: 107
25: 108
26: 108
27: 109
28: 109
29: 109
30: 110
31: 110
32: 110
33: 110
34: 110
35: 111
36: 111
37: 111
38: 111
39: 112
40: 112
41: 113
42: 113
43: 113
44: 114
45: 114
46: 114
47: 115
48: 115
49: 115
50: 116
51: 116
52: 117
53: 118
54: 119
55: 119
56: 119
57: 120
58: 120
59: 120
60: 121
61: 121
62: 121
63: 121
64: 121
65: 122
66: 122
67: 122
68: 122
69: 122
70: 123
71: 123
72: 123
73: 124
74: 124
75: 124
76: 124
77: 125
78: 126
79: 126
80: 126
81: 127
82: 127
83: 127
84: 127
85: 127
86: 127
87: 128
88: 128
89: 128
90: 128
91: 129
92: 129
93: 130
94: 130
95: 130
96: 130
97: 130
98: 130
99: 130
100: 130
segment: [6]
vertex id: label
86: 0
87: 3
88: 2
89: 0
90: 0
91: 0
92: 0
93: 0
94: 0
95: 0
96: 3
97: 2
98: 0
99: 3
100: 4
101: 1
102: 1
103: 1
104: 1
105: 1
106: 1
107: 1
108: 0
109: 0
110: 3
111: 2
112: 0
113: 0
114: 0
115: 1
0: 5
1: 5
2: 5
3: 5
4: 5
5: 5
6: 5
7: 5
8: 5
9: 5
10: 5
11: 5
12: 5
13: 5
14: 5
15: 5
16: 5
17: 5
18: 5
19: 5
20: 5
21: 5
22: 5
23: 5
24: 5
25: 5
26: 5
27: 5
28: 5
29: 5
30: 5
31: 5
32: 5
33: 5
34: 5
35: 5
36: 5
37: 5
38: 5
39: 5
40: 5
41: 5
42: 5
43: 5
44: 5
45: 5
46: 5
47: 5
48: 5
49: 5
50: 5
51: 5
52: 5
53: 5
54: 5
55: 5
56: 5
57: 5
58: 5
59: 5
60: 5
61: 5
62: 5
63: 5
64: 5
65: 5
66: 5
67: 5
68: 5
69: 5
70: 5
71: 5
72: 5
73: 5
74: 5
75: 5
76: 5
77: 5
78: 5
79: 5
80: 5
81: 5
82: 5
83: 5
84: 5
85: 5
edge from: to
86: 0
86: 1
87: 6
88: 8
89: 10
89: 11
90: 3
90: 11
90: 12
91: 14
92: 16
92: 17
92: 18
93: 18
93: 19
94: 24
95: 24
96: 27
97: 26
97: 27
97: 30
98: 28
98: 30
98: 31
98: 32
99: 33
100: 34
101: 34
101: 39
102: 38
102: 39
102: 43
102: 44
103: 41
103: 47
104: 44
104: 49
104: 50
105: 46
105: 51
105: 52
106: 48
106: 49
106: 54
106: 55
107: 57
108: 54
108: 60
109: 57
109: 64
109: 65
110: 60
110: 68
111: 70
112: 62
112: 71
113: 63
113: 65
113: 72
113: 73
114: 76
114: 77
115: 82
2: 86
3: 86
4: 86
5: 86
6: 86
7: 86
8: 87
9: 87
10: 88
11: 88
12: 89
13: 90
14: 90
15: 90
16: 91
17: 91
18: 91
19: 92
20: 92
21: 93
22: 93
23: 93
24: 93
25: 94
26: 95
27: 95
28: 95
29: 96
30: 96
31: 97
32: 97
33: 98
34: 98
35: 99
36: 100
37: 100
38: 100
39: 100
40: 101
41: 101
42: 101
43: 101
44: 101
45: 102
46: 102
47: 102
48: 103
49: 103
50: 103
51: 104
52: 104
53: 105
54: 105
55: 105
56: 105
57: 106
58: 107
59: 107
60: 107
61: 107
62: 108
63: 108
64: 108
65: 108
66: 109
67: 109
68: 109
69: 110
70: 110
71: 111
72: 112
73: 112
74: 112
75: 113
76: 113
77: 113
78: 114
79: 114
80: 114
81: 114
82: 114
83: 115
84: 115
85: 115
segment: [7]
vertex id: label
81: 0
82: 3
83: 2
84: 0
85: 0
86: 0
87: 3
88: 2
89: 0
90: 0
91: 0
92: 1
93: 1
94: 1
95: 1
96: 1
97: 0
98: 0
99: 1
100: 1
101: 1
102: 1
103: 1
104: 1
105: 1
106: 1
107: 1
108: 1
109: 1
110: 1
0: 5
1: 5
2: 5
3: 5
4: 5
5: 5
6: 5
7: 5
8: 5
9: 5
10: 5
11: 5
12: 5
13: 5
14: 5
15: 5
16: 5
17: 5
18: 5
19: 5
20: 5
21: 5
22: 5
23: 5
24: 5
25: 5
26: 5
27: 5
28: 5
29: 5
30: 5
31: 5
32: 5
33: 5
34: 5
35: 5
36: 5
37: 5
38: 5
39: 5
40: 5
41: 5
42: 5
43: 5
44: 5
45: 5
46: 5
47: 5
48: 5
49: 5
50: 5
51: 5
52: 5
53: 5
54: 5
55: 5
56: 5
57: 5
58: 5
59: 5
60: 5
61: 5
62: 5
63: 5
64: 5
65: 5
66: 5
67: 5
68: 5
69: 5
70: 5
71: 5
72: 5
73: 5
74: 5
75: 5
76: 5
77: 5
78: 5
79: 5
80: 5
edge from: to
81: 0
82: 1
82: 2
82: 3
82: 4
83: 2
83: 6
83: 7
84: 8
84: 9
85: 3
85: 10
85: 11
86: 12
86: 13
87: 13
87: 14
87: 15
88: 16
89: 18
89: 19
90: 21
90: 23
90: 24
91: 25
91: 27
92: 36
93: 33
93: 37
93: 38
94: 35
94: 39
95: 37
95: 42
96: 38
96: 42
97: 40
97: 41
97: 44
97: 45
97: 46
97: 47
98: 43
98: 48
99: 53
100: 50
100: 57
101: 60
102: 52
102: 54
102: 60
103: 62
104: 56
104: 63
105: 59
105: 67
106: 61
106: 69
106: 70
107: 73
108: 63
108: 65
108: 72
108: 73
109: 76
110: 78
1: 81
2: 81
3: 81
4: 81
5: 82
6: 82
7: 82
8: 83
9: 83
10: 84
11: 84
12: 85
13: 85
14: 86
15: 86
16: 87
17: 87
18: 88
19: 88
20: 88
21: 89
22: 89
23: 89
24: 89
25: 90
26: 90
27: 90
28: 90
29: 91
30: 91
31: 91
32: 91
33: 91
34: 91
35: 91
36: 91
37: 92
38: 92
39: 93
40: 93
41: 94
42: 94
43: 95
44: 96
45: 96
46: 96
47: 96
48: 97
49: 97
50: 98
51: 98
52: 98
53: 98
54: 99
55: 99
56: 99
57: 99
58: 100
59: 100
60: 100
61: 101
62: 102
63: 103
64: 103
65: 104
66: 104
67: 104
68: 105
69: 105
70: 105
71: 106
72: 106
73: 106
74: 107
75: 108
76: 108
77: 109
78: 109
79: 110
80: 110
segment: [8]
vertex id: label
94: 0
95: 3
96: 2
97: 0
98: 0
99: 3
100: 2
101: 0
102: 3
103: 2
104: 0
105: 0
106: 0
107: 3
108: 2
109: 0
110: 0
111: 3
112: 2
113: 0
114: 0
115: 3
116: 2
117: 0
118: 3
119: 2
120: 0
121: 3
122: 2
123: 3
0: 5
1: 5
2: 5
3: 5
4: 5
5: 5
6: 5
7: 5
8: 5
9: 5
10: 5
11: 5
12: 5
13: 5
14: 5
15: 5
16: 5
17: 5
18: 5
19: 5
20: 5
21: 5
22: 5
23: 5
24: 5
25: 5
26: 5
27: 5
28: 5
29: 5
30: 5
31: 5
32: 5
33: 5
34: 5
35: 5
36: 5
37: 5
38: 5
39: 5
40: 5
41: 5
42: 5
43: 5
44: 5
45: 5
46: 5
47: 5
48: 5
49: 5
50: 5
51: 5
52: 5
53: 5
54: 5
55: 5
56: 5
57: 5
58: 5
59: 5
60: 5
61: 5
62: 5
63: 5
64: 5
65: 5
66: 5
67: 5
68: 5
69: 5
70: 5
71: 5
72: 5
73: 5
74: 5
75: 5
76: 5
77: 5
78: 5
79: 5
80: 5
81: 5
82: 5
83: 5
84: 5
85: 5
86: 5
87: 5
88: 5
89: 5
90: 5
91: 5
92: 5
93: 5
edge from: to
94: 0
95: 1
96: 2
96: 7
96: 8
97: 10
98: 11
99: 13
99: 14
99: 15
100: 2
100: 16
100: 17
100: 18
101: 20
101: 21
101: 22
102: 24
103: 27
104: 26
104: 28
105: 27
105: 30
106: 30
106: 31
106: 33
106: 34
106: 35
107: 34
107: 39
108: 38
108: 39
108: 43
108: 44
109: 40
109: 45
110: 47
111: 50
112: 50
113: 55
114: 57
115: 58
116: 63
117: 60
117: 68
118: 68
119: 66
119: 74
119: 75
120: 76
121: 80
122: 72
122: 74
122: 83
123: 90
1: 94
2: 95
3: 95
4: 95
5: 95
6: 95
7: 95
8: 95
9: 96
10: 96
11: 96
12: 97
13: 98
14: 98
15: 98
16: 99
17: 99
18: 99
19: 100
20: 100
21: 100
22: 100
23: 101
24: 101
25: 102
26: 102
27: 102
28: 103
29: 103
30: 104
31: 105
32: 105
33: 105
34: 105
35: 105
36: 106
37: 106
38: 106
39: 106
40: 107
41: 107
42: 107
43: 107
44: 107
45: 108
46: 108
47: 109
48: 110
49: 110
50: 110
51: 111
52: 112
53: 112
54: 112
55: 112
56: 113
57: 113
58: 114
59: 114
60: 115
61: 115
62: 115
63: 115
64: 115
65: 116
66: 116
67: 116
68: 116
69: 117
70: 118
71: 118
72: 118
73: 118
74: 118
75: 118
76: 119
77: 120
78: 120
79: 120
80: 120
81: 121
82: 121
83: 121
84: 121
85: 122
86: 122
87: 122
88: 122
89: 122
90: 122
91: 123
92: 123
93: 123
segment: [9]
vertex id: label
95: 0
96: 0
97: 3
98: 2
99: 0
100: 0
101: 0
102: 0
103: 0
104: 0
105: 3
106: 4
107: 1
108: 1
109: 1
110: 1
111: 1
112: 1
113: 1
114: 1
115: 1
116: 1
117: 1
118: 1
119: 1
120: 1
121: 1
122: 1
123: 1
124: 3
0: 5
1: 5
2: 5
3: 5
4: 5
5: 5
6: 5
7: 5
8: 5
9: 5
10: 5
11: 5
12: 5
13: 5
14: 5
15: 5
16: 5
17: 5
18: 5
19: 5
20: 5
21: 5
22: 5
23: 5
24: 5
25: 5
26: 5
27: 5
28: 5
29: 5
30: 5
31: 5
32: 5
33: 5
34: 5
35: 5
36: 5
37: 5
38: 5
39: 5
40: 5
41: 5
42: 5
43: 5
44: 5
45: 5
46: 5
47: 5
48: 5
49: 5
50: 5
51: 5
52: 5
53: 5
54: 5
55: 5
56: 5
57: 5
58: 5
59: 5
60: 5
61: 5
62: 5
63: 5
64: 5
65: 5
66: 5
67: 5
68: 5
69: 5
70: 5
71: 5
72: 5
73: 5
74: 5
75: 5
76: 5
77: 5
78: 5
79: 5
80: 5
81: 5
82: 5
83: 5
84: 5
85: 5
86: 5
87: 5
88: 5
89: 5
90: 5
91: 5
92: 5
93: 5
94: 5
edge from: to
95: 0
95: 1
96: 1
96: 2
96: 4
97: 6
98: 12
98: 13
99: 15
100: 15
100: 16
100: 17
101: 19
102: 21
102: 22
102: 23
102: 24
103: 22
103: 24
103: 25
104: 24
104: 27
105: 26
105: 27
105: 29
105: 30
106: 30
106: 33
106: 34
107: 33
107: 37
108: 38
108: 42
109: 44
110: 50
111: 13
111: 46
111: 47
111: 52
111: 53
112: 14
112: 51
112: 58
113: 60
114: 56
114: 63
115: 57
115: 64
115: 65
116: 58
116: 66
117: 63
117: 71
117: 72
118: 65
118: 73
119: 78
120: 80
121: 73
121: 83
122: 88
123: 79
123: 90
124: 81
124: 92
2: 95
3: 95
4: 95
5: 96
6: 96
7: 96
8: 97
9: 97
10: 97
11: 97
12: 97
13: 97
14: 98
15: 98
16: 98
17: 99
18: 100
19: 100
20: 100
21: 101
22: 101
23: 101
24: 101
25: 102
26: 103
27: 103
28: 104
29: 104
30: 104
31: 105
32: 105
33: 105
34: 105
35: 106
36: 106
37: 106
38: 106
39: 107
40: 107
41: 107
42: 107
43: 107
44: 108
45: 108
46: 109
47: 109
48: 109
49: 109
50: 109
51: 110
52: 110
53: 110
54: 110
55: 111
56: 111
57: 111
58: 111
59: 112
60: 112
61: 112
62: 113
63: 113
64: 113
65: 114
66: 115
67: 116
68: 116
69: 116
70: 116
71: 116
72: 116
73: 117
74: 117
75: 118
76: 118
77: 118
78: 118
79: 119
80: 119
81: 120
82: 120
83: 120
84: 121
85: 121
86: 121
87: 121
88: 121
89: 122
90: 122
91: 123
92: 123
93: 124
94: 124
