segment: [0]
vertex id: label
86: 0
87: 1
88: 2
89: 1
90: 2
91: 1
92: 2
93: 3
94: 3
95: 3
96: 3
97: 1
98: 2
99: 1
100: 2
101: 1
102: 2
103: 3
104: 1
105: 2
106: 1
107: 2
108: 1
109: 2
110: 3
111: 3
112: 1
113: 4
114: 2
115: 1
0: 5
1: 5
2: 5
3: 5
4: 5
5: 5
6: 5
7: 5
8: 5
9: 5
10: 5
11: 5
12: 5
13: 5
14: 5
15: 5
16: 5
17: 5
18: 5
19: 5
20: 5
21: 5
22: 5
23: 5
24: 5
25: 5
26: 5
27: 5
28: 5
29: 5
30: 5
31: 5
32: 5
33: 5
34: 5
35: 5
36: 5
37: 5
38: 5
39: 5
40: 5
41: 5
42: 5
43: 5
44: 5
45: 5
46: 5
47: 5
48: 5
49: 5
50: 5
51: 5
52: 5
53: 5
54: 5
55: 5
56: 5
57: 5
58: 5
59: 5
60: 5
61: 5
62: 5
63: 5
64: 5
65: 5
66: 5
67: 5
68: 5
69: 5
70: 5
71: 5
72: 5
73: 5
74: 5
75: 5
76: 5
77: 5
78: 5
79: 5
80: 5
81: 5
82: 5
83: 5
84: 5
85: 5
edge from: to
86: 0
87: 0
87: 2
88: 3
88: 4
88: 5
89: 8
89: 9
90: 10
90: 11
91: 11
91: 12
92: 4
93: 1
93: 14
93: 16
93: 18
94: 20
94: 21
94: 22
95: 24
95: 26
96: 29
97: 30
98: 35
99: 11
99: 37
100: 39
100: 41
101: 42
102: 42
102: 43
102: 44
103: 43
103: 44
103: 45
103: 46
104: 49
105: 14
105: 47
105: 50
106: 52
107: 54
108: 57
108: 59
109: 62
110: 64
111: 38
111: 64
111: 65
111: 66
112: 67
112: 69
113: 74
114: 22
114: 75
115: 78
115: 81
1: 86
2: 86
3: 87
4: 87
5: 87
6: 88
7: 88
8: 88
9: 88
10: 89
11: 89
12: 90
13: 91
14: 91
15: 92
16: 92
17: 92
18: 92
19: 93
20: 93
21: 93
22: 93
23: 94
24: 94
25: 94
26: 94
27: 95
28: 95
29: 95
30: 96
31: 97
32: 97
33: 97
34: 97
35: 97
36: 98
37: 98
38: 98
39: 98
40: 99
41: 99
42: 100
43: 101
44: 101
45: 102
46: 102
47: 103
48: 103
49: 103
50: 104
51: 105
52: 105
53: 105
54: 106
55: 106
56: 107
57: 107
58: 107
59: 107
60: 107
61: 108
62: 108
63: 108
64: 109
65: 109
66: 110
67: 110
68: 111
69: 111
70: 111
71: 112
72: 112
73: 112
74: 112
75: 112
76: 113
77: 113
78: 113
79: 113
80: 114
81: 114
82: 114
83: 115
84: 115
85: 115
segment: [1]
vertex id: label
92: 0
93: 1
94: 2
95: 3
96: 1
97: 2
98: 1
99: 2
100: 1
101: 2
102: 1
103: 2
104: 1
105: 2
106: 1
107: 2
108: 3
109: 3
110: 3
111: 3
112: 3
113: 1
114: 2
115: 1
116: 2
117: 1
118: 2
119: 1
120: 2
121: 1
0: 5
1: 5
2: 5
3: 5
4: 5
5: 5
6: 5
7: 5
8: 5
9: 5
10: 5
11: 5
12: 5
13: 5
14: 5
15: 5
16: 5
17: 5
18: 5
19: 5
20: 5
21: 5
22: 5
23: 5
24: 5
25: 5
26: 5
27: 5
28: 5
29: 5
30: 5
31: 5
32: 5
33: 5
34: 5
35: 5
36: 5
37: 5
38: 5
39: 5
40: 5
41: 5
42: 5
43: 5
44: 5
45: 5
46: 5
47: 5
48: 5
49: 5
50: 5
51: 5
52: 5
53: 5
54: 5
55: 5
56: 5
57: 5
58: 5
59: 5
60: 5
61: 5
62: 5
63: 5
64: 5
65: 5
66: 5
67: 5
68: 5
69: 5
70: 5
71: 5
72: 5
73: 5
74: 5
75: 5
76: 5
77: 5
78: 5
79: 5
80: 5
81: 5
82: 5
83: 5
84: 5
85: 5
86: 5
87: 5
88: 5
89: 5
90: 5
91: 5
edge from: to
92: 0
92: 1
93: 5
94: 8
95: 9
95: 10
95: 11
96: 15
96: 16
97: 11
97: 18
97: 19
98: 6
98: 11
98: 19
98: 20
98: 21
99: 23
99: 24
100: 24
100: 25
101: 28
102: 34
103: 35
103: 37
104: 41
105: 24
105: 40
105: 42
106: 45
106: 48
107: 3
107: 51
108: 51
108: 52
108: 54
109: 54
109: 56
109: 57
110: 33
110: 55
110: 57
111: 62
112: 61
112: 63
113: 67
114: 66
114: 68
114: 69
115: 69
115: 71
116: 76
117: 75
117: 77
118: 76
118: 79
119: 81
120: 84
121: 86
2: 92
3: 92
4: 92
5: 92
6: 93
7: 93
8: 93
9: 94
10: 94
11: 94
12: 95
13: 95
14: 95
15: 95
16: 95
17: 96
18: 96
19: 96
20: 97
21: 97
22: 98
23: 98
24: 98
25: 99
26: 100
27: 100
28: 100
29: 101
30: 101
31: 101
32: 101
33: 101
34: 101
35: 102
36: 102
37: 102
38: 103
39: 103
40: 103
41: 103
42: 104
43: 105
44: 105
45: 105
46: 105
47: 105
48: 105
49: 106
50: 106
51: 106
52: 107
53: 107
54: 107
55: 108
56: 108
57: 108
58: 109
59: 110
60: 110
61: 110
62: 110
63: 110
64: 111
65: 112
66: 112
67: 112
68: 112
69: 113
70: 114
71: 114
72: 114
73: 115
74: 115
75: 115
76: 115
77: 115
78: 116
79: 117
80: 117
81: 118
82: 118
83: 119
84: 119
85: 119
86: 120
87: 120
88: 121
89: 121
90: 121
91: 121
segment: [2]
vertex id: label
104: 0
105: 1
106: 2
107: 1
108: 2
109: 3
110: 3
111: 1
112: 2
113: 3
114: 1
115: 2
116: 1
117: 2
118: 3
119: 1
120: 2
121: 3
122: 1
123: 2
124: 1
125: 2
126: 1
127: 2
128: 1
129: 2
130: 1
131: 2
132: 1
133: 4
0: 5
1: 5
2: 5
3: 5
4: 5
5: 5
6: 5
7: 5
8: 5
9: 5
10: 5
11: 5
12: 5
13: 5
14: 5
15: 5
16: 5
17: 5
18: 5
19: 5
20: 5
21: 5
22: 5
23: 5
24: 5
25: 5
26: 5
27: 5
28: 5
29: 5
30: 5
31: 5
32: 5
33: 5
34: 5
35: 5
36: 5
37: 5
38: 5
39: 5
40: 5
41: 5
42: 5
43: 5
44: 5
45: 5
46: 5
47: 5
48: 5
49: 5
50: 5
51: 5
52: 5
53: 5
54: 5
55: 5
56: 5
57: 5
58: 5
59: 5
60: 5
61: 5
62: 5
63: 5
64: 5
65: 5
66: 5
67: 5
68: 5
69: 5
70: 5
71: 5
72: 5
73: 5
74: 5
75: 5
76: 5
77: 5
78: 5
79: 5
80: 5
81: 5
82: 5
83: 5
84: 5
85: 5
86: 5
87: 5
88: 5
89: 5
90: 5
91: 5
92: 5
93: 5
94: 5
95: 5
96: 5
97: 5
98: 5
99: 5
100: 5
101: 5
102: 5
103: 5
edge from: to
104: 0
104: 1
104: 2
105: 2
106: 3
107: 11
107: 12
108: 15
109: 11
109: 18
109: 19
110: 24
110: 26
111: 27
111: 28
111: 29
112: 20
112: 33
112: 35
113: 35
113: 37
114: 11
114: 37
114: 39
115: 41
115: 43
116: 44
116: 47
117: 51
118: 57
119: 59
120: 59
120: 60
120: 61
120: 62
121: 63
122: 67
123: 71
124: 72
124: 74
124: 75
125: 22
125: 75
126: 81
127: 82
127: 85
128: 86
129: 87
129: 90
129: 91
130: 93
131: 93
131: 96
132: 98
133: 98
133: 101
3: 104
4: 104
5: 104
6: 104
7: 104
8: 105
9: 105
10: 105
11: 106
12: 106
13: 107
14: 107
15: 107
16: 108
17: 108
18: 108
19: 108
20: 109
21: 109
22: 109
23: 109
24: 109
25: 109
26: 109
27: 110
28: 110
29: 110
30: 111
31: 111
32: 111
33: 111
34: 111
35: 111
36: 112
37: 112
38: 113
39: 113
40: 114
41: 114
42: 114
43: 114
44: 115
45: 115
46: 115
47: 115
48: 116
49: 116
50: 116
51: 116
52: 116
53: 117
54: 117
55: 117
56: 117
57: 117
58: 117
59: 118
60: 118
61: 119
62: 119
63: 120
64: 120
65: 121
66: 121
67: 121
68: 121
69: 122
70: 122
71: 122
72: 122
73: 123
74: 123
75: 123
76: 124
77: 124
78: 124
79: 124
80: 125
81: 125
82: 125
83: 126
84: 126
85: 126
86: 126
87: 127
88: 128
89: 128
90: 128
91: 128
92: 129
93: 129
94: 129
95: 130
96: 130
97: 130
98: 131
99: 131
100: 132
101: 132
102: 132
103: 133
segment: [3]
vertex id: label
88: 0
89: 1
90: 2
91: 1
92: 2
93: 1
94: 2
95: 1
96: 2
97: 1
98: 4
99: 2
100: 1
101: 2
102: 1
103: 4
104: 2
105: 3
106: 3
107: 1
108: 2
109: 1
110: 2
111: 1
112: 2
113: 3
114: 3
115: 3
116: 1
117: 2
0: 5
1: 5
2: 5
3: 5
4: 5
5: 5
6: 5
7: 5
8: 5
9: 5
10: 5
11: 5
12: 5
13: 5
14: 5
15: 5
16: 5
17: 5
18: 5
19: 5
20: 5
21: 5
22: 5
23: 5
24: 5
25: 5
26: 5
27: 5
28: 5
29: 5
30: 5
31: 5
32: 5
33: 5
34: 5
35: 5
36: 5
37: 5
38: 5
39: 5
40: 5
41: 5
42: 5
43: 5
44: 5
45: 5
46: 5
47: 5
48: 5
49: 5
50: 5
51: 5
52: 5
53: 5
54: 5
55: 5
56: 5
57: 5
58: 5
59: 5
60: 5
61: 5
62: 5
63: 5
64: 5
65: 5
66: 5
67: 5
68: 5
69: 5
70: 5
71: 5
72: 5
73: 5
74: 5
75: 5
76: 5
77: 5
78: 5
79: 5
80: 5
81: 5
82: 5
83: 5
84: 5
85: 5
86: 5
87: 5
edge from: to
88: 0
88: 1
89: 2
89: 3
89: 4
90: 1
90: 4
90: 5
90: 6
91: 8
91: 9
92: 9
92: 10
92: 11
93: 4
94: 1
94: 10
94: 17
95: 7
95: 11
95: 15
95: 16
95: 18
95: 19
96: 6
96: 20
97: 15
97: 22
97: 23
98: 15
98: 24
98: 26
99: 26
99: 28
100: 30
101: 20
101: 33
101: 35
102: 35
102: 37
103: 11
104: 42
104: 43
104: 44
105: 49
106: 51
107: 52
108: 54
109: 55
109: 57
110: 58
111: 61
111: 63
112: 64
113: 4
113: 67
113: 68
114: 68
114: 70
115: 70
115: 72
116: 75
117: 81
2: 88
3: 88
4: 88
5: 89
6: 89
7: 90
8: 90
9: 90
10: 91
11: 91
12: 92
13: 92
14: 92
15: 93
16: 93
17: 93
18: 94
19: 94
20: 95
21: 95
22: 96
23: 96
24: 97
25: 97
26: 97
27: 98
28: 98
29: 99
30: 99
31: 100
32: 100
33: 100
34: 100
35: 100
36: 101
37: 101
38: 102
39: 102
40: 103
41: 103
42: 103
43: 103
44: 103
45: 104
46: 104
47: 104
48: 104
49: 104
50: 105
51: 105
52: 106
53: 106
54: 107
55: 107
56: 108
57: 108
58: 108
59: 109
60: 110
61: 110
62: 110
63: 110
64: 110
65: 111
66: 112
67: 112
68: 112
69: 113
70: 113
71: 113
72: 114
73: 114
74: 115
75: 115
76: 115
77: 116
78: 116
79: 116
80: 116
81: 116
82: 116
83: 117
84: 117
85: 117
86: 117
87: 117
segment: [4]
vertex id: label
86: 0
87: 1
88: 2
89: 1
90: 2
91: 3
92: 3
93: 1
94: 2
95: 1
96: 2
97: 3
98: 3
99: 1
100: 2
101: 1
102: 2
103: 1
104: 2
105: 3
106: 3
107: 1
108: 2
109: 1
110: 2
111: 1
112: 2
113: 1
114: 2
115: 1
0: 5
1: 5
2: 5
3: 5
4: 5
5: 5
6: 5
7: 5
8: 5
9: 5
10: 5
11: 5
12: 5
13: 5
14: 5
15: 5
16: 5
17: 5
18: 5
19: 5
20: 5
21: 5
22: 5
23: 5
24: 5
25: 5
26: 5
27: 5
28: 5
29: 5
30: 5
31: 5
32: 5
33: 5
34: 5
35: 5
36: 5
37: 5
38: 5
39: 5
40: 5
41: 5
42: 5
43: 5
44: 5
45: 5
46: 5
47: 5
48: 5
49: 5
50: 5
51: 5
52: 5
53: 5
54: 5
55: 5
56: 5
57: 5
58: 5
59: 5
60: 5
61: 5
62: 5
63: 5
64: 5
65: 5
66: 5
67: 5
68: 5
69: 5
70: 5
71: 5
72: 5
73: 5
74: 5
75: 5
76: 5
77: 5
78: 5
79: 5
80: 5
81: 5
82: 5
83: 5
84: 5
85: 5
edge from: to
86: 0
86: 1
87: 3
87: 4
88: 5
89: 3
89: 9
90: 12
90: 13
91: 15
91: 16
92: 1
92: 18
93: 6
94: 24
95: 26
96: 30
97: 33
97: 35
98: 36
98: 37
98: 38
99: 23
99: 36
99: 38
99: 40
100: 41
100: 43
101: 47
102: 14
103: 50
103: 52
104: 54
105: 55
106: 57
107: 17
107: 58
107: 61
108: 62
109: 63
109: 65
110: 67
111: 70
111: 72
112: 73
112: 75
112: 76
113: 22
113: 75
113: 79
114: 46
114: 63
114: 77
114: 80
114: 81
115: 82
2: 86
3: 86
4: 86
5: 87
6: 88
7: 88
8: 88
9: 88
10: 88
11: 89
12: 89
13: 89
14: 90
15: 90
16: 90
17: 91
18: 91
19: 92
20: 92
21: 92
22: 93
23: 93
24: 93
25: 94
26: 94
27: 95
28: 95
29: 95
30: 95
31: 96
32: 96
33: 96
34: 96
35: 96
36: 97
37: 97
38: 97
39: 98
40: 98
41: 99
42: 99
43: 99
44: 100
45: 100
46: 100
47: 100
48: 101
49: 101
50: 101
51: 102
52: 102
53: 102
54: 103
55: 103
56: 104
57: 105
58: 105
59: 106
60: 106
61: 106
62: 107
63: 107
64: 108
65: 108
66: 108
67: 109
68: 109
69: 110
70: 110
71: 110
72: 110
73: 110
74: 111
75: 111
76: 111
77: 112
78: 112
79: 112
80: 113
81: 113
82: 114
83: 114
84: 115
85: 115
segment: [5]
vertex id: label
90: 0
91: 1
92: 2
93: 1
94: 2
95: 1
96: 2
97: 1
98: 4
99: 2
100: 1
101: 2
102: 1
103: 2
104: 1
105: 2
106: 1
107: 2
108: 3
109: 3
110: 3
111: 3
112: 3
113: 4
114: 2
115: 1
116: 2
117: 1
118: 2
119: 3
0: 5
1: 5
2: 5
3: 5
4: 5
5: 5
6: 5
7: 5
8: 5
9: 5
10: 5
11: 5
12: 5
13: 5
14: 5
15: 5
16: 5
17: 5
18: 5
19: 5
20: 5
21: 5
22: 5
23: 5
24: 5
25: 5
26: 5
27: 5
28: 5
29: 5
30: 5
31: 5
32: 5
33: 5
34: 5
35: 5
36: 5
37: 5
38: 5
39: 5
40: 5
41: 5
42: 5
43: 5
44: 5
45: 5
46: 5
47: 5
48: 5
49: 5
50: 5
51: 5
52: 5
53: 5
54: 5
55: 5
56: 5
57: 5
58: 5
59: 5
60: 5
61: 5
62: 5
63: 5
64: 5
65: 5
66: 5
67: 5
68: 5
69: 5
70: 5
71: 5
72: 5
73: 5
74: 5
75: 5
76: 5
77: 5
78: 5
79: 5
80: 5
81: 5
82: 5
83: 5
84: 5
85: 5
86: 5
87: 5
88: 5
89: 5
edge from: to
90: 0
91: 0
91: 1
92: 8
93: 9
93: 10
93: 11
94: 12
94: 13
95: 16
96: 1
96: 17
97: 6
98: 20
98: 21
98: 22
99: 25
99: 27
100: 29
101: 9
102: 36
103: 38
103: 40
104: 41
105: 44
106: 46
107: 14
107: 32
107: 47
107: 50
108: 50
108: 52
109: 56
110: 58
111: 59
111: 60
111: 61
111: 62
112: 65
113: 4
113: 67
113: 68
114: 67
114: 69
115: 69
115: 71
116: 72
116: 74
116: 75
117: 22
118: 46
118: 77
118: 80
118: 81
119: 80
119: 83
1: 90
2: 90
3: 90
4: 91
5: 91
6: 91
7: 91
8: 91
9: 92
10: 92
11: 92
12: 93
13: 93
14: 94
15: 94
16: 94
17: 95
18: 96
19: 96
20: 96
21: 96
22: 97
23: 98
24: 98
25: 98
26: 98
27: 98
28: 99
29: 99
30: 100
31: 100
32: 100
33: 101
34: 101
35: 101
36: 101
37: 102
38: 102
39: 102
40: 102
41: 103
42: 104
43: 104
44: 104
45: 105
46: 105
47: 106
48: 106
49: 106
50: 106
51: 107
52: 107
53: 107
54: 108
55: 108
56: 108
57: 108
58: 109
59: 109
60: 110
61: 110
62: 110
63: 111
64: 111
65: 111
66: 111
67: 112
68: 112
69: 113
70: 113
71: 114
72: 114
73: 115
74: 115
75: 115
76: 116
77: 116
78: 116
79: 116
80: 117
81: 117
82: 118
83: 118
84: 118
85: 119
86: 119
87: 119
88: 119
89: 119
segment: [6]
vertex id: label
81: 0
82: 1
83: 2
84: 1
85: 4
86: 2
87: 3
88: 3
89: 3
90: 3
91: 4
92: 2
93: 1
94: 4
95: 2
96: 1
97: 2
98: 3
99: 3
100: 4
101: 2
102: 3
103: 4
104: 2
105: 1
106: 2
107: 1
108: 2
109: 1
110: 2
0: 5
1: 5
2: 5
3: 5
4: 5
5: 5
6: 5
7: 5
8: 5
9: 5
10: 5
11: 5
12: 5
13: 5
14: 5
15: 5
16: 5
17: 5
18: 5
19: 5
20: 5
21: 5
22: 5
23: 5
24: 5
25: 5
26: 5
27: 5
28: 5
29: 5
30: 5
31: 5
32: 5
33: 5
34: 5
35: 5
36: 5
37: 5
38: 5
39: 5
40: 5
41: 5
42: 5
43: 5
44: 5
45: 5
46: 5
47: 5
48: 5
49: 5
50: 5
51: 5
52: 5
53: 5
54: 5
55: 5
56: 5
57: 5
58: 5
59: 5
60: 5
61: 5
62: 5
63: 5
64: 5
65: 5
66: 5
67: 5
68: 5
69: 5
70: 5
71: 5
72: 5
73: 5
74: 5
75: 5
76: 5
77: 5
78: 5
79: 5
80: 5
edge from: to
81: 0
81: 1
82: 2
82: 3
82: 4
83: 6
84: 2
84: 7
85: 8
85: 9
86: 11
87: 4
87: 13
88: 19
89: 22
90: 23
90: 24
90: 25
91: 25
91: 27
92: 23
92: 27
92: 28
92: 29
93: 33
94: 35
95: 37
96: 11
96: 37
96: 39
97: 43
98: 48
99: 3
99: 51
100: 50
100: 51
101: 54
102: 53
102: 55
102: 56
103: 59
103: 61
103: 62
104: 64
105: 42
105: 63
105: 64
105: 65
105: 66
106: 66
107: 67
108: 69
108: 71
109: 73
109: 75
110: 22
110: 75
2: 81
3: 81
4: 81
5: 82
6: 82
7: 83
8: 84
9: 84
10: 85
11: 85
12: 86
13: 86
14: 86
15: 87
16: 87
17: 87
18: 87
19: 87
20: 88
21: 88
22: 88
23: 89
24: 89
25: 89
26: 90
27: 90
28: 91
29: 91
30: 92
31: 92
32: 92
33: 92
34: 93
35: 93
36: 94
37: 94
38: 95
39: 95
40: 96
41: 96
42: 96
43: 96
44: 97
45: 97
46: 97
47: 97
48: 97
49: 98
50: 98
51: 98
52: 99
53: 100
54: 100
55: 101
56: 101
57: 102
58: 102
59: 102
60: 102
61: 102
62: 102
63: 103
64: 103
65: 103
66: 104
67: 105
68: 106
69: 107
70: 107
71: 107
72: 107
73: 108
74: 108
75: 108
76: 108
77: 109
78: 109
79: 109
80: 110
segment: [7]
vertex id: label
94: 0
95: 4
96: 2
97: 1
98: 2
99: 1
100: 2
101: 1
102: 2
103: 1
104: 2
105: 1
106: 2
107: 3
108: 3
109: 1
110: 2
111: 1
112: 2
113: 3
114: 3
115: 1
116: 2
117: 1
118: 2
119: 3
120: 3
121: 1
122: 2
123: 3
0: 5
1: 5
2: 5
3: 5
4: 5
5: 5
6: 5
7: 5
8: 5
9: 5
10: 5
11: 5
12: 5
13: 5
14: 5
15: 5
16: 5
17: 5
18: 5
19: 5
20: 5
21: 5
22: 5
23: 5
24: 5
25: 5
26: 5
27: 5
28: 5
29: 5
30: 5
31: 5
32: 5
33: 5
34: 5
35: 5
36: 5
37: 5
38: 5
39: 5
40: 5
41: 5
42: 5
43: 5
44: 5
45: 5
46: 5
47: 5
48: 5
49: 5
50: 5
51: 5
52: 5
53: 5
54: 5
55: 5
56: 5
57: 5
58: 5
59: 5
60: 5
61: 5
62: 5
63: 5
64: 5
65: 5
66: 5
67: 5
68: 5
69: 5
70: 5
71: 5
72: 5
73: 5
74: 5
75: 5
76: 5
77: 5
78: 5
79: 5
80: 5
81: 5
82: 5
83: 5
84: 5
85: 5
86: 5
87: 5
88: 5
89: 5
90: 5
91: 5
92: 5
93: 5
edge from: to
94: 0
94: 1
95: 0
95: 2
96: 3
96: 4
97: 2
98: 5
98: 7
98: 8
99: 10
99: 11
100: 4
100: 13
101: 10
101: 14
101: 15
102: 18
103: 14
103: 23
103: 24
104: 24
104: 26
105: 9
105: 30
105: 32
106: 35
107: 37
108: 11
108: 37
108: 39
109: 44
110: 30
110: 44
110: 46
110: 47
111: 50
111: 51
112: 54
113: 54
113: 56
114: 17
114: 58
114: 61
115: 65
116: 68
117: 69
117: 71
117: 72
118: 72
119: 75
120: 46
120: 77
120: 80
121: 78
121: 81
121: 82
122: 80
122: 83
123: 87
123: 90
123: 91
2: 94
3: 95
4: 95
5: 96
6: 96
7: 96
8: 97
9: 98
10: 98
11: 98
12: 99
13: 99
14: 99
15: 100
16: 101
17: 101
18: 101
19: 102
20: 102
21: 102
22: 102
23: 102
24: 102
25: 103
26: 103
27: 104
28: 104
29: 104
30: 104
31: 104
32: 104
33: 105
34: 105
35: 105
36: 106
37: 106
38: 107
39: 107
40: 108
41: 108
42: 108
43: 108
44: 108
45: 109
46: 109
47: 109
48: 110
49: 110
50: 110
51: 110
52: 110
53: 111
54: 111
55: 111
56: 112
57: 112
58: 113
59: 113
60: 113
61: 113
62: 114
63: 114
64: 114
65: 114
66: 114
67: 115
68: 115
69: 115
70: 116
71: 116
72: 116
73: 117
74: 118
75: 118
76: 118
77: 119
78: 119
79: 119
80: 119
81: 119
82: 120
83: 121
84: 121
85: 122
86: 122
87: 122
88: 122
89: 122
90: 122
91: 122
92: 123
93: 123
segment: [8]
vertex id: label
83: 0
84: 1
85: 2
86: 3
87: 3
88: 4
89: 2
90: 1
91: 2
92: 1
93: 4
94: 2
95: 3
96: 3
97: 3
98: 3
99: 1
100: 2
101: 1
102: 2
103: 1
104: 2
105: 3
106: 1
107: 2
108: 1
109: 2
110: 1
111: 2
112: 1
0: 5
1: 5
2: 5
3: 5
4: 5
5: 5
6: 5
7: 5
8: 5
9: 5
10: 5
11: 5
12: 5
13: 5
14: 5
15: 5
16: 5
17: 5
18: 5
19: 5
20: 5
21: 5
22: 5
23: 5
24: 5
25: 5
26: 5
27: 5
28: 5
29: 5
30: 5
31: 5
32: 5
33: 5
34: 5
35: 5
36: 5
37: 5
38: 5
39: 5
40: 5
41: 5
42: 5
43: 5
44: 5
45: 5
46: 5
47: 5
48: 5
49: 5
50: 5
51: 5
52: 5
53: 5
54: 5
55: 5
56: 5
57: 5
58: 5
59: 5
60: 5
61: 5
62: 5
63: 5
64: 5
65: 5
66: 5
67: 5
68: 5
69: 5
70: 5
71: 5
72: 5
73: 5
74: 5
75: 5
76: 5
77: 5
78: 5
79: 5
80: 5
81: 5
82: 5
edge from: to
83: 0
83: 1
83: 2
84: 5
85: 5
85: 8
86: 11
87: 7
87: 11
87: 12
88: 4
88: 13
89: 14
89: 15
90: 15
90: 16
91: 18
91: 19
92: 6
93: 15
93: 22
93: 23
94: 24
94: 26
95: 27
95: 28
95: 29
96: 34
96: 36
97: 36
97: 38
98: 24
98: 40
98: 41
98: 42
99: 42
99: 43
99: 44
100: 28
100: 44
100: 46
100: 47
100: 49
101: 14
101: 47
102: 51
102: 52
102: 54
103: 53
103: 55
104: 54
104: 56
104: 57
105: 56
105: 58
105: 59
106: 17
106: 58
106: 61
107: 61
107: 63
107: 64
108: 67
109: 68
109: 70
109: 71
110: 72
111: 74
112: 74
112: 76
112: 77
3: 83
4: 83
5: 83
6: 84
7: 84
8: 84
9: 85
10: 85
11: 85
12: 86
13: 87
14: 87
15: 88
16: 89
17: 90
18: 90
19: 90
20: 91
21: 91
22: 92
23: 92
24: 93
25: 93
26: 93
27: 94
28: 94
29: 94
30: 95
31: 95
32: 95
33: 95
34: 95
35: 95
36: 95
37: 96
38: 96
39: 97
40: 97
41: 97
42: 97
43: 98
44: 98
45: 99
46: 99
47: 99
48: 99
49: 99
50: 100
51: 101
52: 101
53: 101
54: 101
55: 102
56: 102
57: 103
58: 104
59: 104
60: 105
61: 105
62: 106
63: 106
64: 106
65: 107
66: 107
67: 107
68: 107
69: 108
70: 108
71: 108
72: 109
73: 109
74: 110
75: 110
76: 111
77: 111
78: 112
79: 112
80: 112
81: 112
82: 112
segment: [9]
vertex id: label
102: 0
103: 1
104: 2
105: 1
106: 2
107: 1
108: 2
109: 1
110: 2
111: 1
112: 2
113: 3
114: 3
115: 3
116: 3
117: 3
118: 3
119: 3
120: 3
121: 3
122: 3
123: 3
124: 3
125: 4
126: 2
127: 1
128: 2
129: 1
130: 2
131: 1
0: 5
1: 5
2: 5
3: 5
4: 5
5: 5
6: 5
7: 5
8: 5
9: 5
10: 5
11: 5
12: 5
13: 5
14: 5
15: 5
16: 5
17: 5
18: 5
19: 5
20: 5
21: 5
22: 5
23: 5
24: 5
25: 5
26: 5
27: 5
28: 5
29: 5
30: 5
31: 5
32: 5
33: 5
34: 5
35: 5
36: 5
37: 5
38: 5
39: 5
40: 5
41: 5
42: 5
43: 5
44: 5
45: 5
46: 5
47: 5
48: 5
49: 5
50: 5
51: 5
52: 5
53: 5
54: 5
55: 5
56: 5
57: 5
58: 5
59: 5
60: 5
61: 5
62: 5
63: 5
64: 5
65: 5
66: 5
67: 5
68: 5
69: 5
70: 5
71: 5
72: 5
73: 5
74: 5
75: 5
76: 5
77: 5
78: 5
79: 5
80: 5
81: 5
82: 5
83: 5
84: 5
85: 5
86: 5
87: 5
88: 5
89: 5
90: 5
91: 5
92: 5
93: 5
94: 5
95: 5
96: 5
97: 5
98: 5
99: 5
100: 5
101: 5
edge from: to
102: 0
102: 1
103: 4
104: 6
105: 8
106: 4
106: 13
106: 14
107: 1
107: 16
107: 18
108: 13
108: 19
108: 20
109: 26
110: 29
110: 31
111: 37
112: 11
112: 37
113: 43
114: 43
114: 46
115: 48
116: 51
117: 55
118: 33
118: 55
118: 57
119: 61
119: 63
120: 63
120: 64
120: 65
120: 66
121: 67
121: 69
121: 70
122: 71
123: 74
124: 76
125: 22
126: 47
126: 79
126: 82
127: 81
127: 84
128: 84
128: 87
129: 89
129: 92
129: 93
130: 94
131: 95
131: 98
2: 102
3: 102
4: 102
5: 103
6: 103
7: 104
8: 104
9: 105
10: 105
11: 105
12: 105
13: 105
14: 105
15: 106
16: 106
17: 106
18: 106
19: 107
20: 107
21: 108
22: 108
23: 108
24: 108
25: 108
26: 108
27: 109
28: 109
29: 109
30: 109
31: 109
32: 110
33: 110
34: 110
35: 110
36: 110
37: 110
38: 111
39: 111
40: 112
41: 112
42: 112
43: 112
44: 113
45: 113
46: 113
47: 114
48: 114
49: 115
50: 115
51: 115
52: 115
53: 116
54: 116
55: 116
56: 116
57: 117
58: 117
59: 118
60: 118
61: 118
62: 118
63: 118
64: 118
65: 119
66: 119
67: 120
68: 120
69: 120
70: 120
71: 121
72: 121
73: 122
74: 122
75: 122
76: 123
77: 123
78: 124
79: 124
80: 125
81: 125
82: 125
83: 125
84: 126
85: 126
86: 127
87: 127
88: 127
89: 128
90: 128
91: 128
92: 128
93: 128
94: 129
95: 129
96: 130
97: 130
98: 130
99: 130
100: 131
101: 131
