segment: [0]
vertex id: label
17: 0
18: 3
19: 4
20: 0
21: 3
0: 5
1: 5
2: 5
3: 5
4: 5
5: 5
6: 5
7: 5
8: 5
9: 5
10: 5
11: 5
12: 5
13: 5
14: 5
15: 5
16: 5
edge from: to
17: 0
17: 1
17: 2
18: 5
18: 6
19: 7
19: 8
20: 6
20: 8
20: 9
20: 10
21: 7
21: 10
21: 12
3: 17
4: 17
5: 17
6: 17
7: 18
8: 18
9: 19
10: 19
11: 20
12: 20
13: 21
14: 21
15: 21
16: 21
segment: [1]
vertex id: label
18: 0
19: 3
20: 4
21: 0
22: 3
0: 5
1: 5
2: 5
3: 5
4: 5
5: 5
6: 5
7: 5
8: 5
9: 5
10: 5
11: 5
12: 5
13: 5
14: 5
15: 5
16: 5
17: 5
edge from: to
18: 0
18: 1
19: 2
20: 4
20: 6
21: 7
21: 10
22: 13
22: 14
22: 15
2: 18
3: 18
4: 19
5: 19
6: 19
7: 19
8: 20
9: 20
10: 20
11: 20
12: 20
13: 21
14: 21
15: 21
16: 22
17: 22
segment: [2]
vertex id: label
18: 0
19: 3
20: 4
21: 0
22: 3
0: 5
1: 5
2: 5
3: 5
4: 5
5: 5
6: 5
7: 5
8: 5
9: 5
10: 5
11: 5
12: 5
13: 5
14: 5
15: 5
16: 5
17: 5
edge from: to
18: 0
18: 1
19: 2
19: 3
19: 4
20: 5
20: 8
21: 13
22: 9
2: 18
3: 18
4: 18
5: 19
6: 19
7: 19
8: 19
9: 19
10: 20
11: 20
12: 20
13: 20
14: 21
15: 21
16: 21
17: 22
segment: [3]
vertex id: label
18: 0
19: 3
20: 4
21: 0
22: 3
0: 5
1: 5
2: 5
3: 5
4: 5
5: 5
6: 5
7: 5
8: 5
9: 5
10: 5
11: 5
12: 5
13: 5
14: 5
15: 5
16: 5
17: 5
edge from: to
18: 0
18: 1
19: 4
20: 7
20: 8
21: 10
22: 8
2: 18
3: 18
4: 18
5: 19
6: 19
7: 19
8: 19
9: 20
10: 20
11: 21
12: 21
13: 21
14: 21
15: 22
16: 22
17: 22
segment: [4]
vertex id: label
15: 0
16: 4
17: 0
18: 4
19: 0
0: 5
1: 5
2: 5
3: 5
4: 5
5: 5
6: 5
7: 5
8: 5
9: 5
10: 5
11: 5
12: 5
13: 5
14: 5
edge from: to
15: 0
16: 2
17: 3
17: 4
18: 5
18: 8
18: 9
19: 11
1: 15
2: 15
3: 15
4: 16
5: 16
6: 17
7: 17
8: 17
9: 17
10: 18
11: 18
12: 19
13: 19
14: 19
segment: [5]
vertex id: label
19: 0
20: 3
21: 4
22: 0
23: 0
0: 5
1: 5
2: 5
3: 5
4: 5
5: 5
6: 5
7: 5
8: 5
9: 5
10: 5
11: 5
12: 5
13: 5
14: 5
15: 5
16: 5
17: 5
18: 5
edge from: to
19: 0
19: 1
20: 3
21: 4
22: 8
23: 11
23: 13
2: 19
3: 19
4: 19
5: 19
6: 20
7: 20
8: 21
9: 22
10: 22
11: 22
12: 22
13: 22
14: 23
15: 23
16: 23
17: 23
18: 23
segment: [6]
vertex id: label
16: 0
17: 4
18: 0
19: 4
20: 0
0: 5
1: 5
2: 5
3: 5
4: 5
5: 5
6: 5
7: 5
8: 5
9: 5
10: 5
11: 5
12: 5
13: 5
14: 5
15: 5
edge from: to
16: 0
17: 2
17: 3
17: 4
17: 5
18: 4
18: 6
19: 9
19: 10
20: 6
20: 9
20: 11
1: 16
2: 16
3: 16
4: 16
5: 16
6: 17
7: 17
8: 18
9: 18
10: 18
11: 19
12: 20
13: 20
14: 20
15: 20
segment: [7]
vertex id: label
14: 0
15: 4
16: 0
17: 4
18: 0
0: 5
1: 5
2: 5
3: 5
4: 5
5: 5
6: 5
7: 5
8: 5
9: 5
10: 5
11: 5
12: 5
13: 5
edge from: to
14: 0
15: 0
15: 1
16: 1
17: 1
17: 3
17: 5
17: 6
17: 7
17: 8
18: 11
1: 14
2: 15
3: 16
4: 16
5: 16
6: 16
7: 16
8: 16
9: 17
10: 17
11: 17
12: 18
13: 18
segment: [8]
vertex id: label
11: 0
12: 3
13: 4
14: 0
15: 3
0: 5
1: 5
2: 5
3: 5
4: 5
5: 5
6: 5
7: 5
8: 5
9: 5
10: 5
edge from: to
11: 0
11: 1
12: 2
12: 3
13: 4
14: 7
14: 8
15: 5
15: 8
15: 9
2: 11
3: 11
4: 12
5: 12
6: 12
7: 12
8: 13
9: 14
10: 15
segment: [9]
vertex id: label
15: 0
16: 3
17: 4
18: 0
19: 3
0: 5
1: 5
2: 5
3: 5
4: 5
5: 5
6: 5
7: 5
8: 5
9: 5
10: 5
11: 5
12: 5
13: 5
14: 5
edge from: to
15: 0
15: 1
16: 4
17: 4
18: 9
18: 10
19: 13
2: 15
3: 15
4: 15
5: 16
6: 16
7: 16
8: 17
9: 17
10: 17
11: 18
12: 18
13: 18
14: 19
