segment: [0]
vertex id: label
141: 0
142: 0
143: 0
144: 0
145: 0
146: 0
147: 0
148: 0
149: 0
150: 0
151: 0
152: 0
153: 0
154: 0
155: 0
156: 0
157: 0
158: 0
159: 0
160: 0
161: 0
162: 0
163: 0
164: 0
165: 0
166: 0
167: 0
168: 0
169: 0
170: 0
171: 0
172: 0
173: 0
174: 0
175: 0
176: 0
177: 0
178: 0
179: 0
180: 0
181: 0
182: 0
183: 0
184: 0
185: 0
186: 0
187: 0
188: 0
189: 0
190: 0
0: 5
1: 5
2: 5
3: 5
4: 5
5: 5
6: 5
7: 5
8: 5
9: 5
10: 5
11: 5
12: 5
13: 5
14: 5
15: 5
16: 5
17: 5
18: 5
19: 5
20: 5
21: 5
22: 5
23: 5
24: 5
25: 5
26: 5
27: 5
28: 5
29: 5
30: 5
31: 5
32: 5
33: 5
34: 5
35: 5
36: 5
37: 5
38: 5
39: 5
40: 5
41: 5
42: 5
43: 5
44: 5
45: 5
46: 5
47: 5
48: 5
49: 5
50: 5
51: 5
52: 5
53: 5
54: 5
55: 5
56: 5
57: 5
58: 5
59: 5
60: 5
61: 5
62: 5
63: 5
64: 5
65: 5
66: 5
67: 5
68: 5
69: 5
70: 5
71: 5
72: 5
73: 5
74: 5
75: 5
76: 5
77: 5
78: 5
79: 5
80: 5
81: 5
82: 5
83: 5
84: 5
85: 5
86: 5
87: 5
88: 5
89: 5
90: 5
91: 5
92: 5
93: 5
94: 5
95: 5
96: 5
97: 5
98: 5
99: 5
100: 5
101: 5
102: 5
103: 5
104: 5
105: 5
106: 5
107: 5
108: 5
109: 5
110: 5
111: 5
112: 5
113: 5
114: 5
115: 5
116: 5
117: 5
118: 5
119: 5
120: 5
121: 5
122: 5
123: 5
124: 5
125: 5
126: 5
127: 5
128: 5
129: 5
130: 5
131: 5
132: 5
133: 5
134: 5
135: 5
136: 5
137: 5
138: 5
139: 5
140: 5
edge from: to
141: 0
141: 1
141: 2
141: 3
142: 5
143: 1
143: 6
143: 8
144: 13
145: 14
145: 15
146: 18
147: 20
147: 21
148: 23
149: 26
149: 27
150: 28
150: 31
151: 30
151: 31
152: 34
152: 38
153: 37
153: 38
154: 40
154: 41
155: 41
155: 42
156: 46
156: 52
156: 54
157: 49
158: 51
159: 52
159: 53
159: 59
160: 53
160: 54
161: 57
161: 64
161: 66
162: 61
163: 64
163: 65
164: 67
164: 74
164: 78
164: 80
165: 81
166: 69
166: 70
167: 72
167: 84
168: 76
168: 82
168: 85
168: 86
168: 88
168: 89
169: 76
169: 78
169: 87
170: 80
171: 1
171: 82
171: 92
171: 93
171: 96
172: 82
172: 84
172: 94
173: 83
173: 85
173: 95
173: 99
174: 102
175: 87
175: 89
176: 104
176: 107
177: 91
177: 106
177: 109
178: 94
179: 96
179: 112
180: 98
180: 100
181: 101
181: 118
182: 103
183: 121
184: 103
184: 105
185: 106
185: 124
186: 106
186: 109
186: 122
187: 111
187: 122
187: 125
187: 127
187: 130
188: 113
188: 132
189: 111
189: 114
190: 134
4: 141
5: 141
6: 141
7: 142
8: 142
9: 142
10: 143
11: 143
12: 143
13: 143
14: 143
15: 143
16: 144
17: 144
18: 145
19: 145
20: 145
21: 145
22: 146
23: 146
24: 146
25: 147
26: 147
27: 147
28: 148
29: 148
30: 148
31: 148
32: 149
33: 149
34: 150
35: 150
36: 150
37: 151
38: 151
39: 151
40: 151
41: 152
42: 152
43: 152
44: 152
45: 153
46: 153
47: 153
48: 153
49: 154
50: 155
51: 155
52: 155
53: 155
54: 155
55: 156
56: 156
57: 156
58: 157
59: 157
60: 158
61: 158
62: 158
63: 159
64: 160
65: 160
66: 160
67: 161
68: 161
69: 161
70: 161
71: 161
72: 162
73: 162
74: 162
75: 162
76: 162
77: 163
78: 163
79: 163
80: 163
81: 164
82: 165
83: 166
84: 166
85: 167
86: 167
87: 167
88: 167
89: 167
90: 168
91: 168
92: 169
93: 169
94: 170
95: 170
96: 170
97: 171
98: 171
99: 172
100: 173
101: 173
102: 173
103: 174
104: 174
105: 175
106: 175
107: 175
108: 176
109: 176
110: 177
111: 178
112: 178
113: 179
114: 179
115: 179
116: 179
117: 179
118: 180
119: 181
120: 181
121: 182
122: 183
123: 183
124: 184
125: 185
126: 185
127: 185
128: 186
129: 186
130: 186
131: 187
132: 187
133: 188
134: 189
135: 190
136: 190
137: 190
138: 190
139: 190
140: 190
segment: [1]
vertex id: label
136: 0
137: 0
138: 0
139: 0
140: 0
141: 0
142: 3
143: 0
144: 0
145: 0
146: 0
147: 0
148: 0
149: 0
150: 0
151: 0
152: 0
153: 0
154: 0
155: 0
156: 0
157: 0
158: 3
159: 0
160: 0
161: 0
162: 0
163: 0
164: 0
165: 0
166: 0
167: 0
168: 0
169: 0
170: 0
171: 0
172: 0
173: 0
174: 0
175: 0
176: 0
177: 0
178: 0
179: 0
180: 0
181: 3
182: 0
183: 0
184: 0
185: 0
0: 5
1: 5
2: 5
3: 5
4: 5
5: 5
6: 5
7: 5
8: 5
9: 5
10: 5
11: 5
12: 5
13: 5
14: 5
15: 5
16: 5
17: 5
18: 5
19: 5
20: 5
21: 5
22: 5
23: 5
24: 5
25: 5
26: 5
27: 5
28: 5
29: 5
30: 5
31: 5
32: 5
33: 5
34: 5
35: 5
36: 5
37: 5
38: 5
39: 5
40: 5
41: 5
42: 5
43: 5
44: 5
45: 5
46: 5
47: 5
48: 5
49: 5
50: 5
51: 5
52: 5
53: 5
54: 5
55: 5
56: 5
57: 5
58: 5
59: 5
60: 5
61: 5
62: 5
63: 5
64: 5
65: 5
66: 5
67: 5
68: 5
69: 5
70: 5
71: 5
72: 5
73: 5
74: 5
75: 5
76: 5
77: 5
78: 5
79: 5
80: 5
81: 5
82: 5
83: 5
84: 5
85: 5
86: 5
87: 5
88: 5
89: 5
90: 5
91: 5
92: 5
93: 5
94: 5
95: 5
96: 5
97: 5
98: 5
99: 5
100: 5
101: 5
102: 5
103: 5
104: 5
105: 5
106: 5
107: 5
108: 5
109: 5
110: 5
111: 5
112: 5
113: 5
114: 5
115: 5
116: 5
117: 5
118: 5
119: 5
120: 5
121: 5
122: 5
123: 5
124: 5
125: 5
126: 5
127: 5
128: 5
129: 5
130: 5
131: 5
132: 5
133: 5
134: 5
135: 5
edge from: to
136: 0
137: 4
137: 5
138: 6
139: 9
139: 10
140: 11
141: 13
141: 15
142: 18
142: 21
143: 21
144: 26
145: 30
145: 33
145: 35
146: 31
147: 32
147: 33
147: 36
148: 37
149: 38
150: 40
150: 47
151: 40
151: 41
152: 42
152: 43
153: 46
154: 48
154: 49
154: 56
155: 49
155: 50
155: 57
156: 57
156: 60
157: 53
157: 54
157: 60
157: 63
158: 54
158: 55
159: 57
159: 66
160: 57
160: 58
160: 65
161: 58
161: 59
162: 62
162: 72
163: 8
163: 64
163: 65
163: 73
163: 76
164: 67
164: 76
164: 78
165: 71
166: 72
166: 74
166: 84
166: 86
167: 77
168: 94
169: 81
169: 83
170: 82
170: 84
170: 94
171: 83
171: 85
171: 95
171: 99
172: 98
172: 101
173: 95
173: 99
173: 102
174: 86
174: 88
175: 87
175: 89
175: 100
176: 104
176: 107
177: 91
177: 109
178: 93
178: 95
178: 108
179: 116
180: 103
181: 103
181: 105
182: 106
183: 108
183: 124
183: 129
184: 113
184: 132
185: 112
185: 134
1: 136
2: 136
3: 136
4: 136
5: 136
6: 136
7: 137
8: 138
9: 138
10: 138
11: 138
12: 139
13: 139
14: 140
15: 140
16: 141
17: 141
18: 141
19: 141
20: 141
21: 141
22: 142
23: 142
24: 142
25: 143
26: 143
27: 143
28: 143
29: 143
30: 143
31: 144
32: 144
33: 144
34: 144
35: 144
36: 145
37: 146
38: 146
39: 147
40: 147
41: 147
42: 147
43: 147
44: 148
45: 149
46: 149
47: 149
48: 150
49: 151
50: 151
51: 152
52: 152
53: 152
54: 152
55: 153
56: 153
57: 153
58: 154
59: 155
60: 155
61: 156
62: 156
63: 156
64: 157
65: 158
66: 158
67: 159
68: 159
69: 160
70: 161
71: 161
72: 161
73: 162
74: 162
75: 162
76: 162
77: 163
78: 163
79: 164
80: 164
81: 164
82: 164
83: 164
84: 165
85: 165
86: 165
87: 166
88: 166
89: 166
90: 166
91: 167
92: 167
93: 167
94: 167
95: 168
96: 168
97: 168
98: 169
99: 170
100: 171
101: 171
102: 172
103: 173
104: 174
105: 175
106: 175
107: 175
108: 176
109: 176
110: 177
111: 177
112: 178
113: 178
114: 178
115: 178
116: 178
117: 179
118: 179
119: 179
120: 179
121: 180
122: 180
123: 180
124: 181
125: 182
126: 182
127: 182
128: 182
129: 182
130: 183
131: 183
132: 183
133: 184
134: 184
135: 185
segment: [2]
vertex id: label
149: 0
150: 0
151: 0
152: 0
153: 0
154: 0
155: 0
156: 0
157: 0
158: 0
159: 0
160: 0
161: 0
162: 0
163: 0
164: 0
165: 3
166: 0
167: 0
168: 0
169: 0
170: 0
171: 0
172: 0
173: 0
174: 0
175: 0
176: 0
177: 0
178: 0
179: 0
180: 0
181: 0
182: 0
183: 0
184: 0
185: 0
186: 0
187: 3
188: 0
189: 0
190: 0
191: 0
192: 0
193: 0
194: 0
195: 0
196: 0
197: 0
198: 0
0: 5
1: 5
2: 5
3: 5
4: 5
5: 5
6: 5
7: 5
8: 5
9: 5
10: 5
11: 5
12: 5
13: 5
14: 5
15: 5
16: 5
17: 5
18: 5
19: 5
20: 5
21: 5
22: 5
23: 5
24: 5
25: 5
26: 5
27: 5
28: 5
29: 5
30: 5
31: 5
32: 5
33: 5
34: 5
35: 5
36: 5
37: 5
38: 5
39: 5
40: 5
41: 5
42: 5
43: 5
44: 5
45: 5
46: 5
47: 5
48: 5
49: 5
50: 5
51: 5
52: 5
53: 5
54: 5
55: 5
56: 5
57: 5
58: 5
59: 5
60: 5
61: 5
62: 5
63: 5
64: 5
65: 5
66: 5
67: 5
68: 5
69: 5
70: 5
71: 5
72: 5
73: 5
74: 5
75: 5
76: 5
77: 5
78: 5
79: 5
80: 5
81: 5
82: 5
83: 5
84: 5
85: 5
86: 5
87: 5
88: 5
89: 5
90: 5
91: 5
92: 5
93: 5
94: 5
95: 5
96: 5
97: 5
98: 5
99: 5
100: 5
101: 5
102: 5
103: 5
104: 5
105: 5
106: 5
107: 5
108: 5
109: 5
110: 5
111: 5
112: 5
113: 5
114: 5
115: 5
116: 5
117: 5
118: 5
119: 5
120: 5
121: 5
122: 5
123: 5
124: 5
125: 5
126: 5
127: 5
128: 5
129: 5
130: 5
131: 5
132: 5
133: 5
134: 5
135: 5
136: 5
137: 5
138: 5
139: 5
140: 5
141: 5
142: 5
143: 5
144: 5
145: 5
146: 5
147: 5
148: 5
edge from: to
149: 0
149: 1
150: 2
151: 5
152: 10
153: 11
153: 12
154: 15
155: 17
155: 19
156: 14
156: 18
156: 21
157: 20
157: 21
158: 20
158: 25
158: 26
158: 27
158: 28
158: 29
158: 30
159: 28
159: 31
160: 31
161: 26
161: 33
161: 34
161: 37
162: 36
163: 39
163: 40
163: 45
164: 41
165: 44
165: 45
166: 46
167: 49
167: 50
167: 57
168: 51
168: 59
169: 54
170: 56
171: 58
172: 61
173: 61
173: 63
174: 63
174: 64
174: 72
175: 66
175: 77
176: 66
176: 68
176: 77
177: 71
178: 74
179: 77
179: 86
179: 87
179: 90
180: 78
181: 82
181: 92
181: 96
182: 86
182: 88
183: 91
183: 106
183: 109
184: 96
184: 112
185: 75
185: 111
185: 114
186: 115
187: 98
187: 100
187: 114
188: 102
188: 119
189: 103
189: 105
189: 118
190: 107
190: 121
190: 125
191: 111
191: 114
192: 134
193: 131
193: 136
194: 116
194: 119
195: 120
196: 118
196: 141
197: 123
197: 144
198: 125
2: 149
3: 150
4: 150
5: 150
6: 150
7: 151
8: 151
9: 151
10: 151
11: 151
12: 152
13: 152
14: 153
15: 153
16: 153
17: 153
18: 154
19: 154
20: 154
21: 155
22: 156
23: 156
24: 156
25: 157
26: 157
27: 157
28: 157
29: 157
30: 157
31: 158
32: 158
33: 158
34: 159
35: 159
36: 159
37: 160
38: 160
39: 160
40: 161
41: 161
42: 161
43: 162
44: 162
45: 162
46: 162
47: 163
48: 163
49: 164
50: 164
51: 164
52: 164
53: 165
54: 165
55: 166
56: 166
57: 166
58: 166
59: 167
60: 168
61: 168
62: 168
63: 168
64: 169
65: 169
66: 170
67: 170
68: 170
69: 171
70: 171
71: 171
72: 172
73: 172
74: 173
75: 173
76: 174
77: 174
78: 175
79: 175
80: 176
81: 176
82: 176
83: 176
84: 177
85: 177
86: 177
87: 178
88: 178
89: 178
90: 178
91: 179
92: 180
93: 180
94: 180
95: 180
96: 180
97: 181
98: 181
99: 181
100: 181
101: 181
102: 181
103: 181
104: 182
105: 182
106: 182
107: 182
108: 182
109: 182
110: 183
111: 183
112: 183
113: 184
114: 184
115: 185
116: 186
117: 186
118: 187
119: 187
120: 188
121: 188
122: 188
123: 188
124: 189
125: 189
126: 190
127: 190
128: 190
129: 190
130: 190
131: 190
132: 190
133: 190
134: 191
135: 192
136: 192
137: 193
138: 193
139: 193
140: 194
141: 195
142: 196
143: 196
144: 196
145: 197
146: 197
147: 198
148: 198
segment: [3]
vertex id: label
149: 0
150: 0
151: 0
152: 0
153: 0
154: 0
155: 0
156: 0
157: 0
158: 0
159: 0
160: 0
161: 0
162: 0
163: 0
164: 0
165: 0
166: 0
167: 0
168: 0
169: 0
170: 0
171: 0
172: 0
173: 0
174: 0
175: 0
176: 0
177: 0
178: 0
179: 0
180: 0
181: 0
182: 0
183: 0
184: 0
185: 0
186: 0
187: 0
188: 0
189: 0
190: 0
191: 0
192: 0
193: 0
194: 0
195: 0
196: 0
197: 0
198: 0
0: 5
1: 5
2: 5
3: 5
4: 5
5: 5
6: 5
7: 5
8: 5
9: 5
10: 5
11: 5
12: 5
13: 5
14: 5
15: 5
16: 5
17: 5
18: 5
19: 5
20: 5
21: 5
22: 5
23: 5
24: 5
25: 5
26: 5
27: 5
28: 5
29: 5
30: 5
31: 5
32: 5
33: 5
34: 5
35: 5
36: 5
37: 5
38: 5
39: 5
40: 5
41: 5
42: 5
43: 5
44: 5
45: 5
46: 5
47: 5
48: 5
49: 5
50: 5
51: 5
52: 5
53: 5
54: 5
55: 5
56: 5
57: 5
58: 5
59: 5
60: 5
61: 5
62: 5
63: 5
64: 5
65: 5
66: 5
67: 5
68: 5
69: 5
70: 5
71: 5
72: 5
73: 5
74: 5
75: 5
76: 5
77: 5
78: 5
79: 5
80: 5
81: 5
82: 5
83: 5
84: 5
85: 5
86: 5
87: 5
88: 5
89: 5
90: 5
91: 5
92: 5
93: 5
94: 5
95: 5
96: 5
97: 5
98: 5
99: 5
100: 5
101: 5
102: 5
103: 5
104: 5
105: 5
106: 5
107: 5
108: 5
109: 5
110: 5
111: 5
112: 5
113: 5
114: 5
115: 5
116: 5
117: 5
118: 5
119: 5
120: 5
121: 5
122: 5
123: 5
124: 5
125: 5
126: 5
127: 5
128: 5
129: 5
130: 5
131: 5
132: 5
133: 5
134: 5
135: 5
136: 5
137: 5
138: 5
139: 5
140: 5
141: 5
142: 5
143: 5
144: 5
145: 5
146: 5
147: 5
148: 5
edge from: to
149: 0
149: 1
150: 0
150: 2
151: 0
151: 4
151: 5
152: 6
153: 8
154: 11
154: 14
154: 15
154: 16
155: 15
156: 17
156: 19
157: 14
157: 18
157: 21
158: 20
158: 21
158: 24
159: 23
159: 27
160: 25
161: 28
162: 29
162: 32
162: 33
162: 34
163: 32
163: 33
164: 34
164: 38
164: 40
165: 36
166: 39
166: 40
167: 41
167: 42
168: 43
168: 44
168: 50
169: 48
169: 49
170: 51
170: 52
170: 58
171: 41
171: 52
171: 53
171: 59
172: 56
172: 65
173: 56
173: 67
174: 58
174: 59
174: 66
175: 61
175: 63
176: 62
176: 72
176: 74
177: 66
177: 68
178: 67
178: 80
179: 71
179: 83
180: 74
181: 76
181: 85
181: 89
182: 77
182: 90
183: 80
184: 81
184: 83
184: 93
185: 101
186: 102
187: 41
187: 101
187: 105
187: 108
188: 92
188: 94
189: 97
189: 113
190: 100
191: 102
192: 107
193: 129
194: 111
194: 114
194: 129
195: 112
195: 130
195: 134
196: 117
196: 132
196: 137
197: 118
197: 137
197: 141
198: 124
2: 149
3: 150
4: 150
5: 150
6: 151
7: 151
8: 152
9: 152
10: 153
11: 153
12: 153
13: 153
14: 153
15: 153
16: 153
17: 154
18: 155
19: 155
20: 155
21: 156
22: 157
23: 157
24: 157
25: 158
26: 158
27: 158
28: 159
29: 159
30: 160
31: 160
32: 160
33: 161
34: 161
35: 162
36: 162
37: 162
38: 162
39: 163
40: 163
41: 164
42: 164
43: 165
44: 165
45: 165
46: 165
47: 166
48: 166
49: 166
50: 167
51: 167
52: 168
53: 168
54: 168
55: 168
56: 168
57: 168
58: 169
59: 169
60: 169
61: 169
62: 170
63: 171
64: 171
65: 171
66: 172
67: 172
68: 173
69: 173
70: 174
71: 174
72: 174
73: 174
74: 175
75: 176
76: 176
77: 176
78: 176
79: 176
80: 177
81: 178
82: 178
83: 178
84: 179
85: 179
86: 179
87: 180
88: 180
89: 180
90: 181
91: 182
92: 182
93: 182
94: 183
95: 183
96: 183
97: 183
98: 184
99: 184
100: 184
101: 184
102: 185
103: 186
104: 186
105: 186
106: 186
107: 186
108: 186
109: 187
110: 187
111: 188
112: 188
113: 188
114: 189
115: 189
116: 189
117: 189
118: 190
119: 190
120: 191
121: 191
122: 191
123: 191
124: 191
125: 191
126: 192
127: 192
128: 192
129: 192
130: 193
131: 193
132: 193
133: 193
134: 194
135: 195
136: 195
137: 195
138: 196
139: 196
140: 196
141: 196
142: 197
143: 197
144: 197
145: 197
146: 198
147: 198
148: 198
segment: [4]
vertex id: label
149: 0
150: 0
151: 0
152: 0
153: 0
154: 0
155: 0
156: 0
157: 0
158: 0
159: 0
160: 0
161: 0
162: 0
163: 0
164: 0
165: 0
166: 0
167: 0
168: 0
169: 0
170: 0
171: 0
172: 0
173: 0
174: 0
175: 0
176: 0
177: 0
178: 0
179: 0
180: 0
181: 0
182: 0
183: 0
184: 0
185: 0
186: 0
187: 0
188: 0
189: 0
190: 0
191: 0
192: 0
193: 0
194: 0
195: 0
196: 0
197: 3
198: 0
0: 5
1: 5
2: 5
3: 5
4: 5
5: 5
6: 5
7: 5
8: 5
9: 5
10: 5
11: 5
12: 5
13: 5
14: 5
15: 5
16: 5
17: 5
18: 5
19: 5
20: 5
21: 5
22: 5
23: 5
24: 5
25: 5
26: 5
27: 5
28: 5
29: 5
30: 5
31: 5
32: 5
33: 5
34: 5
35: 5
36: 5
37: 5
38: 5
39: 5
40: 5
41: 5
42: 5
43: 5
44: 5
45: 5
46: 5
47: 5
48: 5
49: 5
50: 5
51: 5
52: 5
53: 5
54: 5
55: 5
56: 5
57: 5
58: 5
59: 5
60: 5
61: 5
62: 5
63: 5
64: 5
65: 5
66: 5
67: 5
68: 5
69: 5
70: 5
71: 5
72: 5
73: 5
74: 5
75: 5
76: 5
77: 5
78: 5
79: 5
80: 5
81: 5
82: 5
83: 5
84: 5
85: 5
86: 5
87: 5
88: 5
89: 5
90: 5
91: 5
92: 5
93: 5
94: 5
95: 5
96: 5
97: 5
98: 5
99: 5
100: 5
101: 5
102: 5
103: 5
104: 5
105: 5
106: 5
107: 5
108: 5
109: 5
110: 5
111: 5
112: 5
113: 5
114: 5
115: 5
116: 5
117: 5
118: 5
119: 5
120: 5
121: 5
122: 5
123: 5
124: 5
125: 5
126: 5
127: 5
128: 5
129: 5
130: 5
131: 5
132: 5
133: 5
134: 5
135: 5
136: 5
137: 5
138: 5
139: 5
140: 5
141: 5
142: 5
143: 5
144: 5
145: 5
146: 5
147: 5
148: 5
edge from: to
149: 0
150: 2
150: 3
150: 4
151: 6
151: 8
152: 9
152: 10
152: 11
153: 13
153: 15
154: 14
154: 15
155: 16
155: 17
155: 19
156: 21
157: 18
157: 23
157: 27
158: 26
158: 27
158: 30
159: 29
160: 32
161: 32
161: 33
162: 36
162: 37
162: 42
163: 39
164: 39
164: 40
164: 45
165: 42
165: 43
166: 46
167: 47
167: 48
167: 55
168: 48
168: 49
168: 56
169: 60
170: 52
171: 53
171: 54
172: 56
172: 62
172: 65
173: 67
174: 61
174: 71
175: 63
175: 64
176: 68
177: 72
177: 82
177: 84
178: 73
178: 85
178: 87
179: 74
179: 84
179: 88
180: 77
180: 86
180: 90
181: 78
181: 80
182: 95
183: 81
183: 83
183: 93
184: 98
184: 101
185: 91
185: 106
186: 93
186: 95
187: 96
187: 115
188: 100
189: 102
189: 119
190: 101
190: 116
190: 121
191: 107
191: 125
192: 108
192: 121
192: 126
193: 108
193: 124
193: 129
194: 112
194: 130
194: 134
195: 113
195: 135
196: 118
196: 138
197: 138
197: 139
197: 142
198: 126
1: 149
2: 149
3: 149
4: 149
5: 150
6: 150
7: 150
8: 150
9: 150
10: 151
11: 151
12: 152
13: 152
14: 152
15: 152
16: 153
17: 154
18: 154
19: 154
20: 155
21: 155
22: 155
23: 155
24: 155
25: 156
26: 156
27: 156
28: 157
29: 157
30: 157
31: 157
32: 158
33: 158
34: 158
35: 159
36: 159
37: 159
38: 160
39: 161
40: 161
41: 161
42: 161
43: 161
44: 162
45: 162
46: 163
47: 164
48: 164
49: 164
50: 164
51: 165
52: 165
53: 165
54: 165
55: 166
56: 166
57: 167
58: 168
59: 168
60: 168
61: 169
62: 170
63: 170
64: 171
65: 171
66: 172
67: 172
68: 173
69: 173
70: 173
71: 173
72: 174
73: 174
74: 174
75: 174
76: 175
77: 175
78: 175
79: 175
80: 176
81: 176
82: 176
83: 176
84: 176
85: 177
86: 177
87: 177
88: 178
89: 179
90: 179
91: 180
92: 180
93: 180
94: 181
95: 181
96: 182
97: 182
98: 183
99: 183
100: 183
101: 183
102: 184
103: 184
104: 184
105: 184
106: 184
107: 185
108: 185
109: 185
110: 185
111: 185
112: 186
113: 186
114: 186
115: 186
116: 187
117: 187
118: 188
119: 188
120: 189
121: 189
122: 190
123: 190
124: 190
125: 190
126: 191
127: 192
128: 192
129: 192
130: 193
131: 193
132: 193
133: 193
134: 193
135: 194
136: 195
137: 195
138: 195
139: 196
140: 196
141: 196
142: 196
143: 197
144: 197
145: 197
146: 197
147: 197
148: 198
segment: [5]
vertex id: label
144: 0
145: 0
146: 0
147: 0
148: 0
149: 0
150: 0
151: 0
152: 0
153: 0
154: 0
155: 0
156: 0
157: 0
158: 0
159: 0
160: 0
161: 0
162: 0
163: 0
164: 0
165: 0
166: 0
167: 0
168: 0
169: 0
170: 0
171: 0
172: 0
173: 0
174: 0
175: 0
176: 0
177: 0
178: 0
179: 0
180: 0
181: 0
182: 0
183: 0
184: 0
185: 0
186: 0
187: 0
188: 0
189: 0
190: 0
191: 0
192: 0
193: 0
0: 5
1: 5
2: 5
3: 5
4: 5
5: 5
6: 5
7: 5
8: 5
9: 5
10: 5
11: 5
12: 5
13: 5
14: 5
15: 5
16: 5
17: 5
18: 5
19: 5
20: 5
21: 5
22: 5
23: 5
24: 5
25: 5
26: 5
27: 5
28: 5
29: 5
30: 5
31: 5
32: 5
33: 5
34: 5
35: 5
36: 5
37: 5
38: 5
39: 5
40: 5
41: 5
42: 5
43: 5
44: 5
45: 5
46: 5
47: 5
48: 5
49: 5
50: 5
51: 5
52: 5
53: 5
54: 5
55: 5
56: 5
57: 5
58: 5
59: 5
60: 5
61: 5
62: 5
63: 5
64: 5
65: 5
66: 5
67: 5
68: 5
69: 5
70: 5
71: 5
72: 5
73: 5
74: 5
75: 5
76: 5
77: 5
78: 5
79: 5
80: 5
81: 5
82: 5
83: 5
84: 5
85: 5
86: 5
87: 5
88: 5
89: 5
90: 5
91: 5
92: 5
93: 5
94: 5
95: 5
96: 5
97: 5
98: 5
99: 5
100: 5
101: 5
102: 5
103: 5
104: 5
105: 5
106: 5
107: 5
108: 5
109: 5
110: 5
111: 5
112: 5
113: 5
114: 5
115: 5
116: 5
117: 5
118: 5
119: 5
120: 5
121: 5
122: 5
123: 5
124: 5
125: 5
126: 5
127: 5
128: 5
129: 5
130: 5
131: 5
132: 5
133: 5
134: 5
135: 5
136: 5
137: 5
138: 5
139: 5
140: 5
141: 5
142: 5
143: 5
edge from: to
144: 0
144: 1
145: 3
146: 5
147: 0
147: 9
147: 10
147: 11
148: 11
149: 12
149: 13
149: 14
150: 17
151: 19
152: 21
153: 24
154: 26
155: 26
155: 27
156: 28
156: 31
157: 30
157: 31
158: 32
159: 35
159: 36
160: 39
160: 40
161: 44
162: 46
163: 48
164: 51
164: 52
165: 56
165: 62
165: 65
166: 56
166: 62
166: 64
166: 65
166: 67
167: 59
168: 63
168: 64
168: 72
169: 66
169: 68
169: 77
169: 79
170: 80
171: 70
172: 71
173: 88
174: 77
174: 90
175: 80
176: 82
176: 96
177: 83
178: 24
178: 94
178: 98
178: 100
178: 101
179: 89
180: 93
180: 95
180: 108
181: 97
181: 110
181: 113
182: 100
183: 102
184: 122
185: 107
186: 108
186: 121
186: 126
187: 129
188: 112
188: 131
189: 112
189: 134
190: 136
191: 118
191: 133
191: 138
192: 117
192: 120
193: 141
2: 144
3: 144
4: 145
5: 145
6: 145
7: 146
8: 146
9: 146
10: 146
11: 146
12: 147
13: 148
14: 148
15: 149
16: 149
17: 149
18: 149
19: 149
20: 150
21: 150
22: 150
23: 151
24: 151
25: 152
26: 152
27: 152
28: 152
29: 153
30: 153
31: 154
32: 155
33: 155
34: 156
35: 156
36: 156
37: 157
38: 158
39: 158
40: 158
41: 158
42: 158
43: 159
44: 159
45: 159
46: 159
47: 160
48: 160
49: 160
50: 160
51: 160
52: 161
53: 161
54: 161
55: 162
56: 162
57: 163
58: 163
59: 163
60: 163
61: 163
62: 164
63: 164
64: 164
65: 164
66: 165
67: 165
68: 166
69: 166
70: 167
71: 167
72: 167
73: 167
74: 167
75: 167
76: 168
77: 168
78: 168
79: 168
80: 169
81: 170
82: 170
83: 171
84: 172
85: 172
86: 172
87: 172
88: 172
89: 173
90: 173
91: 174
92: 174
93: 174
94: 175
95: 175
96: 175
97: 176
98: 177
99: 177
100: 177
101: 177
102: 178
103: 178
104: 178
105: 179
106: 179
107: 179
108: 179
109: 179
110: 179
111: 179
112: 180
113: 180
114: 181
115: 181
116: 181
117: 181
118: 182
119: 182
120: 183
121: 183
122: 183
123: 184
124: 184
125: 184
126: 185
127: 186
128: 186
129: 186
130: 187
131: 187
132: 188
133: 188
134: 188
135: 189
136: 189
137: 190
138: 190
139: 191
140: 191
141: 192
142: 193
143: 193
segment: [6]
vertex id: label
144: 0
145: 0
146: 0
147: 0
148: 0
149: 0
150: 0
151: 0
152: 0
153: 0
154: 0
155: 0
156: 0
157: 0
158: 0
159: 0
160: 0
161: 0
162: 0
163: 0
164: 0
165: 1
166: 0
167: 0
168: 0
169: 0
170: 0
171: 0
172: 0
173: 0
174: 0
175: 0
176: 3
177: 0
178: 0
179: 0
180: 0
181: 0
182: 0
183: 0
184: 0
185: 0
186: 0
187: 0
188: 0
189: 0
190: 0
191: 0
192: 0
193: 0
0: 5
1: 5
2: 5
3: 5
4: 5
5: 5
6: 5
7: 5
8: 5
9: 5
10: 5
11: 5
12: 5
13: 5
14: 5
15: 5
16: 5
17: 5
18: 5
19: 5
20: 5
21: 5
22: 5
23: 5
24: 5
25: 5
26: 5
27: 5
28: 5
29: 5
30: 5
31: 5
32: 5
33: 5
34: 5
35: 5
36: 5
37: 5
38: 5
39: 5
40: 5
41: 5
42: 5
43: 5
44: 5
45: 5
46: 5
47: 5
48: 5
49: 5
50: 5
51: 5
52: 5
53: 5
54: 5
55: 5
56: 5
57: 5
58: 5
59: 5
60: 5
61: 5
62: 5
63: 5
64: 5
65: 5
66: 5
67: 5
68: 5
69: 5
70: 5
71: 5
72: 5
73: 5
74: 5
75: 5
76: 5
77: 5
78: 5
79: 5
80: 5
81: 5
82: 5
83: 5
84: 5
85: 5
86: 5
87: 5
88: 5
89: 5
90: 5
91: 5
92: 5
93: 5
94: 5
95: 5
96: 5
97: 5
98: 5
99: 5
100: 5
101: 5
102: 5
103: 5
104: 5
105: 5
106: 5
107: 5
108: 5
109: 5
110: 5
111: 5
112: 5
113: 5
114: 5
115: 5
116: 5
117: 5
118: 5
119: 5
120: 5
121: 5
122: 5
123: 5
124: 5
125: 5
126: 5
127: 5
128: 5
129: 5
130: 5
131: 5
132: 5
133: 5
134: 5
135: 5
136: 5
137: 5
138: 5
139: 5
140: 5
141: 5
142: 5
143: 5
edge from: to
144: 0
144: 1
144: 2
144: 3
145: 1
145: 6
145: 8
146: 9
146: 10
147: 12
147: 13
147: 14
148: 11
148: 14
148: 15
148: 16
149: 15
149: 16
150: 17
150: 19
150: 20
151: 19
151: 20
151: 23
152: 23
153: 25
153: 29
154: 26
155: 22
155: 28
155: 31
155: 32
156: 31
157: 34
157: 38
158: 37
158: 38
159: 32
159: 40
159: 41
159: 47
160: 46
160: 54
161: 46
161: 47
161: 53
161: 54
161: 55
162: 48
162: 49
162: 56
163: 51
164: 51
164: 52
165: 53
165: 54
166: 57
166: 66
167: 61
167: 71
168: 62
168: 74
169: 8
169: 64
169: 65
169: 73
169: 76
170: 67
170: 78
171: 80
172: 71
172: 81
172: 83
173: 72
173: 82
173: 84
174: 74
174: 88
175: 78
176: 91
176: 92
176: 95
177: 83
178: 86
179: 99
179: 102
180: 104
180: 107
181: 93
181: 95
182: 97
182: 106
182: 110
182: 113
183: 101
183: 118
184: 103
184: 120
185: 101
185: 116
185: 121
186: 103
186: 105
187: 107
187: 121
187: 125
188: 129
189: 113
190: 111
190: 114
190: 129
190: 133
191: 117
191: 137
192: 119
193: 118
193: 141
4: 144
5: 144
6: 144
7: 144
8: 144
9: 144
10: 145
11: 145
12: 146
13: 146
14: 146
15: 147
16: 147
17: 148
18: 148
19: 149
20: 149
21: 150
22: 150
23: 150
24: 151
25: 151
26: 151
27: 151
28: 152
29: 152
30: 153
31: 154
32: 154
33: 154
34: 155
35: 155
36: 155
37: 156
38: 156
39: 156
40: 156
41: 157
42: 157
43: 157
44: 157
45: 158
46: 158
47: 158
48: 158
49: 159
50: 159
51: 159
52: 159
53: 159
54: 159
55: 160
56: 161
57: 161
58: 162
59: 162
60: 163
61: 163
62: 164
63: 164
64: 165
65: 165
66: 165
67: 166
68: 166
69: 166
70: 166
71: 166
72: 167
73: 167
74: 167
75: 168
76: 168
77: 169
78: 169
79: 170
80: 170
81: 171
82: 171
83: 171
84: 172
85: 173
86: 173
87: 173
88: 173
89: 174
90: 174
91: 174
92: 175
93: 175
94: 175
95: 175
96: 176
97: 176
98: 177
99: 177
100: 177
101: 178
102: 178
103: 179
104: 179
105: 179
106: 179
107: 179
108: 180
109: 180
110: 180
111: 180
112: 181
113: 181
114: 182
115: 182
116: 182
117: 182
118: 182
119: 183
120: 183
121: 184
122: 185
123: 185
124: 186
125: 186
126: 187
127: 187
128: 187
129: 187
130: 188
131: 188
132: 188
133: 189
134: 190
135: 190
136: 190
137: 190
138: 191
139: 191
140: 192
141: 192
142: 193
143: 193
segment: [7]
vertex id: label
156: 0
157: 0
158: 0
159: 0
160: 0
161: 0
162: 0
163: 0
164: 0
165: 0
166: 0
167: 0
168: 0
169: 0
170: 0
171: 0
172: 0
173: 0
174: 0
175: 0
176: 0
177: 0
178: 0
179: 0
180: 0
181: 0
182: 0
183: 0
184: 0
185: 0
186: 0
187: 0
188: 0
189: 0
190: 0
191: 0
192: 0
193: 0
194: 0
195: 0
196: 0
197: 0
198: 0
199: 0
200: 0
201: 0
202: 0
203: 0
204: 0
205: 0
0: 5
1: 5
2: 5
3: 5
4: 5
5: 5
6: 5
7: 5
8: 5
9: 5
10: 5
11: 5
12: 5
13: 5
14: 5
15: 5
16: 5
17: 5
18: 5
19: 5
20: 5
21: 5
22: 5
23: 5
24: 5
25: 5
26: 5
27: 5
28: 5
29: 5
30: 5
31: 5
32: 5
33: 5
34: 5
35: 5
36: 5
37: 5
38: 5
39: 5
40: 5
41: 5
42: 5
43: 5
44: 5
45: 5
46: 5
47: 5
48: 5
49: 5
50: 5
51: 5
52: 5
53: 5
54: 5
55: 5
56: 5
57: 5
58: 5
59: 5
60: 5
61: 5
62: 5
63: 5
64: 5
65: 5
66: 5
67: 5
68: 5
69: 5
70: 5
71: 5
72: 5
73: 5
74: 5
75: 5
76: 5
77: 5
78: 5
79: 5
80: 5
81: 5
82: 5
83: 5
84: 5
85: 5
86: 5
87: 5
88: 5
89: 5
90: 5
91: 5
92: 5
93: 5
94: 5
95: 5
96: 5
97: 5
98: 5
99: 5
100: 5
101: 5
102: 5
103: 5
104: 5
105: 5
106: 5
107: 5
108: 5
109: 5
110: 5
111: 5
112: 5
113: 5
114: 5
115: 5
116: 5
117: 5
118: 5
119: 5
120: 5
121: 5
122: 5
123: 5
124: 5
125: 5
126: 5
127: 5
128: 5
129: 5
130: 5
131: 5
132: 5
133: 5
134: 5
135: 5
136: 5
137: 5
138: 5
139: 5
140: 5
141: 5
142: 5
143: 5
144: 5
145: 5
146: 5
147: 5
148: 5
149: 5
150: 5
151: 5
152: 5
153: 5
154: 5
155: 5
edge from: to
156: 0
157: 0
157: 2
158: 4
158: 5
158: 6
159: 10
160: 13
160: 15
161: 15
162: 17
162: 19
163: 19
164: 21
164: 22
165: 25
165: 27
165: 29
166: 30
166: 33
166: 35
167: 33
168: 34
169: 36
170: 40
171: 42
171: 43
171: 49
172: 48
173: 51
173: 59
174: 54
175: 56
175: 65
176: 56
176: 67
177: 59
177: 60
177: 67
178: 63
178: 64
178: 72
178: 73
178: 75
179: 68
180: 67
180: 80
181: 69
181: 70
182: 72
182: 84
183: 73
183: 87
184: 77
184: 79
185: 79
185: 91
185: 94
186: 82
186: 96
187: 85
188: 102
189: 89
190: 107
191: 91
191: 109
192: 97
192: 113
193: 96
193: 115
194: 101
194: 116
194: 121
195: 107
195: 125
196: 129
197: 113
197: 128
197: 132
198: 113
198: 131
198: 135
199: 131
199: 136
200: 118
200: 138
201: 138
201: 139
201: 142
202: 121
202: 124
203: 123
203: 126
203: 141
203: 147
204: 126
204: 129
205: 148
205: 154
1: 156
2: 156
3: 157
4: 157
5: 157
6: 157
7: 158
8: 158
9: 158
10: 158
11: 158
12: 159
13: 159
14: 159
15: 159
16: 160
17: 160
18: 161
19: 161
20: 161
21: 162
22: 162
23: 163
24: 163
25: 163
26: 164
27: 164
28: 164
29: 164
30: 165
31: 165
32: 165
33: 165
34: 165
35: 165
36: 166
37: 166
38: 166
39: 167
40: 168
41: 168
42: 168
43: 169
44: 169
45: 169
46: 169
47: 169
48: 170
49: 170
50: 170
51: 171
52: 171
53: 171
54: 171
55: 171
56: 171
57: 172
58: 172
59: 172
60: 173
61: 173
62: 173
63: 173
64: 174
65: 174
66: 175
67: 175
68: 176
69: 176
70: 176
71: 177
72: 177
73: 177
74: 177
75: 177
76: 178
77: 178
78: 178
79: 178
80: 179
81: 180
82: 180
83: 181
84: 181
85: 182
86: 182
87: 182
88: 183
89: 183
90: 183
91: 183
92: 183
93: 184
94: 184
95: 185
96: 185
97: 186
98: 186
99: 186
100: 187
101: 187
102: 187
103: 188
104: 188
105: 189
106: 189
107: 189
108: 190
109: 190
110: 191
111: 191
112: 191
113: 191
114: 192
115: 192
116: 193
117: 193
118: 193
119: 193
120: 193
121: 193
122: 194
123: 194
124: 194
125: 194
126: 195
127: 195
128: 195
129: 195
130: 196
131: 196
132: 196
133: 197
134: 197
135: 197
136: 198
137: 199
138: 199
139: 200
140: 200
141: 200
142: 200
143: 201
144: 201
145: 201
146: 202
147: 202
148: 203
149: 203
150: 203
151: 203
152: 204
153: 204
154: 204
155: 205
segment: [8]
vertex id: label
156: 0
157: 0
158: 0
159: 0
160: 0
161: 0
162: 0
163: 0
164: 0
165: 0
166: 0
167: 0
168: 0
169: 0
170: 0
171: 0
172: 0
173: 0
174: 0
175: 0
176: 0
177: 0
178: 0
179: 0
180: 0
181: 0
182: 0
183: 0
184: 0
185: 3
186: 0
187: 0
188: 0
189: 0
190: 0
191: 0
192: 0
193: 0
194: 0
195: 0
196: 0
197: 0
198: 0
199: 0
200: 0
201: 3
202: 0
203: 0
204: 0
205: 0
0: 5
1: 5
2: 5
3: 5
4: 5
5: 5
6: 5
7: 5
8: 5
9: 5
10: 5
11: 5
12: 5
13: 5
14: 5
15: 5
16: 5
17: 5
18: 5
19: 5
20: 5
21: 5
22: 5
23: 5
24: 5
25: 5
26: 5
27: 5
28: 5
29: 5
30: 5
31: 5
32: 5
33: 5
34: 5
35: 5
36: 5
37: 5
38: 5
39: 5
40: 5
41: 5
42: 5
43: 5
44: 5
45: 5
46: 5
47: 5
48: 5
49: 5
50: 5
51: 5
52: 5
53: 5
54: 5
55: 5
56: 5
57: 5
58: 5
59: 5
60: 5
61: 5
62: 5
63: 5
64: 5
65: 5
66: 5
67: 5
68: 5
69: 5
70: 5
71: 5
72: 5
73: 5
74: 5
75: 5
76: 5
77: 5
78: 5
79: 5
80: 5
81: 5
82: 5
83: 5
84: 5
85: 5
86: 5
87: 5
88: 5
89: 5
90: 5
91: 5
92: 5
93: 5
94: 5
95: 5
96: 5
97: 5
98: 5
99: 5
100: 5
101: 5
102: 5
103: 5
104: 5
105: 5
106: 5
107: 5
108: 5
109: 5
110: 5
111: 5
112: 5
113: 5
114: 5
115: 5
116: 5
117: 5
118: 5
119: 5
120: 5
121: 5
122: 5
123: 5
124: 5
125: 5
126: 5
127: 5
128: 5
129: 5
130: 5
131: 5
132: 5
133: 5
134: 5
135: 5
136: 5
137: 5
138: 5
139: 5
140: 5
141: 5
142: 5
143: 5
144: 5
145: 5
146: 5
147: 5
148: 5
149: 5
150: 5
151: 5
152: 5
153: 5
154: 5
155: 5
edge from: to
156: 0
156: 1
156: 2
157: 0
157: 4
157: 5
158: 8
159: 11
160: 13
161: 17
161: 18
161: 19
161: 20
162: 20
162: 21
162: 24
163: 23
164: 27
165: 33
166: 34
166: 38
167: 36
167: 37
167: 42
168: 40
169: 42
169: 43
170: 47
171: 48
172: 49
172: 50
172: 57
173: 51
173: 59
174: 51
174: 52
175: 57
176: 59
177: 60
178: 61
178: 71
179: 63
179: 64
179: 72
180: 66
180: 77
181: 67
181: 76
181: 78
182: 69
182: 70
183: 71
183: 81
183: 83
184: 72
184: 74
185: 74
185: 88
186: 76
186: 78
186: 87
187: 78
187: 80
188: 95
189: 83
189: 85
189: 95
190: 86
190: 88
190: 100
191: 107
192: 75
192: 107
192: 111
192: 114
193: 96
193: 115
194: 101
194: 113
194: 118
195: 101
195: 121
196: 106
197: 109
198: 111
199: 113
199: 128
199: 129
199: 132
200: 127
200: 131
200: 133
200: 136
201: 116
201: 119
202: 142
203: 123
204: 144
204: 150
205: 131
3: 156
4: 156
5: 156
6: 157
7: 157
8: 157
9: 157
10: 158
11: 158
12: 158
13: 159
14: 159
15: 159
16: 160
17: 160
18: 160
19: 160
20: 160
21: 161
22: 161
23: 161
24: 161
25: 162
26: 162
27: 162
28: 163
29: 163
30: 163
31: 163
32: 164
33: 164
34: 164
35: 164
36: 164
37: 164
38: 164
39: 165
40: 165
41: 166
42: 166
43: 166
44: 167
45: 167
46: 167
47: 168
48: 168
49: 168
50: 168
51: 169
52: 169
53: 169
54: 169
55: 169
56: 170
57: 171
58: 171
59: 172
60: 173
61: 173
62: 174
63: 174
64: 174
65: 174
66: 174
67: 175
68: 175
69: 175
70: 176
71: 177
72: 178
73: 178
74: 178
75: 178
76: 179
77: 179
78: 180
79: 181
80: 181
81: 181
82: 181
83: 182
84: 183
85: 183
86: 183
87: 184
88: 184
89: 185
90: 185
91: 185
92: 186
93: 186
94: 187
95: 187
96: 188
97: 188
98: 188
99: 188
100: 189
101: 189
102: 189
103: 189
104: 190
105: 190
106: 190
107: 190
108: 191
109: 191
110: 191
111: 191
112: 191
113: 191
114: 191
115: 192
116: 193
117: 193
118: 193
119: 194
120: 194
121: 194
122: 195
123: 195
124: 195
125: 196
126: 196
127: 196
128: 197
129: 197
130: 197
131: 198
132: 198
133: 199
134: 199
135: 199
136: 199
137: 200
138: 200
139: 200
140: 201
141: 201
142: 201
143: 202
144: 202
145: 203
146: 203
147: 203
148: 203
149: 203
150: 203
151: 204
152: 204
153: 204
154: 205
155: 205
segment: [9]
vertex id: label
145: 0
146: 0
147: 0
148: 0
149: 0
150: 0
151: 0
152: 0
153: 0
154: 0
155: 0
156: 0
157: 0
158: 0
159: 0
160: 0
161: 0
162: 0
163: 0
164: 0
165: 0
166: 0
167: 0
168: 0
169: 0
170: 0
171: 0
172: 0
173: 0
174: 0
175: 0
176: 0
177: 0
178: 0
179: 0
180: 0
181: 0
182: 0
183: 0
184: 0
185: 0
186: 0
187: 0
188: 0
189: 0
190: 0
191: 0
192: 0
193: 0
194: 0
0: 5
1: 5
2: 5
3: 5
4: 5
5: 5
6: 5
7: 5
8: 5
9: 5
10: 5
11: 5
12: 5
13: 5
14: 5
15: 5
16: 5
17: 5
18: 5
19: 5
20: 5
21: 5
22: 5
23: 5
24: 5
25: 5
26: 5
27: 5
28: 5
29: 5
30: 5
31: 5
32: 5
33: 5
34: 5
35: 5
36: 5
37: 5
38: 5
39: 5
40: 5
41: 5
42: 5
43: 5
44: 5
45: 5
46: 5
47: 5
48: 5
49: 5
50: 5
51: 5
52: 5
53: 5
54: 5
55: 5
56: 5
57: 5
58: 5
59: 5
60: 5
61: 5
62: 5
63: 5
64: 5
65: 5
66: 5
67: 5
68: 5
69: 5
70: 5
71: 5
72: 5
73: 5
74: 5
75: 5
76: 5
77: 5
78: 5
79: 5
80: 5
81: 5
82: 5
83: 5
84: 5
85: 5
86: 5
87: 5
88: 5
89: 5
90: 5
91: 5
92: 5
93: 5
94: 5
95: 5
96: 5
97: 5
98: 5
99: 5
100: 5
101: 5
102: 5
103: 5
104: 5
105: 5
106: 5
107: 5
108: 5
109: 5
110: 5
111: 5
112: 5
113: 5
114: 5
115: 5
116: 5
117: 5
118: 5
119: 5
120: 5
121: 5
122: 5
123: 5
124: 5
125: 5
126: 5
127: 5
128: 5
129: 5
130: 5
131: 5
132: 5
133: 5
134: 5
135: 5
136: 5
137: 5
138: 5
139: 5
140: 5
141: 5
142: 5
143: 5
144: 5
edge from: to
145: 0
146: 0
146: 1
146: 2
147: 4
147: 5
148: 8
149: 12
150: 16
150: 17
150: 19
151: 19
151: 22
152: 21
153: 18
153: 23
153: 26
153: 27
154: 25
155: 27
156: 31
156: 32
156: 36
157: 35
158: 35
158: 36
159: 40
160: 42
160: 43
161: 46
161: 54
162: 46
162: 47
163: 49
163: 50
163: 57
164: 39
164: 51
164: 56
164: 59
165: 53
166: 56
166: 65
167: 67
168: 57
168: 58
169: 59
170: 63
171: 64
171: 65
171: 73
172: 71
172: 81
172: 83
173: 73
173: 87
174: 77
174: 79
174: 88
174: 89
174: 92
175: 78
175: 80
176: 91
176: 92
176: 95
177: 86
178: 99
178: 102
179: 88
179: 90
180: 107
181: 91
181: 109
182: 96
182: 112
183: 115
184: 98
184: 100
185: 102
186: 101
186: 121
187: 106
188: 107
188: 123
188: 128
189: 112
189: 131
190: 111
190: 114
190: 129
191: 113
191: 135
192: 118
192: 138
193: 119
194: 118
194: 137
194: 138
194: 141
1: 145
2: 145
3: 146
4: 146
5: 146
6: 147
7: 147
8: 147
9: 147
10: 148
11: 148
12: 148
13: 148
14: 148
15: 149
16: 149
17: 149
18: 149
19: 149
20: 150
21: 150
22: 150
23: 151
24: 151
25: 152
26: 152
27: 152
28: 153
29: 153
30: 154
31: 154
32: 155
33: 155
34: 155
35: 155
36: 155
37: 155
38: 156
39: 156
40: 156
41: 156
42: 157
43: 158
44: 158
45: 158
46: 158
47: 158
48: 159
49: 159
50: 159
51: 160
52: 160
53: 160
54: 160
55: 161
56: 162
57: 162
58: 162
59: 163
60: 164
61: 164
62: 164
63: 165
64: 165
65: 165
66: 166
67: 166
68: 167
69: 168
70: 169
71: 169
72: 169
73: 169
74: 170
75: 170
76: 170
77: 171
78: 171
79: 171
80: 171
81: 171
82: 171
83: 171
84: 172
85: 172
86: 172
87: 172
88: 173
89: 173
90: 173
91: 173
92: 173
93: 174
94: 175
95: 175
96: 176
97: 176
98: 176
99: 176
100: 176
101: 177
102: 177
103: 178
104: 178
105: 178
106: 179
107: 179
108: 180
109: 180
110: 181
111: 181
112: 181
113: 182
114: 182
115: 182
116: 183
117: 183
118: 184
119: 184
120: 185
121: 185
122: 186
123: 186
124: 186
125: 187
126: 187
127: 187
128: 187
129: 188
130: 188
131: 188
132: 189
133: 189
134: 190
135: 190
136: 191
137: 191
138: 191
139: 192
140: 193
141: 193
142: 194
143: 194
144: 194
