segment: [0]
vertex id: label
19: 0
20: 4
21: 0
22: 4
23: 0
0: 5
1: 5
2: 5
3: 5
4: 5
5: 5
6: 5
7: 5
8: 5
9: 5
10: 5
11: 5
12: 5
13: 5
14: 5
15: 5
16: 5
17: 5
18: 5
edge from: to
19: 0
19: 1
19: 2
20: 1
20: 2
21: 1
21: 5
21: 7
21: 8
22: 3
22: 10
23: 14
3: 19
4: 20
5: 20
6: 20
7: 20
8: 20
9: 21
10: 21
11: 22
12: 22
13: 22
14: 22
15: 23
16: 23
17: 23
18: 23
segment: [1]
vertex id: label
13: 0
14: 4
15: 0
16: 0
17: 4
0: 5
1: 5
2: 5
3: 5
4: 5
5: 5
6: 5
7: 5
8: 5
9: 5
10: 5
11: 5
12: 5
edge from: to
13: 0
14: 1
14: 2
15: 4
16: 1
16: 5
16: 8
17: 3
17: 9
1: 13
2: 13
3: 13
4: 14
5: 15
6: 15
7: 15
8: 15
9: 16
10: 17
11: 17
12: 17
segment: [2]
vertex id: label
20: 0
21: 4
22: 0
23: 4
24: 0
0: 5
1: 5
2: 5
3: 5
4: 5
5: 5
6: 5
7: 5
8: 5
9: 5
10: 5
11: 5
12: 5
13: 5
14: 5
15: 5
16: 5
17: 5
18: 5
19: 5
edge from: to
20: 0
20: 1
20: 2
21: 1
21: 2
21: 4
22: 1
22: 8
23: 3
23: 9
24: 15
3: 20
4: 20
5: 21
6: 21
7: 21
8: 21
9: 22
10: 23
11: 23
12: 23
13: 23
14: 23
15: 23
16: 24
17: 24
18: 24
19: 24
segment: [3]
vertex id: label
16: 0
17: 4
18: 2
19: 1
20: 0
0: 5
1: 5
2: 5
3: 5
4: 5
5: 5
6: 5
7: 5
8: 5
9: 5
10: 5
11: 5
12: 5
13: 5
14: 5
15: 5
edge from: to
16: 0
16: 1
17: 2
18: 0
18: 1
18: 2
18: 3
19: 2
19: 4
19: 6
20: 3
20: 5
20: 9
2: 16
3: 17
4: 18
5: 18
6: 18
7: 19
8: 19
9: 19
10: 20
11: 20
12: 20
13: 20
14: 20
15: 20
segment: [4]
vertex id: label
16: 0
17: 0
18: 4
19: 2
20: 4
0: 5
1: 5
2: 5
3: 5
4: 5
5: 5
6: 5
7: 5
8: 5
9: 5
10: 5
11: 5
12: 5
13: 5
14: 5
15: 5
edge from: to
16: 0
16: 1
17: 2
18: 1
18: 8
19: 6
19: 11
20: 13
2: 16
3: 17
4: 17
5: 17
6: 17
7: 17
8: 17
9: 18
10: 18
11: 18
12: 19
13: 19
14: 20
15: 20
segment: [5]
vertex id: label
18: 0
19: 4
20: 2
21: 1
22: 0
0: 5
1: 5
2: 5
3: 5
4: 5
5: 5
6: 5
7: 5
8: 5
9: 5
10: 5
11: 5
12: 5
13: 5
14: 5
15: 5
16: 5
17: 5
edge from: to
18: 0
19: 2
20: 4
20: 7
21: 3
21: 9
21: 13
21: 14
22: 15
1: 18
2: 18
3: 19
4: 19
5: 19
6: 19
7: 19
8: 20
9: 20
10: 20
11: 20
12: 20
13: 20
14: 20
15: 21
16: 22
17: 22
segment: [6]
vertex id: label
24: 0
25: 3
26: 1
27: 0
28: 4
0: 5
1: 5
2: 5
3: 5
4: 5
5: 5
6: 5
7: 5
8: 5
9: 5
10: 5
11: 5
12: 5
13: 5
14: 5
15: 5
16: 5
17: 5
18: 5
19: 5
20: 5
21: 5
22: 5
23: 5
edge from: to
24: 0
24: 1
25: 2
25: 4
26: 8
27: 15
28: 6
28: 19
2: 24
3: 24
4: 24
5: 25
6: 25
7: 25
8: 25
9: 26
10: 26
11: 26
12: 26
13: 26
14: 26
15: 26
16: 27
17: 27
18: 27
19: 27
20: 28
21: 28
22: 28
23: 28
segment: [7]
vertex id: label
19: 0
20: 4
21: 2
22: 1
23: 0
0: 5
1: 5
2: 5
3: 5
4: 5
5: 5
6: 5
7: 5
8: 5
9: 5
10: 5
11: 5
12: 5
13: 5
14: 5
15: 5
16: 5
17: 5
18: 5
edge from: to
19: 0
19: 1
19: 2
20: 2
20: 4
21: 4
21: 7
22: 4
22: 7
22: 13
23: 16
3: 19
4: 19
5: 20
6: 20
7: 20
8: 21
9: 21
10: 21
11: 21
12: 21
13: 21
14: 22
15: 22
16: 22
17: 23
18: 23
segment: [8]
vertex id: label
11: 0
12: 4
13: 2
14: 1
15: 2
0: 5
1: 5
2: 5
3: 5
4: 5
5: 5
6: 5
7: 5
8: 5
9: 5
10: 5
edge from: to
11: 0
12: 1
12: 2
13: 1
13: 3
13: 5
14: 4
14: 7
15: 3
15: 5
15: 9
1: 11
2: 11
3: 12
4: 12
5: 12
6: 13
7: 13
8: 14
9: 14
10: 15
segment: [9]
vertex id: label
15: 0
16: 4
17: 2
18: 1
19: 0
0: 5
1: 5
2: 5
3: 5
4: 5
5: 5
6: 5
7: 5
8: 5
9: 5
10: 5
11: 5
12: 5
13: 5
14: 5
edge from: to
15: 0
16: 4
17: 2
18: 8
19: 12
1: 15
2: 15
3: 15
4: 15
5: 16
6: 16
7: 17
8: 17
9: 18
10: 18
11: 18
12: 18
13: 19
14: 19
