segment: [0]
vertex id: label
146: 0
147: 2
148: 4
149: 2
150: 4
151: 2
152: 4
153: 2
154: 4
155: 2
156: 4
157: 2
158: 4
159: 2
160: 4
161: 2
162: 4
163: 2
164: 4
165: 2
166: 4
167: 2
168: 4
169: 2
170: 0
171: 2
172: 4
173: 2
174: 4
175: 2
176: 4
177: 2
178: 4
179: 2
180: 4
181: 2
182: 4
183: 2
184: 4
185: 2
186: 4
187: 2
188: 4
189: 2
190: 4
191: 2
192: 4
193: 2
194: 4
195: 2
0: 5
1: 5
2: 5
3: 5
4: 5
5: 5
6: 5
7: 5
8: 5
9: 5
10: 5
11: 5
12: 5
13: 5
14: 5
15: 5
16: 5
17: 5
18: 5
19: 5
20: 5
21: 5
22: 5
23: 5
24: 5
25: 5
26: 5
27: 5
28: 5
29: 5
30: 5
31: 5
32: 5
33: 5
34: 5
35: 5
36: 5
37: 5
38: 5
39: 5
40: 5
41: 5
42: 5
43: 5
44: 5
45: 5
46: 5
47: 5
48: 5
49: 5
50: 5
51: 5
52: 5
53: 5
54: 5
55: 5
56: 5
57: 5
58: 5
59: 5
60: 5
61: 5
62: 5
63: 5
64: 5
65: 5
66: 5
67: 5
68: 5
69: 5
70: 5
71: 5
72: 5
73: 5
74: 5
75: 5
76: 5
77: 5
78: 5
79: 5
80: 5
81: 5
82: 5
83: 5
84: 5
85: 5
86: 5
87: 5
88: 5
89: 5
90: 5
91: 5
92: 5
93: 5
94: 5
95: 5
96: 5
97: 5
98: 5
99: 5
100: 5
101: 5
102: 5
103: 5
104: 5
105: 5
106: 5
107: 5
108: 5
109: 5
110: 5
111: 5
112: 5
113: 5
114: 5
115: 5
116: 5
117: 5
118: 5
119: 5
120: 5
121: 5
122: 5
123: 5
124: 5
125: 5
126: 5
127: 5
128: 5
129: 5
130: 5
131: 5
132: 5
133: 5
134: 5
135: 5
136: 5
137: 5
138: 5
139: 5
140: 5
141: 5
142: 5
143: 5
144: 5
145: 5
edge from: to
146: 0
146: 1
146: 2
147: 6
148: 6
148: 7
149: 10
150: 6
150: 10
151: 12
152: 9
152: 16
153: 11
153: 21
154: 22
154: 25
155: 26
156: 31
157: 20
157: 33
157: 37
158: 19
158: 34
158: 38
159: 37
160: 42
160: 47
161: 44
162: 46
162: 51
163: 41
163: 48
163: 53
164: 52
165: 53
166: 55
167: 58
167: 64
168: 33
168: 61
168: 67
169: 62
169: 68
170: 64
170: 66
170: 71
171: 67
172: 38
172: 70
172: 77
173: 39
173: 53
173: 72
173: 79
174: 75
174: 77
174: 83
175: 78
175: 80
175: 86
176: 63
176: 81
176: 84
176: 87
176: 89
177: 82
177: 83
177: 90
178: 84
179: 86
180: 89
181: 50
181: 94
182: 96
183: 97
183: 107
184: 105
184: 114
185: 108
186: 108
186: 109
186: 119
187: 109
187: 120
188: 113
189: 96
189: 114
189: 115
189: 125
190: 118
190: 119
190: 130
191: 121
192: 125
192: 126
192: 136
193: 128
193: 139
194: 129
195: 130
195: 141
3: 146
4: 146
5: 146
6: 146
7: 147
8: 148
9: 148
10: 148
11: 149
12: 149
13: 150
14: 150
15: 151
16: 151
17: 151
18: 151
19: 152
20: 152
21: 152
22: 152
23: 153
24: 153
25: 153
26: 154
27: 154
28: 154
29: 154
30: 155
31: 155
32: 155
33: 155
34: 156
35: 156
36: 156
37: 156
38: 157
39: 158
40: 158
41: 158
42: 159
43: 159
44: 159
45: 159
46: 159
47: 159
48: 160
49: 160
50: 161
51: 161
52: 162
53: 162
54: 163
55: 163
56: 163
57: 164
58: 164
59: 164
60: 165
61: 165
62: 166
63: 166
64: 166
65: 167
66: 167
67: 167
68: 168
69: 169
70: 169
71: 169
72: 170
73: 170
74: 170
75: 171
76: 171
77: 171
78: 172
79: 172
80: 173
81: 173
82: 173
83: 173
84: 174
85: 174
86: 174
87: 175
88: 175
89: 175
90: 176
91: 177
92: 178
93: 178
94: 179
95: 179
96: 179
97: 179
98: 179
99: 180
100: 180
101: 180
102: 180
103: 181
104: 181
105: 182
106: 182
107: 182
108: 183
109: 183
110: 183
111: 183
112: 183
113: 183
114: 183
115: 184
116: 184
117: 184
118: 185
119: 185
120: 186
121: 187
122: 187
123: 187
124: 188
125: 188
126: 189
127: 189
128: 189
129: 189
130: 189
131: 190
132: 190
133: 191
134: 191
135: 191
136: 191
137: 192
138: 192
139: 192
140: 193
141: 194
142: 195
143: 195
144: 195
145: 195
segment: [1]
vertex id: label
145: 0
146: 2
147: 4
148: 2
149: 4
150: 2
151: 4
152: 2
153: 4
154: 2
155: 4
156: 2
157: 4
158: 2
159: 4
160: 2
161: 4
162: 2
163: 4
164: 2
165: 4
166: 2
167: 4
168: 2
169: 4
170: 2
171: 4
172: 2
173: 4
174: 2
175: 4
176: 2
177: 4
178: 2
179: 4
180: 2
181: 4
182: 2
183: 4
184: 2
185: 4
186: 2
187: 4
188: 2
189: 4
190: 2
191: 4
192: 2
193: 4
194: 2
0: 5
1: 5
2: 5
3: 5
4: 5
5: 5
6: 5
7: 5
8: 5
9: 5
10: 5
11: 5
12: 5
13: 5
14: 5
15: 5
16: 5
17: 5
18: 5
19: 5
20: 5
21: 5
22: 5
23: 5
24: 5
25: 5
26: 5
27: 5
28: 5
29: 5
30: 5
31: 5
32: 5
33: 5
34: 5
35: 5
36: 5
37: 5
38: 5
39: 5
40: 5
41: 5
42: 5
43: 5
44: 5
45: 5
46: 5
47: 5
48: 5
49: 5
50: 5
51: 5
52: 5
53: 5
54: 5
55: 5
56: 5
57: 5
58: 5
59: 5
60: 5
61: 5
62: 5
63: 5
64: 5
65: 5
66: 5
67: 5
68: 5
69: 5
70: 5
71: 5
72: 5
73: 5
74: 5
75: 5
76: 5
77: 5
78: 5
79: 5
80: 5
81: 5
82: 5
83: 5
84: 5
85: 5
86: 5
87: 5
88: 5
89: 5
90: 5
91: 5
92: 5
93: 5
94: 5
95: 5
96: 5
97: 5
98: 5
99: 5
100: 5
101: 5
102: 5
103: 5
104: 5
105: 5
106: 5
107: 5
108: 5
109: 5
110: 5
111: 5
112: 5
113: 5
114: 5
115: 5
116: 5
117: 5
118: 5
119: 5
120: 5
121: 5
122: 5
123: 5
124: 5
125: 5
126: 5
127: 5
128: 5
129: 5
130: 5
131: 5
132: 5
133: 5
134: 5
135: 5
136: 5
137: 5
138: 5
139: 5
140: 5
141: 5
142: 5
143: 5
144: 5
edge from: to
145: 0
146: 2
146: 3
147: 2
147: 4
148: 7
149: 5
149: 10
150: 11
151: 9
151: 16
152: 11
152: 21
153: 22
153: 25
154: 14
154: 22
154: 25
155: 30
156: 32
157: 37
157: 41
158: 21
158: 39
158: 42
159: 20
159: 26
159: 31
159: 32
159: 41
159: 43
159: 46
160: 46
160: 47
160: 51
161: 48
161: 53
162: 52
163: 53
164: 48
164: 56
164: 62
165: 32
165: 59
166: 64
167: 65
167: 66
167: 67
167: 72
168: 68
168: 75
169: 69
169: 76
170: 40
170: 74
170: 75
170: 81
171: 77
171: 79
171: 85
172: 78
173: 80
173: 87
173: 88
174: 83
175: 86
176: 90
176: 92
176: 99
177: 93
177: 101
178: 97
179: 97
179: 107
180: 99
181: 103
182: 106
183: 107
184: 107
184: 108
184: 117
185: 108
185: 119
186: 109
186: 120
187: 114
188: 116
189: 119
189: 129
190: 119
190: 120
190: 129
190: 131
191: 125
191: 136
192: 128
193: 130
193: 141
194: 131
194: 143
1: 145
2: 145
3: 145
4: 146
5: 147
6: 147
7: 147
8: 148
9: 148
10: 148
11: 149
12: 149
13: 149
14: 150
15: 150
16: 150
17: 150
18: 150
19: 151
20: 151
21: 151
22: 151
23: 152
24: 152
25: 152
26: 153
27: 153
28: 153
29: 154
30: 154
31: 154
32: 154
33: 155
34: 155
35: 156
36: 156
37: 156
38: 156
39: 156
40: 156
41: 156
42: 157
43: 158
44: 158
45: 158
46: 158
47: 159
48: 159
49: 159
50: 159
51: 159
52: 160
53: 160
54: 161
55: 161
56: 161
57: 162
58: 162
59: 162
60: 163
61: 163
62: 163
63: 164
64: 164
65: 164
66: 165
67: 165
68: 165
69: 165
70: 166
71: 166
72: 166
73: 167
74: 167
75: 167
76: 168
77: 169
78: 169
79: 169
80: 169
81: 169
82: 170
83: 170
84: 170
85: 170
86: 171
87: 172
88: 172
89: 173
90: 173
91: 174
92: 174
93: 174
94: 175
95: 175
96: 175
97: 175
98: 175
99: 175
100: 176
101: 176
102: 177
103: 177
104: 177
105: 177
106: 178
107: 178
108: 179
109: 179
110: 180
111: 180
112: 180
113: 181
114: 181
115: 181
116: 182
117: 183
118: 184
119: 184
120: 185
121: 186
122: 186
123: 186
124: 186
125: 187
126: 187
127: 188
128: 188
129: 188
130: 189
131: 189
132: 190
133: 190
134: 190
135: 190
136: 190
137: 191
138: 191
139: 191
140: 192
141: 192
142: 193
143: 193
144: 194
segment: [2]
vertex id: label
155: 0
156: 2
157: 4
158: 2
159: 4
160: 2
161: 4
162: 2
163: 4
164: 2
165: 4
166: 2
167: 4
168: 2
169: 4
170: 2
171: 4
172: 2
173: 4
174: 2
175: 4
176: 2
177: 4
178: 2
179: 4
180: 2
181: 4
182: 2
183: 4
184: 2
185: 4
186: 2
187: 4
188: 2
189: 4
190: 2
191: 4
192: 2
193: 0
194: 2
195: 4
196: 2
197: 4
198: 2
199: 4
200: 2
201: 4
202: 2
203: 4
204: 2
0: 5
1: 5
2: 5
3: 5
4: 5
5: 5
6: 5
7: 5
8: 5
9: 5
10: 5
11: 5
12: 5
13: 5
14: 5
15: 5
16: 5
17: 5
18: 5
19: 5
20: 5
21: 5
22: 5
23: 5
24: 5
25: 5
26: 5
27: 5
28: 5
29: 5
30: 5
31: 5
32: 5
33: 5
34: 5
35: 5
36: 5
37: 5
38: 5
39: 5
40: 5
41: 5
42: 5
43: 5
44: 5
45: 5
46: 5
47: 5
48: 5
49: 5
50: 5
51: 5
52: 5
53: 5
54: 5
55: 5
56: 5
57: 5
58: 5
59: 5
60: 5
61: 5
62: 5
63: 5
64: 5
65: 5
66: 5
67: 5
68: 5
69: 5
70: 5
71: 5
72: 5
73: 5
74: 5
75: 5
76: 5
77: 5
78: 5
79: 5
80: 5
81: 5
82: 5
83: 5
84: 5
85: 5
86: 5
87: 5
88: 5
89: 5
90: 5
91: 5
92: 5
93: 5
94: 5
95: 5
96: 5
97: 5
98: 5
99: 5
100: 5
101: 5
102: 5
103: 5
104: 5
105: 5
106: 5
107: 5
108: 5
109: 5
110: 5
111: 5
112: 5
113: 5
114: 5
115: 5
116: 5
117: 5
118: 5
119: 5
120: 5
121: 5
122: 5
123: 5
124: 5
125: 5
126: 5
127: 5
128: 5
129: 5
130: 5
131: 5
132: 5
133: 5
134: 5
135: 5
136: 5
137: 5
138: 5
139: 5
140: 5
141: 5
142: 5
143: 5
144: 5
145: 5
146: 5
147: 5
148: 5
149: 5
150: 5
151: 5
152: 5
153: 5
154: 5
edge from: to
155: 0
155: 1
156: 2
157: 0
157: 1
157: 2
157: 3
157: 4
158: 6
158: 7
159: 4
159: 6
159: 8
160: 9
160: 10
160: 11
160: 12
160: 13
161: 12
161: 13
161: 15
162: 13
162: 15
162: 17
163: 20
164: 22
165: 29
165: 31
166: 31
166: 33
167: 35
167: 39
168: 38
168: 40
168: 43
169: 31
169: 41
169: 43
169: 46
170: 44
170: 49
171: 45
171: 50
172: 48
172: 53
173: 53
174: 54
174: 60
175: 48
175: 56
175: 57
175: 62
176: 32
176: 59
177: 64
178: 64
178: 71
179: 66
179: 73
180: 68
180: 75
181: 60
181: 71
181: 78
182: 74
182: 82
183: 75
183: 83
184: 76
185: 84
185: 91
186: 86
186: 95
187: 90
187: 99
188: 96
189: 82
189: 97
189: 98
189: 107
190: 99
190: 109
191: 103
191: 104
191: 113
192: 108
193: 108
194: 112
194: 113
194: 122
195: 95
195: 114
195: 115
195: 124
196: 115
196: 125
197: 116
197: 117
197: 127
198: 119
199: 123
200: 127
200: 138
201: 127
201: 128
201: 129
201: 140
202: 134
202: 146
203: 135
203: 136
203: 147
204: 138
204: 150
2: 155
3: 156
4: 156
5: 157
6: 157
7: 157
8: 158
9: 159
10: 159
11: 159
12: 159
13: 159
14: 160
15: 160
16: 161
17: 161
18: 162
19: 162
20: 162
21: 162
22: 162
23: 162
24: 163
25: 163
26: 164
27: 164
28: 164
29: 164
30: 164
31: 164
32: 165
33: 165
34: 166
35: 166
36: 166
37: 166
38: 166
39: 166
40: 167
41: 167
42: 167
43: 167
44: 168
45: 168
46: 168
47: 169
48: 169
49: 169
50: 170
51: 171
52: 171
53: 171
54: 172
55: 172
56: 172
57: 172
58: 173
59: 173
60: 173
61: 174
62: 174
63: 175
64: 175
65: 175
66: 176
67: 176
68: 176
69: 176
70: 177
71: 177
72: 178
73: 178
74: 179
75: 179
76: 180
77: 180
78: 180
79: 181
80: 181
81: 181
82: 181
83: 182
84: 183
85: 184
86: 184
87: 184
88: 184
89: 184
90: 184
91: 184
92: 185
93: 185
94: 185
95: 185
96: 186
97: 186
98: 186
99: 186
100: 187
101: 187
102: 187
103: 187
104: 187
105: 188
106: 188
107: 188
108: 189
109: 189
110: 190
111: 190
112: 190
113: 190
114: 191
115: 191
116: 191
117: 191
118: 192
119: 192
120: 193
121: 193
122: 193
123: 194
124: 194
125: 195
126: 196
127: 196
128: 197
129: 197
130: 198
131: 198
132: 198
133: 198
134: 198
135: 199
136: 199
137: 199
138: 199
139: 200
140: 200
141: 201
142: 201
143: 201
144: 201
145: 201
146: 201
147: 202
148: 203
149: 203
150: 203
151: 204
152: 204
153: 204
154: 204
segment: [3]
vertex id: label
139: 0
140: 2
141: 4
142: 2
143: 4
144: 2
145: 4
146: 2
147: 4
148: 2
149: 4
150: 2
151: 4
152: 2
153: 4
154: 2
155: 4
156: 3
157: 1
158: 1
159: 1
160: 1
161: 4
162: 2
163: 4
164: 2
165: 4
166: 2
167: 4
168: 2
169: 4
170: 2
171: 4
172: 2
173: 4
174: 2
175: 4
176: 2
177: 4
178: 2
179: 4
180: 2
181: 4
182: 2
183: 4
184: 2
185: 4
186: 2
187: 4
188: 2
0: 5
1: 5
2: 5
3: 5
4: 5
5: 5
6: 5
7: 5
8: 5
9: 5
10: 5
11: 5
12: 5
13: 5
14: 5
15: 5
16: 5
17: 5
18: 5
19: 5
20: 5
21: 5
22: 5
23: 5
24: 5
25: 5
26: 5
27: 5
28: 5
29: 5
30: 5
31: 5
32: 5
33: 5
34: 5
35: 5
36: 5
37: 5
38: 5
39: 5
40: 5
41: 5
42: 5
43: 5
44: 5
45: 5
46: 5
47: 5
48: 5
49: 5
50: 5
51: 5
52: 5
53: 5
54: 5
55: 5
56: 5
57: 5
58: 5
59: 5
60: 5
61: 5
62: 5
63: 5
64: 5
65: 5
66: 5
67: 5
68: 5
69: 5
70: 5
71: 5
72: 5
73: 5
74: 5
75: 5
76: 5
77: 5
78: 5
79: 5
80: 5
81: 5
82: 5
83: 5
84: 5
85: 5
86: 5
87: 5
88: 5
89: 5
90: 5
91: 5
92: 5
93: 5
94: 5
95: 5
96: 5
97: 5
98: 5
99: 5
100: 5
101: 5
102: 5
103: 5
104: 5
105: 5
106: 5
107: 5
108: 5
109: 5
110: 5
111: 5
112: 5
113: 5
114: 5
115: 5
116: 5
117: 5
118: 5
119: 5
120: 5
121: 5
122: 5
123: 5
124: 5
125: 5
126: 5
127: 5
128: 5
129: 5
130: 5
131: 5
132: 5
133: 5
134: 5
135: 5
136: 5
137: 5
138: 5
edge from: to
139: 0
140: 3
141: 3
141: 4
141: 5
142: 7
143: 10
144: 12
145: 15
145: 17
146: 9
146: 10
146: 14
146: 16
146: 17
146: 18
147: 18
148: 20
149: 21
150: 26
151: 15
151: 28
151: 30
152: 16
152: 30
153: 32
154: 34
155: 37
155: 41
156: 38
156: 40
156: 43
157: 42
157: 47
158: 44
158: 49
159: 47
159: 52
160: 49
161: 51
161: 55
162: 54
162: 58
163: 56
163: 62
164: 59
165: 54
165: 65
165: 70
166: 64
166: 65
166: 66
166: 71
167: 67
167: 74
168: 72
168: 79
169: 75
169: 81
170: 75
170: 83
171: 78
172: 81
173: 86
173: 93
174: 73
174: 86
174: 87
174: 95
175: 49
175: 92
176: 96
177: 97
177: 107
178: 101
178: 102
178: 103
178: 111
179: 107
180: 107
180: 118
181: 109
182: 111
183: 114
184: 115
185: 115
185: 116
185: 126
186: 116
186: 117
186: 121
186: 125
186: 126
186: 127
187: 121
187: 132
188: 125
188: 136
1: 139
2: 139
3: 139
4: 140
5: 140
6: 141
7: 141
8: 142
9: 142
10: 142
11: 143
12: 143
13: 143
14: 143
15: 144
16: 144
17: 144
18: 145
19: 146
20: 147
21: 147
22: 148
23: 148
24: 148
25: 149
26: 149
27: 149
28: 149
29: 149
30: 150
31: 151
32: 151
33: 152
34: 152
35: 152
36: 152
37: 153
38: 153
39: 154
40: 154
41: 154
42: 155
43: 155
44: 156
45: 156
46: 156
47: 156
48: 157
49: 157
50: 158
51: 158
52: 158
53: 159
54: 159
55: 160
56: 161
57: 161
58: 161
59: 162
60: 162
61: 162
62: 162
63: 163
64: 163
65: 163
66: 164
67: 164
68: 164
69: 164
70: 164
71: 165
72: 166
73: 166
74: 166
75: 167
76: 167
77: 167
78: 167
79: 167
80: 168
81: 168
82: 169
83: 169
84: 170
85: 170
86: 170
87: 171
88: 171
89: 171
90: 172
91: 172
92: 172
93: 172
94: 173
95: 173
96: 174
97: 174
98: 174
99: 174
100: 174
101: 175
102: 175
103: 175
104: 175
105: 176
106: 176
107: 176
108: 177
109: 177
110: 177
111: 177
112: 178
113: 178
114: 178
115: 178
116: 178
117: 179
118: 179
119: 180
120: 180
121: 181
122: 182
123: 182
124: 182
125: 183
126: 184
127: 185
128: 186
129: 186
130: 186
131: 186
132: 186
133: 187
134: 187
135: 187
136: 187
137: 188
138: 188
segment: [4]
vertex id: label
170: 0
171: 2
172: 4
173: 2
174: 4
175: 2
176: 4
177: 2
178: 4
179: 2
180: 4
181: 2
182: 4
183: 2
184: 4
185: 2
186: 4
187: 2
188: 4
189: 2
190: 4
191: 2
192: 4
193: 2
194: 4
195: 2
196: 4
197: 2
198: 4
199: 2
200: 4
201: 2
202: 4
203: 2
204: 4
205: 2
206: 4
207: 2
208: 4
209: 2
210: 4
211: 2
212: 4
213: 2
214: 4
215: 2
216: 4
217: 2
218: 4
219: 2
0: 5
1: 5
2: 5
3: 5
4: 5
5: 5
6: 5
7: 5
8: 5
9: 5
10: 5
11: 5
12: 5
13: 5
14: 5
15: 5
16: 5
17: 5
18: 5
19: 5
20: 5
21: 5
22: 5
23: 5
24: 5
25: 5
26: 5
27: 5
28: 5
29: 5
30: 5
31: 5
32: 5
33: 5
34: 5
35: 5
36: 5
37: 5
38: 5
39: 5
40: 5
41: 5
42: 5
43: 5
44: 5
45: 5
46: 5
47: 5
48: 5
49: 5
50: 5
51: 5
52: 5
53: 5
54: 5
55: 5
56: 5
57: 5
58: 5
59: 5
60: 5
61: 5
62: 5
63: 5
64: 5
65: 5
66: 5
67: 5
68: 5
69: 5
70: 5
71: 5
72: 5
73: 5
74: 5
75: 5
76: 5
77: 5
78: 5
79: 5
80: 5
81: 5
82: 5
83: 5
84: 5
85: 5
86: 5
87: 5
88: 5
89: 5
90: 5
91: 5
92: 5
93: 5
94: 5
95: 5
96: 5
97: 5
98: 5
99: 5
100: 5
101: 5
102: 5
103: 5
104: 5
105: 5
106: 5
107: 5
108: 5
109: 5
110: 5
111: 5
112: 5
113: 5
114: 5
115: 5
116: 5
117: 5
118: 5
119: 5
120: 5
121: 5
122: 5
123: 5
124: 5
125: 5
126: 5
127: 5
128: 5
129: 5
130: 5
131: 5
132: 5
133: 5
134: 5
135: 5
136: 5
137: 5
138: 5
139: 5
140: 5
141: 5
142: 5
143: 5
144: 5
145: 5
146: 5
147: 5
148: 5
149: 5
150: 5
151: 5
152: 5
153: 5
154: 5
155: 5
156: 5
157: 5
158: 5
159: 5
160: 5
161: 5
162: 5
163: 5
164: 5
165: 5
166: 5
167: 5
168: 5
169: 5
edge from: to
170: 0
171: 2
171: 4
172: 8
173: 9
174: 9
174: 16
175: 10
175: 19
175: 20
176: 21
177: 13
177: 20
177: 23
178: 16
178: 30
179: 33
179: 37
180: 40
181: 43
181: 46
182: 27
182: 45
182: 50
183: 46
184: 48
185: 51
185: 55
186: 54
187: 32
187: 59
188: 54
188: 65
188: 70
189: 64
190: 68
191: 74
191: 80
192: 75
192: 83
193: 79
194: 83
195: 85
195: 92
196: 85
197: 86
198: 88
199: 93
200: 97
200: 105
201: 98
201: 99
201: 108
202: 102
202: 111
203: 106
203: 115
204: 107
205: 107
205: 118
206: 111
207: 114
208: 116
208: 117
208: 127
209: 121
209: 132
210: 122
210: 123
210: 124
210: 134
211: 127
212: 129
212: 140
213: 131
213: 143
214: 133
215: 138
215: 139
215: 151
216: 142
216: 155
217: 145
218: 149
219: 152
219: 153
219: 166
1: 170
2: 170
3: 170
4: 170
5: 171
6: 171
7: 171
8: 171
9: 172
10: 172
11: 172
12: 173
13: 173
14: 173
15: 173
16: 173
17: 173
18: 173
19: 174
20: 174
21: 175
22: 175
23: 175
24: 175
25: 176
26: 176
27: 177
28: 177
29: 177
30: 177
31: 177
32: 177
33: 178
34: 178
35: 178
36: 178
37: 178
38: 179
39: 179
40: 179
41: 179
42: 179
43: 179
44: 180
45: 180
46: 180
47: 181
48: 181
49: 181
50: 181
51: 182
52: 183
53: 183
54: 184
55: 184
56: 185
57: 185
58: 185
59: 185
60: 185
61: 186
62: 186
63: 186
64: 186
65: 186
66: 187
67: 187
68: 187
69: 187
70: 187
71: 188
72: 189
73: 189
74: 189
75: 189
76: 190
77: 190
78: 190
79: 190
80: 190
81: 191
82: 191
83: 191
84: 192
85: 192
86: 192
87: 192
88: 193
89: 193
90: 193
91: 194
92: 194
93: 195
94: 195
95: 196
96: 197
97: 197
98: 198
99: 198
100: 198
101: 198
102: 199
103: 199
104: 199
105: 199
106: 200
107: 200
108: 200
109: 201
110: 201
111: 201
112: 202
113: 202
114: 202
115: 202
116: 203
117: 204
118: 204
119: 205
120: 205
121: 205
122: 206
123: 206
124: 206
125: 207
126: 207
127: 207
128: 208
129: 208
130: 208
131: 208
132: 208
133: 209
134: 209
135: 210
136: 210
137: 210
138: 210
139: 211
140: 211
141: 212
142: 212
143: 212
144: 213
145: 213
146: 214
147: 214
148: 214
149: 214
150: 214
151: 214
152: 215
153: 215
154: 215
155: 215
156: 216
157: 216
158: 216
159: 217
160: 217
161: 217
162: 217
163: 218
164: 218
165: 218
166: 218
167: 219
168: 219
169: 219
segment: [5]
vertex id: label
170: 0
171: 2
172: 4
173: 2
174: 4
175: 2
176: 4
177: 2
178: 4
179: 2
180: 4
181: 2
182: 4
183: 2
184: 4
185: 2
186: 4
187: 2
188: 4
189: 2
190: 4
191: 2
192: 4
193: 2
194: 4
195: 2
196: 4
197: 2
198: 4
199: 2
200: 4
201: 2
202: 4
203: 2
204: 4
205: 2
206: 4
207: 2
208: 4
209: 2
210: 4
211: 2
212: 4
213: 2
214: 4
215: 2
216: 4
217: 2
218: 4
219: 2
0: 5
1: 5
2: 5
3: 5
4: 5
5: 5
6: 5
7: 5
8: 5
9: 5
10: 5
11: 5
12: 5
13: 5
14: 5
15: 5
16: 5
17: 5
18: 5
19: 5
20: 5
21: 5
22: 5
23: 5
24: 5
25: 5
26: 5
27: 5
28: 5
29: 5
30: 5
31: 5
32: 5
33: 5
34: 5
35: 5
36: 5
37: 5
38: 5
39: 5
40: 5
41: 5
42: 5
43: 5
44: 5
45: 5
46: 5
47: 5
48: 5
49: 5
50: 5
51: 5
52: 5
53: 5
54: 5
55: 5
56: 5
57: 5
58: 5
59: 5
60: 5
61: 5
62: 5
63: 5
64: 5
65: 5
66: 5
67: 5
68: 5
69: 5
70: 5
71: 5
72: 5
73: 5
74: 5
75: 5
76: 5
77: 5
78: 5
79: 5
80: 5
81: 5
82: 5
83: 5
84: 5
85: 5
86: 5
87: 5
88: 5
89: 5
90: 5
91: 5
92: 5
93: 5
94: 5
95: 5
96: 5
97: 5
98: 5
99: 5
100: 5
101: 5
102: 5
103: 5
104: 5
105: 5
106: 5
107: 5
108: 5
109: 5
110: 5
111: 5
112: 5
113: 5
114: 5
115: 5
116: 5
117: 5
118: 5
119: 5
120: 5
121: 5
122: 5
123: 5
124: 5
125: 5
126: 5
127: 5
128: 5
129: 5
130: 5
131: 5
132: 5
133: 5
134: 5
135: 5
136: 5
137: 5
138: 5
139: 5
140: 5
141: 5
142: 5
143: 5
144: 5
145: 5
146: 5
147: 5
148: 5
149: 5
150: 5
151: 5
152: 5
153: 5
154: 5
155: 5
156: 5
157: 5
158: 5
159: 5
160: 5
161: 5
162: 5
163: 5
164: 5
165: 5
166: 5
167: 5
168: 5
169: 5
edge from: to
170: 0
171: 3
171: 4
171: 5
171: 6
171: 7
172: 9
172: 11
173: 14
174: 20
175: 24
175: 27
176: 17
176: 32
176: 34
177: 32
178: 30
178: 35
178: 39
179: 40
179: 43
180: 43
181: 44
181: 49
182: 46
183: 49
183: 54
184: 49
184: 51
184: 55
185: 52
186: 30
186: 55
187: 31
187: 57
187: 63
188: 62
188: 68
189: 65
190: 65
190: 72
191: 67
191: 74
192: 72
192: 79
193: 75
193: 83
194: 78
195: 81
195: 89
196: 85
196: 86
196: 92
196: 93
197: 88
198: 92
199: 50
199: 94
200: 96
201: 97
201: 98
201: 107
202: 102
203: 104
203: 113
204: 107
204: 108
204: 117
205: 111
205: 121
206: 113
206: 114
206: 123
207: 114
208: 116
208: 117
208: 127
209: 121
209: 132
210: 123
211: 125
212: 130
213: 133
214: 135
214: 136
214: 147
215: 138
215: 139
215: 151
216: 140
216: 154
217: 145
217: 146
217: 158
218: 151
219: 153
1: 170
2: 170
3: 170
4: 170
5: 170
6: 170
7: 170
8: 171
9: 171
10: 171
11: 171
12: 172
13: 172
14: 172
15: 172
16: 172
17: 173
18: 173
19: 173
20: 173
21: 173
22: 173
23: 173
24: 174
25: 174
26: 174
27: 174
28: 175
29: 175
30: 175
31: 175
32: 175
33: 175
34: 175
35: 176
36: 176
37: 177
38: 177
39: 177
40: 178
41: 178
42: 178
43: 178
44: 179
45: 179
46: 179
47: 180
48: 180
49: 180
50: 181
51: 181
52: 182
53: 182
54: 182
55: 183
56: 184
57: 185
58: 185
59: 185
60: 185
61: 185
62: 186
63: 186
64: 187
65: 187
66: 187
67: 187
68: 187
69: 188
70: 188
71: 189
72: 189
73: 190
74: 190
75: 191
76: 191
77: 191
78: 191
79: 191
80: 192
81: 192
82: 192
83: 192
84: 193
85: 193
86: 193
87: 194
88: 194
89: 194
90: 195
91: 195
92: 195
93: 195
94: 196
95: 196
96: 196
97: 196
98: 197
99: 197
100: 197
101: 198
102: 198
103: 199
104: 199
105: 199
106: 199
107: 200
108: 201
109: 201
110: 201
111: 201
112: 202
113: 202
114: 203
115: 203
116: 203
117: 203
118: 204
119: 204
120: 204
121: 204
122: 205
123: 205
124: 206
125: 207
126: 207
127: 207
128: 208
129: 208
130: 208
131: 208
132: 208
133: 209
134: 209
135: 210
136: 210
137: 211
138: 211
139: 211
140: 211
141: 211
142: 212
143: 212
144: 212
145: 212
146: 213
147: 213
148: 214
149: 214
150: 214
151: 214
152: 215
153: 215
154: 215
155: 216
156: 216
157: 216
158: 216
159: 217
160: 217
161: 217
162: 217
163: 217
164: 217
165: 218
166: 218
167: 218
168: 219
169: 219
segment: [6]
vertex id: label
152: 0
153: 2
154: 4
155: 2
156: 4
157: 2
158: 4
159: 2
160: 4
161: 2
162: 4
163: 2
164: 4
165: 2
166: 4
167: 2
168: 4
169: 2
170: 4
171: 2
172: 4
173: 2
174: 4
175: 2
176: 4
177: 2
178: 4
179: 2
180: 4
181: 2
182: 4
183: 2
184: 4
185: 2
186: 4
187: 2
188: 4
189: 2
190: 4
191: 2
192: 4
193: 2
194: 4
195: 2
196: 4
197: 2
198: 4
199: 2
200: 4
201: 2
0: 5
1: 5
2: 5
3: 5
4: 5
5: 5
6: 5
7: 5
8: 5
9: 5
10: 5
11: 5
12: 5
13: 5
14: 5
15: 5
16: 5
17: 5
18: 5
19: 5
20: 5
21: 5
22: 5
23: 5
24: 5
25: 5
26: 5
27: 5
28: 5
29: 5
30: 5
31: 5
32: 5
33: 5
34: 5
35: 5
36: 5
37: 5
38: 5
39: 5
40: 5
41: 5
42: 5
43: 5
44: 5
45: 5
46: 5
47: 5
48: 5
49: 5
50: 5
51: 5
52: 5
53: 5
54: 5
55: 5
56: 5
57: 5
58: 5
59: 5
60: 5
61: 5
62: 5
63: 5
64: 5
65: 5
66: 5
67: 5
68: 5
69: 5
70: 5
71: 5
72: 5
73: 5
74: 5
75: 5
76: 5
77: 5
78: 5
79: 5
80: 5
81: 5
82: 5
83: 5
84: 5
85: 5
86: 5
87: 5
88: 5
89: 5
90: 5
91: 5
92: 5
93: 5
94: 5
95: 5
96: 5
97: 5
98: 5
99: 5
100: 5
101: 5
102: 5
103: 5
104: 5
105: 5
106: 5
107: 5
108: 5
109: 5
110: 5
111: 5
112: 5
113: 5
114: 5
115: 5
116: 5
117: 5
118: 5
119: 5
120: 5
121: 5
122: 5
123: 5
124: 5
125: 5
126: 5
127: 5
128: 5
129: 5
130: 5
131: 5
132: 5
133: 5
134: 5
135: 5
136: 5
137: 5
138: 5
139: 5
140: 5
141: 5
142: 5
143: 5
144: 5
145: 5
146: 5
147: 5
148: 5
149: 5
150: 5
151: 5
edge from: to
152: 0
152: 1
153: 4
153: 5
154: 4
154: 6
154: 7
155: 9
155: 11
156: 6
156: 10
156: 12
157: 13
158: 15
158: 17
159: 10
159: 19
160: 20
160: 23
161: 14
161: 25
162: 31
162: 33
163: 33
163: 37
164: 39
164: 42
165: 42
166: 42
166: 47
167: 46
168: 51
168: 55
169: 43
169: 52
169: 56
170: 39
170: 53
170: 54
170: 58
171: 56
172: 59
173: 51
173: 59
173: 60
173: 66
174: 47
174: 62
174: 67
174: 68
175: 64
176: 68
176: 75
177: 60
177: 71
177: 76
177: 78
178: 74
178: 82
179: 78
180: 80
180: 88
181: 84
182: 86
183: 86
184: 88
185: 54
185: 92
185: 93
185: 101
186: 95
186: 103
187: 102
187: 103
187: 111
188: 105
189: 107
190: 92
190: 109
190: 110
190: 120
191: 113
191: 114
191: 123
192: 116
192: 126
193: 119
193: 131
194: 66
194: 124
194: 125
195: 126
196: 126
196: 127
196: 138
197: 128
197: 139
198: 130
198: 141
199: 131
199: 143
200: 136
200: 148
201: 138
2: 152
3: 152
4: 152
5: 152
6: 153
7: 153
8: 154
9: 154
10: 154
11: 154
12: 155
13: 156
14: 156
15: 156
16: 157
17: 157
18: 158
19: 158
20: 158
21: 159
22: 159
23: 159
24: 160
25: 160
26: 160
27: 160
28: 160
29: 161
30: 161
31: 161
32: 161
33: 161
34: 162
35: 162
36: 162
37: 162
38: 163
39: 163
40: 163
41: 163
42: 163
43: 164
44: 164
45: 164
46: 165
47: 165
48: 166
49: 166
50: 166
51: 166
52: 167
53: 167
54: 167
55: 167
56: 168
57: 169
58: 169
59: 170
60: 170
61: 170
62: 170
63: 171
64: 171
65: 171
66: 172
67: 173
68: 173
69: 174
70: 174
71: 174
72: 175
73: 175
74: 175
75: 175
76: 176
77: 176
78: 176
79: 177
80: 177
81: 177
82: 177
83: 178
84: 178
85: 178
86: 178
87: 179
88: 179
89: 180
90: 180
91: 180
92: 181
93: 181
94: 182
95: 182
96: 183
97: 183
98: 184
99: 184
100: 184
101: 184
102: 185
103: 185
104: 186
105: 186
106: 186
107: 186
108: 186
109: 186
110: 186
111: 186
112: 187
113: 187
114: 187
115: 188
116: 188
117: 188
118: 188
119: 189
120: 189
121: 190
122: 190
123: 190
124: 191
125: 191
126: 191
127: 192
128: 192
129: 192
130: 192
131: 192
132: 193
133: 193
134: 193
135: 193
136: 194
137: 194
138: 195
139: 196
140: 197
141: 197
142: 198
143: 198
144: 199
145: 199
146: 199
147: 199
148: 199
149: 200
150: 200
151: 201
segment: [7]
vertex id: label
151: 0
152: 2
153: 4
154: 2
155: 4
156: 2
157: 4
158: 2
159: 4
160: 2
161: 4
162: 2
163: 4
164: 2
165: 4
166: 2
167: 4
168: 2
169: 4
170: 2
171: 4
172: 2
173: 4
174: 2
175: 4
176: 2
177: 4
178: 2
179: 4
180: 2
181: 4
182: 2
183: 4
184: 2
185: 4
186: 2
187: 4
188: 2
189: 4
190: 2
191: 4
192: 2
193: 4
194: 2
195: 4
196: 2
197: 4
198: 2
199: 4
200: 2
0: 5
1: 5
2: 5
3: 5
4: 5
5: 5
6: 5
7: 5
8: 5
9: 5
10: 5
11: 5
12: 5
13: 5
14: 5
15: 5
16: 5
17: 5
18: 5
19: 5
20: 5
21: 5
22: 5
23: 5
24: 5
25: 5
26: 5
27: 5
28: 5
29: 5
30: 5
31: 5
32: 5
33: 5
34: 5
35: 5
36: 5
37: 5
38: 5
39: 5
40: 5
41: 5
42: 5
43: 5
44: 5
45: 5
46: 5
47: 5
48: 5
49: 5
50: 5
51: 5
52: 5
53: 5
54: 5
55: 5
56: 5
57: 5
58: 5
59: 5
60: 5
61: 5
62: 5
63: 5
64: 5
65: 5
66: 5
67: 5
68: 5
69: 5
70: 5
71: 5
72: 5
73: 5
74: 5
75: 5
76: 5
77: 5
78: 5
79: 5
80: 5
81: 5
82: 5
83: 5
84: 5
85: 5
86: 5
87: 5
88: 5
89: 5
90: 5
91: 5
92: 5
93: 5
94: 5
95: 5
96: 5
97: 5
98: 5
99: 5
100: 5
101: 5
102: 5
103: 5
104: 5
105: 5
106: 5
107: 5
108: 5
109: 5
110: 5
111: 5
112: 5
113: 5
114: 5
115: 5
116: 5
117: 5
118: 5
119: 5
120: 5
121: 5
122: 5
123: 5
124: 5
125: 5
126: 5
127: 5
128: 5
129: 5
130: 5
131: 5
132: 5
133: 5
134: 5
135: 5
136: 5
137: 5
138: 5
139: 5
140: 5
141: 5
142: 5
143: 5
144: 5
145: 5
146: 5
147: 5
148: 5
149: 5
150: 5
edge from: to
151: 0
151: 1
151: 2
152: 2
152: 3
153: 3
153: 4
153: 5
154: 8
155: 5
155: 8
155: 10
156: 6
156: 10
157: 12
157: 13
157: 15
158: 13
158: 15
158: 17
159: 10
159: 19
159: 20
160: 12
160: 21
161: 17
161: 22
161: 25
162: 24
162: 27
163: 29
163: 31
164: 32
164: 34
165: 18
165: 28
165: 32
165: 34
165: 36
166: 20
166: 31
166: 36
166: 37
166: 40
167: 41
168: 41
168: 43
168: 46
169: 44
170: 48
171: 53
171: 54
171: 58
172: 54
172: 60
173: 30
173: 47
173: 55
173: 56
173: 57
173: 61
174: 32
174: 59
175: 65
175: 70
176: 66
177: 68
178: 71
178: 78
179: 72
179: 79
180: 74
180: 82
181: 75
181: 83
182: 76
182: 84
183: 80
183: 88
184: 84
184: 91
185: 86
185: 93
186: 88
186: 89
186: 97
187: 49
187: 92
188: 95
189: 101
189: 110
190: 106
191: 108
191: 117
192: 112
192: 122
193: 62
193: 84
193: 115
193: 116
193: 126
194: 118
194: 128
195: 65
195: 122
196: 124
197: 129
197: 140
198: 131
198: 143
199: 132
199: 144
200: 136
3: 151
4: 152
5: 152
6: 153
7: 153
8: 153
9: 154
10: 154
11: 155
12: 155
13: 156
14: 156
15: 156
16: 157
17: 157
18: 158
19: 158
20: 158
21: 159
22: 159
23: 159
24: 159
25: 160
26: 161
27: 161
28: 162
29: 162
30: 162
31: 162
32: 163
33: 163
34: 163
35: 164
36: 164
37: 165
38: 165
39: 165
40: 165
41: 166
42: 166
43: 166
44: 166
45: 167
46: 167
47: 168
48: 168
49: 168
50: 169
51: 169
52: 169
53: 169
54: 170
55: 170
56: 170
57: 170
58: 170
59: 171
60: 171
61: 172
62: 173
63: 173
64: 173
65: 173
66: 174
67: 174
68: 174
69: 174
70: 174
71: 175
72: 175
73: 175
74: 176
75: 176
76: 177
77: 177
78: 177
79: 178
80: 179
81: 179
82: 179
83: 180
84: 181
85: 182
86: 182
87: 182
88: 182
89: 183
90: 183
91: 183
92: 184
93: 184
94: 185
95: 185
96: 185
97: 185
98: 186
99: 186
100: 186
101: 187
102: 187
103: 187
104: 188
105: 188
106: 188
107: 188
108: 188
109: 188
110: 188
111: 189
112: 189
113: 189
114: 189
115: 189
116: 190
117: 190
118: 191
119: 191
120: 191
121: 191
122: 191
123: 192
124: 192
125: 192
126: 192
127: 193
128: 193
129: 194
130: 194
131: 194
132: 194
133: 194
134: 195
135: 195
136: 196
137: 196
138: 196
139: 196
140: 196
141: 197
142: 197
143: 197
144: 198
145: 199
146: 199
147: 199
148: 199
149: 200
150: 200
segment: [8]
vertex id: label
163: 0
164: 2
165: 4
166: 2
167: 4
168: 2
169: 4
170: 2
171: 4
172: 2
173: 4
174: 2
175: 4
176: 2
177: 4
178: 2
179: 4
180: 2
181: 4
182: 2
183: 4
184: 2
185: 4
186: 2
187: 4
188: 2
189: 4
190: 2
191: 4
192: 2
193: 4
194: 2
195: 4
196: 2
197: 4
198: 2
199: 4
200: 2
201: 4
202: 2
203: 4
204: 2
205: 4
206: 2
207: 4
208: 2
209: 4
210: 2
211: 4
212: 2
0: 5
1: 5
2: 5
3: 5
4: 5
5: 5
6: 5
7: 5
8: 5
9: 5
10: 5
11: 5
12: 5
13: 5
14: 5
15: 5
16: 5
17: 5
18: 5
19: 5
20: 5
21: 5
22: 5
23: 5
24: 5
25: 5
26: 5
27: 5
28: 5
29: 5
30: 5
31: 5
32: 5
33: 5
34: 5
35: 5
36: 5
37: 5
38: 5
39: 5
40: 5
41: 5
42: 5
43: 5
44: 5
45: 5
46: 5
47: 5
48: 5
49: 5
50: 5
51: 5
52: 5
53: 5
54: 5
55: 5
56: 5
57: 5
58: 5
59: 5
60: 5
61: 5
62: 5
63: 5
64: 5
65: 5
66: 5
67: 5
68: 5
69: 5
70: 5
71: 5
72: 5
73: 5
74: 5
75: 5
76: 5
77: 5
78: 5
79: 5
80: 5
81: 5
82: 5
83: 5
84: 5
85: 5
86: 5
87: 5
88: 5
89: 5
90: 5
91: 5
92: 5
93: 5
94: 5
95: 5
96: 5
97: 5
98: 5
99: 5
100: 5
101: 5
102: 5
103: 5
104: 5
105: 5
106: 5
107: 5
108: 5
109: 5
110: 5
111: 5
112: 5
113: 5
114: 5
115: 5
116: 5
117: 5
118: 5
119: 5
120: 5
121: 5
122: 5
123: 5
124: 5
125: 5
126: 5
127: 5
128: 5
129: 5
130: 5
131: 5
132: 5
133: 5
134: 5
135: 5
136: 5
137: 5
138: 5
139: 5
140: 5
141: 5
142: 5
143: 5
144: 5
145: 5
146: 5
147: 5
148: 5
149: 5
150: 5
151: 5
152: 5
153: 5
154: 5
155: 5
156: 5
157: 5
158: 5
159: 5
160: 5
161: 5
162: 5
edge from: to
163: 0
164: 5
165: 9
166: 9
166: 11
167: 11
167: 13
168: 10
168: 16
168: 19
168: 20
169: 20
169: 23
170: 24
170: 27
171: 15
171: 28
171: 30
172: 31
172: 35
173: 34
173: 38
174: 41
174: 44
175: 41
175: 43
175: 46
176: 42
176: 47
177: 44
178: 46
178: 47
178: 51
179: 51
180: 29
180: 53
181: 56
182: 60
183: 64
184: 64
185: 66
186: 70
187: 74
187: 75
187: 81
188: 76
188: 84
189: 79
190: 81
190: 87
190: 89
191: 85
192: 73
192: 86
192: 87
192: 94
192: 95
193: 88
193: 89
193: 94
193: 97
194: 90
194: 92
194: 99
195: 95
195: 103
196: 97
197: 97
198: 98
199: 99
200: 102
201: 107
202: 109
202: 120
203: 114
204: 118
205: 119
206: 125
206: 136
207: 129
208: 131
208: 143
209: 132
209: 133
209: 134
209: 143
209: 145
210: 138
211: 142
212: 145
212: 146
212: 158
1: 163
2: 163
3: 163
4: 163
5: 163
6: 164
7: 164
8: 164
9: 164
10: 165
11: 165
12: 166
13: 166
14: 167
15: 167
16: 167
17: 167
18: 167
19: 167
20: 167
21: 168
22: 168
23: 168
24: 169
25: 169
26: 169
27: 169
28: 170
29: 170
30: 170
31: 171
32: 171
33: 171
34: 171
35: 171
36: 172
37: 172
38: 172
39: 173
40: 173
41: 173
42: 173
43: 173
44: 173
45: 174
46: 174
47: 175
48: 176
49: 176
50: 177
51: 177
52: 178
53: 178
54: 178
55: 178
56: 179
57: 179
58: 179
59: 179
60: 180
61: 180
62: 180
63: 181
64: 181
65: 181
66: 181
67: 182
68: 182
69: 182
70: 183
71: 183
72: 184
73: 184
74: 185
75: 185
76: 185
77: 185
78: 186
79: 186
80: 186
81: 186
82: 187
83: 187
84: 187
85: 188
86: 188
87: 188
88: 189
89: 189
90: 190
91: 190
92: 190
93: 190
94: 190
95: 191
96: 192
97: 192
98: 193
99: 193
100: 194
101: 194
102: 194
103: 194
104: 195
105: 195
106: 196
107: 196
108: 197
109: 198
110: 199
111: 199
112: 200
113: 200
114: 200
115: 200
116: 200
117: 201
118: 201
119: 201
120: 201
121: 202
122: 202
123: 202
124: 202
125: 203
126: 203
127: 203
128: 203
129: 204
130: 204
131: 204
132: 205
133: 205
134: 205
135: 205
136: 205
137: 206
138: 206
139: 206
140: 206
141: 206
142: 206
143: 207
144: 208
145: 208
146: 209
147: 209
148: 209
149: 209
150: 209
151: 210
152: 210
153: 210
154: 210
155: 210
156: 211
157: 211
158: 211
159: 212
160: 212
161: 212
162: 212
segment: [9]
vertex id: label
132: 0
133: 2
134: 4
135: 2
136: 4
137: 2
138: 4
139: 2
140: 4
141: 2
142: 4
143: 2
144: 4
145: 2
146: 4
147: 2
148: 4
149: 2
150: 4
151: 2
152: 4
153: 2
154: 4
155: 2
156: 4
157: 2
158: 4
159: 2
160: 4
161: 2
162: 4
163: 2
164: 4
165: 2
166: 4
167: 2
168: 4
169: 2
170: 4
171: 2
172: 4
173: 2
174: 4
175: 2
176: 4
177: 2
178: 4
179: 2
180: 4
181: 2
0: 5
1: 5
2: 5
3: 5
4: 5
5: 5
6: 5
7: 5
8: 5
9: 5
10: 5
11: 5
12: 5
13: 5
14: 5
15: 5
16: 5
17: 5
18: 5
19: 5
20: 5
21: 5
22: 5
23: 5
24: 5
25: 5
26: 5
27: 5
28: 5
29: 5
30: 5
31: 5
32: 5
33: 5
34: 5
35: 5
36: 5
37: 5
38: 5
39: 5
40: 5
41: 5
42: 5
43: 5
44: 5
45: 5
46: 5
47: 5
48: 5
49: 5
50: 5
51: 5
52: 5
53: 5
54: 5
55: 5
56: 5
57: 5
58: 5
59: 5
60: 5
61: 5
62: 5
63: 5
64: 5
65: 5
66: 5
67: 5
68: 5
69: 5
70: 5
71: 5
72: 5
73: 5
74: 5
75: 5
76: 5
77: 5
78: 5
79: 5
80: 5
81: 5
82: 5
83: 5
84: 5
85: 5
86: 5
87: 5
88: 5
89: 5
90: 5
91: 5
92: 5
93: 5
94: 5
95: 5
96: 5
97: 5
98: 5
99: 5
100: 5
101: 5
102: 5
103: 5
104: 5
105: 5
106: 5
107: 5
108: 5
109: 5
110: 5
111: 5
112: 5
113: 5
114: 5
115: 5
116: 5
117: 5
118: 5
119: 5
120: 5
121: 5
122: 5
123: 5
124: 5
125: 5
126: 5
127: 5
128: 5
129: 5
130: 5
131: 5
edge from: to
132: 0
133: 1
133: 2
134: 2
134: 3
135: 3
135: 4
135: 5
136: 7
136: 9
137: 9
138: 11
138: 13
139: 8
139: 14
140: 9
140: 16
141: 21
142: 22
143: 13
143: 23
144: 15
144: 28
145: 31
145: 33
146: 31
146: 35
147: 20
147: 25
147: 33
147: 37
148: 34
148: 38
149: 37
150: 42
150: 45
151: 44
152: 47
153: 49
154: 51
155: 53
155: 54
155: 58
156: 31
156: 57
157: 59
158: 65
159: 64
159: 71
160: 68
161: 70
161: 77
162: 75
162: 81
163: 75
164: 78
164: 86
165: 80
166: 81
166: 84
166: 87
166: 89
167: 83
168: 86
168: 93
169: 87
170: 88
171: 90
172: 95
172: 96
172: 104
173: 97
173: 107
174: 102
174: 111
175: 103
175: 104
175: 112
176: 107
176: 116
177: 108
177: 119
178: 112
178: 122
179: 115
179: 125
180: 118
180: 128
181: 118
181: 130
1: 132
2: 132
3: 133
4: 134
5: 134
6: 135
7: 135
8: 135
9: 135
10: 136
11: 136
12: 137
13: 137
14: 138
15: 138
16: 138
17: 139
18: 139
19: 140
20: 140
21: 140
22: 140
23: 141
24: 141
25: 141
26: 142
27: 143
28: 143
29: 143
30: 143
31: 144
32: 144
33: 144
34: 145
35: 145
36: 146
37: 146
38: 147
39: 148
40: 148
41: 148
42: 149
43: 149
44: 149
45: 149
46: 150
47: 150
48: 150
49: 150
50: 151
51: 151
52: 151
53: 152
54: 152
55: 153
56: 154
57: 154
58: 154
59: 155
60: 155
61: 155
62: 155
63: 155
64: 156
65: 156
66: 157
67: 157
68: 157
69: 157
70: 157
71: 158
72: 159
73: 159
74: 159
75: 159
76: 160
77: 160
78: 161
79: 161
80: 161
81: 161
82: 162
83: 162
84: 163
85: 163
86: 163
87: 164
88: 164
89: 165
90: 166
91: 167
92: 167
93: 167
94: 168
95: 168
96: 168
97: 169
98: 170
99: 170
100: 171
101: 171
102: 171
103: 171
104: 171
105: 172
106: 172
107: 172
108: 173
109: 173
110: 173
111: 173
112: 174
113: 175
114: 175
115: 175
116: 175
117: 176
118: 176
119: 176
120: 177
121: 177
122: 177
123: 178
124: 178
125: 178
126: 179
127: 179
128: 179
129: 180
130: 180
131: 181
