segment: [0]
vertex id: label
60: 0
61: 2
62: 1
63: 3
64: 4
65: 2
66: 4
67: 2
68: 4
69: 2
70: 4
71: 0
72: 4
73: 0
74: 4
75: 0
76: 2
77: 3
78: 0
79: 2
0: 5
1: 5
2: 5
3: 5
4: 5
5: 5
6: 5
7: 5
8: 5
9: 5
10: 5
11: 5
12: 5
13: 5
14: 5
15: 5
16: 5
17: 5
18: 5
19: 5
20: 5
21: 5
22: 5
23: 5
24: 5
25: 5
26: 5
27: 5
28: 5
29: 5
30: 5
31: 5
32: 5
33: 5
34: 5
35: 5
36: 5
37: 5
38: 5
39: 5
40: 5
41: 5
42: 5
43: 5
44: 5
45: 5
46: 5
47: 5
48: 5
49: 5
50: 5
51: 5
52: 5
53: 5
54: 5
55: 5
56: 5
57: 5
58: 5
59: 5
edge from: to
60: 0
60: 1
60: 2
61: 1
61: 3
62: 1
62: 5
63: 0
63: 5
63: 6
64: 10
65: 14
66: 17
67: 5
67: 18
68: 23
69: 25
70: 28
70: 29
71: 31
71: 32
72: 28
72: 35
72: 36
73: 30
73: 37
73: 38
74: 39
75: 42
75: 43
76: 45
77: 46
78: 43
78: 54
79: 56
79: 57
3: 60
4: 61
5: 61
6: 62
7: 63
8: 63
9: 63
10: 63
11: 64
12: 64
13: 64
14: 64
15: 65
16: 65
17: 65
18: 66
19: 67
20: 67
21: 67
22: 67
23: 67
24: 68
25: 68
26: 69
27: 69
28: 69
29: 69
30: 70
31: 70
32: 70
33: 71
34: 71
35: 71
36: 71
37: 72
38: 72
39: 73
40: 74
41: 74
42: 74
43: 74
44: 75
45: 75
46: 76
47: 76
48: 77
49: 77
50: 77
51: 77
52: 77
53: 77
54: 77
55: 77
56: 78
57: 78
58: 79
59: 79
segment: [1]
vertex id: label
56: 0
57: 4
58: 2
59: 4
60: 2
61: 1
62: 3
63: 3
64: 0
65: 2
66: 1
67: 3
68: 0
69: 4
70: 2
71: 4
72: 2
73: 1
74: 3
75: 0
0: 5
1: 5
2: 5
3: 5
4: 5
5: 5
6: 5
7: 5
8: 5
9: 5
10: 5
11: 5
12: 5
13: 5
14: 5
15: 5
16: 5
17: 5
18: 5
19: 5
20: 5
21: 5
22: 5
23: 5
24: 5
25: 5
26: 5
27: 5
28: 5
29: 5
30: 5
31: 5
32: 5
33: 5
34: 5
35: 5
36: 5
37: 5
38: 5
39: 5
40: 5
41: 5
42: 5
43: 5
44: 5
45: 5
46: 5
47: 5
48: 5
49: 5
50: 5
51: 5
52: 5
53: 5
54: 5
55: 5
edge from: to
56: 0
57: 0
57: 1
58: 2
59: 1
59: 3
60: 1
60: 5
61: 6
62: 9
63: 3
64: 12
64: 14
64: 15
65: 18
65: 19
66: 20
66: 21
67: 25
68: 27
68: 28
69: 32
70: 10
70: 29
70: 36
71: 39
71: 40
72: 43
73: 45
73: 46
74: 47
75: 3
75: 52
75: 53
1: 56
2: 57
3: 58
4: 59
5: 59
6: 60
7: 61
8: 61
9: 61
10: 62
11: 62
12: 63
13: 63
14: 63
15: 63
16: 64
17: 64
18: 64
19: 64
20: 65
21: 65
22: 66
23: 66
24: 66
25: 66
26: 67
27: 67
28: 67
29: 68
30: 68
31: 68
32: 68
33: 69
34: 69
35: 69
36: 69
37: 69
38: 70
39: 70
40: 70
41: 71
42: 71
43: 71
44: 72
45: 72
46: 72
47: 73
48: 73
49: 74
50: 74
51: 74
52: 74
53: 74
54: 75
55: 75
segment: [2]
vertex id: label
57: 0
58: 4
59: 2
60: 1
61: 3
62: 3
63: 0
64: 4
65: 2
66: 1
67: 3
68: 3
69: 0
70: 4
71: 2
72: 1
73: 3
74: 0
75: 2
76: 4
0: 5
1: 5
2: 5
3: 5
4: 5
5: 5
6: 5
7: 5
8: 5
9: 5
10: 5
11: 5
12: 5
13: 5
14: 5
15: 5
16: 5
17: 5
18: 5
19: 5
20: 5
21: 5
22: 5
23: 5
24: 5
25: 5
26: 5
27: 5
28: 5
29: 5
30: 5
31: 5
32: 5
33: 5
34: 5
35: 5
36: 5
37: 5
38: 5
39: 5
40: 5
41: 5
42: 5
43: 5
44: 5
45: 5
46: 5
47: 5
48: 5
49: 5
50: 5
51: 5
52: 5
53: 5
54: 5
55: 5
56: 5
edge from: to
57: 0
57: 1
57: 2
58: 6
59: 11
59: 12
60: 12
60: 13
61: 6
61: 12
61: 14
61: 15
62: 13
62: 15
62: 16
63: 19
64: 6
64: 21
64: 22
65: 18
65: 22
65: 23
66: 27
67: 27
67: 28
68: 31
68: 32
69: 32
69: 33
70: 37
70: 38
71: 39
71: 40
72: 11
72: 32
72: 40
73: 41
73: 42
74: 37
74: 44
74: 46
75: 50
76: 52
3: 57
4: 57
5: 57
6: 57
7: 58
8: 58
9: 58
10: 58
11: 58
12: 58
13: 59
14: 60
15: 60
16: 61
17: 62
18: 62
19: 62
20: 63
21: 63
22: 63
23: 64
24: 65
25: 65
26: 65
27: 65
28: 66
29: 67
30: 67
31: 67
32: 67
33: 68
34: 69
35: 69
36: 69
37: 69
38: 69
39: 70
40: 70
41: 71
42: 72
43: 73
44: 73
45: 73
46: 73
47: 73
48: 74
49: 74
50: 74
51: 74
52: 75
53: 75
54: 76
55: 76
56: 76
segment: [3]
vertex id: label
66: 0
67: 4
68: 2
69: 1
70: 3
71: 3
72: 3
73: 0
74: 4
75: 2
76: 1
77: 3
78: 0
79: 2
80: 4
81: 2
82: 1
83: 3
84: 3
85: 0
0: 5
1: 5
2: 5
3: 5
4: 5
5: 5
6: 5
7: 5
8: 5
9: 5
10: 5
11: 5
12: 5
13: 5
14: 5
15: 5
16: 5
17: 5
18: 5
19: 5
20: 5
21: 5
22: 5
23: 5
24: 5
25: 5
26: 5
27: 5
28: 5
29: 5
30: 5
31: 5
32: 5
33: 5
34: 5
35: 5
36: 5
37: 5
38: 5
39: 5
40: 5
41: 5
42: 5
43: 5
44: 5
45: 5
46: 5
47: 5
48: 5
49: 5
50: 5
51: 5
52: 5
53: 5
54: 5
55: 5
56: 5
57: 5
58: 5
59: 5
60: 5
61: 5
62: 5
63: 5
64: 5
65: 5
edge from: to
66: 0
66: 1
66: 2
66: 3
67: 2
67: 7
68: 3
69: 11
69: 13
69: 14
70: 5
70: 18
71: 19
71: 20
71: 21
72: 6
72: 22
73: 7
73: 26
74: 29
75: 31
76: 34
77: 36
78: 38
79: 42
80: 45
81: 47
81: 48
82: 52
82: 53
83: 43
83: 50
83: 52
83: 54
84: 57
84: 58
85: 16
85: 47
85: 59
4: 66
5: 66
6: 66
7: 66
8: 67
9: 67
10: 67
11: 67
12: 68
13: 68
14: 68
15: 69
16: 69
17: 69
18: 69
19: 70
20: 70
21: 70
22: 71
23: 72
24: 72
25: 72
26: 72
27: 73
28: 73
29: 73
30: 74
31: 74
32: 75
33: 75
34: 75
35: 76
36: 76
37: 77
38: 77
39: 78
40: 78
41: 78
42: 78
43: 79
44: 79
45: 79
46: 80
47: 80
48: 80
49: 81
50: 81
51: 81
52: 81
53: 81
54: 82
55: 82
56: 83
57: 83
58: 83
59: 84
60: 84
61: 85
62: 85
63: 85
64: 85
65: 85
segment: [4]
vertex id: label
62: 0
63: 4
64: 2
65: 1
66: 3
67: 3
68: 0
69: 2
70: 1
71: 3
72: 3
73: 3
74: 0
75: 2
76: 1
77: 3
78: 3
79: 0
80: 2
81: 1
0: 5
1: 5
2: 5
3: 5
4: 5
5: 5
6: 5
7: 5
8: 5
9: 5
10: 5
11: 5
12: 5
13: 5
14: 5
15: 5
16: 5
17: 5
18: 5
19: 5
20: 5
21: 5
22: 5
23: 5
24: 5
25: 5
26: 5
27: 5
28: 5
29: 5
30: 5
31: 5
32: 5
33: 5
34: 5
35: 5
36: 5
37: 5
38: 5
39: 5
40: 5
41: 5
42: 5
43: 5
44: 5
45: 5
46: 5
47: 5
48: 5
49: 5
50: 5
51: 5
52: 5
53: 5
54: 5
55: 5
56: 5
57: 5
58: 5
59: 5
60: 5
61: 5
edge from: to
62: 0
62: 1
62: 2
62: 3
63: 8
64: 10
65: 10
65: 12
65: 13
66: 1
66: 16
66: 17
67: 21
68: 19
68: 23
68: 24
69: 7
70: 27
71: 29
71: 30
72: 30
72: 31
73: 2
73: 34
73: 35
74: 10
74: 29
74: 36
75: 38
75: 39
76: 42
77: 46
78: 47
78: 48
79: 40
79: 50
80: 49
80: 51
80: 52
81: 57
81: 58
4: 62
5: 62
6: 62
7: 62
8: 62
9: 63
10: 63
11: 64
12: 64
13: 64
14: 65
15: 65
16: 65
17: 65
18: 66
19: 66
20: 66
21: 66
22: 67
23: 67
24: 67
25: 68
26: 68
27: 69
28: 70
29: 70
30: 70
31: 71
32: 72
33: 72
34: 72
35: 72
36: 73
37: 73
38: 74
39: 74
40: 75
41: 75
42: 75
43: 76
44: 76
45: 76
46: 76
47: 77
48: 77
49: 78
50: 78
51: 78
52: 79
53: 80
54: 80
55: 80
56: 80
57: 80
58: 80
59: 81
60: 81
61: 81
segment: [5]
vertex id: label
47: 0
48: 2
49: 4
50: 2
51: 4
52: 2
53: 1
54: 3
55: 0
56: 2
57: 1
58: 3
59: 0
60: 4
61: 2
62: 4
63: 2
64: 1
65: 3
66: 3
0: 5
1: 5
2: 5
3: 5
4: 5
5: 5
6: 5
7: 5
8: 5
9: 5
10: 5
11: 5
12: 5
13: 5
14: 5
15: 5
16: 5
17: 5
18: 5
19: 5
20: 5
21: 5
22: 5
23: 5
24: 5
25: 5
26: 5
27: 5
28: 5
29: 5
30: 5
31: 5
32: 5
33: 5
34: 5
35: 5
36: 5
37: 5
38: 5
39: 5
40: 5
41: 5
42: 5
43: 5
44: 5
45: 5
46: 5
edge from: to
47: 0
48: 6
49: 7
49: 8
50: 3
50: 10
50: 11
51: 12
52: 10
52: 12
52: 13
53: 15
54: 16
55: 17
56: 21
57: 18
57: 22
57: 23
58: 7
58: 26
59: 29
59: 30
60: 32
61: 35
62: 28
62: 35
62: 36
63: 38
64: 38
64: 39
64: 40
65: 42
65: 43
66: 45
1: 47
2: 47
3: 47
4: 47
5: 47
6: 47
7: 48
8: 48
9: 49
10: 49
11: 49
12: 50
13: 51
14: 52
15: 52
16: 53
17: 54
18: 55
19: 55
20: 55
21: 55
22: 56
23: 56
24: 57
25: 57
26: 57
27: 58
28: 58
29: 58
30: 58
31: 59
32: 59
33: 60
34: 60
35: 60
36: 61
37: 62
38: 62
39: 63
40: 63
41: 64
42: 64
43: 64
44: 65
45: 65
46: 66
segment: [6]
vertex id: label
55: 0
56: 2
57: 4
58: 2
59: 1
60: 3
61: 3
62: 3
63: 0
64: 4
65: 2
66: 4
67: 2
68: 1
69: 3
70: 0
71: 4
72: 2
73: 1
74: 3
0: 5
1: 5
2: 5
3: 5
4: 5
5: 5
6: 5
7: 5
8: 5
9: 5
10: 5
11: 5
12: 5
13: 5
14: 5
15: 5
16: 5
17: 5
18: 5
19: 5
20: 5
21: 5
22: 5
23: 5
24: 5
25: 5
26: 5
27: 5
28: 5
29: 5
30: 5
31: 5
32: 5
33: 5
34: 5
35: 5
36: 5
37: 5
38: 5
39: 5
40: 5
41: 5
42: 5
43: 5
44: 5
45: 5
46: 5
47: 5
48: 5
49: 5
50: 5
51: 5
52: 5
53: 5
54: 5
edge from: to
55: 0
55: 1
56: 1
56: 3
57: 1
57: 5
58: 0
58: 7
58: 8
58: 9
59: 12
59: 13
60: 15
60: 16
61: 16
61: 17
62: 21
63: 18
63: 22
63: 23
64: 20
64: 24
64: 25
65: 7
65: 26
66: 23
66: 28
66: 29
67: 31
68: 34
69: 10
69: 36
70: 40
71: 11
71: 40
72: 43
73: 46
74: 49
2: 55
3: 55
4: 56
5: 56
6: 57
7: 57
8: 57
9: 57
10: 58
11: 58
12: 58
13: 58
14: 59
15: 59
16: 59
17: 60
18: 61
19: 61
20: 61
21: 61
22: 62
23: 62
24: 63
25: 63
26: 64
27: 65
28: 65
29: 65
30: 66
31: 66
32: 67
33: 67
34: 67
35: 68
36: 68
37: 68
38: 69
39: 69
40: 69
41: 70
42: 71
43: 71
44: 71
45: 72
46: 72
47: 73
48: 73
49: 73
50: 74
51: 74
52: 74
53: 74
54: 74
segment: [7]
vertex id: label
67: 0
68: 4
69: 2
70: 1
71: 3
72: 3
73: 0
74: 2
75: 1
76: 3
77: 3
78: 0
79: 2
80: 1
81: 3
82: 3
83: 3
84: 0
85: 4
86: 2
0: 5
1: 5
2: 5
3: 5
4: 5
5: 5
6: 5
7: 5
8: 5
9: 5
10: 5
11: 5
12: 5
13: 5
14: 5
15: 5
16: 5
17: 5
18: 5
19: 5
20: 5
21: 5
22: 5
23: 5
24: 5
25: 5
26: 5
27: 5
28: 5
29: 5
30: 5
31: 5
32: 5
33: 5
34: 5
35: 5
36: 5
37: 5
38: 5
39: 5
40: 5
41: 5
42: 5
43: 5
44: 5
45: 5
46: 5
47: 5
48: 5
49: 5
50: 5
51: 5
52: 5
53: 5
54: 5
55: 5
56: 5
57: 5
58: 5
59: 5
60: 5
61: 5
62: 5
63: 5
64: 5
65: 5
66: 5
edge from: to
67: 0
67: 1
67: 2
67: 3
68: 5
69: 12
70: 14
70: 15
71: 17
72: 21
73: 6
73: 21
73: 22
74: 24
74: 25
75: 29
76: 31
77: 10
78: 11
78: 32
78: 40
79: 40
79: 42
79: 43
79: 44
80: 47
81: 40
81: 48
81: 50
82: 42
82: 53
83: 43
83: 54
84: 15
84: 55
85: 16
86: 61
4: 67
5: 67
6: 68
7: 68
8: 68
9: 68
10: 68
11: 68
12: 68
13: 69
14: 69
15: 69
16: 70
17: 70
18: 71
19: 71
20: 71
21: 71
22: 72
23: 73
24: 73
25: 73
26: 74
27: 74
28: 74
29: 74
30: 75
31: 75
32: 76
33: 76
34: 76
35: 76
36: 76
37: 76
38: 77
39: 77
40: 77
41: 77
42: 78
43: 78
44: 78
45: 79
46: 79
47: 79
48: 79
49: 80
50: 80
51: 80
52: 81
53: 81
54: 81
55: 82
56: 83
57: 84
58: 84
59: 84
60: 84
61: 85
62: 85
63: 86
64: 86
65: 86
66: 86
segment: [8]
vertex id: label
62: 0
63: 4
64: 2
65: 1
66: 3
67: 3
68: 0
69: 4
70: 2
71: 1
72: 3
73: 3
74: 3
75: 0
76: 2
77: 1
78: 3
79: 0
80: 2
81: 1
0: 5
1: 5
2: 5
3: 5
4: 5
5: 5
6: 5
7: 5
8: 5
9: 5
10: 5
11: 5
12: 5
13: 5
14: 5
15: 5
16: 5
17: 5
18: 5
19: 5
20: 5
21: 5
22: 5
23: 5
24: 5
25: 5
26: 5
27: 5
28: 5
29: 5
30: 5
31: 5
32: 5
33: 5
34: 5
35: 5
36: 5
37: 5
38: 5
39: 5
40: 5
41: 5
42: 5
43: 5
44: 5
45: 5
46: 5
47: 5
48: 5
49: 5
50: 5
51: 5
52: 5
53: 5
54: 5
55: 5
56: 5
57: 5
58: 5
59: 5
60: 5
61: 5
edge from: to
62: 0
63: 0
63: 1
63: 2
63: 3
64: 1
64: 4
64: 5
65: 2
65: 7
66: 10
67: 11
67: 12
68: 13
68: 14
69: 5
69: 18
70: 6
71: 25
72: 30
73: 35
73: 36
74: 40
75: 33
75: 38
75: 40
75: 41
75: 42
76: 43
77: 45
78: 45
78: 46
79: 39
79: 49
80: 43
80: 54
81: 58
1: 62
4: 63
5: 63
6: 64
7: 64
8: 65
9: 65
10: 65
11: 66
12: 66
13: 67
14: 67
15: 68
16: 68
17: 68
18: 68
19: 69
20: 69
21: 69
22: 69
23: 70
24: 70
25: 70
26: 71
27: 71
28: 71
29: 71
30: 71
31: 72
32: 72
33: 72
34: 72
35: 72
36: 72
37: 73
38: 73
39: 73
40: 73
41: 74
42: 74
43: 75
44: 75
45: 76
46: 77
47: 78
48: 78
49: 78
50: 78
51: 79
52: 79
53: 79
54: 79
55: 79
56: 80
57: 80
58: 80
59: 80
60: 81
61: 81
segment: [9]
vertex id: label
67: 0
68: 4
69: 2
70: 1
71: 3
72: 0
73: 4
74: 2
75: 1
76: 3
77: 3
78: 0
79: 2
80: 1
81: 3
82: 3
83: 3
84: 0
85: 2
86: 1
0: 5
1: 5
2: 5
3: 5
4: 5
5: 5
6: 5
7: 5
8: 5
9: 5
10: 5
11: 5
12: 5
13: 5
14: 5
15: 5
16: 5
17: 5
18: 5
19: 5
20: 5
21: 5
22: 5
23: 5
24: 5
25: 5
26: 5
27: 5
28: 5
29: 5
30: 5
31: 5
32: 5
33: 5
34: 5
35: 5
36: 5
37: 5
38: 5
39: 5
40: 5
41: 5
42: 5
43: 5
44: 5
45: 5
46: 5
47: 5
48: 5
49: 5
50: 5
51: 5
52: 5
53: 5
54: 5
55: 5
56: 5
57: 5
58: 5
59: 5
60: 5
61: 5
62: 5
63: 5
64: 5
65: 5
66: 5
edge from: to
67: 0
68: 1
68: 4
69: 2
70: 2
70: 10
71: 13
72: 15
73: 1
73: 13
73: 16
73: 17
74: 21
75: 20
75: 24
75: 25
76: 22
76: 27
76: 28
77: 30
77: 31
78: 28
78: 35
78: 36
79: 10
79: 36
80: 41
80: 42
81: 36
81: 45
81: 46
82: 51
82: 52
83: 15
83: 44
83: 55
84: 56
85: 61
85: 62
86: 49
86: 58
86: 60
86: 62
86: 63
1: 67
2: 67
3: 67
4: 67
5: 68
6: 68
7: 68
8: 69
9: 69
10: 69
11: 70
12: 70
13: 70
14: 71
15: 71
16: 72
17: 72
18: 73
19: 73
20: 73
21: 73
22: 74
23: 74
24: 74
25: 74
26: 75
27: 75
28: 75
29: 76
30: 76
31: 76
32: 77
33: 77
34: 77
35: 77
36: 77
37: 78
38: 79
39: 79
40: 79
41: 79
42: 79
43: 80
44: 80
45: 80
46: 80
47: 81
48: 81
49: 81
50: 81
51: 81
52: 81
53: 82
54: 82
55: 82
56: 82
57: 83
58: 84
59: 84
60: 84
61: 84
62: 84
63: 85
64: 86
65: 86
66: 86
