segment: [0]
vertex id: label
67: 0
68: 0
69: 3
70: 1
71: 0
72: 0
73: 3
74: 1
75: 0
76: 3
77: 1
78: 0
79: 3
80: 1
81: 3
82: 4
83: 3
84: 1
85: 0
86: 4
0: 5
1: 5
2: 5
3: 5
4: 5
5: 5
6: 5
7: 5
8: 5
9: 5
10: 5
11: 5
12: 5
13: 5
14: 5
15: 5
16: 5
17: 5
18: 5
19: 5
20: 5
21: 5
22: 5
23: 5
24: 5
25: 5
26: 5
27: 5
28: 5
29: 5
30: 5
31: 5
32: 5
33: 5
34: 5
35: 5
36: 5
37: 5
38: 5
39: 5
40: 5
41: 5
42: 5
43: 5
44: 5
45: 5
46: 5
47: 5
48: 5
49: 5
50: 5
51: 5
52: 5
53: 5
54: 5
55: 5
56: 5
57: 5
58: 5
59: 5
60: 5
61: 5
62: 5
63: 5
64: 5
65: 5
66: 5
edge from: to
67: 0
67: 1
68: 5
68: 6
69: 9
70: 4
70: 11
70: 12
71: 13
72: 17
72: 18
72: 20
73: 20
73: 21
73: 23
74: 26
74: 27
74: 29
74: 30
75: 28
76: 29
77: 32
78: 34
78: 39
79: 37
80: 39
80: 45
81: 40
82: 41
83: 44
83: 50
84: 47
84: 54
85: 59
85: 60
86: 54
86: 62
2: 67
3: 67
4: 67
5: 67
6: 67
7: 68
8: 68
9: 68
10: 68
11: 69
12: 69
13: 70
14: 70
15: 70
16: 71
17: 71
18: 71
19: 71
20: 71
21: 72
22: 72
23: 72
24: 73
25: 73
26: 73
27: 73
28: 73
29: 73
30: 73
31: 74
32: 74
33: 74
34: 75
35: 76
36: 76
37: 76
38: 77
39: 77
40: 78
41: 78
42: 78
43: 78
44: 79
45: 79
46: 80
47: 80
48: 81
49: 82
50: 82
51: 82
52: 83
53: 83
54: 83
55: 83
56: 84
57: 84
58: 84
59: 84
60: 84
61: 85
62: 85
63: 85
64: 86
65: 86
66: 86
segment: [1]
vertex id: label
59: 0
60: 3
61: 4
62: 3
63: 1
64: 3
65: 1
66: 0
67: 3
68: 1
69: 0
70: 3
71: 4
72: 3
73: 1
74: 0
75: 3
76: 1
77: 0
78: 0
0: 5
1: 5
2: 5
3: 5
4: 5
5: 5
6: 5
7: 5
8: 5
9: 5
10: 5
11: 5
12: 5
13: 5
14: 5
15: 5
16: 5
17: 5
18: 5
19: 5
20: 5
21: 5
22: 5
23: 5
24: 5
25: 5
26: 5
27: 5
28: 5
29: 5
30: 5
31: 5
32: 5
33: 5
34: 5
35: 5
36: 5
37: 5
38: 5
39: 5
40: 5
41: 5
42: 5
43: 5
44: 5
45: 5
46: 5
47: 5
48: 5
49: 5
50: 5
51: 5
52: 5
53: 5
54: 5
55: 5
56: 5
57: 5
58: 5
edge from: to
59: 0
59: 1
59: 2
60: 4
61: 5
62: 6
62: 8
62: 9
63: 3
63: 10
64: 7
64: 10
64: 11
64: 12
64: 13
65: 15
65: 16
65: 17
66: 18
66: 21
67: 6
67: 19
68: 21
69: 23
70: 26
70: 30
71: 28
71: 32
72: 30
73: 34
74: 37
74: 43
75: 41
75: 47
76: 43
76: 49
77: 49
77: 52
77: 53
78: 49
78: 56
3: 59
4: 59
5: 60
6: 60
7: 61
8: 61
9: 61
10: 62
11: 62
12: 63
13: 63
14: 64
15: 64
16: 64
17: 64
18: 65
19: 65
20: 65
21: 65
22: 66
23: 67
24: 67
25: 68
26: 68
27: 68
28: 69
29: 69
30: 69
31: 70
32: 70
33: 71
34: 71
35: 71
36: 72
37: 72
38: 72
39: 72
40: 73
41: 73
42: 73
43: 73
44: 74
45: 74
46: 74
47: 74
48: 74
49: 75
50: 75
51: 76
52: 76
53: 76
54: 77
55: 77
56: 77
57: 77
58: 78
segment: [2]
vertex id: label
59: 0
60: 3
61: 1
62: 0
63: 0
64: 4
65: 3
66: 1
67: 0
68: 3
69: 1
70: 0
71: 3
72: 4
73: 3
74: 1
75: 0
76: 0
77: 3
78: 1
0: 5
1: 5
2: 5
3: 5
4: 5
5: 5
6: 5
7: 5
8: 5
9: 5
10: 5
11: 5
12: 5
13: 5
14: 5
15: 5
16: 5
17: 5
18: 5
19: 5
20: 5
21: 5
22: 5
23: 5
24: 5
25: 5
26: 5
27: 5
28: 5
29: 5
30: 5
31: 5
32: 5
33: 5
34: 5
35: 5
36: 5
37: 5
38: 5
39: 5
40: 5
41: 5
42: 5
43: 5
44: 5
45: 5
46: 5
47: 5
48: 5
49: 5
50: 5
51: 5
52: 5
53: 5
54: 5
55: 5
56: 5
57: 5
58: 5
edge from: to
59: 0
59: 1
59: 2
59: 3
60: 5
60: 6
61: 9
61: 10
62: 4
62: 11
62: 12
63: 12
63: 14
64: 17
65: 21
65: 24
66: 7
66: 22
66: 26
67: 26
68: 28
69: 30
69: 35
70: 33
71: 34
71: 40
72: 36
73: 43
73: 45
73: 46
74: 41
74: 47
75: 44
75: 50
76: 53
77: 46
77: 53
77: 54
78: 48
4: 59
5: 59
6: 59
7: 60
8: 60
9: 60
10: 60
11: 61
12: 61
13: 62
14: 62
15: 63
16: 63
17: 63
18: 63
19: 63
20: 63
21: 64
22: 64
23: 64
24: 64
25: 65
26: 65
27: 66
28: 66
29: 66
30: 66
31: 67
32: 67
33: 67
34: 68
35: 68
36: 69
37: 69
38: 69
39: 70
40: 70
41: 71
42: 71
43: 72
44: 72
45: 72
46: 72
47: 73
48: 73
49: 74
50: 74
51: 74
52: 75
53: 75
54: 76
55: 77
56: 77
57: 78
58: 78
segment: [3]
vertex id: label
48: 0
49: 3
50: 4
51: 3
52: 1
53: 0
54: 3
55: 1
56: 0
57: 3
58: 1
59: 0
60: 3
61: 1
62: 3
63: 1
64: 0
65: 0
66: 3
67: 4
0: 5
1: 5
2: 5
3: 5
4: 5
5: 5
6: 5
7: 5
8: 5
9: 5
10: 5
11: 5
12: 5
13: 5
14: 5
15: 5
16: 5
17: 5
18: 5
19: 5
20: 5
21: 5
22: 5
23: 5
24: 5
25: 5
26: 5
27: 5
28: 5
29: 5
30: 5
31: 5
32: 5
33: 5
34: 5
35: 5
36: 5
37: 5
38: 5
39: 5
40: 5
41: 5
42: 5
43: 5
44: 5
45: 5
46: 5
47: 5
edge from: to
48: 0
49: 0
49: 4
49: 5
50: 5
50: 7
50: 8
51: 3
51: 7
51: 10
52: 9
52: 12
52: 14
53: 15
54: 17
54: 19
55: 18
55: 21
56: 21
56: 24
57: 22
58: 23
58: 27
59: 25
60: 27
60: 28
60: 30
60: 31
61: 29
61: 34
62: 31
63: 33
63: 38
64: 11
64: 35
64: 41
65: 36
66: 38
67: 46
1: 48
2: 48
3: 48
4: 48
5: 48
6: 49
7: 49
8: 49
9: 50
10: 50
11: 50
12: 51
13: 51
14: 51
15: 52
16: 52
17: 52
18: 53
19: 53
20: 54
21: 54
22: 55
23: 55
24: 55
25: 56
26: 56
27: 57
28: 58
29: 58
30: 59
31: 59
32: 60
33: 60
34: 60
35: 61
36: 61
37: 62
38: 62
39: 63
40: 63
41: 63
42: 64
43: 65
44: 65
45: 66
46: 66
47: 67
segment: [4]
vertex id: label
57: 0
58: 3
59: 1
60: 0
61: 0
62: 3
63: 1
64: 0
65: 0
66: 3
67: 1
68: 0
69: 3
70: 1
71: 0
72: 3
73: 4
74: 3
75: 1
76: 0
0: 5
1: 5
2: 5
3: 5
4: 5
5: 5
6: 5
7: 5
8: 5
9: 5
10: 5
11: 5
12: 5
13: 5
14: 5
15: 5
16: 5
17: 5
18: 5
19: 5
20: 5
21: 5
22: 5
23: 5
24: 5
25: 5
26: 5
27: 5
28: 5
29: 5
30: 5
31: 5
32: 5
33: 5
34: 5
35: 5
36: 5
37: 5
38: 5
39: 5
40: 5
41: 5
42: 5
43: 5
44: 5
45: 5
46: 5
47: 5
48: 5
49: 5
50: 5
51: 5
52: 5
53: 5
54: 5
55: 5
56: 5
edge from: to
57: 0
57: 1
57: 2
58: 3
59: 4
60: 6
61: 3
61: 6
61: 8
61: 9
62: 9
63: 10
64: 14
65: 18
65: 19
65: 21
66: 22
66: 25
67: 24
68: 26
68: 27
68: 30
69: 28
70: 29
70: 31
70: 34
71: 31
71: 36
72: 35
73: 28
73: 39
73: 45
74: 46
75: 42
75: 46
75: 49
76: 43
76: 49
3: 57
4: 58
5: 59
6: 59
7: 59
8: 60
9: 60
10: 61
11: 62
12: 63
13: 63
14: 63
15: 63
16: 63
17: 64
18: 64
19: 64
20: 64
21: 64
22: 65
23: 65
24: 65
25: 65
26: 66
27: 66
28: 66
29: 67
30: 67
31: 68
32: 68
33: 68
34: 69
35: 70
36: 70
37: 71
38: 71
39: 71
40: 71
41: 71
42: 72
43: 72
44: 72
45: 72
46: 73
47: 74
48: 74
49: 74
50: 75
51: 76
52: 76
53: 76
54: 76
55: 76
56: 76
segment: [5]
vertex id: label
56: 0
57: 0
58: 3
59: 1
60: 0
61: 0
62: 4
63: 3
64: 4
65: 3
66: 1
67: 0
68: 4
69: 3
70: 1
71: 0
72: 3
73: 1
74: 0
75: 3
0: 5
1: 5
2: 5
3: 5
4: 5
5: 5
6: 5
7: 5
8: 5
9: 5
10: 5
11: 5
12: 5
13: 5
14: 5
15: 5
16: 5
17: 5
18: 5
19: 5
20: 5
21: 5
22: 5
23: 5
24: 5
25: 5
26: 5
27: 5
28: 5
29: 5
30: 5
31: 5
32: 5
33: 5
34: 5
35: 5
36: 5
37: 5
38: 5
39: 5
40: 5
41: 5
42: 5
43: 5
44: 5
45: 5
46: 5
47: 5
48: 5
49: 5
50: 5
51: 5
52: 5
53: 5
54: 5
55: 5
edge from: to
56: 0
56: 1
57: 1
57: 3
58: 6
59: 9
59: 10
60: 11
60: 12
61: 12
61: 14
62: 16
63: 17
63: 19
64: 6
64: 19
65: 22
66: 17
66: 23
66: 27
67: 25
68: 28
68: 33
69: 11
69: 30
69: 35
70: 33
71: 34
72: 38
72: 43
73: 6
73: 40
73: 43
73: 45
73: 46
74: 43
75: 45
75: 51
75: 52
2: 56
3: 56
4: 57
5: 57
6: 57
7: 57
8: 58
9: 58
10: 58
11: 59
12: 59
13: 60
14: 60
15: 61
16: 61
17: 61
18: 61
19: 62
20: 63
21: 63
22: 63
23: 64
24: 64
25: 64
26: 64
27: 65
28: 66
29: 66
30: 67
31: 67
32: 67
33: 67
34: 68
35: 68
36: 69
37: 69
38: 69
39: 70
40: 70
41: 71
42: 71
43: 71
44: 71
45: 72
46: 72
47: 73
48: 73
49: 73
50: 73
51: 74
52: 74
53: 75
54: 75
55: 75
segment: [6]
vertex id: label
59: 0
60: 3
61: 1
62: 0
63: 0
64: 0
65: 4
66: 3
67: 4
68: 3
69: 1
70: 0
71: 3
72: 1
73: 0
74: 3
75: 1
76: 3
77: 1
78: 0
0: 5
1: 5
2: 5
3: 5
4: 5
5: 5
6: 5
7: 5
8: 5
9: 5
10: 5
11: 5
12: 5
13: 5
14: 5
15: 5
16: 5
17: 5
18: 5
19: 5
20: 5
21: 5
22: 5
23: 5
24: 5
25: 5
26: 5
27: 5
28: 5
29: 5
30: 5
31: 5
32: 5
33: 5
34: 5
35: 5
36: 5
37: 5
38: 5
39: 5
40: 5
41: 5
42: 5
43: 5
44: 5
45: 5
46: 5
47: 5
48: 5
49: 5
50: 5
51: 5
52: 5
53: 5
54: 5
55: 5
56: 5
57: 5
58: 5
edge from: to
59: 0
60: 1
60: 4
61: 4
61: 5
61: 6
62: 8
63: 4
63: 11
63: 12
64: 12
64: 14
65: 14
65: 16
66: 17
67: 18
67: 19
67: 21
68: 20
68: 21
68: 23
69: 23
70: 25
70: 29
71: 28
71: 33
72: 11
72: 30
72: 35
73: 34
73: 36
73: 39
74: 11
74: 35
74: 41
75: 46
76: 45
76: 51
76: 52
77: 46
78: 47
78: 54
1: 59
2: 59
3: 59
4: 59
5: 60
6: 60
7: 61
8: 61
9: 61
10: 62
11: 62
12: 62
13: 63
14: 63
15: 64
16: 64
17: 65
18: 65
19: 65
20: 65
21: 66
22: 67
23: 67
24: 68
25: 68
26: 68
27: 68
28: 69
29: 69
30: 70
31: 70
32: 70
33: 70
34: 71
35: 71
36: 72
37: 72
38: 72
39: 72
40: 73
41: 73
42: 74
43: 74
44: 74
45: 74
46: 74
47: 75
48: 75
49: 75
50: 75
51: 75
52: 75
53: 76
54: 76
55: 77
56: 78
57: 78
58: 78
segment: [7]
vertex id: label
65: 0
66: 3
67: 4
68: 3
69: 4
70: 3
71: 4
72: 3
73: 4
74: 3
75: 1
76: 0
77: 3
78: 1
79: 3
80: 4
81: 3
82: 4
83: 3
84: 1
0: 5
1: 5
2: 5
3: 5
4: 5
5: 5
6: 5
7: 5
8: 5
9: 5
10: 5
11: 5
12: 5
13: 5
14: 5
15: 5
16: 5
17: 5
18: 5
19: 5
20: 5
21: 5
22: 5
23: 5
24: 5
25: 5
26: 5
27: 5
28: 5
29: 5
30: 5
31: 5
32: 5
33: 5
34: 5
35: 5
36: 5
37: 5
38: 5
39: 5
40: 5
41: 5
42: 5
43: 5
44: 5
45: 5
46: 5
47: 5
48: 5
49: 5
50: 5
51: 5
52: 5
53: 5
54: 5
55: 5
56: 5
57: 5
58: 5
59: 5
60: 5
61: 5
62: 5
63: 5
64: 5
edge from: to
65: 0
66: 1
66: 2
66: 3
67: 4
67: 5
67: 6
68: 7
69: 10
70: 11
71: 15
71: 16
71: 17
72: 18
72: 19
72: 21
73: 22
73: 25
74: 23
75: 27
76: 11
76: 30
76: 35
77: 11
77: 35
77: 41
78: 38
78: 43
79: 41
80: 49
80: 52
80: 53
81: 47
82: 50
83: 51
84: 60
1: 65
2: 65
3: 65
4: 66
5: 66
6: 66
7: 67
8: 67
9: 68
10: 68
11: 68
12: 69
13: 70
14: 70
15: 70
16: 70
17: 70
18: 71
19: 71
20: 71
21: 71
22: 72
23: 72
24: 72
25: 72
26: 73
27: 73
28: 74
29: 74
30: 74
31: 74
32: 75
33: 75
34: 75
35: 75
36: 76
37: 76
38: 76
39: 76
40: 76
41: 76
42: 77
43: 77
44: 77
45: 78
46: 78
47: 78
48: 78
49: 79
50: 79
51: 79
52: 79
53: 79
54: 80
55: 80
56: 81
57: 81
58: 81
59: 82
60: 83
61: 84
62: 84
63: 84
64: 84
segment: [8]
vertex id: label
62: 0
63: 3
64: 4
65: 3
66: 1
67: 0
68: 3
69: 4
70: 3
71: 4
72: 3
73: 1
74: 0
75: 3
76: 1
77: 0
78: 3
79: 1
80: 0
81: 0
0: 5
1: 5
2: 5
3: 5
4: 5
5: 5
6: 5
7: 5
8: 5
9: 5
10: 5
11: 5
12: 5
13: 5
14: 5
15: 5
16: 5
17: 5
18: 5
19: 5
20: 5
21: 5
22: 5
23: 5
24: 5
25: 5
26: 5
27: 5
28: 5
29: 5
30: 5
31: 5
32: 5
33: 5
34: 5
35: 5
36: 5
37: 5
38: 5
39: 5
40: 5
41: 5
42: 5
43: 5
44: 5
45: 5
46: 5
47: 5
48: 5
49: 5
50: 5
51: 5
52: 5
53: 5
54: 5
55: 5
56: 5
57: 5
58: 5
59: 5
60: 5
61: 5
edge from: to
62: 0
62: 1
63: 1
63: 2
63: 3
64: 6
65: 8
66: 7
66: 8
66: 9
66: 10
67: 12
68: 13
68: 14
68: 15
69: 5
69: 16
70: 6
70: 19
71: 22
71: 25
72: 24
72: 28
73: 25
73: 29
74: 27
75: 28
75: 30
75: 32
75: 33
76: 31
77: 34
77: 40
78: 36
79: 40
79: 46
80: 45
81: 47
81: 54
2: 62
3: 62
4: 63
5: 63
6: 63
7: 63
8: 64
9: 64
10: 65
11: 66
12: 66
13: 66
14: 66
15: 67
16: 68
17: 68
18: 68
19: 69
20: 69
21: 69
22: 69
23: 70
24: 70
25: 70
26: 71
27: 71
28: 71
29: 72
30: 73
31: 73
32: 74
33: 74
34: 75
35: 75
36: 75
37: 76
38: 76
39: 76
40: 76
41: 77
42: 77
43: 78
44: 78
45: 78
46: 78
47: 78
48: 79
49: 79
50: 79
51: 79
52: 79
53: 80
54: 80
55: 80
56: 81
57: 81
58: 81
59: 81
60: 81
61: 81
segment: [9]
vertex id: label
62: 0
63: 3
64: 4
65: 3
66: 1
67: 0
68: 3
69: 4
70: 3
71: 1
72: 0
73: 4
74: 3
75: 4
76: 3
77: 1
78: 0
79: 4
80: 3
81: 1
0: 5
1: 5
2: 5
3: 5
4: 5
5: 5
6: 5
7: 5
8: 5
9: 5
10: 5
11: 5
12: 5
13: 5
14: 5
15: 5
16: 5
17: 5
18: 5
19: 5
20: 5
21: 5
22: 5
23: 5
24: 5
25: 5
26: 5
27: 5
28: 5
29: 5
30: 5
31: 5
32: 5
33: 5
34: 5
35: 5
36: 5
37: 5
38: 5
39: 5
40: 5
41: 5
42: 5
43: 5
44: 5
45: 5
46: 5
47: 5
48: 5
49: 5
50: 5
51: 5
52: 5
53: 5
54: 5
55: 5
56: 5
57: 5
58: 5
59: 5
60: 5
61: 5
edge from: to
62: 0
63: 0
63: 1
64: 1
64: 2
64: 3
65: 5
66: 6
67: 7
67: 8
68: 3
68: 10
69: 10
69: 14
69: 15
69: 16
70: 15
71: 20
71: 23
72: 24
72: 28
73: 28
73: 32
74: 10
74: 32
75: 11
75: 35
76: 43
76: 45
76: 46
77: 41
77: 45
77: 47
77: 48
78: 43
78: 49
79: 44
80: 47
81: 49
1: 62
2: 63
3: 63
4: 64
5: 64
6: 65
7: 65
8: 66
9: 67
10: 67
11: 67
12: 68
13: 68
14: 68
15: 68
16: 68
17: 69
18: 70
19: 70
20: 70
21: 70
22: 70
23: 70
24: 71
25: 71
26: 71
27: 71
28: 71
29: 72
30: 72
31: 72
32: 72
33: 73
34: 73
35: 73
36: 73
37: 73
38: 74
39: 74
40: 74
41: 74
42: 75
43: 75
44: 75
45: 75
46: 75
47: 76
48: 76
49: 77
50: 77
51: 78
52: 79
53: 79
54: 79
55: 79
56: 80
57: 80
58: 81
59: 81
60: 81
61: 81
