segment: [0]
vertex id: label
161: 0
162: 1
163: 4
164: 3
165: 3
166: 3
167: 3
168: 3
169: 4
170: 2
171: 3
172: 3
173: 3
174: 3
175: 3
176: 3
177: 3
178: 3
179: 3
180: 3
181: 3
182: 3
183: 4
184: 2
185: 3
186: 3
187: 3
188: 3
189: 3
190: 2
191: 3
192: 3
193: 3
194: 3
195: 3
196: 4
197: 3
198: 3
199: 3
200: 3
201: 3
202: 3
203: 1
204: 4
205: 2
206: 3
207: 3
208: 3
209: 3
210: 3
0: 5
1: 5
2: 5
3: 5
4: 5
5: 5
6: 5
7: 5
8: 5
9: 5
10: 5
11: 5
12: 5
13: 5
14: 5
15: 5
16: 5
17: 5
18: 5
19: 5
20: 5
21: 5
22: 5
23: 5
24: 5
25: 5
26: 5
27: 5
28: 5
29: 5
30: 5
31: 5
32: 5
33: 5
34: 5
35: 5
36: 5
37: 5
38: 5
39: 5
40: 5
41: 5
42: 5
43: 5
44: 5
45: 5
46: 5
47: 5
48: 5
49: 5
50: 5
51: 5
52: 5
53: 5
54: 5
55: 5
56: 5
57: 5
58: 5
59: 5
60: 5
61: 5
62: 5
63: 5
64: 5
65: 5
66: 5
67: 5
68: 5
69: 5
70: 5
71: 5
72: 5
73: 5
74: 5
75: 5
76: 5
77: 5
78: 5
79: 5
80: 5
81: 5
82: 5
83: 5
84: 5
85: 5
86: 5
87: 5
88: 5
89: 5
90: 5
91: 5
92: 5
93: 5
94: 5
95: 5
96: 5
97: 5
98: 5
99: 5
100: 5
101: 5
102: 5
103: 5
104: 5
105: 5
106: 5
107: 5
108: 5
109: 5
110: 5
111: 5
112: 5
113: 5
114: 5
115: 5
116: 5
117: 5
118: 5
119: 5
120: 5
121: 5
122: 5
123: 5
124: 5
125: 5
126: 5
127: 5
128: 5
129: 5
130: 5
131: 5
132: 5
133: 5
134: 5
135: 5
136: 5
137: 5
138: 5
139: 5
140: 5
141: 5
142: 5
143: 5
144: 5
145: 5
146: 5
147: 5
148: 5
149: 5
150: 5
151: 5
152: 5
153: 5
154: 5
155: 5
156: 5
157: 5
158: 5
159: 5
160: 5
edge from: to
161: 0
162: 1
163: 2
163: 6
164: 1
164: 9
165: 12
166: 16
167: 18
167: 19
168: 22
169: 23
169: 26
170: 29
171: 29
171: 32
171: 33
172: 37
173: 12
173: 37
173: 39
174: 44
175: 14
176: 50
177: 6
177: 47
177: 53
178: 49
178: 51
178: 54
178: 55
178: 56
179: 17
180: 55
180: 59
181: 56
181: 62
182: 65
183: 62
183: 67
184: 64
184: 69
185: 71
186: 68
186: 74
187: 77
188: 24
189: 75
189: 81
189: 82
189: 83
189: 84
190: 86
191: 83
191: 90
192: 88
192: 96
193: 99
194: 94
194: 102
195: 109
196: 112
197: 105
197: 115
198: 108
198: 116
198: 118
198: 119
199: 122
200: 116
200: 127
201: 15
201: 121
201: 132
202: 123
202: 135
203: 141
204: 132
204: 144
205: 133
205: 144
205: 146
206: 17
206: 137
206: 150
207: 138
207: 149
207: 151
208: 140
208: 153
209: 46
210: 157
1: 161
2: 161
3: 161
4: 162
5: 162
6: 162
7: 163
8: 163
9: 163
10: 164
11: 164
12: 164
13: 165
14: 165
15: 165
16: 165
17: 166
18: 166
19: 166
20: 167
21: 167
22: 167
23: 168
24: 168
25: 168
26: 168
27: 169
28: 169
29: 169
30: 170
31: 170
32: 170
33: 170
34: 171
35: 171
36: 171
37: 171
38: 172
39: 172
40: 172
41: 173
42: 173
43: 173
44: 173
45: 174
46: 174
47: 174
48: 175
49: 175
50: 175
51: 176
52: 176
53: 176
54: 177
55: 177
56: 177
57: 178
58: 179
59: 179
60: 179
61: 180
62: 180
63: 180
64: 181
65: 181
66: 181
67: 182
68: 182
69: 183
70: 183
71: 184
72: 184
73: 185
74: 185
75: 185
76: 186
77: 186
78: 186
79: 187
80: 187
81: 187
82: 188
83: 188
84: 188
85: 189
86: 189
87: 189
88: 190
89: 190
90: 190
91: 190
92: 191
93: 191
94: 191
95: 191
96: 191
97: 191
98: 192
99: 192
100: 192
101: 193
102: 193
103: 193
104: 194
105: 194
106: 194
107: 194
108: 194
109: 194
110: 194
111: 195
112: 195
113: 195
114: 196
115: 196
116: 196
117: 197
118: 197
119: 197
120: 198
121: 198
122: 198
123: 198
124: 199
125: 199
126: 199
127: 199
128: 199
129: 200
130: 200
131: 200
132: 200
133: 200
134: 201
135: 201
136: 201
137: 202
138: 202
139: 202
140: 202
141: 202
142: 202
143: 203
144: 203
145: 203
146: 204
147: 204
148: 205
149: 205
150: 205
151: 205
152: 206
153: 207
154: 207
155: 208
156: 208
157: 209
158: 209
159: 210
160: 210
segment: [1]
vertex id: label
161: 0
162: 1
163: 4
164: 2
165: 3
166: 3
167: 3
168: 3
169: 3
170: 3
171: 3
172: 3
173: 3
174: 3
175: 3
176: 3
177: 3
178: 3
179: 3
180: 3
181: 3
182: 3
183: 3
184: 3
185: 3
186: 3
187: 3
188: 3
189: 3
190: 3
191: 3
192: 3
193: 3
194: 3
195: 3
196: 3
197: 3
198: 3
199: 3
200: 3
201: 3
202: 3
203: 3
204: 3
205: 3
206: 3
207: 3
208: 3
209: 3
210: 4
0: 5
1: 5
2: 5
3: 5
4: 5
5: 5
6: 5
7: 5
8: 5
9: 5
10: 5
11: 5
12: 5
13: 5
14: 5
15: 5
16: 5
17: 5
18: 5
19: 5
20: 5
21: 5
22: 5
23: 5
24: 5
25: 5
26: 5
27: 5
28: 5
29: 5
30: 5
31: 5
32: 5
33: 5
34: 5
35: 5
36: 5
37: 5
38: 5
39: 5
40: 5
41: 5
42: 5
43: 5
44: 5
45: 5
46: 5
47: 5
48: 5
49: 5
50: 5
51: 5
52: 5
53: 5
54: 5
55: 5
56: 5
57: 5
58: 5
59: 5
60: 5
61: 5
62: 5
63: 5
64: 5
65: 5
66: 5
67: 5
68: 5
69: 5
70: 5
71: 5
72: 5
73: 5
74: 5
75: 5
76: 5
77: 5
78: 5
79: 5
80: 5
81: 5
82: 5
83: 5
84: 5
85: 5
86: 5
87: 5
88: 5
89: 5
90: 5
91: 5
92: 5
93: 5
94: 5
95: 5
96: 5
97: 5
98: 5
99: 5
100: 5
101: 5
102: 5
103: 5
104: 5
105: 5
106: 5
107: 5
108: 5
109: 5
110: 5
111: 5
112: 5
113: 5
114: 5
115: 5
116: 5
117: 5
118: 5
119: 5
120: 5
121: 5
122: 5
123: 5
124: 5
125: 5
126: 5
127: 5
128: 5
129: 5
130: 5
131: 5
132: 5
133: 5
134: 5
135: 5
136: 5
137: 5
138: 5
139: 5
140: 5
141: 5
142: 5
143: 5
144: 5
145: 5
146: 5
147: 5
148: 5
149: 5
150: 5
151: 5
152: 5
153: 5
154: 5
155: 5
156: 5
157: 5
158: 5
159: 5
160: 5
edge from: to
161: 0
162: 2
163: 4
164: 2
165: 8
166: 11
167: 15
168: 7
168: 13
168: 17
168: 18
169: 9
169: 18
169: 19
170: 6
171: 7
171: 20
172: 25
172: 27
172: 28
173: 28
173: 32
174: 32
174: 36
175: 36
175: 39
175: 40
175: 41
176: 44
177: 46
178: 45
178: 47
178: 48
178: 49
179: 46
179: 50
179: 52
180: 51
180: 54
180: 56
181: 55
181: 59
182: 19
183: 62
183: 66
183: 67
184: 71
185: 79
186: 78
186: 85
187: 79
187: 86
188: 83
188: 89
188: 90
189: 92
190: 88
190: 96
191: 100
192: 93
192: 103
193: 107
194: 110
195: 104
195: 111
195: 113
195: 114
196: 34
196: 104
197: 108
197: 116
197: 118
198: 110
198: 120
199: 126
200: 129
201: 122
201: 133
202: 123
202: 135
203: 41
203: 126
203: 136
204: 142
205: 145
206: 133
206: 146
207: 138
207: 151
208: 153
209: 142
209: 156
210: 158
1: 161
2: 161
3: 162
4: 162
5: 163
6: 163
7: 164
8: 164
9: 165
10: 165
11: 165
12: 166
13: 166
14: 166
15: 166
16: 167
17: 167
18: 167
19: 168
20: 169
21: 170
22: 170
23: 170
24: 171
25: 171
26: 171
27: 171
28: 171
29: 172
30: 172
31: 172
32: 172
33: 173
34: 173
35: 173
36: 173
37: 174
38: 174
39: 174
40: 174
41: 174
42: 175
43: 175
44: 175
45: 176
46: 176
47: 177
48: 177
49: 177
50: 178
51: 178
52: 178
53: 179
54: 179
55: 179
56: 179
57: 180
58: 180
59: 180
60: 180
61: 181
62: 181
63: 181
64: 181
65: 182
66: 182
67: 182
68: 182
69: 183
70: 183
71: 183
72: 183
73: 184
74: 184
75: 184
76: 184
77: 184
78: 184
79: 184
80: 184
81: 185
82: 185
83: 185
84: 185
85: 185
86: 185
87: 186
88: 187
89: 187
90: 187
91: 187
92: 188
93: 188
94: 189
95: 189
96: 189
97: 189
98: 190
99: 190
100: 190
101: 190
102: 191
103: 191
104: 191
105: 192
106: 192
107: 192
108: 192
109: 193
110: 193
111: 193
112: 194
113: 194
114: 194
115: 195
116: 196
117: 196
118: 196
119: 196
120: 197
121: 197
122: 198
123: 198
124: 198
125: 198
126: 198
127: 198
128: 199
129: 199
130: 199
131: 200
132: 200
133: 200
134: 200
135: 201
136: 201
137: 202
138: 202
139: 202
140: 203
141: 203
142: 203
143: 203
144: 204
145: 204
146: 204
147: 205
148: 206
149: 206
150: 206
151: 206
152: 206
153: 207
154: 207
155: 208
156: 208
157: 208
158: 209
159: 209
160: 210
segment: [2]
vertex id: label
133: 0
134: 1
135: 4
136: 3
137: 3
138: 3
139: 3
140: 3
141: 3
142: 3
143: 3
144: 3
145: 3
146: 3
147: 3
148: 4
149: 2
150: 3
151: 3
152: 3
153: 3
154: 3
155: 3
156: 4
157: 2
158: 3
159: 3
160: 3
161: 3
162: 3
163: 3
164: 3
165: 3
166: 3
167: 2
168: 3
169: 3
170: 3
171: 3
172: 3
173: 3
174: 4
175: 2
176: 3
177: 3
178: 3
179: 3
180: 3
181: 3
182: 3
0: 5
1: 5
2: 5
3: 5
4: 5
5: 5
6: 5
7: 5
8: 5
9: 5
10: 5
11: 5
12: 5
13: 5
14: 5
15: 5
16: 5
17: 5
18: 5
19: 5
20: 5
21: 5
22: 5
23: 5
24: 5
25: 5
26: 5
27: 5
28: 5
29: 5
30: 5
31: 5
32: 5
33: 5
34: 5
35: 5
36: 5
37: 5
38: 5
39: 5
40: 5
41: 5
42: 5
43: 5
44: 5
45: 5
46: 5
47: 5
48: 5
49: 5
50: 5
51: 5
52: 5
53: 5
54: 5
55: 5
56: 5
57: 5
58: 5
59: 5
60: 5
61: 5
62: 5
63: 5
64: 5
65: 5
66: 5
67: 5
68: 5
69: 5
70: 5
71: 5
72: 5
73: 5
74: 5
75: 5
76: 5
77: 5
78: 5
79: 5
80: 5
81: 5
82: 5
83: 5
84: 5
85: 5
86: 5
87: 5
88: 5
89: 5
90: 5
91: 5
92: 5
93: 5
94: 5
95: 5
96: 5
97: 5
98: 5
99: 5
100: 5
101: 5
102: 5
103: 5
104: 5
105: 5
106: 5
107: 5
108: 5
109: 5
110: 5
111: 5
112: 5
113: 5
114: 5
115: 5
116: 5
117: 5
118: 5
119: 5
120: 5
121: 5
122: 5
123: 5
124: 5
125: 5
126: 5
127: 5
128: 5
129: 5
130: 5
131: 5
132: 5
edge from: to
133: 0
134: 1
135: 5
136: 5
136: 7
137: 3
138: 4
138: 12
138: 13
139: 15
139: 16
140: 18
140: 19
141: 7
141: 20
141: 22
141: 23
142: 21
142: 24
143: 27
144: 27
144: 29
145: 31
146: 31
146: 35
147: 32
147: 36
148: 12
148: 37
149: 44
150: 46
151: 45
151: 49
152: 51
153: 53
154: 58
155: 55
155: 61
156: 19
157: 61
157: 66
158: 62
158: 67
159: 64
159: 68
159: 69
160: 66
160: 70
160: 71
161: 66
161: 73
162: 75
163: 71
163: 76
163: 77
164: 83
165: 77
165: 84
166: 86
167: 82
167: 88
167: 89
168: 84
168: 93
169: 29
169: 89
170: 92
170: 98
170: 100
170: 101
171: 102
172: 95
172: 104
173: 98
173: 105
173: 107
174: 109
175: 111
176: 103
176: 112
177: 104
177: 111
177: 113
178: 117
179: 120
180: 14
180: 113
180: 123
180: 124
181: 114
181: 123
181: 125
182: 115
182: 124
182: 126
1: 133
2: 133
3: 133
4: 134
5: 134
6: 135
7: 135
8: 136
9: 136
10: 136
11: 137
12: 137
13: 137
14: 138
15: 138
16: 138
17: 139
18: 139
19: 139
20: 140
21: 140
22: 140
23: 140
24: 141
25: 142
26: 142
27: 142
28: 143
29: 143
30: 144
31: 144
32: 145
33: 145
34: 145
35: 145
36: 146
37: 147
38: 147
39: 147
40: 147
41: 148
42: 148
43: 148
44: 148
45: 149
46: 149
47: 150
48: 150
49: 150
50: 151
51: 151
52: 152
53: 152
54: 153
55: 153
56: 153
57: 153
58: 153
59: 154
60: 154
61: 154
62: 154
63: 155
64: 155
65: 156
66: 156
67: 156
68: 157
69: 158
70: 158
71: 159
72: 159
73: 160
74: 160
75: 161
76: 161
77: 162
78: 162
79: 163
80: 163
81: 163
82: 163
83: 163
84: 163
85: 164
86: 165
87: 165
88: 166
89: 166
90: 166
91: 167
92: 167
93: 167
94: 167
95: 168
96: 168
97: 168
98: 168
99: 169
100: 169
101: 169
102: 170
103: 170
104: 171
105: 171
106: 172
107: 172
108: 172
109: 173
110: 173
111: 174
112: 174
113: 175
114: 176
115: 177
116: 177
117: 177
118: 177
119: 178
120: 178
121: 178
122: 179
123: 179
124: 179
125: 180
126: 180
127: 181
128: 182
129: 182
130: 182
131: 182
132: 182
segment: [3]
vertex id: label
166: 0
167: 1
168: 4
169: 2
170: 3
171: 2
172: 3
173: 3
174: 3
175: 3
176: 3
177: 3
178: 3
179: 3
180: 3
181: 3
182: 3
183: 3
184: 3
185: 3
186: 3
187: 3
188: 3
189: 3
190: 3
191: 3
192: 3
193: 4
194: 2
195: 3
196: 3
197: 3
198: 3
199: 3
200: 4
201: 2
202: 3
203: 3
204: 3
205: 3
206: 3
207: 3
208: 3
209: 3
210: 3
211: 4
212: 2
213: 3
214: 4
215: 2
0: 5
1: 5
2: 5
3: 5
4: 5
5: 5
6: 5
7: 5
8: 5
9: 5
10: 5
11: 5
12: 5
13: 5
14: 5
15: 5
16: 5
17: 5
18: 5
19: 5
20: 5
21: 5
22: 5
23: 5
24: 5
25: 5
26: 5
27: 5
28: 5
29: 5
30: 5
31: 5
32: 5
33: 5
34: 5
35: 5
36: 5
37: 5
38: 5
39: 5
40: 5
41: 5
42: 5
43: 5
44: 5
45: 5
46: 5
47: 5
48: 5
49: 5
50: 5
51: 5
52: 5
53: 5
54: 5
55: 5
56: 5
57: 5
58: 5
59: 5
60: 5
61: 5
62: 5
63: 5
64: 5
65: 5
66: 5
67: 5
68: 5
69: 5
70: 5
71: 5
72: 5
73: 5
74: 5
75: 5
76: 5
77: 5
78: 5
79: 5
80: 5
81: 5
82: 5
83: 5
84: 5
85: 5
86: 5
87: 5
88: 5
89: 5
90: 5
91: 5
92: 5
93: 5
94: 5
95: 5
96: 5
97: 5
98: 5
99: 5
100: 5
101: 5
102: 5
103: 5
104: 5
105: 5
106: 5
107: 5
108: 5
109: 5
110: 5
111: 5
112: 5
113: 5
114: 5
115: 5
116: 5
117: 5
118: 5
119: 5
120: 5
121: 5
122: 5
123: 5
124: 5
125: 5
126: 5
127: 5
128: 5
129: 5
130: 5
131: 5
132: 5
133: 5
134: 5
135: 5
136: 5
137: 5
138: 5
139: 5
140: 5
141: 5
142: 5
143: 5
144: 5
145: 5
146: 5
147: 5
148: 5
149: 5
150: 5
151: 5
152: 5
153: 5
154: 5
155: 5
156: 5
157: 5
158: 5
159: 5
160: 5
161: 5
162: 5
163: 5
164: 5
165: 5
edge from: to
166: 0
166: 1
166: 2
166: 3
167: 5
168: 2
168: 6
169: 9
170: 3
170: 9
170: 10
171: 4
171: 12
172: 5
172: 13
172: 14
173: 15
174: 9
174: 18
174: 19
175: 21
175: 23
175: 24
176: 28
177: 31
178: 34
179: 34
179: 37
180: 41
181: 40
181: 45
182: 46
182: 48
182: 50
183: 46
183: 52
184: 39
184: 40
184: 48
184: 52
184: 53
184: 54
185: 17
185: 52
186: 61
187: 59
187: 64
188: 61
188: 65
188: 66
189: 64
189: 69
190: 72
191: 70
191: 76
192: 72
192: 78
193: 81
194: 77
194: 84
195: 85
196: 87
197: 84
197: 91
198: 86
198: 94
199: 29
199: 89
200: 103
201: 105
202: 98
202: 107
203: 111
204: 34
204: 104
205: 105
205: 115
206: 110
206: 120
207: 124
208: 119
208: 130
209: 124
209: 134
209: 136
210: 128
210: 138
210: 140
211: 107
211: 132
211: 142
211: 144
212: 135
212: 148
213: 138
213: 149
213: 151
214: 142
214: 154
214: 156
215: 147
215: 161
4: 166
5: 166
6: 167
7: 168
8: 168
9: 168
10: 169
11: 170
12: 170
13: 170
14: 171
15: 172
16: 173
17: 173
18: 173
19: 173
20: 174
21: 174
22: 174
23: 174
24: 174
25: 175
26: 175
27: 175
28: 175
29: 176
30: 176
31: 176
32: 177
33: 177
34: 177
35: 178
36: 178
37: 178
38: 179
39: 179
40: 179
41: 179
42: 180
43: 180
44: 180
45: 180
46: 181
47: 181
48: 181
49: 181
50: 181
51: 182
52: 182
53: 183
54: 183
55: 184
56: 184
57: 184
58: 185
59: 185
60: 185
61: 185
62: 186
63: 186
64: 186
65: 186
66: 187
67: 187
68: 188
69: 188
70: 188
71: 189
72: 189
73: 189
74: 190
75: 190
76: 190
77: 190
78: 191
79: 191
80: 192
81: 192
82: 192
83: 193
84: 193
85: 193
86: 194
87: 195
88: 195
89: 196
90: 196
91: 196
92: 196
93: 197
94: 197
95: 197
96: 198
97: 198
98: 198
99: 199
100: 199
101: 199
102: 199
103: 199
104: 199
105: 200
106: 200
107: 201
108: 201
109: 202
110: 202
111: 202
112: 202
113: 203
114: 203
115: 203
116: 204
117: 205
118: 205
119: 205
120: 205
121: 205
122: 206
123: 206
124: 206
125: 206
126: 207
127: 207
128: 207
129: 207
130: 207
131: 207
132: 208
133: 208
134: 208
135: 208
136: 208
137: 208
138: 209
139: 209
140: 209
141: 209
142: 210
143: 210
144: 210
145: 210
146: 211
147: 211
148: 211
149: 211
150: 212
151: 212
152: 212
153: 213
154: 213
155: 213
156: 213
157: 213
158: 214
159: 214
160: 214
161: 214
162: 214
163: 215
164: 215
165: 215
segment: [4]
vertex id: label
162: 0
163: 1
164: 2
165: 3
166: 3
167: 4
168: 2
169: 3
170: 3
171: 3
172: 3
173: 3
174: 3
175: 3
176: 3
177: 3
178: 3
179: 3
180: 3
181: 3
182: 3
183: 3
184: 3
185: 3
186: 3
187: 3
188: 3
189: 3
190: 3
191: 3
192: 3
193: 3
194: 3
195: 3
196: 3
197: 3
198: 3
199: 3
200: 3
201: 3
202: 3
203: 3
204: 3
205: 3
206: 3
207: 3
208: 3
209: 4
210: 3
211: 3
0: 5
1: 5
2: 5
3: 5
4: 5
5: 5
6: 5
7: 5
8: 5
9: 5
10: 5
11: 5
12: 5
13: 5
14: 5
15: 5
16: 5
17: 5
18: 5
19: 5
20: 5
21: 5
22: 5
23: 5
24: 5
25: 5
26: 5
27: 5
28: 5
29: 5
30: 5
31: 5
32: 5
33: 5
34: 5
35: 5
36: 5
37: 5
38: 5
39: 5
40: 5
41: 5
42: 5
43: 5
44: 5
45: 5
46: 5
47: 5
48: 5
49: 5
50: 5
51: 5
52: 5
53: 5
54: 5
55: 5
56: 5
57: 5
58: 5
59: 5
60: 5
61: 5
62: 5
63: 5
64: 5
65: 5
66: 5
67: 5
68: 5
69: 5
70: 5
71: 5
72: 5
73: 5
74: 5
75: 5
76: 5
77: 5
78: 5
79: 5
80: 5
81: 5
82: 5
83: 5
84: 5
85: 5
86: 5
87: 5
88: 5
89: 5
90: 5
91: 5
92: 5
93: 5
94: 5
95: 5
96: 5
97: 5
98: 5
99: 5
100: 5
101: 5
102: 5
103: 5
104: 5
105: 5
106: 5
107: 5
108: 5
109: 5
110: 5
111: 5
112: 5
113: 5
114: 5
115: 5
116: 5
117: 5
118: 5
119: 5
120: 5
121: 5
122: 5
123: 5
124: 5
125: 5
126: 5
127: 5
128: 5
129: 5
130: 5
131: 5
132: 5
133: 5
134: 5
135: 5
136: 5
137: 5
138: 5
139: 5
140: 5
141: 5
142: 5
143: 5
144: 5
145: 5
146: 5
147: 5
148: 5
149: 5
150: 5
151: 5
152: 5
153: 5
154: 5
155: 5
156: 5
157: 5
158: 5
159: 5
160: 5
161: 5
edge from: to
162: 0
163: 1
163: 2
163: 3
164: 2
165: 5
165: 6
165: 7
166: 9
167: 9
167: 11
167: 12
168: 13
168: 14
169: 19
169: 22
170: 23
170: 26
171: 32
172: 31
172: 35
173: 35
173: 38
174: 42
175: 46
176: 45
176: 49
177: 54
178: 51
178: 54
178: 56
179: 58
180: 56
180: 62
181: 59
181: 63
181: 64
182: 63
182: 68
183: 70
184: 73
185: 69
185: 74
185: 75
186: 24
186: 74
186: 79
187: 75
187: 80
187: 81
188: 79
188: 86
189: 88
190: 83
190: 89
190: 90
191: 84
191: 93
192: 96
193: 101
194: 96
194: 105
195: 98
195: 105
195: 107
196: 101
196: 108
196: 110
197: 111
198: 117
199: 36
199: 111
199: 119
200: 112
200: 122
201: 113
201: 123
202: 116
202: 127
203: 117
203: 126
203: 128
204: 119
204: 130
205: 122
205: 133
206: 123
206: 135
207: 130
207: 142
208: 145
209: 149
210: 141
210: 154
211: 158
1: 162
2: 162
3: 162
4: 163
5: 163
6: 163
7: 164
8: 165
9: 165
10: 166
11: 166
12: 166
13: 167
14: 167
15: 168
16: 168
17: 168
18: 168
19: 168
20: 168
21: 168
22: 168
23: 169
24: 169
25: 169
26: 169
27: 170
28: 170
29: 170
30: 170
31: 170
32: 170
33: 171
34: 171
35: 171
36: 172
37: 172
38: 172
39: 173
40: 173
41: 173
42: 173
43: 174
44: 174
45: 174
46: 174
47: 175
48: 175
49: 175
50: 176
51: 176
52: 176
53: 176
54: 176
55: 177
56: 177
57: 178
58: 178
59: 179
60: 179
61: 179
62: 179
63: 179
64: 180
65: 180
66: 181
67: 181
68: 181
69: 181
70: 182
71: 182
72: 183
73: 183
74: 183
75: 184
76: 184
77: 185
78: 185
79: 185
80: 185
81: 185
82: 186
83: 187
84: 187
85: 187
86: 187
87: 187
88: 188
89: 188
90: 189
91: 189
92: 190
93: 190
94: 190
95: 191
96: 191
97: 191
98: 192
99: 192
100: 192
101: 192
102: 192
103: 193
104: 193
105: 193
106: 193
107: 194
108: 194
109: 195
110: 195
111: 195
112: 196
113: 197
114: 197
115: 197
116: 197
117: 197
118: 197
119: 198
120: 198
121: 198
122: 198
123: 199
124: 200
125: 201
126: 201
127: 201
128: 201
129: 202
130: 203
131: 203
132: 204
133: 204
134: 204
135: 205
136: 205
137: 206
138: 206
139: 206
140: 206
141: 206
142: 206
143: 206
144: 207
145: 207
146: 207
147: 208
148: 208
149: 208
150: 208
151: 209
152: 209
153: 209
154: 209
155: 209
156: 210
157: 210
158: 210
159: 210
160: 211
161: 211
segment: [5]
vertex id: label
135: 0
136: 1
137: 4
138: 3
139: 3
140: 3
141: 3
142: 3
143: 3
144: 3
145: 3
146: 3
147: 3
148: 3
149: 3
150: 3
151: 3
152: 3
153: 3
154: 3
155: 3
156: 3
157: 3
158: 3
159: 3
160: 3
161: 3
162: 3
163: 3
164: 3
165: 3
166: 4
167: 2
168: 3
169: 3
170: 3
171: 3
172: 3
173: 3
174: 3
175: 3
176: 4
177: 2
178: 1
179: 4
180: 2
181: 3
182: 3
183: 3
184: 3
0: 5
1: 5
2: 5
3: 5
4: 5
5: 5
6: 5
7: 5
8: 5
9: 5
10: 5
11: 5
12: 5
13: 5
14: 5
15: 5
16: 5
17: 5
18: 5
19: 5
20: 5
21: 5
22: 5
23: 5
24: 5
25: 5
26: 5
27: 5
28: 5
29: 5
30: 5
31: 5
32: 5
33: 5
34: 5
35: 5
36: 5
37: 5
38: 5
39: 5
40: 5
41: 5
42: 5
43: 5
44: 5
45: 5
46: 5
47: 5
48: 5
49: 5
50: 5
51: 5
52: 5
53: 5
54: 5
55: 5
56: 5
57: 5
58: 5
59: 5
60: 5
61: 5
62: 5
63: 5
64: 5
65: 5
66: 5
67: 5
68: 5
69: 5
70: 5
71: 5
72: 5
73: 5
74: 5
75: 5
76: 5
77: 5
78: 5
79: 5
80: 5
81: 5
82: 5
83: 5
84: 5
85: 5
86: 5
87: 5
88: 5
89: 5
90: 5
91: 5
92: 5
93: 5
94: 5
95: 5
96: 5
97: 5
98: 5
99: 5
100: 5
101: 5
102: 5
103: 5
104: 5
105: 5
106: 5
107: 5
108: 5
109: 5
110: 5
111: 5
112: 5
113: 5
114: 5
115: 5
116: 5
117: 5
118: 5
119: 5
120: 5
121: 5
122: 5
123: 5
124: 5
125: 5
126: 5
127: 5
128: 5
129: 5
130: 5
131: 5
132: 5
133: 5
134: 5
edge from: to
135: 0
135: 1
135: 2
136: 4
137: 1
137: 6
137: 8
138: 3
138: 9
139: 10
139: 11
140: 16
141: 18
142: 7
142: 20
142: 22
142: 23
143: 21
143: 24
144: 27
144: 29
145: 9
145: 28
145: 29
146: 32
147: 35
147: 38
148: 12
148: 37
149: 36
149: 41
150: 37
150: 42
151: 38
151: 41
151: 43
152: 5
152: 39
152: 44
153: 14
154: 49
155: 46
155: 50
156: 53
157: 51
157: 56
158: 56
158: 61
159: 47
159: 55
159: 56
159: 61
159: 62
159: 63
160: 19
160: 57
160: 62
161: 63
161: 67
161: 68
162: 69
163: 54
163: 65
163: 71
163: 72
164: 74
165: 72
165: 77
165: 78
166: 24
167: 75
167: 83
168: 79
168: 85
168: 86
169: 63
169: 65
169: 80
169: 85
169: 87
169: 88
170: 82
170: 88
170: 89
171: 91
172: 85
172: 92
173: 87
173: 95
174: 98
175: 93
175: 101
176: 94
176: 102
177: 104
178: 101
178: 110
179: 105
179: 113
179: 115
180: 106
180: 116
181: 119
182: 36
183: 126
184: 116
184: 127
3: 135
4: 135
5: 136
6: 136
7: 136
8: 136
9: 137
10: 137
11: 138
12: 139
13: 139
14: 139
15: 139
16: 139
17: 140
18: 140
19: 141
20: 141
21: 141
22: 141
23: 141
24: 142
25: 143
26: 143
27: 143
28: 143
29: 143
30: 144
31: 145
32: 145
33: 146
34: 146
35: 146
36: 146
37: 146
38: 146
39: 147
40: 147
41: 148
42: 149
43: 150
44: 151
45: 152
46: 152
47: 152
48: 153
49: 153
50: 154
51: 155
52: 155
53: 155
54: 156
55: 156
56: 156
57: 157
58: 157
59: 157
60: 157
61: 157
62: 158
63: 158
64: 159
65: 160
66: 160
67: 160
68: 160
69: 160
70: 161
71: 162
72: 162
73: 162
74: 163
75: 163
76: 164
77: 164
78: 164
79: 164
80: 165
81: 165
82: 166
83: 166
84: 166
85: 167
86: 167
87: 167
88: 168
89: 169
90: 169
91: 170
92: 170
93: 171
94: 172
95: 172
96: 172
97: 173
98: 173
99: 173
100: 174
101: 174
102: 174
103: 175
104: 176
105: 176
106: 177
107: 177
108: 177
109: 177
110: 177
111: 177
112: 178
113: 178
114: 178
115: 178
116: 178
117: 179
118: 180
119: 180
120: 180
121: 181
122: 181
123: 182
124: 182
125: 182
126: 182
127: 182
128: 183
129: 184
130: 184
131: 184
132: 184
133: 184
134: 184
segment: [6]
vertex id: label
157: 0
158: 1
159: 4
160: 2
161: 3
162: 3
163: 3
164: 3
165: 3
166: 3
167: 3
168: 3
169: 3
170: 3
171: 3
172: 3
173: 3
174: 3
175: 3
176: 3
177: 3
178: 3
179: 3
180: 3
181: 3
182: 3
183: 4
184: 2
185: 3
186: 3
187: 3
188: 3
189: 3
190: 3
191: 3
192: 3
193: 3
194: 3
195: 4
196: 2
197: 3
198: 3
199: 3
200: 3
201: 4
202: 2
203: 3
204: 4
205: 2
206: 3
0: 5
1: 5
2: 5
3: 5
4: 5
5: 5
6: 5
7: 5
8: 5
9: 5
10: 5
11: 5
12: 5
13: 5
14: 5
15: 5
16: 5
17: 5
18: 5
19: 5
20: 5
21: 5
22: 5
23: 5
24: 5
25: 5
26: 5
27: 5
28: 5
29: 5
30: 5
31: 5
32: 5
33: 5
34: 5
35: 5
36: 5
37: 5
38: 5
39: 5
40: 5
41: 5
42: 5
43: 5
44: 5
45: 5
46: 5
47: 5
48: 5
49: 5
50: 5
51: 5
52: 5
53: 5
54: 5
55: 5
56: 5
57: 5
58: 5
59: 5
60: 5
61: 5
62: 5
63: 5
64: 5
65: 5
66: 5
67: 5
68: 5
69: 5
70: 5
71: 5
72: 5
73: 5
74: 5
75: 5
76: 5
77: 5
78: 5
79: 5
80: 5
81: 5
82: 5
83: 5
84: 5
85: 5
86: 5
87: 5
88: 5
89: 5
90: 5
91: 5
92: 5
93: 5
94: 5
95: 5
96: 5
97: 5
98: 5
99: 5
100: 5
101: 5
102: 5
103: 5
104: 5
105: 5
106: 5
107: 5
108: 5
109: 5
110: 5
111: 5
112: 5
113: 5
114: 5
115: 5
116: 5
117: 5
118: 5
119: 5
120: 5
121: 5
122: 5
123: 5
124: 5
125: 5
126: 5
127: 5
128: 5
129: 5
130: 5
131: 5
132: 5
133: 5
134: 5
135: 5
136: 5
137: 5
138: 5
139: 5
140: 5
141: 5
142: 5
143: 5
144: 5
145: 5
146: 5
147: 5
148: 5
149: 5
150: 5
151: 5
152: 5
153: 5
154: 5
155: 5
156: 5
edge from: to
157: 0
158: 2
159: 0
159: 2
159: 3
159: 4
160: 7
161: 3
161: 9
162: 15
162: 16
163: 19
163: 21
163: 22
164: 25
165: 27
166: 28
166: 32
167: 29
167: 32
167: 33
168: 35
169: 36
170: 37
171: 42
172: 5
172: 39
172: 44
173: 46
174: 48
175: 49
176: 48
176: 54
177: 51
177: 56
178: 19
179: 59
179: 63
179: 64
179: 65
180: 65
181: 62
181: 66
181: 67
182: 66
182: 73
183: 70
183: 76
184: 73
184: 78
184: 79
184: 80
185: 24
185: 74
186: 87
187: 83
187: 89
187: 90
188: 84
188: 93
189: 29
189: 89
190: 93
190: 99
190: 101
191: 103
192: 98
192: 107
193: 108
194: 82
194: 101
194: 108
194: 110
195: 104
195: 113
196: 105
196: 113
196: 115
197: 119
198: 113
198: 122
198: 124
199: 117
199: 126
199: 128
200: 120
200: 131
201: 122
201: 133
202: 41
202: 126
203: 128
203: 140
204: 131
204: 143
205: 145
206: 139
206: 149
206: 150
206: 152
206: 153
1: 157
2: 157
3: 158
4: 158
5: 159
6: 159
7: 159
8: 160
9: 160
10: 160
11: 161
12: 161
13: 161
14: 161
15: 161
16: 161
17: 162
18: 162
19: 162
20: 162
21: 162
22: 162
23: 163
24: 163
25: 163
26: 164
27: 164
28: 165
29: 165
30: 165
31: 165
32: 165
33: 166
34: 167
35: 167
36: 168
37: 169
38: 170
39: 170
40: 170
41: 170
42: 170
43: 171
44: 171
45: 172
46: 172
47: 173
48: 173
49: 174
50: 175
51: 175
52: 175
53: 175
54: 175
55: 176
56: 176
57: 177
58: 177
59: 177
60: 177
61: 177
62: 177
63: 177
64: 177
65: 178
66: 179
67: 180
68: 180
69: 181
70: 181
71: 181
72: 181
73: 181
74: 181
75: 182
76: 182
77: 182
78: 183
79: 183
80: 183
81: 184
82: 185
83: 185
84: 185
85: 185
86: 185
87: 185
88: 185
89: 186
90: 186
91: 186
92: 187
93: 187
94: 187
95: 188
96: 188
97: 188
98: 188
99: 189
100: 189
101: 189
102: 189
103: 190
104: 190
105: 191
106: 191
107: 191
108: 191
109: 192
110: 193
111: 193
112: 194
113: 194
114: 194
115: 195
116: 195
117: 196
118: 196
119: 196
120: 196
121: 197
122: 197
123: 197
124: 197
125: 197
126: 198
127: 198
128: 198
129: 198
130: 199
131: 199
132: 199
133: 200
134: 200
135: 201
136: 201
137: 201
138: 201
139: 201
140: 202
141: 202
142: 203
143: 203
144: 203
145: 204
146: 204
147: 205
148: 205
149: 205
150: 205
151: 205
152: 205
153: 205
154: 206
155: 206
156: 206
segment: [7]
vertex id: label
165: 0
166: 1
167: 4
168: 3
169: 3
170: 3
171: 3
172: 3
173: 3
174: 3
175: 3
176: 3
177: 3
178: 3
179: 3
180: 3
181: 3
182: 3
183: 3
184: 3
185: 3
186: 3
187: 3
188: 3
189: 3
190: 4
191: 3
192: 3
193: 3
194: 3
195: 3
196: 3
197: 3
198: 3
199: 3
200: 4
201: 3
202: 3
203: 3
204: 2
205: 3
206: 4
207: 2
208: 3
209: 3
210: 3
211: 3
212: 3
213: 3
214: 3
0: 5
1: 5
2: 5
3: 5
4: 5
5: 5
6: 5
7: 5
8: 5
9: 5
10: 5
11: 5
12: 5
13: 5
14: 5
15: 5
16: 5
17: 5
18: 5
19: 5
20: 5
21: 5
22: 5
23: 5
24: 5
25: 5
26: 5
27: 5
28: 5
29: 5
30: 5
31: 5
32: 5
33: 5
34: 5
35: 5
36: 5
37: 5
38: 5
39: 5
40: 5
41: 5
42: 5
43: 5
44: 5
45: 5
46: 5
47: 5
48: 5
49: 5
50: 5
51: 5
52: 5
53: 5
54: 5
55: 5
56: 5
57: 5
58: 5
59: 5
60: 5
61: 5
62: 5
63: 5
64: 5
65: 5
66: 5
67: 5
68: 5
69: 5
70: 5
71: 5
72: 5
73: 5
74: 5
75: 5
76: 5
77: 5
78: 5
79: 5
80: 5
81: 5
82: 5
83: 5
84: 5
85: 5
86: 5
87: 5
88: 5
89: 5
90: 5
91: 5
92: 5
93: 5
94: 5
95: 5
96: 5
97: 5
98: 5
99: 5
100: 5
101: 5
102: 5
103: 5
104: 5
105: 5
106: 5
107: 5
108: 5
109: 5
110: 5
111: 5
112: 5
113: 5
114: 5
115: 5
116: 5
117: 5
118: 5
119: 5
120: 5
121: 5
122: 5
123: 5
124: 5
125: 5
126: 5
127: 5
128: 5
129: 5
130: 5
131: 5
132: 5
133: 5
134: 5
135: 5
136: 5
137: 5
138: 5
139: 5
140: 5
141: 5
142: 5
143: 5
144: 5
145: 5
146: 5
147: 5
148: 5
149: 5
150: 5
151: 5
152: 5
153: 5
154: 5
155: 5
156: 5
157: 5
158: 5
159: 5
160: 5
161: 5
162: 5
163: 5
164: 5
edge from: to
165: 0
165: 1
166: 4
167: 5
167: 7
168: 11
169: 4
169: 12
170: 16
171: 22
172: 23
172: 26
173: 24
173: 27
174: 9
175: 28
175: 32
176: 34
176: 37
177: 38
178: 37
178: 40
178: 42
179: 39
179: 44
180: 48
181: 53
182: 55
183: 53
183: 58
184: 56
184: 61
184: 62
185: 59
185: 63
185: 64
186: 67
187: 65
187: 71
187: 72
188: 69
188: 75
189: 79
190: 75
190: 83
191: 78
191: 84
191: 85
191: 86
192: 81
192: 87
192: 88
193: 83
193: 89
193: 90
194: 94
195: 96
196: 98
197: 93
197: 101
197: 103
198: 96
198: 105
199: 99
199: 108
200: 105
200: 113
200: 115
201: 117
202: 110
202: 120
203: 14
203: 113
203: 123
204: 117
204: 126
204: 128
205: 121
205: 132
206: 135
207: 127
207: 137
207: 139
208: 129
208: 141
209: 145
210: 137
210: 150
211: 153
212: 46
213: 145
213: 159
214: 147
214: 161
2: 165
3: 165
4: 165
5: 166
6: 166
7: 166
8: 167
9: 167
10: 167
11: 167
12: 168
13: 168
14: 169
15: 169
16: 169
17: 170
18: 170
19: 170
20: 170
21: 170
22: 170
23: 171
24: 171
25: 171
26: 171
27: 172
28: 173
29: 173
30: 173
31: 174
32: 174
33: 175
34: 175
35: 175
36: 175
37: 175
38: 176
39: 177
40: 177
41: 177
42: 177
43: 178
44: 178
45: 179
46: 179
47: 179
48: 179
49: 180
50: 180
51: 180
52: 180
53: 180
54: 181
55: 181
56: 182
57: 182
58: 182
59: 183
60: 183
61: 183
62: 183
63: 183
64: 184
65: 184
66: 185
67: 185
68: 185
69: 186
70: 186
71: 186
72: 186
73: 186
74: 187
75: 187
76: 187
77: 188
78: 188
79: 188
80: 188
81: 189
82: 189
83: 189
84: 189
85: 190
86: 190
87: 191
88: 191
89: 191
90: 192
91: 192
92: 193
93: 193
94: 193
95: 193
96: 194
97: 194
98: 195
99: 195
100: 196
101: 196
102: 196
103: 196
104: 196
105: 197
106: 197
107: 198
108: 198
109: 198
110: 199
111: 199
112: 199
113: 199
114: 199
115: 199
116: 199
117: 200
118: 200
119: 201
120: 201
121: 201
122: 202
123: 202
124: 202
125: 203
126: 203
127: 203
128: 203
129: 203
130: 204
131: 204
132: 204
133: 204
134: 205
135: 205
136: 205
137: 206
138: 206
139: 206
140: 206
141: 207
142: 207
143: 208
144: 208
145: 208
146: 208
147: 209
148: 209
149: 209
150: 209
151: 209
152: 210
153: 210
154: 210
155: 211
156: 211
157: 212
158: 212
159: 212
160: 212
161: 213
162: 213
163: 214
164: 214
segment: [8]
vertex id: label
160: 0
161: 1
162: 4
163: 2
164: 3
165: 3
166: 3
167: 3
168: 3
169: 3
170: 3
171: 3
172: 3
173: 3
174: 3
175: 3
176: 3
177: 4
178: 2
179: 3
180: 3
181: 3
182: 3
183: 3
184: 3
185: 3
186: 3
187: 3
188: 3
189: 3
190: 3
191: 3
192: 3
193: 3
194: 3
195: 3
196: 3
197: 3
198: 3
199: 3
200: 3
201: 3
202: 3
203: 3
204: 3
205: 3
206: 3
207: 3
208: 3
209: 3
0: 5
1: 5
2: 5
3: 5
4: 5
5: 5
6: 5
7: 5
8: 5
9: 5
10: 5
11: 5
12: 5
13: 5
14: 5
15: 5
16: 5
17: 5
18: 5
19: 5
20: 5
21: 5
22: 5
23: 5
24: 5
25: 5
26: 5
27: 5
28: 5
29: 5
30: 5
31: 5
32: 5
33: 5
34: 5
35: 5
36: 5
37: 5
38: 5
39: 5
40: 5
41: 5
42: 5
43: 5
44: 5
45: 5
46: 5
47: 5
48: 5
49: 5
50: 5
51: 5
52: 5
53: 5
54: 5
55: 5
56: 5
57: 5
58: 5
59: 5
60: 5
61: 5
62: 5
63: 5
64: 5
65: 5
66: 5
67: 5
68: 5
69: 5
70: 5
71: 5
72: 5
73: 5
74: 5
75: 5
76: 5
77: 5
78: 5
79: 5
80: 5
81: 5
82: 5
83: 5
84: 5
85: 5
86: 5
87: 5
88: 5
89: 5
90: 5
91: 5
92: 5
93: 5
94: 5
95: 5
96: 5
97: 5
98: 5
99: 5
100: 5
101: 5
102: 5
103: 5
104: 5
105: 5
106: 5
107: 5
108: 5
109: 5
110: 5
111: 5
112: 5
113: 5
114: 5
115: 5
116: 5
117: 5
118: 5
119: 5
120: 5
121: 5
122: 5
123: 5
124: 5
125: 5
126: 5
127: 5
128: 5
129: 5
130: 5
131: 5
132: 5
133: 5
134: 5
135: 5
136: 5
137: 5
138: 5
139: 5
140: 5
141: 5
142: 5
143: 5
144: 5
145: 5
146: 5
147: 5
148: 5
149: 5
150: 5
151: 5
152: 5
153: 5
154: 5
155: 5
156: 5
157: 5
158: 5
159: 5
edge from: to
160: 0
160: 1
161: 1
161: 2
161: 3
162: 5
162: 6
162: 7
163: 9
164: 12
165: 15
165: 16
166: 18
167: 19
167: 22
168: 25
169: 25
169: 27
169: 28
170: 21
170: 27
170: 28
170: 29
171: 28
171: 32
172: 34
172: 36
172: 37
173: 12
174: 38
174: 43
175: 44
175: 48
176: 50
177: 48
177: 52
177: 54
178: 54
178: 59
179: 61
180: 65
181: 69
182: 71
183: 73
184: 69
184: 74
184: 75
185: 72
185: 78
186: 81
187: 77
187: 84
188: 87
189: 88
190: 84
190: 90
190: 91
191: 93
192: 87
192: 95
193: 91
193: 97
193: 99
194: 93
194: 101
195: 96
195: 103
195: 105
196: 108
197: 104
197: 111
197: 113
198: 106
198: 116
199: 109
199: 117
199: 119
199: 120
200: 122
201: 114
201: 125
202: 115
202: 126
203: 121
203: 132
204: 123
204: 134
205: 137
206: 143
207: 135
207: 146
207: 148
208: 136
208: 149
209: 151
2: 160
3: 160
4: 161
5: 161
6: 161
7: 161
8: 162
9: 162
10: 163
11: 163
12: 163
13: 164
14: 164
15: 164
16: 164
17: 165
18: 165
19: 166
20: 166
21: 166
22: 166
23: 167
24: 167
25: 167
26: 168
27: 168
28: 168
29: 169
30: 170
31: 170
32: 170
33: 171
34: 171
35: 171
36: 171
37: 171
38: 172
39: 172
40: 172
41: 173
42: 173
43: 173
44: 174
45: 174
46: 174
47: 174
48: 174
49: 175
50: 175
51: 176
52: 176
53: 176
54: 176
55: 177
56: 177
57: 177
58: 177
59: 177
60: 178
61: 178
62: 178
63: 179
64: 179
65: 179
66: 179
67: 180
68: 180
69: 180
70: 180
71: 181
72: 181
73: 182
74: 182
75: 183
76: 183
77: 184
78: 184
79: 184
80: 185
81: 185
82: 185
83: 186
84: 186
85: 186
86: 187
87: 187
88: 187
89: 188
90: 189
91: 189
92: 189
93: 190
94: 190
95: 191
96: 191
97: 192
98: 192
99: 192
100: 192
101: 193
102: 193
103: 194
104: 194
105: 194
106: 194
107: 195
108: 195
109: 195
110: 196
111: 196
112: 196
113: 196
114: 196
115: 197
116: 197
117: 197
118: 198
119: 198
120: 198
121: 199
122: 199
123: 199
124: 200
125: 200
126: 200
127: 201
128: 202
129: 202
130: 202
131: 202
132: 202
133: 202
134: 203
135: 203
136: 204
137: 204
138: 204
139: 205
140: 205
141: 205
142: 205
143: 205
144: 205
145: 206
146: 206
147: 206
148: 206
149: 206
150: 207
151: 208
152: 208
153: 209
154: 209
155: 209
156: 209
157: 209
158: 209
159: 209
segment: [9]
vertex id: label
142: 0
143: 1
144: 4
145: 2
146: 3
147: 3
148: 3
149: 3
150: 3
151: 3
152: 3
153: 3
154: 3
155: 4
156: 2
157: 3
158: 4
159: 3
160: 3
161: 3
162: 3
163: 3
164: 3
165: 3
166: 3
167: 3
168: 3
169: 3
170: 3
171: 2
172: 3
173: 3
174: 3
175: 3
176: 3
177: 3
178: 3
179: 3
180: 3
181: 3
182: 3
183: 3
184: 4
185: 2
186: 3
187: 3
188: 3
189: 3
190: 3
191: 3
0: 5
1: 5
2: 5
3: 5
4: 5
5: 5
6: 5
7: 5
8: 5
9: 5
10: 5
11: 5
12: 5
13: 5
14: 5
15: 5
16: 5
17: 5
18: 5
19: 5
20: 5
21: 5
22: 5
23: 5
24: 5
25: 5
26: 5
27: 5
28: 5
29: 5
30: 5
31: 5
32: 5
33: 5
34: 5
35: 5
36: 5
37: 5
38: 5
39: 5
40: 5
41: 5
42: 5
43: 5
44: 5
45: 5
46: 5
47: 5
48: 5
49: 5
50: 5
51: 5
52: 5
53: 5
54: 5
55: 5
56: 5
57: 5
58: 5
59: 5
60: 5
61: 5
62: 5
63: 5
64: 5
65: 5
66: 5
67: 5
68: 5
69: 5
70: 5
71: 5
72: 5
73: 5
74: 5
75: 5
76: 5
77: 5
78: 5
79: 5
80: 5
81: 5
82: 5
83: 5
84: 5
85: 5
86: 5
87: 5
88: 5
89: 5
90: 5
91: 5
92: 5
93: 5
94: 5
95: 5
96: 5
97: 5
98: 5
99: 5
100: 5
101: 5
102: 5
103: 5
104: 5
105: 5
106: 5
107: 5
108: 5
109: 5
110: 5
111: 5
112: 5
113: 5
114: 5
115: 5
116: 5
117: 5
118: 5
119: 5
120: 5
121: 5
122: 5
123: 5
124: 5
125: 5
126: 5
127: 5
128: 5
129: 5
130: 5
131: 5
132: 5
133: 5
134: 5
135: 5
136: 5
137: 5
138: 5
139: 5
140: 5
141: 5
edge from: to
142: 0
142: 1
143: 2
143: 6
144: 1
144: 6
144: 8
145: 3
145: 9
145: 10
146: 4
147: 16
147: 17
148: 18
148: 21
149: 21
149: 23
149: 24
150: 3
150: 23
150: 26
151: 24
151: 26
151: 27
152: 9
153: 34
154: 31
154: 35
155: 7
155: 13
155: 34
155: 35
155: 36
155: 37
156: 41
157: 37
157: 42
158: 44
159: 46
160: 37
160: 46
160: 48
160: 50
161: 46
161: 52
162: 56
163: 59
164: 61
165: 19
165: 57
166: 66
167: 65
167: 70
168: 72
169: 75
170: 71
170: 76
170: 77
171: 24
171: 74
172: 82
173: 83
174: 85
175: 81
175: 88
176: 82
176: 89
177: 85
177: 92
178: 88
178: 94
178: 96
178: 97
179: 94
179: 102
180: 106
181: 99
181: 108
182: 103
182: 110
182: 112
183: 116
184: 118
185: 36
186: 113
186: 122
186: 124
187: 116
187: 125
187: 127
188: 118
188: 129
189: 123
189: 132
189: 134
189: 135
190: 125
190: 137
191: 41
191: 126
2: 142
3: 142
4: 142
5: 142
6: 142
7: 143
8: 143
9: 144
10: 144
11: 145
12: 145
13: 145
14: 146
15: 146
16: 146
17: 146
18: 147
19: 147
20: 147
21: 147
22: 148
23: 148
24: 148
25: 149
26: 149
27: 150
28: 151
29: 151
30: 151
31: 152
32: 152
33: 152
34: 152
35: 153
36: 154
37: 154
38: 155
39: 155
40: 155
41: 155
42: 156
43: 157
44: 157
45: 158
46: 158
47: 159
48: 159
49: 159
50: 159
51: 160
52: 160
53: 161
54: 161
55: 161
56: 161
57: 162
58: 162
59: 162
60: 163
61: 163
62: 164
63: 164
64: 164
65: 165
66: 165
67: 165
68: 166
69: 166
70: 166
71: 166
72: 167
73: 167
74: 168
75: 168
76: 168
77: 169
78: 169
79: 170
80: 170
81: 170
82: 171
83: 171
84: 172
85: 173
86: 173
87: 174
88: 174
89: 174
90: 175
91: 176
92: 176
93: 176
94: 177
95: 177
96: 177
97: 177
98: 178
99: 178
100: 178
101: 178
102: 178
103: 178
104: 179
105: 179
106: 179
107: 179
108: 180
109: 180
110: 181
111: 181
112: 181
113: 181
114: 182
115: 182
116: 182
117: 182
118: 183
119: 183
120: 184
121: 184
122: 184
123: 185
124: 185
125: 185
126: 186
127: 186
128: 186
129: 187
130: 187
131: 188
132: 188
133: 188
134: 188
135: 188
136: 189
137: 189
138: 189
139: 190
140: 191
141: 191
