segment: [0]
vertex id: label
95: 0
96: 2
97: 2
98: 2
99: 2
100: 2
101: 2
102: 2
103: 2
104: 2
105: 2
106: 2
107: 2
108: 2
109: 2
110: 2
111: 2
112: 2
113: 2
114: 2
115: 2
116: 2
117: 2
118: 2
119: 2
120: 2
121: 2
122: 2
123: 2
124: 2
0: 5
1: 5
2: 5
3: 5
4: 5
5: 5
6: 5
7: 5
8: 5
9: 5
10: 5
11: 5
12: 5
13: 5
14: 5
15: 5
16: 5
17: 5
18: 5
19: 5
20: 5
21: 5
22: 5
23: 5
24: 5
25: 5
26: 5
27: 5
28: 5
29: 5
30: 5
31: 5
32: 5
33: 5
34: 5
35: 5
36: 5
37: 5
38: 5
39: 5
40: 5
41: 5
42: 5
43: 5
44: 5
45: 5
46: 5
47: 5
48: 5
49: 5
50: 5
51: 5
52: 5
53: 5
54: 5
55: 5
56: 5
57: 5
58: 5
59: 5
60: 5
61: 5
62: 5
63: 5
64: 5
65: 5
66: 5
67: 5
68: 5
69: 5
70: 5
71: 5
72: 5
73: 5
74: 5
75: 5
76: 5
77: 5
78: 5
79: 5
80: 5
81: 5
82: 5
83: 5
84: 5
85: 5
86: 5
87: 5
88: 5
89: 5
90: 5
91: 5
92: 5
93: 5
94: 5
edge from: to
95: 0
96: 3
96: 4
97: 2
97: 5
97: 6
98: 3
98: 8
99: 4
100: 2
100: 12
100: 16
101: 22
102: 19
102: 26
103: 29
104: 31
105: 12
105: 34
106: 37
107: 29
107: 39
107: 40
108: 41
109: 45
110: 46
111: 36
111: 50
112: 56
113: 22
113: 62
114: 64
115: 66
116: 23
116: 66
116: 68
116: 70
117: 24
117: 73
118: 54
118: 75
119: 79
120: 77
120: 79
120: 80
120: 81
121: 82
121: 83
121: 84
122: 85
122: 86
122: 87
123: 88
123: 89
124: 92
1: 95
2: 95
3: 95
4: 95
5: 96
6: 96
7: 97
8: 97
9: 98
10: 98
11: 98
12: 98
13: 99
14: 99
15: 99
16: 99
17: 100
18: 100
19: 100
20: 100
21: 100
22: 100
23: 101
24: 101
25: 101
26: 101
27: 102
28: 102
29: 102
30: 103
31: 103
32: 104
33: 104
34: 104
35: 105
36: 105
37: 105
38: 106
39: 106
40: 106
41: 107
42: 108
43: 108
44: 108
45: 108
46: 109
47: 110
48: 110
49: 110
50: 110
51: 111
52: 111
53: 111
54: 111
55: 111
56: 111
57: 112
58: 112
59: 112
60: 112
61: 112
62: 112
63: 113
64: 113
65: 114
66: 114
67: 115
68: 115
69: 115
70: 115
71: 116
72: 116
73: 116
74: 117
75: 117
76: 118
77: 118
78: 118
79: 118
80: 119
81: 119
82: 120
83: 120
84: 120
85: 121
86: 121
87: 121
88: 122
89: 122
90: 123
91: 123
92: 123
93: 123
94: 124
segment: [1]
vertex id: label
93: 0
94: 4
95: 4
96: 0
97: 2
98: 2
99: 2
100: 2
101: 2
102: 2
103: 2
104: 2
105: 2
106: 2
107: 2
108: 2
109: 2
110: 2
111: 2
112: 2
113: 2
114: 2
115: 2
116: 2
117: 2
118: 2
119: 2
120: 2
121: 2
122: 2
0: 5
1: 5
2: 5
3: 5
4: 5
5: 5
6: 5
7: 5
8: 5
9: 5
10: 5
11: 5
12: 5
13: 5
14: 5
15: 5
16: 5
17: 5
18: 5
19: 5
20: 5
21: 5
22: 5
23: 5
24: 5
25: 5
26: 5
27: 5
28: 5
29: 5
30: 5
31: 5
32: 5
33: 5
34: 5
35: 5
36: 5
37: 5
38: 5
39: 5
40: 5
41: 5
42: 5
43: 5
44: 5
45: 5
46: 5
47: 5
48: 5
49: 5
50: 5
51: 5
52: 5
53: 5
54: 5
55: 5
56: 5
57: 5
58: 5
59: 5
60: 5
61: 5
62: 5
63: 5
64: 5
65: 5
66: 5
67: 5
68: 5
69: 5
70: 5
71: 5
72: 5
73: 5
74: 5
75: 5
76: 5
77: 5
78: 5
79: 5
80: 5
81: 5
82: 5
83: 5
84: 5
85: 5
86: 5
87: 5
88: 5
89: 5
90: 5
91: 5
92: 5
edge from: to
93: 0
93: 1
93: 2
94: 3
94: 4
95: 5
96: 4
96: 9
96: 10
97: 4
97: 8
97: 10
97: 11
98: 16
99: 19
100: 7
100: 20
100: 21
101: 3
101: 8
101: 24
102: 10
102: 27
102: 28
103: 29
104: 31
105: 27
105: 31
105: 33
105: 36
105: 37
106: 29
106: 40
107: 42
108: 46
109: 34
109: 42
109: 45
109: 47
110: 19
110: 36
110: 48
110: 50
111: 51
112: 54
112: 56
113: 61
114: 63
115: 66
116: 68
117: 71
118: 75
119: 77
119: 79
120: 81
121: 61
121: 84
121: 85
122: 83
122: 86
122: 87
122: 88
3: 93
4: 93
5: 94
6: 95
7: 95
8: 95
9: 95
10: 95
11: 96
12: 97
13: 97
14: 97
15: 97
16: 97
17: 98
18: 98
19: 98
20: 99
21: 99
22: 100
23: 100
24: 100
25: 101
26: 101
27: 101
28: 101
29: 102
30: 103
31: 103
32: 104
33: 104
34: 104
35: 104
36: 104
37: 104
38: 105
39: 105
40: 105
41: 106
42: 106
43: 107
44: 107
45: 107
46: 107
47: 108
48: 109
49: 109
50: 109
51: 110
52: 111
53: 111
54: 111
55: 111
56: 111
57: 112
58: 112
59: 112
60: 112
61: 112
62: 113
63: 113
64: 114
65: 114
66: 114
67: 115
68: 115
69: 116
70: 116
71: 116
72: 117
73: 117
74: 117
75: 117
76: 118
77: 118
78: 118
79: 118
80: 119
81: 119
82: 119
83: 120
84: 120
85: 120
86: 121
87: 121
88: 121
89: 122
90: 122
91: 122
92: 122
segment: [2]
vertex id: label
88: 0
89: 2
90: 2
91: 2
92: 2
93: 2
94: 2
95: 2
96: 2
97: 2
98: 2
99: 2
100: 2
101: 2
102: 2
103: 2
104: 2
105: 2
106: 2
107: 2
108: 2
109: 2
110: 2
111: 2
112: 2
113: 2
114: 2
115: 2
116: 2
117: 2
0: 5
1: 5
2: 5
3: 5
4: 5
5: 5
6: 5
7: 5
8: 5
9: 5
10: 5
11: 5
12: 5
13: 5
14: 5
15: 5
16: 5
17: 5
18: 5
19: 5
20: 5
21: 5
22: 5
23: 5
24: 5
25: 5
26: 5
27: 5
28: 5
29: 5
30: 5
31: 5
32: 5
33: 5
34: 5
35: 5
36: 5
37: 5
38: 5
39: 5
40: 5
41: 5
42: 5
43: 5
44: 5
45: 5
46: 5
47: 5
48: 5
49: 5
50: 5
51: 5
52: 5
53: 5
54: 5
55: 5
56: 5
57: 5
58: 5
59: 5
60: 5
61: 5
62: 5
63: 5
64: 5
65: 5
66: 5
67: 5
68: 5
69: 5
70: 5
71: 5
72: 5
73: 5
74: 5
75: 5
76: 5
77: 5
78: 5
79: 5
80: 5
81: 5
82: 5
83: 5
84: 5
85: 5
86: 5
87: 5
edge from: to
88: 0
89: 1
89: 2
89: 3
90: 3
90: 4
91: 2
91: 6
92: 4
92: 9
92: 10
93: 4
93: 9
93: 12
94: 5
94: 15
95: 16
95: 17
96: 20
97: 23
98: 28
99: 32
100: 34
100: 35
101: 35
101: 37
101: 38
102: 38
102: 39
103: 29
103: 40
104: 32
104: 44
105: 34
105: 47
106: 46
106: 48
107: 50
108: 37
108: 51
109: 19
109: 39
109: 54
110: 44
110: 59
110: 61
111: 59
111: 63
111: 65
111: 67
112: 24
113: 54
113: 73
113: 75
114: 78
115: 79
116: 80
117: 81
117: 83
1: 88
2: 88
3: 88
4: 89
5: 90
6: 90
7: 91
8: 91
9: 91
10: 91
11: 92
12: 92
13: 93
14: 93
15: 93
16: 94
17: 94
18: 95
19: 95
20: 95
21: 96
22: 96
23: 96
24: 97
25: 97
26: 97
27: 97
28: 97
29: 98
30: 98
31: 98
32: 98
33: 99
34: 99
35: 99
36: 100
37: 100
38: 100
39: 101
40: 102
41: 103
42: 103
43: 103
44: 103
45: 104
46: 104
47: 104
48: 105
49: 106
50: 106
51: 107
52: 108
53: 108
54: 108
55: 109
56: 109
57: 109
58: 109
59: 109
60: 109
61: 109
62: 110
63: 110
64: 110
65: 110
66: 110
67: 110
68: 111
69: 111
70: 111
71: 111
72: 111
73: 111
74: 112
75: 112
76: 113
77: 113
78: 113
79: 114
80: 115
81: 116
82: 116
83: 116
84: 117
85: 117
86: 117
87: 117
segment: [3]
vertex id: label
90: 0
91: 2
92: 2
93: 2
94: 2
95: 2
96: 2
97: 2
98: 2
99: 2
100: 2
101: 2
102: 2
103: 2
104: 0
105: 3
106: 4
107: 4
108: 4
109: 4
110: 4
111: 4
112: 4
113: 4
114: 4
115: 4
116: 4
117: 4
118: 4
119: 4
0: 5
1: 5
2: 5
3: 5
4: 5
5: 5
6: 5
7: 5
8: 5
9: 5
10: 5
11: 5
12: 5
13: 5
14: 5
15: 5
16: 5
17: 5
18: 5
19: 5
20: 5
21: 5
22: 5
23: 5
24: 5
25: 5
26: 5
27: 5
28: 5
29: 5
30: 5
31: 5
32: 5
33: 5
34: 5
35: 5
36: 5
37: 5
38: 5
39: 5
40: 5
41: 5
42: 5
43: 5
44: 5
45: 5
46: 5
47: 5
48: 5
49: 5
50: 5
51: 5
52: 5
53: 5
54: 5
55: 5
56: 5
57: 5
58: 5
59: 5
60: 5
61: 5
62: 5
63: 5
64: 5
65: 5
66: 5
67: 5
68: 5
69: 5
70: 5
71: 5
72: 5
73: 5
74: 5
75: 5
76: 5
77: 5
78: 5
79: 5
80: 5
81: 5
82: 5
83: 5
84: 5
85: 5
86: 5
87: 5
88: 5
89: 5
edge from: to
90: 0
90: 1
90: 2
91: 4
92: 3
93: 14
94: 16
94: 17
95: 20
96: 7
96: 21
97: 19
97: 25
97: 26
98: 10
98: 27
98: 28
99: 32
100: 34
101: 12
101: 36
102: 40
103: 15
103: 42
104: 16
104: 45
105: 46
106: 36
106: 50
107: 53
108: 53
108: 55
109: 57
110: 59
111: 61
111: 63
112: 69
113: 24
114: 54
114: 73
114: 75
115: 77
115: 78
115: 79
116: 78
116: 81
116: 82
116: 83
117: 84
118: 86
119: 86
119: 87
119: 88
3: 90
4: 90
5: 91
6: 91
7: 91
8: 91
9: 91
10: 92
11: 92
12: 92
13: 92
14: 92
15: 93
16: 93
17: 93
18: 94
19: 94
20: 94
21: 95
22: 96
23: 96
24: 96
25: 96
26: 96
27: 97
28: 97
29: 98
30: 98
31: 98
32: 98
33: 99
34: 99
35: 100
36: 100
37: 101
38: 101
39: 101
40: 101
41: 102
42: 102
43: 103
44: 103
45: 103
46: 104
47: 105
48: 105
49: 105
50: 105
51: 106
52: 106
53: 106
54: 107
55: 107
56: 108
57: 108
58: 109
59: 109
60: 110
61: 110
62: 110
63: 110
64: 111
65: 111
66: 111
67: 111
68: 111
69: 111
70: 112
71: 112
72: 112
73: 112
74: 113
75: 113
76: 114
77: 114
78: 114
79: 114
80: 115
81: 115
82: 115
83: 115
84: 116
85: 116
86: 117
87: 118
88: 118
89: 119
segment: [4]
vertex id: label
99: 0
100: 2
101: 2
102: 2
103: 2
104: 2
105: 2
106: 2
107: 2
108: 2
109: 2
110: 2
111: 2
112: 2
113: 2
114: 2
115: 2
116: 2
117: 2
118: 2
119: 2
120: 2
121: 2
122: 2
123: 2
124: 2
125: 2
126: 2
127: 2
128: 2
0: 5
1: 5
2: 5
3: 5
4: 5
5: 5
6: 5
7: 5
8: 5
9: 5
10: 5
11: 5
12: 5
13: 5
14: 5
15: 5
16: 5
17: 5
18: 5
19: 5
20: 5
21: 5
22: 5
23: 5
24: 5
25: 5
26: 5
27: 5
28: 5
29: 5
30: 5
31: 5
32: 5
33: 5
34: 5
35: 5
36: 5
37: 5
38: 5
39: 5
40: 5
41: 5
42: 5
43: 5
44: 5
45: 5
46: 5
47: 5
48: 5
49: 5
50: 5
51: 5
52: 5
53: 5
54: 5
55: 5
56: 5
57: 5
58: 5
59: 5
60: 5
61: 5
62: 5
63: 5
64: 5
65: 5
66: 5
67: 5
68: 5
69: 5
70: 5
71: 5
72: 5
73: 5
74: 5
75: 5
76: 5
77: 5
78: 5
79: 5
80: 5
81: 5
82: 5
83: 5
84: 5
85: 5
86: 5
87: 5
88: 5
89: 5
90: 5
91: 5
92: 5
93: 5
94: 5
95: 5
96: 5
97: 5
98: 5
edge from: to
99: 0
99: 1
99: 2
100: 2
100: 6
101: 5
101: 6
101: 7
102: 9
102: 10
103: 6
104: 19
104: 20
105: 8
105: 24
106: 29
107: 11
107: 31
108: 34
108: 35
109: 35
109: 37
109: 38
110: 43
111: 16
111: 42
111: 44
111: 45
112: 49
113: 49
113: 53
113: 55
114: 57
115: 57
115: 58
115: 59
116: 46
116: 62
116: 63
116: 64
117: 66
118: 67
118: 68
118: 69
119: 70
119: 72
120: 25
121: 27
121: 77
122: 79
123: 79
123: 81
124: 61
124: 80
124: 83
124: 84
124: 85
125: 88
125: 89
126: 88
126: 89
126: 90
127: 93
127: 94
128: 94
128: 95
3: 99
4: 99
5: 99
6: 99
7: 100
8: 101
9: 101
10: 101
11: 102
12: 102
13: 102
14: 102
15: 102
16: 102
17: 102
18: 102
19: 103
20: 103
21: 104
22: 104
23: 104
24: 104
25: 105
26: 105
27: 105
28: 105
29: 105
30: 106
31: 106
32: 107
33: 107
34: 107
35: 107
36: 108
37: 108
38: 108
39: 109
40: 109
41: 109
42: 109
43: 109
44: 110
45: 110
46: 111
47: 111
48: 111
49: 111
50: 112
51: 112
52: 112
53: 112
54: 112
55: 112
56: 113
57: 113
58: 114
59: 114
60: 115
61: 115
62: 115
63: 115
64: 115
65: 116
66: 116
67: 117
68: 117
69: 117
70: 118
71: 118
72: 118
73: 119
74: 119
75: 119
76: 119
77: 120
78: 121
79: 121
80: 122
81: 122
82: 123
83: 123
84: 123
85: 123
86: 124
87: 124
88: 124
89: 124
90: 125
91: 126
92: 126
93: 126
94: 126
95: 127
96: 128
97: 128
98: 128
segment: [5]
vertex id: label
84: 0
85: 2
86: 2
87: 2
88: 2
89: 2
90: 2
91: 2
92: 2
93: 2
94: 2
95: 2
96: 2
97: 2
98: 2
99: 2
100: 2
101: 2
102: 2
103: 2
104: 2
105: 2
106: 2
107: 2
108: 2
109: 2
110: 2
111: 2
112: 2
113: 2
0: 5
1: 5
2: 5
3: 5
4: 5
5: 5
6: 5
7: 5
8: 5
9: 5
10: 5
11: 5
12: 5
13: 5
14: 5
15: 5
16: 5
17: 5
18: 5
19: 5
20: 5
21: 5
22: 5
23: 5
24: 5
25: 5
26: 5
27: 5
28: 5
29: 5
30: 5
31: 5
32: 5
33: 5
34: 5
35: 5
36: 5
37: 5
38: 5
39: 5
40: 5
41: 5
42: 5
43: 5
44: 5
45: 5
46: 5
47: 5
48: 5
49: 5
50: 5
51: 5
52: 5
53: 5
54: 5
55: 5
56: 5
57: 5
58: 5
59: 5
60: 5
61: 5
62: 5
63: 5
64: 5
65: 5
66: 5
67: 5
68: 5
69: 5
70: 5
71: 5
72: 5
73: 5
74: 5
75: 5
76: 5
77: 5
78: 5
79: 5
80: 5
81: 5
82: 5
83: 5
edge from: to
84: 0
84: 1
85: 1
85: 3
86: 3
86: 9
87: 14
88: 2
88: 12
88: 15
88: 16
89: 14
89: 19
90: 17
90: 21
90: 22
90: 23
91: 8
92: 9
92: 19
92: 24
92: 26
92: 27
93: 10
93: 22
93: 30
94: 4
94: 32
95: 12
95: 36
96: 29
96: 39
96: 40
97: 43
98: 34
98: 45
98: 47
99: 47
99: 48
99: 49
100: 18
100: 37
100: 51
101: 51
101: 53
102: 19
102: 39
102: 54
103: 54
103: 56
103: 58
104: 19
104: 50
104: 53
104: 56
104: 58
104: 60
105: 44
105: 59
105: 61
106: 63
107: 8
107: 23
107: 65
108: 64
108: 66
109: 23
110: 70
110: 71
110: 72
111: 25
111: 76
112: 77
112: 79
113: 67
113: 77
113: 79
113: 80
113: 81
2: 84
3: 84
4: 85
5: 85
6: 85
7: 85
8: 85
9: 85
10: 86
11: 86
12: 86
13: 86
14: 86
15: 87
16: 87
17: 88
18: 88
19: 88
20: 89
21: 89
22: 89
23: 89
24: 90
25: 91
26: 91
27: 91
28: 92
29: 92
30: 92
31: 93
32: 93
33: 94
34: 94
35: 94
36: 94
37: 95
38: 95
39: 95
40: 95
41: 96
42: 96
43: 96
44: 97
45: 97
46: 97
47: 97
48: 98
49: 98
50: 99
51: 99
52: 100
53: 100
54: 101
55: 102
56: 102
57: 102
58: 102
59: 103
60: 103
61: 104
62: 105
63: 105
64: 106
65: 106
66: 107
67: 108
68: 108
69: 108
70: 108
71: 109
72: 109
73: 110
74: 110
75: 110
76: 110
77: 111
78: 111
79: 111
80: 112
81: 112
82: 113
83: 113
segment: [6]
vertex id: label
78: 0
79: 2
80: 2
81: 2
82: 2
83: 2
84: 2
85: 2
86: 2
87: 2
88: 2
89: 2
90: 2
91: 2
92: 2
93: 2
94: 2
95: 2
96: 2
97: 2
98: 2
99: 2
100: 2
101: 2
102: 2
103: 2
104: 2
105: 2
106: 2
107: 2
0: 5
1: 5
2: 5
3: 5
4: 5
5: 5
6: 5
7: 5
8: 5
9: 5
10: 5
11: 5
12: 5
13: 5
14: 5
15: 5
16: 5
17: 5
18: 5
19: 5
20: 5
21: 5
22: 5
23: 5
24: 5
25: 5
26: 5
27: 5
28: 5
29: 5
30: 5
31: 5
32: 5
33: 5
34: 5
35: 5
36: 5
37: 5
38: 5
39: 5
40: 5
41: 5
42: 5
43: 5
44: 5
45: 5
46: 5
47: 5
48: 5
49: 5
50: 5
51: 5
52: 5
53: 5
54: 5
55: 5
56: 5
57: 5
58: 5
59: 5
60: 5
61: 5
62: 5
63: 5
64: 5
65: 5
66: 5
67: 5
68: 5
69: 5
70: 5
71: 5
72: 5
73: 5
74: 5
75: 5
76: 5
77: 5
edge from: to
78: 0
79: 1
80: 1
80: 3
81: 2
81: 4
81: 5
81: 6
82: 3
83: 5
83: 12
83: 13
84: 5
84: 11
84: 14
84: 15
85: 17
86: 7
86: 21
87: 17
87: 23
88: 19
88: 26
89: 28
90: 11
90: 31
91: 11
91: 24
91: 33
92: 12
92: 36
93: 29
93: 40
94: 40
94: 41
95: 42
96: 16
96: 44
96: 45
97: 42
97: 46
97: 47
97: 48
98: 36
98: 50
99: 53
100: 54
100: 56
101: 60
102: 61
102: 63
103: 66
104: 59
104: 63
104: 65
104: 67
105: 23
106: 24
106: 73
107: 75
1: 78
2: 79
3: 79
4: 80
5: 80
6: 80
7: 81
8: 81
9: 81
10: 82
11: 82
12: 82
13: 82
14: 83
15: 83
16: 84
17: 84
18: 85
19: 85
20: 85
21: 85
22: 86
23: 86
24: 87
25: 87
26: 87
27: 88
28: 88
29: 89
30: 89
31: 89
32: 90
33: 90
34: 91
35: 91
36: 91
37: 92
38: 92
39: 92
40: 92
41: 93
42: 94
43: 95
44: 95
45: 95
46: 96
47: 96
48: 96
49: 97
50: 97
51: 98
52: 98
53: 98
54: 99
55: 99
56: 99
57: 100
58: 100
59: 100
60: 100
61: 101
62: 101
63: 101
64: 102
65: 102
66: 102
67: 103
68: 104
69: 104
70: 104
71: 105
72: 105
73: 105
74: 106
75: 106
76: 107
77: 107
segment: [7]
vertex id: label
77: 0
78: 2
79: 2
80: 2
81: 2
82: 2
83: 2
84: 2
85: 2
86: 2
87: 2
88: 2
89: 2
90: 2
91: 2
92: 2
93: 2
94: 2
95: 2
96: 2
97: 2
98: 2
99: 2
100: 2
101: 2
102: 2
103: 2
104: 2
105: 2
106: 2
0: 5
1: 5
2: 5
3: 5
4: 5
5: 5
6: 5
7: 5
8: 5
9: 5
10: 5
11: 5
12: 5
13: 5
14: 5
15: 5
16: 5
17: 5
18: 5
19: 5
20: 5
21: 5
22: 5
23: 5
24: 5
25: 5
26: 5
27: 5
28: 5
29: 5
30: 5
31: 5
32: 5
33: 5
34: 5
35: 5
36: 5
37: 5
38: 5
39: 5
40: 5
41: 5
42: 5
43: 5
44: 5
45: 5
46: 5
47: 5
48: 5
49: 5
50: 5
51: 5
52: 5
53: 5
54: 5
55: 5
56: 5
57: 5
58: 5
59: 5
60: 5
61: 5
62: 5
63: 5
64: 5
65: 5
66: 5
67: 5
68: 5
69: 5
70: 5
71: 5
72: 5
73: 5
74: 5
75: 5
76: 5
edge from: to
77: 0
78: 1
78: 2
79: 2
80: 3
80: 8
81: 9
81: 10
82: 4
82: 9
82: 11
82: 12
83: 5
83: 15
84: 7
84: 20
84: 21
85: 9
85: 25
86: 10
86: 28
87: 11
87: 28
87: 30
87: 31
88: 11
88: 33
89: 12
89: 36
90: 41
91: 42
92: 32
92: 44
93: 46
94: 34
94: 47
95: 49
96: 52
97: 39
97: 54
98: 54
98: 56
99: 57
100: 44
100: 59
100: 60
100: 61
101: 46
101: 62
101: 63
101: 64
102: 23
102: 65
103: 64
103: 66
104: 49
104: 66
104: 68
105: 51
105: 69
105: 71
106: 9
106: 24
106: 73
1: 77
2: 77
3: 78
4: 78
5: 78
6: 78
7: 79
8: 79
9: 80
10: 80
11: 81
12: 81
13: 82
14: 82
15: 82
16: 83
17: 83
18: 83
19: 83
20: 83
21: 83
22: 84
23: 84
24: 84
25: 84
26: 85
27: 85
28: 85
29: 86
30: 86
31: 86
32: 87
33: 87
34: 88
35: 88
36: 88
37: 89
38: 89
39: 89
40: 89
41: 89
42: 90
43: 91
44: 91
45: 92
46: 92
47: 93
48: 94
49: 94
50: 95
51: 95
52: 95
53: 96
54: 96
55: 97
56: 97
57: 98
58: 99
59: 99
60: 99
61: 99
62: 100
63: 100
64: 100
65: 101
66: 102
67: 103
68: 103
69: 104
70: 104
71: 104
72: 105
73: 105
74: 106
75: 106
76: 106
segment: [8]
vertex id: label
80: 0
81: 2
82: 2
83: 2
84: 2
85: 2
86: 2
87: 2
88: 2
89: 2
90: 2
91: 2
92: 2
93: 2
94: 2
95: 2
96: 2
97: 2
98: 2
99: 2
100: 2
101: 2
102: 2
103: 2
104: 2
105: 2
106: 2
107: 2
108: 2
109: 2
0: 5
1: 5
2: 5
3: 5
4: 5
5: 5
6: 5
7: 5
8: 5
9: 5
10: 5
11: 5
12: 5
13: 5
14: 5
15: 5
16: 5
17: 5
18: 5
19: 5
20: 5
21: 5
22: 5
23: 5
24: 5
25: 5
26: 5
27: 5
28: 5
29: 5
30: 5
31: 5
32: 5
33: 5
34: 5
35: 5
36: 5
37: 5
38: 5
39: 5
40: 5
41: 5
42: 5
43: 5
44: 5
45: 5
46: 5
47: 5
48: 5
49: 5
50: 5
51: 5
52: 5
53: 5
54: 5
55: 5
56: 5
57: 5
58: 5
59: 5
60: 5
61: 5
62: 5
63: 5
64: 5
65: 5
66: 5
67: 5
68: 5
69: 5
70: 5
71: 5
72: 5
73: 5
74: 5
75: 5
76: 5
77: 5
78: 5
79: 5
edge from: to
80: 0
80: 1
81: 1
82: 5
83: 3
83: 6
83: 8
84: 4
84: 12
85: 14
86: 2
86: 12
86: 14
86: 15
86: 16
87: 6
87: 13
87: 17
87: 18
88: 20
89: 7
89: 21
90: 17
90: 22
90: 23
91: 26
92: 9
92: 27
93: 21
93: 29
94: 4
94: 28
94: 31
94: 32
95: 35
96: 29
96: 39
96: 40
97: 15
97: 39
97: 41
97: 42
98: 32
98: 44
99: 34
99: 42
99: 45
99: 47
100: 36
100: 48
100: 50
101: 39
101: 54
102: 41
102: 57
103: 60
104: 8
104: 23
104: 65
105: 23
106: 70
106: 72
107: 72
107: 74
108: 27
108: 77
109: 56
109: 76
109: 78
2: 80
3: 80
4: 81
5: 81
6: 82
7: 82
8: 82
9: 83
10: 83
11: 83
12: 83
13: 84
14: 84
15: 85
16: 85
17: 86
18: 86
19: 87
20: 87
21: 88
22: 89
23: 89
24: 90
25: 90
26: 90
27: 91
28: 92
29: 92
30: 93
31: 93
32: 93
33: 94
34: 94
35: 94
36: 95
37: 95
38: 95
39: 95
40: 95
41: 96
42: 96
43: 97
44: 97
45: 98
46: 98
47: 98
48: 99
49: 99
50: 99
51: 100
52: 100
53: 100
54: 100
55: 101
56: 101
57: 101
58: 102
59: 102
60: 102
61: 103
62: 103
63: 103
64: 103
65: 103
66: 104
67: 104
68: 104
69: 104
70: 104
71: 105
72: 105
73: 106
74: 106
75: 107
76: 107
77: 107
78: 108
79: 109
segment: [9]
vertex id: label
79: 0
80: 2
81: 2
82: 2
83: 2
84: 2
85: 2
86: 2
87: 2
88: 2
89: 2
90: 2
91: 2
92: 2
93: 2
94: 2
95: 2
96: 2
97: 2
98: 2
99: 2
100: 2
101: 2
102: 2
103: 2
104: 2
105: 2
106: 2
107: 2
108: 2
0: 5
1: 5
2: 5
3: 5
4: 5
5: 5
6: 5
7: 5
8: 5
9: 5
10: 5
11: 5
12: 5
13: 5
14: 5
15: 5
16: 5
17: 5
18: 5
19: 5
20: 5
21: 5
22: 5
23: 5
24: 5
25: 5
26: 5
27: 5
28: 5
29: 5
30: 5
31: 5
32: 5
33: 5
34: 5
35: 5
36: 5
37: 5
38: 5
39: 5
40: 5
41: 5
42: 5
43: 5
44: 5
45: 5
46: 5
47: 5
48: 5
49: 5
50: 5
51: 5
52: 5
53: 5
54: 5
55: 5
56: 5
57: 5
58: 5
59: 5
60: 5
61: 5
62: 5
63: 5
64: 5
65: 5
66: 5
67: 5
68: 5
69: 5
70: 5
71: 5
72: 5
73: 5
74: 5
75: 5
76: 5
77: 5
78: 5
edge from: to
79: 0
80: 0
80: 1
80: 2
81: 2
81: 5
82: 5
82: 7
83: 10
84: 4
85: 5
85: 14
86: 14
86: 15
86: 16
86: 17
87: 19
88: 17
88: 18
88: 19
88: 20
89: 8
89: 22
90: 9
90: 27
91: 29
92: 31
93: 4
93: 32
94: 35
95: 27
95: 36
95: 37
96: 37
96: 38
97: 15
97: 41
97: 42
98: 43
99: 46
99: 48
100: 51
101: 39
101: 54
102: 56
102: 58
103: 62
104: 64
105: 49
105: 68
106: 51
106: 68
106: 69
106: 70
106: 71
107: 24
108: 54
108: 73
108: 75
1: 79
2: 79
3: 80
4: 80
5: 80
6: 81
7: 81
8: 82
9: 82
10: 82
11: 83
12: 83
13: 84
14: 84
15: 85
16: 85
17: 85
18: 86
19: 86
20: 87
21: 88
22: 88
23: 89
24: 89
25: 89
26: 89
27: 89
28: 90
29: 90
30: 91
31: 91
32: 92
33: 93
34: 93
35: 93
36: 94
37: 94
38: 95
39: 96
40: 96
41: 96
42: 96
43: 97
44: 98
45: 98
46: 98
47: 98
48: 98
49: 99
50: 99
51: 99
52: 100
53: 100
54: 100
55: 101
56: 101
57: 101
58: 101
59: 102
60: 102
61: 102
62: 102
63: 103
64: 103
65: 104
66: 104
67: 104
68: 104
69: 105
70: 105
71: 105
72: 106
73: 106
74: 107
75: 107
76: 108
77: 108
78: 108
