:START_ID(Activity-ID),:END_ID(Agent-ID)
0,1
1,0
2,0
3,1
4,1
5,0
6,1
7,0
8,3
9,0
10,0
11,0
12,0
13,0
14,3
15,1
16,0
17,2
18,1
19,1
20,0
21,2
22,1
23,1
24,3
25,1
26,0
27,0
28,3
29,1
30,0
31,0
32,0
33,0
34,4
35,0
36,4
37,0
38,4
39,0
40,0
41,3
42,1
43,0
44,0
45,0
46,3
47,0
48,0
49,1
50,1
51,2
52,0
53,2
54,4
55,1
56,2
57,0
58,0
59,3
60,1
61,3
62,0
63,2
64,0
65,0
66,0
67,4
68,4
69,0
70,0
71,2
72,0
73,2
74,0
75,2
76,0
77,0
78,1
79,2
80,0
81,0
82,0
83,0
84,2
85,0
86,2
87,0
88,0
89,3
90,0
91,4
92,0
93,0
94,0
95,0
96,1
97,2
98,2
99,0
100,0
101,2
102,3
103,4
104,0
105,4
106,0
107,0
108,0
109,0
110,0
111,0
112,1
113,0
114,0
115,4
116,1
117,2
118,1
119,5
120,0
121,0
122,2
123,1
124,1
125,4
126,0
127,1
128,2
129,0
130,1
131,3
132,1
133,0
134,3
135,0
136,1
137,2
138,0
139,1
140,0
141,0
142,0
143,2
144,0
145,0
146,0
147,1
148,2
149,4
150,5
151,0
152,0
153,0
154,0
155,0
156,0
157,1
158,1
159,2
160,1
161,2
162,0
163,4
164,0
165,0
166,0
167,0
168,1
169,0
170,1
171,2
172,2
173,0
174,5
175,0
176,0
177,0
178,0
179,4
180,0
181,1
182,0
183,3
184,0
185,4
186,3
187,4
188,1
189,0
190,0
191,5
192,0
193,0
194,0
195,1
196,5
197,0
198,3
199,2
200,1
201,0
202,0
203,0
204,1
205,2
206,2
207,2
208,2
209,0
210,0
211,0
212,0
213,1
214,1
215,4
216,0
217,1
218,2
219,2
220,4
221,0
222,4
223,3
224,0
225,0
226,4
227,4
228,1
229,4
230,3
231,4
232,1
233,0
234,0
235,1
236,0
237,4
238,3
239,1
240,0
241,2
242,1
243,0
244,0
245,1
246,1
247,0
248,3
249,4
