:START_ID(Activity-ID),:END_ID(Agent-ID)
0,2
1,1
2,1
3,2
4,2
5,4
6,2
7,0
8,0
9,0
10,0
11,0
12,1
13,7
14,0
15,1
16,4
17,3
18,0
19,0
20,0
21,3
22,1
23,2
24,5
25,8
26,0
27,4
28,5
29,1
30,1
31,1
32,0
33,0
34,0
35,0
36,0
37,0
38,6
39,0
40,1
41,4
42,1
43,1
44,0
45,1
46,0
47,0
48,1
49,8
50,2
51,0
52,1
53,3
54,6
55,1
56,0
57,0
58,1
59,0
60,1
61,0
62,0
63,3
64,1
65,4
66,0
67,6
68,6
69,4
70,0
71,3
72,0
73,0
74,4
75,0
76,0
77,0
78,2
79,3
80,0
81,1
82,0
83,0
84,3
85,0
86,3
87,0
88,0
89,5
90,4
91,0
92,1
93,0
94,1
95,1
96,2
97,3
98,0
99,5
100,0
101,0
102,5
103,0
104,0
105,6
106,0
107,1
108,0
109,0
110,1
111,1
112,1
113,1
114,0
115,6
116,1
117,0
118,2
119,0
120,1
121,4
122,3
123,8
124,1
125,6
126,0
127,2
128,0
129,7
130,2
131,0
132,1
133,0
134,5
135,1
136,1
137,4
138,1
139,2
140,1
141,0
142,0
143,3
144,0
145,1
146,0
147,2
148,3
149,6
150,0
151,0
152,0
153,1
154,4
155,7
156,4
157,2
158,2
159,3
160,1
161,3
162,0
163,6
164,0
165,0
166,0
167,0
168,2
169,1
170,2
171,0
172,3
173,0
174,0
175,0
176,1
177,0
178,0
179,0
180,0
181,2
182,4
183,0
184,4
185,0
186,5
187,6
188,2
189,0
190,1
191,0
192,1
193,1
194,1
195,2
196,0
197,0
198,0
199,3
200,0
201,0
202,1
203,0
204,2
205,3
206,4
207,3
208,0
209,1
210,7
211,1
212,1
213,1
214,2
215,6
216,1
217,1
218,3
219,3
220,0
221,1
222,6
223,4
224,1
225,1
226,6
227,0
228,2
229,6
230,5
231,6
232,2
233,5
234,0
235,8
236,0
237,6
238,5
239,2
240,1
241,3
242,2
243,0
244,0
245,2
246,2
247,0
248,4
249,6
250,0
251,5
252,6
253,4
254,5
255,0
256,0
257,3
258,0
259,0
260,4
261,1
262,0
263,8
264,0
265,4
266,0
267,0
268,0
269,1
270,5
271,1
272,1
273,4
274,2
275,2
276,0
277,0
278,0
279,0
280,1
281,0
282,1
283,0
284,1
285,3
286,5
287,6
288,0
289,0
290,1
291,2
292,5
293,0
294,5
295,0
296,1
297,3
298,0
299,0
300,5
301,0
302,0
303,6
304,1
305,0
306,2
307,0
308,4
309,0
310,0
311,8
312,0
313,0
314,3
315,0
316,0
317,0
318,3
319,0
320,2
321,1
322,3
323,0
324,7
325,0
326,1
327,5
328,0
329,1
330,2
331,2
332,1
333,8
334,0
335,1
336,0
337,6
338,1
339,0
340,0
341,6
342,0
343,7
344,4
345,0
346,7
347,3
348,6
349,0
350,0
351,2
352,0
353,0
354,3
355,0
356,0
357,1
358,0
359,0
360,2
361,0
362,1
363,0
364,4
365,3
366,1
367,1
368,2
369,7
370,2
371,2
372,2
373,2
374,0
375,4
376,6
377,4
378,0
379,0
380,0
381,0
382,8
383,4
384,8
385,0
386,0
387,0
388,0
389,0
390,0
391,8
392,1
393,4
394,0
395,1
396,2
397,0
398,5
399,7
400,0
401,1
402,0
403,2
404,0
405,6
406,0
407,1
408,7
409,0
410,0
411,7
412,0
413,0
414,8
415,0
416,0
417,0
418,0
419,6
420,2
421,4
422,2
423,0
424,4
425,0
426,5
427,0
428,0
429,3
430,0
431,0
432,0
433,5
434,7
435,2
436,3
437,2
438,0
439,4
440,3
441,1
442,0
443,0
444,8
445,0
446,4
447,1
448,0
449,0
450,0
451,4
452,0
453,0
454,4
455,0
456,3
457,0
458,8
459,1
460,1
461,2
462,6
463,0
464,0
465,3
466,2
467,1
468,0
469,0
470,4
471,0
472,1
473,2
474,3
475,0
476,8
477,3
478,0
479,3
480,1
481,3
482,0
483,5
484,4
485,6
486,1
487,0
488,0
489,1
490,1
491,2
492,0
493,2
494,0
495,3
496,2
497,0
498,0
499,0
500,4
501,2
502,2
503,6
504,0
505,4
506,1
507,0
508,4
509,0
510,3
511,0
512,1
513,8
514,4
515,1
516,2
517,8
518,2
519,1
520,1
521,1
522,0
523,1
524,1
525,0
526,3
527,7
528,1
529,2
530,0
531,0
532,3
533,5
534,6
535,0
536,3
537,0
538,1
539,0
540,0
541,0
542,2
543,6
544,0
545,3
546,0
547,4
548,1
549,0
550,0
551,6
552,0
553,2
554,2
555,1
556,4
557,0
558,8
559,0
560,0
561,2
562,4
563,1
564,0
565,3
566,0
567,1
568,0
569,4
570,0
571,4
572,4
573,3
574,0
575,0
576,0
577,3
578,0
579,0
580,2
581,2
582,0
583,4
584,0
585,7
586,0
587,6
588,2
589,6
590,0
591,1
592,0
593,0
594,2
595,2
596,1
597,0
598,1
599,2
600,2
601,0
602,0
603,0
604,3
605,0
606,0
607,5
608,1
609,0
610,2
611,3
612,0
613,0
614,2
615,1
616,4
617,0
618,3
619,1
620,0
621,1
622,0
623,0
624,2
625,1
626,0
627,1
628,0
629,1
630,4
631,0
632,0
633,0
634,0
635,1
636,7
637,0
638,0
639,0
640,1
641,0
642,5
643,0
644,0
645,2
646,2
647,2
648,1
649,1
650,1
651,2
652,5
653,0
654,1
655,4
656,0
657,1
658,3
659,0
660,0
661,1
662,0
663,1
664,1
665,1
666,0
667,3
668,8
669,3
670,0
671,0
672,2
673,0
674,1
675,0
676,2
677,1
678,3
679,0
680,0
681,6
682,3
683,3
684,1
685,0
686,0
687,4
688,1
689,0
690,0
691,3
692,0
693,4
694,0
695,4
696,1
697,5
698,0
699,2
700,0
701,0
702,4
703,0
704,5
705,2
706,0
707,0
708,6
709,1
710,0
711,0
712,1
713,2
714,1
715,5
716,0
717,0
718,6
719,7
720,0
721,0
722,1
723,0
724,0
725,6
726,6
727,6
728,3
729,0
730,0
731,2
732,2
733,0
734,0
735,0
736,2
737,0
738,4
739,0
740,0
741,6
742,1
743,3
744,2
745,0
746,2
747,0
748,0
749,0
750,0
751,4
752,1
753,3
754,1
755,2
756,0
757,0
758,0
759,0
760,1
761,4
762,2
763,1
764,3
765,1
766,7
767,6
768,0
769,4
770,8
771,6
772,0
773,5
774,0
775,0
776,0
777,4
778,0
779,1
780,7
781,2
782,4
783,0
784,1
785,0
786,1
787,5
788,1
789,1
790,0
791,0
792,0
793,5
794,0
795,2
796,1
797,1
798,0
799,0
800,1
801,8
802,7
803,0
804,0
805,4
806,0
807,5
808,2
809,8
810,6
811,3
812,6
813,1
814,0
815,0
816,0
817,0
818,6
819,3
820,0
821,0
822,0
823,0
824,0
825,1
826,7
827,2
828,8
829,1
830,1
831,0
832,0
833,0
834,0
835,1
836,0
837,0
838,0
839,0
840,7
841,0
842,4
843,0
844,0
845,0
846,0
847,0
848,0
849,4
850,8
851,0
852,0
853,5
854,5
855,0
856,1
857,0
858,3
859,1
860,7
861,0
862,6
863,4
864,4
865,0
866,0
867,0
868,3
869,1
870,2
871,7
872,1
873,2
874,0
875,0
876,1
877,3
878,0
879,0
880,0
881,2
882,7
883,1
884,4
885,5
886,0
887,6
888,1
889,1
890,3
891,1
892,7
893,0
894,0
895,2
896,5
897,0
898,2
899,0
900,4
901,0
902,1
903,4
904,1
905,6
906,0
907,5
908,0
909,7
910,2
911,1
912,0
913,0
914,7
915,0
916,0
917,0
918,7
919,6
920,2
921,0
922,3
923,4
924,0
925,2
926,5
927,7
928,2
929,4
930,0
931,2
932,1
933,0
934,1
935,0
936,0
937,3
938,3
939,0
940,3
941,0
942,1
943,5
944,0
945,0
946,1
947,0
948,3
949,2
950,4
951,0
952,4
953,0
954,1
955,4
956,0
957,6
958,2
959,1
960,7
961,0
962,0
963,1
964,0
965,2
966,0
967,0
968,0
969,1
970,2
971,0
972,0
973,0
974,0
975,0
976,0
977,0
978,0
979,0
980,0
981,0
982,0
983,0
984,2
985,4
986,0
987,0
988,0
989,0
990,0
991,0
992,3
993,0
994,0
995,3
996,3
997,5
998,0
999,1
1000,4
1001,0
1002,1
1003,1
1004,3
1005,8
1006,2
1007,8
1008,4
1009,0
1010,0
1011,3
1012,3
1013,2
1014,3
1015,1
1016,2
1017,6
1018,2
1019,8
1020,0
1021,0
1022,8
1023,0
1024,2
1025,4
1026,4
1027,1
1028,0
1029,1
1030,0
1031,0
1032,1
1033,0
1034,1
1035,0
1036,0
1037,2
1038,1
1039,0
1040,2
1041,0
1042,1
1043,0
1044,2
1045,0
1046,1
1047,0
1048,4
1049,7
1050,2
1051,1
1052,3
1053,6
1054,0
1055,3
1056,2
1057,0
1058,0
1059,0
1060,1
1061,4
1062,1
1063,0
1064,2
1065,1
1066,2
1067,0
1068,8
1069,0
1070,1
1071,4
1072,0
1073,0
1074,0
1075,7
1076,0
1077,1
1078,0
1079,0
1080,1
1081,6
1082,0
1083,4
1084,3
1085,2
1086,1
1087,0
1088,3
1089,0
1090,0
1091,2
1092,6
1093,2
1094,1
1095,0
1096,0
1097,1
1098,1
1099,6
1100,4
1101,2
1102,4
1103,1
1104,0
1105,6
1106,3
1107,4
1108,0
1109,0
1110,7
1111,1
1112,0
1113,1
1114,6
1115,1
1116,0
1117,3
1118,0
1119,0
1120,0
1121,0
1122,0
1123,7
1124,3
1125,5
1126,0
1127,4
1128,1
1129,0
1130,1
1131,0
1132,8
1133,0
1134,5
1135,8
1136,0
1137,0
1138,0
1139,6
1140,0
1141,1
1142,0
1143,0
1144,0
1145,0
1146,5
1147,4
1148,0
1149,0
1150,0
1151,0
1152,0
1153,0
1154,7
1155,2
1156,1
1157,1
1158,0
1159,0
1160,2
1161,2
1162,3
1163,4
1164,4
1165,5
1166,3
1167,0
1168,8
1169,0
1170,0
1171,1
1172,0
1173,0
1174,4
1175,1
1176,5
1177,3
1178,0
1179,0
1180,1
1181,1
1182,3
1183,0
1184,1
1185,1
1186,0
1187,5
1188,4
1189,0
1190,4
1191,0
1192,2
1193,1
1194,1
1195,0
1196,3
1197,7
1198,2
1199,7
1200,2
1201,6
1202,1
1203,1
1204,0
1205,3
1206,3
1207,1
1208,0
1209,0
1210,2
1211,1
1212,1
1213,0
1214,1
1215,1
1216,7
1217,0
1218,0
1219,0
1220,5
1221,0
1222,0
1223,5
1224,0
1225,0
1226,4
1227,8
1228,1
1229,0
1230,0
1231,0
1232,7
1233,1
1234,0
1235,0
1236,0
1237,0
1238,0
1239,3
1240,1
1241,0
1242,2
1243,1
1244,0
1245,0
1246,5
1247,0
1248,0
1249,1
1250,0
1251,0
1252,2
1253,1
1254,0
1255,1
1256,2
1257,2
1258,0
1259,0
1260,2
1261,3
1262,0
1263,0
1264,1
1265,7
1266,0
1267,0
1268,3
1269,5
1270,0
1271,0
1272,3
1273,5
1274,1
1275,2
1276,0
1277,4
1278,1
1279,2
1280,1
1281,0
1282,0
1283,3
1284,2
1285,0
1286,0
1287,1
1288,0
1289,0
1290,4
1291,5
1292,2
1293,0
1294,0
1295,0
1296,3
1297,1
1298,0
1299,2
1300,0
1301,0
1302,2
1303,0
1304,6
1305,4
1306,1
1307,0
1308,2
1309,6
1310,3
1311,0
1312,0
1313,5
1314,0
1315,0
1316,1
1317,0
1318,0
1319,3
1320,0
1321,0
1322,0
1323,0
1324,6
1325,1
1326,0
1327,2
1328,4
1329,4
1330,4
1331,2
1332,6
1333,0
1334,1
1335,2
1336,2
1337,2
1338,0
1339,0
1340,4
1341,0
1342,0
1343,0
1344,7
1345,1
1346,2
1347,7
1348,4
1349,8
1350,0
1351,0
1352,0
1353,3
1354,0
1355,5
1356,4
1357,2
1358,3
1359,7
1360,0
1361,1
1362,0
1363,1
1364,7
1365,0
1366,1
1367,1
1368,1
1369,7
1370,2
1371,0
1372,1
1373,0
1374,6
1375,0
1376,3
1377,0
1378,0
1379,1
1380,4
1381,0
1382,8
1383,8
1384,6
1385,1
1386,3
1387,0
1388,1
1389,6
1390,0
1391,5
1392,1
1393,2
1394,3
1395,6
1396,5
1397,6
1398,5
1399,0
1400,0
1401,0
1402,7
1403,5
1404,0
1405,0
1406,1
1407,2
1408,8
1409,0
1410,1
1411,0
1412,2
1413,0
1414,1
1415,1
1416,2
1417,0
1418,5
1419,0
1420,8
1421,3
1422,4
1423,0
1424,2
1425,3
1426,0
1427,0
1428,0
1429,0
1430,1
1431,2
1432,1
1433,0
1434,3
1435,0
1436,0
1437,0
1438,2
1439,0
1440,0
1441,0
1442,0
1443,0
1444,0
1445,1
1446,1
1447,0
1448,0
1449,0
1450,8
1451,5
1452,3
1453,5
1454,2
1455,2
1456,0
1457,0
1458,2
1459,5
1460,0
1461,0
1462,0
1463,0
1464,3
1465,1
1466,1
1467,4
1468,3
1469,2
1470,1
1471,1
1472,0
1473,0
1474,0
1475,3
1476,0
1477,0
1478,0
1479,3
1480,0
1481,4
1482,3
1483,4
1484,0
1485,0
1486,3
1487,1
1488,7
1489,2
1490,8
1491,0
1492,7
1493,0
1494,0
1495,3
1496,1
1497,8
1498,0
1499,0
1500,0
1501,0
1502,5
1503,0
1504,1
1505,0
1506,2
1507,1
1508,8
1509,6
1510,4
1511,5
1512,0
1513,2
1514,2
1515,3
1516,5
1517,0
1518,1
1519,2
1520,4
1521,0
1522,6
1523,3
1524,8
1525,2
1526,1
1527,1
1528,0
1529,3
1530,3
1531,0
1532,0
1533,2
1534,0
1535,2
1536,3
1537,1
1538,0
1539,7
1540,6
1541,1
1542,0
1543,1
1544,0
1545,0
1546,0
1547,0
1548,0
1549,2
1550,1
1551,0
1552,0
1553,5
1554,1
1555,2
1556,7
1557,2
1558,3
1559,0
1560,0
1561,3
1562,4
1563,3
1564,1
1565,1
1566,2
1567,0
1568,1
1569,0
1570,0
1571,1
1572,2
1573,0
1574,2
1575,1
1576,0
1577,8
1578,1
1579,0
1580,0
1581,0
1582,0
1583,2
1584,2
1585,1
1586,0
1587,0
1588,0
1589,5
1590,0
1591,2
1592,7
1593,0
1594,0
1595,0
1596,3
1597,0
1598,1
1599,0
1600,0
1601,5
1602,0
1603,2
1604,1
1605,0
1606,0
1607,0
1608,7
1609,4
1610,0
1611,0
1612,0
1613,1
1614,5
1615,3
1616,5
1617,0
1618,0
1619,5
1620,0
1621,8
1622,0
1623,0
1624,0
1625,0
1626,5
1627,2
1628,0
1629,2
1630,3
1631,6
1632,0
1633,0
1634,0
1635,0
1636,5
1637,5
1638,0
1639,1
1640,2
1641,0
1642,5
1643,0
1644,3
1645,2
1646,7
1647,2
1648,0
1649,0
1650,0
1651,1
1652,0
1653,0
1654,2
1655,6
1656,1
1657,0
1658,5
1659,2
1660,7
1661,0
1662,1
1663,1
1664,1
1665,2
1666,0
1667,7
1668,2
1669,0
1670,0
1671,6
1672,4
1673,2
1674,3
1675,3
1676,0
1677,0
1678,0
1679,1
1680,2
1681,0
1682,0
1683,0
1684,0
1685,6
1686,2
1687,6
1688,1
1689,0
1690,5
1691,6
1692,1
1693,4
1694,0
1695,1
1696,7
1697,1
1698,0
1699,1
1700,4
1701,0
1702,0
1703,0
1704,2
1705,2
1706,4
1707,0
1708,1
1709,4
1710,1
1711,6
1712,6
1713,1
1714,0
1715,1
1716,2
1717,0
1718,0
1719,2
1720,1
1721,5
1722,0
1723,1
1724,0
1725,0
1726,0
1727,0
1728,3
1729,0
1730,3
1731,1
1732,4
1733,0
1734,0
1735,0
1736,0
1737,0
1738,0
1739,3
1740,1
1741,0
1742,0
1743,0
1744,5
1745,1
1746,1
1747,7
1748,0
1749,0
1750,1
1751,4
1752,5
1753,0
1754,0
1755,1
1756,3
1757,0
1758,5
1759,3
1760,0
1761,2
1762,0
1763,1
1764,0
1765,3
1766,0
1767,0
1768,0
1769,1
1770,0
1771,2
1772,0
1773,8
1774,4
1775,0
1776,0
1777,2
1778,1
1779,4
1780,1
1781,0
1782,1
1783,3
1784,6
1785,3
1786,0
1787,5
1788,0
1789,7
1790,3
1791,0
1792,0
1793,0
1794,1
1795,0
1796,6
1797,1
1798,3
1799,0
1800,0
1801,0
1802,2
1803,0
1804,0
1805,3
1806,0
1807,3
1808,6
1809,5
1810,0
1811,1
1812,1
1813,3
1814,6
1815,0
1816,1
1817,2
1818,0
1819,1
1820,0
1821,0
1822,3
1823,3
1824,0
1825,6
1826,0
1827,0
1828,0
1829,1
1830,0
1831,0
1832,0
1833,0
1834,3
1835,1
1836,2
1837,3
1838,0
1839,1
1840,7
1841,0
1842,0
1843,0
1844,0
1845,2
1846,7
1847,4
1848,4
1849,1
1850,0
1851,0
1852,1
1853,1
1854,0
1855,0
1856,4
1857,0
1858,0
1859,0
1860,5
1861,1
1862,0
1863,0
1864,0
1865,0
1866,4
1867,7
1868,0
1869,6
1870,1
1871,3
1872,0
1873,0
1874,6
1875,0
1876,2
1877,2
1878,0
1879,6
1880,4
1881,0
1882,8
1883,2
1884,0
1885,0
1886,1
1887,3
1888,0
1889,2
1890,0
1891,0
1892,0
1893,2
1894,0
1895,4
1896,0
1897,3
1898,2
1899,7
1900,3
1901,4
1902,7
1903,0
1904,3
1905,1
1906,0
1907,0
1908,0
1909,1
1910,0
1911,2
1912,0
1913,4
1914,2
1915,1
1916,1
1917,2
1918,2
1919,0
1920,0
1921,0
1922,5
1923,0
1924,2
1925,3
1926,2
1927,4
1928,1
1929,0
1930,1
1931,1
1932,3
1933,6
1934,1
1935,1
1936,0
1937,3
1938,0
1939,0
1940,8
1941,0
1942,6
1943,3
1944,0
1945,0
1946,0
1947,1
1948,1
1949,0
1950,2
1951,0
1952,0
1953,0
1954,0
1955,1
1956,0
1957,3
1958,8
1959,0
1960,4
1961,1
1962,2
1963,2
1964,0
1965,0
1966,3
1967,2
1968,1
1969,1
1970,0
1971,5
1972,2
1973,0
1974,0
1975,1
1976,0
1977,0
1978,1
1979,3
1980,0
1981,6
1982,1
1983,0
1984,6
1985,0
1986,3
1987,0
1988,1
1989,2
1990,3
1991,2
1992,1
1993,2
1994,7
1995,0
1996,0
1997,1
1998,3
1999,0
2000,0
2001,3
2002,1
2003,7
2004,0
2005,0
2006,0
2007,0
2008,1
2009,0
2010,0
2011,0
2012,3
2013,5
2014,0
2015,0
2016,0
2017,1
2018,2
2019,1
2020,0
2021,5
2022,2
2023,3
2024,8
2025,1
2026,4
2027,1
2028,0
2029,2
2030,0
2031,1
2032,4
2033,1
2034,3
2035,0
2036,5
2037,1
2038,0
2039,2
2040,6
2041,6
2042,1
2043,0
2044,0
2045,2
2046,8
2047,0
2048,0
2049,0
2050,3
2051,0
2052,6
2053,6
2054,2
2055,5
2056,1
2057,5
2058,0
2059,0
2060,0
2061,4
2062,0
2063,0
2064,3
2065,3
2066,7
2067,1
2068,1
2069,2
2070,3
2071,5
2072,0
2073,5
2074,2
2075,1
2076,3
2077,2
2078,0
2079,3
2080,1
2081,0
2082,0
2083,7
2084,7
2085,1
2086,4
2087,0
2088,1
2089,5
2090,2
2091,1
2092,3
2093,0
2094,8
2095,4
2096,1
2097,1
2098,0
2099,0
2100,0
2101,0
2102,8
2103,4
2104,5
2105,2
2106,1
2107,2
2108,2
2109,0
2110,3
2111,0
2112,5
2113,0
2114,0
2115,2
2116,1
2117,0
2118,1
2119,0
2120,3
2121,0
2122,8
2123,2
2124,3
2125,0
2126,6
2127,4
2128,1
2129,1
2130,2
2131,5
2132,0
2133,8
2134,5
2135,2
2136,2
2137,4
2138,1
2139,0
2140,0
2141,5
2142,6
2143,2
2144,8
2145,5
2146,0
2147,0
2148,0
2149,3
2150,8
2151,0
2152,3
2153,7
2154,1
2155,3
2156,2
2157,5
2158,0
2159,0
2160,2
2161,3
2162,2
2163,4
2164,1
2165,0
2166,0
2167,2
2168,5
2169,0
2170,2
2171,0
2172,0
2173,1
2174,0
2175,2
2176,5
2177,3
2178,0
2179,7
2180,2
2181,2
2182,0
2183,1
2184,3
2185,6
2186,0
2187,5
2188,8
2189,2
2190,6
2191,5
2192,1
2193,0
2194,0
2195,1
2196,1
2197,0
2198,0
2199,3
2200,0
2201,0
2202,0
2203,1
2204,2
2205,3
2206,1
2207,2
2208,0
2209,7
2210,0
2211,0
2212,0
2213,0
2214,3
2215,1
2216,2
2217,0
2218,0
2219,3
2220,0
2221,0
2222,4
2223,3
2224,8
2225,1
2226,1
2227,3
2228,0
2229,1
2230,6
2231,7
2232,3
2233,0
2234,2
2235,1
2236,0
2237,1
2238,1
2239,0
2240,5
2241,1
2242,8
2243,0
2244,6
2245,4
2246,3
2247,8
2248,0
2249,0
2250,1
2251,0
2252,1
2253,4
2254,7
2255,0
2256,0
2257,4
2258,0
2259,1
2260,1
2261,0
2262,1
2263,2
2264,4
2265,3
2266,1
2267,1
2268,2
2269,0
2270,7
2271,1
2272,4
2273,8
2274,8
2275,2
2276,5
2277,0
2278,3
2279,8
2280,4
2281,0
2282,1
2283,6
2284,0
2285,1
2286,0
2287,4
2288,7
2289,0
2290,4
2291,2
2292,2
2293,0
2294,1
2295,4
2296,0
2297,0
2298,2
2299,3
2300,2
2301,4
2302,0
2303,1
2304,0
2305,1
2306,0
2307,1
2308,0
2309,3
2310,0
2311,8
2312,3
2313,1
2314,2
2315,0
2316,0
2317,3
2318,0
2319,0
2320,0
2321,0
2322,3
2323,3
2324,1
2325,0
2326,0
2327,4
2328,7
2329,1
2330,2
2331,1
2332,1
2333,1
2334,1
2335,0
2336,1
2337,5
2338,8
2339,0
2340,0
2341,7
2342,5
2343,0
2344,5
2345,0
2346,0
2347,1
2348,0
2349,0
2350,0
2351,2
2352,0
2353,1
2354,2
2355,0
2356,0
2357,1
2358,0
2359,0
2360,0
2361,0
2362,0
2363,7
2364,1
2365,1
2366,0
2367,1
2368,0
2369,0
2370,1
2371,6
2372,0
2373,1
2374,2
2375,0
2376,3
2377,1
2378,7
2379,0
2380,0
2381,0
2382,0
2383,0
2384,1
2385,7
2386,0
2387,0
2388,6
2389,2
2390,2
2391,2
2392,8
2393,0
2394,1
2395,3
2396,0
2397,0
2398,0
2399,0
2400,0
2401,2
2402,0
2403,0
2404,0
2405,7
2406,1
2407,6
2408,0
2409,0
2410,6
2411,2
2412,4
2413,2
2414,0
2415,5
2416,0
2417,1
2418,0
2419,0
2420,1
2421,0
2422,2
2423,7
2424,0
2425,0
2426,7
2427,0
2428,1
2429,0
2430,3
2431,6
2432,0
2433,3
2434,0
2435,0
2436,7
2437,0
2438,6
2439,0
2440,3
2441,1
2442,0
2443,0
2444,0
2445,0
2446,0
2447,1
2448,0
2449,2
2450,0
2451,5
2452,1
2453,0
2454,3
2455,5
2456,0
2457,5
2458,2
2459,2
2460,0
2461,1
2462,1
2463,1
2464,0
2465,0
2466,3
2467,0
2468,1
2469,0
2470,5
2471,0
2472,0
2473,1
2474,7
2475,1
2476,4
2477,3
2478,1
2479,6
2480,4
2481,0
2482,0
2483,0
2484,0
2485,0
2486,1
2487,1
2488,1
2489,0
2490,1
2491,4
2492,8
2493,2
2494,3
2495,0
2496,0
2497,1
2498,0
2499,5
