:START_ID(Entity-ID),:END_ID(Activity-ID)
1,0
2,0
3,1
4,1
5,1
6,1
7,2
8,2
9,2
10,2
11,3
12,3
13,4
14,4
15,5
16,6
17,6
18,7
19,7
20,7
21,7
22,7
23,8
24,9
25,9
26,10
27,10
28,10
29,11
30,11
31,11
32,12
33,12
34,13
35,13
36,13
37,13
38,14
39,14
40,15
41,15
42,15
43,16
44,16
45,16
46,16
47,17
48,17
49,17
50,18
51,18
52,18
53,18
54,18
55,18
56,18
57,19
58,19
59,20
60,21
61,21
62,22
63,22
64,22
65,22
66,22
67,23
68,23
69,23
70,24
71,24
72,25
73,25
74,25
75,25
76,26
77,26
78,27
79,27
80,27
81,27
82,28
83,28
84,28
85,28
86,29
87,29
88,30
89,30
90,30
91,30
92,30
93,30
94,30
95,31
96,31
97,32
98,32
99,32
100,33
101,33
102,33
103,33
104,33
105,33
106,34
107,34
108,34
109,34
110,34
111,35
112,35
113,35
114,36
115,36
116,36
117,37
118,37
119,37
120,38
121,38
122,38
123,39
124,39
125,39
126,39
127,40
128,40
129,40
130,40
131,41
132,41
133,41
134,41
135,41
136,41
137,41
138,42
139,42
140,42
141,43
142,43
143,43
144,43
145,44
146,44
147,45
148,45
149,46
150,46
151,46
152,47
153,47
154,48
155,49
156,49
157,49
158,49
159,49
160,49
161,49
162,50
163,51
164,51
165,51
166,51
167,51
168,51
169,52
170,52
171,52
172,52
173,52
174,53
175,53
176,53
177,53
178,53
179,54
180,54
181,54
182,55
183,55
184,55
185,55
186,56
187,56
188,56
189,56
190,56
191,57
192,57
193,58
194,58
195,58
196,59
197,59
198,59
199,60
200,60
201,60
202,60
203,60
204,61
205,61
206,62
207,62
208,62
209,62
210,63
211,64
212,64
213,64
214,65
215,65
216,66
217,66
218,67
219,67
220,67
221,68
222,69
223,69
224,70
225,70
226,70
227,70
228,71
229,71
230,71
231,72
232,72
233,72
234,72
235,73
236,73
237,74
238,74
239,74
240,75
241,76
242,76
243,76
244,76
245,76
246,76
247,77
248,77
249,77
250,77
251,77
252,78
253,79
254,80
255,80
256,81
257,81
258,82
259,82
260,82
261,82
262,83
263,83
264,84
265,85
266,85
267,85
268,86
269,86
270,87
271,88
272,88
273,88
274,88
275,89
276,89
277,90
278,90
279,91
280,91
281,91
282,91
283,92
284,92
285,92
286,92
287,92
288,93
289,93
290,93
291,93
292,93
293,94
294,94
295,95
296,95
297,95
298,96
299,96
300,97
301,97
302,97
303,97
304,98
305,99
306,100
307,100
308,101
309,101
310,101
311,101
312,101
313,101
314,102
315,102
316,102
317,103
318,103
319,104
320,104
321,104
322,104
323,104
324,105
325,105
326,106
327,106
328,106
329,106
330,106
331,107
332,107
333,107
334,107
335,108
336,108
337,108
338,109
339,109
340,110
341,111
342,111
343,111
344,112
345,112
346,113
347,113
348,114
349,114
350,114
351,115
352,115
353,116
354,117
355,117
356,117
357,118
358,118
359,118
360,118
361,118
362,119
363,119
364,119
365,119
366,120
367,121
368,121
369,121
370,122
371,122
372,122
373,123
374,123
375,123
376,124
377,124
378,124
379,124
380,125
381,126
382,126
383,126
384,127
385,127
386,127
387,127
388,127
389,127
390,127
391,128
392,128
393,128
394,129
395,129
396,130
397,130
398,131
399,132
400,132
401,132
402,132
403,133
404,133
405,133
406,134
407,134
408,135
409,135
410,135
411,135
412,136
413,136
414,136
415,136
416,137
417,137
418,138
419,138
420,138
421,138
422,138
423,139
424,139
425,139
426,140
427,141
428,141
429,141
430,141
431,141
432,142
433,142
434,143
435,143
436,143
437,144
438,144
439,144
440,145
441,145
442,145
443,146
444,146
445,146
446,147
447,147
448,147
449,147
450,148
451,148
452,148
453,149
454,149
455,150
456,150
457,151
458,151
459,151
460,151
461,152
462,152
463,152
464,152
465,153
466,154
467,154
468,154
469,154
470,155
471,155
472,155
473,155
474,155
475,156
476,156
477,156
478,157
479,157
480,157
481,157
482,157
483,157
484,157
485,157
486,157
487,158
488,159
489,159
490,159
491,159
492,160
493,160
494,161
495,161
496,161
497,162
498,162
499,163
500,163
501,163
502,164
503,164
504,164
505,165
506,165
507,166
508,166
509,166
510,166
511,167
512,167
513,168
514,169
515,169
516,169
517,170
518,170
519,171
520,171
521,171
522,172
523,172
524,172
525,173
526,173
527,173
528,174
529,174
530,175
531,175
532,175
533,176
534,177
535,178
536,178
537,178
538,179
539,179
540,179
541,180
542,180
543,181
544,181
545,181
546,181
547,182
548,182
549,182
550,182
551,182
552,182
553,183
554,183
555,183
556,184
557,184
558,184
559,184
560,185
561,186
562,186
563,187
564,187
565,188
566,188
567,188
568,189
569,189
570,189
571,189
572,189
573,189
574,190
575,190
576,190
577,190
578,191
579,191
580,192
581,192
582,192
583,192
584,193
585,193
586,193
587,194
588,194
589,194
590,194
591,194
592,195
593,195
594,195
595,195
596,196
597,197
598,197
599,197
600,197
601,197
602,197
603,198
604,198
605,198
606,198
607,199
608,199
609,200
610,200
611,200
612,201
613,201
614,202
615,202
616,203
617,204
618,204
619,205
620,205
621,205
622,205
623,206
624,206
625,207
626,207
627,207
628,207
629,208
630,208
631,208
632,209
633,209
634,209
635,210
636,210
637,210
638,210
639,210
640,211
641,211
642,211
643,212
644,212
645,212
646,213
647,213
648,214
649,214
650,214
651,215
652,216
653,216
654,216
655,216
656,217
657,217
658,217
659,217
660,218
661,218
662,219
663,219
664,220
665,220
666,220
667,221
668,222
669,222
670,223
671,223
672,224
673,224
674,225
675,225
676,226
677,226
678,226
679,226
680,227
681,227
682,227
683,227
684,228
685,228
686,228
687,228
688,228
689,229
690,229
691,229
692,229
693,229
694,229
695,230
696,230
697,230
698,231
699,231
700,232
701,232
702,232
703,233
704,233
705,233
706,233
707,233
708,234
709,234
710,234
711,235
712,235
713,235
714,235
715,236
716,237
717,237
718,237
719,238
720,238
721,238
722,239
723,240
724,241
725,242
726,242
727,242
728,242
729,242
730,243
731,243
732,244
733,244
734,245
735,245
736,245
737,245
738,246
739,246
740,246
741,246
742,246
743,247
744,247
745,247
746,248
747,248
748,249
749,249
750,249
751,249
752,250
753,250
754,250
755,250
756,251
757,251
758,251
759,252
760,252
761,253
762,253
763,253
764,254
765,255
766,255
767,255
768,256
769,256
770,256
771,256
772,257
773,257
774,257
775,257
776,257
777,257
778,258
779,259
780,259
781,259
782,259
783,259
784,260
785,260
786,260
787,261
788,261
789,261
790,261
791,261
792,262
793,262
794,263
795,263
796,263
797,264
798,264
799,265
800,265
801,266
802,266
803,266
804,266
805,266
806,267
807,267
808,267
809,267
810,267
811,267
812,268
813,268
814,268
815,269
816,269
817,269
818,269
819,269
820,270
821,271
822,272
823,272
824,273
825,273
826,273
827,273
828,274
829,275
830,275
831,275
832,276
833,276
834,276
835,276
836,277
837,277
838,278
839,278
840,279
841,279
842,279
843,279
844,280
845,280
846,280
847,280
848,280
849,280
850,281
851,281
852,281
853,282
854,282
855,282
856,282
857,283
858,283
859,284
860,284
861,285
862,285
863,285
864,285
865,285
866,285
867,285
868,285
869,286
870,286
871,287
872,288
873,288
874,289
875,289
876,290
877,290
878,291
879,291
880,291
881,291
882,292
883,292
884,293
885,293
886,294
887,294
888,294
889,294
890,295
891,295
892,296
893,296
894,297
895,297
896,297
897,298
898,298
899,299
900,299
901,299
902,299
903,299
904,300
905,300
906,300
907,300
908,301
909,301
910,301
911,302
912,302
913,303
914,303
915,303
916,303
917,303
918,303
919,303
920,304
921,304
922,305
923,305
924,305
925,305
926,306
927,306
928,306
929,307
930,307
931,307
932,308
933,308
934,308
935,308
936,308
937,309
938,309
939,309
940,310
941,310
942,310
943,311
944,311
945,311
946,311
947,312
948,312
949,312
950,312
951,312
952,312
953,313
954,313
955,313
956,313
957,313
958,314
959,314
960,315
961,315
962,316
963,316
964,317
965,317
966,318
967,318
968,318
969,318
970,318
971,318
972,318
973,319
974,319
975,320
976,320
977,321
978,321
979,322
980,322
981,322
982,323
983,323
984,324
985,324
986,325
987,326
988,327
989,327
990,327
991,328
992,328
993,329
994,329
995,329
996,330
997,330
998,330
999,331
1000,331
1001,331
1002,331
1003,332
1004,332
1005,332
1006,332
1007,332
1008,333
1009,333
1010,333
1011,333
1012,334
1013,334
1014,335
1015,336
1016,336
1017,337
1018,337
1019,337
1020,337
1021,338
1022,338
1023,338
1024,339
1025,339
1026,339
1027,339
1028,340
1029,340
1030,340
1031,340
1032,340
1033,340
1034,341
1035,341
1036,341
1037,342
1038,342
1039,343
1040,344
1041,344
1042,345
1043,345
1044,346
1045,346
1046,346
1047,347
1048,347
1049,347
1050,347
1051,348
1052,348
1053,348
1054,349
1055,349
1056,349
1057,350
1058,351
1059,352
1060,352
1061,353
1062,353
1063,353
1064,353
1065,354
1066,354
1067,354
1068,355
1069,355
1070,355
1071,356
1072,357
1073,357
1074,358
1075,358
1076,359
1077,359
1078,360
1079,360
1080,361
1081,361
1082,361
1083,362
1084,362
1085,362
1086,363
1087,363
1088,363
1089,363
1090,364
1091,365
1092,366
1093,366
1094,366
1095,366
1096,366
1097,367
1098,367
1099,368
1100,368
1101,368
1102,368
1103,369
1104,369
1105,370
1106,370
1107,370
1108,371
1109,372
1110,372
1111,373
1112,373
1113,373
1114,374
1115,374
1116,374
1117,374
1118,374
1119,375
1120,375
1121,375
1122,375
1123,376
1124,376
1125,377
1126,377
1127,377
1128,378
1129,378
1130,378
1131,379
1132,379
1133,379
1134,380
1135,380
1136,381
1137,381
1138,382
1139,382
1140,382
1141,383
1142,383
1143,383
1144,384
1145,384
1146,384
1147,384
1148,385
1149,385
1150,385
1151,386
1152,386
1153,386
1154,387
1155,387
1156,387
1157,388
1158,389
1159,389
1160,389
1161,390
1162,390
1163,390
1164,390
1165,390
1166,391
1167,391
1168,392
1169,393
1170,393
1171,393
1172,394
1173,394
1174,395
1175,396
1176,396
1177,397
1178,397
1179,397
1180,398
1181,398
1182,398
1183,399
1184,399
1185,399
1186,399
1187,400
1188,400
1189,400
1190,400
1191,401
1192,401
1193,401
1194,402
1195,403
1196,403
1197,404
1198,404
1199,404
1200,405
1201,405
1202,405
1203,406
1204,406
1205,407
1206,407
1207,407
1208,407
1209,408
1210,408
1211,408
1212,408
1213,409
1214,409
1215,409
1216,409
1217,410
1218,410
1219,410
1220,410
1221,410
1222,411
1223,411
1224,412
1225,413
1226,413
1227,413
1228,413
1229,413
1230,414
1231,414
1232,414
1233,415
1234,415
1235,415
1236,416
1237,417
1238,417
1239,417
1240,417
1241,417
1242,418
1243,418
1244,419
1245,419
1246,419
1247,419
1248,420
1249,421
1250,421
1251,421
1252,421
1253,422
1254,422
1255,422
1256,422
1257,423
1258,423
1259,423
1260,423
1261,423
1262,423
1263,424
1264,425
1265,425
1266,425
1267,425
1268,426
1269,426
1270,426
1271,426
1272,426
1273,427
1274,427
1275,428
1276,428
1277,429
1278,429
1279,430
1280,430
1281,431
1282,431
1283,431
1284,431
1285,431
1286,432
1287,432
1288,433
1289,433
1290,433
1291,433
1292,434
1293,434
1294,435
1295,435
1296,435
1297,435
1298,436
1299,436
1300,436
1301,436
1302,437
1303,437
1304,438
1305,438
1306,438
1307,439
1308,439
1309,440
1310,440
1311,441
1312,441
1313,442
1314,442
1315,442
1316,442
1317,442
1318,442
1319,443
1320,443
1321,443
1322,444
1323,444
1324,444
1325,445
1326,445
1327,445
1328,445
1329,446
1330,446
1331,447
1332,447
1333,447
1334,448
1335,448
1336,449
1337,449
1338,449
1339,449
1340,449
1341,450
1342,450
1343,450
1344,450
1345,450
1346,450
1347,450
1348,450
1349,451
1350,451
1351,451
1352,452
1353,452
1354,452
1355,452
1356,453
1357,453
1358,453
1359,453
1360,453
1361,454
1362,454
1363,454
1364,454
1365,454
1366,455
1367,455
1368,455
1369,455
1370,455
1371,456
1372,456
1373,456
1374,457
1375,457
1376,457
1377,457
1378,457
1379,458
1380,458
1381,459
1382,459
1383,460
1384,460
1385,460
1386,460
1387,461
1388,461
1389,461
1390,462
1391,462
1392,462
1393,462
1394,462
1395,462
1396,463
1397,463
1398,463
1399,464
1400,465
1401,465
1402,466
1403,466
1404,467
1405,467
1406,467
1407,468
1408,468
1409,469
1410,470
1411,471
1412,471
1413,471
1414,472
1415,472
1416,472
1417,473
1418,473
1419,473
1420,473
1421,474
1422,474
1423,475
1424,475
1425,475
1426,476
1427,476
1428,476
1429,476
1430,477
1431,477
1432,477
1433,477
1434,478
1435,478
1436,478
1437,478
1438,479
1439,479
1440,479
1441,479
1442,480
1443,480
1444,480
1445,480
1446,481
1447,481
1448,481
1449,481
1450,481
1451,481
1452,482
1453,482
1454,483
1455,483
1456,483
1457,483
1458,484
1459,484
1460,484
1461,485
1462,485
1463,485
1464,485
1465,485
1466,486
1467,486
1468,487
1469,487
1470,488
1471,488
1472,488
1473,489
1474,489
1475,490
1476,490
1477,490
1478,490
1479,491
1480,491
1481,491
1482,492
1483,492
1484,492
1485,492
1486,493
1487,494
1488,494
1489,494
1490,495
1491,495
1492,495
1493,496
1494,497
1495,497
1496,498
1497,498
1498,498
1499,499
1500,499
1501,499
1502,500
1503,500
1504,501
1505,502
1506,502
1507,503
1508,503
1509,503
1510,504
1511,504
1512,504
1513,504
1514,504
1515,505
1516,505
1517,505
1518,506
1519,506
1520,506
1521,506
1522,506
1523,507
1524,508
1525,508
1526,508
1527,508
1528,509
1529,509
1530,509
1531,509
1532,509
1533,510
1534,510
1535,511
1536,511
1537,511
1538,511
1539,512
1540,512
1541,512
1542,513
1543,513
1544,513
1545,513
1546,514
1547,514
1548,514
1549,515
1550,515
1551,516
1552,517
1553,517
1554,517
1555,517
1556,517
1557,518
1558,518
1559,518
1560,519
1561,519
1562,520
1563,520
1564,520
1565,520
1566,521
1567,521
1568,521
1569,522
1570,522
1571,522
1572,522
1573,522
1574,522
1575,523
1576,523
1577,523
1578,524
1579,524
1580,525
1581,525
1582,525
1583,525
1584,525
1585,526
1586,526
1587,526
1588,527
1589,527
1590,527
1591,527
1592,528
1593,528
1594,528
1595,528
1596,528
1597,529
1598,529
1599,529
1600,529
1601,529
1602,530
1603,530
1604,531
1605,531
1606,532
1607,532
1608,532
1609,532
1610,532
1611,532
1612,533
1613,533
1614,533
1615,534
1616,535
1617,536
1618,536
1619,536
1620,537
1621,537
1622,538
1623,538
1624,538
1625,538
1626,539
1627,539
1628,539
1629,540
1630,540
1631,540
1632,540
1633,541
1634,541
1635,542
1636,542
1637,542
1638,543
1639,543
1640,543
1641,544
1642,545
1643,546
1644,546
1645,547
1646,547
1647,547
1648,547
1649,548
1650,549
1651,549
1652,549
1653,549
1654,549
1655,550
1656,550
1657,550
1658,551
1659,551
1660,552
1661,552
1662,552
1663,553
1664,553
1665,553
1666,553
1667,553
1668,554
1669,554
1670,554
1671,554
1672,555
1673,555
1674,555
1675,556
1676,556
1677,556
1678,556
1679,556
1680,557
1681,558
1682,558
1683,559
1684,559
1685,559
1686,560
1687,560
1688,560
1689,561
1690,561
1691,562
1692,562
1693,563
1694,563
1695,564
1696,564
1697,564
1698,564
1699,564
1700,565
1701,565
1702,566
1703,566
1704,567
1705,567
1706,567
1707,567
1708,568
1709,568
1710,569
1711,569
1712,570
1713,570
1714,570
1715,570
1716,570
1717,570
1718,571
1719,571
1720,572
1721,572
1722,573
1723,573
1724,573
1725,574
1726,574
1727,574
1728,575
1729,576
1730,576
1731,577
1732,577
1733,578
1734,578
1735,579
1736,579
1737,580
1738,580
1739,580
1740,581
1741,581
1742,582
1743,583
1744,583
1745,583
1746,584
1747,584
1748,585
1749,585
1750,585
1751,586
1752,586
1753,586
1754,586
1755,586
1756,586
1757,586
1758,587
1759,587
1760,587
1761,588
1762,588
1763,589
1764,589
1765,589
1766,589
1767,590
1768,590
1769,591
1770,592
1771,592
1772,592
1773,593
1774,593
1775,593
1776,594
1777,594
1778,594
1779,595
1780,595
1781,596
1782,596
1783,596
1784,596
1785,596
1786,596
1787,597
1788,597
1789,597
1790,597
1791,598
1792,598
1793,598
1794,598
1795,599
1796,599
1797,599
1798,599
1799,600
1800,600
1801,600
1802,600
1803,600
1804,601
1805,601
1806,601
1807,602
1808,602
1809,602
1810,603
1811,603
1812,603
1813,603
1814,603
1815,604
1816,604
1817,604
1818,605
1819,605
1820,605
1821,606
1822,606
1823,606
1824,606
1825,606
1826,607
1827,607
1828,607
1829,608
1830,608
1831,608
1832,608
1833,609
1834,609
1835,609
1836,609
1837,610
1838,610
1839,610
1840,610
1841,611
1842,611
1843,611
1844,611
1845,611
1846,612
1847,612
1848,612
1849,612
1850,613
1851,614
1852,614
1853,614
1854,614
1855,614
1856,614
1857,615
1858,615
1859,615
1860,615
1861,616
1862,616
1863,617
1864,617
1865,617
1866,618
1867,619
1868,619
1869,620
1870,620
1871,621
1872,621
1873,622
1874,622
1875,622
1876,622
1877,623
1878,623
1879,623
1880,624
1881,624
1882,624
1883,625
1884,625
1885,626
1886,626
1887,626
1888,626
1889,627
1890,627
1891,628
1892,628
1893,629
1894,629
1895,629
1896,630
1897,630
1898,630
1899,630
1900,631
1901,631
1902,631
1903,632
1904,633
1905,633
1906,633
1907,634
1908,635
1909,636
1910,636
1911,636
1912,636
1913,636
1914,637
1915,637
1916,637
1917,638
1918,638
1919,638
1920,638
1921,639
1922,639
1923,639
1924,639
1925,640
1926,640
1927,640
1928,640
1929,640
1930,641
1931,641
1932,642
1933,642
1934,642
1935,642
1936,642
1937,643
1938,643
1939,643
1940,643
1941,644
1942,644
1943,644
1944,644
1945,644
1946,645
1947,645
1948,646
1949,646
1950,647
1951,647
1952,647
1953,647
1954,648
1955,648
1956,648
1957,648
1958,649
1959,649
1960,649
1961,650
1962,651
1963,651
1964,651
1965,651
1966,652
1967,652
1968,653
1969,653
1970,653
1971,654
1972,654
1973,654
1974,655
1975,655
1976,656
1977,656
1978,656
1979,656
1980,657
1981,657
1982,657
1983,658
1984,658
1985,658
1986,658
1987,658
1988,658
1989,659
1990,659
1991,659
1992,659
1993,659
1994,660
1995,660
1996,660
1997,661
1998,661
1999,661
2000,661
2001,662
2002,662
2003,662
2004,662
2005,663
2006,663
2007,664
2008,664
2009,665
2010,665
2011,665
2012,665
2013,666
2014,666
2015,667
2016,667
2017,667
2018,667
2019,668
2020,669
2021,669
2022,669
2023,669
2024,670
2025,670
2026,671
2027,671
2028,671
2029,671
2030,672
2031,672
2032,672
2033,672
2034,672
2035,673
2036,673
2037,673
2038,673
2039,674
2040,675
2041,675
2042,675
2043,675
2044,675
2045,675
2046,676
2047,676
2048,676
2049,677
2050,677
2051,677
2052,678
2053,678
2054,679
2055,679
2056,679
2057,680
2058,681
2059,681
2060,681
2061,682
2062,682
2063,683
2064,683
2065,683
2066,684
2067,684
2068,684
2069,684
2070,685
2071,685
2072,685
2073,686
2074,686
2075,686
2076,687
2077,687
2078,687
2079,688
2080,688
2081,688
2082,688
2083,689
2084,689
2085,690
2086,690
2087,691
2088,691
2089,691
2090,692
2091,692
2092,692
2093,693
2094,693
2095,693
2096,693
2097,694
2098,694
2099,694
2100,694
2101,694
2102,694
2103,695
2104,695
2105,695
2106,695
2107,696
2108,696
2109,696
2110,697
2111,697
2112,697
2113,697
2114,697
2115,698
2116,699
2117,700
2118,700
2119,700
2120,700
2121,701
2122,701
2123,701
2124,702
2125,702
2126,702
2127,703
2128,703
2129,704
2130,704
2131,704
2132,705
2133,706
2134,707
2135,707
2136,708
2137,708
2138,709
2139,709
2140,710
2141,710
2142,710
2143,710
2144,710
2145,710
2146,711
2147,711
2148,711
2149,711
2150,711
2151,711
2152,712
2153,712
2154,712
2155,712
2156,712
2157,712
2158,713
2159,713
2160,713
2161,713
2162,714
2163,714
2164,714
2165,715
2166,715
2167,715
2168,715
2169,715
2170,715
2171,716
2172,716
2173,716
2174,716
2175,717
2176,717
2177,717
2178,717
2179,718
2180,718
2181,719
2182,719
2183,719
2184,720
2185,721
2186,721
2187,721
2188,721
2189,722
2190,722
2191,722
2192,722
2193,722
2194,723
2195,723
2196,723
2197,723
2198,724
2199,724
2200,724
2201,724
2202,724
2203,725
2204,725
2205,725
2206,725
2207,726
2208,726
2209,726
2210,726
2211,727
2212,727
2213,728
2214,728
2215,729
2216,729
2217,729
2218,730
2219,730
2220,731
2221,732
2222,732
2223,733
2224,734
2225,734
2226,734
2227,735
2228,735
2229,735
2230,736
2231,736
2232,736
2233,736
2234,736
2235,737
2236,737
2237,737
2238,738
2239,738
2240,738
2241,739
2242,739
2243,740
2244,740
2245,740
2246,741
2247,741
2248,741
2249,742
2250,743
2251,744
2252,744
2253,744
2254,745
2255,745
2256,745
2257,745
2258,746
2259,746
2260,747
2261,747
2262,748
2263,748
2264,748
2265,749
2266,749
2267,750
2268,751
2269,752
2270,752
2271,753
2272,753
2273,754
2274,754
2275,755
2276,756
2277,756
2278,756
2279,756
2280,756
2281,757
2282,757
2283,758
2284,758
2285,758
2286,759
2287,759
2288,759
2289,759
2290,760
2291,760
2292,760
2293,761
2294,761
2295,761
2296,762
2297,762
2298,763
2299,764
2300,764
2301,764
2302,764
2303,765
2304,765
2305,765
2306,766
2307,766
2308,766
2309,766
2310,767
2311,767
2312,767
2313,767
2314,768
2315,768
2316,769
2317,769
2318,770
2319,770
2320,770
2321,770
2322,770
2323,771
2324,771
2325,771
2326,772
2327,772
2328,772
2329,773
2330,774
2331,774
2332,775
2333,775
2334,775
2335,776
2336,776
2337,777
2338,777
2339,777
2340,778
2341,778
2342,778
2343,778
2344,778
2345,779
2346,779
2347,779
2348,779
2349,779
2350,779
2351,780
2352,780
2353,781
2354,782
2355,782
2356,782
2357,782
2358,783
2359,783
2360,784
2361,784
2362,785
2363,785
2364,785
2365,786
2366,786
2367,787
2368,787
2369,788
2370,788
2371,788
2372,789
2373,789
2374,789
2375,789
2376,790
2377,790
2378,790
2379,790
2380,791
2381,792
2382,792
2383,792
2384,793
2385,793
2386,793
2387,794
2388,795
2389,795
2390,796
2391,796
2392,796
2393,797
2394,797
2395,797
2396,798
2397,798
2398,798
2399,798
2400,799
2401,799
2402,799
2403,800
2404,800
2405,800
2406,801
2407,801
2408,801
2409,801
2410,801
2411,801
2412,801
2413,802
2414,802
2415,803
2416,803
2417,804
2418,804
2419,805
2420,805
2421,805
2422,805
2423,806
2424,806
2425,806
2426,807
2427,807
2428,807
2429,807
2430,808
2431,808
2432,808
2433,808
2434,809
2435,809
2436,809
2437,809
2438,810
2439,810
2440,810
2441,810
2442,811
2443,811
2444,812
2445,812
2446,812
2447,813
2448,813
2449,813
2450,814
2451,814
2452,814
2453,815
2454,815
2455,815
2456,816
2457,816
2458,816
2459,816
2460,817
2461,817
2462,817
2463,818
2464,818
2465,819
2466,819
2467,819
2468,820
2469,820
2470,821
2471,822
2472,823
2473,823
2474,823
2475,823
2476,824
2477,824
2478,824
2479,824
2480,825
2481,826
2482,826
2483,827
2484,827
2485,827
2486,828
2487,828
2488,829
2489,829
2490,829
2491,829
2492,830
2493,830
2494,831
2495,831
2496,832
2497,833
2498,833
2499,833
2500,833
2501,833
2502,834
2503,834
2504,834
2505,834
2506,834
2507,835
2508,835
2509,835
2510,835
2511,835
2512,836
2513,836
2514,836
2515,837
2516,837
2517,838
2518,839
2519,840
2520,840
2521,840
2522,841
2523,841
2524,842
2525,842
2526,843
2527,843
2528,843
2529,843
2530,844
2531,844
2532,844
2533,845
2534,845
2535,846
2536,846
2537,846
2538,846
2539,847
2540,847
2541,847
2542,847
2543,848
2544,848
2545,849
2546,849
2547,849
2548,850
2549,850
2550,850
2551,851
2552,851
2553,851
2554,851
2555,851
2556,852
2557,852
2558,852
2559,853
2560,853
2561,854
2562,854
2563,855
2564,855
2565,855
2566,855
2567,855
2568,855
2569,856
2570,856
2571,857
2572,858
2573,858
2574,858
2575,858
2576,858
2577,859
2578,860
2579,860
2580,861
2581,861
2582,862
2583,862
2584,862
2585,863
2586,863
2587,864
2588,865
2589,865
2590,865
2591,865
2592,865
2593,866
2594,866
2595,866
2596,867
2597,867
2598,868
2599,868
2600,869
2601,869
2602,869
2603,870
2604,870
2605,870
2606,870
2607,871
2608,872
2609,872
2610,872
2611,873
2612,873
2613,874
2614,874
2615,875
2616,875
2617,875
2618,875
2619,875
2620,876
2621,876
2622,876
2623,876
2624,877
2625,877
2626,877
2627,877
2628,877
2629,878
2630,878
2631,878
2632,878
2633,879
2634,880
2635,880
2636,881
2637,881
2638,881
2639,881
2640,881
2641,881
2642,881
2643,882
2644,882
2645,882
2646,882
2647,883
2648,883
2649,883
2650,884
2651,884
2652,884
2653,885
2654,885
2655,886
2656,886
2657,886
2658,886
2659,887
2660,887
2661,887
2662,887
2663,888
2664,888
2665,888
2666,888
2667,889
2668,889
2669,889
2670,890
2671,890
2672,890
2673,891
2674,892
2675,892
2676,893
2677,893
2678,894
2679,894
2680,895
2681,895
2682,895
2683,896
2684,896
2685,897
2686,897
2687,897
2688,898
2689,899
2690,899
2691,899
2692,900
2693,900
2694,900
2695,901
2696,901
2697,901
2698,902
2699,902
2700,902
2701,902
2702,903
2703,903
2704,904
2705,904
2706,905
2707,905
2708,905
2709,905
2710,906
2711,906
2712,906
2713,907
2714,907
2715,907
2716,907
2717,907
2718,908
2719,908
2720,908
2721,908
2722,909
2723,909
2724,909
2725,909
2726,909
2727,910
2728,910
2729,910
2730,911
2731,911
2732,912
2733,912
2734,913
2735,913
2736,913
2737,914
2738,914
2739,914
2740,914
2741,915
2742,915
2743,915
2744,915
2745,916
2746,916
2747,916
2748,917
2749,917
2750,917
2751,917
2752,918
2753,918
2754,918
2755,918
2756,918
2757,919
2758,919
2759,919
2760,920
2761,920
2762,921
2763,921
2764,921
2765,922
2766,922
2767,922
2768,923
2769,923
2770,924
2771,924
2772,925
2773,925
2774,925
2775,925
2776,925
2777,925
2778,925
2779,926
2780,927
2781,927
2782,927
2783,928
2784,928
2785,929
2786,929
2787,929
2788,930
2789,930
2790,930
2791,930
2792,930
2793,931
2794,931
2795,931
2796,931
2797,931
2798,931
2799,932
2800,932
2801,932
2802,932
2803,933
2804,933
2805,933
2806,934
2807,934
2808,934
2809,935
2810,935
2811,935
2812,936
2813,936
2814,936
2815,937
2816,937
2817,938
2818,938
2819,938
2820,939
2821,940
2822,940
2823,940
2824,940
2825,941
2826,941
2827,941
2828,941
2829,942
2830,942
2831,943
2832,943
2833,944
2834,944
2835,944
2836,945
2837,945
2838,945
2839,946
2840,946
2841,946
2842,947
2843,947
2844,947
2845,947
2846,948
2847,948
2848,948
2849,949
2850,950
2851,950
2852,950
2853,950
2854,950
2855,951
2856,951
2857,951
2858,951
2859,952
2860,952
2861,952
2862,952
2863,952
2864,953
2865,953
2866,953
2867,953
2868,954
2869,954
2870,955
2871,955
2872,955
2873,956
2874,956
2875,957
2876,957
2877,957
2878,958
2879,958
2880,958
2881,958
2882,958
2883,958
2884,959
2885,959
2886,959
2887,960
2888,960
2889,961
2890,961
2891,961
2892,962
2893,962
2894,962
2895,962
2896,963
2897,963
2898,964
2899,964
2900,965
2901,965
2902,966
2903,966
2904,966
2905,966
2906,967
2907,967
2908,967
2909,968
2910,968
2911,968
2912,968
2913,969
2914,969
2915,969
2916,970
2917,970
2918,970
2919,970
2920,971
2921,971
2922,971
2923,971
2924,972
2925,972
2926,972
2927,972
2928,972
2929,973
2930,973
2931,973
2932,973
2933,974
2934,974
2935,975
2936,976
2937,976
2938,976
2939,977
2940,977
2941,978
2942,978
2943,978
2944,979
2945,979
2946,979
2947,979
2948,979
2949,980
2950,980
2951,980
2952,981
2953,981
2954,981
2955,982
2956,982
2957,983
2958,983
2959,983
2960,983
2961,983
2962,984
2963,984
2964,985
2965,985
2966,985
2967,986
2968,986
2969,986
2970,987
2971,987
2972,988
2973,988
2974,988
2975,989
2976,989
2977,989
2978,990
2979,990
2980,991
2981,992
2982,993
2983,993
2984,993
2985,993
2986,994
2987,994
2988,994
2989,994
2990,995
2991,995
2992,995
2993,996
2994,996
2995,997
2996,997
2997,997
2998,998
2999,998
3000,998
3001,999
3002,999
3003,999
3004,999
3005,999
3006,1000
3007,1000
3008,1001
3009,1001
3010,1002
3011,1002
3012,1002
3013,1002
3014,1003
3015,1003
3016,1003
3017,1003
3018,1003
3019,1003
3020,1004
3021,1004
3022,1004
3023,1005
3024,1005
3025,1005
3026,1005
3027,1006
3028,1007
3029,1007
3030,1007
3031,1007
3032,1007
3033,1008
3034,1008
3035,1008
3036,1009
3037,1010
3038,1010
3039,1010
3040,1010
3041,1010
3042,1010
3043,1011
3044,1011
3045,1011
3046,1011
3047,1012
3048,1012
3049,1012
3050,1013
3051,1014
3052,1014
3053,1015
3054,1015
3055,1015
3056,1016
3057,1016
3058,1016
3059,1016
3060,1017
3061,1018
3062,1018
3063,1018
3064,1018
3065,1018
3066,1019
3067,1019
3068,1020
3069,1020
3070,1020
3071,1021
3072,1021
3073,1022
3074,1022
3075,1022
3076,1022
3077,1023
3078,1023
3079,1023
3080,1024
3081,1024
3082,1024
3083,1024
3084,1025
3085,1025
3086,1025
3087,1026
3088,1026
3089,1027
3090,1027
3091,1028
3092,1028
3093,1028
3094,1028
3095,1029
3096,1029
3097,1029
3098,1029
3099,1030
3100,1030
3101,1030
3102,1030
3103,1031
3104,1031
3105,1031
3106,1031
3107,1031
3108,1032
3109,1032
3110,1032
3111,1032
3112,1033
3113,1034
3114,1034
3115,1034
3116,1035
3117,1036
3118,1037
3119,1037
3120,1038
3121,1038
3122,1038
3123,1039
3124,1039
3125,1040
3126,1040
3127,1040
3128,1040
3129,1041
3130,1041
3131,1041
3132,1042
3133,1042
3134,1043
3135,1043
3136,1043
3137,1044
3138,1044
3139,1044
3140,1044
3141,1044
3142,1045
3143,1045
3144,1045
3145,1045
3146,1045
3147,1046
3148,1046
3149,1047
3150,1047
3151,1047
3152,1047
3153,1047
3154,1048
3155,1048
3156,1048
3157,1049
3158,1049
3159,1049
3160,1049
3161,1049
3162,1050
3163,1051
3164,1051
3165,1051
3166,1051
3167,1051
3168,1052
3169,1052
3170,1052
3171,1053
3172,1053
3173,1053
3174,1053
3175,1054
3176,1054
3177,1055
3178,1055
3179,1055
3180,1055
3181,1056
3182,1056
3183,1056
3184,1056
3185,1057
3186,1057
3187,1058
3188,1058
3189,1058
3190,1059
3191,1059
3192,1060
3193,1060
3194,1060
3195,1060
3196,1061
3197,1062
3198,1062
3199,1063
3200,1063
3201,1063
3202,1064
3203,1064
3204,1064
3205,1065
3206,1065
3207,1066
3208,1066
3209,1066
3210,1066
3211,1066
3212,1066
3213,1067
3214,1067
3215,1068
3216,1068
3217,1068
3218,1068
3219,1068
3220,1069
3221,1070
3222,1070
3223,1070
3224,1070
3225,1070
3226,1070
3227,1071
3228,1071
3229,1071
3230,1071
3231,1072
3232,1072
3233,1072
3234,1072
3235,1073
3236,1074
3237,1074
3238,1074
3239,1075
3240,1075
3241,1075
3242,1075
3243,1075
3244,1076
3245,1076
3246,1076
3247,1077
3248,1077
3249,1077
3250,1078
3251,1078
3252,1079
3253,1079
3254,1079
3255,1079
3256,1079
3257,1080
3258,1080
3259,1081
3260,1081
3261,1081
3262,1082
3263,1083
3264,1083
3265,1084
3266,1084
3267,1084
3268,1085
3269,1085
3270,1085
3271,1086
3272,1086
3273,1086
3274,1087
3275,1087
3276,1087
3277,1088
3278,1088
3279,1088
3280,1089
3281,1089
3282,1089
3283,1089
3284,1090
3285,1090
3286,1091
3287,1091
3288,1091
3289,1091
3290,1091
3291,1091
3292,1092
3293,1093
3294,1093
3295,1093
3296,1094
3297,1094
3298,1094
3299,1095
3300,1095
3301,1096
3302,1096
3303,1096
3304,1096
3305,1096
3306,1097
3307,1098
3308,1098
3309,1098
3310,1099
3311,1100
3312,1100
3313,1100
3314,1101
3315,1101
3316,1101
3317,1101
3318,1102
3319,1103
3320,1103
3321,1103
3322,1104
3323,1104
3324,1104
3325,1105
3326,1105
3327,1106
3328,1106
3329,1107
3330,1107
3331,1107
3332,1108
3333,1108
3334,1108
3335,1108
3336,1109
3337,1109
3338,1110
3339,1110
3340,1111
3341,1111
3342,1111
3343,1112
3344,1112
3345,1113
3346,1113
3347,1114
3348,1115
3349,1116
3350,1116
3351,1116
3352,1117
3353,1117
3354,1117
3355,1117
3356,1117
3357,1118
3358,1118
3359,1118
3360,1118
3361,1118
3362,1119
3363,1119
3364,1119
3365,1120
3366,1120
3367,1120
3368,1120
3369,1120
3370,1120
3371,1120
3372,1120
3373,1121
3374,1121
3375,1122
3376,1122
3377,1122
3378,1122
3379,1122
3380,1122
3381,1122
3382,1123
3383,1124
3384,1124
3385,1124
3386,1124
3387,1124
3388,1125
3389,1125
3390,1125
3391,1126
3392,1126
3393,1127
3394,1127
3395,1128
3396,1128
3397,1129
3398,1129
3399,1129
3400,1129
3401,1130
3402,1130
3403,1130
3404,1131
3405,1131
3406,1131
3407,1132
3408,1133
3409,1133
3410,1134
3411,1135
3412,1136
3413,1136
3414,1136
3415,1136
3416,1137
3417,1137
3418,1138
3419,1138
3420,1138
3421,1139
3422,1139
3423,1140
3424,1141
3425,1141
3426,1142
3427,1143
3428,1144
3429,1144
3430,1144
3431,1145
3432,1145
3433,1145
3434,1146
3435,1147
3436,1147
3437,1147
3438,1148
3439,1148
3440,1148
3441,1149
3442,1149
3443,1150
3444,1150
3445,1151
3446,1151
3447,1151
3448,1152
3449,1152
3450,1152
3451,1153
3452,1153
3453,1154
3454,1154
3455,1155
3456,1155
3457,1156
3458,1156
3459,1157
3460,1157
3461,1157
3462,1157
3463,1158
3464,1158
3465,1158
3466,1159
3467,1159
3468,1160
3469,1160
3470,1160
3471,1161
3472,1161
3473,1162
3474,1162
3475,1163
3476,1163
3477,1163
3478,1163
3479,1164
3480,1164
3481,1165
3482,1165
3483,1165
3484,1166
3485,1166
3486,1166
3487,1167
3488,1167
3489,1168
3490,1168
3491,1168
3492,1169
3493,1170
3494,1170
3495,1171
3496,1171
3497,1171
3498,1171
3499,1171
3500,1172
3501,1172
3502,1173
3503,1173
3504,1173
3505,1173
3506,1173
3507,1174
3508,1174
3509,1174
3510,1175
3511,1175
3512,1175
3513,1176
3514,1176
3515,1176
3516,1177
3517,1177
3518,1177
3519,1177
3520,1178
3521,1178
3522,1178
3523,1178
3524,1179
3525,1179
3526,1180
3527,1180
3528,1180
3529,1180
3530,1181
3531,1181
3532,1182
3533,1182
3534,1183
3535,1183
3536,1183
3537,1184
3538,1184
3539,1184
3540,1185
3541,1186
3542,1186
3543,1186
3544,1187
3545,1187
3546,1187
3547,1187
3548,1188
3549,1188
3550,1189
3551,1189
3552,1189
3553,1189
3554,1189
3555,1189
3556,1190
3557,1190
3558,1190
3559,1190
3560,1190
3561,1190
3562,1191
3563,1191
3564,1191
3565,1192
3566,1192
3567,1193
3568,1193
3569,1193
3570,1193
3571,1194
3572,1194
3573,1194
3574,1195
3575,1195
3576,1195
3577,1196
3578,1196
3579,1196
3580,1196
3581,1197
3582,1197
3583,1197
3584,1197
3585,1198
3586,1198
3587,1198
3588,1198
3589,1198
3590,1199
3591,1199
3592,1199
3593,1200
3594,1200
3595,1201
3596,1201
3597,1202
3598,1203
3599,1203
3600,1203
3601,1204
3602,1204
3603,1204
3604,1205
3605,1205
3606,1206
3607,1206
3608,1206
3609,1207
3610,1208
3611,1208
3612,1208
3613,1208
3614,1209
3615,1209
3616,1210
3617,1210
3618,1211
3619,1211
3620,1211
3621,1212
3622,1212
3623,1213
3624,1214
3625,1214
3626,1214
3627,1214
3628,1214
3629,1215
3630,1216
3631,1216
3632,1216
3633,1217
3634,1217
3635,1217
3636,1218
3637,1218
3638,1218
3639,1218
3640,1219
3641,1219
3642,1220
3643,1220
3644,1220
3645,1220
3646,1220
3647,1220
3648,1221
3649,1221
3650,1222
3651,1223
3652,1223
3653,1223
3654,1223
3655,1223
3656,1223
3657,1224
3658,1225
3659,1225
3660,1226
3661,1226
3662,1226
3663,1226
3664,1226
3665,1226
3666,1227
3667,1227
3668,1228
3669,1228
3670,1228
3671,1229
3672,1229
3673,1229
3674,1230
3675,1230
3676,1230
3677,1230
3678,1230
3679,1231
3680,1231
3681,1231
3682,1232
3683,1232
3684,1232
3685,1232
3686,1232
3687,1233
3688,1233
3689,1233
3690,1233
3691,1234
3692,1235
3693,1235
3694,1235
3695,1235
3696,1236
3697,1236
3698,1237
3699,1237
3700,1237
3701,1238
3702,1238
3703,1238
3704,1238
3705,1239
3706,1240
3707,1240
3708,1240
3709,1241
3710,1241
3711,1242
3712,1242
3713,1243
3714,1243
3715,1244
3716,1244
3717,1244
3718,1245
3719,1245
3720,1245
3721,1245
3722,1246
3723,1246
3724,1247
3725,1248
3726,1248
3727,1248
3728,1249
3729,1249
3730,1250
3731,1250
3732,1250
3733,1251
3734,1251
3735,1251
3736,1252
3737,1252
3738,1252
3739,1253
3740,1253
3741,1253
3742,1253
3743,1253
3744,1254
3745,1254
3746,1254
3747,1254
3748,1255
3749,1255
3750,1255
3751,1256
3752,1256
3753,1256
3754,1257
3755,1257
3756,1257
3757,1258
3758,1258
3759,1258
3760,1259
3761,1259
3762,1259
3763,1260
3764,1260
3765,1260
3766,1260
3767,1260
3768,1260
3769,1261
3770,1262
3771,1263
3772,1264
3773,1265
3774,1265
3775,1266
3776,1266
3777,1267
3778,1268
3779,1268
3780,1268
3781,1269
3782,1269
3783,1270
3784,1270
3785,1270
3786,1271
3787,1271
3788,1271
3789,1272
3790,1272
3791,1272
3792,1272
3793,1272
3794,1273
3795,1273
3796,1273
3797,1273
3798,1274
3799,1275
3800,1276
3801,1276
3802,1276
3803,1277
3804,1277
3805,1277
3806,1277
3807,1278
3808,1278
3809,1279
3810,1279
3811,1279
3812,1280
3813,1280
3814,1281
3815,1282
3816,1283
3817,1283
3818,1283
3819,1283
3820,1284
3821,1284
3822,1284
3823,1284
3824,1285
3825,1285
3826,1286
3827,1286
3828,1286
3829,1286
3830,1287
3831,1287
3832,1287
3833,1288
3834,1288
3835,1289
3836,1289
3837,1289
3838,1290
3839,1290
3840,1290
3841,1291
3842,1291
3843,1291
3844,1291
3845,1292
3846,1292
3847,1292
3848,1292
3849,1292
3850,1293
3851,1293
3852,1294
3853,1294
3854,1294
3855,1294
3856,1294
3857,1295
3858,1295
3859,1296
3860,1296
3861,1296
3862,1296
3863,1297
3864,1297
3865,1298
3866,1298
3867,1298
3868,1298
3869,1298
3870,1299
3871,1299
3872,1300
3873,1300
3874,1300
3875,1301
3876,1302
3877,1302
3878,1303
3879,1303
3880,1304
3881,1304
3882,1304
3883,1305
3884,1305
3885,1305
3886,1305
3887,1306
3888,1306
3889,1306
3890,1306
3891,1306
3892,1306
3893,1306
3894,1306
3895,1307
3896,1307
3897,1307
3898,1308
3899,1309
3900,1309
3901,1310
3902,1310
3903,1310
3904,1310
3905,1311
3906,1311
3907,1311
3908,1311
3909,1311
3910,1312
3911,1312
3912,1312
3913,1313
3914,1313
3915,1313
3916,1314
3917,1314
3918,1315
3919,1315
3920,1316
3921,1316
3922,1317
3923,1317
3924,1317
3925,1317
3926,1317
3927,1318
3928,1318
3929,1319
3930,1320
3931,1320
3932,1320
3933,1320
3934,1321
3935,1321
3936,1322
3937,1322
3938,1322
3939,1322
3940,1323
3941,1323
3942,1324
3943,1324
3944,1325
3945,1325
3946,1326
3947,1326
3948,1326
3949,1327
3950,1327
3951,1327
3952,1327
3953,1327
3954,1327
3955,1327
3956,1328
3957,1329
3958,1329
3959,1330
3960,1330
3961,1330
3962,1331
3963,1331
3964,1331
3965,1332
3966,1332
3967,1332
3968,1332
3969,1333
3970,1333
3971,1334
3972,1334
3973,1335
3974,1335
3975,1335
3976,1336
3977,1336
3978,1336
3979,1336
3980,1337
3981,1337
3982,1337
3983,1337
3984,1337
3985,1337
3986,1337
3987,1337
3988,1337
3989,1338
3990,1338
3991,1338
3992,1338
3993,1339
3994,1340
3995,1340
3996,1340
3997,1341
3998,1341
3999,1342
4000,1342
4001,1342
4002,1342
4003,1343
4004,1343
4005,1343
4006,1343
4007,1343
4008,1343
4009,1344
4010,1344
4011,1344
4012,1344
4013,1345
4014,1345
4015,1345
4016,1345
4017,1346
4018,1346
4019,1346
4020,1347
4021,1347
4022,1348
4023,1348
4024,1348
4025,1349
4026,1349
4027,1349
4028,1349
4029,1350
4030,1350
4031,1350
4032,1351
4033,1352
4034,1352
4035,1352
4036,1353
4037,1354
4038,1354
4039,1354
4040,1355
4041,1355
4042,1356
4043,1357
4044,1357
4045,1357
4046,1358
4047,1359
4048,1359
4049,1359
4050,1359
4051,1360
4052,1360
4053,1360
4054,1360
4055,1361
4056,1361
4057,1362
4058,1362
4059,1362
4060,1362
4061,1363
4062,1363
4063,1364
4064,1364
4065,1364
4066,1364
4067,1364
4068,1365
4069,1365
4070,1365
4071,1365
4072,1365
4073,1366
4074,1367
4075,1367
4076,1368
4077,1368
4078,1368
4079,1368
4080,1369
4081,1369
4082,1369
4083,1369
4084,1369
4085,1370
4086,1370
4087,1371
4088,1372
4089,1372
4090,1373
4091,1373
4092,1374
4093,1374
4094,1375
4095,1375
4096,1375
4097,1376
4098,1376
4099,1376
4100,1377
4101,1377
4102,1377
4103,1377
4104,1378
4105,1378
4106,1379
4107,1380
4108,1380
4109,1381
4110,1381
4111,1381
4112,1381
4113,1382
4114,1382
4115,1383
4116,1384
4117,1384
4118,1384
4119,1384
4120,1384
4121,1385
4122,1385
4123,1385
4124,1386
4125,1386
4126,1386
4127,1386
4128,1387
4129,1387
4130,1388
4131,1388
4132,1389
4133,1389
4134,1390
4135,1390
4136,1391
4137,1391
4138,1392
4139,1392
4140,1393
4141,1393
4142,1393
4143,1393
4144,1394
4145,1395
4146,1395
4147,1396
4148,1396
4149,1396
4150,1397
4151,1397
4152,1397
4153,1398
4154,1398
4155,1398
4156,1398
4157,1399
4158,1399
4159,1399
4160,1399
4161,1400
4162,1400
4163,1400
4164,1401
4165,1401
4166,1401
4167,1401
4168,1402
4169,1402
4170,1402
4171,1402
4172,1403
4173,1403
4174,1403
4175,1403
4176,1404
4177,1404
4178,1404
4179,1405
4180,1405
4181,1405
4182,1405
4183,1406
4184,1406
4185,1406
4186,1407
4187,1407
4188,1407
4189,1408
4190,1408
4191,1409
4192,1409
4193,1409
4194,1410
4195,1410
4196,1410
4197,1411
4198,1411
4199,1411
4200,1412
4201,1412
4202,1412
4203,1412
4204,1413
4205,1413
4206,1413
4207,1414
4208,1415
4209,1416
4210,1416
4211,1417
4212,1417
4213,1417
4214,1417
4215,1418
4216,1418
4217,1419
4218,1419
4219,1419
4220,1419
4221,1420
4222,1420
4223,1420
4224,1421
4225,1421
4226,1421
4227,1422
4228,1422
4229,1422
4230,1423
4231,1424
4232,1425
4233,1425
4234,1425
4235,1425
4236,1426
4237,1426
4238,1426
4239,1427
4240,1428
4241,1428
4242,1428
4243,1428
4244,1428
4245,1428
4246,1429
4247,1429
4248,1429
4249,1429
4250,1430
4251,1430
4252,1431
4253,1431
4254,1431
4255,1432
4256,1432
4257,1432
4258,1432
4259,1433
4260,1434
4261,1434
4262,1434
4263,1434
4264,1434
4265,1435
4266,1435
4267,1436
4268,1436
4269,1436
4270,1436
4271,1436
4272,1436
4273,1437
4274,1437
4275,1437
4276,1438
4277,1438
4278,1438
4279,1438
4280,1438
4281,1439
4282,1439
4283,1440
4284,1440
4285,1440
4286,1440
4287,1441
4288,1441
4289,1441
4290,1442
4291,1442
4292,1443
4293,1443
4294,1443
4295,1443
4296,1443
4297,1443
4298,1443
4299,1443
4300,1444
4301,1444
4302,1444
4303,1444
4304,1444
4305,1445
4306,1446
4307,1446
4308,1446
4309,1447
4310,1447
4311,1447
4312,1447
4313,1447
4314,1448
4315,1448
4316,1448
4317,1448
4318,1448
4319,1449
4320,1449
4321,1449
4322,1450
4323,1451
4324,1451
4325,1452
4326,1452
4327,1452
4328,1452
4329,1452
4330,1453
4331,1453
4332,1453
4333,1454
4334,1455
4335,1455
4336,1456
4337,1456
4338,1456
4339,1457
4340,1457
4341,1457
4342,1458
4343,1458
4344,1458
4345,1459
4346,1459
4347,1460
4348,1461
4349,1461
4350,1461
4351,1462
4352,1462
4353,1462
4354,1462
4355,1462
4356,1463
4357,1464
4358,1464
4359,1465
4360,1465
4361,1466
4362,1466
4363,1466
4364,1466
4365,1467
4366,1467
4367,1467
4368,1467
4369,1468
4370,1469
4371,1469
4372,1469
4373,1470
4374,1470
4375,1471
4376,1471
4377,1471
4378,1471
4379,1472
4380,1472
4381,1472
4382,1473
4383,1473
4384,1473
4385,1474
4386,1474
4387,1474
4388,1474
4389,1474
4390,1474
4391,1475
4392,1475
4393,1476
4394,1476
4395,1477
4396,1477
4397,1477
4398,1478
4399,1478
4400,1478
4401,1478
4402,1479
4403,1479
4404,1480
4405,1480
4406,1480
4407,1480
4408,1481
4409,1482
4410,1482
4411,1482
4412,1482
4413,1483
4414,1483
4415,1483
4416,1484
4417,1485
4418,1485
4419,1485
4420,1485
4421,1486
4422,1487
4423,1487
4424,1488
4425,1488
4426,1488
4427,1489
4428,1489
4429,1490
4430,1490
4431,1490
4432,1491
4433,1491
4434,1492
4435,1492
4436,1492
4437,1492
4438,1492
4439,1493
4440,1493
4441,1493
4442,1493
4443,1494
4444,1494
4445,1494
4446,1494
4447,1494
4448,1495
4449,1495
4450,1495
4451,1496
4452,1496
4453,1497
4454,1497
4455,1497
4456,1497
4457,1498
4458,1498
4459,1498
4460,1499
4461,1499
4462,1499
4463,1500
4464,1500
4465,1501
4466,1501
4467,1502
4468,1502
4469,1502
4470,1502
4471,1503
4472,1503
4473,1503
4474,1503
4475,1504
4476,1504
4477,1504
4478,1505
4479,1505
4480,1506
4481,1506
4482,1506
4483,1507
4484,1507
4485,1507
4486,1507
4487,1508
4488,1509
4489,1509
4490,1510
4491,1510
4492,1510
4493,1511
4494,1511
4495,1512
4496,1512
4497,1512
4498,1513
4499,1513
4500,1514
4501,1514
4502,1514
4503,1515
4504,1515
4505,1515
4506,1516
4507,1516
4508,1516
4509,1517
4510,1517
4511,1518
4512,1518
4513,1518
4514,1519
4515,1519
4516,1520
4517,1520
4518,1521
4519,1521
4520,1521
4521,1522
4522,1522
4523,1522
4524,1522
4525,1522
4526,1523
4527,1523
4528,1523
4529,1523
4530,1524
4531,1524
4532,1525
4533,1525
4534,1526
4535,1526
4536,1526
4537,1527
4538,1528
4539,1528
4540,1529
4541,1530
4542,1530
4543,1530
4544,1531
4545,1531
4546,1531
4547,1532
4548,1532
4549,1532
4550,1533
4551,1533
4552,1533
4553,1534
4554,1534
4555,1534
4556,1534
4557,1534
4558,1534
4559,1534
4560,1535
4561,1535
4562,1535
4563,1535
4564,1536
4565,1536
4566,1536
4567,1536
4568,1537
4569,1537
4570,1537
4571,1537
4572,1537
4573,1538
4574,1538
4575,1539
4576,1539
4577,1539
4578,1539
4579,1540
4580,1541
4581,1541
4582,1541
4583,1541
4584,1542
4585,1542
4586,1542
4587,1542
4588,1543
4589,1544
4590,1544
4591,1545
4592,1545
4593,1545
4594,1545
4595,1545
4596,1546
4597,1546
4598,1546
4599,1547
4600,1547
4601,1547
4602,1548
4603,1548
4604,1548
4605,1548
4606,1549
4607,1549
4608,1549
4609,1549
4610,1549
4611,1550
4612,1550
4613,1550
4614,1550
4615,1551
4616,1551
4617,1551
4618,1551
4619,1551
4620,1552
4621,1552
4622,1553
4623,1553
4624,1553
4625,1554
4626,1555
4627,1555
4628,1556
4629,1557
4630,1558
4631,1558
4632,1559
4633,1559
4634,1559
4635,1560
4636,1560
4637,1561
4638,1561
4639,1561
4640,1561
4641,1562
4642,1562
4643,1563
4644,1563
4645,1563
4646,1563
4647,1564
4648,1565
4649,1565
4650,1566
4651,1566
4652,1566
4653,1566
4654,1567
4655,1567
4656,1567
4657,1568
4658,1569
4659,1569
4660,1569
4661,1570
4662,1570
4663,1570
4664,1570
4665,1571
4666,1571
4667,1571
4668,1572
4669,1572
4670,1573
4671,1573
4672,1574
4673,1574
4674,1574
4675,1575
4676,1576
4677,1576
4678,1576
4679,1577
4680,1577
4681,1577
4682,1578
4683,1578
4684,1579
4685,1579
4686,1579
4687,1579
4688,1579
4689,1580
4690,1580
4691,1580
4692,1581
4693,1581
4694,1581
4695,1581
4696,1582
4697,1582
4698,1582
4699,1582
4700,1583
4701,1583
4702,1583
4703,1583
4704,1584
4705,1584
4706,1584
4707,1584
4708,1585
4709,1585
4710,1585
4711,1586
4712,1586
4713,1586
4714,1587
4715,1587
4716,1587
4717,1588
4718,1589
4719,1589
4720,1589
4721,1589
4722,1589
4723,1590
4724,1590
4725,1590
4726,1590
4727,1590
4728,1591
4729,1591
4730,1592
4731,1592
4732,1592
4733,1592
4734,1593
4735,1593
4736,1593
4737,1594
4738,1594
4739,1595
4740,1595
4741,1595
4742,1595
4743,1596
4744,1596
4745,1596
4746,1596
4747,1597
4748,1597
4749,1597
4750,1598
4751,1598
4752,1599
4753,1599
4754,1599
4755,1600
4756,1600
4757,1600
4758,1601
4759,1601
4760,1602
4761,1602
4762,1602
4763,1603
4764,1603
4765,1604
4766,1605
4767,1605
4768,1605
4769,1606
4770,1607
4771,1607
4772,1608
4773,1608
4774,1609
4775,1609
4776,1609
4777,1609
4778,1610
4779,1610
4780,1611
4781,1612
4782,1613
4783,1613
4784,1613
4785,1614
4786,1615
4787,1615
4788,1615
4789,1616
4790,1617
4791,1617
4792,1617
4793,1617
4794,1617
4795,1617
4796,1618
4797,1618
4798,1618
4799,1619
4800,1619
4801,1619
4802,1619
4803,1620
4804,1620
4805,1620
4806,1621
4807,1621
4808,1621
4809,1621
4810,1621
4811,1621
4812,1622
4813,1622
4814,1622
4815,1623
4816,1623
4817,1624
4818,1624
4819,1624
4820,1624
4821,1625
4822,1625
4823,1625
4824,1626
4825,1626
4826,1626
4827,1627
4828,1627
4829,1628
4830,1628
4831,1628
4832,1629
4833,1629
4834,1629
4835,1630
4836,1630
4837,1630
4838,1630
4839,1631
4840,1632
4841,1633
4842,1633
4843,1633
4844,1634
4845,1634
4846,1634
4847,1635
4848,1635
4849,1635
4850,1635
4851,1635
4852,1636
4853,1636
4854,1637
4855,1638
4856,1638
4857,1639
4858,1639
4859,1639
4860,1640
4861,1641
4862,1642
4863,1642
4864,1642
4865,1643
4866,1643
4867,1643
4868,1644
4869,1644
4870,1645
4871,1645
4872,1646
4873,1646
4874,1647
4875,1647
4876,1647
4877,1647
4878,1647
4879,1648
4880,1648
4881,1648
4882,1649
4883,1649
4884,1649
4885,1650
4886,1650
4887,1650
4888,1650
4889,1651
4890,1651
4891,1652
4892,1652
4893,1652
4894,1652
4895,1653
4896,1653
4897,1653
4898,1653
4899,1654
4900,1654
4901,1654
4902,1655
4903,1655
4904,1656
4905,1656
4906,1656
4907,1657
4908,1657
4909,1657
4910,1658
4911,1658
4912,1658
4913,1659
4914,1659
4915,1659
4916,1659
4917,1659
4918,1660
4919,1660
4920,1661
4921,1661
4922,1661
4923,1662
4924,1662
4925,1662
4926,1663
4927,1663
4928,1663
4929,1663
4930,1664
4931,1664
4932,1664
4933,1664
4934,1665
4935,1665
4936,1665
4937,1666
4938,1666
4939,1666
4940,1666
4941,1666
4942,1667
4943,1667
4944,1668
4945,1668
4946,1669
4947,1669
4948,1669
4949,1670
4950,1670
4951,1670
4952,1670
4953,1670
4954,1670
4955,1670
4956,1671
4957,1672
4958,1673
4959,1673
4960,1674
4961,1674
4962,1674
4963,1675
4964,1675
4965,1675
4966,1675
4967,1675
4968,1676
4969,1676
4970,1676
4971,1677
4972,1677
4973,1677
4974,1678
4975,1678
4976,1678
4977,1678
4978,1679
4979,1679
4980,1679
4981,1679
4982,1680
4983,1680
4984,1681
4985,1682
4986,1682
4987,1682
4988,1683
4989,1684
4990,1685
4991,1685
4992,1685
4993,1685
4994,1686
4995,1687
4996,1687
4997,1688
4998,1688
4999,1688
5000,1689
5001,1689
5002,1690
5003,1690
5004,1690
5005,1691
5006,1691
5007,1692
5008,1692
5009,1693
5010,1693
5011,1693
5012,1693
5013,1693
5014,1693
5015,1693
5016,1694
5017,1694
5018,1694
5019,1694
5020,1694
5021,1695
5022,1695
5023,1695
5024,1695
5025,1695
5026,1696
5027,1696
5028,1696
5029,1696
5030,1696
5031,1696
5032,1697
5033,1697
5034,1697
5035,1697
5036,1698
5037,1698
5038,1698
5039,1699
5040,1700
5041,1701
5042,1701
5043,1702
5044,1702
5045,1702
5046,1702
5047,1703
5048,1703
5049,1704
5050,1704
5051,1704
5052,1705
5053,1705
5054,1705
5055,1706
5056,1706
5057,1707
5058,1707
5059,1707
5060,1707
5061,1708
5062,1708
5063,1709
5064,1709
5065,1709
5066,1709
5067,1710
5068,1710
5069,1711
5070,1711
5071,1712
5072,1712
5073,1713
5074,1713
5075,1714
5076,1714
5077,1715
5078,1715
5079,1716
5080,1716
5081,1716
5082,1717
5083,1717
5084,1717
5085,1717
5086,1718
5087,1718
5088,1718
5089,1719
5090,1719
5091,1719
5092,1720
5093,1721
5094,1721
5095,1721
5096,1722
5097,1722
5098,1723
5099,1723
5100,1723
5101,1723
5102,1723
5103,1724
5104,1724
5105,1724
5106,1725
5107,1725
5108,1725
5109,1725
5110,1726
5111,1726
5112,1727
5113,1727
5114,1727
5115,1727
5116,1727
5117,1728
5118,1728
5119,1728
5120,1729
5121,1729
5122,1730
5123,1730
5124,1730
5125,1730
5126,1731
5127,1731
5128,1731
5129,1731
5130,1731
5131,1731
5132,1732
5133,1733
5134,1733
5135,1733
5136,1734
5137,1734
5138,1734
5139,1735
5140,1735
5141,1735
5142,1736
5143,1737
5144,1737
5145,1737
5146,1737
5147,1737
5148,1738
5149,1738
5150,1738
5151,1738
5152,1739
5153,1739
5154,1739
5155,1739
5156,1740
5157,1740
5158,1740
5159,1741
5160,1741
5161,1741
5162,1741
5163,1742
5164,1742
5165,1742
5166,1743
5167,1743
5168,1744
5169,1744
5170,1744
5171,1744
5172,1744
5173,1745
5174,1745
5175,1745
5176,1745
5177,1745
5178,1746
5179,1746
5180,1746
5181,1747
5182,1747
5183,1748
5184,1748
5185,1748
5186,1749
5187,1749
5188,1749
5189,1749
5190,1749
5191,1750
5192,1750
5193,1750
5194,1750
5195,1750
5196,1750
5197,1751
5198,1751
5199,1751
5200,1752
5201,1752
5202,1752
5203,1752
5204,1752
5205,1753
5206,1754
5207,1754
5208,1754
5209,1755
5210,1755
5211,1755
5212,1755
5213,1755
5214,1756
5215,1756
5216,1756
5217,1756
5218,1757
5219,1757
5220,1758
5221,1758
5222,1758
5223,1759
5224,1759
5225,1759
5226,1759
5227,1760
5228,1760
5229,1760
5230,1760
5231,1761
5232,1761
5233,1761
5234,1762
5235,1762
5236,1762
5237,1763
5238,1763
5239,1763
5240,1763
5241,1764
5242,1764
5243,1765
5244,1765
5245,1765
5246,1766
5247,1766
5248,1766
5249,1766
5250,1767
5251,1767
5252,1768
5253,1768
5254,1768
5255,1768
5256,1769
5257,1769
5258,1770
5259,1770
5260,1771
5261,1771
5262,1771
5263,1772
5264,1772
5265,1773
5266,1773
5267,1773
5268,1774
5269,1774
5270,1774
5271,1775
5272,1775
5273,1775
5274,1775
5275,1776
5276,1776
5277,1776
5278,1777
5279,1777
5280,1777
5281,1777
5282,1777
5283,1778
5284,1778
5285,1778
5286,1778
5287,1778
5288,1778
5289,1779
5290,1779
5291,1779
5292,1780
5293,1780
5294,1781
5295,1781
5296,1781
5297,1781
5298,1781
5299,1782
5300,1782
5301,1783
5302,1783
5303,1783
5304,1783
5305,1783
5306,1784
5307,1784
5308,1785
5309,1785
5310,1786
5311,1786
5312,1786
5313,1787
5314,1787
5315,1788
5316,1789
5317,1789
5318,1789
5319,1789
5320,1790
5321,1790
5322,1790
5323,1791
5324,1791
5325,1792
5326,1792
5327,1793
5328,1794
5329,1794
5330,1794
5331,1795
5332,1795
5333,1795
5334,1795
5335,1796
5336,1796
5337,1796
5338,1797
5339,1797
5340,1798
5341,1799
5342,1799
5343,1800
5344,1800
5345,1800
5346,1800
5347,1801
5348,1801
5349,1802
5350,1802
5351,1802
5352,1803
5353,1804
5354,1804
5355,1804
5356,1805
5357,1805
5358,1806
5359,1806
5360,1807
5361,1807
5362,1807
5363,1807
5364,1808
5365,1808
5366,1808
5367,1808
5368,1808
5369,1808
5370,1809
5371,1809
5372,1809
5373,1810
5374,1811
5375,1811
5376,1812
5377,1812
5378,1813
5379,1813
5380,1814
5381,1814
5382,1814
5383,1815
5384,1815
5385,1816
5386,1817
5387,1817
5388,1818
5389,1818
5390,1818
5391,1818
5392,1818
5393,1818
5394,1818
5395,1819
5396,1819
5397,1819
5398,1819
5399,1820
5400,1821
5401,1821
5402,1822
5403,1822
5404,1822
5405,1823
5406,1823
5407,1823
5408,1823
5409,1823
5410,1824
5411,1824
5412,1824
5413,1824
5414,1825
5415,1825
5416,1825
5417,1825
5418,1825
5419,1825
5420,1825
5421,1826
5422,1826
5423,1826
5424,1827
5425,1827
5426,1827
5427,1828
5428,1828
5429,1828
5430,1828
5431,1829
5432,1829
5433,1829
5434,1830
5435,1830
5436,1830
5437,1831
5438,1831
5439,1831
5440,1832
5441,1832
5442,1833
5443,1833
5444,1833
5445,1833
5446,1833
5447,1834
5448,1834
5449,1834
5450,1835
5451,1835
5452,1835
5453,1835
5454,1836
5455,1836
5456,1836
5457,1836
5458,1837
5459,1837
5460,1837
5461,1838
5462,1838
5463,1838
5464,1838
5465,1839
5466,1839
5467,1840
5468,1840
5469,1841
5470,1841
5471,1841
5472,1842
5473,1842
5474,1842
5475,1842
5476,1843
5477,1843
5478,1843
5479,1843
5480,1844
5481,1844
5482,1844
5483,1845
5484,1845
5485,1845
5486,1845
5487,1846
5488,1846
5489,1846
5490,1847
5491,1847
5492,1847
5493,1848
5494,1848
5495,1848
5496,1848
5497,1849
5498,1849
5499,1849
5500,1850
5501,1850
5502,1851
5503,1851
5504,1851
5505,1851
5506,1851
5507,1852
5508,1852
5509,1852
5510,1852
5511,1853
5512,1853
5513,1853
5514,1853
5515,1853
5516,1853
5517,1854
5518,1854
5519,1854
5520,1855
5521,1855
5522,1856
5523,1857
5524,1857
5525,1858
5526,1858
5527,1858
5528,1859
5529,1859
5530,1859
5531,1859
5532,1859
5533,1860
5534,1860
5535,1860
5536,1860
5537,1861
5538,1861
5539,1861
5540,1861
5541,1862
5542,1862
5543,1863
5544,1863
5545,1863
5546,1864
5547,1864
5548,1864
5549,1865
5550,1865
5551,1865
5552,1865
5553,1866
5554,1866
5555,1866
5556,1867
5557,1867
5558,1868
5559,1868
5560,1868
5561,1869
5562,1869
5563,1870
5564,1870
5565,1870
5566,1870
5567,1871
5568,1871
5569,1871
5570,1871
5571,1871
5572,1872
5573,1872
5574,1872
5575,1872
5576,1872
5577,1872
5578,1873
5579,1873
5580,1873
5581,1873
5582,1874
5583,1874
5584,1874
5585,1874
5586,1874
5587,1875
5588,1876
5589,1876
5590,1877
5591,1877
5592,1878
5593,1878
5594,1879
5595,1879
5596,1879
5597,1880
5598,1881
5599,1881
5600,1882
5601,1882
5602,1882
5603,1883
5604,1883
5605,1883
5606,1883
5607,1884
5608,1884
5609,1884
5610,1884
5611,1885
5612,1885
5613,1885
5614,1886
5615,1886
5616,1886
5617,1886
5618,1887
5619,1887
5620,1888
5621,1888
5622,1889
5623,1890
5624,1890
5625,1890
5626,1891
5627,1891
5628,1891
5629,1891
5630,1891
5631,1892
5632,1892
5633,1892
5634,1893
5635,1893
5636,1894
5637,1894
5638,1894
5639,1894
5640,1895
5641,1895
5642,1896
5643,1896
5644,1896
5645,1897
5646,1898
5647,1898
5648,1898
5649,1898
5650,1898
5651,1899
5652,1899
5653,1900
5654,1900
5655,1901
5656,1901
5657,1902
5658,1903
5659,1903
5660,1904
5661,1904
5662,1904
5663,1905
5664,1905
5665,1905
5666,1905
5667,1905
5668,1905
5669,1905
5670,1906
5671,1906
5672,1906
5673,1906
5674,1907
5675,1907
5676,1908
5677,1908
5678,1908
5679,1909
5680,1909
5681,1909
5682,1909
5683,1909
5684,1910
5685,1911
5686,1911
5687,1911
5688,1912
5689,1912
5690,1912
5691,1912
5692,1912
5693,1913
5694,1913
5695,1913
5696,1914
5697,1914
5698,1914
5699,1914
5700,1915
5701,1915
5702,1916
5703,1916
5704,1917
5705,1917
5706,1917
5707,1917
5708,1917
5709,1917
5710,1918
5711,1918
5712,1918
5713,1918
5714,1918
5715,1918
5716,1918
5717,1919
5718,1919
5719,1919
5720,1919
5721,1920
5722,1921
5723,1921
5724,1922
5725,1922
5726,1922
5727,1923
5728,1923
5729,1923
5730,1924
5731,1924
5732,1924
5733,1924
5734,1924
5735,1925
5736,1925
5737,1926
5738,1926
5739,1927
5740,1928
5741,1928
5742,1928
5743,1929
5744,1929
5745,1929
5746,1930
5747,1930
5748,1931
5749,1931
5750,1931
5751,1931
5752,1931
5753,1932
5754,1932
5755,1932
5756,1932
5757,1933
5758,1933
5759,1934
5760,1934
5761,1935
5762,1935
5763,1935
5764,1935
5765,1936
5766,1936
5767,1936
5768,1936
5769,1937
5770,1937
5771,1938
5772,1938
5773,1939
5774,1939
5775,1939
5776,1940
5777,1940
5778,1940
5779,1941
5780,1941
5781,1941
5782,1942
5783,1942
5784,1942
5785,1942
5786,1942
5787,1942
5788,1942
5789,1943
5790,1943
5791,1943
5792,1943
5793,1944
5794,1944
5795,1944
5796,1945
5797,1945
5798,1946
5799,1946
5800,1946
5801,1947
5802,1947
5803,1948
5804,1949
5805,1949
5806,1950
5807,1950
5808,1950
5809,1951
5810,1951
5811,1952
5812,1952
5813,1952
5814,1953
5815,1953
5816,1953
5817,1953
5818,1954
5819,1954
5820,1954
5821,1954
5822,1954
5823,1955
5824,1955
5825,1955
5826,1955
5827,1955
5828,1955
5829,1956
5830,1956
5831,1957
5832,1957
5833,1957
5834,1957
5835,1958
5836,1958
5837,1958
5838,1959
5839,1959
5840,1959
5841,1960
5842,1960
5843,1960
5844,1961
5845,1962
5846,1963
5847,1963
5848,1963
5849,1963
5850,1963
5851,1963
5852,1964
5853,1964
5854,1964
5855,1965
5856,1965
5857,1966
5858,1966
5859,1966
5860,1966
5861,1967
5862,1967
5863,1968
5864,1969
5865,1969
5866,1970
5867,1970
5868,1971
5869,1971
5870,1971
5871,1972
5872,1972
5873,1972
5874,1973
5875,1973
5876,1973
5877,1973
5878,1973
5879,1974
5880,1974
5881,1974
5882,1975
5883,1975
5884,1975
5885,1976
5886,1976
5887,1976
5888,1976
5889,1977
5890,1978
5891,1979
5892,1980
5893,1980
5894,1981
5895,1982
5896,1982
5897,1982
5898,1982
5899,1983
5900,1984
5901,1984
5902,1984
5903,1984
5904,1984
5905,1984
5906,1985
5907,1985
5908,1985
5909,1985
5910,1985
5911,1986
5912,1986
5913,1986
5914,1987
5915,1987
5916,1987
5917,1988
5918,1988
5919,1988
5920,1988
5921,1989
5922,1989
5923,1989
5924,1989
5925,1989
5926,1990
5927,1990
5928,1990
5929,1990
5930,1990
5931,1991
5932,1991
5933,1992
5934,1993
5935,1994
5936,1994
5937,1994
5938,1995
5939,1996
5940,1996
5941,1996
5942,1997
5943,1997
5944,1997
5945,1998
5946,1998
5947,1998
5948,1998
5949,1998
5950,1998
5951,1999
5952,1999
5953,1999
5954,1999
5955,2000
5956,2000
5957,2001
5958,2002
5959,2002
5960,2002
5961,2003
5962,2004
5963,2004
5964,2004
5965,2004
5966,2004
5967,2004
5968,2005
5969,2005
5970,2005
5971,2005
5972,2006
5973,2007
5974,2007
5975,2007
5976,2007
5977,2008
5978,2008
5979,2009
5980,2009
5981,2009
5982,2009
5983,2010
5984,2010
5985,2010
5986,2011
5987,2011
5988,2011
5989,2011
5990,2011
5991,2012
5992,2012
5993,2012
5994,2012
5995,2012
5996,2013
5997,2013
5998,2013
5999,2014
6000,2014
6001,2014
6002,2014
6003,2014
6004,2015
6005,2015
6006,2015
6007,2016
6008,2016
6009,2016
6010,2016
6011,2017
6012,2018
6013,2018
6014,2018
6015,2019
6016,2019
6017,2019
6018,2020
6019,2020
6020,2020
6021,2020
6022,2020
6023,2021
6024,2021
6025,2021
6026,2022
6027,2023
6028,2024
6029,2024
6030,2024
6031,2024
6032,2025
6033,2025
6034,2025
6035,2026
6036,2026
6037,2027
6038,2027
6039,2027
6040,2027
6041,2028
6042,2028
6043,2028
6044,2029
6045,2029
6046,2029
6047,2030
6048,2030
6049,2031
6050,2031
6051,2031
6052,2032
6053,2032
6054,2033
6055,2033
6056,2034
6057,2034
6058,2034
6059,2034
6060,2035
6061,2036
6062,2036
6063,2036
6064,2036
6065,2037
6066,2037
6067,2037
6068,2038
6069,2038
6070,2038
6071,2038
6072,2038
6073,2039
6074,2039
6075,2039
6076,2040
6077,2040
6078,2040
6079,2041
6080,2041
6081,2042
6082,2043
6083,2043
6084,2044
6085,2044
6086,2045
6087,2045
6088,2046
6089,2046
6090,2046
6091,2046
6092,2047
6093,2047
6094,2047
6095,2048
6096,2048
6097,2049
6098,2049
6099,2049
6100,2049
6101,2049
6102,2050
6103,2050
6104,2050
6105,2050
6106,2051
6107,2051
6108,2051
6109,2051
6110,2051
6111,2051
6112,2051
6113,2052
6114,2052
6115,2052
6116,2053
6117,2053
6118,2054
6119,2055
6120,2055
6121,2055
6122,2055
6123,2055
6124,2056
6125,2056
6126,2056
6127,2057
6128,2057
6129,2058
6130,2058
6131,2058
6132,2058
6133,2058
6134,2059
6135,2059
6136,2060
6137,2060
6138,2060
6139,2061
6140,2061
6141,2061
6142,2062
6143,2062
6144,2063
6145,2063
6146,2063
6147,2063
6148,2063
6149,2063
6150,2064
6151,2064
6152,2065
6153,2065
6154,2065
6155,2066
6156,2067
6157,2067
6158,2067
6159,2068
6160,2069
6161,2069
6162,2069
6163,2070
6164,2070
6165,2070
6166,2071
6167,2071
6168,2072
6169,2072
6170,2072
6171,2072
6172,2073
6173,2074
6174,2075
6175,2075
6176,2075
6177,2076
6178,2076
6179,2077
6180,2077
6181,2077
6182,2078
6183,2078
6184,2078
6185,2079
6186,2079
6187,2079
6188,2080
6189,2080
6190,2080
6191,2080
6192,2081
6193,2082
6194,2082
6195,2082
6196,2082
6197,2083
6198,2083
6199,2083
6200,2084
6201,2084
6202,2084
6203,2085
6204,2086
6205,2086
6206,2086
6207,2087
6208,2087
6209,2087
6210,2087
6211,2088
6212,2088
6213,2088
6214,2089
6215,2089
6216,2089
6217,2090
6218,2090
6219,2091
6220,2092
6221,2092
6222,2093
6223,2093
6224,2093
6225,2093
6226,2094
6227,2094
6228,2094
6229,2094
6230,2095
6231,2095
6232,2095
6233,2095
6234,2096
6235,2097
6236,2097
6237,2098
6238,2099
6239,2099
6240,2099
6241,2099
6242,2100
6243,2100
6244,2100
6245,2100
6246,2101
6247,2101
6248,2102
6249,2102
6250,2102
6251,2102
6252,2102
6253,2103
6254,2103
6255,2103
6256,2104
6257,2104
6258,2105
6259,2105
6260,2105
6261,2105
6262,2106
6263,2106
6264,2107
6265,2107
6266,2107
6267,2108
6268,2108
6269,2108
6270,2108
6271,2108
6272,2109
6273,2109
6274,2109
6275,2109
6276,2110
6277,2110
6278,2111
6279,2111
6280,2111
6281,2111
6282,2111
6283,2112
6284,2112
6285,2112
6286,2112
6287,2113
6288,2113
6289,2113
6290,2113
6291,2113
6292,2114
6293,2115
6294,2116
6295,2116
6296,2116
6297,2117
6298,2117
6299,2118
6300,2118
6301,2118
6302,2118
6303,2118
6304,2119
6305,2119
6306,2120
6307,2120
6308,2120
6309,2121
6310,2121
6311,2122
6312,2122
6313,2122
6314,2122
6315,2123
6316,2123
6317,2124
6318,2124
6319,2124
6320,2124
6321,2125
6322,2126
6323,2127
6324,2127
6325,2127
6326,2128
6327,2129
6328,2129
6329,2129
6330,2130
6331,2130
6332,2130
6333,2131
6334,2131
6335,2131
6336,2131
6337,2131
6338,2132
6339,2132
6340,2132
6341,2132
6342,2132
6343,2133
6344,2133
6345,2133
6346,2133
6347,2134
6348,2134
6349,2134
6350,2134
6351,2135
6352,2135
6353,2135
6354,2135
6355,2135
6356,2136
6357,2136
6358,2137
6359,2137
6360,2138
6361,2138
6362,2138
6363,2139
6364,2139
6365,2139
6366,2140
6367,2140
6368,2140
6369,2141
6370,2141
6371,2141
6372,2142
6373,2142
6374,2142
6375,2142
6376,2142
6377,2142
6378,2143
6379,2143
6380,2143
6381,2144
6382,2145
6383,2146
6384,2147
6385,2147
6386,2147
6387,2148
6388,2148
6389,2148
6390,2148
6391,2148
6392,2148
6393,2149
6394,2149
6395,2149
6396,2150
6397,2150
6398,2150
6399,2151
6400,2151
6401,2152
6402,2152
6403,2153
6404,2153
6405,2154
6406,2154
6407,2154
6408,2154
6409,2154
6410,2154
6411,2155
6412,2155
6413,2156
6414,2156
6415,2156
6416,2156
6417,2156
6418,2157
6419,2157
6420,2157
6421,2157
6422,2157
6423,2158
6424,2159
6425,2160
6426,2161
6427,2161
6428,2161
6429,2162
6430,2162
6431,2162
6432,2162
6433,2162
6434,2163
6435,2163
6436,2163
6437,2163
6438,2164
6439,2164
6440,2165
6441,2166
6442,2166
6443,2167
6444,2167
6445,2167
6446,2168
6447,2168
6448,2168
6449,2169
6450,2169
6451,2170
6452,2170
6453,2171
6454,2171
6455,2171
6456,2171
6457,2172
6458,2173
6459,2173
6460,2174
6461,2174
6462,2174
6463,2175
6464,2175
6465,2175
6466,2175
6467,2175
6468,2176
6469,2176
6470,2177
6471,2177
6472,2177
6473,2177
6474,2178
6475,2178
6476,2178
6477,2178
6478,2179
6479,2179
6480,2179
6481,2180
6482,2180
6483,2180
6484,2180
6485,2181
6486,2181
6487,2181
6488,2181
6489,2181
6490,2181
6491,2182
6492,2182
6493,2182
6494,2183
6495,2183
6496,2183
6497,2184
6498,2184
6499,2184
6500,2185
6501,2185
6502,2185
6503,2186
6504,2186
6505,2186
6506,2186
6507,2187
6508,2187
6509,2188
6510,2188
6511,2188
6512,2188
6513,2189
6514,2189
6515,2189
6516,2190
6517,2190
6518,2190
6519,2190
6520,2191
6521,2191
6522,2191
6523,2191
6524,2192
6525,2192
6526,2192
6527,2192
6528,2192
6529,2192
6530,2192
6531,2193
6532,2193
6533,2193
6534,2193
6535,2194
6536,2194
6537,2194
6538,2195
6539,2195
6540,2196
6541,2196
6542,2196
6543,2196
6544,2197
6545,2197
6546,2197
6547,2197
6548,2198
6549,2198
6550,2198
6551,2198
6552,2199
6553,2199
6554,2200
6555,2200
6556,2200
6557,2201
6558,2201
6559,2202
6560,2202
6561,2202
6562,2203
6563,2204
6564,2204
6565,2204
6566,2205
6567,2205
6568,2205
6569,2206
6570,2206
6571,2206
6572,2206
6573,2207
6574,2208
6575,2209
6576,2210
6577,2210
6578,2211
6579,2212
6580,2212
6581,2213
6582,2213
6583,2213
6584,2213
6585,2214
6586,2214
6587,2214
6588,2215
6589,2215
6590,2215
6591,2215
6592,2215
6593,2215
6594,2216
6595,2216
6596,2217
6597,2217
6598,2217
6599,2217
6600,2217
6601,2217
6602,2218
6603,2218
6604,2218
6605,2218
6606,2218
6607,2219
6608,2219
6609,2219
6610,2219
6611,2219
6612,2220
6613,2220
6614,2220
6615,2220
6616,2220
6617,2221
6618,2221
6619,2222
6620,2223
6621,2223
6622,2224
6623,2224
6624,2224
6625,2225
6626,2225
6627,2225
6628,2226
6629,2227
6630,2227
6631,2228
6632,2228
6633,2228
6634,2229
6635,2229
6636,2229
6637,2230
6638,2230
6639,2230
6640,2231
6641,2231
6642,2232
6643,2232
6644,2232
6645,2232
6646,2233
6647,2233
6648,2234
6649,2234
6650,2234
6651,2235
6652,2235
6653,2235
6654,2235
6655,2236
6656,2237
6657,2238
6658,2238
6659,2238
6660,2239
6661,2239
6662,2240
6663,2240
6664,2240
6665,2240
6666,2240
6667,2240
6668,2241
6669,2241
6670,2241
6671,2241
6672,2242
6673,2243
6674,2243
6675,2243
6676,2244
6677,2244
6678,2245
6679,2245
6680,2245
6681,2246
6682,2246
6683,2247
6684,2247
6685,2247
6686,2247
6687,2248
6688,2248
6689,2248
6690,2249
6691,2250
6692,2251
6693,2251
6694,2251
6695,2251
6696,2252
6697,2252
6698,2252
6699,2252
6700,2252
6701,2252
6702,2253
6703,2253
6704,2254
6705,2254
6706,2254
6707,2254
6708,2254
6709,2255
6710,2255
6711,2255
6712,2256
6713,2256
6714,2257
6715,2258
6716,2259
6717,2259
6718,2259
6719,2260
6720,2260
6721,2260
6722,2261
6723,2261
6724,2261
6725,2262
6726,2262
6727,2262
6728,2262
6729,2263
6730,2263
6731,2263
6732,2264
6733,2265
6734,2265
6735,2266
6736,2266
6737,2267
6738,2267
6739,2268
6740,2268
6741,2268
6742,2269
6743,2269
6744,2269
6745,2270
6746,2270
6747,2270
6748,2270
6749,2270
6750,2270
6751,2271
6752,2272
6753,2272
6754,2272
6755,2272
6756,2273
6757,2273
6758,2274
6759,2274
6760,2274
6761,2275
6762,2275
6763,2276
6764,2276
6765,2276
6766,2276
6767,2276
6768,2277
6769,2278
6770,2278
6771,2278
6772,2279
6773,2279
6774,2280
6775,2280
6776,2281
6777,2281
6778,2281
6779,2282
6780,2282
6781,2282
6782,2282
6783,2282
6784,2283
6785,2283
6786,2284
6787,2284
6788,2284
6789,2285
6790,2285
6791,2285
6792,2286
6793,2286
6794,2287
6795,2287
6796,2287
6797,2288
6798,2288
6799,2288
6800,2289
6801,2289
6802,2289
6803,2289
6804,2290
6805,2290
6806,2291
6807,2291
6808,2292
6809,2292
6810,2293
6811,2293
6812,2293
6813,2294
6814,2294
6815,2295
6816,2295
6817,2295
6818,2295
6819,2296
6820,2296
6821,2296
6822,2296
6823,2297
6824,2297
6825,2298
6826,2298
6827,2299
6828,2299
6829,2299
6830,2299
6831,2299
6832,2300
6833,2300
6834,2300
6835,2300
6836,2300
6837,2301
6838,2301
6839,2302
6840,2302
6841,2303
6842,2303
6843,2303
6844,2303
6845,2304
6846,2304
6847,2305
6848,2305
6849,2306
6850,2306
6851,2307
6852,2307
6853,2307
6854,2307
6855,2307
6856,2307
6857,2307
6858,2307
6859,2308
6860,2308
6861,2308
6862,2308
6863,2309
6864,2310
6865,2310
6866,2310
6867,2310
6868,2310
6869,2311
6870,2312
6871,2313
6872,2313
6873,2313
6874,2313
6875,2314
6876,2314
6877,2315
6878,2315
6879,2315
6880,2316
6881,2317
6882,2317
6883,2318
6884,2318
6885,2318
6886,2318
6887,2318
6888,2319
6889,2320
6890,2320
6891,2321
6892,2321
6893,2322
6894,2322
6895,2322
6896,2323
6897,2323
6898,2324
6899,2324
6900,2324
6901,2325
6902,2325
6903,2325
6904,2325
6905,2326
6906,2326
6907,2327
6908,2327
6909,2327
6910,2327
6911,2327
6912,2327
6913,2328
6914,2328
6915,2329
6916,2329
6917,2329
6918,2329
6919,2330
6920,2330
6921,2331
6922,2331
6923,2331
6924,2332
6925,2333
6926,2333
6927,2333
6928,2334
6929,2334
6930,2334
6931,2334
6932,2334
6933,2334
6934,2335
6935,2335
6936,2336
6937,2337
6938,2338
6939,2338
6940,2338
6941,2339
6942,2339
6943,2340
6944,2340
6945,2341
6946,2341
6947,2342
6948,2342
6949,2342
6950,2342
6951,2342
6952,2343
6953,2343
6954,2344
6955,2344
6956,2344
6957,2344
6958,2345
6959,2346
6960,2346
6961,2346
6962,2346
6963,2346
6964,2347
6965,2347
6966,2348
6967,2348
6968,2349
6969,2349
6970,2349
6971,2350
6972,2350
6973,2350
6974,2350
6975,2351
6976,2351
6977,2351
6978,2351
6979,2352
6980,2352
6981,2352
6982,2353
6983,2353
6984,2354
6985,2354
6986,2354
6987,2355
6988,2355
6989,2355
6990,2355
6991,2356
6992,2356
6993,2356
6994,2356
6995,2356
6996,2357
6997,2357
6998,2357
6999,2358
7000,2358
7001,2358
7002,2358
7003,2358
7004,2358
7005,2359
7006,2359
7007,2360
7008,2360
7009,2360
7010,2360
7011,2361
7012,2361
7013,2362
7014,2362
7015,2362
7016,2362
7017,2362
7018,2363
7019,2363
7020,2363
7021,2363
7022,2364
7023,2364
7024,2365
7025,2365
7026,2365
7027,2366
7028,2366
7029,2367
7030,2367
7031,2367
7032,2367
7033,2368
7034,2369
7035,2369
7036,2370
7037,2371
7038,2371
7039,2371
7040,2371
7041,2371
7042,2372
7043,2372
7044,2373
7045,2374
7046,2374
7047,2374
7048,2374
7049,2374
7050,2375
7051,2375
7052,2376
7053,2376
7054,2376
7055,2377
7056,2378
7057,2378
7058,2378
7059,2378
7060,2378
7061,2379
7062,2379
7063,2379
7064,2379
7065,2380
7066,2380
7067,2381
7068,2381
7069,2381
7070,2382
7071,2383
7072,2383
7073,2384
7074,2384
7075,2385
7076,2386
7077,2386
7078,2387
7079,2387
7080,2388
7081,2389
7082,2389
7083,2390
7084,2390
7085,2390
7086,2390
7087,2391
7088,2391
7089,2392
7090,2392
7091,2392
7092,2393
7093,2393
7094,2393
7095,2393
7096,2394
7097,2394
7098,2394
7099,2394
7100,2394
7101,2395
7102,2395
7103,2395
7104,2396
7105,2396
7106,2396
7107,2396
7108,2396
7109,2396
7110,2396
7111,2396
7112,2397
7113,2397
7114,2398
7115,2398
7116,2399
7117,2399
7118,2400
7119,2400
7120,2400
7121,2401
7122,2401
7123,2401
7124,2402
7125,2402
7126,2402
7127,2403
7128,2403
7129,2403
7130,2404
7131,2404
7132,2404
7133,2404
7134,2405
7135,2405
7136,2406
7137,2406
7138,2406
7139,2406
7140,2407
7141,2407
7142,2407
7143,2407
7144,2408
7145,2408
7146,2408
7147,2409
7148,2409
7149,2410
7150,2410
7151,2410
7152,2411
7153,2411
7154,2412
7155,2413
7156,2413
7157,2413
7158,2413
7159,2414
7160,2415
7161,2415
7162,2415
7163,2416
7164,2416
7165,2416
7166,2417
7167,2417
7168,2417
7169,2418
7170,2418
7171,2419
7172,2419
7173,2419
7174,2419
7175,2420
7176,2420
7177,2420
7178,2420
7179,2421
7180,2421
7181,2422
7182,2422
7183,2422
7184,2423
7185,2424
7186,2424
7187,2425
7188,2425
7189,2425
7190,2425
7191,2426
7192,2427
7193,2427
7194,2427
7195,2428
7196,2428
7197,2428
7198,2429
7199,2429
7200,2430
7201,2430
7202,2430
7203,2431
7204,2431
7205,2431
7206,2431
7207,2431
7208,2432
7209,2432
7210,2432
7211,2433
7212,2433
7213,2433
7214,2433
7215,2434
7216,2434
7217,2434
7218,2434
7219,2435
7220,2435
7221,2436
7222,2436
7223,2436
7224,2436
7225,2437
7226,2438
7227,2438
7228,2438
7229,2439
7230,2439
7231,2439
7232,2439
7233,2440
7234,2441
7235,2441
7236,2441
7237,2442
7238,2442
7239,2442
7240,2443
7241,2443
7242,2443
7243,2444
7244,2444
7245,2444
7246,2444
7247,2445
7248,2445
7249,2445
7250,2445
7251,2446
7252,2446
7253,2447
7254,2447
7255,2448
7256,2449
7257,2449
7258,2449
7259,2450
7260,2450
7261,2450
7262,2450
7263,2451
7264,2451
7265,2451
7266,2451
7267,2451
7268,2452
7269,2453
7270,2453
7271,2453
7272,2453
7273,2454
7274,2454
7275,2454
7276,2455
7277,2455
7278,2455
7279,2456
7280,2456
7281,2456
7282,2457
7283,2458
7284,2458
7285,2458
7286,2458
7287,2459
7288,2459
7289,2459
7290,2459
7291,2460
7292,2460
7293,2460
7294,2461
7295,2462
7296,2462
7297,2462
7298,2463
7299,2463
7300,2463
7301,2463
7302,2463
7303,2464
7304,2464
7305,2464
7306,2465
7307,2465
7308,2466
7309,2466
7310,2466
7311,2467
7312,2467
7313,2468
7314,2468
7315,2468
7316,2468
7317,2469
7318,2469
7319,2469
7320,2470
7321,2470
7322,2470
7323,2471
7324,2471
7325,2472
7326,2472
7327,2473
7328,2473
7329,2474
7330,2474
7331,2474
7332,2474
7333,2475
7334,2476
7335,2476
7336,2476
7337,2477
7338,2478
7339,2478
7340,2478
7341,2479
7342,2479
7343,2479
7344,2479
7345,2480
7346,2480
7347,2480
7348,2480
7349,2480
7350,2481
7351,2481
7352,2481
7353,2481
7354,2482
7355,2482
7356,2482
7357,2483
7358,2483
7359,2483
7360,2483
7361,2484
7362,2484
7363,2484
7364,2485
7365,2485
7366,2486
7367,2486
7368,2487
7369,2487
7370,2488
7371,2488
7372,2489
7373,2489
7374,2489
7375,2489
7376,2489
7377,2490
7378,2490
7379,2490
7380,2491
7381,2491
7382,2491
7383,2492
7384,2492
7385,2492
7386,2492
7387,2492
7388,2493
7389,2493
7390,2493
7391,2493
7392,2494
7393,2494
7394,2495
7395,2496
7396,2496
7397,2496
7398,2497
7399,2498
7400,2498
7401,2498
7402,2498
7403,2498
7404,2498
7405,2499
7406,2499
7407,2499
