:START_ID(Activity-ID),:END_ID(Entity-ID)
0,0
1,2
2,5
3,9
4,11
5,13
6,14
7,16
8,21
9,22
10,24
11,27
12,30
13,32
14,36
15,38
16,41
17,45
18,48
19,55
20,57
21,58
22,60
23,65
24,68
25,70
26,74
27,76
28,80
29,84
30,86
31,93
32,95
33,98
34,104
35,109
36,112
37,115
38,118
39,121
40,126
41,129
42,136
43,139
44,144
45,145
46,147
47,150
48,152
49,153
50,160
51,161
52,167
53,172
54,177
55,180
56,184
57,189
58,191
59,194
60,197
61,202
62,204
63,208
64,209
65,212
66,214
67,216
68,219
69,220
70,222
71,226
72,229
73,233
74,235
75,238
76,239
77,245
78,250
79,252
80,252
81,254
82,256
83,260
84,262
85,263
86,266
87,268
88,269
89,273
90,275
91,277
92,281
93,286
94,291
95,293
96,296
97,298
98,302
99,303
100,304
101,306
102,312
103,315
104,317
105,322
106,324
107,329
108,333
109,336
110,338
111,339
112,342
113,344
114,346
115,349
116,351
117,352
118,355
119,360
120,364
121,365
122,368
123,372
124,374
125,378
126,380
127,382
128,389
129,392
130,394
131,396
132,397
133,401
134,404
135,406
136,410
137,414
138,416
139,421
140,424
141,425
142,430
143,432
144,435
145,438
146,441
147,444
148,448
149,451
150,453
151,455
152,459
153,463
154,464
155,468
156,473
157,476
158,485
159,486
160,490
161,492
162,495
163,497
164,500
165,503
166,505
167,509
168,511
169,512
170,515
171,517
172,520
173,523
174,526
175,528
176,531
177,532
178,533
179,536
180,539
181,541
182,545
183,551
184,554
185,558
186,560
187,562
188,564
189,566
190,572
191,576
192,578
193,582
194,585
195,590
196,594
197,595
198,601
199,605
200,607
201,610
202,612
203,614
204,615
205,617
206,621
207,623
208,627
209,631
210,633
211,638
212,641
213,644
214,646
215,649
216,650
217,654
218,658
219,660
220,662
221,666
222,666
223,668
224,670
225,672
226,674
227,678
228,682
229,687
230,693
231,696
232,698
233,701
234,707
235,709
236,713
237,715
238,717
239,720
240,721
241,722
242,723
243,728
244,730
245,732
246,736
247,742
248,744
249,746
250,750
251,754
252,757
253,759
254,762
255,763
256,767
257,771
258,777
259,777
260,782
261,785
262,790
263,792
264,796
265,798
266,800
267,804
268,810
269,813
270,818
271,819
272,820
273,823
274,827
275,827
276,831
277,834
278,836
279,838
280,842
281,848
282,852
283,856
284,858
285,859
286,867
287,869
288,870
289,873
290,875
291,877
292,881
293,882
294,884
295,888
296,890
297,892
298,896
299,898
300,902
301,906
302,909
303,911
304,919
305,921
306,925
307,927
308,930
309,935
310,938
311,942
312,946
313,951
314,956
315,958
316,961
317,963
318,965
319,971
320,973
321,975
322,977
323,980
324,982
325,984
326,986
327,986
328,990
329,992
330,994
331,997
332,1001
333,1007
334,1011
335,1012
336,1013
337,1015
338,1019
339,1022
340,1026
341,1032
342,1035
343,1037
344,1038
345,1041
346,1043
347,1045
348,1049
349,1052
350,1055
351,1056
352,1057
353,1060
354,1064
355,1066
356,1070
357,1070
358,1072
359,1074
360,1076
361,1079
362,1081
363,1085
364,1088
365,1089
366,1090
367,1095
368,1098
369,1102
370,1104
371,1106
372,1107
373,1109
374,1112
375,1117
376,1121
377,1123
378,1126
379,1129
380,1132
381,1134
382,1136
383,1140
384,1142
385,1146
386,1149
387,1153
388,1155
389,1157
390,1159
391,1164
392,1166
393,1168
394,1170
395,1172
396,1174
397,1176
398,1178
399,1181
400,1185
401,1189
402,1193
403,1193
404,1195
405,1198
406,1202
407,1204
408,1208
409,1211
410,1215
411,1221
412,1223
413,1223
414,1228
415,1231
416,1234
417,1236
418,1240
419,1242
420,1246
421,1247
422,1251
423,1255
424,1261
425,1262
426,1266
427,1272
428,1274
429,1275
430,1277
431,1279
432,1285
433,1287
434,1291
435,1292
436,1296
437,1300
438,1302
439,1306
440,1307
441,1309
442,1311
443,1317
444,1321
445,1323
446,1328
447,1330
448,1332
449,1334
450,1339
451,1347
452,1351
453,1354
454,1360
455,1364
456,1369
457,1373
458,1377
459,1379
460,1381
461,1385
462,1388
463,1394
464,1397
465,1398
466,1400
467,1403
468,1405
469,1407
470,1409
471,1409
472,1412
473,1415
474,1420
475,1422
476,1424
477,1428
478,1433
479,1437
480,1441
481,1444
482,1450
483,1452
484,1456
485,1459
486,1465
487,1467
488,1469
489,1471
490,1474
491,1478
492,1480
493,1484
494,1485
495,1489
496,1491
497,1493
498,1495
499,1497
500,1500
501,1502
502,1504
503,1506
504,1508
505,1513
506,1517
507,1521
508,1523
509,1526
510,1532
511,1534
512,1538
513,1540
514,1545
515,1547
516,1549
517,1551
518,1556
519,1558
520,1560
521,1564
522,1567
523,1573
524,1577
525,1579
526,1584
527,1586
528,1590
529,1595
530,1601
531,1603
532,1605
533,1610
534,1614
535,1614
536,1616
537,1618
538,1620
539,1625
540,1627
541,1631
542,1633
543,1636
544,1640
545,1640
546,1642
547,1644
548,1647
549,1649
550,1653
551,1657
552,1659
553,1662
554,1666
555,1670
556,1673
557,1679
558,1679
559,1681
560,1685
561,1688
562,1690
563,1692
564,1694
565,1698
566,1701
567,1703
568,1707
569,1709
570,1711
571,1716
572,1718
573,1720
574,1724
575,1727
576,1727
577,1729
578,1731
579,1733
580,1735
581,1738
582,1740
583,1742
584,1744
585,1746
586,1749
587,1757
588,1759
589,1761
590,1766
591,1768
592,1768
593,1772
594,1774
595,1777
596,1779
597,1785
598,1790
599,1794
600,1798
601,1803
602,1805
603,1809
604,1814
605,1816
606,1820
607,1825
608,1827
609,1831
610,1835
611,1840
612,1844
613,1848
614,1849
615,1855
616,1859
617,1862
618,1864
619,1866
620,1868
621,1870
622,1872
623,1875
624,1879
625,1881
626,1883
627,1888
628,1890
629,1892
630,1894
631,1899
632,1901
633,1903
634,1905
635,1907
636,1907
637,1912
638,1916
639,1920
640,1923
641,1929
642,1931
643,1936
644,1940
645,1945
646,1947
647,1949
648,1953
649,1956
650,1960
651,1960
652,1964
653,1966
654,1969
655,1973
656,1975
657,1979
658,1982
659,1988
660,1993
661,1995
662,1999
663,2004
664,2006
665,2008
666,2012
667,2014
668,2017
669,2019
670,2023
671,2025
672,2028
673,2034
674,2038
675,2039
676,2045
677,2047
678,2050
679,2052
680,2056
681,2056
682,2060
683,2061
684,2065
685,2069
686,2071
687,2074
688,2078
689,2082
690,2084
691,2085
692,2089
693,2091
694,2096
695,2102
696,2106
697,2109
698,2113
699,2115
700,2115
701,2120
702,2122
703,2126
704,2128
705,2131
706,2131
707,2133
708,2135
709,2137
710,2139
711,2144
712,2150
713,2157
714,2161
715,2164
716,2170
717,2174
718,2177
719,2179
720,2183
721,2183
722,2188
723,2192
724,2197
725,2201
726,2205
727,2210
728,2212
729,2214
730,2216
731,2219
732,2219
733,2221
734,2223
735,2225
736,2229
737,2234
738,2236
739,2240
740,2241
741,2245
742,2247
743,2249
744,2249
745,2252
746,2256
747,2258
748,2260
749,2263
750,2265
751,2267
752,2267
753,2269
754,2271
755,2274
756,2274
757,2280
758,2282
759,2285
760,2289
761,2291
762,2295
763,2296
764,2298
765,2302
766,2305
767,2309
768,2313
769,2315
770,2317
771,2322
772,2324
773,2328
774,2329
775,2331
776,2333
777,2335
778,2339
779,2344
780,2350
781,2351
782,2353
783,2357
784,2359
785,2360
786,2364
787,2366
788,2368
789,2371
790,2375
791,2379
792,2380
793,2382
794,2386
795,2386
796,2388
797,2392
798,2395
799,2399
800,2402
801,2404
802,2412
803,2414
804,2415
805,2417
806,2422
807,2424
808,2428
809,2433
810,2437
811,2441
812,2443
813,2446
814,2448
815,2452
816,2455
817,2459
818,2461
819,2464
820,2467
821,2468
822,2470
823,2470
824,2475
825,2479
826,2479
827,2481
828,2485
829,2487
830,2490
831,2492
832,2494
833,2496
834,2501
835,2506
836,2510
837,2514
838,2516
839,2517
840,2518
841,2521
842,2523
843,2525
844,2529
845,2532
846,2534
847,2538
848,2541
849,2543
850,2547
851,2550
852,2554
853,2558
854,2560
855,2561
856,2568
857,2570
858,2571
859,2576
860,2576
861,2579
862,2581
863,2583
864,2585
865,2587
866,2592
867,2594
868,2596
869,2599
870,2601
871,2605
872,2607
873,2610
874,2612
875,2614
876,2619
877,2623
878,2627
879,2632
880,2632
881,2634
882,2642
883,2645
884,2649
885,2652
886,2654
887,2658
888,2662
889,2665
890,2669
891,2672
892,2673
893,2674
894,2676
895,2678
896,2682
897,2683
898,2687
899,2687
900,2691
901,2694
902,2696
903,2701
904,2703
905,2705
906,2709
907,2712
908,2716
909,2721
910,2725
911,2729
912,2731
913,2733
914,2736
915,2740
916,2743
917,2747
918,2751
919,2756
920,2758
921,2761
922,2763
923,2767
924,2769
925,2771
926,2778
927,2778
928,2782
929,2783
930,2787
931,2792
932,2798
933,2802
934,2805
935,2807
936,2811
937,2814
938,2816
939,2819
940,2820
941,2823
942,2827
943,2830
944,2832
945,2834
946,2838
947,2841
948,2845
949,2847
950,2849
951,2854
952,2858
953,2863
954,2867
955,2869
956,2872
957,2874
958,2876
959,2883
960,2885
961,2888
962,2891
963,2894
964,2896
965,2899
966,2901
967,2905
968,2908
969,2912
970,2914
971,2919
972,2923
973,2928
974,2932
975,2934
976,2934
977,2938
978,2940
979,2943
980,2948
981,2951
982,2954
983,2956
984,2961
985,2963
986,2966
987,2969
988,2970
989,2974
990,2977
991,2979
992,2980
993,2981
994,2985
995,2989
996,2992
997,2994
998,2997
999,2999
1000,3005
1001,3007
1002,3009
1003,3012
1004,3019
1005,3021
1006,3026
1007,3027
1008,3032
1009,3035
1010,3036
1011,3042
1012,3046
1013,3048
1014,3050
1015,3052
1016,3055
1017,3059
1018,3059
1019,3065
1020,3066
1021,3070
1022,3072
1023,3076
1024,3079
1025,3083
1026,3086
1027,3088
1028,3090
1029,3094
1030,3097
1031,3102
1032,3106
1033,3111
1034,3112
1035,3115
1036,3115
1037,3117
1038,3119
1039,3122
1040,3124
1041,3128
1042,3131
1043,3133
1044,3135
1045,3141
1046,3146
1047,3148
1048,3153
1049,3156
1050,3161
1051,3162
1052,3167
1053,3170
1054,3173
1055,3176
1056,3180
1057,3184
1058,3186
1059,3189
1060,3191
1061,3195
1062,3196
1063,3198
1064,3200
1065,3204
1066,3206
1067,3211
1068,3214
1069,3218
1070,3220
1071,3226
1072,3229
1073,3234
1074,3235
1075,3238
1076,3243
1077,3246
1078,3249
1079,3251
1080,3256
1081,3258
1082,3261
1083,3262
1084,3264
1085,3267
1086,3270
1087,3273
1088,3276
1089,3279
1090,3283
1091,3285
1092,3291
1093,3292
1094,3294
1095,3298
1096,3300
1097,3305
1098,3306
1099,3309
1100,3310
1101,3312
1102,3317
1103,3318
1104,3321
1105,3324
1106,3326
1107,3328
1108,3330
1109,3335
1110,3337
1111,3339
1112,3341
1113,3344
1114,3346
1115,3347
1116,3348
1117,3350
1118,3356
1119,3361
1120,3364
1121,3372
1122,3374
1123,3381
1124,3382
1125,3386
1126,3390
1127,3392
1128,3394
1129,3395
1130,3400
1131,3403
1132,3406
1133,3407
1134,3409
1135,3410
1136,3411
1137,3415
1138,3417
1139,3420
1140,3422
1141,3423
1142,3425
1143,3426
1144,3427
1145,3430
1146,3433
1147,3433
1148,3437
1149,3440
1150,3442
1151,3444
1152,3447
1153,3450
1154,3451
1155,3454
1156,3456
1157,3458
1158,3462
1159,3465
1160,3467
1161,3469
1162,3472
1163,3474
1164,3478
1165,3480
1166,3483
1167,3486
1168,3487
1169,3491
1170,3492
1171,3494
1172,3499
1173,3501
1174,3505
1175,3509
1176,3512
1177,3514
1178,3519
1179,3523
1180,3525
1181,3529
1182,3531
1183,3532
1184,3536
1185,3539
1186,3540
1187,3543
1188,3547
1189,3549
1190,3555
1191,3561
1192,3564
1193,3566
1194,3570
1195,3573
1196,3576
1197,3580
1198,3584
1199,3589
1200,3592
1201,3594
1202,3596
1203,3597
1204,3600
1205,3603
1206,3605
1207,3608
1208,3609
1209,3613
1210,3615
1211,3617
1212,3620
1213,3622
1214,3623
1215,3628
1216,3629
1217,3632
1218,3635
1219,3639
1220,3641
1221,3647
1222,3649
1223,3650
1224,3656
1225,3657
1226,3659
1227,3665
1228,3667
1229,3670
1230,3673
1231,3678
1232,3681
1233,3686
1234,3690
1235,3691
1236,3694
1237,3697
1238,3700
1239,3703
1240,3705
1241,3708
1242,3710
1243,3712
1244,3714
1245,3717
1246,3721
1247,3723
1248,3724
1249,3727
1250,3729
1251,3732
1252,3735
1253,3738
1254,3743
1255,3747
1256,3750
1257,3753
1258,3756
1259,3759
1260,3762
1261,3768
1262,3769
1263,3770
1264,3771
1265,3772
1266,3774
1267,3776
1268,3777
1269,3780
1270,3782
1271,3785
1272,3788
1273,3793
1274,3797
1275,3798
1276,3799
1277,3802
1278,3806
1279,3808
1280,3811
1281,3813
1282,3814
1283,3815
1284,3819
1285,3823
1286,3825
1287,3829
1288,3832
1289,3834
1290,3837
1291,3840
1292,3844
1293,3849
1294,3851
1295,3856
1296,3858
1297,3862
1298,3864
1299,3869
1300,3871
1301,3872
1302,3873
1303,3875
1304,3877
1305,3880
1306,3884
1307,3892
1308,3895
1309,3896
1310,3898
1311,3902
1312,3907
1313,3910
1314,3913
1315,3915
1316,3918
1317,3919
1318,3924
1319,3926
1320,3927
1321,3931
1322,3933
1323,3937
1324,3939
1325,3941
1326,3943
1327,3946
1328,3953
1329,3954
1330,3956
1331,3959
1332,3962
1333,3966
1334,3968
1335,3970
1336,3973
1337,3977
1338,3986
1339,3990
1340,3991
1341,3994
1342,3996
1343,4000
1344,4006
1345,4010
1346,4014
1347,4018
1348,4019
1349,4022
1350,4026
1351,4029
1352,4030
1353,4033
1354,4034
1355,4037
1356,4039
1357,4040
1358,4043
1359,4044
1360,4048
1361,4052
1362,4054
1363,4058
1364,4060
1365,4065
1366,4070
1367,4071
1368,4073
1369,4077
1370,4082
1371,4084
1372,4085
1373,4087
1374,4089
1375,4091
1376,4094
1377,4097
1378,4101
1379,4103
1380,4104
1381,4106
1382,4110
1383,4112
1384,4113
1385,4118
1386,4121
1387,4125
1388,4127
1389,4129
1390,4131
1391,4133
1392,4135
1393,4137
1394,4141
1395,4142
1396,4144
1397,4147
1398,4150
1399,4154
1400,4158
1401,4161
1402,4165
1403,4169
1404,4173
1405,4176
1406,4180
1407,4183
1408,4186
1409,4188
1410,4191
1411,4194
1412,4197
1413,4201
1414,4204
1415,4205
1416,4206
1417,4208
1418,4212
1419,4214
1420,4218
1421,4221
1422,4224
1423,4227
1424,4228
1425,4229
1426,4233
1427,4236
1428,4237
1429,4243
1430,4247
1431,4249
1432,4252
1433,4256
1434,4258
1435,4262
1436,4265
1437,4270
1438,4273
1439,4278
1440,4280
1441,4284
1442,4287
1443,4289
1444,4297
1445,4303
1446,4303
1447,4306
1448,4311
1449,4316
1450,4319
1451,4320
1452,4322
1453,4327
1454,4330
1455,4331
1456,4334
1457,4336
1458,4339
1459,4342
1460,4344
1461,4345
1462,4348
1463,4353
1464,4354
1465,4356
1466,4358
1467,4362
1468,4367
1469,4367
1470,4370
1471,4372
1472,4376
1473,4379
1474,4382
1475,4388
1476,4390
1477,4393
1478,4395
1479,4399
1480,4401
1481,4405
1482,4406
1483,4410
1484,4413
1485,4414
1486,4418
1487,4419
1488,4421
1489,4424
1490,4426
1491,4429
1492,4431
1493,4436
1494,4440
1495,4445
1496,4448
1497,4450
1498,4454
1499,4457
1500,4460
1501,4462
1502,4464
1503,4469
1504,4472
1505,4476
1506,4477
1507,4480
1508,4484
1509,4485
1510,4488
1511,4490
1512,4492
1513,4495
1514,4497
1515,4500
1516,4503
1517,4507
1518,4509
1519,4511
1520,4514
1521,4515
1522,4518
1523,4523
1524,4528
1525,4529
1526,4531
1527,4534
1528,4535
1529,4537
1530,4538
1531,4541
1532,4544
1533,4547
1534,4550
1535,4557
1536,4561
1537,4566
1538,4570
1539,4573
1540,4576
1541,4578
1542,4581
1543,4585
1544,4586
1545,4588
1546,4593
1547,4596
1548,4599
1549,4604
1550,4608
1551,4612
1552,4618
1553,4619
1554,4622
1555,4623
1556,4625
1557,4626
1558,4627
1559,4630
1560,4632
1561,4634
1562,4638
1563,4640
1564,4644
1565,4645
1566,4647
1567,4651
1568,4654
1569,4656
1570,4658
1571,4663
1572,4665
1573,4667
1574,4670
1575,4672
1576,4673
1577,4677
1578,4679
1579,4682
1580,4686
1581,4689
1582,4693
1583,4697
1584,4701
1585,4705
1586,4708
1587,4711
1588,4715
1589,4715
1590,4720
1591,4725
1592,4727
1593,4731
1594,4734
1595,4736
1596,4741
1597,4744
1598,4748
1599,4749
1600,4752
1601,4755
1602,4757
1603,4760
1604,4762
1605,4763
1606,4767
1607,4767
1608,4769
1609,4771
1610,4776
1611,4777
1612,4778
1613,4779
1614,4782
1615,4783
1616,4786
1617,4788
1618,4793
1619,4796
1620,4800
1621,4803
1622,4809
1623,4812
1624,4814
1625,4819
1626,4821
1627,4824
1628,4826
1629,4829
1630,4833
1631,4836
1632,4837
1633,4838
1634,4841
1635,4845
1636,4849
1637,4852
1638,4852
1639,4854
1640,4857
1641,4859
1642,4859
1643,4862
1644,4866
1645,4868
1646,4869
1647,4871
1648,4876
1649,4880
1650,4882
1651,4887
1652,4888
1653,4892
1654,4896
1655,4899
1656,4901
1657,4904
1658,4907
1659,4911
1660,4915
1661,4918
1662,4920
1663,4923
1664,4927
1665,4932
1666,4934
1667,4939
1668,4941
1669,4944
1670,4946
1671,4953
1672,4954
1673,4955
1674,4958
1675,4960
1676,4965
1677,4968
1678,4972
1679,4975
1680,4979
1681,4981
1682,4982
1683,4986
1684,4986
1685,4987
1686,4991
1687,4993
1688,4994
1689,4998
1690,5000
1691,5003
1692,5005
1693,5006
1694,5013
1695,5019
1696,5024
1697,5029
1698,5033
1699,5036
1700,5038
1701,5038
1702,5040
1703,5045
1704,5046
1705,5050
1706,5052
1707,5054
1708,5059
1709,5060
1710,5064
1711,5066
1712,5068
1713,5071
1714,5073
1715,5074
1716,5076
1717,5079
1718,5083
1719,5086
1720,5090
1721,5090
1722,5093
1723,5095
1724,5100
1725,5104
1726,5107
1727,5109
1728,5114
1729,5118
1730,5119
1731,5123
1732,5130
1733,5130
1734,5133
1735,5137
1736,5139
1737,5140
1738,5146
1739,5149
1740,5153
1741,5156
1742,5160
1743,5163
1744,5165
1745,5170
1746,5175
1747,5179
1748,5180
1749,5184
1750,5189
1751,5194
1752,5198
1753,5203
1754,5203
1755,5206
1756,5212
1757,5215
1758,5217
1759,5220
1760,5224
1761,5229
1762,5231
1763,5234
1764,5238
1765,5240
1766,5243
1767,5247
1768,5250
1769,5253
1770,5255
1771,5257
1772,5260
1773,5262
1774,5266
1775,5269
1776,5273
1777,5276
1778,5280
1779,5287
1780,5290
1781,5292
1782,5297
1783,5299
1784,5304
1785,5306
1786,5307
1787,5311
1788,5313
1789,5313
1790,5318
1791,5320
1792,5323
1793,5325
1794,5325
1795,5328
1796,5332
1797,5335
1798,5337
1799,5339
1800,5341
1801,5344
1802,5346
1803,5349
1804,5351
1805,5353
1806,5355
1807,5358
1808,5361
1809,5367
1810,5370
1811,5372
1812,5374
1813,5375
1814,5377
1815,5381
1816,5382
1817,5384
1818,5386
1819,5393
1820,5396
1821,5398
1822,5400
1823,5402
1824,5407
1825,5412
1826,5419
1827,5421
1828,5424
1829,5428
1830,5431
1831,5435
1832,5438
1833,5440
1834,5445
1835,5447
1836,5452
1837,5455
1838,5459
1839,5462
1840,5464
1841,5466
1842,5469
1843,5473
1844,5478
1845,5480
1846,5485
1847,5487
1848,5490
1849,5494
1850,5497
1851,5499
1852,5504
1853,5508
1854,5515
1855,5518
1856,5520
1857,5520
1858,5522
1859,5525
1860,5530
1861,5534
1862,5539
1863,5541
1864,5543
1865,5546
1866,5550
1867,5553
1868,5555
1869,5558
1870,5560
1871,5564
1872,5569
1873,5576
1874,5579
1875,5585
1876,5586
1877,5588
1878,5590
1879,5591
1880,5595
1881,5595
1882,5597
1883,5600
1884,5604
1885,5609
1886,5611
1887,5616
1888,5618
1889,5619
1890,5621
1891,5623
1892,5628
1893,5632
1894,5633
1895,5637
1896,5639
1897,5642
1898,5644
1899,5649
1900,5651
1901,5653
1902,5654
1903,5656
1904,5658
1905,5661
1906,5668
1907,5672
1908,5673
1909,5677
1910,5682
1911,5682
1912,5686
1913,5691
1914,5693
1915,5698
1916,5700
1917,5701
1918,5707
1919,5714
1920,5719
1921,5719
1922,5722
1923,5724
1924,5728
1925,5733
1926,5735
1927,5736
1928,5738
1929,5740
1930,5743
1931,5745
1932,5750
1933,5754
1934,5757
1935,5759
1936,5762
1937,5766
1938,5768
1939,5771
1940,5773
1941,5776
1942,5780
1943,5787
1944,5790
1945,5794
1946,5796
1947,5799
1948,5801
1949,5801
1950,5804
1951,5806
1952,5808
1953,5811
1954,5815
1955,5820
1956,5827
1957,5829
1958,5832
1959,5836
1960,5839
1961,5841
1962,5843
1963,5843
1964,5850
1965,5853
1966,5855
1967,5859
1968,5860
1969,5862
1970,5864
1971,5865
1972,5869
1973,5871
1974,5876
1975,5879
1976,5883
1977,5886
1978,5888
1979,5888
1980,5890
1981,5892
1982,5892
1983,5897
1984,5897
1985,5904
1986,5909
1987,5911
1988,5914
1989,5918
1990,5923
1991,5928
1992,5930
1993,5932
1994,5932
1995,5935
1996,5937
1997,5939
1998,5942
1999,5949
2000,5953
2001,5955
2002,5956
2003,5958
2004,5960
2005,5965
2006,5970
2007,5970
2008,5974
2009,5977
2010,5981
2011,5984
2012,5988
2013,5993
2014,5997
2015,6002
2016,6005
2017,6009
2018,6009
2019,6012
2020,6016
2021,6021
2022,6023
2023,6025
2024,6026
2025,6030
2026,6033
2027,6035
2028,6038
2029,6042
2030,6045
2031,6047
2032,6049
2033,6052
2034,6054
2035,6058
2036,6059
2037,6063
2038,6066
2039,6070
2040,6073
2041,6077
2042,6079
2043,6080
2044,6082
2045,6084
2046,6086
2047,6089
2048,6093
2049,6094
2050,6100
2051,6103
2052,6110
2053,6114
2054,6115
2055,6117
2056,6122
2057,6124
2058,6126
2059,6131
2060,6133
2061,6136
2062,6140
2063,6142
2064,6147
2065,6150
2066,6152
2067,6154
2068,6157
2069,6157
2070,6161
2071,6164
2072,6166
2073,6170
2074,6171
2075,6171
2076,6175
2077,6177
2078,6180
2079,6182
2080,6185
2081,6189
2082,6191
2083,6194
2084,6198
2085,6201
2086,6201
2087,6205
2088,6208
2089,6212
2090,6215
2091,6217
2092,6217
2093,6220
2094,6224
2095,6227
2096,6231
2097,6233
2098,6234
2099,6236
2100,6240
2101,6243
2102,6245
2103,6250
2104,6254
2105,6255
2106,6259
2107,6262
2108,6264
2109,6269
2110,6273
2111,6276
2112,6280
2113,6285
2114,6290
2115,6290
2116,6292
2117,6294
2118,6297
2119,6301
2120,6304
2121,6306
2122,6308
2123,6313
2124,6315
2125,6318
2126,6320
2127,6320
2128,6324
2129,6325
2130,6327
2131,6331
2132,6336
2133,6341
2134,6345
2135,6348
2136,6353
2137,6355
2138,6357
2139,6360
2140,6364
2141,6367
2142,6369
2143,6376
2144,6378
2145,6380
2146,6381
2147,6381
2148,6385
2149,6390
2150,6394
2151,6397
2152,6399
2153,6401
2154,6402
2155,6409
2156,6411
2157,6416
2158,6420
2159,6422
2160,6423
2161,6423
2162,6427
2163,6432
2164,6436
2165,6437
2166,6439
2167,6441
2168,6444
2169,6446
2170,6448
2171,6451
2172,6455
2173,6455
2174,6458
2175,6460
2176,6465
2177,6467
2178,6472
2179,6476
2180,6479
2181,6483
2182,6488
2183,6492
2184,6495
2185,6497
2186,6501
2187,6504
2188,6507
2189,6511
2190,6514
2191,6518
2192,6522
2193,6529
2194,6532
2195,6536
2196,6537
2197,6542
2198,6546
2199,6550
2200,6551
2201,6555
2202,6557
2203,6560
2204,6560
2205,6564
2206,6567
2207,6571
2208,6572
2209,6572
2210,6574
2211,6576
2212,6577
2213,6579
2214,6583
2215,6586
2216,6592
2217,6593
2218,6600
2219,6605
2220,6609
2221,6614
2222,6616
2223,6618
2224,6620
2225,6623
2226,6626
2227,6627
2228,6628
2229,6632
2230,6635
2231,6637
2232,6640
2233,6644
2234,6646
2235,6649
2236,6653
2237,6654
2238,6655
2239,6658
2240,6660
2241,6665
2242,6670
2243,6671
2244,6674
2245,6676
2246,6679
2247,6681
2248,6685
2249,6688
2250,6688
2251,6690
2252,6693
2253,6700
2254,6702
2255,6707
2256,6709
2257,6712
2258,6713
2259,6714
2260,6716
2261,6720
2262,6723
2263,6727
2264,6730
2265,6730
2266,6733
2267,6735
2268,6737
2269,6740
2270,6742
2271,6749
2272,6749
2273,6754
2274,6756
2275,6758
2276,6761
2277,6765
2278,6767
2279,6770
2280,6772
2281,6774
2282,6777
2283,6782
2284,6784
2285,6786
2286,6790
2287,6792
2288,6795
2289,6798
2290,6802
2291,6804
2292,6806
2293,6807
2294,6811
2295,6813
2296,6816
2297,6821
2298,6823
2299,6825
2300,6830
2301,6835
2302,6837
2303,6839
2304,6842
2305,6844
2306,6847
2307,6849
2308,6856
2309,6861
2310,6862
2311,6867
2312,6868
2313,6869
2314,6872
2315,6875
2316,6878
2317,6879
2318,6881
2319,6886
2320,6886
2321,6889
2322,6891
2323,6893
2324,6896
2325,6899
2326,6903
2327,6905
2328,6911
2329,6913
2330,6916
2331,6919
2332,6921
2333,6923
2334,6926
2335,6932
2336,6934
2337,6935
2338,6935
2339,6939
2340,6941
2341,6942
2342,6944
2343,6950
2344,6951
2345,6956
2346,6957
2347,6962
2348,6964
2349,6965
2350,6969
2351,6972
2352,6977
2353,6979
2354,6982
2355,6985
2356,6989
2357,6993
2358,6997
2359,7003
2360,7005
2361,7009
2362,7011
2363,7016
2364,7020
2365,7021
2366,7025
2367,7027
2368,7030
2369,7032
2370,7034
2371,7035
2372,7040
2373,7042
2374,7043
2375,7048
2376,7050
2377,7053
2378,7054
2379,7058
2380,7063
2381,7065
2382,7068
2383,7069
2384,7071
2385,7072
2386,7074
2387,7076
2388,7078
2389,7079
2390,7081
2391,7085
2392,7086
2393,7090
2394,7093
2395,7099
2396,7102
2397,7109
2398,7112
2399,7114
2400,7116
2401,7119
2402,7122
2403,7125
2404,7128
2405,7132
2406,7134
2407,7137
2408,7142
2409,7144
2410,7147
2411,7150
2412,7151
2413,7153
2414,7157
2415,7158
2416,7160
2417,7164
2418,7167
2419,7169
2420,7173
2421,7177
2422,7179
2423,7181
2424,7183
2425,7185
2426,7188
2427,7190
2428,7193
2429,7195
2430,7198
2431,7201
2432,7206
2433,7209
2434,7213
2435,7216
2436,7219
2437,7223
2438,7224
2439,7227
2440,7231
2441,7232
2442,7235
2443,7238
2444,7241
2445,7245
2446,7249
2447,7251
2448,7253
2449,7253
2450,7257
2451,7260
2452,7266
2453,7267
2454,7271
2455,7274
2456,7277
2457,7280
2458,7281
2459,7285
2460,7289
2461,7292
2462,7293
2463,7296
2464,7301
2465,7304
2466,7306
2467,7309
2468,7311
2469,7315
2470,7318
2471,7321
2472,7323
2473,7325
2474,7327
2475,7331
2476,7332
2477,7335
2478,7336
2479,7339
2480,7343
2481,7348
2482,7352
2483,7355
2484,7359
2485,7362
2486,7364
2487,7366
2488,7368
2489,7369
2490,7375
2491,7378
2492,7381
2493,7386
2494,7390
2495,7392
2496,7393
2497,7396
2498,7397
2499,7403
