:START_ID(Entity-ID),:END_ID(Agent-ID)
3,2
4,2
5,1
6,1
7,1
8,1
9,2
10,2
11,2
12,2
13,2
14,2
15,2
16,2
17,2
18,4
19,4
20,4
21,4
22,2
23,2
24,0
25,0
26,0
27,0
28,0
29,0
30,0
31,0
32,0
33,0
34,0
35,0
36,0
37,1
38,1
39,7
40,7
41,7
42,0
43,0
44,0
45,0
46,0
47,1
48,1
49,1
50,1
51,4
52,4
53,4
54,3
55,3
56,0
57,0
58,0
59,0
60,0
61,0
62,0
63,3
64,3
65,3
66,3
67,3
68,1
69,1
70,1
71,2
72,2
73,5
74,5
75,5
76,8
77,8
78,8
79,0
80,0
81,0
82,0
83,4
84,5
85,5
86,5
87,5
88,1
89,1
90,1
91,1
92,1
93,1
94,1
95,1
96,1
97,0
98,0
99,0
100,0
101,0
102,0
103,0
104,0
105,0
106,0
107,0
108,0
109,6
110,6
111,0
112,0
113,0
114,0
115,1
116,1
117,4
118,4
119,1
120,1
121,1
122,1
123,0
124,0
125,0
126,0
127,1
128,1
129,0
130,0
131,0
132,0
133,1
134,1
135,8
136,2
137,2
138,2
139,2
140,0
141,1
142,1
143,1
144,3
145,3
146,6
147,1
148,1
149,1
150,1
151,0
152,0
153,0
154,0
155,0
156,1
157,1
158,1
159,1
160,0
161,0
162,0
163,1
164,1
165,1
166,0
167,0
168,0
169,0
170,0
171,0
172,0
173,3
174,3
175,1
176,1
177,4
178,4
179,4
180,0
181,0
182,6
183,6
184,6
185,6
186,6
187,4
188,4
189,4
190,4
191,0
192,3
193,3
194,3
195,3
196,0
197,0
198,0
199,0
200,0
201,4
202,4
203,4
204,0
205,0
206,0
207,0
208,0
209,0
210,0
211,2
212,2
213,2
214,2
215,2
216,3
217,3
218,3
219,0
220,0
221,1
222,0
223,0
224,0
225,0
226,0
227,0
228,0
229,0
230,3
231,3
232,3
233,3
234,0
235,0
236,0
237,3
238,3
239,3
240,3
241,3
242,0
243,0
244,0
245,0
246,0
247,0
248,5
249,5
250,5
251,5
252,5
253,5
254,5
255,4
256,4
257,4
258,4
259,4
260,0
261,0
262,0
263,0
264,0
265,0
266,0
267,1
268,1
269,1
270,0
271,0
272,1
273,1
274,1
275,1
276,2
277,2
278,3
279,3
280,0
281,0
282,0
283,0
284,0
285,5
286,5
287,5
288,5
289,0
290,0
291,0
292,0
293,0
294,5
295,5
296,0
297,0
298,0
299,0
300,0
301,0
302,6
303,6
304,0
305,1
306,1
307,0
308,0
309,0
310,0
311,0
312,0
313,0
314,0
315,0
316,1
317,1
318,1
319,1
320,1
321,1
322,0
323,0
324,6
325,6
326,6
327,6
328,6
329,6
330,1
331,1
332,0
333,0
334,0
335,0
336,2
337,2
338,2
339,2
340,2
341,2
342,0
343,0
344,1
345,1
346,4
347,4
348,4
349,3
350,3
351,3
352,3
353,8
354,8
355,1
356,1
357,1
358,6
359,0
360,0
361,0
362,0
363,0
364,2
365,2
366,0
367,0
368,0
369,0
370,7
371,7
372,2
373,2
374,2
375,2
376,2
377,0
378,0
379,0
380,1
381,0
382,0
383,0
384,5
385,1
386,1
387,1
388,1
389,1
390,1
391,1
392,1
393,4
394,4
395,4
396,1
397,1
398,2
399,1
400,1
401,0
402,0
403,0
404,0
405,0
406,0
407,3
408,3
409,3
410,0
411,0
412,1
413,1
414,1
415,0
416,0
417,0
418,2
419,2
420,2
421,3
422,3
423,3
424,6
425,6
426,6
427,6
428,0
429,0
430,0
431,0
432,0
433,0
434,0
435,0
436,0
437,0
438,0
439,0
440,1
441,1
442,1
443,1
444,1
445,4
446,7
447,7
448,7
449,7
450,4
451,4
452,4
453,4
454,2
455,2
456,2
457,2
458,2
459,2
460,3
461,3
462,3
463,3
464,3
465,1
466,1
467,3
468,3
469,3
470,3
471,0
472,0
473,6
474,6
475,6
476,6
477,6
478,0
479,0
480,0
481,0
482,0
483,0
484,0
485,0
486,0
487,0
488,0
489,0
490,0
491,0
492,2
493,1
494,1
495,1
496,2
497,2
498,2
499,2
500,0
501,0
502,0
503,3
504,3
505,3
506,0
507,0
508,0
509,0
510,0
511,0
512,0
513,0
514,0
515,0
516,1
517,0
518,0
519,0
520,0
521,0
522,0
523,2
524,2
525,2
526,2
527,2
528,4
529,4
530,4
531,0
532,4
533,4
534,4
535,4
536,4
537,4
538,4
539,0
540,5
541,5
542,6
543,2
544,0
545,0
546,0
547,1
548,1
549,0
550,0
551,1
552,1
553,1
554,1
555,1
556,1
557,1
558,1
559,1
560,1
561,1
562,1
563,1
564,1
565,1
566,2
567,2
568,2
569,0
570,0
571,0
572,0
573,0
574,0
575,0
576,0
577,0
578,0
579,0
580,0
581,0
582,0
583,0
584,3
585,3
586,3
587,3
588,3
589,0
590,0
591,0
592,0
593,1
594,1
595,0
596,0
597,2
598,2
599,2
600,3
601,3
602,4
603,4
604,3
605,3
606,0
607,0
608,0
609,1
610,1
611,1
612,1
613,7
614,7
615,7
616,1
617,1
618,1
619,1
620,1
621,1
622,1
623,1
624,2
625,2
626,6
627,6
628,6
629,6
630,6
631,1
632,1
633,1
634,1
635,1
636,1
637,3
638,3
639,3
640,3
641,3
642,3
643,3
644,3
645,0
646,1
647,1
648,1
649,1
650,6
651,6
652,6
653,4
654,4
655,4
656,1
657,1
658,1
659,1
660,1
661,1
662,6
663,6
664,6
665,6
666,0
667,0
668,0
669,0
670,2
671,2
672,2
673,6
674,5
675,5
676,6
677,6
678,2
679,2
680,5
681,5
682,5
683,0
684,8
685,8
686,8
687,8
688,0
689,0
690,0
691,6
692,6
693,6
694,5
695,5
696,5
697,2
698,2
699,2
700,1
701,1
702,3
703,3
704,2
705,2
706,2
707,2
708,0
709,0
710,0
711,0
712,0
713,0
714,0
715,0
716,2
717,2
718,2
719,2
720,2
721,2
722,0
723,0
724,0
725,0
726,4
727,4
728,4
729,6
730,6
731,6
732,0
733,0
734,5
735,6
736,6
737,6
738,4
739,4
740,4
741,4
742,5
743,5
744,0
745,0
746,0
747,0
748,0
749,3
750,3
751,3
752,0
753,0
754,0
755,0
756,0
757,0
758,4
759,4
760,4
761,4
762,1
763,1
764,1
765,1
766,0
767,0
768,8
769,8
770,8
771,8
772,8
773,0
774,0
775,0
776,0
777,4
778,4
779,4
780,4
781,0
782,0
783,0
784,0
785,0
786,0
787,0
788,0
789,0
790,0
791,1
792,1
793,5
794,5
795,5
796,5
797,5
798,1
799,1
800,1
801,1
802,1
803,1
804,1
805,1
806,1
807,1
808,1
809,1
810,4
811,4
812,4
813,4
814,4
815,4
816,2
817,2
818,2
819,2
820,2
821,2
822,2
823,2
824,0
825,0
826,0
827,0
828,0
829,0
830,0
831,0
832,0
833,0
834,0
835,0
836,0
837,0
838,0
839,0
840,1
841,1
842,1
843,0
844,0
845,1
846,1
847,1
848,1
849,0
850,0
851,1
852,1
853,3
854,3
855,3
856,3
857,3
858,5
859,5
860,5
861,6
862,6
863,6
864,0
865,0
866,0
867,0
868,0
869,0
870,0
871,1
872,1
873,1
874,1
875,1
876,2
877,2
878,2
879,5
880,5
881,5
882,0
883,0
884,0
885,5
886,5
887,5
888,0
889,0
890,0
891,0
892,0
893,1
894,1
895,3
896,3
897,3
898,0
899,0
900,0
901,0
902,0
903,0
904,0
905,0
906,5
907,5
908,5
909,0
910,0
911,0
912,0
913,0
914,6
915,6
916,6
917,1
918,1
919,1
920,0
921,2
922,2
923,2
924,2
925,0
926,0
927,4
928,4
929,4
930,4
931,4
932,4
933,4
934,4
935,4
936,4
937,0
938,0
939,0
940,0
941,0
942,0
943,0
944,8
945,8
946,8
947,8
948,8
949,0
950,0
951,0
952,0
953,0
954,0
955,3
956,3
957,0
958,0
959,0
960,0
961,0
962,0
963,0
964,0
965,3
966,3
967,3
968,0
969,2
970,2
971,2
972,2
973,1
974,1
975,1
976,1
977,3
978,3
979,0
980,7
981,7
982,7
983,7
984,0
985,1
986,5
987,5
988,5
989,0
990,0
991,1
992,2
993,2
994,2
995,2
996,1
997,8
998,8
999,8
1000,0
1001,0
1002,1
1003,1
1004,0
1005,0
1006,6
1007,6
1008,6
1009,6
1010,6
1011,6
1012,1
1013,1
1014,1
1015,0
1016,0
1017,0
1018,0
1019,0
1020,6
1021,6
1022,6
1023,6
1024,0
1025,0
1026,0
1027,0
1028,7
1029,7
1030,4
1031,4
1032,4
1033,0
1034,0
1035,0
1036,0
1037,0
1038,7
1039,7
1040,7
1041,7
1042,3
1043,3
1044,3
1045,6
1046,6
1047,6
1048,6
1049,6
1050,0
1051,0
1052,0
1053,0
1054,0
1055,0
1056,0
1057,0
1058,2
1059,0
1060,0
1061,0
1062,0
1063,0
1064,0
1065,3
1066,3
1067,0
1068,0
1069,0
1070,0
1071,1
1072,1
1073,1
1074,0
1075,0
1076,0
1077,0
1078,0
1079,0
1080,0
1081,0
1082,0
1083,2
1084,2
1085,2
1086,2
1087,2
1088,0
1089,0
1090,0
1091,1
1092,1
1093,1
1094,1
1095,1
1096,0
1097,0
1098,4
1099,4
1100,4
1101,3
1102,1
1103,1
1104,1
1105,1
1106,1
1107,1
1108,1
1109,2
1110,2
1111,7
1112,2
1113,2
1114,2
1115,2
1116,2
1117,2
1118,2
1119,2
1120,2
1121,2
1122,2
1123,0
1124,0
1125,0
1126,4
1127,4
1128,4
1129,4
1130,6
1131,6
1132,6
1133,4
1134,4
1135,4
1136,0
1137,0
1138,0
1139,0
1140,0
1141,0
1142,0
1143,0
1144,0
1145,0
1146,8
1147,8
1148,4
1149,8
1150,8
1151,8
1152,8
1153,0
1154,0
1155,0
1156,0
1157,0
1158,0
1159,0
1160,0
1161,0
1162,0
1163,0
1164,0
1165,0
1166,0
1167,0
1168,8
1169,1
1170,1
1171,1
1172,1
1173,1
1174,1
1175,4
1176,0
1177,0
1178,0
1179,0
1180,1
1181,1
1182,2
1183,2
1184,2
1185,2
1186,0
1187,0
1188,5
1189,5
1190,5
1191,7
1192,0
1193,0
1194,1
1195,1
1196,1
1197,1
1198,1
1199,0
1200,0
1201,0
1202,2
1203,2
1204,2
1205,2
1206,0
1207,0
1208,0
1209,0
1210,6
1211,6
1212,6
1213,6
1214,0
1215,0
1216,0
1217,0
1218,1
1219,1
1220,1
1221,7
1222,7
1223,7
1224,7
1225,0
1226,0
1227,0
1228,0
1229,0
1230,0
1231,0
1232,7
1233,0
1234,0
1235,0
1236,0
1237,0
1238,0
1239,0
1240,0
1241,8
1242,8
1243,8
1244,8
1245,8
1246,0
1247,0
1248,0
1249,0
1250,0
1251,0
1252,0
1253,0
1254,0
1255,0
1256,6
1257,6
1258,2
1259,2
1260,4
1261,4
1262,4
1263,2
1264,2
1265,0
1266,0
1267,0
1268,0
1269,4
1270,0
1271,0
1272,0
1273,0
1274,5
1275,5
1276,0
1277,0
1278,0
1279,3
1280,0
1281,0
1282,0
1283,0
1284,0
1285,0
1286,0
1287,0
1288,0
1289,0
1290,0
1291,5
1292,5
1293,5
1294,7
1295,7
1296,7
1297,2
1298,3
1299,3
1300,2
1301,2
1302,2
1303,2
1304,2
1305,0
1306,0
1307,4
1308,3
1309,3
1310,1
1311,1
1312,1
1313,1
1314,1
1315,0
1316,0
1317,0
1318,0
1319,0
1320,8
1321,0
1322,0
1323,4
1324,4
1325,4
1326,4
1327,4
1328,1
1329,1
1330,1
1331,0
1332,0
1333,0
1334,0
1335,0
1336,0
1337,0
1338,4
1339,4
1340,4
1341,4
1342,0
1343,0
1344,0
1345,0
1346,0
1347,4
1348,0
1349,0
1350,0
1351,0
1352,3
1353,0
1354,8
1355,1
1356,1
1357,1
1358,1
1359,2
1360,2
1361,2
1362,2
1363,2
1364,2
1365,6
1366,6
1367,6
1368,0
1369,0
1370,0
1371,0
1372,3
1373,3
1374,2
1375,2
1376,2
1377,2
1378,1
1379,1
1380,0
1381,0
1382,0
1383,0
1384,4
1385,4
1386,4
1387,0
1388,0
1389,0
1390,1
1391,1
1392,1
1393,1
1394,1
1395,2
1396,3
1397,0
1398,8
1399,3
1400,3
1401,0
1402,0
1403,0
1404,3
1405,1
1406,1
1407,1
1408,3
1409,0
1410,0
1411,5
1412,5
1413,5
1414,4
1415,4
1416,6
1417,6
1418,6
1419,1
1420,1
1421,1
1422,1
1423,1
1424,1
1425,0
1426,0
1427,0
1428,0
1429,0
1430,0
1431,1
1432,1
1433,1
1434,1
1435,1
1436,2
1437,2
1438,2
1439,2
1440,0
1441,0
1442,2
1443,2
1444,2
1445,0
1446,0
1447,3
1448,3
1449,3
1450,2
1451,2
1452,2
1453,2
1454,0
1455,0
1456,0
1457,0
1458,0
1459,0
1460,0
1461,0
1462,0
1463,0
1464,0
1465,0
1466,4
1467,4
1468,2
1469,2
1470,2
1471,6
1472,6
1473,6
1474,0
1475,0
1476,0
1477,0
1478,4
1479,4
1480,4
1481,4
1482,4
1483,4
1484,1
1485,1
1486,1
1487,0
1488,4
1489,4
1490,4
1491,4
1492,4
1493,4
1494,0
1495,0
1496,0
1497,0
1498,3
1499,3
1500,3
1501,0
1502,0
1503,0
1504,0
1505,0
1506,1
1507,1
1508,1
1509,8
1510,8
1511,8
1512,4
1513,4
1514,1
1515,1
1516,2
1517,2
1518,2
1519,8
1520,8
1521,8
1522,8
1523,8
1524,8
1525,2
1526,2
1527,1
1528,1
1529,1
1530,1
1531,1
1532,1
1533,1
1534,1
1535,0
1536,0
1537,0
1538,1
1539,1
1540,1
1541,1
1542,1
1543,1
1544,0
1545,3
1546,3
1547,7
1548,7
1549,1
1550,1
1551,2
1552,2
1553,2
1554,0
1555,0
1556,0
1557,0
1558,3
1559,3
1560,5
1561,5
1562,5
1563,5
1564,5
1565,6
1566,6
1567,6
1568,6
1569,0
1570,3
1571,3
1572,3
1573,3
1574,0
1575,0
1576,1
1577,1
1578,1
1579,0
1580,0
1581,0
1582,0
1583,0
1584,0
1585,0
1586,0
1587,0
1588,0
1589,0
1590,0
1591,2
1592,2
1593,2
1594,2
1595,6
1596,0
1597,0
1598,3
1599,3
1600,3
1601,0
1602,0
1603,0
1604,0
1605,4
1606,4
1607,1
1608,1
1609,0
1610,0
1611,0
1612,0
1613,0
1614,0
1615,6
1616,6
1617,6
1618,6
1619,6
1620,6
1621,0
1622,0
1623,2
1624,2
1625,2
1626,2
1627,2
1628,2
1629,2
1630,1
1631,4
1632,4
1633,0
1634,0
1635,0
1636,0
1637,0
1638,8
1639,8
1640,8
1641,8
1642,0
1643,0
1644,0
1645,0
1646,0
1647,0
1648,0
1649,0
1650,2
1651,2
1652,2
1653,2
1654,2
1655,4
1656,4
1657,4
1658,4
1659,1
1660,1
1661,1
1662,0
1663,0
1664,3
1665,3
1666,3
1667,0
1668,0
1669,0
1670,0
1671,0
1672,1
1673,1
1674,1
1675,1
1676,1
1677,0
1678,0
1679,0
1680,0
1681,0
1682,0
1683,0
1684,0
1685,4
1686,4
1687,4
1688,0
1689,0
1690,4
1691,4
1692,4
1693,4
1694,4
1695,4
1696,4
1697,4
1698,4
1699,3
1700,3
1701,3
1702,3
1703,3
1704,3
1705,0
1706,0
1707,0
1708,0
1709,0
1710,0
1711,0
1712,0
1713,3
1714,3
1715,3
1716,3
1717,3
1718,3
1719,3
1720,3
1721,0
1722,0
1723,0
1724,0
1725,0
1726,0
1727,0
1728,0
1729,2
1730,2
1731,2
1732,2
1733,0
1734,4
1735,4
1736,4
1737,4
1738,4
1739,0
1740,0
1741,0
1742,7
1743,7
1744,0
1745,6
1746,6
1747,6
1748,2
1749,6
1750,6
1751,0
1752,0
1753,0
1754,0
1755,1
1756,1
1757,0
1758,0
1759,0
1760,0
1761,2
1762,2
1763,2
1764,1
1765,1
1766,1
1767,1
1768,0
1769,0
1770,0
1771,1
1772,2
1773,2
1774,2
1775,2
1776,2
1777,0
1778,0
1779,0
1780,0
1781,0
1782,0
1783,0
1784,0
1785,0
1786,3
1787,0
1788,0
1789,0
1790,0
1791,0
1792,0
1793,0
1794,5
1795,5
1796,5
1797,5
1798,1
1799,1
1800,1
1801,0
1802,0
1803,0
1804,2
1805,2
1806,2
1807,3
1808,3
1809,0
1810,0
1811,0
1812,0
1813,0
1814,2
1815,2
1816,2
1817,2
1818,1
1819,1
1820,4
1821,4
1822,4
1823,0
1824,0
1825,0
1826,0
1827,0
1828,3
1829,3
1830,3
1831,1
1832,1
1833,0
1834,0
1835,0
1836,0
1837,1
1838,1
1839,1
1840,1
1841,0
1842,0
1843,0
1844,0
1845,0
1846,0
1847,2
1848,2
1849,2
1850,2
1851,2
1852,2
1853,1
1854,1
1855,1
1856,1
1857,0
1858,1
1859,0
1860,1
1861,1
1862,1
1863,1
1864,4
1865,4
1866,0
1867,0
1868,0
1869,0
1870,0
1871,0
1872,0
1873,0
1874,0
1875,0
1876,1
1877,7
1878,7
1879,7
1880,0
1881,0
1882,0
1883,0
1884,0
1885,0
1886,1
1887,1
1888,1
1889,1
1890,0
1891,0
1892,5
1893,5
1894,0
1895,0
1896,0
1897,0
1898,0
1899,0
1900,2
1901,2
1902,2
1903,2
1904,2
1905,2
1906,2
1907,2
1908,2
1909,2
1910,1
1911,1
1912,1
1913,1
1914,1
1915,1
1916,1
1917,2
1918,2
1919,5
1920,0
1921,1
1922,4
1923,0
1924,0
1925,0
1926,1
1927,1
1928,1
1929,1
1930,1
1931,3
1932,3
1933,3
1934,0
1935,0
1936,0
1937,0
1938,0
1939,0
1940,0
1941,1
1942,1
1943,1
1944,1
1945,1
1946,1
1947,0
1948,0
1949,0
1950,0
1951,1
1952,1
1953,1
1954,1
1955,1
1956,1
1957,0
1958,0
1959,3
1960,8
1961,8
1962,8
1963,3
1964,3
1965,0
1966,0
1967,0
1968,0
1969,0
1970,0
1971,2
1972,2
1973,2
1974,2
1975,0
1976,0
1977,0
1978,1
1979,1
1980,1
1981,0
1982,0
1983,0
1984,0
1985,0
1986,2
1987,2
1988,2
1989,1
1990,1
1991,1
1992,3
1993,3
1994,0
1995,0
1996,0
1997,0
1998,0
1999,0
2000,6
2001,6
2002,3
2003,3
2004,3
2005,3
2006,3
2007,3
2008,3
2009,1
2010,1
2011,1
2012,1
2013,1
2014,1
2015,0
2016,0
2017,0
2018,0
2019,0
2020,0
2021,4
2022,4
2023,4
2024,1
2025,1
2026,1
2027,0
2028,0
2029,0
2030,0
2031,0
2032,0
2033,0
2034,0
2035,0
2036,0
2037,3
2038,3
2039,3
2040,0
2041,4
2042,4
2043,0
2044,4
2045,4
2046,4
2047,1
2048,1
2049,5
2050,5
2051,0
2052,0
2053,0
2054,0
2055,2
2056,2
2057,0
2058,0
2059,0
2060,0
2061,0
2062,0
2063,0
2064,4
2065,4
2066,0
2067,5
2068,2
2069,2
2070,0
2071,0
2072,0
2073,6
2074,6
2075,6
2076,6
2077,6
2078,1
2079,1
2080,1
2081,0
2082,0
2083,0
2084,0
2085,0
2086,0
2087,0
2088,0
2089,0
2090,0
2091,0
2092,1
2093,1
2094,1
2095,1
2096,1
2097,2
2098,2
2099,1
2100,1
2101,5
2102,5
2103,5
2104,5
2105,0
2106,0
2107,6
2108,6
2109,7
2110,0
2111,0
2112,0
2113,0
2114,0
2115,1
2116,1
2117,1
2118,0
2119,0
2120,0
2121,0
2122,6
2123,6
2124,6
2125,6
2126,6
2127,6
2128,6
2129,3
2130,3
2131,3
2132,3
2133,3
2134,3
2135,0
2136,0
2137,0
2138,0
2139,0
2140,0
2141,2
2142,2
2143,2
2144,2
2145,2
2146,2
2147,0
2148,0
2149,0
2150,0
2151,0
2152,0
2153,0
2154,2
2155,2
2156,2
2157,2
2158,2
2159,2
2160,2
2161,0
2162,4
2163,4
2164,4
2165,0
2166,0
2167,0
2168,0
2169,0
2170,0
2171,6
2172,6
2173,1
2174,1
2175,1
2176,3
2177,3
2178,2
2179,2
2180,0
2181,0
2182,2
2183,2
2184,2
2185,2
2186,2
2187,0
2188,0
2189,0
2190,0
2191,0
2192,0
2193,0
2194,0
2195,0
2196,0
2197,0
2198,0
2199,4
2200,4
2201,1
2202,1
2203,1
2204,3
2205,3
2206,3
2207,1
2208,1
2209,1
2210,2
2211,2
2212,0
2213,0
2214,0
2215,0
2216,0
2217,0
2218,0
2219,0
2220,0
2221,1
2222,1
2223,1
2224,1
2225,4
2226,4
2227,4
2228,4
2229,4
2230,4
2231,2
2232,2
2233,1
2234,1
2235,1
2236,1
2237,3
2238,3
2239,3
2240,1
2241,1
2242,7
2243,6
2244,6
2245,6
2246,6
2247,6
2248,6
2249,0
2250,0
2251,0
2252,0
2253,4
2254,8
2255,8
2256,8
2257,8
2258,6
2259,0
2260,0
2261,0
2262,5
2263,5
2264,5
2265,5
2266,5
2267,5
2268,0
2269,0
2270,0
2271,0
2272,0
2273,0
2274,0
2275,0
2276,0
2277,0
2278,0
2279,0
2280,0
2281,0
2282,4
2283,0
2284,0
2285,0
2286,1
2287,7
2288,2
2289,2
2290,2
2291,4
2292,4
2293,4
2294,4
2295,4
2296,0
2297,0
2298,0
2299,0
2300,0
2301,1
2302,1
2303,1
2304,0
2305,0
2306,0
2307,1
2308,5
2309,5
2310,5
2311,1
2312,1
2313,1
2314,1
2315,1
2316,1
2317,1
2318,1
2319,0
2320,0
2321,0
2322,0
2323,0
2324,0
2325,0
2326,0
2327,0
2328,5
2329,5
2330,5
2331,5
2332,5
2333,5
2334,0
2335,0
2336,0
2337,0
2338,0
2339,2
2340,2
2341,2
2342,1
2343,1
2344,1
2345,1
2346,1
2347,1
2348,1
2349,0
2350,0
2351,0
2352,0
2353,0
2354,1
2355,1
2356,1
2357,8
2358,8
2359,8
2360,8
2361,7
2362,7
2363,7
2364,7
2365,0
2366,0
2367,0
2368,0
2369,0
2370,0
2371,4
2372,4
2373,4
2374,0
2375,5
2376,5
2377,2
2378,2
2379,2
2380,2
2381,8
2382,8
2383,6
2384,6
2385,3
2386,3
2387,6
2388,6
2389,1
2390,1
2391,1
2392,1
2393,1
2394,0
2395,0
2396,0
2397,0
2398,0
2399,0
2400,0
2401,0
2402,0
2403,0
2404,0
2405,0
2406,0
2407,0
2408,0
2409,6
2410,6
2411,6
2412,6
2413,6
2414,6
2415,3
2416,3
2417,0
2418,0
2419,0
2420,0
2421,0
2422,0
2423,0
2424,0
2425,0
2426,0
2427,1
2428,1
2429,7
2430,2
2431,2
2432,2
2433,2
2434,8
2435,8
2436,8
2437,8
2438,1
2439,1
2440,1
2441,1
2442,1
2443,1
2444,1
2445,0
2446,0
2447,0
2448,0
2449,0
2450,0
2451,0
2452,0
2453,0
2454,0
2455,0
2456,0
2457,0
2458,0
2459,1
2460,1
2461,1
2462,1
2463,0
2464,0
2465,0
2466,0
2467,0
2468,0
2469,0
2470,0
2471,0
2472,0
2473,0
2474,7
2475,7
2476,0
2477,0
2478,0
2479,0
2480,4
2481,4
2482,4
2483,4
2484,0
2485,0
2486,0
2487,0
2488,0
2489,0
2490,0
2491,0
2492,0
2493,0
2494,0
2495,0
2496,0
2497,0
2498,0
2499,0
2500,4
2501,4
2502,4
2503,4
2504,8
2505,8
2506,8
2507,0
2508,0
2509,5
2510,5
2511,5
2512,5
2513,0
2514,0
2515,0
2516,0
2517,0
2518,0
2519,1
2520,1
2521,1
2522,1
2523,0
2524,0
2525,0
2526,3
2527,3
2528,1
2529,1
2530,1
2531,1
2532,1
2533,7
2534,7
2535,0
2536,0
2537,0
2538,0
2539,0
2540,6
2541,6
2542,4
2543,4
2544,4
2545,4
2546,0
2547,0
2548,0
2549,0
2550,0
2551,0
2552,0
2553,3
2554,3
2555,3
2556,3
2557,1
2558,2
2559,2
2560,2
2561,7
2562,7
2563,1
2564,1
2565,1
2566,2
2567,2
2568,2
2569,2
2570,0
2571,0
2572,1
2573,1
2574,1
2575,1
2576,3
2577,0
2578,0
2579,0
2580,0
2581,0
2582,0
2583,0
2584,0
2585,0
2586,0
2587,0
2588,0
2589,2
2590,2
2591,2
2592,7
2593,7
2594,7
2595,1
2596,1
2597,1
2598,1
2599,4
2600,4
2601,4
2602,5
2603,5
2604,5
2605,5
2606,0
2607,6
2608,6
2609,6
2610,6
2611,6
2612,6
2613,6
2614,6
2615,1
2616,1
2617,1
2618,1
2619,1
2620,1
2621,3
2622,1
2623,1
2624,7
2625,7
2626,0
2627,0
2628,0
2629,0
2630,0
2631,0
2632,0
2633,2
2634,2
2635,2
2636,2
2637,2
2638,2
2639,5
2640,5
2641,0
2642,0
2643,0
2644,2
2645,0
2646,0
2647,0
2648,0
2649,4
2650,4
2651,0
2652,0
2653,1
2654,1
2655,1
2656,1
2657,4
2658,4
2659,1
2660,1
2661,6
2662,6
2663,6
2664,6
2665,6
2666,0
2667,0
2668,5
2669,5
2670,5
2671,5
2672,0
2673,0
2674,0
2675,7
2676,7
2677,7
2678,7
2679,7
2680,7
2681,2
2682,2
2683,1
2684,1
2685,1
2686,1
2687,0
2688,0
2689,0
2690,0
2691,0
2692,0
2693,0
2694,0
2695,7
2696,7
2697,7
2698,0
2699,0
2700,0
2701,0
2702,0
2703,0
2704,0
2705,0
2706,0
2707,0
2708,0
2709,0
2710,0
2711,7
2712,7
2713,7
2714,7
2715,7
2716,7
2717,6
2718,6
2719,6
2720,2
2721,2
2722,0
2723,3
2724,3
2725,3
2726,4
2727,4
2728,4
2729,4
2730,4
2731,4
2732,0
2733,0
2734,2
2735,2
2736,5
2737,5
2738,5
2739,7
2740,7
2741,7
2742,2
2743,2
2744,4
2745,4
2746,4
2747,4
2748,0
2749,0
2750,0
2751,0
2752,0
2753,2
2754,2
2755,2
2756,2
2757,1
2758,1
2759,1
2760,0
2761,1
2762,1
2763,0
2764,0
2765,3
2766,3
2767,3
2768,3
2769,3
2770,3
2771,3
2772,0
2773,0
2774,0
2775,0
2776,3
2777,3
2778,0
2779,0
2780,0
2781,0
2782,1
2783,1
2784,1
2785,1
2786,1
2787,1
2788,5
2789,5
2790,5
2791,0
2792,0
2793,0
2794,0
2795,0
2796,0
2797,1
2798,1
2799,1
2800,0
2801,0
2802,0
2803,3
2804,3
2805,2
2806,2
2807,4
2808,4
2809,4
2810,0
2811,0
2812,0
2813,4
2814,4
2815,0
2816,0
2817,0
2818,1
2819,4
2820,4
2821,4
2822,0
2823,0
2824,0
2825,0
2826,6
2827,2
2828,2
2829,1
2830,7
2831,7
2832,7
2833,7
2834,0
2835,0
2836,0
2837,0
2838,0
2839,0
2840,0
2841,1
2842,1
2843,1
2844,1
2845,1
2846,1
2847,0
2848,0
2849,0
2850,2
2851,0
2852,0
2853,0
2854,0
2855,0
2856,0
2857,0
2858,0
2859,0
2860,1
2861,2
2862,2
2863,0
2864,0
2865,0
2866,0
2867,0
2868,0
2869,0
2870,0
2871,0
2872,0
2873,0
2874,0
2875,0
2876,0
2877,0
2878,0
2879,0
2880,0
2881,0
2882,0
2883,0
2884,0
2885,0
2886,0
2887,0
2888,0
2889,0
2890,0
2891,0
2892,0
2893,0
2894,0
2895,0
2896,0
2897,0
2898,0
2899,0
2900,0
2901,0
2902,0
2903,0
2904,2
2905,2
2906,4
2907,0
2908,0
2909,0
2910,0
2911,0
2912,0
2913,0
2914,0
2915,0
2916,0
2917,0
2918,0
2919,0
2920,0
2921,0
2922,0
2923,0
2924,0
2925,0
2926,3
2927,3
2928,3
2929,0
2930,0
2931,0
2932,0
2933,0
2934,0
2935,3
2936,3
2937,3
2938,3
2939,3
2940,5
2941,5
2942,0
2943,0
2944,0
2945,0
2946,1
2947,1
2948,1
2949,4
2950,4
2951,4
2952,4
2953,4
2954,4
2955,0
2956,0
2957,0
2958,0
2959,1
2960,1
2961,1
2962,3
2963,3
2964,3
2965,8
2966,2
2967,2
2968,8
2969,8
2970,4
2971,4
2972,4
2973,4
2974,0
2975,0
2976,0
2977,0
2978,3
2979,3
2980,3
2981,3
2982,3
2983,3
2984,3
2985,3
2986,2
2987,2
2988,3
2989,3
2990,1
2991,1
2992,1
2993,1
2994,2
2995,2
2996,6
2997,2
2998,2
2999,2
3000,2
3001,2
3002,8
3003,0
3004,0
3005,0
3006,0
3007,8
3008,0
3009,0
3010,0
3011,0
3012,0
3013,2
3014,2
3015,2
3016,4
3017,4
3018,4
3019,4
3020,4
3021,4
3022,4
3023,1
3024,1
3025,1
3026,1
3027,1
3028,0
3029,0
3030,1
3031,0
3032,0
3033,0
3034,0
3035,1
3036,1
3037,1
3038,0
3039,1
3040,1
3041,1
3042,0
3043,0
3044,0
3045,0
3046,0
3047,2
3048,2
3049,1
3050,1
3051,1
3052,0
3053,0
3054,2
3055,2
3056,2
3057,0
3058,0
3059,0
3060,1
3061,1
3062,1
3063,0
3064,2
3065,2
3066,2
3067,2
3068,2
3069,2
3070,0
3071,1
3072,1
3073,1
3074,1
3075,1
3076,1
3077,1
3078,0
3079,0
3080,0
3081,4
3082,4
3083,7
3084,7
3085,7
3086,2
3087,2
3088,1
3089,1
3090,1
3091,3
3092,3
3093,3
3094,3
3095,3
3096,6
3097,6
3098,6
3099,6
3100,6
3101,0
3102,0
3103,0
3104,3
3105,3
3106,3
3107,2
3108,2
3109,2
3110,2
3111,0
3112,0
3113,0
3114,0
3115,0
3116,0
3117,0
3118,0
3119,0
3120,1
3121,1
3122,1
3123,1
3124,1
3125,4
3126,4
3127,4
3128,4
3129,1
3130,1
3131,1
3132,0
3133,0
3134,0
3135,0
3136,0
3137,2
3138,2
3139,2
3140,1
3141,1
3142,1
3143,2
3144,2
3145,2
3146,0
3147,0
3148,0
3149,8
3150,8
3151,0
3152,0
3153,0
3154,0
3155,1
3156,1
3157,1
3158,1
3159,1
3160,1
3161,4
3162,4
3163,4
3164,0
3165,0
3166,0
3167,0
3168,0
3169,0
3170,0
3171,0
3172,0
3173,7
3174,7
3175,7
3176,7
3177,7
3178,0
3179,0
3180,0
3181,1
3182,1
3183,0
3184,0
3185,0
3186,0
3187,0
3188,1
3189,1
3190,1
3191,6
3192,6
3193,6
3194,0
3195,0
3196,4
3197,4
3198,3
3199,3
3200,3
3201,2
3202,1
3203,1
3204,1
3205,0
3206,0
3207,3
3208,3
3209,3
3210,3
3211,0
3212,0
3213,0
3214,0
3215,0
3216,0
3217,2
3218,2
3219,2
3220,2
3221,6
3222,6
3223,6
3224,6
3225,6
3226,6
3227,2
3228,2
3229,2
3230,1
3231,1
3232,0
3233,0
3234,0
3235,0
3236,0
3237,0
3238,0
3239,0
3240,0
3241,1
3242,1
3243,1
3244,1
3245,1
3246,1
3247,1
3248,6
3249,6
3250,4
3251,2
3252,2
3253,4
3254,4
3255,1
3256,1
3257,1
3258,0
3259,0
3260,0
3261,6
3262,6
3263,3
3264,3
3265,4
3266,4
3267,4
3268,4
3269,0
3270,0
3271,0
3272,7
3273,7
3274,1
3275,1
3276,1
3277,1
3278,0
3279,1
3280,1
3281,1
3282,1
3283,1
3284,6
3285,6
3286,6
3287,6
3288,1
3289,1
3290,1
3291,1
3292,1
3293,0
3294,0
3295,0
3296,3
3297,3
3298,0
3299,0
3300,0
3301,0
3302,0
3303,0
3304,0
3305,0
3306,0
3307,0
3308,0
3309,0
3310,0
3311,0
3312,0
3313,0
3314,0
3315,0
3316,0
3317,0
3318,7
3319,7
3320,3
3321,3
3322,3
3323,3
3324,5
3325,5
3326,0
3327,0
3328,0
3329,0
3330,0
3331,0
3332,4
3333,4
3334,4
3335,4
3336,1
3337,1
3338,0
3339,0
3340,0
3341,0
3342,1
3343,1
3344,0
3345,0
3346,0
3347,8
3348,8
3349,8
3350,0
3351,0
3352,0
3353,5
3354,5
3355,5
3356,5
3357,8
3358,8
3359,8
3360,8
3361,8
3362,0
3363,0
3364,0
3365,0
3366,0
3367,6
3368,6
3369,6
3370,0
3371,0
3372,1
3373,0
3374,0
3375,0
3376,0
3377,0
3378,0
3379,0
3380,0
3381,0
3382,0
3383,0
3384,0
3385,5
3386,5
3387,4
3388,4
3389,4
3390,0
3391,0
3392,0
3393,0
3394,0
3395,0
3396,0
3397,0
3398,0
3399,0
3400,0
3401,0
3402,0
3403,0
3404,0
3405,7
3406,2
3407,2
3408,2
3409,1
3410,1
3411,1
3412,1
3413,0
3414,0
3415,0
3416,0
3417,0
3418,0
3419,0
3420,0
3421,0
3422,0
3423,0
3424,2
3425,2
3426,2
3427,2
3428,2
3429,2
3430,3
3431,3
3432,3
3433,4
3434,4
3435,4
3436,4
3437,5
3438,5
3439,5
3440,3
3441,3
3442,0
3443,0
3444,0
3445,0
3446,8
3447,8
3448,8
3449,0
3450,0
3451,0
3452,0
3453,0
3454,1
3455,1
3456,0
3457,0
3458,0
3459,0
3460,0
3461,0
3462,0
3463,4
3464,4
3465,4
3466,1
3467,5
3468,5
3469,5
3470,5
3471,3
3472,3
3473,3
3474,3
3475,3
3476,3
3477,0
3478,0
3479,0
3480,0
3481,1
3482,1
3483,1
3484,1
3485,1
3486,3
3487,3
3488,0
3489,0
3490,1
3491,1
3492,1
3493,0
3494,0
3495,0
3496,5
3497,5
3498,5
3499,5
3500,5
3501,4
3502,4
3503,4
3504,4
3505,0
3506,0
3507,0
3508,0
3509,0
3510,4
3511,4
3512,4
3513,0
3514,2
3515,2
3516,1
3517,1
3518,1
3519,0
3520,0
3521,0
3522,0
3523,0
3524,0
3525,3
3526,3
3527,7
3528,7
3529,7
3530,2
3531,2
3532,7
3533,7
3534,2
3535,2
3536,6
3537,6
3538,6
3539,6
3540,1
3541,1
3542,1
3543,1
3544,1
3545,0
3546,3
3547,3
3548,3
3549,3
3550,3
3551,1
3552,1
3553,1
3554,1
3555,0
3556,0
3557,0
3558,0
3559,0
3560,0
3561,0
3562,2
3563,2
3564,2
3565,2
3566,2
3567,1
3568,1
3569,1
3570,0
3571,0
3572,0
3573,1
3574,1
3575,1
3576,1
3577,7
3578,7
3579,0
3580,0
3581,0
3582,0
3583,0
3584,0
3585,0
3586,0
3587,0
3588,0
3589,5
3590,5
3591,0
3592,0
3593,0
3594,0
3595,0
3596,0
3597,0
3598,0
3599,5
3600,5
3601,5
3602,5
3603,0
3604,0
3605,0
3606,0
3607,0
3608,4
3609,4
3610,4
3611,8
3612,8
3613,8
3614,1
3615,1
3616,1
3617,1
3618,0
3619,0
3620,0
3621,0
3622,0
3623,0
3624,0
3625,0
3626,0
3627,7
3628,7
3629,7
3630,1
3631,1
3632,0
3633,0
3634,0
3635,0
3636,0
3637,0
3638,0
3639,0
3640,0
3641,0
3642,0
3643,0
3644,0
3645,0
3646,3
3647,1
3648,1
3649,1
3650,0
3651,0
3652,0
3653,2
3654,1
3655,1
3656,1
3657,1
3658,1
3659,0
3660,0
3661,0
3662,0
3663,5
3664,5
3665,0
3666,0
3667,0
3668,0
3669,0
3670,0
3671,1
3672,1
3673,1
3674,0
3675,0
3676,0
3677,0
3678,0
3679,2
3680,2
3681,2
3682,1
3683,0
3684,0
3685,1
3686,1
3687,1
3688,2
3689,2
3690,2
3691,0
3692,0
3693,0
3694,0
3695,0
3696,2
3697,2
3698,2
3699,2
3700,2
3701,3
3702,3
3703,3
3704,3
3705,3
3706,0
3707,0
3708,0
3709,0
3710,0
3711,1
3712,7
3713,7
3714,7
3715,0
3716,0
3717,0
3718,0
3719,0
3720,0
3721,3
3722,3
3723,3
3724,5
3725,5
3726,5
3727,5
3728,0
3729,0
3730,0
3731,0
3732,0
3733,0
3734,0
3735,3
3736,3
3737,3
3738,5
3739,5
3740,1
3741,1
3742,1
3743,2
3744,2
3745,2
3746,2
3747,0
3748,4
3749,4
3750,4
3751,1
3752,1
3753,2
3754,2
3755,2
3756,1
3757,1
3758,0
3759,0
3760,0
3761,0
3762,0
3763,3
3764,3
3765,3
3766,3
3767,2
3768,2
3769,2
3770,0
3771,0
3772,0
3773,0
3774,1
3775,1
3776,1
3777,1
3778,0
3779,0
3780,0
3781,0
3782,0
3783,0
3784,0
3785,0
3786,4
3787,4
3788,5
3789,5
3790,2
3791,2
3792,0
3793,0
3794,0
3795,0
3796,0
3797,0
3798,0
3799,3
3800,3
3801,3
3802,3
3803,1
3804,1
3805,1
3806,0
3807,0
3808,0
3809,0
3810,0
3811,0
3812,2
3813,2
3814,2
3815,0
3816,0
3817,0
3818,0
3819,0
3820,0
3821,0
3822,2
3823,2
3824,0
3825,0
3826,0
3827,0
3828,6
3829,6
3830,4
3831,4
3832,4
3833,4
3834,1
3835,1
3836,0
3837,0
3838,0
3839,2
3840,2
3841,2
3842,2
3843,6
3844,3
3845,3
3846,3
3847,0
3848,0
3849,0
3850,5
3851,0
3852,0
3853,0
3854,0
3855,0
3856,1
3857,1
3858,1
3859,1
3860,0
3861,0
3862,0
3863,0
3864,0
3865,0
3866,3
3867,3
3868,3
3869,3
3870,3
3871,0
3872,0
3873,0
3874,0
3875,0
3876,0
3877,0
3878,0
3879,0
3880,0
3881,0
3882,0
3883,0
3884,0
3885,6
3886,6
3887,1
3888,1
3889,1
3890,1
3891,1
3892,0
3893,0
3894,0
3895,0
3896,0
3897,2
3898,2
3899,2
3900,2
3901,4
3902,4
3903,4
3904,4
3905,4
3906,4
3907,4
3908,4
3909,4
3910,4
3911,2
3912,6
3913,6
3914,6
3915,0
3916,0
3917,0
3918,1
3919,1
3920,1
3921,2
3922,2
3923,2
3924,2
3925,2
3926,2
3927,2
3928,2
3929,2
3930,0
3931,0
3932,0
3933,0
3934,0
3935,0
3936,4
3937,4
3938,0
3939,0
3940,0
3941,0
3942,0
3943,0
3944,0
3945,0
3946,0
3947,0
3948,7
3949,7
3950,7
3951,1
3952,1
3953,1
3954,2
3955,2
3956,2
3957,2
3958,2
3959,7
3960,7
3961,7
3962,7
3963,4
3964,4
3965,4
3966,4
3967,4
3968,8
3969,8
3970,8
3971,8
3972,0
3973,0
3974,0
3975,0
3976,0
3977,0
3978,0
3979,0
3980,0
3981,0
3982,0
3983,0
3984,3
3985,3
3986,3
3987,3
3988,0
3989,0
3990,5
3991,5
3992,5
3993,4
3994,2
3995,2
3996,3
3997,3
3998,3
3999,3
4000,7
4001,7
4002,7
4003,0
4004,0
4005,0
4006,1
4007,1
4008,1
4009,1
4010,1
4011,0
4012,0
4013,0
4014,1
4015,1
4016,1
4017,7
4018,7
4019,7
4020,0
4021,0
4022,1
4023,1
4024,1
4025,1
4026,1
4027,1
4028,1
4029,7
4030,7
4031,7
4032,7
4033,7
4034,2
4035,2
4036,2
4037,2
4038,2
4039,2
4040,0
4041,0
4042,1
4043,1
4044,1
4045,0
4046,0
4047,6
4048,0
4049,3
4050,0
4051,0
4052,0
4053,0
4054,0
4055,1
4056,1
4057,1
4058,1
4059,4
4060,0
4061,0
4062,0
4063,0
4064,8
4065,8
4066,8
4067,8
4068,8
4069,8
4070,8
4071,8
4072,8
4073,8
4074,6
4075,6
4076,6
4077,6
4078,6
4079,1
4080,1
4081,1
4082,3
4083,3
4084,0
4085,1
4086,1
4087,1
4088,1
4089,6
4090,6
4091,0
4092,0
4093,0
4094,0
4095,0
4096,0
4097,5
4098,5
4099,5
4100,5
4101,1
4102,2
4103,2
4104,2
4105,2
4106,2
4107,2
4108,3
4109,3
4110,3
4111,6
4112,6
4113,6
4114,5
4115,5
4116,5
4117,6
4118,6
4119,5
4120,5
4121,5
4122,0
4123,0
4124,0
4125,0
4126,0
4127,0
4128,0
4129,0
4130,0
4131,7
4132,7
4133,5
4134,5
4135,5
4136,5
4137,0
4138,0
4139,0
4140,0
4141,0
4142,0
4143,0
4144,0
4145,0
4146,1
4147,1
4148,2
4149,2
4150,8
4151,8
4152,0
4153,0
4154,1
4155,1
4156,1
4157,1
4158,1
4159,1
4160,0
4161,0
4162,0
4163,2
4164,2
4165,2
4166,0
4167,0
4168,1
4169,1
4170,1
4171,1
4172,1
4173,1
4174,1
4175,1
4176,1
4177,2
4178,0
4179,5
4180,5
4181,5
4182,0
4183,0
4184,8
4185,8
4186,8
4187,8
4188,8
4189,3
4190,3
4191,3
4192,3
4193,3
4194,3
4195,3
4196,4
4197,4
4198,4
4199,0
4200,0
4201,0
4202,0
4203,0
4204,0
4205,2
4206,3
4207,0
4208,0
4209,0
4210,0
4211,0
4212,0
4213,0
4214,0
4215,0
4216,1
4217,1
4218,2
4219,2
4220,2
4221,1
4222,1
4223,1
4224,1
4225,0
4226,0
4227,0
4228,0
4229,3
4230,3
4231,3
4232,0
4233,0
4234,0
4235,0
4236,0
4237,0
4238,0
4239,0
4240,0
4241,2
4242,2
4243,0
4244,0
4245,0
4246,0
4247,0
4248,0
4249,0
4250,0
4251,0
4252,0
4253,0
4254,0
4255,0
4256,0
4257,0
4258,0
4259,1
4260,1
4261,1
4262,1
4263,1
4264,1
4265,0
4266,0
4267,0
4268,0
4269,0
4270,0
4271,0
4272,0
4273,0
4274,0
4275,0
4276,8
4277,8
4278,8
4279,8
4280,5
4281,5
4282,5
4283,5
4284,3
4285,3
4286,3
4287,5
4288,5
4289,5
4290,5
4291,5
4292,5
4293,2
4294,2
4295,2
4296,2
4297,2
4298,0
4299,0
4300,0
4301,0
4302,0
4303,2
4304,2
4305,2
4306,2
4307,5
4308,5
4309,5
4310,0
4311,0
4312,0
4313,0
4314,0
4315,0
4316,0
4317,0
4318,0
4319,0
4320,0
4321,0
4322,3
4323,3
4324,3
4325,3
4326,3
4327,3
4328,1
4329,1
4330,1
4331,1
4332,1
4333,1
4334,1
4335,1
4336,4
4337,4
4338,3
4339,3
4340,3
4341,3
4342,2
4343,1
4344,1
4345,1
4346,1
4347,1
4348,1
4349,1
4350,0
4351,0
4352,0
4353,0
4354,0
4355,0
4356,0
4357,3
4358,3
4359,3
4360,3
4361,0
4362,0
4363,0
4364,0
4365,0
4366,0
4367,0
4368,0
4369,0
4370,0
4371,0
4372,0
4373,3
4374,3
4375,3
4376,3
4377,0
4378,0
4379,4
4380,4
4381,4
4382,4
4383,4
4384,4
4385,3
4386,3
4387,3
4388,4
4389,4
4390,4
4391,0
4392,0
4393,0
4394,0
4395,0
4396,3
4397,3
4398,3
4399,3
4400,1
4401,1
4402,7
4403,7
4404,2
4405,2
4406,8
4407,8
4408,8
4409,8
4410,0
4411,0
4412,7
4413,7
4414,7
4415,0
4416,0
4417,0
4418,0
4419,0
4420,0
4421,3
4422,3
4423,3
4424,1
4425,1
4426,1
4427,1
4428,8
4429,8
4430,8
4431,0
4432,0
4433,0
4434,0
4435,0
4436,0
4437,0
4438,0
4439,0
4440,0
4441,0
4442,0
4443,5
4444,5
4445,5
4446,5
4447,0
4448,0
4449,1
4450,1
4451,1
4452,0
4453,2
4454,2
4455,2
4456,2
4457,2
4458,1
4459,1
4460,1
4461,1
4462,1
4463,8
4464,8
4465,8
4466,6
4467,6
4468,6
4469,4
4470,5
4471,5
4472,0
4473,0
4474,0
4475,0
4476,2
4477,2
4478,2
4479,2
4480,2
4481,2
4482,2
4483,2
4484,3
4485,3
4486,3
4487,3
4488,3
4489,5
4490,5
4491,5
4492,5
4493,0
4494,1
4495,2
4496,2
4497,2
4498,4
4499,0
4500,6
4501,6
4502,6
4503,6
4504,6
4505,3
4506,3
4507,8
4508,8
4509,8
4510,2
4511,2
4512,2
4513,2
4514,1
4515,1
4516,1
4517,1
4518,1
4519,1
4520,1
4521,0
4522,0
4523,0
4524,0
4525,0
4526,0
4527,0
4528,0
4529,3
4530,3
4531,3
4532,3
4533,3
4534,3
4535,3
4536,3
4537,0
4538,0
4539,0
4540,0
4541,2
4542,2
4543,2
4544,0
4545,0
4546,2
4547,2
4548,3
4549,3
4550,1
4551,1
4552,0
4553,0
4554,0
4555,7
4556,7
4557,6
4558,6
4559,6
4560,1
4561,0
4562,0
4563,1
4564,1
4565,0
4566,0
4567,0
4568,0
4569,0
4570,0
4571,0
4572,0
4573,0
4574,0
4575,0
4576,0
4577,0
4578,0
4579,0
4580,0
4581,0
4582,0
4583,0
4584,0
4585,0
4586,2
4587,2
4588,2
4589,1
4590,1
4591,1
4592,1
4593,1
4594,0
4595,0
4596,0
4597,0
4598,0
4599,0
4600,0
4601,5
4602,5
4603,5
4604,5
4605,5
4606,1
4607,1
4608,1
4609,1
4610,2
4611,2
4612,2
4613,7
4614,7
4615,7
4616,2
4617,2
4618,2
4619,2
4620,2
4621,2
4622,3
4623,3
4624,3
4625,0
4626,0
4627,0
4628,0
4629,0
4630,0
4631,0
4632,3
4633,3
4634,3
4635,4
4636,3
4637,3
4638,1
4639,1
4640,1
4641,1
4642,2
4643,2
4644,2
4645,0
4646,1
4647,1
4648,1
4649,0
4650,0
4651,0
4652,0
4653,0
4654,1
4655,1
4656,2
4657,2
4658,2
4659,0
4660,0
4661,2
4662,1
4663,1
4664,0
4665,0
4666,8
4667,8
4668,1
4669,1
4670,1
4671,1
4672,0
4673,0
4674,0
4675,0
4676,0
4677,0
4678,0
4679,0
4680,0
4681,0
4682,0
4683,0
4684,2
4685,2
4686,2
4687,2
4688,2
4689,1
4690,1
4691,0
4692,0
4693,0
4694,0
4695,0
4696,0
4697,0
4698,5
4699,5
4700,0
4701,0
4702,0
4703,0
4704,2
4705,2
4706,2
4707,7
4708,7
4709,7
4710,0
4711,0
4712,0
4713,0
4714,0
4715,0
4716,0
4717,0
4718,0
4719,0
4720,0
4721,3
4722,3
4723,3
4724,3
4725,3
4726,0
4727,0
4728,0
4729,1
4730,1
4731,1
4732,1
4733,0
4734,0
4735,0
4736,0
4737,0
4738,5
4739,5
4740,5
4741,5
4742,0
4743,0
4744,0
4745,2
4746,1
4747,1
4748,1
4749,1
4750,0
4751,0
4752,0
4753,0
4754,0
4755,7
4756,7
4757,4
4758,0
4759,0
4760,0
4761,0
4762,0
4763,0
4764,0
4765,0
4766,0
4767,1
4768,1
4769,1
4770,1
4771,5
4772,5
4773,3
4774,3
4775,3
4776,3
4777,3
4778,3
4779,5
4780,5
4781,0
4782,0
4783,0
4784,0
4785,0
4786,0
4787,5
4788,0
4789,0
4790,0
4791,8
4792,8
4793,8
4794,0
4795,0
4796,0
4797,0
4798,0
4799,0
4800,0
4801,0
4802,0
4803,0
4804,0
4805,0
4806,0
4807,0
4808,5
4809,5
4810,5
4811,5
4812,5
4813,2
4814,2
4815,0
4816,0
4817,0
4818,2
4819,2
4820,2
4821,2
4822,3
4823,3
4824,3
4825,6
4826,0
4827,0
4828,0
4829,0
4830,0
4831,0
4832,0
4833,0
4834,0
4835,0
4836,0
4837,0
4838,0
4839,5
4840,5
4841,5
4842,5
4843,5
4844,5
4845,5
4846,5
4847,5
4848,0
4849,1
4850,1
4851,1
4852,1
4853,2
4854,2
4855,0
4856,0
4857,5
4858,5
4859,5
4860,0
4861,0
4862,3
4863,3
4864,2
4865,2
4866,2
4867,7
4868,7
4869,2
4870,0
4871,0
4872,0
4873,0
4874,0
4875,0
4876,0
4877,1
4878,1
4879,1
4880,0
4881,0
4882,0
4883,0
4884,0
4885,0
4886,0
4887,0
4888,0
4889,0
4890,2
4891,2
4892,2
4893,6
4894,6
4895,6
4896,6
4897,6
4898,1
4899,1
4900,0
4901,0
4902,0
4903,0
4904,0
4905,5
4906,5
4907,5
4908,5
4909,2
4910,2
4911,2
4912,2
4913,7
4914,7
4915,7
4916,7
4917,0
4918,0
4919,0
4920,0
4921,1
4922,1
4923,1
4924,1
4925,1
4926,1
4927,1
4928,1
4929,1
4930,1
4931,1
4932,2
4933,2
4934,2
4935,2
4936,2
4937,0
4938,0
4939,0
4940,7
4941,7
4942,7
4943,7
4944,2
4945,2
4946,2
4947,2
4948,0
4949,0
4950,0
4951,0
4952,0
4953,0
4954,0
4955,6
4956,6
4957,6
4958,6
4959,4
4960,4
4961,4
4962,4
4963,2
4964,2
4965,2
4966,2
4967,3
4968,3
4969,3
4970,3
4971,0
4972,0
4973,0
4974,0
4975,0
4976,0
4977,0
4978,0
4979,0
4980,1
4981,1
4982,1
4983,2
4984,2
4985,2
4986,2
4987,2
4988,2
4989,0
4990,0
4991,0
4992,0
4993,0
4994,0
4995,0
4996,0
4997,0
4998,0
4999,0
5000,0
5001,6
5002,6
5003,2
5004,2
5005,2
5006,2
5007,2
5008,6
5009,1
5010,1
5011,0
5012,0
5013,5
5014,5
5015,6
5016,6
5017,6
5018,6
5019,1
5020,1
5021,1
5022,4
5023,4
5024,4
5025,0
5026,0
5027,1
5028,1
5029,7
5030,7
5031,7
5032,7
5033,1
5034,1
5035,1
5036,1
5037,0
5038,1
5039,1
5040,1
5041,1
5042,1
5043,4
5044,4
5045,4
5046,0
5047,0
5048,0
5049,0
5050,0
5051,0
5052,0
5053,2
5054,2
5055,2
5056,2
5057,2
5058,4
5059,4
5060,0
5061,0
5062,1
5063,1
5064,1
5065,4
5066,4
5067,4
5068,4
5069,1
5070,1
5071,1
5072,1
5073,6
5074,6
5075,6
5076,6
5077,6
5078,6
5079,6
5080,1
5081,1
5082,1
5083,1
5084,1
5085,0
5086,1
5087,1
5088,1
5089,2
5090,2
5091,2
5092,0
5093,0
5094,0
5095,0
5096,0
5097,0
5098,2
5099,2
5100,1
5101,1
5102,1
5103,5
5104,5
5105,0
5106,0
5107,0
5108,1
5109,1
5110,1
5111,0
5112,0
5113,0
5114,0
5115,0
5116,0
5117,0
5118,0
5119,0
5120,0
5121,0
5122,0
5123,0
5124,0
5125,0
5126,0
5127,3
5128,3
5129,0
5130,0
5131,0
5132,0
5133,0
5134,3
5135,3
5136,3
5137,3
5138,1
5139,1
5140,1
5141,4
5142,4
5143,4
5144,4
5145,0
5146,0
5147,0
5148,0
5149,0
5150,0
5151,0
5152,0
5153,0
5154,0
5155,0
5156,0
5157,0
5158,0
5159,0
5160,3
5161,3
5162,3
5163,3
5164,1
5165,1
5166,1
5167,1
5168,0
5169,0
5170,0
5171,0
5172,0
5173,0
5174,0
5175,0
5176,0
5177,5
5178,5
5179,5
5180,1
5181,1
5182,1
5183,1
5184,1
5185,1
5186,7
5187,7
5188,7
5189,7
5190,7
5191,0
5192,0
5193,0
5194,0
5195,0
5196,0
5197,1
5198,1
5199,4
5200,4
5201,4
5202,5
5203,5
5204,5
5205,0
5206,0
5207,0
5208,0
5209,0
5210,0
5211,1
5212,1
5213,1
5214,3
5215,3
5216,0
5217,0
5218,0
5219,0
5220,5
5221,5
5222,5
5223,3
5224,3
5225,3
5226,3
5227,0
5228,0
5229,0
5230,0
5231,0
5232,2
5233,2
5234,0
5235,0
5236,1
5237,1
5238,1
5239,0
5240,3
5241,3
5242,0
5243,0
5244,0
5245,0
5246,0
5247,0
5248,0
5249,1
5250,1
5251,1
5252,0
5253,0
5254,2
5255,2
5256,2
5257,0
5258,0
5259,8
5260,8
5261,8
5262,8
5263,8
5264,4
5265,4
5266,4
5267,0
5268,0
5269,0
5270,0
5271,2
5272,2
5273,2
5274,2
5275,1
5276,1
5277,1
5278,4
5279,4
5280,4
5281,4
5282,4
5283,4
5284,1
5285,1
5286,1
5287,1
5288,1
5289,0
5290,0
5291,1
5292,1
5293,1
5294,3
5295,3
5296,3
5297,6
5298,6
5299,6
5300,3
5301,0
5302,0
5303,0
5304,5
5305,5
5306,0
5307,0
5308,0
5309,0
5310,7
5311,7
5312,3
5313,3
5314,0
5315,0
5316,0
5317,0
5318,0
5319,0
5320,0
5321,0
5322,1
5323,1
5324,1
5325,1
5326,1
5327,0
5328,0
5329,6
5330,6
5331,6
5332,1
5333,1
5334,1
5335,3
5336,3
5337,0
5338,0
5339,0
5340,0
5341,0
5342,0
5343,0
5344,0
5345,2
5346,0
5347,0
5348,0
5349,3
5350,3
5351,0
5352,0
5353,0
5354,0
5355,3
5356,3
5357,3
5358,3
5359,6
5360,6
5361,5
5362,5
5363,5
5364,0
5365,0
5366,0
5367,0
5368,0
5369,1
5370,1
5371,1
5372,1
5373,1
5374,1
5375,1
5376,1
5377,1
5378,3
5379,3
5380,6
5381,6
5382,6
5383,0
5384,1
5385,2
5386,2
5387,2
5388,2
5389,0
5390,0
5391,0
5392,0
5393,1
5394,1
5395,1
5396,1
5397,1
5398,1
5399,0
5400,0
5401,0
5402,0
5403,0
5404,0
5405,0
5406,3
5407,3
5408,3
5409,3
5410,3
5411,3
5412,3
5413,3
5414,0
5415,6
5416,6
5417,6
5418,6
5419,6
5420,6
5421,0
5422,0
5423,0
5424,0
5425,0
5426,0
5427,0
5428,0
5429,0
5430,1
5431,1
5432,1
5433,1
5434,0
5435,0
5436,0
5437,0
5438,0
5439,0
5440,0
5441,3
5442,3
5443,3
5444,3
5445,3
5446,3
5447,1
5448,1
5449,1
5450,2
5451,2
5452,3
5453,3
5454,0
5455,0
5456,0
5457,0
5458,1
5459,1
5460,7
5461,0
5462,0
5463,0
5464,0
5465,0
5466,0
5467,0
5468,0
5469,0
5470,0
5471,0
5472,0
5473,0
5474,2
5475,2
5476,2
5477,2
5478,7
5479,7
5480,7
5481,7
5482,7
5483,4
5484,4
5485,4
5486,4
5487,4
5488,4
5489,4
5490,1
5491,1
5492,0
5493,0
5494,0
5495,0
5496,0
5497,0
5498,0
5499,1
5500,1
5501,1
5502,1
5503,1
5504,1
5505,0
5506,0
5507,0
5508,0
5509,0
5510,0
5511,4
5512,4
5513,0
5514,0
5515,0
5516,0
5517,0
5518,0
5519,0
5520,0
5521,0
5522,0
5523,5
5524,1
5525,1
5526,1
5527,0
5528,0
5529,0
5530,0
5531,0
5532,0
5533,0
5534,0
5535,0
5536,0
5537,0
5538,0
5539,0
5540,0
5541,4
5542,7
5543,7
5544,0
5545,0
5546,6
5547,6
5548,1
5549,1
5550,1
5551,3
5552,3
5553,3
5554,0
5555,0
5556,0
5557,0
5558,0
5559,0
5560,0
5561,0
5562,0
5563,0
5564,0
5565,6
5566,6
5567,6
5568,6
5569,0
5570,0
5571,0
5572,2
5573,2
5574,2
5575,2
5576,2
5577,2
5578,2
5579,0
5580,0
5581,6
5582,6
5583,6
5584,4
5585,4
5586,0
5587,0
5588,0
5589,8
5590,2
5591,2
5592,2
5593,2
5594,0
5595,0
5596,0
5597,0
5598,1
5599,1
5600,1
5601,1
5602,3
5603,3
5604,3
5605,3
5606,3
5607,0
5608,0
5609,0
5610,0
5611,2
5612,2
5613,2
5614,0
5615,0
5616,0
5617,0
5618,0
5619,0
5620,0
5621,0
5622,0
5623,0
5624,0
5625,2
5626,2
5627,2
5628,2
5629,0
5630,0
5631,0
5632,0
5633,0
5634,4
5635,4
5636,0
5637,0
5638,3
5639,3
5640,3
5641,3
5642,3
5643,2
5644,2
5645,2
5646,2
5647,7
5648,7
5649,3
5650,3
5651,4
5652,4
5653,4
5654,4
5655,7
5656,7
5657,0
5658,0
5659,0
5660,0
5661,3
5662,3
5663,1
5664,1
5665,1
5666,0
5667,0
5668,0
5669,0
5670,0
5671,0
5672,0
5673,0
5674,0
5675,0
5676,0
5677,0
5678,1
5679,1
5680,1
5681,0
5682,0
5683,0
5684,0
5685,2
5686,0
5687,0
5688,0
5689,0
5690,0
5691,0
5692,4
5693,4
5694,4
5695,2
5696,2
5697,1
5698,1
5699,1
5700,1
5701,1
5702,2
5703,2
5704,2
5705,2
5706,2
5707,0
5708,0
5709,0
5710,0
5711,0
5712,0
5713,0
5714,0
5715,0
5716,0
5717,0
5718,0
5719,5
5720,5
5721,5
5722,5
5723,5
5724,5
5725,0
5726,0
5727,2
5728,2
5729,2
5730,3
5731,2
5732,2
5733,2
5734,4
5735,4
5736,4
5737,4
5738,4
5739,1
5740,0
5741,1
5742,1
5743,1
5744,1
5745,1
5746,3
5747,3
5748,3
5749,3
5750,6
5751,1
5752,1
5753,1
5754,1
5755,1
5756,1
5757,1
5758,1
5759,1
5760,1
5761,1
5762,0
5763,3
5764,0
5765,0
5766,8
5767,8
5768,0
5769,0
5770,6
5771,3
5772,0
5773,0
5774,0
5775,0
5776,0
5777,1
5778,1
5779,1
5780,1
5781,1
5782,1
5783,1
5784,1
5785,1
5786,1
5787,1
5788,1
5789,0
5790,0
5791,0
5792,2
5793,0
5794,0
5795,0
5796,0
5797,0
5798,0
5799,0
5800,1
5801,1
5802,1
5803,0
5804,0
5805,0
5806,0
5807,3
5808,3
5809,3
5810,8
5811,8
5812,8
5813,0
5814,0
5815,4
5816,4
5817,4
5818,4
5819,1
5820,1
5821,1
5822,1
5823,2
5824,2
5825,2
5826,2
5827,2
5828,2
5829,2
5830,2
5831,0
5832,0
5833,0
5834,0
5835,0
5836,3
5837,3
5838,2
5839,2
5840,2
5841,2
5842,1
5843,1
5844,1
5845,1
5846,1
5847,1
5848,0
5849,0
5850,0
5851,5
5852,5
5853,2
5854,2
5855,0
5856,0
5857,0
5858,0
5859,0
5860,0
5861,1
5862,1
5863,1
5864,0
5865,0
5866,0
5867,0
5868,0
5869,0
5870,1
5871,3
5872,3
5873,0
5874,6
5875,6
5876,6
5877,1
5878,1
5879,1
5880,0
5881,0
5882,0
5883,0
5884,6
5885,6
5886,6
5887,0
5888,0
5889,3
5890,3
5891,3
5892,0
5893,0
5894,0
5895,0
5896,0
5897,0
5898,1
5899,1
5900,2
5901,2
5902,2
5903,2
5904,3
5905,3
5906,3
5907,3
5908,2
5909,2
5910,2
5911,2
5912,1
5913,1
5914,2
5915,2
5916,2
5917,7
5918,7
5919,7
5920,0
5921,0
5922,0
5923,0
5924,0
5925,0
5926,1
5927,1
5928,1
5929,3
5930,3
5931,3
5932,0
5933,0
5934,0
5935,0
5936,0
5937,0
5938,0
5939,0
5940,3
5941,3
5942,3
5943,3
5944,1
5945,1
5946,1
5947,1
5948,1
5949,1
5950,1
5951,7
5952,7
5953,7
5954,0
5955,0
5956,0
5957,0
5958,0
5959,0
5960,1
5961,1
5962,0
5963,0
5964,0
5965,0
5966,0
5967,0
5968,0
5969,0
5970,0
5971,0
5972,0
5973,0
5974,0
5975,0
5976,3
5977,3
5978,3
5979,5
5980,5
5981,0
5982,0
5983,0
5984,0
5985,0
5986,0
5987,0
5988,0
5989,1
5990,1
5991,1
5992,1
5993,1
5994,1
5995,2
5996,1
5997,1
5998,1
5999,0
6000,0
6001,0
6002,5
6003,5
6004,2
6005,2
6006,3
6007,3
6008,3
6009,8
6010,8
6011,1
6012,1
6013,1
6014,1
6015,1
6016,4
6017,4
6018,1
6019,0
6020,0
6021,0
6022,2
6023,2
6024,2
6025,0
6026,1
6027,1
6028,4
6029,4
6030,4
6031,1
6032,1
6033,3
6034,3
6035,0
6036,0
6037,5
6038,1
6039,1
6040,1
6041,0
6042,0
6043,0
6044,2
6045,2
6046,2
6047,6
6048,6
6049,6
6050,6
6051,6
6052,1
6053,1
6054,1
6055,0
6056,0
6057,0
6058,0
6059,0
6060,0
6061,0
6062,2
6063,2
6064,8
6065,8
6066,8
6067,8
6068,0
6069,0
6070,0
6071,0
6072,0
6073,0
6074,0
6075,0
6076,0
6077,0
6078,3
6079,3
6080,3
6081,3
6082,3
6083,3
6084,0
6085,0
6086,6
6087,6
6088,6
6089,6
6090,6
6091,6
6092,6
6093,2
6094,5
6095,5
6096,1
6097,1
6098,1
6099,1
6100,1
6101,5
6102,5
6103,0
6104,0
6105,0
6106,0
6107,0
6108,0
6109,0
6110,0
6111,0
6112,4
6113,4
6114,4
6115,0
6116,0
6117,0
6118,0
6119,0
6120,0
6121,0
6122,0
6123,3
6124,3
6125,3
6126,3
6127,3
6128,3
6129,7
6130,7
6131,7
6132,1
6133,1
6134,1
6135,1
6136,1
6137,1
6138,1
6139,2
6140,2
6141,3
6142,3
6143,3
6144,3
6145,3
6146,5
6147,5
6148,5
6149,5
6150,0
6151,0
6152,0
6153,5
6154,2
6155,2
6156,2
6157,1
6158,1
6159,1
6160,1
6161,3
6162,3
6163,3
6164,3
6165,3
6166,2
6167,2
6168,0
6169,0
6170,0
6171,0
6172,0
6173,0
6174,0
6175,3
6176,3
6177,1
6178,1
6179,0
6180,0
6181,0
6182,0
6183,0
6184,7
6185,7
6186,7
6187,7
6188,7
6189,7
6190,1
6191,1
6192,4
6193,4
6194,4
6195,4
6196,4
6197,0
6198,0
6199,0
6200,1
6201,1
6202,1
6203,1
6204,1
6205,5
6206,5
6207,2
6208,2
6209,2
6210,2
6211,2
6212,1
6213,1
6214,1
6215,3
6216,3
6217,0
6218,0
6219,0
6220,8
6221,8
6222,4
6223,4
6224,1
6225,1
6226,1
6227,1
6228,1
6229,1
6230,1
6231,1
6232,1
6233,1
6234,1
6235,1
6236,0
6237,0
6238,0
6239,0
6240,0
6241,0
6242,0
6243,0
6244,0
6245,0
6246,0
6247,0
6248,0
6249,0
6250,0
6251,0
6252,0
6253,8
6254,8
6255,8
6256,8
6257,4
6258,4
6259,4
6260,4
6261,4
6262,5
6263,5
6264,2
6265,2
6266,1
6267,1
6268,1
6269,1
6270,1
6271,2
6272,2
6273,2
6274,2
6275,2
6276,0
6277,0
6278,0
6279,0
6280,0
6281,0
6282,3
6283,3
6284,3
6285,0
6286,0
6287,0
6288,0
6289,0
6290,0
6291,0
6292,5
6293,5
6294,5
6295,0
6296,0
6297,0
6298,0
6299,2
6300,2
6301,2
6302,2
6303,2
6304,2
6305,1
6306,0
6307,0
6308,1
6309,1
6310,1
6311,1
6312,1
6313,0
6314,0
6315,0
6316,3
6317,3
6318,3
6319,3
6320,3
6321,3
6322,3
6323,0
6324,8
6325,8
6326,8
6327,8
6328,8
6329,2
6330,3
6331,0
6332,0
6333,0
6334,6
6335,6
6336,4
6337,4
6338,4
6339,1
6340,1
6341,1
6342,1
6343,1
6344,1
6345,1
6346,1
6347,1
6348,2
6349,2
6350,2
6351,2
6352,2
6353,5
6354,5
6355,0
6356,0
6357,0
6358,0
6359,8
6360,8
6361,8
6362,8
6363,8
6364,5
6365,5
6366,5
6367,2
6368,2
6369,2
6370,2
6371,2
6372,2
6373,4
6374,4
6375,4
6376,4
6377,1
6378,1
6379,1
6380,0
6381,0
6382,0
6383,0
6384,0
6385,0
6386,0
6387,0
6388,0
6389,0
6390,5
6391,5
6392,5
6393,5
6394,6
6395,6
6396,6
6397,2
6398,8
6399,8
6400,8
6401,8
6402,5
6403,0
6404,0
6405,0
6406,0
6407,0
6408,3
6409,3
6410,3
6411,3
6412,8
6413,8
6414,8
6415,8
6416,8
6417,8
6418,0
6419,0
6420,3
6421,3
6422,3
6423,7
6424,7
6425,7
6426,7
6427,1
6428,1
6429,1
6430,1
6431,1
6432,3
6433,3
6434,3
6435,3
6436,3
6437,3
6438,3
6439,2
6440,2
6441,2
6442,2
6443,2
6444,5
6445,5
6446,0
6447,0
6448,0
6449,0
6450,0
6451,2
6452,2
6453,2
6454,2
6455,3
6456,2
6457,2
6458,2
6459,2
6460,2
6461,2
6462,4
6463,4
6464,1
6465,1
6466,1
6467,0
6468,0
6469,0
6470,0
6471,0
6472,0
6473,0
6474,0
6475,0
6476,2
6477,2
6478,2
6479,5
6480,5
6481,5
6482,5
6483,0
6484,0
6485,0
6486,2
6487,2
6488,2
6489,0
6490,0
6491,0
6492,0
6493,1
6494,1
6495,0
6496,0
6497,0
6498,2
6499,2
6500,2
6501,2
6502,5
6503,5
6504,5
6505,5
6506,3
6507,3
6508,0
6509,0
6510,0
6511,0
6512,7
6513,7
6514,7
6515,7
6516,7
6517,2
6518,2
6519,2
6520,2
6521,2
6522,2
6523,0
6524,1
6525,1
6526,1
6527,3
6528,3
6529,3
6530,3
6531,6
6532,6
6533,6
6534,0
6535,0
6536,0
6537,5
6538,5
6539,8
6540,8
6541,2
6542,2
6543,6
6544,6
6545,6
6546,6
6547,5
6548,5
6549,1
6550,1
6551,1
6552,0
6553,0
6554,0
6555,0
6556,0
6557,0
6558,1
6559,1
6560,1
6561,1
6562,1
6563,1
6564,0
6565,0
6566,0
6567,0
6568,0
6569,3
6570,3
6571,0
6572,0
6573,0
6574,0
6575,0
6576,0
6577,0
6578,0
6579,0
6580,1
6581,1
6582,2
6583,2
6584,2
6585,2
6586,3
6587,1
6588,2
6589,2
6590,2
6591,0
6592,0
6593,0
6594,7
6595,7
6596,7
6597,0
6598,0
6599,0
6600,0
6601,0
6602,0
6603,0
6604,0
6605,0
6606,0
6607,0
6608,0
6609,3
6610,3
6611,3
6612,1
6613,2
6614,2
6615,2
6616,2
6617,2
6618,0
6619,0
6620,0
6621,0
6622,3
6623,3
6624,0
6625,0
6626,0
6627,0
6628,0
6629,0
6630,4
6631,4
6632,3
6633,3
6634,3
6635,8
6636,8
6637,1
6638,1
6639,1
6640,1
6641,1
6642,1
6643,1
6644,1
6645,3
6646,3
6647,3
6648,3
6649,3
6650,3
6651,0
6652,0
6653,1
6654,1
6655,6
6656,6
6657,6
6658,7
6659,7
6660,7
6661,7
6662,3
6663,3
6664,3
6665,3
6666,3
6667,0
6668,0
6669,0
6670,2
6671,2
6672,1
6673,0
6674,0
6675,1
6676,1
6677,1
6678,1
6679,0
6680,0
6681,5
6682,5
6683,5
6684,5
6685,5
6686,5
6687,1
6688,1
6689,1
6690,8
6691,8
6692,0
6693,0
6694,0
6695,6
6696,6
6697,6
6698,6
6699,4
6700,4
6701,4
6702,4
6703,4
6704,3
6705,3
6706,3
6707,3
6708,8
6709,8
6710,8
6711,0
6712,0
6713,0
6714,0
6715,0
6716,0
6717,0
6718,1
6719,1
6720,0
6721,0
6722,0
6723,1
6724,4
6725,4
6726,4
6727,7
6728,7
6729,7
6730,7
6731,7
6732,0
6733,0
6734,0
6735,0
6736,4
6737,4
6738,4
6739,4
6740,4
6741,0
6742,0
6743,1
6744,1
6745,1
6746,1
6747,1
6748,1
6749,0
6750,0
6751,0
6752,1
6753,2
6754,2
6755,2
6756,2
6757,2
6758,4
6759,4
6760,4
6761,4
6762,3
6763,3
6764,1
6765,1
6766,1
6767,1
6768,1
6769,1
6770,1
6771,1
6772,1
6773,1
6774,1
6775,2
6776,2
6777,2
6778,0
6779,0
6780,0
6781,0
6782,7
6783,7
6784,7
6785,7
6786,1
6787,1
6788,4
6789,4
6790,8
6791,8
6792,8
6793,8
6794,8
6795,8
6796,8
6797,2
6798,2
6799,2
6800,2
6801,2
6802,5
6803,5
6804,5
6805,5
6806,5
6807,0
6808,0
6809,3
6810,3
6811,3
6812,3
6813,8
6814,4
6815,4
6816,0
6817,0
6818,0
6819,1
6820,6
6821,6
6822,6
6823,0
6824,0
6825,0
6826,0
6827,0
6828,1
6829,1
6830,1
6831,0
6832,0
6833,0
6834,4
6835,4
6836,4
6837,7
6838,0
6839,0
6840,0
6841,0
6842,4
6843,4
6844,4
6845,4
6846,2
6847,2
6848,2
6849,2
6850,0
6851,1
6852,1
6853,4
6854,4
6855,0
6856,0
6857,0
6858,0
6859,0
6860,0
6861,0
6862,0
6863,0
6864,2
6865,2
6866,2
6867,3
6868,3
6869,3
6870,2
6871,2
6872,2
6873,2
6874,2
6875,2
6876,4
6877,4
6878,4
6879,4
6880,0
6881,1
6882,1
6883,1
6884,1
6885,1
6886,0
6887,0
6888,0
6889,0
6890,0
6891,1
6892,1
6893,1
6894,1
6895,0
6896,0
6897,1
6898,1
6899,0
6900,0
6901,0
6902,3
6903,3
6904,3
6905,0
6906,0
6907,0
6908,0
6909,0
6910,8
6911,8
6912,8
6913,3
6914,3
6915,1
6916,1
6917,2
6918,0
6919,0
6920,0
6921,0
6922,0
6923,0
6924,3
6925,3
6926,0
6927,0
6928,0
6929,0
6930,0
6931,0
6932,0
6933,0
6934,0
6935,0
6936,0
6937,0
6938,0
6939,0
6940,0
6941,0
6942,3
6943,3
6944,3
6945,3
6946,3
6947,3
6948,1
6949,1
6950,1
6951,0
6952,0
6953,0
6954,4
6955,4
6956,4
6957,7
6958,7
6959,7
6960,7
6961,1
6962,1
6963,1
6964,1
6965,2
6966,2
6967,2
6968,2
6969,2
6970,1
6971,1
6972,1
6973,1
6974,1
6975,1
6976,1
6977,1
6978,1
6979,1
6980,1
6981,1
6982,1
6983,1
6984,1
6985,0
6986,1
6987,1
6988,1
6989,5
6990,5
6991,8
6992,8
6993,8
6994,0
6995,0
6996,0
6997,0
6998,0
6999,0
7000,0
7001,7
7002,7
7003,7
7004,7
7005,5
7006,5
7007,0
7008,0
7009,0
7010,0
7011,0
7012,0
7013,5
7014,5
7015,5
7016,5
7017,0
7018,0
7019,0
7020,0
7021,0
7022,1
7023,0
7024,0
7025,0
7026,0
7027,0
7028,0
7029,0
7030,0
7031,2
7032,2
7033,0
7034,0
7035,0
7036,0
7037,1
7038,1
7039,2
7040,2
7041,0
7042,0
7043,0
7044,0
7045,0
7046,0
7047,1
7048,1
7049,1
7050,0
7051,0
7052,0
7053,0
7054,0
7055,0
7056,0
7057,0
7058,0
7059,7
7060,7
7061,7
7062,1
7063,1
7064,1
7065,1
7066,1
7067,1
7068,1
7069,0
7070,0
7071,0
7072,0
7073,0
7074,1
7075,1
7076,1
7077,1
7078,1
7079,1
7080,0
7081,0
7082,0
7083,1
7084,1
7085,6
7086,6
7087,6
7088,6
7089,0
7090,0
7091,1
7092,2
7093,2
7094,2
7095,0
7096,0
7097,0
7098,0
7099,3
7100,3
7101,1
7102,1
7103,7
7104,7
7105,0
7106,0
7107,0
7108,0
7109,0
7110,0
7111,0
7112,0
7113,0
7114,0
7115,0
7116,0
7117,0
7118,0
7119,0
7120,0
7121,0
7122,1
7123,1
7124,7
7125,7
7126,7
7127,7
7128,0
7129,0
7130,0
7131,0
7132,0
7133,0
7134,0
7135,0
7136,0
7137,6
7138,6
7139,6
7140,6
7141,2
7142,2
7143,2
7144,2
7145,2
7146,2
7147,2
7148,2
7149,2
7150,2
7151,8
7152,8
7153,0
7154,0
7155,1
7156,3
7157,3
7158,3
7159,0
7160,0
7161,0
7162,0
7163,0
7164,0
7165,0
7166,0
7167,2
7168,2
7169,2
7170,2
7171,2
7172,2
7173,0
7174,0
7175,0
7176,0
7177,0
7178,0
7179,0
7180,0
7181,0
7182,0
7183,0
7184,0
7185,7
7186,7
7187,1
7188,6
7189,6
7190,6
7191,0
7192,0
7193,6
7194,6
7195,6
7196,2
7197,4
7198,4
7199,4
7200,4
7201,2
7202,2
7203,2
7204,0
7205,0
7206,0
7207,0
7208,0
7209,5
7210,5
7211,5
7212,5
7213,0
7214,0
7215,1
7216,1
7217,1
7218,1
7219,1
7220,0
7221,0
7222,0
7223,1
7224,1
7225,1
7226,1
7227,1
7228,0
7229,0
7230,2
7231,2
7232,2
7233,2
7234,2
7235,7
7236,0
7237,0
7238,0
7239,0
7240,0
7241,7
7242,7
7243,0
7244,0
7245,0
7246,0
7247,1
7248,1
7249,1
7250,0
7251,0
7252,0
7253,3
7254,6
7255,0
7256,0
7257,3
7258,3
7259,3
7260,0
7261,0
7262,0
7263,0
7264,0
7265,0
7266,0
7267,7
7268,7
7269,7
7270,0
7271,0
7272,6
7273,6
7274,0
7275,0
7276,3
7277,3
7278,3
7279,3
7280,3
7281,3
7282,3
7283,1
7284,1
7285,0
7286,0
7287,0
7288,0
7289,0
7290,0
7291,0
7292,0
7293,0
7294,0
7295,0
7296,0
7297,0
7298,0
7299,0
7300,0
7301,0
7302,0
7303,0
7304,0
7305,0
7306,1
7307,1
7308,1
7309,0
7310,0
7311,2
7312,2
7313,0
7314,0
7315,0
7316,0
7317,5
7318,5
7319,5
7320,1
7321,0
7322,0
7323,0
7324,3
7325,3
7326,3
7327,3
7328,5
7329,5
7330,5
7331,5
7332,0
7333,0
7334,0
7335,0
7336,0
7337,5
7338,2
7339,2
7340,2
7341,2
7342,2
7343,2
7344,2
7345,0
7346,0
7347,0
7348,0
7349,0
7350,0
7351,0
7352,1
7353,1
7354,1
7355,1
7356,1
7357,1
7358,1
7359,1
7360,1
7361,0
7362,0
7363,0
7364,0
7365,0
7366,0
7367,0
7368,0
7369,0
7370,0
7371,0
7372,0
7373,3
7374,3
7375,3
7376,3
7377,0
7378,0
7379,0
7380,0
7381,0
7382,1
7383,0
7384,0
7385,0
7386,5
7387,5
7388,0
7389,0
7390,0
7391,0
7392,0
7393,0
7394,0
7395,0
7396,1
7397,1
7398,1
7399,7
7400,1
7401,1
7402,1
7403,4
7404,4
7405,4
7406,3
7407,3
7408,3
7409,1
7410,1
7411,1
7412,1
7413,6
7414,6
7415,6
7416,4
7417,4
7418,4
7419,4
7420,0
7421,0
7422,0
7423,0
7424,0
7425,0
7426,0
7427,0
7428,0
7429,0
7430,0
7431,0
7432,0
7433,0
7434,0
7435,1
7436,1
7437,1
7438,1
7439,1
7440,1
7441,1
7442,1
7443,1
7444,1
7445,1
7446,1
7447,1
7448,0
7449,0
7450,1
7451,1
7452,4
7453,8
7454,8
7455,2
7456,2
7457,3
7458,3
7459,3
7460,0
7461,0
7462,0
7463,0
7464,0
7465,1
7466,1
7467,0
7468,0
7469,0
7470,5
7471,5
7472,5
7473,5
7474,5
