:START_ID(Entity-ID),:END_ID(Agent-ID)
1,2
2,2
3,1
4,1
5,1
6,1
7,1
8,1
9,1
10,1
11,2
12,2
13,2
14,2
15,2
16,4
17,4
18,4
19,4
20,2
21,2
22,2
23,0
24,0
25,0
26,0
27,0
28,0
29,0
30,0
31,0
32,0
33,0
34,0
35,0
36,0
37,0
38,0
39,1
40,1
41,1
42,7
43,7
44,7
45,7
46,0
47,0
48,1
49,1
50,1
51,4
52,4
53,3
54,0
55,0
56,0
57,0
58,0
59,0
60,0
61,0
62,0
63,0
64,3
65,3
66,3
67,3
68,1
69,1
70,1
71,1
72,2
73,2
74,2
75,5
76,5
77,5
78,5
79,8
80,8
81,8
82,8
83,8
84,8
85,8
86,0
87,4
88,4
89,4
90,5
91,5
92,5
93,5
94,1
95,1
96,1
97,1
98,1
99,1
100,1
101,0
102,0
103,0
104,0
105,0
106,0
107,0
108,0
109,0
110,0
111,0
112,0
113,0
114,0
115,0
116,0
117,0
118,0
119,6
120,6
121,6
122,0
123,0
124,1
125,1
126,4
127,4
128,4
129,1
130,1
131,1
132,1
133,1
134,1
135,0
136,1
137,1
138,1
139,1
140,0
141,0
142,0
143,0
144,1
145,1
146,1
147,8
148,8
149,2
150,2
151,2
152,2
153,0
154,0
155,0
156,0
157,0
158,1
159,1
160,1
161,1
162,1
163,3
164,3
165,3
166,3
167,3
168,3
169,3
170,6
171,6
172,1
173,1
174,1
175,0
176,0
177,0
178,0
179,0
180,0
181,1
182,1
183,1
184,1
185,0
186,0
187,0
188,0
189,1
190,1
191,0
192,0
193,0
194,0
195,0
196,0
197,0
198,0
199,0
200,3
201,1
202,1
203,4
204,4
205,4
206,0
207,0
208,6
209,6
210,6
211,6
212,6
213,6
214,4
215,4
216,0
217,0
218,3
219,3
220,3
221,0
222,0
223,0
224,0
225,0
226,0
227,0
228,4
229,4
230,4
231,4
232,0
233,0
234,0
235,0
236,0
237,0
238,0
239,0
240,0
241,0
242,0
243,2
244,3
245,3
246,3
247,0
248,0
249,0
250,0
251,0
252,1
253,1
254,1
255,0
256,0
257,0
258,0
259,0
260,3
261,0
262,0
263,0
264,3
265,3
266,3
267,3
268,3
269,0
270,0
271,0
272,0
273,0
274,0
275,0
276,0
277,0
278,5
279,5
280,5
281,5
282,4
283,4
284,4
285,0
286,0
287,0
288,1
289,1
290,1
291,0
292,0
293,0
294,1
295,1
296,1
297,1
298,1
299,2
300,2
301,3
302,3
303,0
304,0
305,0
306,5
307,5
308,5
309,5
310,5
311,0
312,0
313,0
314,0
315,0
316,0
317,0
318,5
319,5
320,0
321,0
322,0
323,6
324,6
325,6
326,6
327,0
328,0
329,1
330,0
331,0
332,0
333,0
334,0
335,0
336,0
337,0
338,0
339,0
340,1
341,1
342,1
343,1
344,1
345,1
346,1
347,1
348,1
349,0
350,0
351,0
352,6
353,6
354,6
355,6
356,6
357,1
358,1
359,1
360,1
361,1
362,1
363,0
364,0
365,0
366,0
367,2
368,0
369,0
370,0
371,1
372,1
373,1
374,1
375,1
376,4
377,4
378,4
379,3
380,3
381,8
382,8
383,1
384,6
385,6
386,6
387,6
388,6
389,0
390,0
391,0
392,0
393,0
394,2
395,2
396,2
397,0
398,0
399,7
400,7
401,2
402,2
403,2
404,0
405,0
406,0
407,0
408,0
409,1
410,1
411,0
412,0
413,5
414,5
415,5
416,5
417,1
418,1
419,1
420,1
421,1
422,1
423,4
424,4
425,1
426,1
427,1
428,2
429,2
430,2
431,1
432,0
433,0
434,3
435,3
436,3
437,3
438,0
439,0
440,1
441,1
442,1
443,1
444,1
445,0
446,0
447,0
448,2
449,2
450,2
451,3
452,3
453,6
454,6
455,6
456,6
457,6
458,0
459,0
460,0
461,0
462,0
463,0
464,0
465,0
466,0
467,0
468,0
469,0
470,1
471,1
472,1
473,4
474,4
475,7
476,7
477,7
478,4
479,4
480,4
481,2
482,2
483,2
484,2
485,2
486,3
487,3
488,1
489,1
490,3
491,0
492,6
493,6
494,0
495,0
496,0
497,0
498,0
499,0
500,0
501,0
502,0
503,0
504,0
505,0
506,0
507,0
508,0
509,0
510,0
511,2
512,2
513,2
514,1
515,1
516,1
517,1
518,2
519,2
520,0
521,0
522,0
523,0
524,0
525,3
526,0
527,0
528,0
529,0
530,0
531,0
532,0
533,0
534,1
535,1
536,1
537,1
538,1
539,0
540,0
541,0
542,0
543,0
544,0
545,0
546,0
547,0
548,0
549,0
550,0
551,0
552,2
553,2
554,2
555,2
556,4
557,4
558,4
559,4
560,4
561,0
562,0
563,0
564,4
565,4
566,0
567,0
568,5
569,5
570,6
571,6
572,6
573,2
574,0
575,0
576,0
577,0
578,1
579,1
580,1
581,0
582,0
583,1
584,1
585,1
586,1
587,1
588,1
589,1
590,1
591,1
592,2
593,2
594,0
595,0
596,0
597,0
598,3
599,0
600,0
601,0
602,0
603,0
604,1
605,1
606,1
607,1
608,0
609,0
610,0
611,2
612,3
613,3
614,4
615,4
616,4
617,4
618,3
619,3
620,0
621,1
622,1
623,7
624,7
625,1
626,1
627,1
628,1
629,1
630,1
631,1
632,1
633,1
634,1
635,1
636,2
637,2
638,6
639,6
640,6
641,1
642,1
643,1
644,1
645,1
646,1
647,1
648,3
649,3
650,3
651,3
652,0
653,0
654,0
655,0
656,1
657,6
658,4
659,4
660,4
661,4
662,1
663,1
664,1
665,1
666,1
667,1
668,6
669,6
670,0
671,0
672,0
673,2
674,6
675,5
676,5
677,5
678,5
679,6
680,6
681,6
682,2
683,2
684,5
685,5
686,5
687,0
688,0
689,0
690,8
691,8
692,8
693,8
694,8
695,8
696,8
697,0
698,0
699,0
700,6
701,5
702,5
703,2
704,2
705,2
706,2
707,1
708,1
709,1
710,3
711,3
712,2
713,0
714,0
715,0
716,0
717,2
718,2
719,2
720,2
721,2
722,2
723,0
724,4
725,4
726,4
727,6
728,0
729,5
730,5
731,5
732,5
733,5
734,5
735,6
736,6
737,6
738,4
739,4
740,4
741,5
742,0
743,0
744,0
745,0
746,0
747,0
748,0
749,0
750,0
751,0
752,3
753,3
754,0
755,0
756,0
757,0
758,0
759,0
760,0
761,0
762,4
763,4
764,4
765,4
766,4
767,4
768,1
769,1
770,1
771,1
772,0
773,0
774,0
775,8
776,8
777,0
778,0
779,4
780,4
781,4
782,0
783,0
784,0
785,0
786,0
787,0
788,0
789,0
790,0
791,0
792,0
793,1
794,1
795,1
796,1
797,1
798,5
799,1
800,1
801,1
802,4
803,4
804,4
805,2
806,2
807,2
808,2
809,0
810,0
811,0
812,0
813,0
814,0
815,0
816,0
817,0
818,0
819,0
820,0
821,0
822,0
823,0
824,1
825,1
826,1
827,1
828,0
829,0
830,0
831,1
832,0
833,0
834,0
835,0
836,0
837,1
838,1
839,3
840,5
841,5
842,6
843,6
844,0
845,0
846,0
847,0
848,0
849,0
850,1
851,1
852,2
853,2
854,2
855,5
856,5
857,5
858,0
859,0
860,5
861,5
862,0
863,0
864,0
865,1
866,1
867,1
868,3
869,3
870,3
871,3
872,3
873,0
874,0
875,0
876,0
877,5
878,5
879,0
880,0
881,0
882,0
883,0
884,0
885,0
886,0
887,0
888,6
889,1
890,1
891,1
892,1
893,0
894,0
895,0
896,0
897,2
898,2
899,2
900,2
901,0
902,0
903,0
904,4
905,4
906,4
907,0
908,0
909,8
910,8
911,8
912,0
913,0
914,0
915,0
916,0
917,0
918,3
919,3
920,0
921,0
922,0
923,0
924,0
925,0
926,0
927,0
928,0
929,0
930,3
931,3
932,0
933,0
934,0
935,0
936,2
937,1
938,1
939,1
940,3
941,3
942,0
943,0
944,0
945,0
946,7
947,7
948,7
949,0
950,0
951,0
952,0
953,1
954,1
955,1
956,5
957,5
958,5
959,0
960,0
961,0
962,0
963,1
964,1
965,2
966,2
967,2
968,2
969,2
970,2
971,2
972,1
973,1
974,1
975,1
976,8
977,8
978,0
979,0
980,0
981,0
982,1
983,1
984,1
985,0
986,0
987,6
988,1
989,0
990,0
991,0
992,0
993,0
994,0
995,0
996,6
997,6
998,0
999,0
1000,7
1001,7
1002,7
1003,7
1004,4
1005,4
1006,4
1007,4
1008,0
1009,0
1010,0
1011,0
1012,7
1013,7
1014,7
1015,3
1016,3
1017,3
1018,6
1019,6
1020,6
1021,0
1022,0
1023,0
1024,0
1025,0
1026,0
1027,0
1028,0
1029,2
1030,0
1031,0
1032,0
1033,0
1034,0
1035,0
1036,3
1037,3
1038,0
1039,0
1040,0
1041,0
1042,0
1043,1
1044,1
1045,0
1046,0
1047,0
1048,0
1049,0
1050,0
1051,2
1052,2
1053,2
1054,2
1055,0
1056,0
1057,0
1058,0
1059,1
1060,0
1061,0
1062,0
1063,4
1064,4
1065,3
1066,3
1067,1
1068,1
1069,2
1070,2
1071,2
1072,2
1073,7
1074,7
1075,7
1076,7
1077,2
1078,2
1079,2
1080,2
1081,2
1082,2
1083,2
1084,2
1085,0
1086,0
1087,0
1088,0
1089,4
1090,4
1091,6
1092,6
1093,6
1094,6
1095,4
1096,4
1097,0
1098,0
1099,0
1100,0
1101,0
1102,0
1103,0
1104,0
1105,0
1106,0
1107,0
1108,8
1109,8
1110,8
1111,8
1112,8
1113,4
1114,4
1115,4
1116,8
1117,8
1118,8
1119,8
1120,0
1121,0
1122,0
1123,0
1124,0
1125,0
1126,0
1127,0
1128,0
1129,0
1130,0
1131,0
1132,0
1133,0
1134,0
1135,0
1136,0
1137,0
1138,0
1139,0
1140,0
1141,8
1142,8
1143,8
1144,1
1145,1
1146,4
1147,4
1148,4
1149,0
1150,0
1151,0
1152,1
1153,1
1154,1
1155,2
1156,2
1157,2
1158,0
1159,0
1160,0
1161,5
1162,5
1163,7
1164,0
1165,0
1166,1
1167,1
1168,1
1169,0
1170,0
1171,0
1172,2
1173,2
1174,2
1175,0
1176,0
1177,6
1178,6
1179,6
1180,6
1181,0
1182,1
1183,1
1184,1
1185,1
1186,1
1187,1
1188,7
1189,7
1190,0
1191,0
1192,0
1193,0
1194,0
1195,0
1196,7
1197,0
1198,0
1199,8
1200,0
1201,0
1202,0
1203,0
1204,0
1205,0
1206,0
1207,0
1208,0
1209,0
1210,0
1211,0
1212,6
1213,6
1214,2
1215,2
1216,4
1217,2
1218,2
1219,0
1220,4
1221,4
1222,0
1223,0
1224,0
1225,5
1226,5
1227,5
1228,5
1229,0
1230,0
1231,0
1232,0
1233,0
1234,0
1235,0
1236,0
1237,3
1238,3
1239,0
1240,0
1241,0
1242,0
1243,0
1244,0
1245,0
1246,0
1247,0
1248,0
1249,0
1250,0
1251,5
1252,7
1253,7
1254,7
1255,7
1256,7
1257,2
1258,2
1259,2
1260,2
1261,2
1262,3
1263,3
1264,3
1265,3
1266,2
1267,2
1268,2
1269,2
1270,2
1271,0
1272,0
1273,0
1274,4
1275,4
1276,4
1277,4
1278,3
1279,3
1280,1
1281,1
1282,0
1283,0
1284,0
1285,0
1286,0
1287,0
1288,0
1289,8
1290,8
1291,8
1292,8
1293,8
1294,0
1295,0
1296,0
1297,4
1298,4
1299,4
1300,1
1301,1
1302,0
1303,0
1304,0
1305,0
1306,0
1307,0
1308,0
1309,0
1310,0
1311,0
1312,0
1313,0
1314,4
1315,4
1316,4
1317,0
1318,0
1319,0
1320,0
1321,0
1322,0
1323,0
1324,0
1325,0
1326,0
1327,4
1328,4
1329,0
1330,0
1331,0
1332,3
1333,3
1334,3
1335,3
1336,3
1337,3
1338,3
1339,0
1340,0
1341,8
1342,8
1343,8
1344,8
1345,1
1346,1
1347,1
1348,1
1349,1
1350,1
1351,2
1352,2
1353,2
1354,2
1355,6
1356,6
1357,6
1358,6
1359,0
1360,0
1361,0
1362,0
1363,0
1364,3
1365,2
1366,1
1367,1
1368,1
1369,1
1370,1
1371,0
1372,0
1373,0
1374,0
1375,0
1376,0
1377,0
1378,4
1379,4
1380,4
1381,0
1382,0
1383,0
1384,1
1385,1
1386,1
1387,2
1388,2
1389,3
1390,3
1391,3
1392,0
1393,0
1394,0
1395,8
1396,8
1397,3
1398,3
1399,3
1400,0
1401,0
1402,0
1403,3
1404,3
1405,1
1406,1
1407,1
1408,1
1409,3
1410,3
1411,3
1412,0
1413,0
1414,0
1415,5
1416,5
1417,4
1418,4
1419,4
1420,6
1421,6
1422,6
1423,6
1424,1
1425,1
1426,1
1427,1
1428,0
1429,0
1430,0
1431,0
1432,0
1433,1
1434,1
1435,1
1436,1
1437,1
1438,1
1439,1
1440,1
1441,1
1442,2
1443,2
1444,0
1445,0
1446,2
1447,2
1448,2
1449,2
1450,0
1451,0
1452,3
1453,3
1454,2
1455,2
1456,2
1457,2
1458,0
1459,0
1460,0
1461,0
1462,0
1463,0
1464,0
1465,4
1466,4
1467,2
1468,2
1469,2
1470,2
1471,2
1472,2
1473,6
1474,0
1475,0
1476,0
1477,0
1478,0
1479,4
1480,4
1481,1
1482,1
1483,1
1484,1
1485,1
1486,1
1487,0
1488,0
1489,4
1490,4
1491,4
1492,4
1493,4
1494,4
1495,0
1496,0
1497,0
1498,0
1499,3
1500,0
1501,0
1502,1
1503,1
1504,1
1505,1
1506,1
1507,1
1508,8
1509,8
1510,4
1511,4
1512,4
1513,4
1514,1
1515,1
1516,1
1517,2
1518,2
1519,8
1520,8
1521,2
1522,2
1523,1
1524,1
1525,1
1526,1
1527,1
1528,1
1529,1
1530,0
1531,0
1532,1
1533,1
1534,1
1535,1
1536,1
1537,1
1538,1
1539,1
1540,1
1541,0
1542,3
1543,3
1544,7
1545,1
1546,1
1547,1
1548,1
1549,1
1550,1
1551,1
1552,1
1553,1
1554,2
1555,2
1556,2
1557,0
1558,0
1559,0
1560,0
1561,0
1562,0
1563,0
1564,0
1565,3
1566,3
1567,5
1568,5
1569,5
1570,5
1571,6
1572,6
1573,0
1574,0
1575,0
1576,0
1577,0
1578,3
1579,3
1580,3
1581,3
1582,0
1583,0
1584,0
1585,1
1586,0
1587,0
1588,0
1589,0
1590,0
1591,0
1592,0
1593,0
1594,2
1595,2
1596,6
1597,6
1598,6
1599,6
1600,6
1601,0
1602,0
1603,0
1604,0
1605,3
1606,3
1607,3
1608,3
1609,3
1610,0
1611,4
1612,1
1613,1
1614,1
1615,1
1616,0
1617,0
1618,0
1619,0
1620,6
1621,6
1622,6
1623,0
1624,2
1625,2
1626,1
1627,4
1628,4
1629,0
1630,0
1631,0
1632,0
1633,0
1634,8
1635,8
1636,0
1637,0
1638,0
1639,0
1640,0
1641,0
1642,2
1643,2
1644,2
1645,4
1646,4
1647,1
1648,1
1649,1
1650,1
1651,0
1652,0
1653,0
1654,0
1655,3
1656,3
1657,3
1658,3
1659,3
1660,0
1661,0
1662,0
1663,0
1664,1
1665,1
1666,0
1667,0
1668,4
1669,4
1670,4
1671,4
1672,0
1673,0
1674,0
1675,0
1676,4
1677,4
1678,4
1679,4
1680,4
1681,4
1682,3
1683,3
1684,3
1685,3
1686,0
1687,0
1688,0
1689,0
1690,0
1691,0
1692,0
1693,0
1694,0
1695,0
1696,0
1697,3
1698,3
1699,3
1700,0
1701,0
1702,0
1703,0
1704,0
1705,0
1706,2
1707,2
1708,2
1709,2
1710,0
1711,0
1712,4
1713,4
1714,4
1715,0
1716,0
1717,0
1718,7
1719,7
1720,7
1721,0
1722,0
1723,0
1724,0
1725,6
1726,6
1727,6
1728,2
1729,6
1730,6
1731,6
1732,6
1733,0
1734,0
1735,0
1736,0
1737,1
1738,1
1739,1
1740,0
1741,0
1742,0
1743,0
1744,0
1745,0
1746,2
1747,2
1748,2
1749,1
1750,1
1751,1
1752,1
1753,0
1754,0
1755,1
1756,1
1757,1
1758,1
1759,2
1760,2
1761,2
1762,2
1763,2
1764,2
1765,0
1766,0
1767,0
1768,0
1769,0
1770,0
1771,0
1772,0
1773,3
1774,3
1775,0
1776,0
1777,0
1778,5
1779,5
1780,5
1781,1
1782,1
1783,0
1784,0
1785,0
1786,0
1787,2
1788,2
1789,2
1790,2
1791,2
1792,3
1793,3
1794,0
1795,0
1796,0
1797,0
1798,0
1799,0
1800,0
1801,0
1802,2
1803,2
1804,1
1805,4
1806,4
1807,4
1808,4
1809,4
1810,4
1811,0
1812,0
1813,0
1814,3
1815,3
1816,3
1817,3
1818,1
1819,0
1820,1
1821,1
1822,1
1823,0
1824,0
1825,0
1826,0
1827,0
1828,0
1829,0
1830,2
1831,2
1832,2
1833,2
1834,2
1835,2
1836,1
1837,1
1838,1
1839,1
1840,0
1841,1
1842,1
1843,1
1844,1
1845,1
1846,0
1847,0
1848,0
1849,0
1850,0
1851,0
1852,1
1853,1
1854,1
1855,1
1856,4
1857,4
1858,4
1859,4
1860,4
1861,4
1862,4
1863,0
1864,0
1865,0
1866,0
1867,0
1868,0
1869,0
1870,0
1871,0
1872,0
1873,0
1874,1
1875,7
1876,7
1877,0
1878,0
1879,0
1880,0
1881,0
1882,0
1883,0
1884,0
1885,0
1886,0
1887,1
1888,1
1889,1
1890,1
1891,1
1892,1
1893,0
1894,5
1895,5
1896,5
1897,0
1898,0
1899,0
1900,0
1901,0
1902,0
1903,0
1904,0
1905,2
1906,2
1907,2
1908,2
1909,2
1910,2
1911,2
1912,2
1913,2
1914,2
1915,2
1916,1
1917,1
1918,1
1919,1
1920,1
1921,1
1922,1
1923,2
1924,2
1925,5
1926,5
1927,0
1928,0
1929,0
1930,1
1931,1
1932,1
1933,4
1934,4
1935,4
1936,4
1937,0
1938,0
1939,1
1940,1
1941,1
1942,3
1943,0
1944,0
1945,0
1946,0
1947,0
1948,0
1949,1
1950,0
1951,1
1952,1
1953,1
1954,1
1955,1
1956,1
1957,1
1958,1
1959,0
1960,0
1961,0
1962,0
1963,3
1964,8
1965,8
1966,8
1967,3
1968,3
1969,3
1970,3
1971,0
1972,0
1973,0
1974,0
1975,0
1976,0
1977,0
1978,2
1979,2
1980,0
1981,0
1982,0
1983,0
1984,1
1985,1
1986,0
1987,0
1988,2
1989,1
1990,1
1991,3
1992,3
1993,3
1994,3
1995,3
1996,3
1997,0
1998,0
1999,0
2000,0
2001,0
2002,0
2003,0
2004,0
2005,0
2006,6
2007,6
2008,6
2009,6
2010,3
2011,3
2012,3
2013,3
2014,1
2015,1
2016,0
2017,0
2018,0
2019,4
2020,4
2021,4
2022,1
2023,1
2024,1
2025,1
2026,1
2027,1
2028,1
2029,0
2030,0
2031,0
2032,3
2033,0
2034,0
2035,0
2036,4
2037,4
2038,0
2039,0
2040,0
2041,4
2042,4
2043,4
2044,1
2045,5
2046,5
2047,0
2048,0
2049,2
2050,2
2051,2
2052,0
2053,0
2054,0
2055,0
2056,0
2057,0
2058,4
2059,4
2060,4
2061,4
2062,4
2063,0
2064,0
2065,0
2066,0
2067,0
2068,0
2069,5
2070,2
2071,2
2072,2
2073,0
2074,0
2075,0
2076,0
2077,0
2078,6
2079,6
2080,6
2081,1
2082,1
2083,0
2084,0
2085,0
2086,0
2087,0
2088,1
2089,1
2090,2
2091,1
2092,1
2093,1
2094,5
2095,5
2096,5
2097,0
2098,0
2099,0
2100,0
2101,6
2102,6
2103,7
2104,7
2105,0
2106,0
2107,0
2108,0
2109,0
2110,0
2111,0
2112,1
2113,1
2114,0
2115,0
2116,0
2117,0
2118,0
2119,0
2120,0
2121,0
2122,0
2123,0
2124,6
2125,6
2126,6
2127,6
2128,6
2129,6
2130,6
2131,6
2132,6
2133,6
2134,6
2135,3
2136,3
2137,0
2138,0
2139,0
2140,0
2141,0
2142,0
2143,0
2144,0
2145,2
2146,2
2147,2
2148,2
2149,2
2150,2
2151,2
2152,2
2153,2
2154,2
2155,2
2156,0
2157,0
2158,0
2159,0
2160,0
2161,0
2162,0
2163,2
2164,2
2165,2
2166,2
2167,2
2168,0
2169,0
2170,0
2171,4
2172,4
2173,4
2174,4
2175,0
2176,0
2177,0
2178,0
2179,0
2180,0
2181,0
2182,6
2183,6
2184,6
2185,6
2186,6
2187,1
2188,1
2189,1
2190,3
2191,3
2192,3
2193,3
2194,2
2195,0
2196,0
2197,0
2198,2
2199,2
2200,2
2201,0
2202,0
2203,0
2204,0
2205,0
2206,0
2207,0
2208,0
2209,0
2210,0
2211,0
2212,4
2213,4
2214,1
2215,1
2216,3
2217,1
2218,1
2219,1
2220,1
2221,1
2222,2
2223,2
2224,2
2225,2
2226,2
2227,0
2228,0
2229,0
2230,0
2231,0
2232,0
2233,0
2234,0
2235,0
2236,0
2237,0
2238,0
2239,0
2240,0
2241,0
2242,1
2243,1
2244,1
2245,4
2246,2
2247,2
2248,2
2249,1
2250,3
2251,3
2252,1
2253,1
2254,1
2255,7
2256,7
2257,7
2258,7
2259,6
2260,6
2261,0
2262,0
2263,0
2264,0
2265,0
2266,0
2267,4
2268,4
2269,4
2270,8
2271,8
2272,8
2273,8
2274,8
2275,6
2276,6
2277,6
2278,6
2279,6
2280,0
2281,0
2282,5
2283,5
2284,5
2285,5
2286,5
2287,0
2288,0
2289,0
2290,0
2291,0
2292,0
2293,0
2294,4
2295,0
2296,0
2297,0
2298,1
2299,1
2300,7
2301,2
2302,2
2303,2
2304,4
2305,4
2306,4
2307,0
2308,0
2309,1
2310,1
2311,0
2312,0
2313,0
2314,1
2315,5
2316,5
2317,5
2318,5
2319,1
2320,1
2321,1
2322,1
2323,1
2324,1
2325,0
2326,0
2327,0
2328,0
2329,0
2330,0
2331,0
2332,0
2333,5
2334,5
2335,5
2336,5
2337,0
2338,0
2339,2
2340,2
2341,2
2342,2
2343,2
2344,2
2345,1
2346,1
2347,1
2348,1
2349,1
2350,1
2351,0
2352,0
2353,0
2354,0
2355,0
2356,0
2357,0
2358,1
2359,1
2360,1
2361,8
2362,8
2363,7
2364,7
2365,0
2366,0
2367,0
2368,0
2369,0
2370,0
2371,0
2372,4
2373,4
2374,4
2375,4
2376,0
2377,0
2378,0
2379,5
2380,5
2381,5
2382,5
2383,5
2384,5
2385,2
2386,2
2387,8
2388,6
2389,6
2390,3
2391,3
2392,3
2393,3
2394,3
2395,3
2396,6
2397,6
2398,1
2399,1
2400,1
2401,1
2402,0
2403,0
2404,0
2405,0
2406,0
2407,0
2408,0
2409,0
2410,0
2411,0
2412,0
2413,0
2414,0
2415,6
2416,6
2417,6
2418,3
2419,3
2420,0
2421,0
2422,0
2423,0
2424,0
2425,0
2426,0
2427,0
2428,0
2429,1
2430,1
2431,7
2432,7
2433,7
2434,7
2435,2
2436,2
2437,2
2438,2
2439,8
2440,8
2441,1
2442,1
2443,1
2444,1
2445,1
2446,0
2447,0
2448,0
2449,0
2450,0
2451,0
2452,0
2453,0
2454,0
2455,0
2456,0
2457,0
2458,0
2459,1
2460,1
2461,1
2462,1
2463,0
2464,0
2465,0
2466,0
2467,0
2468,0
2469,0
2470,0
2471,0
2472,0
2473,0
2474,0
2475,7
2476,7
2477,0
2478,0
2479,0
2480,0
2481,0
2482,0
2483,4
2484,4
2485,4
2486,0
2487,0
2488,0
2489,0
2490,0
2491,0
2492,0
2493,0
2494,0
2495,0
2496,0
2497,0
2498,0
2499,0
2500,0
2501,0
2502,0
2503,0
2504,4
2505,4
2506,8
2507,8
2508,0
2509,0
2510,0
2511,0
2512,0
2513,0
2514,0
2515,0
2516,0
2517,5
2518,5
2519,5
2520,5
2521,5
2522,5
2523,5
2524,0
2525,0
2526,0
2527,0
2528,1
2529,1
2530,0
2531,0
2532,0
2533,3
2534,3
2535,3
2536,1
2537,1
2538,1
2539,7
2540,0
2541,0
2542,6
2543,6
2544,6
2545,6
2546,6
2547,4
2548,4
2549,4
2550,4
2551,4
2552,0
2553,0
2554,0
2555,0
2556,0
2557,3
2558,3
2559,3
2560,1
2561,1
2562,2
2563,2
2564,2
2565,7
2566,7
2567,7
2568,7
2569,7
2570,7
2571,1
2572,1
2573,1
2574,1
2575,2
2576,2
2577,2
2578,0
2579,0
2580,0
2581,0
2582,0
2583,0
2584,0
2585,0
2586,0
2587,1
2588,1
2589,3
2590,3
2591,0
2592,0
2593,0
2594,0
2595,0
2596,2
2597,2
2598,2
2599,2
2600,7
2601,7
2602,7
2603,1
2604,1
2605,1
2606,1
2607,1
2608,4
2609,4
2610,4
2611,4
2612,5
2613,0
2614,6
2615,6
2616,1
2617,1
2618,1
2619,1
2620,1
2621,1
2622,3
2623,3
2624,3
2625,1
2626,1
2627,1
2628,7
2629,7
2630,7
2631,7
2632,0
2633,0
2634,0
2635,0
2636,0
2637,0
2638,0
2639,2
2640,2
2641,2
2642,2
2643,2
2644,2
2645,5
2646,5
2647,5
2648,5
2649,0
2650,0
2651,0
2652,2
2653,2
2654,2
2655,0
2656,0
2657,0
2658,0
2659,4
2660,4
2661,4
2662,4
2663,0
2664,0
2665,1
2666,1
2667,4
2668,4
2669,4
2670,1
2671,1
2672,1
2673,1
2674,6
2675,6
2676,6
2677,6
2678,6
2679,6
2680,0
2681,0
2682,0
2683,5
2684,5
2685,5
2686,5
2687,0
2688,0
2689,0
2690,7
2691,7
2692,7
2693,2
2694,2
2695,1
2696,0
2697,0
2698,0
2699,0
2700,0
2701,7
2702,7
2703,7
2704,7
2705,7
2706,0
2707,0
2708,0
2709,0
2710,0
2711,0
2712,0
2713,0
2714,7
2715,7
2716,6
2717,6
2718,6
2719,2
2720,2
2721,0
2722,3
2723,3
2724,3
2725,4
2726,4
2727,0
2728,0
2729,2
2730,2
2731,2
2732,5
2733,5
2734,5
2735,7
2736,7
2737,7
2738,7
2739,2
2740,4
2741,4
2742,0
2743,0
2744,0
2745,0
2746,2
2747,1
2748,0
2749,0
2750,0
2751,0
2752,1
2753,1
2754,0
2755,0
2756,0
2757,0
2758,0
2759,0
2760,0
2761,0
2762,0
2763,3
2764,3
2765,3
2766,3
2767,3
2768,3
2769,3
2770,0
2771,0
2772,3
2773,3
2774,3
2775,3
2776,0
2777,0
2778,0
2779,0
2780,1
2781,1
2782,1
2783,5
2784,5
2785,5
2786,0
2787,0
2788,0
2789,0
2790,0
2791,0
2792,1
2793,1
2794,1
2795,0
2796,0
2797,3
2798,3
2799,3
2800,3
2801,3
2802,3
2803,3
2804,2
2805,2
2806,4
2807,4
2808,4
2809,4
2810,0
2811,0
2812,4
2813,4
2814,0
2815,1
2816,4
2817,4
2818,0
2819,0
2820,0
2821,6
2822,6
2823,6
2824,6
2825,2
2826,2
2827,1
2828,1
2829,1
2830,7
2831,7
2832,7
2833,7
2834,7
2835,7
2836,7
2837,7
2838,0
2839,0
2840,0
2841,0
2842,0
2843,0
2844,0
2845,0
2846,1
2847,1
2848,1
2849,0
2850,0
2851,0
2852,2
2853,2
2854,2
2855,2
2856,2
2857,2
2858,0
2859,0
2860,0
2861,0
2862,0
2863,0
2864,0
2865,0
2866,0
2867,0
2868,0
2869,1
2870,1
2871,2
2872,2
2873,2
2874,2
2875,2
2876,0
2877,0
2878,0
2879,0
2880,0
2881,0
2882,0
2883,0
2884,0
2885,0
2886,0
2887,0
2888,0
2889,0
2890,0
2891,0
2892,0
2893,0
2894,0
2895,0
2896,0
2897,0
2898,0
2899,0
2900,0
2901,0
2902,0
2903,0
2904,0
2905,0
2906,0
2907,0
2908,0
2909,0
2910,0
2911,0
2912,0
2913,0
2914,2
2915,2
2916,2
2917,4
2918,4
2919,0
2920,0
2921,0
2922,0
2923,0
2924,0
2925,0
2926,0
2927,0
2928,0
2929,0
2930,0
2931,0
2932,0
2933,0
2934,0
2935,0
2936,0
2937,3
2938,3
2939,3
2940,3
2941,3
2942,3
2943,0
2944,0
2945,0
2946,0
2947,0
2948,0
2949,0
2950,0
2951,0
2952,0
2953,3
2954,3
2955,3
2956,3
2957,3
2958,3
2959,3
2960,3
2961,5
2962,5
2963,0
2964,0
2965,0
2966,0
2967,0
2968,0
2969,0
2970,1
2971,1
2972,4
2973,4
2974,4
2975,4
2976,0
2977,0
2978,0
2979,0
2980,1
2981,1
2982,1
2983,1
2984,3
2985,3
2986,8
2987,8
2988,2
2989,2
2990,2
2991,2
2992,8
2993,8
2994,8
2995,8
2996,8
2997,8
2998,4
2999,4
3000,0
3001,0
3002,0
3003,0
3004,0
3005,3
3006,3
3007,3
3008,3
3009,3
3010,2
3011,2
3012,3
3013,3
3014,3
3015,3
3016,1
3017,1
3018,2
3019,6
3020,6
3021,6
3022,6
3023,6
3024,2
3025,2
3026,2
3027,8
3028,8
3029,8
3030,8
3031,0
3032,0
3033,0
3034,0
3035,0
3036,0
3037,8
3038,8
3039,8
3040,8
3041,0
3042,0
3043,0
3044,0
3045,2
3046,2
3047,2
3048,2
3049,4
3050,4
3051,4
3052,4
3053,4
3054,4
3055,4
3056,4
3057,4
3058,1
3059,1
3060,0
3061,0
3062,1
3063,1
3064,1
3065,1
3066,1
3067,0
3068,0
3069,0
3070,0
3071,0
3072,0
3073,0
3074,0
3075,1
3076,1
3077,0
3078,1
3079,1
3080,0
3081,0
3082,0
3083,0
3084,0
3085,0
3086,2
3087,2
3088,2
3089,2
3090,2
3091,1
3092,1
3093,1
3094,0
3095,0
3096,0
3097,2
3098,2
3099,2
3100,0
3101,0
3102,0
3103,0
3104,0
3105,0
3106,0
3107,1
3108,1
3109,1
3110,1
3111,1
3112,1
3113,0
3114,0
3115,0
3116,0
3117,0
3118,0
3119,0
3120,2
3121,2
3122,2
3123,2
3124,2
3125,2
3126,2
3127,0
3128,0
3129,0
3130,0
3131,0
3132,1
3133,0
3134,0
3135,0
3136,0
3137,0
3138,4
3139,4
3140,4
3141,7
3142,7
3143,2
3144,2
3145,2
3146,2
3147,2
3148,1
3149,1
3150,3
3151,3
3152,6
3153,6
3154,0
3155,0
3156,0
3157,3
3158,3
3159,3
3160,2
3161,2
3162,2
3163,0
3164,0
3165,0
3166,0
3167,0
3168,0
3169,0
3170,0
3171,0
3172,1
3173,1
3174,4
3175,4
3176,4
3177,1
3178,1
3179,0
3180,0
3181,0
3182,2
3183,2
3184,2
3185,1
3186,1
3187,1
3188,2
3189,2
3190,2
3191,2
3192,2
3193,0
3194,0
3195,8
3196,8
3197,8
3198,0
3199,0
3200,0
3201,0
3202,0
3203,0
3204,0
3205,0
3206,1
3207,1
3208,1
3209,1
3210,4
3211,4
3212,4
3213,4
3214,0
3215,0
3216,0
3217,0
3218,0
3219,0
3220,0
3221,0
3222,7
3223,7
3224,7
3225,7
3226,0
3227,0
3228,0
3229,0
3230,0
3231,1
3232,1
3233,0
3234,0
3235,0
3236,0
3237,0
3238,0
3239,1
3240,1
3241,1
3242,1
3243,1
3244,1
3245,1
3246,6
3247,6
3248,0
3249,0
3250,4
3251,4
3252,4
3253,3
3254,3
3255,2
3256,1
3257,1
3258,0
3259,0
3260,0
3261,0
3262,3
3263,3
3264,3
3265,0
3266,0
3267,0
3268,0
3269,0
3270,0
3271,0
3272,0
3273,0
3274,2
3275,2
3276,2
3277,6
3278,6
3279,6
3280,2
3281,1
3282,1
3283,1
3284,0
3285,0
3286,0
3287,0
3288,1
3289,1
3290,1
3291,1
3292,1
3293,1
3294,1
3295,1
3296,6
3297,6
3298,4
3299,4
3300,4
3301,2
3302,2
3303,4
3304,4
3305,4
3306,1
3307,1
3308,1
3309,0
3310,0
3311,0
3312,0
3313,6
3314,6
3315,3
3316,3
3317,3
3318,4
3319,4
3320,4
3321,4
3322,0
3323,0
3324,0
3325,0
3326,7
3327,7
3328,7
3329,7
3330,1
3331,1
3332,1
3333,1
3334,0
3335,0
3336,0
3337,1
3338,6
3339,6
3340,6
3341,1
3342,1
3343,1
3344,1
3345,0
3346,3
3347,0
3348,0
3349,0
3350,0
3351,0
3352,0
3353,0
3354,0
3355,0
3356,0
3357,0
3358,0
3359,0
3360,0
3361,7
3362,7
3363,7
3364,7
3365,7
3366,7
3367,3
3368,3
3369,3
3370,3
3371,5
3372,5
3373,5
3374,5
3375,0
3376,0
3377,0
3378,4
3379,4
3380,4
3381,4
3382,4
3383,1
3384,0
3385,0
3386,1
3387,1
3388,1
3389,1
3390,0
3391,0
3392,0
3393,8
3394,8
3395,8
3396,8
3397,0
3398,5
3399,5
3400,5
3401,8
3402,8
3403,8
3404,0
3405,0
3406,0
3407,0
3408,0
3409,0
3410,0
3411,0
3412,0
3413,0
3414,6
3415,6
3416,6
3417,6
3418,6
3419,0
3420,0
3421,0
3422,1
3423,0
3424,0
3425,0
3426,0
3427,0
3428,0
3429,0
3430,0
3431,0
3432,0
3433,0
3434,0
3435,0
3436,0
3437,5
3438,5
3439,4
3440,4
3441,4
3442,4
3443,4
3444,0
3445,0
3446,0
3447,0
3448,0
3449,0
3450,0
3451,0
3452,0
3453,0
3454,0
3455,0
3456,0
3457,0
3458,7
3459,7
3460,7
3461,2
3462,2
3463,2
3464,2
3465,2
3466,2
3467,1
3468,1
3469,1
3470,1
3471,1
3472,1
3473,0
3474,0
3475,0
3476,0
3477,0
3478,0
3479,0
3480,0
3481,2
3482,2
3483,2
3484,2
3485,3
3486,3
3487,4
3488,4
3489,4
3490,4
3491,4
3492,4
3493,4
3494,4
3495,5
3496,5
3497,3
3498,3
3499,3
3500,3
3501,0
3502,0
3503,8
3504,8
3505,0
3506,0
3507,0
3508,0
3509,0
3510,0
3511,0
3512,1
3513,1
3514,0
3515,0
3516,0
3517,0
3518,0
3519,0
3520,0
3521,4
3522,4
3523,4
3524,1
3525,1
3526,1
3527,5
3528,5
3529,5
3530,5
3531,3
3532,3
3533,3
3534,3
3535,0
3536,0
3537,0
3538,0
3539,0
3540,0
3541,1
3542,1
3543,1
3544,1
3545,1
3546,3
3547,3
3548,3
3549,0
3550,0
3551,0
3552,0
3553,1
3554,1
3555,1
3556,1
3557,0
3558,0
3559,0
3560,0
3561,0
3562,5
3563,5
3564,5
3565,5
3566,5
3567,5
3568,4
3569,4
3570,0
3571,0
3572,0
3573,4
3574,4
3575,0
3576,2
3577,2
3578,2
3579,1
3580,1
3581,1
3582,1
3583,1
3584,1
3585,0
3586,0
3587,3
3588,3
3589,3
3590,3
3591,7
3592,7
3593,7
3594,7
3595,7
3596,2
3597,2
3598,2
3599,2
3600,2
3601,2
3602,7
3603,7
3604,7
3605,7
3606,7
3607,2
3608,2
3609,2
3610,2
3611,6
3612,1
3613,1
3614,1
3615,1
3616,0
3617,0
3618,0
3619,3
3620,3
3621,3
3622,1
3623,1
3624,1
3625,0
3626,0
3627,0
3628,0
3629,0
3630,0
3631,0
3632,0
3633,0
3634,0
3635,2
3636,1
3637,1
3638,1
3639,1
3640,0
3641,1
3642,1
3643,1
3644,1
3645,7
3646,0
3647,0
3648,0
3649,0
3650,0
3651,0
3652,5
3653,5
3654,5
3655,5
3656,0
3657,0
3658,0
3659,0
3660,0
3661,0
3662,0
3663,5
3664,5
3665,5
3666,0
3667,0
3668,0
3669,0
3670,0
3671,0
3672,4
3673,4
3674,8
3675,8
3676,8
3677,1
3678,1
3679,1
3680,1
3681,1
3682,0
3683,0
3684,0
3685,0
3686,0
3687,7
3688,7
3689,1
3690,0
3691,0
3692,0
3693,0
3694,0
3695,0
3696,0
3697,0
3698,0
3699,0
3700,0
3701,0
3702,0
3703,0
3704,0
3705,3
3706,3
3707,3
3708,1
3709,1
3710,0
3711,0
3712,0
3713,2
3714,2
3715,1
3716,1
3717,0
3718,0
3719,0
3720,0
3721,0
3722,0
3723,5
3724,5
3725,5
3726,0
3727,0
3728,0
3729,0
3730,0
3731,0
3732,0
3733,0
3734,0
3735,1
3736,1
3737,0
3738,0
3739,0
3740,0
3741,0
3742,0
3743,0
3744,2
3745,2
3746,2
3747,2
3748,1
3749,1
3750,1
3751,1
3752,0
3753,1
3754,1
3755,2
3756,2
3757,2
3758,2
3759,0
3760,0
3761,0
3762,0
3763,0
3764,0
3765,0
3766,0
3767,0
3768,2
3769,2
3770,2
3771,3
3772,3
3773,0
3774,0
3775,0
3776,0
3777,0
3778,0
3779,0
3780,1
3781,1
3782,7
3783,7
3784,7
3785,7
3786,0
3787,0
3788,0
3789,0
3790,0
3791,0
3792,0
3793,0
3794,0
3795,0
3796,3
3797,3
3798,3
3799,3
3800,3
3801,3
3802,3
3803,5
3804,5
3805,5
3806,5
3807,0
3808,0
3809,0
3810,0
3811,0
3812,0
3813,0
3814,0
3815,0
3816,3
3817,3
3818,3
3819,3
3820,5
3821,5
3822,1
3823,1
3824,2
3825,2
3826,2
3827,0
3828,0
3829,4
3830,4
3831,4
3832,4
3833,1
3834,1
3835,1
3836,1
3837,1
3838,2
3839,2
3840,1
3841,0
3842,0
3843,0
3844,0
3845,0
3846,0
3847,0
3848,0
3849,0
3850,0
3851,0
3852,3
3853,3
3854,3
3855,3
3856,3
3857,2
3858,2
3859,2
3860,0
3861,0
3862,0
3863,0
3864,0
3865,0
3866,1
3867,1
3868,0
3869,0
3870,0
3871,0
3872,0
3873,0
3874,4
3875,5
3876,2
3877,2
3878,0
3879,0
3880,0
3881,0
3882,0
3883,0
3884,0
3885,0
3886,0
3887,3
3888,1
3889,1
3890,1
3891,0
3892,0
3893,0
3894,0
3895,0
3896,2
3897,2
3898,0
3899,0
3900,0
3901,0
3902,0
3903,0
3904,0
3905,2
3906,2
3907,0
3908,0
3909,6
3910,6
3911,6
3912,4
3913,4
3914,4
3915,4
3916,1
3917,1
3918,1
3919,0
3920,0
3921,0
3922,0
3923,0
3924,0
3925,0
3926,2
3927,2
3928,6
3929,6
3930,6
3931,6
3932,3
3933,3
3934,3
3935,3
3936,0
3937,0
3938,0
3939,0
3940,0
3941,0
3942,0
3943,0
3944,0
3945,0
3946,0
3947,5
3948,0
3949,0
3950,0
3951,0
3952,1
3953,1
3954,1
3955,0
3956,0
3957,3
3958,3
3959,3
3960,0
3961,0
3962,0
3963,0
3964,0
3965,0
3966,0
3967,0
3968,0
3969,0
3970,0
3971,6
3972,6
3973,6
3974,6
3975,1
3976,1
3977,0
3978,2
3979,2
3980,2
3981,2
3982,2
3983,2
3984,4
3985,4
3986,4
3987,4
3988,4
3989,4
3990,4
3991,4
3992,4
3993,4
3994,4
3995,4
3996,2
3997,2
3998,6
3999,6
4000,0
4001,0
4002,0
4003,1
4004,1
4005,1
4006,2
4007,2
4008,2
4009,2
4010,2
4011,0
4012,0
4013,0
4014,0
4015,0
4016,0
4017,4
4018,4
4019,0
4020,0
4021,0
4022,0
4023,0
4024,0
4025,0
4026,0
4027,7
4028,7
4029,1
4030,1
4031,1
4032,2
4033,2
4034,7
4035,7
4036,4
4037,8
4038,0
4039,0
4040,0
4041,0
4042,0
4043,0
4044,0
4045,0
4046,0
4047,3
4048,3
4049,0
4050,0
4051,0
4052,0
4053,0
4054,0
4055,0
4056,0
4057,5
4058,5
4059,5
4060,5
4061,5
4062,5
4063,5
4064,4
4065,4
4066,4
4067,4
4068,2
4069,2
4070,2
4071,3
4072,3
4073,3
4074,7
4075,7
4076,7
4077,0
4078,1
4079,0
4080,0
4081,0
4082,1
4083,1
4084,7
4085,7
4086,7
4087,0
4088,0
4089,1
4090,1
4091,1
4092,1
4093,1
4094,1
4095,1
4096,1
4097,1
4098,7
4099,7
4100,7
4101,7
4102,7
4103,2
4104,2
4105,0
4106,0
4107,0
4108,0
4109,0
4110,1
4111,1
4112,0
4113,0
4114,6
4115,6
4116,6
4117,6
4118,0
4119,0
4120,0
4121,0
4122,0
4123,3
4124,3
4125,3
4126,3
4127,3
4128,0
4129,0
4130,0
4131,0
4132,0
4133,0
4134,0
4135,1
4136,4
4137,4
4138,4
4139,0
4140,0
4141,8
4142,8
4143,8
4144,8
4145,8
4146,8
4147,8
4148,8
4149,8
4150,6
4151,6
4152,6
4153,6
4154,1
4155,1
4156,3
4157,3
4158,3
4159,3
4160,0
4161,0
4162,0
4163,0
4164,0
4165,0
4166,0
4167,1
4168,1
4169,6
4170,6
4171,0
4172,0
4173,5
4174,5
4175,5
4176,5
4177,1
4178,1
4179,1
4180,2
4181,2
4182,3
4183,6
4184,6
4185,5
4186,5
4187,6
4188,6
4189,5
4190,5
4191,5
4192,5
4193,0
4194,0
4195,0
4196,0
4197,0
4198,0
4199,0
4200,0
4201,0
4202,0
4203,0
4204,0
4205,0
4206,7
4207,5
4208,0
4209,0
4210,0
4211,0
4212,0
4213,0
4214,1
4215,1
4216,2
4217,2
4218,2
4219,2
4220,8
4221,8
4222,0
4223,0
4224,0
4225,1
4226,1
4227,1
4228,1
4229,0
4230,0
4231,0
4232,0
4233,0
4234,2
4235,2
4236,2
4237,0
4238,0
4239,0
4240,0
4241,0
4242,0
4243,1
4244,1
4245,1
4246,1
4247,1
4248,1
4249,1
4250,1
4251,2
4252,2
4253,2
4254,0
4255,0
4256,0
4257,5
4258,5
4259,0
4260,0
4261,0
4262,8
4263,3
4264,3
4265,4
4266,0
4267,2
4268,2
4269,2
4270,2
4271,3
4272,3
4273,3
4274,0
4275,0
4276,0
4277,0
4278,0
4279,0
4280,0
4281,0
4282,0
4283,0
4284,0
4285,1
4286,1
4287,1
4288,1
4289,1
4290,2
4291,1
4292,1
4293,1
4294,1
4295,0
4296,0
4297,3
4298,3
4299,3
4300,3
4301,3
4302,0
4303,0
4304,0
4305,0
4306,0
4307,0
4308,0
4309,0
4310,0
4311,2
4312,2
4313,2
4314,0
4315,0
4316,0
4317,0
4318,0
4319,0
4320,0
4321,0
4322,0
4323,0
4324,0
4325,0
4326,0
4327,0
4328,0
4329,0
4330,1
4331,1
4332,1
4333,1
4334,1
4335,1
4336,1
4337,0
4338,0
4339,0
4340,0
4341,0
4342,0
4343,0
4344,0
4345,0
4346,0
4347,8
4348,8
4349,8
4350,8
4351,5
4352,5
4353,5
4354,5
4355,3
4356,3
4357,5
4358,5
4359,2
4360,2
4361,2
4362,2
4363,2
4364,2
4365,2
4366,2
4367,0
4368,0
4369,0
4370,0
4371,0
4372,0
4373,2
4374,2
4375,2
4376,5
4377,5
4378,5
4379,0
4380,0
4381,0
4382,0
4383,0
4384,0
4385,0
4386,0
4387,0
4388,0
4389,0
4390,3
4391,3
4392,3
4393,3
4394,1
4395,1
4396,1
4397,1
4398,1
4399,1
4400,1
4401,4
4402,4
4403,4
4404,3
4405,3
4406,2
4407,2
4408,2
4409,1
4410,1
4411,1
4412,1
4413,0
4414,0
4415,0
4416,0
4417,0
4418,0
4419,0
4420,0
4421,3
4422,3
4423,0
4424,0
4425,0
4426,0
4427,0
4428,0
4429,0
4430,3
4431,3
4432,0
4433,0
4434,0
4435,4
4436,4
4437,4
4438,3
4439,3
4440,4
4441,4
4442,0
4443,0
4444,0
4445,0
4446,0
4447,0
4448,0
4449,3
4450,3
4451,1
4452,1
4453,1
4454,7
4455,2
4456,2
4457,8
4458,8
4459,8
4460,8
4461,8
4462,0
4463,0
4464,7
4465,7
4466,0
4467,0
4468,0
4469,3
4470,3
4471,3
4472,3
4473,3
4474,3
4475,1
4476,1
4477,1
4478,1
4479,1
4480,8
4481,8
4482,0
4483,0
4484,0
4485,0
4486,0
4487,0
4488,0
4489,0
4490,0
4491,0
4492,0
4493,0
4494,5
4495,0
4496,1
4497,1
4498,0
4499,0
4500,0
4501,2
4502,2
4503,2
4504,2
4505,1
4506,1
4507,8
4508,8
4509,8
4510,8
4511,8
4512,8
4513,6
4514,6
4515,6
4516,4
4517,4
4518,4
4519,4
4520,5
4521,5
4522,5
4523,5
4524,0
4525,0
4526,0
4527,0
4528,0
4529,0
4530,2
4531,2
4532,2
4533,2
4534,2
4535,2
4536,3
4537,3
4538,5
4539,0
4540,0
4541,1
4542,1
4543,1
4544,1
4545,2
4546,4
4547,4
4548,0
4549,0
4550,6
4551,6
4552,3
4553,3
4554,8
4555,8
4556,8
4557,2
4558,2
4559,2
4560,2
4561,1
4562,1
4563,1
4564,1
4565,1
4566,1
4567,1
4568,0
4569,0
4570,3
4571,3
4572,3
4573,3
4574,0
4575,0
4576,0
4577,0
4578,0
4579,0
4580,2
4581,2
4582,2
4583,0
4584,0
4585,0
4586,0
4587,0
4588,2
4589,3
4590,3
4591,1
4592,1
4593,1
4594,1
4595,1
4596,0
4597,7
4598,7
4599,7
4600,7
4601,7
4602,7
4603,7
4604,6
4605,6
4606,6
4607,1
4608,1
4609,0
4610,0
4611,1
4612,1
4613,1
4614,1
4615,0
4616,0
4617,0
4618,0
4619,0
4620,0
4621,0
4622,0
4623,0
4624,0
4625,0
4626,2
4627,2
4628,2
4629,2
4630,2
4631,1
4632,1
4633,1
4634,1
4635,1
4636,1
4637,1
4638,0
4639,0
4640,0
4641,0
4642,0
4643,0
4644,5
4645,5
4646,5
4647,5
4648,1
4649,1
4650,1
4651,1
4652,2
4653,2
4654,2
4655,2
4656,7
4657,7
4658,7
4659,2
4660,2
4661,2
4662,3
4663,3
4664,3
4665,3
4666,0
4667,0
4668,0
4669,0
4670,0
4671,0
4672,3
4673,3
4674,3
4675,3
4676,4
4677,3
4678,3
4679,1
4680,1
4681,1
4682,1
4683,1
4684,2
4685,2
4686,2
4687,2
4688,0
4689,0
4690,1
4691,0
4692,0
4693,0
4694,0
4695,0
4696,1
4697,1
4698,2
4699,2
4700,2
4701,0
4702,0
4703,2
4704,2
4705,1
4706,1
4707,0
4708,0
4709,8
4710,8
4711,8
4712,1
4713,1
4714,1
4715,1
4716,0
4717,0
4718,0
4719,0
4720,0
4721,0
4722,0
4723,0
4724,0
4725,0
4726,0
4727,2
4728,2
4729,2
4730,2
4731,1
4732,1
4733,1
4734,0
4735,0
4736,0
4737,0
4738,0
4739,0
4740,0
4741,0
4742,0
4743,0
4744,0
4745,0
4746,0
4747,5
4748,5
4749,5
4750,5
4751,5
4752,0
4753,2
4754,2
4755,2
4756,2
4757,7
4758,7
4759,7
4760,7
4761,0
4762,0
4763,0
4764,0
4765,0
4766,0
4767,0
4768,0
4769,0
4770,0
4771,0
4772,3
4773,3
4774,0
4775,0
4776,0
4777,0
4778,0
4779,1
4780,1
4781,0
4782,0
4783,0
4784,0
4785,0
4786,0
4787,0
4788,5
4789,5
4790,0
4791,2
4792,2
4793,2
4794,1
4795,1
4796,1
4797,1
4798,0
4799,0
4800,0
4801,0
4802,0
4803,0
4804,0
4805,0
4806,7
4807,7
4808,4
4809,4
4810,4
4811,4
4812,4
4813,4
4814,4
4815,0
4816,0
4817,0
4818,0
4819,0
4820,0
4821,0
4822,0
4823,1
4824,1
4825,1
4826,1
4827,5
4828,5
4829,5
4830,5
4831,3
4832,3
4833,3
4834,5
4835,5
4836,5
4837,0
4838,0
4839,0
4840,0
4841,0
4842,0
4843,0
4844,5
4845,0
4846,0
4847,0
4848,8
4849,8
4850,0
4851,0
4852,0
4853,0
4854,0
4855,0
4856,0
4857,0
4858,0
4859,0
4860,0
4861,0
4862,0
4863,0
4864,5
4865,5
4866,5
4867,2
4868,2
4869,2
4870,0
4871,0
4872,0
4873,2
4874,2
4875,2
4876,2
4877,2
4878,3
4879,3
4880,6
4881,6
4882,6
4883,0
4884,0
4885,0
4886,0
4887,0
4888,0
4889,0
4890,0
4891,0
4892,5
4893,5
4894,5
4895,5
4896,0
4897,0
4898,1
4899,1
4900,2
4901,2
4902,2
4903,2
4904,2
4905,2
4906,0
4907,0
4908,0
4909,5
4910,5
4911,5
4912,0
4913,0
4914,0
4915,3
4916,3
4917,3
4918,3
4919,3
4920,3
4921,2
4922,2
4923,2
4924,2
4925,7
4926,7
4927,7
4928,2
4929,2
4930,2
4931,2
4932,2
4933,0
4934,0
4935,0
4936,0
4937,0
4938,0
4939,0
4940,0
4941,0
4942,0
4943,0
4944,0
4945,1
4946,1
4947,1
4948,0
4949,0
4950,0
4951,0
4952,0
4953,0
4954,2
4955,2
4956,6
4957,6
4958,6
4959,1
4960,1
4961,1
4962,1
4963,0
4964,0
4965,0
4966,0
4967,0
4968,5
4969,2
4970,2
4971,7
4972,7
4973,7
4974,0
4975,0
4976,0
4977,0
4978,1
4979,1
4980,1
4981,1
4982,1
4983,1
4984,1
4985,1
4986,1
4987,1
4988,1
4989,2
4990,2
4991,2
4992,2
4993,2
4994,0
4995,7
4996,7
4997,7
4998,2
4999,2
5000,2
5001,0
5002,0
5003,0
5004,0
5005,6
5006,6
5007,6
5008,6
5009,4
5010,2
5011,3
5012,3
5013,3
5014,3
5015,0
5016,0
5017,0
5018,0
5019,0
5020,0
5021,0
5022,0
5023,0
5024,0
5025,1
5026,1
5027,1
5028,1
5029,2
5030,2
5031,0
5032,0
5033,0
5034,0
5035,0
5036,0
5037,0
5038,0
5039,0
5040,0
5041,0
5042,0
5043,0
5044,0
5045,0
5046,6
5047,6
5048,6
5049,6
5050,6
5051,6
5052,2
5053,2
5054,2
5055,2
5056,2
5057,2
5058,6
5059,6
5060,1
5061,1
5062,0
5063,0
5064,5
5065,5
5066,5
5067,5
5068,6
5069,6
5070,6
5071,1
5072,1
5073,1
5074,1
5075,4
5076,0
5077,0
5078,0
5079,1
5080,7
5081,7
5082,7
5083,7
5084,1
5085,0
5086,1
5087,1
5088,1
5089,4
5090,4
5091,0
5092,0
5093,0
5094,0
5095,0
5096,0
5097,0
5098,0
5099,2
5100,2
5101,2
5102,2
5103,2
5104,2
5105,4
5106,4
5107,0
5108,1
5109,1
5110,1
5111,1
5112,1
5113,4
5114,4
5115,4
5116,1
5117,1
5118,1
5119,6
5120,6
5121,6
5122,6
5123,6
5124,1
5125,0
5126,0
5127,0
5128,1
5129,1
5130,1
5131,1
5132,2
5133,0
5134,0
5135,0
5136,0
5137,0
5138,0
5139,0
5140,2
5141,2
5142,1
5143,1
5144,1
5145,5
5146,5
5147,5
5148,5
5149,5
5150,5
5151,5
5152,0
5153,0
5154,0
5155,0
5156,0
5157,0
5158,1
5159,1
5160,1
5161,1
5162,1
5163,0
5164,0
5165,0
5166,0
5167,0
5168,0
5169,0
5170,0
5171,0
5172,0
5173,0
5174,0
5175,0
5176,0
5177,3
5178,3
5179,3
5180,3
5181,0
5182,0
5183,0
5184,3
5185,3
5186,3
5187,3
5188,1
5189,4
5190,4
5191,0
5192,0
5193,0
5194,0
5195,0
5196,0
5197,0
5198,0
5199,0
5200,0
5201,0
5202,0
5203,0
5204,0
5205,0
5206,3
5207,3
5208,3
5209,1
5210,1
5211,1
5212,0
5213,0
5214,0
5215,0
5216,0
5217,0
5218,0
5219,0
5220,0
5221,0
5222,0
5223,0
5224,5
5225,5
5226,5
5227,5
5228,1
5229,1
5230,1
5231,1
5232,1
5233,1
5234,1
5235,1
5236,1
5237,7
5238,7
5239,0
5240,0
5241,0
5242,0
5243,0
5244,1
5245,1
5246,1
5247,1
5248,4
5249,4
5250,5
5251,5
5252,0
5253,0
5254,0
5255,0
5256,0
5257,0
5258,0
5259,0
5260,0
5261,1
5262,1
5263,1
5264,1
5265,1
5266,3
5267,3
5268,0
5269,0
5270,0
5271,5
5272,5
5273,5
5274,3
5275,3
5276,3
5277,3
5278,3
5279,3
5280,3
5281,0
5282,0
5283,0
5284,0
5285,2
5286,0
5287,0
5288,0
5289,1
5290,1
5291,0
5292,0
5293,0
5294,3
5295,0
5296,0
5297,0
5298,0
5299,0
5300,0
5301,0
5302,0
5303,0
5304,0
5305,0
5306,0
5307,1
5308,1
5309,1
5310,1
5311,0
5312,0
5313,0
5314,0
5315,2
5316,0
5317,8
5318,4
5319,4
5320,4
5321,4
5322,4
5323,4
5324,0
5325,0
5326,0
5327,0
5328,0
5329,0
5330,2
5331,2
5332,2
5333,1
5334,1
5335,1
5336,4
5337,4
5338,1
5339,1
5340,1
5341,1
5342,0
5343,0
5344,0
5345,1
5346,1
5347,1
5348,3
5349,3
5350,6
5351,3
5352,3
5353,0
5354,0
5355,0
5356,0
5357,0
5358,5
5359,0
5360,0
5361,7
5362,7
5363,7
5364,3
5365,3
5366,3
5367,3
5368,3
5369,0
5370,0
5371,0
5372,0
5373,0
5374,0
5375,1
5376,1
5377,0
5378,0
5379,0
5380,0
5381,0
5382,0
5383,6
5384,1
5385,1
5386,1
5387,1
5388,3
5389,3
5390,3
5391,3
5392,0
5393,0
5394,0
5395,0
5396,0
5397,0
5398,0
5399,0
5400,0
5401,0
5402,2
5403,2
5404,2
5405,2
5406,0
5407,0
5408,0
5409,0
5410,0
5411,3
5412,3
5413,0
5414,0
5415,0
5416,0
5417,3
5418,3
5419,3
5420,3
5421,3
5422,3
5423,6
5424,6
5425,6
5426,6
5427,6
5428,5
5429,5
5430,0
5431,0
5432,0
5433,1
5434,1
5435,1
5436,1
5437,1
5438,1
5439,3
5440,3
5441,3
5442,3
5443,6
5444,6
5445,6
5446,6
5447,0
5448,0
5449,0
5450,1
5451,1
5452,2
5453,2
5454,0
5455,0
5456,1
5457,0
5458,0
5459,0
5460,0
5461,3
5462,3
5463,3
5464,3
5465,0
5466,0
5467,0
5468,0
5469,0
5470,0
5471,6
5472,6
5473,6
5474,0
5475,0
5476,0
5477,0
5478,0
5479,0
5480,0
5481,0
5482,0
5483,0
5484,0
5485,1
5486,1
5487,1
5488,1
5489,0
5490,0
5491,0
5492,0
5493,0
5494,0
5495,0
5496,0
5497,0
5498,0
5499,0
5500,0
5501,0
5502,0
5503,0
5504,0
5505,0
5506,3
5507,3
5508,3
5509,1
5510,1
5511,2
5512,2
5513,2
5514,2
5515,3
5516,3
5517,3
5518,3
5519,3
5520,3
5521,0
5522,0
5523,0
5524,0
5525,1
5526,1
5527,1
5528,1
5529,7
5530,0
5531,0
5532,0
5533,0
5534,0
5535,0
5536,0
5537,0
5538,0
5539,0
5540,0
5541,0
5542,0
5543,0
5544,2
5545,2
5546,2
5547,7
5548,7
5549,4
5550,4
5551,4
5552,4
5553,1
5554,1
5555,1
5556,1
5557,0
5558,0
5559,0
5560,0
5561,0
5562,0
5563,1
5564,1
5565,1
5566,1
5567,1
5568,0
5569,0
5570,0
5571,0
5572,0
5573,0
5574,0
5575,4
5576,4
5577,4
5578,4
5579,0
5580,0
5581,0
5582,0
5583,0
5584,0
5585,0
5586,0
5587,0
5588,0
5589,5
5590,5
5591,5
5592,5
5593,5
5594,1
5595,1
5596,1
5597,1
5598,1
5599,0
5600,0
5601,0
5602,0
5603,0
5604,0
5605,0
5606,4
5607,4
5608,7
5609,7
5610,0
5611,0
5612,0
5613,0
5614,0
5615,0
5616,6
5617,1
5618,1
5619,1
5620,1
5621,1
5622,3
5623,3
5624,3
5625,3
5626,3
5627,0
5628,0
5629,0
5630,0
5631,0
5632,0
5633,0
5634,6
5635,0
5636,0
5637,0
5638,0
5639,2
5640,2
5641,2
5642,2
5643,2
5644,2
5645,0
5646,6
5647,6
5648,6
5649,4
5650,0
5651,0
5652,0
5653,8
5654,8
5655,2
5656,2
5657,2
5658,2
5659,0
5660,0
5661,0
5662,0
5663,0
5664,1
5665,1
5666,3
5667,0
5668,0
5669,2
5670,2
5671,2
5672,0
5673,0
5674,0
5675,0
5676,0
5677,0
5678,0
5679,0
5680,0
5681,0
5682,0
5683,0
5684,2
5685,2
5686,2
5687,2
5688,2
5689,0
5690,0
5691,0
5692,4
5693,4
5694,4
5695,4
5696,4
5697,0
5698,0
5699,0
5700,3
5701,3
5702,3
5703,3
5704,2
5705,2
5706,2
5707,2
5708,2
5709,7
5710,7
5711,7
5712,7
5713,7
5714,3
5715,3
5716,4
5717,4
5718,7
5719,7
5720,7
5721,7
5722,7
5723,0
5724,0
5725,0
5726,0
5727,0
5728,3
5729,3
5730,3
5731,1
5732,1
5733,1
5734,1
5735,1
5736,1
5737,1
5738,1
5739,0
5740,0
5741,0
5742,0
5743,0
5744,0
5745,0
5746,0
5747,0
5748,0
5749,1
5750,1
5751,1
5752,1
5753,0
5754,0
5755,2
5756,0
5757,4
5758,4
5759,4
5760,2
5761,2
5762,1
5763,1
5764,1
5765,1
5766,1
5767,1
5768,1
5769,2
5770,2
5771,2
5772,2
5773,2
5774,2
5775,2
5776,2
5777,0
5778,0
5779,0
5780,0
5781,0
5782,0
5783,0
5784,0
5785,0
5786,0
5787,0
5788,5
5789,5
5790,5
5791,0
5792,0
5793,0
5794,2
5795,2
5796,2
5797,2
5798,3
5799,3
5800,3
5801,3
5802,3
5803,3
5804,2
5805,2
5806,2
5807,2
5808,2
5809,2
5810,4
5811,4
5812,1
5813,1
5814,0
5815,0
5816,0
5817,1
5818,1
5819,1
5820,1
5821,1
5822,3
5823,3
5824,3
5825,3
5826,3
5827,6
5828,6
5829,6
5830,6
5831,1
5832,1
5833,1
5834,1
5835,1
5836,1
5837,1
5838,0
5839,0
5840,0
5841,0
5842,3
5843,0
5844,0
5845,0
5846,0
5847,0
5848,0
5849,0
5850,8
5851,0
5852,0
5853,0
5854,0
5855,0
5856,6
5857,6
5858,3
5859,3
5860,0
5861,0
5862,0
5863,0
5864,0
5865,0
5866,0
5867,0
5868,0
5869,1
5870,1
5871,1
5872,1
5873,1
5874,1
5875,0
5876,0
5877,2
5878,2
5879,0
5880,0
5881,0
5882,0
5883,0
5884,0
5885,0
5886,0
5887,0
5888,0
5889,0
5890,0
5891,1
5892,1
5893,1
5894,0
5895,0
5896,0
5897,0
5898,3
5899,3
5900,3
5901,3
5902,8
5903,8
5904,8
5905,0
5906,0
5907,4
5908,4
5909,4
5910,4
5911,1
5912,1
5913,1
5914,2
5915,2
5916,2
5917,2
5918,2
5919,2
5920,2
5921,2
5922,0
5923,0
5924,0
5925,0
5926,0
5927,0
5928,0
5929,0
5930,0
5931,3
5932,3
5933,3
5934,3
5935,2
5936,2
5937,2
5938,2
5939,2
5940,1
5941,1
5942,1
5943,1
5944,1
5945,1
5946,0
5947,5
5948,5
5949,5
5950,5
5951,5
5952,2
5953,2
5954,2
5955,2
5956,2
5957,2
5958,0
5959,0
5960,0
5961,0
5962,0
5963,0
5964,0
5965,0
5966,1
5967,1
5968,1
5969,1
5970,0
5971,0
5972,0
5973,0
5974,0
5975,0
5976,1
5977,1
5978,1
5979,3
5980,3
5981,3
5982,3
5983,0
5984,0
5985,6
5986,6
5987,1
5988,1
5989,1
5990,1
5991,0
5992,0
5993,0
5994,6
5995,6
5996,6
5997,0
5998,0
5999,0
6000,0
6001,3
6002,3
6003,0
6004,0
6005,0
6006,0
6007,0
6008,1
6009,1
6010,2
6011,3
6012,3
6013,3
6014,2
6015,2
6016,2
6017,1
6018,1
6019,1
6020,2
6021,2
6022,2
6023,7
6024,7
6025,0
6026,0
6027,0
6028,0
6029,0
6030,1
6031,1
6032,1
6033,3
6034,3
6035,0
6036,0
6037,0
6038,0
6039,0
6040,0
6041,0
6042,3
6043,3
6044,3
6045,1
6046,1
6047,7
6048,7
6049,7
6050,7
6051,0
6052,0
6053,0
6054,0
6055,0
6056,0
6057,0
6058,0
6059,0
6060,0
6061,0
6062,1
6063,1
6064,1
6065,1
6066,1
6067,0
6068,0
6069,0
6070,0
6071,0
6072,0
6073,0
6074,3
6075,3
6076,5
6077,5
6078,0
6079,0
6080,0
6081,0
6082,0
6083,0
6084,0
6085,0
6086,0
6087,1
6088,1
6089,1
6090,1
6091,2
6092,2
6093,1
6094,1
6095,0
6096,0
6097,5
6098,5
6099,2
6100,2
6101,2
6102,2
6103,2
6104,3
6105,3
6106,3
6107,3
6108,8
6109,1
6110,4
6111,4
6112,4
6113,4
6114,4
6115,1
6116,1
6117,1
6118,1
6119,0
6120,0
6121,2
6122,2
6123,0
6124,0
6125,0
6126,0
6127,0
6128,0
6129,0
6130,0
6131,1
6132,1
6133,4
6134,4
6135,4
6136,4
6137,1
6138,1
6139,1
6140,3
6141,3
6142,0
6143,5
6144,5
6145,5
6146,5
6147,1
6148,1
6149,1
6150,0
6151,0
6152,0
6153,2
6154,2
6155,2
6156,2
6157,2
6158,2
6159,6
6160,6
6161,6
6162,6
6163,6
6164,6
6165,6
6166,6
6167,1
6168,1
6169,1
6170,1
6171,0
6172,0
6173,0
6174,0
6175,2
6176,2
6177,2
6178,2
6179,2
6180,8
6181,8
6182,8
6183,8
6184,0
6185,0
6186,0
6187,0
6188,0
6189,0
6190,0
6191,3
6192,3
6193,0
6194,0
6195,0
6196,0
6197,6
6198,6
6199,6
6200,6
6201,6
6202,6
6203,6
6204,6
6205,6
6206,2
6207,2
6208,2
6209,2
6210,2
6211,5
6212,5
6213,1
6214,1
6215,1
6216,5
6217,5
6218,5
6219,5
6220,0
6221,0
6222,0
6223,0
6224,0
6225,0
6226,0
6227,0
6228,0
6229,4
6230,4
6231,4
6232,0
6233,0
6234,0
6235,0
6236,0
6237,0
6238,3
6239,3
6240,3
6241,3
6242,3
6243,3
6244,3
6245,7
6246,1
6247,1
6248,1
6249,1
6250,1
6251,2
6252,2
6253,2
6254,2
6255,3
6256,3
6257,5
6258,5
6259,0
6260,0
6261,0
6262,0
6263,5
6264,5
6265,5
6266,5
6267,5
6268,2
6269,2
6270,2
6271,2
6272,2
6273,2
6274,2
6275,2
6276,1
6277,1
6278,1
6279,3
6280,3
6281,2
6282,0
6283,0
6284,0
6285,0
6286,3
6287,3
6288,3
6289,1
6290,1
6291,0
6292,0
6293,0
6294,7
6295,7
6296,7
6297,1
6298,1
6299,1
6300,4
6301,4
6302,0
6303,0
6304,1
6305,1
6306,1
6307,1
6308,1
6309,1
6310,5
6311,5
6312,5
6313,2
6314,2
6315,2
6316,2
6317,1
6318,3
6319,3
6320,3
6321,0
6322,0
6323,0
6324,0
6325,0
6326,0
6327,0
6328,8
6329,8
6330,4
6331,4
6332,4
6333,4
6334,1
6335,1
6336,1
6337,1
6338,1
6339,1
6340,1
6341,1
6342,0
6343,0
6344,0
6345,0
6346,0
6347,0
6348,0
6349,0
6350,0
6351,0
6352,0
6353,0
6354,0
6355,0
6356,8
6357,8
6358,4
6359,4
6360,5
6361,5
6362,2
6363,2
6364,2
6365,2
6366,1
6367,1
6368,1
6369,2
6370,2
6371,2
6372,2
6373,2
6374,0
6375,0
6376,0
6377,0
6378,3
6379,3
6380,3
6381,0
6382,0
6383,0
6384,0
6385,0
6386,5
6387,5
6388,5
6389,5
6390,5
6391,0
6392,0
6393,0
6394,0
6395,0
6396,2
6397,1
6398,1
6399,1
6400,1
6401,0
6402,1
6403,0
6404,0
6405,0
6406,0
6407,0
6408,0
6409,3
6410,3
6411,3
6412,3
6413,0
6414,0
6415,0
6416,8
6417,8
6418,8
6419,8
6420,2
6421,2
6422,2
6423,2
6424,2
6425,3
6426,3
6427,3
6428,0
6429,0
6430,6
6431,4
6432,4
6433,1
6434,1
6435,1
6436,1
6437,1
6438,2
6439,2
6440,5
6441,5
6442,5
6443,0
6444,0
6445,0
6446,8
6447,8
6448,8
6449,5
6450,5
6451,5
6452,5
6453,5
6454,2
6455,2
6456,2
6457,2
6458,2
6459,2
6460,4
6461,4
6462,4
6463,4
6464,4
6465,1
6466,1
6467,1
6468,1
6469,1
6470,0
6471,0
6472,0
6473,0
6474,0
6475,5
6476,5
6477,5
6478,5
6479,6
6480,6
6481,6
6482,6
6483,2
6484,2
6485,2
6486,2
6487,2
6488,2
6489,8
6490,8
6491,8
6492,5
6493,5
6494,5
6495,0
6496,0
6497,0
6498,0
6499,0
6500,0
6501,0
6502,3
6503,3
6504,3
6505,3
6506,8
6507,8
6508,8
6509,0
6510,0
6511,0
6512,0
6513,0
6514,3
6515,3
6516,7
6517,7
6518,7
6519,1
6520,1
6521,1
6522,1
6523,1
6524,3
6525,3
6526,3
6527,2
6528,2
6529,2
6530,5
6531,5
6532,5
6533,5
6534,0
6535,0
6536,0
6537,0
6538,0
6539,2
6540,3
6541,3
6542,3
6543,3
6544,2
6545,2
6546,2
6547,4
6548,4
6549,4
6550,4
6551,4
6552,1
6553,1
6554,1
6555,0
6556,0
6557,0
6558,0
6559,0
6560,0
6561,0
6562,2
6563,2
6564,5
6565,0
6566,0
6567,0
6568,0
6569,0
6570,2
6571,2
6572,2
6573,0
6574,0
6575,0
6576,0
6577,1
6578,1
6579,1
6580,0
6581,0
6582,0
6583,0
6584,2
6585,2
6586,2
6587,5
6588,5
6589,5
6590,3
6591,0
6592,0
6593,0
6594,0
6595,0
6596,7
6597,7
6598,7
6599,7
6600,2
6601,2
6602,2
6603,2
6604,2
6605,2
6606,0
6607,1
6608,1
6609,1
6610,3
6611,3
6612,3
6613,6
6614,0
6615,0
6616,5
6617,5
6618,8
6619,2
6620,2
6621,2
6622,6
6623,6
6624,5
6625,5
6626,5
6627,1
6628,1
6629,1
6630,1
6631,1
6632,0
6633,0
6634,0
6635,0
6636,0
6637,1
6638,1
6639,1
6640,1
6641,1
6642,1
6643,1
6644,0
6645,0
6646,0
6647,3
6648,0
6649,0
6650,0
6651,0
6652,0
6653,0
6654,0
6655,0
6656,0
6657,0
6658,1
6659,1
6660,2
6661,2
6662,2
6663,3
6664,3
6665,3
6666,3
6667,3
6668,1
6669,1
6670,1
6671,1
6672,1
6673,2
6674,2
6675,2
6676,2
6677,0
6678,0
6679,0
6680,7
6681,7
6682,7
6683,0
6684,0
6685,0
6686,0
6687,0
6688,0
6689,0
6690,0
6691,0
6692,0
6693,0
6694,3
6695,3
6696,3
6697,3
6698,1
6699,1
6700,1
6701,1
6702,1
6703,2
6704,2
6705,2
6706,2
6707,0
6708,0
6709,0
6710,0
6711,0
6712,0
6713,0
6714,0
6715,3
6716,3
6717,3
6718,0
6719,0
6720,0
6721,0
6722,0
6723,4
6724,3
6725,3
6726,3
6727,3
6728,8
6729,8
6730,8
6731,8
6732,1
6733,1
6734,1
6735,1
6736,1
6737,1
6738,3
6739,3
6740,3
6741,3
6742,0
6743,0
6744,0
6745,0
6746,0
6747,1
6748,1
6749,1
6750,6
6751,6
6752,7
6753,7
6754,3
6755,0
6756,0
6757,0
6758,2
6759,1
6760,1
6761,0
6762,0
6763,1
6764,1
6765,1
6766,1
6767,1
6768,1
6769,1
6770,1
6771,0
6772,0
6773,0
6774,5
6775,5
6776,5
6777,5
6778,1
6779,8
6780,0
6781,6
6782,6
6783,4
6784,4
6785,4
6786,3
6787,3
6788,3
6789,3
6790,3
6791,8
6792,8
6793,0
6794,0
6795,0
6796,0
6797,0
6798,0
6799,1
6800,1
6801,1
6802,1
6803,1
6804,1
6805,1
6806,1
6807,1
6808,0
6809,1
6810,1
6811,4
6812,4
6813,7
6814,7
6815,7
6816,0
6817,0
6818,0
6819,0
6820,0
6821,0
6822,0
6823,0
6824,0
6825,4
6826,4
6827,0
6828,0
6829,0
6830,0
6831,1
6832,1
6833,1
6834,1
6835,1
6836,0
6837,0
6838,1
6839,2
6840,2
6841,4
6842,4
6843,3
6844,3
6845,3
6846,3
6847,3
6848,1
6849,1
6850,1
6851,2
6852,2
6853,2
6854,0
6855,0
6856,0
6857,0
6858,0
6859,0
6860,7
6861,7
6862,7
6863,7
6864,1
6865,1
6866,1
6867,1
6868,1
6869,4
6870,4
6871,4
6872,8
6873,8
6874,8
6875,8
6876,2
6877,2
6878,2
6879,5
6880,5
6881,0
6882,0
6883,0
6884,0
6885,3
6886,8
6887,8
6888,4
6889,0
6890,0
6891,0
6892,1
6893,1
6894,6
6895,6
6896,0
6897,0
6898,0
6899,0
6900,0
6901,1
6902,1
6903,1
6904,1
6905,0
6906,0
6907,4
6908,4
6909,7
6910,0
6911,0
6912,4
6913,4
6914,4
6915,4
6916,2
6917,2
6918,2
6919,2
6920,2
6921,0
6922,0
6923,0
6924,0
6925,0
6926,0
6927,0
6928,0
6929,1
6930,1
6931,4
6932,4
6933,4
6934,4
6935,4
6936,0
6937,0
6938,0
6939,0
6940,0
6941,0
6942,0
6943,2
6944,2
6945,2
6946,2
6947,2
6948,3
6949,3
6950,3
6951,2
6952,2
6953,2
6954,2
6955,4
6956,4
6957,0
6958,0
6959,0
6960,0
6961,0
6962,1
6963,0
6964,0
6965,1
6966,1
6967,1
6968,1
6969,0
6970,0
6971,0
6972,1
6973,1
6974,1
6975,1
6976,0
6977,0
6978,0
6979,3
6980,3
6981,3
6982,3
6983,0
6984,0
6985,0
6986,0
6987,8
6988,3
6989,3
6990,3
6991,1
6992,1
6993,1
6994,1
6995,2
6996,2
6997,2
6998,2
6999,2
7000,0
7001,0
7002,0
7003,0
7004,0
7005,0
7006,0
7007,3
7008,3
7009,0
7010,0
7011,0
7012,0
7013,0
7014,0
7015,0
7016,0
7017,0
7018,0
7019,3
7020,3
7021,3
7022,3
7023,1
7024,1
7025,1
7026,1
7027,1
7028,0
7029,0
7030,0
7031,0
7032,0
7033,0
7034,0
7035,0
7036,0
7037,0
7038,4
7039,4
7040,7
7041,7
7042,7
7043,7
7044,7
7045,1
7046,1
7047,1
7048,1
7049,2
7050,2
7051,2
7052,2
7053,1
7054,1
7055,1
7056,1
7057,1
7058,1
7059,1
7060,1
7061,1
7062,1
7063,0
7064,1
7065,1
7066,1
7067,1
7068,5
7069,5
7070,8
7071,8
7072,0
7073,0
7074,0
7075,0
7076,0
7077,7
7078,7
7079,7
7080,5
7081,5
7082,5
7083,0
7084,5
7085,5
7086,5
7087,5
7088,0
7089,0
7090,0
7091,0
7092,0
7093,0
7094,1
7095,1
7096,1
7097,0
7098,0
7099,0
7100,0
7101,0
7102,0
7103,0
7104,0
7105,0
7106,0
7107,2
7108,2
7109,2
7110,2
7111,0
7112,1
7113,1
7114,1
7115,2
7116,2
7117,2
7118,0
7119,0
7120,0
7121,0
7122,0
7123,0
7124,0
7125,0
7126,1
7127,1
7128,1
7129,1
7130,0
7131,0
7132,0
7133,0
7134,0
7135,0
7136,0
7137,0
7138,0
7139,0
7140,0
7141,0
7142,0
7143,0
7144,0
7145,0
7146,0
7147,0
7148,0
7149,7
7150,7
7151,7
7152,1
7153,1
7154,1
7155,1
7156,0
7157,0
7158,0
7159,1
7160,1
7161,0
7162,0
7163,0
7164,0
7165,0
7166,0
7167,0
7168,0
7169,1
7170,6
7171,0
7172,0
7173,0
7174,0
7175,0
7176,1
7177,1
7178,2
7179,2
7180,2
7181,2
7182,0
7183,3
7184,3
7185,3
7186,1
7187,1
7188,7
7189,7
7190,7
7191,7
7192,7
7193,0
7194,0
7195,0
7196,0
7197,0
7198,0
7199,0
7200,0
7201,0
7202,0
7203,0
7204,0
7205,0
7206,0
7207,0
7208,0
7209,1
7210,1
7211,1
7212,1
7213,7
7214,7
7215,0
7216,0
7217,0
7218,0
7219,0
7220,6
7221,6
7222,6
7223,6
7224,2
7225,2
7226,2
7227,2
7228,2
7229,2
7230,2
7231,2
7232,2
7233,2
7234,2
7235,2
7236,8
7237,0
7238,0
7239,1
7240,1
7241,1
7242,3
7243,3
7244,0
7245,0
7246,0
7247,0
7248,0
7249,0
7250,0
7251,0
7252,0
7253,0
7254,0
7255,0
7256,0
7257,0
7258,0
7259,0
7260,0
7261,0
7262,0
7263,0
7264,0
7265,2
7266,2
7267,2
7268,0
7269,0
7270,0
7271,0
7272,0
7273,0
7274,7
7275,7
7276,7
7277,1
7278,1
7279,1
7280,1
7281,1
7282,6
7283,6
7284,6
7285,0
7286,0
7287,0
7288,0
7289,0
7290,0
7291,0
7292,0
7293,6
7294,6
7295,2
7296,2
7297,2
7298,2
7299,4
7300,4
7301,4
7302,2
7303,0
7304,0
7305,0
7306,5
7307,5
7308,5
7309,0
7310,0
7311,1
7312,1
7313,1
7314,1
7315,0
7316,0
7317,0
7318,0
7319,0
7320,0
7321,0
7322,0
7323,1
7324,1
7325,1
7326,1
7327,0
7328,2
7329,2
7330,2
7331,7
7332,7
7333,7
7334,7
7335,7
7336,0
7337,0
7338,0
7339,0
7340,0
7341,0
7342,0
7343,0
7344,0
7345,0
7346,0
7347,7
7348,7
7349,0
7350,0
7351,0
7352,1
7353,1
7354,0
7355,0
7356,3
7357,3
7358,3
7359,6
7360,6
7361,6
7362,0
7363,0
7364,0
7365,0
7366,0
7367,3
7368,3
7369,3
7370,3
7371,3
7372,3
7373,3
7374,3
7375,0
7376,0
7377,0
7378,0
7379,0
7380,0
7381,0
7382,7
7383,7
7384,7
7385,0
7386,0
7387,0
7388,0
7389,6
7390,6
7391,0
7392,0
7393,3
7394,3
7395,1
7396,1
7397,1
7398,0
7399,0
7400,0
7401,0
7402,0
7403,0
7404,0
7405,0
7406,0
7407,0
7408,0
7409,0
7410,0
7411,0
7412,0
7413,0
7414,0
7415,1
7416,1
7417,1
7418,0
7419,0
7420,2
7421,2
7422,2
7423,2
7424,2
7425,0
7426,0
7427,0
7428,0
7429,0
7430,5
7431,5
7432,1
7433,1
7434,0
7435,0
7436,3
7437,3
7438,3
7439,3
7440,5
7441,5
7442,5
7443,0
7444,0
7445,0
7446,0
7447,5
7448,5
7449,2
7450,2
7451,2
7452,2
7453,2
7454,2
7455,2
7456,0
7457,1
7458,1
7459,1
7460,1
7461,1
7462,1
7463,1
7464,1
7465,1
7466,1
7467,0
7468,0
7469,0
7470,0
7471,0
7472,0
7473,3
7474,3
7475,3
7476,3
7477,3
7478,0
7479,0
7480,0
7481,0
7482,0
7483,1
7484,1
7485,1
7486,0
7487,0
7488,5
7489,5
7490,0
7491,0
7492,0
7493,0
7494,0
7495,1
7496,1
7497,1
7498,7
7499,7
7500,1
7501,1
7502,1
7503,1
7504,4
7505,4
7506,4
7507,4
7508,4
7509,4
7510,4
7511,3
7512,3
7513,3
7514,3
7515,1
7516,1
7517,6
7518,6
7519,4
7520,4
7521,0
7522,0
7523,0
7524,0
7525,0
7526,0
7527,0
7528,0
7529,0
7530,0
7531,0
7532,0
7533,0
7534,0
7535,0
7536,1
7537,1
7538,1
7539,1
7540,1
7541,1
7542,1
7543,1
7544,1
7545,0
7546,0
7547,0
7548,0
7549,0
7550,0
7551,0
7552,1
7553,1
7554,4
7555,8
7556,8
7557,2
7558,2
7559,3
7560,3
7561,0
7562,0
7563,0
7564,0
7565,0
7566,0
7567,0
7568,1
7569,1
7570,1
7571,1
7572,1
7573,1
7574,0
7575,0
7576,5
7577,5
7578,5
