:START_ID(Entity-ID),:END_ID(Entity-ID)
3,1
4,0
5,2
7,5
8,2
13,4
18,5
20,16
23,7
25,14
31,4
32,13
34,11
35,2
38,29
39,29
40,17
41,37
42,28
44,29
47,2
49,37
53,7
54,23
57,3
62,51
63,48
66,32
67,12
69,40
73,65
74,1
76,54
82,36
84,20
85,19
86,34
88,35
89,85
90,52
92,82
96,49
98,65
99,75
100,90
101,83
103,56
104,15
106,53
108,10
109,23
110,8
111,12
112,33
113,4
114,11
115,28
116,84
117,25
123,69
126,31
128,50
129,85
132,70
135,84
137,84
138,95
146,62
148,88
152,99
153,21
155,135
156,70
157,80
158,48
165,119
167,131
168,72
169,0
171,128
172,85
178,45
181,35
183,144
188,6
189,141
190,132
191,188
192,100
193,144
194,141
195,177
196,161
204,71
205,146
206,8
207,150
208,154
210,138
214,90
215,201
217,54
222,55
226,109
229,138
230,226
231,127
233,18
235,207
236,105
237,120
240,193
241,145
242,138
247,73
257,175
258,209
259,178
260,252
264,54
266,139
267,40
269,21
270,99
271,205
273,147
275,75
277,77
279,102
281,69
283,108
285,241
286,174
287,8
288,51
289,8
290,159
291,158
295,46
296,1
298,41
299,246
300,202
301,25
302,42
305,258
306,17
309,302
311,126
313,148
318,251
321,82
323,118
325,93
327,238
331,326
332,290
333,172
334,228
335,315
336,119
337,173
339,305
341,211
344,145
345,123
347,16
349,138
354,316
355,243
356,137
360,228
361,342
363,13
367,210
371,209
373,53
375,126
376,290
378,288
380,40
382,106
383,42
387,310
389,340
391,309
392,218
393,126
396,315
398,142
399,238
402,196
403,375
412,82
416,246
417,300
418,292
419,74
421,356
424,407
425,334
429,268
431,179
436,237
441,78
443,303
448,125
450,338
451,442
452,147
454,335
456,227
459,148
461,101
462,221
464,452
467,151
470,185
471,434
474,385
476,469
478,324
479,332
482,193
483,449
486,52
488,282
495,318
499,117
503,191
504,469
505,309
507,351
508,16
510,482
511,162
512,346
516,11
517,271
520,12
521,254
525,335
527,331
529,404
531,334
532,253
533,157
534,22
535,102
544,307
549,387
552,396
554,310
558,187
560,446
562,179
563,553
564,176
565,438
566,283
568,51
570,478
572,425
579,28
581,25
582,35
583,360
584,380
585,25
587,426
588,471
589,34
592,405
593,128
594,408
597,240
599,320
600,49
601,290
606,555
609,563
612,501
614,228
617,12
618,61
619,95
620,167
621,46
622,538
624,426
625,438
627,465
628,375
629,132
630,401
631,241
632,429
633,114
634,194
635,304
637,479
638,495
640,333
641,412
643,505
648,77
652,124
653,414
655,596
658,453
659,355
661,187
662,295
667,664
670,78
671,490
675,215
677,113
678,406
680,512
682,328
683,509
684,664
685,10
686,23
689,21
693,61
694,288
696,6
697,318
700,275
701,45
703,267
704,334
705,685
706,509
712,495
714,190
715,149
717,76
719,650
722,64
726,543
728,165
729,595
730,632
731,606
734,728
737,639
738,214
739,683
740,258
742,2
744,513
747,155
748,327
751,17
752,320
753,360
754,29
755,19
756,469
758,203
761,364
762,135
763,333
769,22
770,642
773,596
775,251
776,271
778,458
779,317
780,553
782,289
783,37
784,494
785,394
786,144
788,664
790,365
792,427
795,792
800,456
801,254
802,136
805,132
807,426
810,778
812,147
814,537
818,412
820,207
821,457
823,39
824,529
830,153
832,419
834,768
836,560
839,670
840,5
841,114
842,182
844,757
845,831
849,126
850,417
852,692
854,392
855,224
858,740
859,777
860,757
861,718
864,146
865,751
867,842
868,173
869,568
872,200
873,793
877,155
878,117
882,511
883,805
886,872
887,766
888,762
897,160
900,703
901,333
902,339
903,757
904,247
905,626
908,778
910,170
914,712
915,288
917,833
918,199
920,268
921,406
922,455
924,388
927,550
929,913
931,85
936,922
937,604
939,698
941,204
943,32
945,362
946,788
948,411
950,147
951,550
954,637
955,937
956,376
957,422
961,166
962,578
965,522
966,318
968,693
970,235
973,742
974,811
976,94
982,891
983,491
984,326
986,436
988,962
991,762
992,260
993,948
994,184
996,751
997,688
998,475
1003,908
1008,631
1009,979
1011,934
1012,789
1014,17
1015,494
1017,328
1018,582
1019,13
1022,93
1023,821
1026,84
1029,153
1030,83
1034,992
1037,360
1038,171
1040,324
1044,323
1046,331
1047,121
1048,37
1050,721
1051,790
1054,384
1055,734
1056,132
1057,637
1061,339
1062,791
1064,541
1066,567
1067,867
1071,150
1073,625
1076,141
1078,977
1082,1044
1083,716
1084,411
1087,476
1088,934
1089,803
1091,827
1093,356
1096,517
1099,615
1101,477
1102,507
1106,939
1108,784
1109,287
1111,633
1112,306
1114,298
1115,367
1116,978
1117,954
1118,835
1122,974
1123,571
1126,1032
1128,267
1132,393
1140,541
1141,34
1143,1140
1145,738
1152,299
1153,788
1154,654
1162,221
1163,234
1167,1061
1170,979
1171,551
1172,587
1173,70
1174,79
1176,444
1182,1120
1183,689
1185,749
1190,755
1191,1013
1195,976
1196,561
1197,865
1205,1064
1207,1156
1210,397
1211,388
1212,455
1215,186
1216,258
1218,598
1219,326
1221,924
1222,689
1224,1114
1225,383
1226,863
1227,699
1228,263
1230,481
1238,591
1240,132
1241,580
1242,310
1245,819
1246,1112
1247,188
1248,158
1251,175
1254,853
1255,1186
1258,35
1259,532
1260,1025
1266,742
1269,1067
1270,290
1271,362
1277,1158
1278,797
1282,1092
1283,1138
1284,783
1285,570
1287,299
1288,609
1289,1055
1292,176
1293,178
1294,825
1295,813
1296,394
1297,742
1298,729
1299,502
1301,792
1305,370
1306,20
1308,93
1310,1083
1313,672
1319,2
1328,1022
1331,942
1332,75
1334,708
1335,189
1336,998
1339,389
1340,725
1342,787
1343,350
1344,961
1349,1138
1350,818
1353,180
1357,1082
1358,497
1359,928
1360,1320
1362,542
1365,412
1368,954
1370,843
1375,174
1377,998
1379,1035
1380,587
1381,1296
1382,464
1385,110
1387,1114
1388,132
1390,46
1391,1099
1394,880
1397,314
1403,163
1406,822
1407,573
1408,141
1413,262
1414,615
1415,1076
1416,875
1419,113
1422,800
1423,1132
1429,576
1431,214
1433,1373
1436,49
1438,79
1439,1433
1441,726
1443,410
1446,260
1450,611
1451,723
1452,154
1453,80
1454,1091
1455,600
1457,613
1460,1437
1461,512
1462,962
1463,886
1465,978
1466,513
1467,593
1469,932
1474,55
1475,640
1476,1129
1478,573
1479,1194
1480,12
1484,1158
1485,400
1486,763
1489,166
1490,1280
1491,88
1495,79
1496,369
1499,1248
1500,927
1502,1073
1505,702
1507,241
1509,1086
1510,1214
1512,860
1513,1005
1514,1508
1516,302
1517,395
1519,917
1520,1287
1521,512
1523,377
1524,442
1525,420
1528,333
1529,869
1530,246
1531,361
1533,1199
1534,527
1535,1123
1536,797
1542,1405
1543,1265
1549,1020
1551,1446
1554,971
1555,672
1557,1022
1559,275
1561,211
1568,1153
1569,1454
1570,1135
1571,793
1577,489
1578,1470
1584,13
1587,981
1588,667
1591,912
1592,1216
1593,89
1594,1067
1596,1349
1597,976
1598,295
1600,1172
1603,878
1604,1509
1607,284
1609,1568
1611,59
1615,372
1619,449
1621,222
1622,615
1624,140
1625,1145
1628,188
1630,1246
1631,1433
1634,242
1636,532
1638,1270
1639,335
1641,440
1644,1158
1645,572
1649,216
1650,313
1651,1416
1653,1369
1657,793
1658,65
1664,1138
1667,550
1668,1006
1671,265
1673,102
1685,91
1686,849
1689,940
1692,275
1694,276
1695,536
1696,1639
1697,180
1698,564
1699,526
1706,603
1710,652
1712,1459
1713,851
1714,944
1716,168
1718,710
1721,1333
1722,1433
1726,1159
1728,1721
1732,78
1734,1337
1738,191
1739,1470
1740,974
1745,578
1752,226
1753,1654
1757,820
1758,28
1759,578
1760,1531
1763,1462
1764,1473
1765,456
1766,1675
1771,1768
1773,1620
1780,592
1781,50
1785,775
1787,261
1789,496
1794,861
1801,1352
1807,1530
1808,1662
1809,1790
1810,1794
1812,166
1813,1446
1814,768
1816,1811
1817,1663
1818,111
1820,860
1821,410
1822,1790
1824,862
1825,28
1826,851
1827,1527
1828,595
1830,1136
1831,1471
1834,133
1836,1065
1840,257
1841,951
1845,1772
1847,1403
1851,1220
1853,1192
1855,1607
1859,321
1861,965
1862,657
1864,1430
1865,1654
1868,293
1869,1624
1871,1606
1872,1623
1874,1753
1876,1110
1881,1004
1883,1365
1885,207
1891,1584
1892,1782
1893,1129
1895,1578
1901,201
1902,284
1904,561
1905,254
1906,1837
1907,441
1908,1003
1909,23
1912,326
1914,176
1916,1131
1918,1204
1920,1882
1923,405
1925,1742
1928,862
1929,1332
1930,818
1931,680
1932,387
1935,1552
1937,1141
1938,947
1941,650
1943,535
1945,1406
1946,117
1947,1260
1948,817
1950,1761
1951,941
1952,1269
1955,670
1958,1943
1959,599
1962,1113
1963,595
1965,261
1969,1065
1970,419
1972,70
1973,355
1976,994
1977,1181
1978,385
1980,912
1982,1872
1988,289
1989,1446
1996,1095
1997,1362
1999,770
2000,861
2001,391
2005,1585
2006,577
2008,68
2011,1367
2014,1382
2015,1857
2016,598
2018,707
2021,819
2022,684
2024,1300
2028,478
2031,1550
2032,1300
2033,395
2035,829
2039,1089
2044,1135
2045,2007
2048,365
2049,720
2051,1097
2052,1570
2054,1528
2055,1127
2057,1998
2060,436
2061,1891
2063,1840
2064,1814
2065,1981
2067,1614
2068,561
2069,1696
2070,1341
2071,1269
2073,133
2074,1963
2075,1714
2076,1252
2078,1072
2079,1529
2083,121
2086,1901
2089,173
2090,1662
2092,25
2093,571
2095,921
2097,1361
2099,115
2100,1685
2101,337
2104,852
2105,1493
2106,414
2112,1479
2114,1826
2115,1359
2117,1892
2118,158
2119,28
2126,1307
2128,1809
2129,114
2130,682
2133,150
2136,1149
2138,1812
2139,976
2140,949
2141,849
2142,919
2144,1406
2149,110
2151,1631
2152,180
2153,2131
2157,1504
2158,393
2159,1090
2165,2096
2167,143
2169,1523
2171,1155
2174,2010
2178,1621
2182,1476
2184,232
2186,2055
2189,1759
2190,627
2191,875
2193,755
2194,870
2198,417
2199,1515
2201,1702
2203,2112
2204,50
2205,43
2206,502
2208,1094
2210,364
2213,415
2215,1406
2217,1342
2220,1478
2221,847
2222,1061
2224,1389
2225,1137
2226,1172
2228,1119
2229,1539
2230,1704
2231,2101
2233,1927
2234,1453
2235,1412
2237,414
2238,1487
2242,1534
2243,702
2244,226
2245,1154
2249,1588
2250,1341
2251,1648
2252,2130
2255,979
2256,1572
2257,1426
2262,1079
2263,1495
2264,1964
2269,1263
2270,1489
2271,1742
2276,1970
2277,2018
2278,1126
2282,1444
2289,2213
2290,2141
2295,643
2296,1156
2297,1286
2298,1152
2299,1120
2300,1106
2301,239
2302,554
2304,824
2305,1745
2310,960
2311,403
2312,1280
2314,1126
2315,1627
2316,14
2319,2259
2320,1297
2321,340
2322,1360
2325,375
2327,1667
2329,483
2331,982
2333,1823
2334,2252
2335,673
2341,119
2342,1524
2343,550
2344,2304
2345,1708
2346,1410
2348,1662
2350,66
2352,1517
2355,1537
2357,1601
2359,1248
2360,375
2362,908
2364,766
2365,1066
2366,1184
2368,1006
2369,88
2383,1223
2384,1537
2386,941
2387,2300
2391,721
2392,2260
2393,1763
2399,1799
2400,1313
2404,15
2405,828
2406,2050
2407,461
2411,1314
2412,2309
2413,1707
2414,1258
2418,2402
2419,380
2422,2045
2423,545
2425,1708
2427,1256
2428,2395
2431,2412
2437,1211
2440,1469
2442,1815
2443,1059
2446,2299
2448,1227
2449,1664
2451,1835
2457,1699
2459,169
2461,593
2464,162
2465,1257
2466,2220
2467,2105
2469,1882
2470,705
2471,2429
2477,1837
2480,1109
2483,1619
2484,2146
2487,801
2490,1981
2491,673
2492,2457
2493,1733
2494,506
2496,1089
2499,416
2505,1824
2507,1437
2508,281
2512,2151
2514,2158
2516,185
2517,1880
2521,1071
2522,1322
2525,951
2526,502
2527,2508
2528,1688
2529,1321
2530,531
2531,74
2533,1352
2535,550
2537,142
2539,2229
2540,395
2541,271
2543,1103
2544,361
2545,766
2546,835
2552,2238
2555,2406
2556,2285
2564,1630
2565,2197
2566,99
2571,294
2575,1167
2581,1473
2586,432
2587,1102
2590,1331
2591,1700
2592,1829
2594,1248
2595,1390
2596,861
2597,1253
2598,43
2599,1799
2603,2565
2607,889
2609,493
2610,713
2611,2380
2612,1542
2613,1240
2618,1760
2621,1354
2623,1835
2625,13
2628,992
2630,860
2632,945
2633,2596
2636,1989
2637,1628
2638,2129
2642,2055
2644,279
2646,2629
2647,65
2648,2077
2650,2228
2657,595
2658,1286
2659,1909
2663,1751
2668,2502
2671,868
2672,2319
2676,751
2680,1146
2683,1753
2685,702
2686,491
2687,1713
2688,2107
2689,267
2690,2244
2693,1959
2695,576
2697,1811
2698,1920
2701,1081
2703,31
2704,2435
2705,1237
2706,2250
2708,2374
2710,1828
2711,1808
2712,1053
2713,1706
2715,992
2716,963
2717,1891
2719,1401
2720,1502
2721,2384
2722,1377
2728,83
2731,286
2736,1127
2737,2023
2738,2484
2739,1179
2745,2394
2747,1438
2749,709
2751,2404
2754,176
2758,1268
2759,2431
2761,1232
2762,2552
2764,707
2765,1056
2766,1392
2769,1356
2771,219
2772,1332
2781,1508
2783,168
2787,1553
2788,2533
2789,1313
2791,587
2792,243
2795,2552
2798,386
2799,555
2802,203
2803,780
2804,2099
2805,988
2806,974
2808,2389
2811,1856
2813,2318
2819,2044
2820,749
2826,2530
2827,1892
2828,2197
2830,2243
2832,468
2833,2289
2840,178
2845,2694
2847,1963
2849,2305
2850,2530
2852,1899
2854,2426
2857,1124
2858,398
2859,2849
2860,2836
2861,538
2863,1883
2864,1385
2865,2037
2866,2119
2867,244
2868,1545
2869,1092
2872,1925
2873,2125
2875,1087
2877,549
2878,1829
2879,1770
2881,1221
2884,412
2885,2542
2890,232
2893,820
2896,1922
2897,888
2898,1969
2901,401
2903,1392
2906,1966
2907,1705
2909,1335
2911,947
2913,1481
2915,2215
2920,2248
2921,557
2922,2020
2925,2821
2926,2376
2927,2441
2928,102
2930,709
2933,2897
2935,2270
2936,2596
2939,1434
2941,1344
2948,1297
2949,632
2950,152
2952,1911
2955,1115
2958,2229
2959,1176
2960,1916
2963,434
2964,2333
2975,2893
2976,1629
2980,2161
2981,1875
2984,1114
2985,1159
2986,2849
2987,2530
2988,2048
2991,2696
2992,2355
2993,1521
2995,1691
2998,867
2999,1422
3000,600
3003,2700
3006,2158
3008,1785
3009,970
3011,2761
3012,1984
3013,946
3014,620
3017,1889
3018,351
3020,2000
3021,1099
3023,280
3024,2519
3025,1167
3027,462
3029,2946
3032,1884
3034,278
3038,2394
3044,2479
3047,258
3048,1176
3049,2794
3050,2163
3055,586
3056,2505
3057,1412
3060,2510
3061,2834
3062,1930
3063,1560
3067,419
3068,405
3079,2582
3083,1030
3086,863
3090,2141
3091,2684
3093,1643
3094,2807
3095,2429
3098,452
3099,1135
3100,1038
3101,1710
3102,1658
3104,2952
3105,2256
3106,215
3108,1202
3111,434
3112,2141
3113,2499
3114,250
3115,2831
3116,851
3121,298
3122,790
3124,2091
3125,2376
3127,3119
3128,2686
3129,770
3130,2244
3141,1665
3142,1421
3145,132
3150,1601
3151,1696
3154,85
3157,474
3158,3000
3160,3068
3163,967
3166,139
3167,942
3169,1060
3173,2047
3175,1441
3178,935
3180,1183
3181,2000
3183,2366
3184,466
3185,1561
3187,1244
3188,788
3190,2458
3192,22
3194,1919
3195,722
3196,2869
3197,2699
3198,3019
3200,2588
3202,3056
3203,2612
3205,47
3207,3197
3208,2708
3209,57
3213,3148
3214,1986
3216,428
3220,2474
3221,1998
3222,1906
3223,3059
3224,1409
3225,2365
3226,684
3228,1245
3229,1111
3230,1492
3233,52
3235,1059
3237,2421
3238,1145
3240,169
3243,1772
3244,766
3245,337
3247,1411
3250,2933
3253,66
3254,3122
3256,891
3261,1234
3263,904
3264,2061
3265,141
3269,1020
3273,2984
3274,568
3276,830
3278,2186
3280,2560
3281,2700
3287,2460
3288,482
3293,196
3296,865
3299,150
3308,1983
3311,2714
3312,564
3317,1325
3318,548
3321,2361
3323,1688
3324,988
3325,2336
3328,3149
3329,3062
3330,2787
3336,594
3337,2174
3339,1918
3344,58
3348,2696
3350,3260
3352,2726
3354,3252
3355,1765
3356,1933
3357,685
3360,2008
3364,1826
3365,2296
3366,1357
3367,2594
3368,1445
3369,2224
3370,3312
3372,2614
3374,439
3375,1127
3376,1995
3378,1714
3381,2691
3382,559
3387,35
3390,1966
3395,1832
3396,1904
3399,551
3400,2958
3402,2199
3403,2259
3404,802
3405,1293
3406,2854
3412,1485
3415,634
3416,1709
3420,1211
3421,1696
3422,1633
3426,2410
3427,821
3429,907
3431,3150
3435,1528
3438,2647
3439,3248
3440,1430
3441,483
3442,2057
3444,3
3448,774
3451,32
3454,3084
3457,1500
3459,3252
3463,762
3464,1002
3466,1189
3467,1651
3468,2128
3469,2682
3470,3408
3472,3445
3478,2908
3481,3425
3483,1372
3485,376
3486,2173
3487,1306
3490,227
3491,3460
3495,2397
3497,3203
3501,323
3502,716
3504,2967
3505,3463
3506,1462
3507,2471
3509,836
3511,1648
3513,70
3515,1971
3516,699
3517,2097
3518,2044
3519,538
3520,1018
3522,3335
3524,805
3528,762
3529,3354
3530,1335
3531,1888
3533,978
3534,2659
3535,3206
3536,2273
3538,934
3539,307
3541,2599
3543,1014
3544,2687
3545,3035
3546,2139
3548,2807
3550,2559
3553,80
3554,1182
3556,481
3558,2315
3559,1517
3563,1460
3565,1745
3568,21
3570,1914
3571,787
3572,485
3574,1596
3578,446
3579,861
3581,772
3582,2671
3583,3269
3585,1016
3588,1842
3594,2526
3595,3371
3602,216
3604,909
3606,94
3607,2015
3608,2961
3610,1715
3612,1002
3613,342
3614,3035
3616,1628
3618,3076
3619,810
3621,1458
3623,103
3624,2337
3625,122
3626,2951
3627,420
3628,295
3630,1132
3632,2091
3634,3141
3636,224
3637,85
3639,1158
3640,890
3644,412
3645,1464
3646,1028
3647,2944
3652,2938
3653,3002
3657,369
3660,952
3661,26
3666,1104
3667,1692
3668,1134
3670,3323
3671,121
3675,2964
3676,2450
3677,2709
3679,1773
3684,611
3687,250
3688,592
3690,1090
3691,1519
3696,1605
3704,2337
3705,982
3707,1200
3709,255
3710,1739
3716,3015
3718,3581
3722,3023
3724,3312
3725,411
3729,285
3730,545
3732,737
3733,2878
3736,3552
3737,1654
3740,3377
3742,1695
3745,880
3746,951
3750,3473
3756,1551
3758,730
3759,153
3760,1921
3762,2905
3763,3037
3764,3746
3768,2982
3769,458
3770,3410
3771,116
3773,253
3776,1338
3777,2980
3779,282
3780,2279
3782,2134
3783,2306
3784,3046
3789,3643
3791,87
3794,2291
3795,2412
3796,1325
3798,1620
3801,110
3802,1974
3805,1749
3806,198
3808,3431
3810,593
3811,453
3816,2993
3817,115
3818,1207
3831,1781
3833,2436
3834,2889
3837,1613
3838,2112
3839,38
3840,1944
3843,3402
3846,1408
3847,2542
3848,1065
3849,3804
3850,660
3855,3299
3856,2758
3861,201
3863,3477
3864,3195
3865,1959
3867,2308
3868,3467
3870,3831
3871,1731
3872,3066
3875,2619
3876,1390
3878,2418
3881,3181
3882,807
3883,1450
3884,123
3886,16
3887,3556
3891,3577
3892,2694
3893,3207
3895,3705
3898,3065
3906,3030
3909,3163
3911,659
3915,2812
3916,2537
3917,3185
3919,2913
3920,3662
3925,2971
3926,2585
3927,15
3929,2735
3930,302
3932,2637
3933,3576
3934,403
3936,2477
3937,759
3940,3402
3941,1764
3942,2816
3944,3832
3945,7
3946,2078
3948,404
3949,1483
3952,298
3953,3913
3954,214
3955,2731
3959,654
3960,3706
3963,3640
3964,575
3966,825
3970,153
3971,2028
3972,1564
3974,2089
3977,767
3978,917
3981,3373
3985,1188
3987,570
3989,144
3991,2406
3992,1329
3994,1117
3995,2390
3996,1338
3997,2796
3999,3482
4000,2138
4001,966
4002,276
4003,1911
4005,2874
4006,487
4008,1401
4016,3854
4017,1980
4020,3251
4025,452
4026,2019
4031,2868
4032,3372
4034,3046
4036,2132
4037,1377
4040,1700
4043,699
4045,917
4047,1541
4048,1411
4049,2268
4050,1161
4056,1015
4057,241
4060,2964
4061,560
4065,2268
4066,3275
4072,196
4074,2036
4075,2505
4076,1875
4077,1020
4079,3689
4080,3800
4081,2582
4082,1414
4086,1275
4088,1733
4092,3103
4093,2315
4094,380
4097,1086
4098,3037
4099,1564
4100,795
4102,3979
4103,1383
4107,2675
4111,1999
4115,1829
4116,2314
4117,2996
4118,3430
4119,807
4120,63
4122,2323
4123,2343
4124,363
4127,2942
4130,3548
4132,1604
4133,3962
4136,2952
4138,2213
4142,819
4145,2387
4147,2208
4148,3779
4150,2837
4152,2064
4154,3730
4155,836
4159,2747
4161,3088
4162,2826
4163,1293
4164,4155
4167,1664
4169,1828
4171,1352
4172,1344
4174,757
4175,3374
4178,4075
4184,453
4186,3536
4188,388
4190,4165
4191,472
4195,2359
4197,1996
4200,2111
4203,3101
4204,861
4211,2915
4214,2600
4215,169
4216,196
4219,905
4220,2285
4221,1649
4223,951
4229,2622
4231,3883
4232,2362
4233,455
4234,2893
4235,339
4239,2642
4240,2528
4241,2777
4245,726
4246,971
4247,2993
4249,3683
4250,3959
4251,2532
4253,2854
4254,895
4255,3994
4256,1501
4257,1205
4258,153
4262,811
4263,3086
4264,3808
4267,2294
4268,1267
4270,1191
4271,3764
4272,3556
4273,3113
4275,2747
4276,1682
4279,1031
4280,3940
4286,2639
4287,3774
4288,3825
4289,3141
4292,3821
4294,4217
4296,2825
4297,1222
4299,2475
4301,4139
4302,1915
4304,1137
4305,1619
4307,1442
4308,3710
4309,733
4312,78
4313,91
4314,4272
4318,2378
4320,3709
4321,3074
4323,556
4326,2705
4327,591
4328,2648
4329,495
4330,3884
4334,1831
4335,1973
4336,2741
4339,1806
4342,4102
4344,1649
4346,3278
4347,84
4348,3792
4351,181
4354,1556
4356,543
4358,2166
4360,4254
4362,1883
4363,724
4365,470
4366,2827
4368,853
4370,2228
4372,3909
4373,4280
4374,2389
4377,934
4379,1515
4380,3912
4381,317
4382,1152
4387,4368
4388,1273
4392,4020
4395,829
4397,3197
4403,3760
4404,700
4406,21
4407,3537
4412,2068
4414,1110
4416,3830
4424,2679
4425,3002
4426,3007
4428,408
4432,1219
4433,3098
4434,510
4435,2927
4436,149
4438,2209
4440,4232
4441,2101
4442,1771
4443,2867
4445,1503
4447,3613
4449,3974
4452,2249
4453,4300
4454,3689
4464,275
4465,3820
4466,1614
4468,3526
4471,837
4472,1193
4473,1440
4475,808
4477,3370
4479,4031
4481,1389
4482,1652
4483,3397
4485,51
4487,3345
4488,3768
4490,760
4493,1466
4496,2627
4499,1369
4502,525
4505,3875
4506,1299
4508,1582
4509,3657
4512,293
4514,2585
4517,270
4518,675
4519,1493
4521,2315
4522,2104
4525,4209
4528,2111
4530,1299
4532,2449
4537,3041
4538,592
4540,599
4542,4422
4549,2500
4550,4418
4552,4505
4558,1649
4560,2273
4561,3487
4563,1906
4566,182
4568,4213
4570,3280
4571,2529
4572,1597
4576,3500
4577,985
4580,2911
4581,3345
4583,5
4584,4296
4585,4149
4588,3391
4591,1340
4592,989
4593,388
4594,2958
4595,692
4596,1816
4600,2927
4601,521
4603,2310
4604,64
4608,2034
4611,3118
4613,4303
4615,4133
4617,2164
4619,2273
4622,1493
4625,1180
4626,3625
4627,2812
4628,20
4629,290
4632,2394
4633,1591
4635,4463
4638,1486
4641,3516
4645,2899
4646,3206
4647,3554
4651,4540
4653,2379
4654,4299
4659,4014
4661,293
4664,263
4667,1116
4670,498
4672,292
4674,4299
4675,3102
4679,4523
4680,398
4683,2897
4687,884
4691,174
4692,383
4693,2749
4694,1456
4697,407
4698,2154
4699,3560
4703,2442
4705,2509
4706,736
4707,3015
4710,4328
4711,1138
4712,3220
4715,125
4718,388
4720,2497
4724,1372
4725,403
4727,3225
4732,4599
4735,1216
4737,3990
4741,1072
4748,2610
4749,1536
4751,2821
4752,89
4753,1957
4755,672
4757,1475
4763,115
4766,4431
4773,4277
4777,2302
4778,4295
4780,3972
4781,2160
4782,112
4785,4648
4786,2349
4788,272
4789,929
4791,1515
4794,1617
4795,1218
4796,2284
4801,3879
4802,2273
4808,1524
4809,777
4810,3200
4813,1098
4814,1366
4815,978
4817,4183
4818,3167
4819,1914
4820,2671
4823,733
4825,3819
4826,4351
4831,4604
4833,4801
4835,1505
4842,1854
4847,36
4848,286
4849,1313
4853,1200
4858,1186
4860,4105
4863,1939
4866,181
4867,2574
4869,724
4870,1933
4872,1112
4873,3868
4876,4457
4880,321
4882,1440
4885,1122
4886,2035
4887,4381
4889,6
4891,1625
4893,2059
4895,3447
4898,3896
4899,340
4901,1249
4902,4465
4903,3439
4904,4133
4907,2645
4913,4800
4915,3987
4917,2730
4919,911
4920,352
4921,1437
4922,883
4923,900
4924,1821
4925,4398
4926,4906
4929,303
4931,1718
4934,4318
4935,3236
4936,1805
4937,3686
4940,4425
4941,1399
4950,2295
4952,1731
4953,2093
4955,2771
4956,4617
4957,190
4960,1941
4963,1869
4964,2034
4967,4284
4969,1497
4970,4098
4971,2904
4972,361
4974,3295
4976,1421
4977,2674
4978,3698
4980,3670
4983,4283
4984,924
4986,4413
4987,3301
4990,2900
4991,249
4992,4841
4993,1899
4995,2498
4996,3750
4999,2672
5000,394
5001,1082
5002,2258
5003,1849
5011,439
5014,1637
5015,1628
5017,1316
5019,2414
5021,3970
5022,762
5023,2427
5025,2478
5029,755
5030,704
5031,247
5032,2690
5033,3485
5034,3170
5035,2837
5036,1561
5037,2690
5038,2701
5039,4722
5040,820
5044,5010
5048,1317
5049,1487
5050,1305
5052,869
5054,3726
5055,1266
5056,4817
5057,3244
5058,3908
5060,1674
5061,1270
5062,2170
5065,1017
5072,3458
5073,1836
5075,4466
5076,4292
5077,3412
5082,3821
5083,463
5084,2801
5085,2298
5086,2132
5087,2337
5088,4412
5091,2863
5093,2648
5096,390
5099,769
5100,702
5101,2294
5103,4021
5104,3286
5107,2011
5110,236
5111,2872
5112,1476
5113,3491
5114,2842
5116,4948
5117,1197
5119,4499
5121,3690
5122,1543
5123,312
5124,3920
5125,4063
5127,1383
5128,2381
5129,3960
5130,2675
5131,2409
5133,4712
5134,4665
5136,4257
5138,2530
5141,1405
5146,1707
5150,2116
5151,3889
5159,1260
5165,4573
5169,549
5170,2311
5172,1223
5175,3248
5177,3063
5178,1832
5179,4112
5184,488
5189,2024
5190,2875
5191,1042
5192,2934
5193,3528
5195,3200
5198,3433
5199,1959
5200,1819
5202,3103
5203,5200
5208,679
5209,3423
5210,2918
5212,3645
5213,4820
5214,4231
5215,1548
5216,1319
5218,2942
5219,2892
5221,241
5222,4806
5232,4775
5233,3295
5235,5145
5236,3787
5237,4928
5238,4780
5241,209
5244,711
5245,4030
5250,1593
5251,3808
5252,1315
5253,275
5254,3440
5255,1773
5256,2869
5257,1348
5258,4589
5259,1197
5262,3663
5263,1390
5264,4893
5265,101
5266,1846
5268,2185
5269,2355
5270,3082
5271,1912
5273,2913
5274,4394
5276,1064
5277,4216
5278,1870
5280,1089
5281,2397
5282,3047
5284,2188
5286,3655
5288,4055
5289,3230
5290,2295
5291,1914
5292,4702
5294,151
5295,3127
5297,718
5299,5281
5300,4112
5301,2558
5305,3712
5306,78
5307,4850
5309,4645
5311,1039
5313,2914
5314,1539
5317,1867
5318,4083
5321,4677
5322,3644
5324,221
5325,697
5326,2539
5332,4117
5333,1905
5336,4542
5338,4556
5339,271
5343,3960
5344,3212
5348,1452
5349,3126
5350,5081
5353,5156
5354,3393
5355,3640
5356,3003
5357,2946
5358,5043
5359,4701
5365,1388
5366,4494
5367,1375
5369,2176
5370,4772
5377,4093
5379,103
5380,4606
5384,4655
5385,3856
5387,2315
5388,2712
5389,1232
5392,3429
5395,2528
5400,3013
5401,956
5402,1339
5405,1759
5408,1476
5409,1071
5412,849
5413,2217
5416,3359
5417,3773
5418,3379
5420,4353
5422,4778
5423,2655
5424,2023
5428,3538
5429,2032
5434,674
5435,1437
5436,2681
5437,3019
5438,2200
5442,5237
5443,5102
5444,2685
5445,2866
5446,3861
5447,1759
5449,4661
5450,66
5455,3213
5456,4389
5458,3112
5462,3991
5463,1814
5464,4155
5465,4656
5467,1210
5468,3018
5469,3120
5471,4136
5472,92
5475,1279
5478,5200
5479,4392
5480,4874
5482,283
5483,1837
5495,1948
5500,3541
5501,5061
5507,124
5508,3367
5510,911
5511,128
5513,97
5514,3296
5515,1469
5516,844
5517,4279
5522,2463
5524,1618
5526,3835
5527,463
5531,533
5535,652
5536,5117
5537,4268
5540,4471
5541,790
5542,2917
5543,3909
5544,476
5546,3642
5548,4159
5549,283
5551,484
5554,5163
5556,2427
5558,1333
5559,2144
5562,4
5564,2385
5566,739
5569,5345
5570,846
5572,5009
5573,4376
5574,4610
5575,4437
5578,1995
5581,834
5583,5098
5585,806
5593,5014
5601,430
5603,3429
5606,320
5607,4851
5608,616
5609,2518
5613,713
5614,1432
5616,1190
5617,584
5619,3183
5624,2610
5625,1392
5626,2179
5630,3437
5631,4932
5632,3310
5635,336
5639,4678
5643,5406
5645,2819
5647,5639
5649,4451
5650,782
5652,1996
5658,1728
5661,5208
5663,3118
5666,1740
5668,536
5670,4531
5672,942
5674,1885
5675,1902
5676,2937
5680,4840
5681,2976
5683,1495
5685,2047
5692,2613
5694,1008
5695,5579
5698,1278
5699,5477
5700,464
5703,3477
5706,4582
5710,4324
5711,184
5715,1913
5717,2312
5718,2964
5719,4951
5721,5218
5722,1013
5726,629
5728,2614
5730,844
5733,2060
5735,166
5738,2873
5739,2725
5743,5545
5749,2326
5752,5228
5753,3768
5755,4917
5758,1340
5759,4707
5763,3131
5764,486
5769,2325
5770,5710
5771,3559
5773,2181
5774,1171
5776,1470
5777,491
5778,3746
5780,5207
5784,1925
5786,5422
5787,5125
5793,1914
5794,122
5795,3316
5796,3099
5798,3672
5802,1135
5803,2111
5804,5632
5809,1851
5811,1192
5815,5418
5816,2158
5818,4240
5819,1020
5820,3340
5821,132
5825,4072
5826,710
5829,5767
5830,3039
5832,3519
5833,3299
5835,1088
5837,518
5838,2911
5839,1261
5841,1752
5842,1621
5844,2961
5845,1502
5848,1165
5850,3411
5851,3387
5853,3100
5854,2550
5855,414
5860,4337
5861,2045
5864,4815
5873,5644
5876,355
5878,1088
5879,3051
5881,1830
5883,3896
5886,4079
5887,198
5888,302
5889,122
5891,3710
5892,2429
5893,373
5897,3799
5899,3394
5901,2646
5902,1021
5903,782
5910,3612
5915,5766
5919,2426
5924,5229
5925,4827
5927,1204
5928,2844
5929,4817
5930,2192
5931,474
5933,2127
5934,2256
5935,1625
5936,4553
5937,3958
5938,2311
5943,5107
5944,5655
5946,5835
5948,2957
5953,3086
5954,5311
5955,5324
5957,4124
5959,5190
5960,2268
5961,3844
5965,4337
5967,288
5969,4001
5976,1605
5978,5820
5980,2203
5981,1686
5982,4431
5984,4707
5990,4732
5991,4881
5992,2168
5994,2324
5995,3617
5997,4208
6001,5215
6004,4687
6005,1398
6006,29
6008,4407
6011,643
6014,5464
6017,5885
6019,5812
6020,1122
6022,5577
6024,1064
6025,4526
6027,1074
6028,4914
6030,4602
6033,815
6034,5123
6039,3846
6043,2956
6045,5862
6046,1091
6047,5156
6049,4800
6050,2659
6051,251
6053,3463
6058,5728
6059,5801
6062,647
6063,1484
6064,5408
6065,1848
6066,382
6067,2356
6068,4936
6071,3593
6072,3156
6074,4052
6075,1398
6077,6017
6078,2077
6079,5215
6081,1915
6089,2161
6091,2217
6094,1058
6095,2170
6096,3807
6097,4858
6099,4125
6100,4610
6101,5460
6103,1615
6106,6090
6107,4886
6108,3791
6111,2558
6114,6040
6115,4943
6120,2258
6125,2060
6126,2091
6129,5441
6131,1764
6132,6077
6133,1903
6136,4619
6139,4214
6140,1122
6142,3478
6144,4484
6146,2045
6147,2998
6149,1608
6155,4858
6156,3030
6158,5497
6159,5004
6160,2443
6161,3326
6162,1570
6163,1183
6164,8
6165,4517
6166,2960
6168,1516
6169,236
6170,315
6172,2852
6176,882
6179,4356
6181,3038
6182,5079
6183,2466
6184,4455
6185,2976
6186,1421
6188,3417
6193,433
6194,5244
6195,3636
6196,4384
6202,5983
6205,1851
6206,2205
6208,2423
6210,1022
6212,4394
6213,2299
6214,3477
6218,633
6219,1592
6221,2640
6228,3783
6231,2665
6232,4822
6233,5995
6235,5652
6237,3030
6239,4875
6240,3096
6241,3038
6242,3107
6244,5830
6245,1464
6246,1090
6248,5280
6249,3330
6250,971
6255,2361
6259,2507
6262,5012
6264,5853
6265,3010
6266,2065
6267,1690
6268,2075
6270,5408
6271,1487
6272,1583
6273,5302
6274,1852
6276,5057
6279,5395
6280,2050
6281,5422
6283,2333
6284,5151
6285,5130
6286,4484
6291,3141
6293,3010
6295,4002
6297,527
6299,4271
6300,1963
6301,3939
6302,58
6304,4544
6305,1496
6306,3971
6310,5735
6311,1383
6316,786
6317,1067
6320,4520
6321,2378
6322,2622
6323,4164
6324,5595
6325,3841
6329,4648
6330,1561
6331,5084
6333,3925
6334,548
6335,5263
6336,4787
6337,4105
6338,642
6342,2863
6343,116
6345,5612
6347,2141
6348,2917
6350,4620
6351,5913
6352,5017
6353,1488
6354,3507
6355,474
6357,3014
6359,417
6360,5714
6365,711
6367,565
6368,3566
6369,3988
6373,6101
6374,4316
6376,4604
6377,922
6379,187
6380,1571
6381,1679
6384,2091
6386,210
6387,2318
6389,1365
6390,1928
6391,6189
6392,1273
6397,5868
6399,5581
6400,2042
6401,780
6403,1588
6404,3097
6408,5541
6411,5222
6415,2959
6417,6069
6418,1647
6420,4605
6422,1186
6424,3505
6426,4812
6428,2708
6429,4055
6432,232
6433,1385
6434,772
6439,3894
6444,5497
6446,4906
6448,1577
6450,601
6452,342
6453,5124
6454,699
6455,2924
6456,6429
6460,4082
6464,7
6468,3800
6470,6082
6472,5690
6474,909
6480,5057
6483,5807
6484,4893
6485,1212
6486,1428
6488,4496
6495,1668
6496,1391
6497,2147
6505,3908
6506,3546
6507,2310
6509,2754
6513,4090
6514,998
6515,2399
6516,2943
6517,3382
6518,1131
6520,5209
6521,2130
6523,4127
6525,802
6528,3704
6533,4509
6535,2654
6536,805
6537,2777
6539,3204
6541,5057
6544,4803
6548,986
6549,5173
6550,3034
6551,6487
6554,1084
6555,2887
6556,5834
6562,93
6564,845
6566,2918
6568,5676
6569,1775
6570,2330
6571,6247
6572,4327
6577,76
6579,2458
6580,2339
6581,3416
6582,3406
6585,2011
6586,3669
6587,1180
6590,5345
6591,1358
6593,3568
6596,2975
6597,2898
6598,5597
6600,4636
6603,279
6604,5296
6605,441
6608,570
6609,5225
6610,6484
6611,3229
6613,6192
6614,1631
6616,414
6617,869
6618,1712
6619,3548
6621,5849
6622,1711
6623,3526
6624,637
6625,1830
6628,4995
6629,5169
6630,2342
6631,366
6636,6567
6637,5275
6638,1326
6641,4334
6644,2351
6647,1120
6648,3542
6651,5272
6655,2506
6658,4300
6659,2728
6660,2974
6661,271
6664,1205
6667,5129
6670,1472
6671,2695
6672,6259
6674,1117
6678,2924
6679,3547
6680,5529
6681,3271
6688,2718
6689,5649
6690,5152
6692,5139
6696,2892
6699,559
6704,2219
6707,6642
6708,2260
6709,6062
6710,874
6711,249
6713,5014
6716,5
6717,5069
6718,2526
6720,5170
6722,6578
6724,2063
6727,6428
6731,3863
6735,6168
6736,4712
6738,3059
6742,3910
6746,5361
6747,639
6748,5473
6749,5293
6753,5135
6755,4942
6756,4617
6758,588
6759,6749
6761,5495
6764,2779
6765,3795
6766,4866
6768,2550
6769,968
6772,2416
6777,1272
6778,1426
6780,1097
6785,2652
6787,1410
6788,3514
6790,3449
6792,5873
6794,6290
6796,5784
6797,6498
6798,5838
6799,1814
6800,2521
6803,927
6805,5492
6806,2805
6807,6429
6809,3626
6810,6063
6812,1858
6814,2048
6819,5019
6821,2807
6822,5231
6825,1287
6827,4764
6828,719
6833,6156
6834,582
6839,1587
6843,2776
6845,715
6846,2612
6849,4124
6851,5360
6854,4444
6855,430
6856,5091
6858,4894
6859,4334
6860,3736
6863,336
6864,4893
6865,6735
6867,5603
6868,1463
6870,4343
6872,3163
6873,5770
6876,3438
6878,6671
6881,787
6882,6283
6884,6247
6886,3669
6887,974
6889,4606
6891,1239
6892,2657
6893,3973
6895,495
6898,2765
6899,6514
6900,5990
6902,5439
6908,1659
6909,6010
6916,1231
6917,2416
6920,2225
6923,1079
6924,1833
6925,2386
6926,3790
6930,1977
6931,3617
6932,4888
6933,5136
6935,5563
6938,4928
6939,3182
6940,4797
6941,6532
6942,5380
6945,1526
6947,4680
6948,944
6951,3215
6952,4600
6953,2715
6954,2000
6955,4678
6957,1770
6961,6370
6962,2086
6963,4069
6964,4869
6967,6856
6969,6517
6971,2482
6972,4433
6973,4009
6974,1983
6975,333
6977,2471
6986,3439
6987,2090
6989,2513
6991,2960
6993,990
6997,1281
6998,2733
7003,1002
7004,4308
7005,619
7009,2820
7010,4912
7011,6259
7012,6981
7013,5049
7014,1848
7015,2451
7016,6317
7018,6579
7023,5169
7027,1959
7028,3371
7029,5403
7030,1223
7032,994
7034,5952
7035,4276
7036,2403
7039,1935
7045,1371
7046,6422
7047,2753
7049,4085
7054,66
7057,3552
7059,6602
7061,2920
7062,3743
7064,1993
7066,4708
7067,1951
7070,2906
7073,3771
7074,862
7075,3763
7077,3544
7081,5571
7082,710
7084,6946
7085,504
7086,4334
7088,7046
7093,5654
7095,1994
7096,2066
7097,3782
7099,2251
7101,2424
7104,6727
7105,5104
7112,5210
7123,3660
7130,1489
7131,4
7132,3267
7134,2957
7135,904
7136,3587
7137,5326
7140,6255
7141,6507
7142,947
7143,5537
7144,4946
7147,539
7148,3501
7149,6756
7151,7074
7152,6133
7153,5279
7157,239
7159,5543
7162,1389
7163,3797
7164,4843
7166,1716
7167,963
7168,2001
7169,2101
7170,5086
7171,257
7172,2810
7173,3593
7174,2536
7175,1406
7176,4442
7179,2913
7186,6261
7187,3979
7189,3735
7191,5041
7194,6728
7195,118
7196,1847
7197,1256
7198,1459
7199,5208
7202,5629
7206,1214
7207,1552
7209,479
7210,3922
7212,5356
7213,362
7216,4948
7217,6323
7218,7195
7222,2508
7223,786
7225,2309
7228,2328
7230,6930
7232,90
7233,4091
7236,4385
7237,3190
7238,336
7239,6756
7240,3052
7241,5257
7242,4372
7245,6390
7246,6678
7247,3586
7250,6490
7251,4329
7252,4754
7254,3872
7256,2796
7257,6685
7258,1667
7260,2113
7261,5522
7262,1864
7263,723
7264,5622
7265,2655
7266,1715
7267,5004
7269,4134
7271,142
7272,6885
7274,6152
7275,6888
7276,3166
7278,29
7282,427
7285,306
7288,981
7290,207
7292,5442
7293,7172
7296,468
7297,1779
7298,3908
7299,3616
7300,448
7301,5865
7302,2576
7305,2053
7309,5442
7312,7215
7313,1182
7317,3228
7321,6399
7323,2532
7325,5504
7326,5217
7328,3657
7329,2599
7330,2004
7331,4358
7333,5257
7337,7047
7338,6748
7342,1972
7344,2421
7347,7036
7348,2829
7350,7120
7351,5726
7352,6362
7354,4135
7356,269
7357,1579
7360,3171
7365,3157
7366,4524
7368,214
7370,6991
7372,3834
7376,891
7377,6042
7379,656
7380,5902
7382,694
7391,3059
7394,2755
7398,4596
7401,1098
7402,2507
7404,4933
7405,4950
7406,2629
7412,2715
7413,3483
7416,1245
7417,1427
7419,2459
7424,4027
7425,4921
7428,7381
7430,3077
7431,5951
7433,5598
7434,1947
7437,1647
7439,3430
7440,2477
7441,5797
7443,4005
7445,6479
7446,3476
7447,3468
7449,4176
7452,1328
7454,7123
7457,1672
7458,2242
7459,4133
7460,2681
7463,2324
7466,3180
7469,4343
7470,1573
7471,6342
7472,1705
7474,898
7481,1423
7483,6928
7486,3049
7488,7458
7490,233
7498,3866
7499,3896
7500,7005
7501,1762
7502,5777
7503,1945
7505,6707
7507,7350
7509,7025
7512,22
7513,3733
7514,2099
7515,4765
7516,1413
7517,7374
7519,1588
7520,2060
7521,3697
7522,2317
7524,4479
7525,6057
7527,3597
7528,2003
7529,1440
7530,1562
7531,2465
7532,4322
7533,2272
7538,3809
7539,4120
7541,4425
7542,1501
7543,6610
7544,3485
7550,2939
7552,2842
7553,3378
7554,3909
7557,5017
7558,255
7559,7251
7560,1837
7563,6998
7564,2970
7565,5714
7566,5514
7567,3811
7569,1496
7570,4260
7572,3848
7577,384
