:START_ID(Activity-ID),:END_ID(Entity-ID)
0,0
1,1
1,2
2,1
2,3
2,4
2,5
3,9
3,10
4,9
4,10
4,12
4,13
5,1
5,3
5,5
5,8
5,9
5,10
5,12
5,14
5,15
6,15
6,18
6,19
7,21
7,22
8,6
8,23
8,24
8,25
9,14
9,27
9,28
10,9
10,30
11,8
11,32
11,33
11,34
12,11
12,35
12,37
13,7
13,31
13,38
13,40
13,41
14,44
15,45
15,46
15,47
16,49
17,49
17,51
18,52
19,52
19,53
19,55
19,56
20,58
21,60
21,62
22,64
22,66
22,67
23,70
24,71
24,73
25,73
25,76
25,77
25,78
26,84
27,81
27,84
27,85
28,85
28,87
28,88
28,89
29,92
30,92
30,95
30,96
30,97
31,94
31,95
31,97
31,98
31,99
32,95
32,98
32,99
33,97
33,101
33,102
34,103
35,102
35,106
35,107
36,108
36,109
37,107
37,112
37,113
37,114
38,69
38,88
38,106
38,112
38,115
38,116
38,117
38,118
39,90
39,115
39,119
39,120
39,121
40,121
40,122
41,124
42,21
42,127
43,129
43,130
44,133
45,133
45,135
46,31
46,104
46,132
46,134
46,137
46,138
46,139
47,105
47,114
47,127
47,134
47,136
47,138
47,139
47,140
47,141
48,142
49,138
49,144
49,145
49,146
50,147
51,143
51,150
51,151
52,149
52,155
52,156
53,79
53,154
53,160
53,161
54,48
54,129
54,161
54,167
54,168
54,169
55,28
55,161
55,169
55,170
56,164
56,172
56,173
56,174
57,174
57,176
58,171
58,177
58,178
58,179
58,180
59,175
59,181
59,183
60,185
60,188
61,179
61,187
61,188
61,189
62,182
62,190
62,191
62,192
63,196
63,198
64,197
64,199
65,199
65,201
66,195
66,202
66,203
66,204
67,197
67,204
67,205
67,206
67,207
68,198
68,207
68,209
69,201
69,210
69,212
70,214
71,216
72,36
72,209
72,219
73,212
73,220
73,222
74,214
74,224
74,226
75,218
75,228
75,229
75,230
75,231
76,221
76,231
76,232
76,233
77,228
77,237
77,238
77,239
78,239
78,241
79,231
79,240
79,242
80,232
80,243
80,245
81,237
81,248
81,250
82,253
83,255
84,245
84,256
84,258
85,246
85,257
85,259
86,262
87,76
87,265
87,267
88,270
88,272
88,273
89,274
89,276
90,267
90,270
90,278
90,279
90,280
90,281
91,268
91,281
91,283
92,271
92,284
92,286
93,287
93,289
94,278
94,290
94,291
94,292
95,280
95,282
95,292
95,293
95,294
95,295
96,295
96,298
97,285
97,288
97,297
97,298
97,299
97,300
98,287
98,299
98,300
98,301
99,289
99,302
99,304
100,307
100,309
101,299
101,312
101,314
102,314
102,316
103,303
103,316
103,317
103,318
104,320
105,304
105,319
105,320
105,321
106,323
106,325
107,311
107,325
107,326
107,327
108,312
108,326
108,328
108,329
109,333
110,322
110,336
110,338
111,339
111,341
112,341
112,343
113,344
113,345
113,346
114,345
114,347
115,283
115,333
115,337
115,348
115,349
115,350
115,351
116,353
116,355
117,361
118,362
118,365
119,104
119,363
119,366
120,366
120,368
120,370
121,356
121,371
121,373
121,374
122,374
122,378
123,376
123,378
123,380
124,378
124,382
125,379
125,382
126,367
126,384
126,386
126,387
126,388
127,389
127,392
128,376
128,392
128,394
128,395
129,397
130,396
130,398
130,399
131,381
131,399
131,401
131,402
132,386
132,404
132,406
132,407
133,409
134,408
134,411
135,412
135,415
136,415
136,417
136,418
137,418
137,421
138,401
138,420
138,422
138,423
139,405
139,423
139,425
139,426
140,429
141,430
142,428
142,431
143,411
143,429
143,431
143,432
144,433
144,435
144,436
145,435
145,438
146,440
146,442
146,443
147,443
147,446
148,427
148,446
148,448
148,449
148,450
149,128
149,429
149,448
149,451
150,432
150,453
150,455
150,456
150,457
151,454
151,456
151,457
152,460
152,463
153,465
153,467
153,468
154,468
154,471
155,470
155,473
156,452
156,473
156,475
156,476
156,477
157,476
157,479
158,478
158,481
159,484
160,483
160,485
160,486
161,485
161,487
161,488
162,486
162,489
163,487
163,490
164,489
164,491
164,492
165,141
165,494
165,497
166,497
166,500
167,478
167,500
167,502
167,503
167,504
168,509
169,509
169,512
170,513
170,515
170,516
171,492
171,515
171,516
171,517
171,518
171,519
172,520
172,523
173,521
173,523
173,524
174,526
174,529
175,503
175,528
175,529
175,530
175,531
176,529
176,532
177,534
177,537
178,154
178,540
178,543
179,542
179,544
179,545
180,547
181,156
181,547
181,550
182,525
182,551
182,553
182,554
183,556
183,558
183,560
184,559
184,561
184,562
185,561
185,563
185,564
186,563
186,565
186,566
187,568
188,568
188,572
189,572
190,573
190,575
190,576
191,549
191,576
191,577
191,578
191,579
192,551
192,578
192,580
192,581
193,579
193,581
193,582
194,585
195,587
195,590
196,561
196,589
196,591
196,592
197,591
197,593
197,594
198,592
198,595
199,169
199,565
199,593
199,594
199,596
200,594
200,596
200,597
201,595
201,598
202,572
202,599
202,600
202,601
202,602
203,603
203,606
204,577
204,606
204,607
204,608
204,609
205,610
206,580
206,609
206,611
206,612
207,613
207,615
207,616
208,101
208,617
208,619
209,588
209,616
209,618
209,619
210,618
210,621
211,620
211,623
212,625
212,629
213,629
213,633
214,631
214,633
214,635
215,636
216,636
216,638
216,639
217,640
217,643
218,612
218,643
218,644
218,645
218,646
219,645
219,647
219,648
220,647
220,649
220,650
221,651
221,653
221,654
222,652
222,655
223,656
224,657
224,659
224,660
225,660
225,664
226,663
226,666
227,665
227,668
228,637
228,668
228,670
228,672
229,669
229,671
229,672
230,639
230,669
230,672
230,674
231,643
231,674
231,675
231,676
231,678
232,680
233,646
233,679
233,681
233,682
234,681
234,685
235,684
235,688
236,660
236,691
236,693
236,694
236,695
237,698
238,695
238,698
238,699
239,697
239,701
240,668
240,701
240,703
240,704
240,705
241,704
241,707
241,709
242,711
243,707
243,711
244,710
244,713
244,715
245,711
245,715
246,715
246,718
246,719
247,717
247,721
248,718
248,721
248,722
249,721
249,725
250,689
250,722
250,725
250,726
251,723
251,726
251,727
252,729
252,733
253,699
253,732
253,735
253,736
254,700
254,735
254,738
254,740
255,701
255,736
255,738
255,739
255,740
255,741
256,741
256,746
257,750
258,748
258,751
258,752
259,751
259,754
259,755
260,721
260,756
260,758
260,759
260,760
261,727
261,762
261,765
261,767
262,771
263,773
264,775
265,773
265,777
266,221
266,740
266,776
266,780
267,744
267,780
267,782
267,783
267,784
267,785
268,783
268,787
269,751
269,787
269,789
269,790
269,791
270,130
270,387
270,755
270,794
270,795
270,796
271,793
271,796
271,798
272,757
272,794
272,797
272,798
273,796
273,800
274,762
274,799
274,802
274,804
275,801
275,804
275,806
276,803
276,807
277,808
277,811
277,812
278,812
278,816
279,816
279,820
280,780
280,818
280,821
280,823
281,234
281,822
281,827
282,787
282,825
282,828
282,829
283,826
283,829
283,831
284,831
284,835
285,794
285,833
285,836
285,837
286,834
286,838
287,840
288,799
288,808
288,838
288,840
288,841
288,842
288,843
289,802
289,841
289,843
289,844
289,845
290,844
290,847
290,848
291,846
291,850
292,854
293,812
293,852
293,855
293,856
294,814
294,854
294,857
294,858
295,856
295,859
295,860
296,859
296,862
296,863
297,822
297,862
297,865
297,866
298,871
299,869
299,873
300,871
300,874
300,875
301,873
301,877
302,144
302,882
303,841
303,882
303,884
303,885
303,886
304,883
304,886
304,887
305,887
305,891
306,849
306,891
306,893
306,894
306,896
307,853
307,895
307,898
307,900
308,856
308,898
308,900
308,901
308,902
309,859
309,901
309,904
309,905
310,860
310,902
310,904
310,905
310,906
311,903
311,906
311,907
312,906
312,909
312,910
313,910
313,914
314,912
314,915
314,916
315,260
315,914
315,919
316,876
316,919
316,921
316,922
316,923
317,925
318,924
318,927
318,928
319,882
319,926
319,929
319,930
320,930
320,933
320,934
321,931
321,934
321,935
322,934
322,937
322,938
323,892
323,936
323,938
323,939
323,940
324,940
324,943
324,944
325,943
325,946
325,948
326,947
326,950
326,951
327,905
327,950
327,953
327,954
328,957
329,961
330,963
331,963
331,967
332,966
332,969
332,971
333,159
333,973
333,974
334,926
334,972
334,974
334,975
334,976
335,930
335,976
335,979
335,980
336,984
337,934
337,981
337,983
337,984
337,986
338,935
338,982
338,984
338,985
338,986
338,987
339,936
339,983
339,985
339,986
339,988
340,987
340,990
340,992
341,943
341,990
341,993
341,994
342,992
342,995
342,996
343,947
343,994
343,997
343,998
344,1003
345,954
345,1002
345,1004
345,1005
345,1007
346,286
346,1006
346,1011
347,961
347,1009
347,1011
347,1012
347,1013
347,1014
348,1012
348,1016
349,967
349,1015
349,1018
349,1019
350,978
350,1017
350,1019
350,1020
350,1022
351,1023
351,1026
351,1028
352,1024
352,1028
353,979
353,1028
353,1030
353,1031
353,1032
354,1030
354,1033
354,1034
355,1032
355,1036
356,1035
356,1038
356,1039
357,1037
357,1041
358,1039
358,1043
359,991
359,1041
359,1044
359,1045
360,1049
361,1049
361,1053
362,1053
362,1057
363,1054
363,1058
364,1006
364,1057
364,1060
364,1062
365,1059
365,1062
365,1064
366,1061
366,1064
366,1066
367,1011
367,1062
367,1065
367,1066
368,1012
368,1063
368,1065
368,1066
368,1067
368,1068
369,1016
369,1027
369,1067
369,1069
369,1070
369,1071
369,1072
370,1075
371,1073
371,1077
372,1075
372,1078
372,1079
373,1076
373,1081
374,1079
374,1082
374,1083
375,1083
375,1087
376,1085
376,1089
377,1037
377,1089
377,1091
377,1092
377,1093
378,1091
378,1095
379,1042
379,1095
379,1098
379,1100
380,1097
380,1102
381,1100
381,1103
381,1104
382,1049
382,1059
382,1102
382,1104
382,1105
382,1106
383,1054
383,1107
383,1110
383,1111
384,1115
385,1060
385,1114
385,1117
385,1119
386,1117
386,1120
386,1121
387,1120
387,1123
387,1125
388,1071
388,1125
388,1128
388,1129
389,1134
390,1131
390,1136
391,1135
391,1140
392,1083
392,1138
392,1141
392,1142
393,1085
393,1140
393,1142
393,1143
393,1144
394,1143
394,1146
394,1147
395,1146
395,1151
396,1149
396,1153
397,1157
398,1159
399,1157
399,1161
400,1102
400,1158
400,1160
400,1161
400,1162
401,1164
402,1163
402,1166
402,1168
403,1166
403,1170
404,1169
404,1172
404,1174
405,1176
406,1175
406,1179
407,1176
407,1180
408,1182
408,1185
408,1187
409,1184
409,1187
409,1189
410,1185
410,1188
410,1189
411,338
411,580
411,1132
411,1189
411,1192
411,1194
412,195
412,1195
413,1134
413,1192
413,1194
413,1195
413,1196
414,1193
414,1197
415,1194
415,1197
415,1198
416,1139
416,1196
416,1200
416,1202
417,1141
417,1199
417,1201
417,1202
417,1204
418,1144
418,1201
418,1205
418,1206
419,1205
419,1209
419,1210
420,1149
420,1207
420,1211
420,1212
421,1151
421,1209
421,1213
421,1214
422,1210
422,1215
423,1212
423,1217
424,1155
424,1213
424,1217
424,1219
425,1215
425,1221
426,1223
427,1222
427,1226
427,1227
428,1232
429,1236
430,1173
430,1232
430,1236
430,1238
431,1236
431,1240
431,1242
432,1244
433,1244
433,1249
434,1245
434,1251
435,1250
435,1255
436,1195
436,1255
436,1258
436,1259
436,1260
437,1199
437,1211
437,1259
437,1262
437,1263
437,1264
438,1264
438,1270
439,1206
439,1218
439,1267
439,1270
439,1271
439,1272
440,1210
440,1222
440,1271
440,1274
440,1275
440,1276
440,1277
441,1273
441,1278
442,1214
442,1275
442,1278
442,1279
442,1280
442,1281
443,1280
443,1284
443,1285
444,1282
444,1286
444,1287
444,1288
445,1225
445,1287
445,1291
445,1292
446,1228
446,1290
446,1294
446,1295
447,1293
447,1298
448,1300
449,1297
449,1301
449,1302
450,1300
450,1304
450,1306
451,1244
451,1307
451,1311
451,1313
452,1247
452,1310
452,1314
452,1315
453,1321
454,1320
454,1323
454,1324
454,1325
454,1326
455,1328
456,1325
456,1329
456,1330
457,1332
457,1336
457,1338
458,1334
458,1339
459,1338
459,1343
460,1347
461,1279
461,1344
461,1348
461,1349
462,1348
462,1352
462,1353
463,1352
463,1356
463,1358
464,1354
464,1360
465,1357
465,1362
466,1358
466,1362
466,1364
467,1306
467,1359
467,1362
467,1363
467,1364
467,1365
468,1369
469,224
469,1373
470,1371
470,1375
470,1377
471,1308
471,1374
471,1378
471,1379
472,1377
472,1380
472,1381
472,1383
473,1380
473,1384
473,1385
474,1382
474,1388
475,1385
475,1389
475,1390
476,1388
476,1392
476,1394
477,1390
477,1396
478,1326
478,1393
478,1396
478,1397
478,1398
479,1401
480,1403
481,1402
481,1407
482,1405
482,1409
482,1411
483,1408
483,1413
484,1410
484,1415
485,1413
485,1417
485,1418
486,1348
486,1417
486,1420
486,1421
486,1422
487,1421
487,1425
487,1426
488,1425
488,1429
488,1431
489,1426
489,1431
490,1435
491,1435
491,1441
492,1367
492,1437
492,1440
492,1441
492,1442
493,1439
493,1444
494,1443
494,1448
495,1375
495,1445
495,1447
495,1449
495,1450
496,1447
496,1451
496,1452
497,1456
498,1453
498,1455
498,1457
498,1458
498,1459
499,238
499,1458
499,1459
499,1460
500,1458
500,1463
501,1460
501,1465
502,1463
502,1467
502,1469
503,1466
503,1471
504,1467
504,1472
505,1478
506,1402
506,1474
506,1478
506,1480
507,1408
507,1480
507,1482
507,1484
507,1485
508,1482
508,1486
508,1487
509,1488
509,1492
509,1493
510,1492
510,1496
510,1497
511,1420
511,1493
511,1497
511,1498
512,1422
512,1495
512,1499
512,1500
513,1501
513,1505
513,1506
514,1503
514,1507
514,1508
515,1507
515,1512
516,1510
516,1513
516,1515
516,1516
517,1438
517,1512
517,1516
517,1517
518,1514
518,1517
518,1519
519,1442
519,1516
519,1520
519,1521
520,1519
520,1525
521,1520
521,1523
521,1525
522,1523
522,1528
523,1525
523,1530
524,1530
524,1533
524,1536
525,1459
525,1534
525,1536
525,1537
525,1539
526,1460
526,1535
526,1538
526,1540
527,1462
527,1537
527,1539
527,1540
527,1542
527,1543
528,1538
528,1541
528,1543
529,1547
529,1549
529,1550
529,1553
530,1550
530,1553
530,1556
531,1478
531,1554
531,1556
531,1557
531,1560
532,1564
533,1560
533,1563
533,1566
534,1564
534,1567
534,1569
535,1566
535,1569
535,1571
536,1494
536,1571
536,1573
536,1574
536,1577
537,1498
537,1575
537,1578
537,1580
538,1578
538,1584
539,1502
539,1579
539,1582
539,1584
540,1581
540,1586
541,1584
541,1590
542,1587
542,1590
542,1592
542,1593
543,1594
544,1594
544,1597
544,1599
545,1598
545,1601
545,1603
546,455
546,1541
546,1603
546,1605
546,1608
546,1609
547,1610
548,1605
548,1610
549,1609
549,1612
549,1614
550,1531
550,1610
550,1613
550,1616
551,1613
551,1618
552,1537
552,1552
552,1616
552,1618
552,1619
552,1621
553,1623
554,1539
554,1618
554,1620
554,1621
554,1623
555,1540
555,1619
555,1622
555,1625
556,1625
557,1622
557,1625
557,1627
557,1628
558,1627
558,1630
558,1633
559,1549
559,1629
559,1632
559,1634
560,267
560,1635
560,1638
561,1555
561,1635
561,1638
561,1640
562,1558
562,1638
562,1640
562,1641
562,1644
563,1640
563,1646
564,1644
564,1647
564,1649
564,1650
565,1567
565,1648
565,1651
565,1653
566,1653
566,1656
566,1659
567,1657
567,1662
568,1578
568,1659
568,1662
568,1664
569,1666
570,1583
570,1665
570,1668
570,1670
571,1675
572,1677
573,1675
573,1678
573,1681
574,1679
574,1681
574,1682
574,1685
575,1682
575,1684
575,1685
575,1688
576,1603
576,1686
576,1689
576,1692
577,823
577,1607
577,1690
577,1692
577,1693
577,1696
578,1693
578,1696
578,1698
579,1698
579,1703
580,1699
580,1701
580,1702
580,1704
580,1705
581,1701
581,1704
581,1707
582,1709
583,1705
583,1708
583,1711
584,1708
584,1711
584,1714
585,1711
585,1716
586,1714
586,1720
587,1718
587,1720
587,1721
587,1724
588,1721
588,1724
588,1727
589,1722
589,1727
590,1641
590,1726
590,1729
590,1731
591,1730
591,1733
591,1735
592,1733
592,1736
592,1738
593,1649
593,1734
593,1737
593,1740
594,1739
594,1742
594,1744
595,1301
595,1655
595,1673
595,1741
595,1743
595,1744
595,1746
596,1748
597,1751
598,1748
598,1753
599,1752
599,1755
599,1757
600,1756
600,1759
600,1761
600,1762
601,1758
601,1764
602,1673
602,1760
602,1762
602,1763
602,1765
602,1766
603,1762
603,1765
603,1768
604,1766
604,1772
605,1681
605,1768
605,1771
605,1774
606,1769
606,1772
606,1774
607,1771
607,1777
608,1774
608,1777
608,1779
609,1776
609,1781
610,1780
610,1785
611,1790
612,1787
612,1792
613,1791
613,1794
613,1796
614,1795
614,1801
615,1797
615,1799
615,1800
615,1802
615,1803
616,1798
616,1803
617,1804
617,1809
618,1807
618,1810
618,1812
619,1811
619,1814
619,1816
620,1812
620,1815
620,1818
621,1818
622,1816
622,1818
622,1819
622,1822
623,1819
623,1825
624,1823
624,1826
624,1829
625,1739
625,1829
625,1832
625,1835
626,1833
626,1838
627,1834
627,1836
627,1837
627,1839
627,1840
628,1839
628,1844
629,1845
629,1851
630,1849
630,1855
631,1862
632,1857
632,1860
632,1862
633,1860
633,1866
634,1865
634,1870
635,1867
635,1870
635,1872
636,1868
636,1873
637,1870
637,1872
637,1873
637,1875
637,1876
638,1873
638,1879
639,1877
639,1880
639,1883
640,1886
641,1886
641,1892
642,1887
642,1892
643,1896
644,1802
644,1896
644,1898
644,1899
644,1901
645,1898
645,1901
645,1903
646,1809
646,1903
646,1906
646,1909
647,1810
647,1904
647,1906
647,1907
647,1910
648,1909
648,1914
649,1911
649,1916
650,1914
650,1917
650,1920
651,1916
651,1921
652,1823
652,1918
652,1921
652,1923
653,1920
653,1925
654,1923
654,1929
655,1926
655,1928
655,1929
655,1931
655,1932
656,1930
656,1932
656,1933
656,1936
657,1932
657,1938
658,1839
658,1935
658,1938
658,1940
659,1936
659,1939
659,1942
660,1939
660,1942
660,1945
661,1947
662,1847
662,1943
662,1946
662,1949
663,1944
663,1949
664,1947
664,1953
665,1949
665,1951
665,1952
665,1955
666,1952
666,1955
666,1958
667,1962
668,1957
668,1960
668,1962
669,1863
669,1960
669,1963
669,1966
670,1887
670,1964
670,1966
670,1967
670,1969
670,1970
671,1871
671,1969
671,1972
671,1975
672,1971
672,1977
673,1875
673,1973
673,1976
673,1979
674,1977
674,1982
675,1881
675,1901
675,1979
675,1981
675,1982
675,1984
676,1981
676,1986
677,1982
677,1985
677,1988
678,1984
678,1990
679,1990
679,1995
680,1996
680,2001
681,1900
681,1999
681,2002
681,2004
682,2003
682,2006
682,2008
683,2005
683,2008
683,2010
684,2007
684,2010
684,2012
685,1909
685,2009
685,2012
685,2015
686,2017
687,1912
687,2011
687,2015
687,2017
688,1915
688,2015
688,2017
688,2018
688,2021
689,2021
689,2024
689,2025
689,2028
690,2023
690,2030
691,2025
691,2030
692,1339
692,1925
692,1946
692,2026
692,2028
692,2029
692,2031
692,2032
693,2028
693,2032
693,2034
694,332
694,1930
694,2034
694,2036
695,2033
695,2037
695,2039
696,1936
696,2036
696,2040
696,2043
697,2043
698,2045
699,2041
699,2045
699,2047
699,2048
700,1943
700,1964
700,2044
700,2047
700,2048
700,2050
701,2046
701,2050
701,2052
702,1949
702,2050
702,2054
702,2056
703,2061
704,2061
704,2065
704,2067
705,2069
706,2065
706,2071
707,2067
707,2074
708,2076
709,1971
709,2073
709,2077
709,2080
710,2082
711,483
711,2077
711,2081
711,2083
711,2084
712,2087
713,2089
714,2083
714,2089
715,2086
715,2093
716,2089
716,2096
717,2092
717,2098
718,2100
719,2102
720,2097
720,2100
720,2101
720,2104
721,1997
721,2019
721,2101
721,2104
721,2105
721,2107
722,2000
722,2104
722,2108
722,2111
723,2106
723,2110
723,2113
724,2006
724,2110
724,2114
724,2117
725,2122
726,2015
726,2120
726,2123
726,2124
726,2126
727,2123
727,2127
727,2130
728,2127
728,2133
729,2129
729,2135
730,2133
730,2136
730,2137
730,2140
731,2137
731,2144
732,2038
732,2144
732,2148
732,2150
733,2042
733,2148
733,2151
733,2152
733,2155
734,2044
734,2150
734,2154
734,2157
735,2045
735,2151
735,2155
735,2157
736,2161
737,2160
737,2166
738,2163
738,2167
738,2170
739,2167
739,2171
739,2174
740,2171
740,2177
741,2174
741,2178
741,2181
742,2179
742,2186
743,2074
743,2182
743,2186
743,2188
744,2186
744,2192
745,2187
745,2191
745,2194
746,2190
746,2194
746,2197
747,2107
747,2193
747,2196
747,2197
747,2199
747,2200
748,2196
748,2203
749,2199
749,2205
750,2202
750,2208
751,2204
751,2210
752,2212
753,361
753,2212
753,2214
754,2209
754,2212
754,2213
754,2216
755,2214
755,2221
756,2219
756,2223
756,2225
757,2223
757,2230
758,2232
759,2230
759,2234
759,2236
760,2123
760,2234
760,2238
760,2241
761,2237
761,2241
761,2243
762,2238
762,2242
762,2245
763,2241
763,2247
764,2242
764,2246
764,2249
765,2244
765,2251
766,2247
766,2251
766,2254
767,2251
767,2255
767,2258
768,2141
768,2253
768,2256
768,2257
768,2260
769,2259
769,2265
770,2269
771,2267
771,2270
771,2271
771,2273
771,2274
772,2272
772,2278
773,2161
773,2274
773,2277
773,2278
773,2280
773,2281
774,2166
774,2279
774,2282
774,2283
774,2285
775,2168
775,2281
775,2285
775,2287
776,2291
777,2286
777,2289
777,2290
777,2292
777,2293
778,2287
778,2290
778,2291
778,2294
779,2290
779,2296
780,2178
780,2292
780,2295
780,2296
780,2298
781,2293
781,2300
782,2296
782,2300
782,2302
783,2185
783,2299
783,2302
783,2303
783,2306
784,2307
785,2303
785,2307
785,2309
786,2306
786,2309
786,2310
786,2313
787,2313
788,2196
788,2311
788,2315
788,2318
789,2318
790,2317
790,2321
790,2324
791,2320
791,2324
791,2327
792,2322
792,2329
793,2325
793,2329
793,2331
793,2332
794,2329
794,2335
795,2331
795,2338
796,2221
796,2337
796,2340
796,2341
796,2344
797,2341
797,2344
797,2345
797,2347
797,2348
798,383
798,2346
798,2347
798,2350
799,2347
799,2351
799,2353
800,2233
800,2350
800,2354
800,2357
801,2236
801,2353
801,2356
801,2357
801,2359
801,2360
802,2355
802,2359
802,2362
803,2357
803,2364
804,2358
804,2362
804,2364
805,2364
805,2368
805,2371
806,2368
806,2375
807,2371
807,2377
808,2384
809,2379
809,2382
809,2383
809,2386
810,2380
810,2384
810,2386
810,2387
811,2382
811,2386
811,2388
812,2388
812,2392
812,2395
813,2390
813,2394
813,2397
814,2394
814,2401
815,2396
815,2403
816,2400
816,2404
816,2406
817,2404
817,2408
817,2410
818,2407
818,2411
818,2414
819,2410
819,2417
820,2412
820,2416
820,2419
821,2415
821,2422
822,2417
822,2420
822,2421
822,2423
822,2424
823,2424
824,2426
825,2428
826,2423
826,2427
826,2430
827,2427
827,2434
828,2431
828,2437
829,2433
829,2439
830,2435
830,2441
831,2445
832,2440
832,2446
833,2323
833,2445
833,2449
833,2452
834,2447
834,2454
835,2451
835,2457
836,2455
836,2459
836,2461
836,2462
837,2465
838,2468
839,2342
839,2465
839,2469
839,2472
840,2467
840,2471
840,2474
841,2346
841,2469
841,2472
841,2473
841,2476
842,2475
842,2479
842,2481
843,2478
843,2482
843,2485
844,2481
844,2485
844,2488
845,2483
845,2490
846,2363
846,2487
846,2491
846,2494
847,2367
847,2491
847,2495
847,2498
848,2492
848,2496
848,2499
849,2496
849,2499
849,2500
849,2502
849,2503
850,2498
850,2501
850,2502
850,2505
851,2500
851,2504
851,2507
852,2502
852,2508
853,2509
853,2513
853,2516
854,2518
855,2516
855,2523
856,2527
857,2396
857,2522
857,2525
857,2526
857,2528
857,2529
858,2525
858,2532
859,2528
859,2532
859,2534
860,2531
860,2538
861,2532
861,2536
861,2539
862,2534
862,2538
862,2541
863,2539
863,2543
863,2545
864,2542
864,2546
864,2549
865,2544
865,2550
866,2545
866,2552
867,2421
867,2548
867,2552
867,2554
868,2549
868,2553
868,2556
869,2552
869,2555
869,2556
869,2559
870,2554
870,2558
870,2561
871,2429
871,2557
871,2561
871,2563
872,2563
872,2567
872,2570
873,2567
873,2571
873,2574
874,2570
874,2574
874,2576
875,2575
875,2581
876,2579
876,2585
877,2581
877,2588
878,2454
878,2583
878,2586
878,2587
878,2590
879,2584
879,2588
879,2591
880,2484
880,2587
880,2590
880,2591
880,2593
880,2594
881,2594
882,2592
882,2595
882,2596
882,2599
883,2595
883,2601
884,2600
884,2604
884,2607
885,2604
885,2608
885,2611
886,2612
887,2612
888,2608
888,2614
889,2611
889,2615
889,2618
890,2614
890,2621
891,2617
891,2623
892,2489
892,2620
892,2624
892,2627
893,2624
893,2628
893,2631
894,2627
894,2631
894,2634
895,2631
895,2634
895,2635
895,2637
895,2638
896,2637
896,2641
896,2643
897,2509
897,2641
897,2645
897,2647
898,2651
899,2647
899,2650
899,2651
899,2653
899,2654
900,2651
900,2658
901,2655
901,2659
901,2662
902,2524
902,2657
902,2660
902,2661
902,2663
903,2659
903,2665
904,2662
904,2669
905,2666
905,2669
905,2670
905,2672
905,2673
906,2672
906,2678
907,2675
907,2679
907,2682
908,2679
908,2685
909,2682
909,2685
909,2686
909,2688
909,2689
910,2685
910,2689
910,2692
911,2687
911,2691
911,2694
912,2694
913,2556
913,2691
913,2695
913,2698
914,2693
914,2697
914,2700
915,2563
915,2698
915,2701
915,2702
915,2703
915,2704
915,2705
916,2701
916,2705
916,2707
916,2708
917,2703
917,2710
918,2706
918,2709
918,2710
918,2713
919,2708
919,2712
919,2714
920,2718
921,2713
921,2720
922,2714
922,2721
923,2717
923,2721
923,2723
924,2719
924,2725
925,2721
925,2727
926,2724
926,2731
927,2590
927,2727
927,2731
927,2734
928,2594
928,2731
928,2734
928,2735
928,2738
929,2595
929,2623
929,2732
929,2735
929,2736
929,2738
930,2741
931,2738
931,2745
932,2739
932,2743
932,2745
933,2740
933,2743
933,2744
933,2747
934,2744
934,2748
934,2751
935,2746
935,2753
936,2758
937,2762
938,782
938,2759
938,2765
939,2762
939,2769
940,2764
940,2768
940,2771
941,2768
941,2774
942,2633
942,2772
942,2776
942,2778
943,2775
943,2779
943,2782
944,2778
944,2781
944,2782
944,2784
944,2785
945,2782
945,2785
945,2786
945,2789
946,2644
946,2784
946,2788
946,2791
947,2647
947,2787
947,2791
947,2794
948,2789
948,2793
948,2796
949,2796
949,2803
950,2798
950,2802
950,2805
951,2802
951,2805
951,2806
951,2809
952,2663
952,2804
952,2808
952,2811
953,2813
954,2666
954,2807
954,2811
954,2814
955,2808
955,2812
955,2814
956,2669
956,2810
956,2814
956,2816
957,2672
957,2813
957,2817
957,2820
958,2817
958,2823
959,2819
959,2825
960,2822
960,2826
960,2829
961,2830
961,2836
962,2833
962,2836
962,2837
962,2840
963,2845
964,2698
964,2841
964,2845
964,2847
965,2844
965,2848
965,2851
966,2707
966,2850
966,2853
966,2854
966,2856
967,2739
967,2853
967,2856
967,2857
967,2859
967,2860
968,2859
968,2863
968,2865
969,2717
969,2861
969,2865
969,2868
970,2863
970,2867
970,2870
971,2868
971,2872
971,2874
972,2871
972,2878
973,2873
973,2877
973,2880
974,2875
974,2882
975,2763
975,2878
975,2881
975,2882
975,2884
975,2885
976,2883
976,2887
976,2890
977,2742
977,2887
977,2890
977,2891
977,2893
977,2894
978,2891
978,2895
978,2898
979,2901
980,2903
981,2753
981,2899
981,2903
981,2905
982,2754
982,2900
982,2903
982,2904
982,2907
983,2756
983,2902
983,2906
983,2909
984,2906
984,2910
984,2912
985,2909
985,2912
985,2913
985,2915
985,2916
986,2911
986,2914
986,2915
986,2918
987,2914
987,2918
987,2921
988,2917
988,2921
988,2923
989,477
989,2927
990,2924
990,2928
990,2931
991,2926
991,2930
991,2932
992,2929
992,2933
992,2936
993,2935
993,2941
994,2791
994,2939
994,2942
994,2943
994,2946
995,2945
995,2952
996,2957
997,2953
997,2960
998,2961
999,2962
999,2969
1000,2970
1001,2968
1001,2972
1001,2975
1002,2972
1002,2976
1002,2979
1003,2981
1004,2976
1004,2980
1004,2983
1005,2978
1005,2982
1005,2985
1006,2830
1006,2980
1006,2984
1006,2987
1007,2984
1007,2990
1008,2990
1008,2997
1009,2992
1009,2996
1009,2999
1010,2996
1010,3000
1010,3003
1011,2846
1011,2997
1011,3001
1011,3004
1012,2999
1012,3003
1012,3006
1013,3002
1013,3006
1013,3009
1014,3004
1014,3010
1015,3008
1015,3015
1016,3010
1016,3013
1016,3014
1016,3017
1017,2890
1017,3011
1017,3014
1017,3015
1017,3017
1017,3018
1018,3016
1018,3023
1019,3019
1019,3023
1019,3026
1020,3023
1020,3030
1021,3025
1021,3028
1021,3029
1021,3032
1022,3036
1023,3033
1023,3037
1023,3039
1024,3037
1024,3041
1024,3044
1025,3041
1025,3045
1025,3048
1026,3044
1026,3048
1026,3050
1027,3057
1028,2898
1028,3052
1028,3056
1028,3059
1029,2900
1029,3054
1029,3057
1029,3058
1029,3060
1029,3061
1030,3059
1030,3066
1031,3063
1031,3067
1031,3070
1032,3067
1032,3070
1032,3071
1032,3074
1033,2914
1033,3069
1033,3073
1033,3076
1034,3070
1034,3077
1035,3072
1035,3076
1035,3079
1036,3075
1036,3082
1037,3078
1037,3082
1037,3085
1038,3083
1038,3086
1038,3087
1038,3090
1039,3086
1039,3090
1039,3093
1040,2933
1040,2965
1040,3089
1040,3092
1040,3093
1040,3095
1041,3099
1042,3099
1042,3106
1043,3105
1043,3112
1044,3112
1044,3116
1044,3119
1045,3119
1045,3126
1046,3124
1046,3127
1046,3128
1046,3130
1046,3131
1047,3125
1047,3128
1047,3129
1047,3132
1048,3130
1048,3137
1049,3133
1049,3137
1049,3140
1050,2977
1050,3135
1050,3138
1050,3139
1050,3142
1051,3140
1051,3147
1052,3149
1053,2346
1053,3144
1053,3147
1053,3148
1053,3150
1053,3151
1054,3153
1055,3149
1055,3153
1055,3156
1056,3152
1056,3159
1057,3155
1057,3159
1057,3162
1058,3158
1058,3161
1058,3162
1058,3164
1058,3165
1059,3161
1059,3164
1059,3165
1059,3168
1060,3004
1060,3164
1060,3168
1060,3171
1061,3166
1061,3170
1061,3173
1062,3169
1062,3176
1063,3171
1063,3175
1063,3178
1064,3174
1064,3177
1064,3178
1064,3181
1065,3177
1065,3180
1065,3181
1065,3184
1066,3052
1066,3151
1066,3180
1066,3182
1066,3183
1066,3184
1066,3185
1066,3186
1066,3187
1067,3024
1067,3185
1067,3189
1067,3191
1068,3026
1068,3187
1068,3191
1068,3194
1069,3190
1069,3197
1070,3205
1071,3040
1071,3202
1071,3205
1071,3206
1071,3208
1071,3209
1072,3206
1072,3210
1072,3213
1073,3047
1073,3209
1073,3212
1073,3213
1073,3216
1074,3210
1074,3214
1074,3217
1075,3214
1075,3218
1075,3220
1076,3218
1076,3221
1076,3222
1076,3223
1076,3224
1076,3225
1077,3060
1077,3223
1077,3227
1077,3229
1078,3062
1078,3225
1078,3229
1078,3232
1079,3226
1079,3230
1079,3233
1080,3231
1080,3234
1080,3235
1080,3238
1081,3238
1081,3245
1082,3240
1082,3247
1083,3078
1083,3242
1083,3246
1083,3249
1084,3081
1084,3245
1084,3248
1084,3249
1084,3252
1085,3083
1085,3247
1085,3250
1085,3251
1085,3254
1086,3255
1087,3256
1088,3254
1088,3258
1088,3261
1089,3257
1089,3260
1089,3261
1089,3264
1090,3098
1090,3263
1090,3267
1090,3270
1091,3266
1091,3273
1092,3269
1092,3276
1093,3272
1093,3279
1094,3273
1094,3280
1095,3276
1095,3280
1095,3283
1096,3112
1096,3278
1096,3282
1096,3285
1097,3114
1097,3280
1097,3283
1097,3284
1097,3287
1098,3284
1098,3288
1098,3291
1099,3288
1099,3292
1099,3294
1099,3295
1100,3290
1100,3297
1101,3293
1101,3300
1102,3162
1102,3295
1102,3298
1102,3299
1102,3301
1102,3302
1103,3298
1103,3305
1104,3301
1104,3305
1104,3308
1105,3305
1105,3312
1106,3314
1107,3310
1107,3314
1107,3317
1108,3314
1108,3318
1108,3321
1109,3316
1109,3323
1110,3318
1110,3322
1110,3325
1111,3322
1111,3326
1111,3329
1112,3192
1112,3326
1112,3329
1112,3330
1112,3332
1112,3333
1113,3336
1114,3329
1114,3333
1114,3334
1114,3337
1115,3340
1116,3344
1117,3338
1117,3342
1117,3345
1118,3339
1118,3346
1119,3340
1119,3345
1119,3348
1120,3342
1120,3350
1121,3346
1121,3351
1121,3354
1122,3351
1122,3355
1122,3356
1122,3358
1122,3359
1123,3183
1123,3352
1123,3357
1123,3359
1124,3358
1124,3366
1125,3362
1125,3370
1126,3366
1126,3371
1126,3374
1127,3369
1127,3373
1127,3374
1127,3377
1128,3374
1128,3382
1129,3205
1129,3375
1129,3380
1129,3383
1130,3207
1130,3377
1130,3382
1130,3385
1131,1070
1131,3211
1131,3381
1131,3382
1131,3385
1131,3386
1131,3388
1131,3389
1132,3384
1132,3389
1132,3392
1133,3395
1134,3389
1134,3393
1134,3394
1134,3397
1135,3400
1136,3395
1136,3400
1136,3403
1137,3396
1137,3404
1138,3401
1138,3409
1139,3405
1139,3413
1140,3410
1140,3415
1140,3418
1141,3421
1142,3414
1142,3422
1143,3424
1144,3419
1144,3424
1144,3427
1145,3422
1145,3430
1146,3428
1146,3436
1147,3430
1147,3438
1148,3435
1148,3440
1148,3442
1149,3265
1149,3438
1149,3443
1149,3446
1150,3440
1150,3445
1150,3448
1151,3443
1151,3448
1151,3451
1152,3451
1153,3454
1154,3275
1154,3449
1154,3454
1154,3457
1155,3460
1156,3458
1156,3466
1157,3461
1157,3469
1158,3464
1158,3472
1159,3468
1159,3476
1160,3297
1160,3472
1160,3476
1160,3477
1160,3478
1160,3479
1160,3480
1161,3473
1161,3481
1162,3476
1162,3481
1162,3484
1163,3478
1163,3483
1163,3486
1164,3481
1164,3489
1165,3486
1165,3494
1166,3312
1166,3488
1166,3492
1166,3493
1166,3496
1167,3500
1168,3494
1168,3502
1169,3496
1169,3504
1170,3497
1170,3501
1170,3502
1170,3504
1170,3505
1171,3503
1171,3511
1172,3505
1172,3510
1172,3513
1173,3332
1173,3509
1173,3513
1173,3514
1173,3517
1174,3335
1174,3512
1174,3517
1174,3520
1175,3515
1175,3519
1175,3520
1175,3523
1176,3518
1176,3523
1176,3526
1177,3530
1178,3526
1178,3534
1179,3531
1179,3539
1180,3354
1180,3532
1180,3537
1180,3540
1181,3534
1181,3538
1181,3539
1181,3541
1181,3542
1182,3537
1182,3545
1183,1003
1183,3540
1183,3544
1183,3548
1184,3544
1184,3552
1185,3554
1186,3548
1186,3556
1187,3553
1187,3561
1188,3559
1188,3564
1188,3567
1189,3569
1190,3572
1191,3566
1191,3574
1192,3575
1193,3390
1193,3570
1193,3574
1193,3575
1193,3578
1194,3579
1195,3584
1196,3578
1196,3586
1197,3582
1197,3590
1198,3595
1199,3593
1199,3598
1199,3601
1200,3598
1200,3603
1200,3606
1201,3420
1201,3602
1201,3607
1201,3610
1202,3421
1202,3603
1202,3607
1202,3608
1202,3610
1202,3611
1203,3424
1203,3606
1203,3610
1203,3611
1203,3614
1204,3607
1204,3612
1204,3615
1205,3610
1205,3615
1205,3618
1206,3611
1206,3619
1207,3613
1207,3621
1208,3624
1209,3439
1209,3622
1209,3626
1209,3627
1209,3629
1209,3630
1210,3626
1210,3634
1211,3627
1211,3635
1212,3630
1212,3634
1212,3635
1212,3637
1212,3638
1213,3631
1213,3639
1214,3632
1214,3640
1215,3635
1215,3639
1215,3640
1215,3642
1215,3643
1216,3636
1216,3644
1217,3637
1217,3645
1218,3454
1218,3638
1218,3642
1218,3643
1218,3646
1219,3640
1219,3645
1219,3648
1220,3459
1220,3643
1220,3648
1220,3651
1221,3647
1221,3652
1221,3655
1222,3652
1222,3657
1222,3660
1223,3654
1223,3659
1223,3662
1224,3657
1224,3662
1224,3665
1225,3660
1225,3665
1225,3668
1226,3671
1227,3480
1227,3665
1227,3669
1227,3670
1227,3673
1228,3668
1228,3672
1228,3673
1228,3676
1229,3673
1229,3677
1229,3678
1229,3681
1230,3489
1230,3675
1230,3680
1230,3683
1231,3491
1231,3677
1231,3681
1231,3682
1231,3684
1231,3685
1232,3686
1233,3680
1233,3685
1233,3688
1234,3689
1235,3497
1235,3683
1235,3687
1235,3688
1235,3691
1236,3693
1237,3690
1237,3698
1238,3692
1238,3700
1239,3703
1240,3699
1240,3704
1240,3707
1241,3701
1241,3706
1241,3709
1242,3704
1242,3712
1243,3714
1244,3708
1244,3712
1244,3713
1244,3715
1244,3716
1245,3713
1245,3721
1246,3526
1246,3714
1246,3719
1246,3721
1247,607
1247,3725
1248,3722
1248,3730
1249,3734
1250,3728
1250,3732
1250,3733
1250,3736
1251,3740
1252,3735
1252,3743
1253,3739
1253,3744
1253,3747
1254,3743
1254,3751
1255,3744
1255,3749
1255,3752
1256,3754
1257,3748
1257,3752
1257,3753
1257,3756
1258,1823
1258,3599
1258,3750
1258,3754
1258,3755
1258,3758
1259,3563
1259,3753
1259,3757
1259,3758
1259,3761
1260,3767
1261,3762
1261,3767
1261,3770
1262,3764
1262,3769
1262,3772
1263,3769
1263,3773
1263,3774
1263,3777
1264,3779
1265,3781
1266,3586
1266,3777
1266,3782
1266,3785
1267,3782
1267,3790
1268,3795
1269,3602
1269,3794
1269,3798
1269,3799
1269,3802
1270,3798
1270,3802
1270,3803
1270,3806
1271,3804
1271,3812
1272,3815
1273,3618
1273,3811
1273,3816
1273,3819
1274,3813
1274,3821
1275,3815
1275,3820
1275,3823
1276,3818
1276,3826
1277,3820
1277,3824
1277,3825
1277,3828
1278,3824
1278,3829
1278,3832
1279,3829
1279,3834
1279,3837
1280,3831
1280,3836
1280,3839
1281,3832
1281,3837
1281,3840
1282,3837
1282,3841
1282,3842
1282,3845
1283,3843
1283,3847
1283,3848
1283,3851
1284,3653
1284,3848
1284,3852
1284,3853
1284,3856
1285,3656
1285,3851
1285,3856
1285,3859
1286,3659
1286,3854
1286,3857
1286,3859
1286,3862
1287,3857
1287,3865
1288,3859
1288,3863
1288,3864
1288,3867
1289,3862
1289,3870
1290,3865
1290,3870
1290,3871
1291,3872
1292,3671
1292,3867
1292,3870
1292,3872
1292,3873
1292,3874
1293,3673
1293,3869
1293,3874
1293,3875
1294,3677
1294,3873
1294,3876
1294,3878
1294,3879
1294,3880
1295,3875
1295,3878
1295,3880
1295,3881
1295,3882
1295,3883
1296,3878
1296,3883
1296,3884
1297,3879
1297,3882
1297,3884
1297,3885
1297,3887
1298,3882
1298,3888
1299,3887
1299,3893
1300,3889
1300,3895
1301,3694
1301,3734
1301,3891
1301,3894
1301,3896
1301,3897
1301,3898
1301,3899
1302,3902
1303,3898
1303,3904
1304,3900
1304,3906
1305,3903
1305,3908
1305,3909
1306,3907
1306,3913
1307,3916
1308,3917
1308,3922
1308,3923
1308,3925
1309,3919
1309,3924
1309,3925
1310,3724
1310,3923
1310,3926
1310,3928
1310,3929
1311,3728
1311,3927
1311,3932
1311,3933
1312,3935
1312,3938
1312,3940
1312,3941
1312,3943
1313,643
1313,3941
1313,3943
1313,3944
1313,3946
1314,3939
1314,3944
1314,3945
1314,3947
1315,3742
1315,3942
1315,3945
1315,3947
1315,3948
1316,3743
1316,3943
1316,3946
1316,3948
1316,3949
1317,3746
1317,3946
1317,3951
1317,3952
1318,3947
1318,3952
1318,3953
1319,3748
1319,3948
1319,3953
1319,3954
1320,3951
1320,3957
1321,3953
1321,3958
1321,3959
1321,3961
1322,3956
1322,3961
1322,3962
1323,3959
1323,3965
1324,3962
1324,3968
1325,3972
1326,3968
1326,3973
1326,3974
1327,3969
1327,3972
1327,3974
1327,3975
1327,3977
1328,3975
1328,3980
1328,3981
1328,3983
1329,3986
1330,3984
1330,3989
1330,3990
1331,3785
1331,3987
1331,3990
1331,3992
1331,3993
1332,3995
1333,3991
1333,3997
1334,3994
1334,4000
1335,3794
1335,3997
1335,4000
1335,4002
1335,4003
1336,3796
1336,3999
1336,4002
1336,4004
1336,4005
1337,3797
1337,3838
1337,3967
1337,4000
1337,4002
1337,4003
1337,4005
1337,4006
1337,4007
1337,4008
1338,4002
1338,4007
1338,4008
1339,4004
1339,4009
1339,4010
1340,4008
1340,4013
1340,4014
1340,4016
1341,4010
1341,4016
1342,4013
1342,4019
1343,4015
1343,4021
1344,4018
1344,4023
1344,4024
1345,4026
1346,3819
1346,4023
1346,4026
1346,4028
1346,4029
1347,4025
1347,4031
1348,4033
1349,4028
1349,4034
1350,4029
1350,4032
1350,4034
1350,4035
1350,4037
1351,4037
1352,4035
1352,4040
1352,4041
1353,4038
1353,4044
1354,4040
1354,4045
1354,4046
1355,4048
1355,4054
1356,3849
1356,4055
1356,4058
1356,4060
1356,4061
1357,3853
1357,4059
1357,4064
1357,4065
1358,4062
1358,4068
1359,4065
1359,4070
1359,4071
1359,4073
1360,4068
1360,4073
1360,4074
1360,4076
1361,4069
1361,4075
1362,4070
1362,4073
1362,4075
1362,4076
1362,4078
1363,4073
1363,4078
1363,4079
1364,4075
1364,4081
1365,4084
1366,4080
1366,4085
1366,4087
1367,4090
1368,4087
1368,4093
1369,4089
1369,4095
1370,3886
1370,4094
1370,4097
1370,4099
1370,4100
1371,4096
1371,4101
1371,4102
1372,4101
1372,4106
1372,4107
1372,4109
1373,4103
1373,4108
1373,4109
1374,4105
1374,4111
1375,4109
1375,4115
1376,3905
1376,4114
1376,4117
1376,4119
1376,4120
1377,3910
1377,4119
1377,4122
1377,4124
1377,4125
1377,4126
1378,4124
1378,4129
1378,4130
1379,4126
1379,4132
1380,4127
1380,4130
1380,4132
1380,4133
1380,4135
1381,4130
1381,4136
1382,4132
1382,4137
1382,4138
1383,4142
1384,4141
1384,4147
1385,4145
1385,4151
1386,4147
1386,4152
1386,4153
1386,4155
1387,3940
1387,4151
1387,4156
1387,4157
1388,4158
1388,4163
1388,4164
1389,4160
1389,4165
1389,4166
1390,4162
1390,4167
1390,4168
1390,4170
1391,4164
1391,4167
1391,4169
1391,4170
1391,4172
1392,3956
1392,4168
1392,4173
1392,4174
1393,4171
1393,4177
1394,4173
1394,4179
1395,4174
1395,4180
1396,4176
1396,4181
1396,4182
1397,4178
1397,4184
1398,4180
1398,4186
1399,4184
1399,4190
1400,4188
1400,4193
1400,4194
1401,4194
1401,4201
1402,4197
1402,4203
1403,4198
1403,4201
1403,4203
1403,4204
1403,4205
1403,4206
1404,4199
1404,4202
1404,4204
1404,4205
1404,4206
1404,4207
1405,4202
1405,4205
1405,4207
1405,4208
1405,4210
1406,4205
1406,4211
1407,3993
1407,4207
1407,4210
1407,4212
1407,4213
1408,3997
1408,4211
1408,4214
1408,4216
1408,4217
1409,3999
1409,4213
1409,4218
1409,4220
1410,4216
1410,4221
1410,4222
1411,4226
1412,4225
1412,4230
1412,4231
1413,4013
1413,4228
1413,4233
1413,4234
1414,4240
1415,4238
1415,4241
1415,4243
1415,4244
1415,4246
1416,4242
1416,4245
1416,4247
1416,4248
1416,4250
1417,4245
1417,4250
1417,4251
1418,4254
1419,4256
1420,4253
1420,4258
1420,4259
1421,4254
1421,4257
1421,4259
1421,4260
1421,4262
1422,4256
1422,4262
1423,4257
1423,4262
1423,4263
1424,4258
1424,4261
1424,4263
1424,4265
1424,4266
1425,4262
1425,4267
1425,4268
1425,4270
1426,4271
1427,4268
1427,4273
1427,4274
1428,4272
1428,4277
1428,4278
1428,4280
1429,4274
1429,4279
1429,4280
1429,4282
1430,4276
1430,4281
1430,4282
1431,4281
1431,4286
1431,4287
1432,4288
1433,4068
1433,4286
1433,4289
1433,4291
1433,4292
1434,4294
1435,4293
1435,4296
1435,4298
1435,4299
1435,4301
1436,4296
1436,4299
1436,4301
1436,4302
1436,4303
1436,4304
1437,4300
1437,4303
1437,4305
1437,4306
1437,4307
1437,4308
1438,4083
1438,4302
1438,4307
1438,4308
1439,4086
1439,4305
1439,4308
1439,4310
1439,4311
1440,4089
1440,4133
1440,4308
1440,4311
1440,4313
1440,4315
1441,4312
1441,4315
1441,4317
1441,4318
1441,4320
1442,4313
1442,4318
1442,4319
1442,4321
1443,4315
1443,4318
1443,4320
1443,4322
1443,4323
1444,4319
1444,4324
1444,4325
1445,4101
1445,4321
1445,4324
1445,4326
1445,4327
1446,4325
1446,4330
1446,4331
1447,4328
1447,4333
1447,4334
1448,4329
1448,4334
1448,4335
1448,4337
1449,4334
1449,4339
1449,4341
1450,4338
1450,4343
1450,4344
1450,4346
1451,4121
1451,4342
1451,4347
1451,4348
1452,4125
1452,4346
1452,4351
1452,4353
1453,4348
1453,4353
1453,4354
1453,4356
1454,4350
1454,4355
1454,4356
1454,4358
1455,4354
1455,4357
1455,4359
1455,4360
1455,4362
1456,4358
1456,4364
1457,4361
1457,4367
1458,4364
1458,4370
1459,4367
1459,4372
1459,4373
1459,4375
1460,4376
1461,4374
1461,4380
1462,4382
1463,4155
1463,4378
1463,4381
1463,4383
1463,4384
1463,4385
1464,4158
1464,4381
1464,4384
1464,4386
1464,4387
1464,4388
1465,4385
1465,4391
1466,4389
1466,4395
1467,4392
1467,4397
1467,4398
1467,4400
1468,4395
1468,4401
1469,4397
1469,4402
1469,4403
1470,4400
1470,4406
1471,4179
1471,4403
1471,4408
1471,4409
1472,4410
1473,4407
1473,4413
1474,4411
1474,4416
1474,4417
1474,4419
1475,4412
1475,4417
1475,4418
1476,4414
1476,4419
1476,4420
1477,4418
1477,4423
1477,4424
1478,4420
1478,4425
1478,4426
1479,4196
1479,4421
1479,4426
1479,4427
1480,4429
1481,4432
1482,4429
1482,4435
1483,4431
1483,4436
1483,4438
1483,4439
1484,4207
1484,4433
1484,4438
1484,4439
1485,4211
1485,4437
1485,4440
1485,4442
1485,4443
1486,4214
1486,4440
1486,4445
1486,4446
1487,4442
1487,4448
1488,4445
1488,4451
1489,4446
1489,4451
1489,4452
1489,4454
1490,4448
1490,4453
1490,4454
1491,4453
1491,4458
1491,4459
1492,4455
1492,4460
1492,4462
1493,4457
1493,4462
1493,4463
1494,4232
1494,4459
1494,4462
1494,4464
1494,4465
1494,4466
1495,4233
1495,4460
1495,4463
1495,4465
1495,4466
1496,4466
1496,4472
1497,4243
1497,4471
1497,4476
1497,4477
1498,4245
1498,4473
1498,4478
1498,4479
1499,4476
1499,4481
1499,4483
1500,4250
1500,4478
1500,4483
1500,4484
1501,4488
1502,4485
1502,4490
1502,4491
1502,4493
1503,4486
1503,4491
1503,4492
1504,4487
1504,4492
1504,4493
1505,4495
1506,4498
1507,4496
1507,4501
1507,4502
1508,4498
1508,4504
1509,4504
1509,4509
1509,4510
1510,4507
1510,4512
1510,4514
1510,4515
1511,4517
1512,4521
1513,4521
1513,4526
1513,4528
1514,4524
1514,4529
1514,4530
1514,4532
1515,4533
1516,4529
1516,4535
1517,4530
1517,4535
1517,4536
1518,4538
1519,4305
1519,4536
1519,4541
1519,4542
1520,4537
1520,4542
1520,4543
1520,4545
1521,4539
1521,4544
1521,4545
1522,4541
1522,4546
1522,4547
1523,4543
1523,4548
1523,4549
1524,4545
1524,4550
1524,4551
1525,4554
1526,4320
1526,4552
1526,4557
1526,4559
1527,4557
1527,4563
1528,4559
1528,4564
1528,4566
1529,4567
1530,4563
1530,4566
1530,4568
1530,4569
1530,4571
1531,4565
1531,4570
1531,4571
1532,4569
1532,4574
1532,4575
1533,4571
1533,4576
1533,4578
1534,4574
1534,4579
1534,4580
1535,4579
1535,4584
1535,4585
1536,4586
1537,4582
1537,4587
1537,4588
1538,4353
1538,4587
1538,4590
1538,4592
1538,4593
1538,4594
1539,4594
1540,4595
1540,4600
1540,4601
1541,4598
1541,4604
1542,4600
1542,4605
1542,4606
1543,4602
1543,4607
1543,4608
1543,4610
1544,4606
1544,4612
1545,4373
1545,4608
1545,4611
1545,4613
1545,4614
1546,4612
1546,4617
1546,4618
1547,4614
1547,4619
1547,4620
1547,4622
1548,4615
1548,4620
1548,4621
1548,4623
1549,4617
1549,4622
1549,4623
1549,4625
1550,4622
1550,4628
1551,4629
1551,4634
1551,4635
1552,4632
1552,4638
1553,4635
1553,4640
1553,4641
1553,4643
1554,4639
1554,4645
1555,4406
1555,4643
1555,4648
1555,4649
1556,4653
1557,4413
1557,4650
1557,4655
1557,4656
1558,4653
1558,4659
1559,4657
1559,4662
1559,4663
1559,4665
1560,4659
1560,4662
1560,4664
1560,4665
1560,4667
1561,4663
1561,4668
1561,4670
1562,4667
1562,4673
1563,4668
1563,4674
1564,4480
1564,4670
1564,4673
1564,4675
1564,4677
1564,4678
1565,4672
1565,4678
1566,4675
1566,4680
1566,4682
1567,4679
1567,4685
1568,4442
1568,4681
1568,4684
1568,4686
1568,4687
1569,4682
1569,4689
1570,4685
1570,4691
1571,4687
1571,4693
1572,4696
1573,4692
1573,4698
1574,4694
1574,4700
1575,4696
1575,4703
1576,4698
1576,4701
1576,4703
1576,4704
1576,4705
1576,4706
1577,4706
1578,4463
1578,4703
1578,4708
1578,4710
1579,4467
1579,4707
1579,4712
1579,4713
1580,4715
1581,4712
1581,4717
1581,4718
1582,4716
1582,4722
1583,4718
1583,4723
1583,4724
1584,4480
1584,4721
1584,4726
1584,4727
1585,4722
1585,4729
1586,4725
1586,4731
1587,4729
1587,4736
1588,4733
1588,4738
1588,4739
1589,4496
1589,4738
1589,4741
1589,4743
1589,4744
1590,4743
1590,4748
1590,4749
1591,4502
1591,4744
1591,4749
1591,4750
1592,4748
1592,4753
1592,4755
1593,4752
1593,4755
1593,4757
1593,4758
1593,4760
1594,4763
1595,4515
1595,4564
1595,4758
1595,4761
1595,4763
1595,4764
1595,4765
1595,4766
1596,4763
1596,4768
1596,4769
1597,4771
1598,4770
1598,4776
1599,4772
1599,4777
1599,4778
1599,4780
1600,4775
1600,4780
1600,4781
1601,4779
1601,4786
1602,4537
1602,4781
1602,4784
1602,4786
1602,4788
1603,4788
1604,4785
1604,4790
1604,4791
1604,4793
1605,1356
1605,4789
1605,4795
1606,4791
1606,4797
1607,4549
1607,4794
1607,4799
1607,4800
1608,4552
1608,4797
1608,4802
1608,4803
1609,4799
1609,4805
1610,4806
1610,4812
1611,4815
1612,4810
1612,4813
1612,4815
1612,4816
1612,4818
1613,4814
1613,4821
1614,4818
1614,4823
1614,4824
1615,4828
1616,4825
1616,4831
1617,4828
1617,4835
1618,4840
1619,4841
1620,4836
1620,4841
1620,4842
1621,4592
1621,4839
1621,4842
1621,4844
1621,4845
1621,4846
1622,4841
1622,4847
1623,4843
1623,4848
1623,4849
1624,4847
1624,4852
1624,4854
1624,4855
1625,4852
1625,4857
1625,4859
1626,4861
1627,4858
1627,4864
1628,4861
1628,4868
1629,4870
1630,4869
1630,4874
1630,4875
1631,4878
1632,4874
1632,4880
1633,4627
1633,4876
1633,4879
1633,4881
1633,4882
1634,4883
1635,4878
1635,4883
1635,4885
1635,4886
1636,4883
1636,4886
1636,4888
1636,4889
1636,4891
1637,4892
1638,4887
1638,4892
1638,4894
1639,4895
1640,4891
1640,4897
1641,4897
1641,4900
1641,4902
1641,4903
1641,4905
1642,4900
1642,4903
1642,4905
1642,4906
1642,4908
1643,4903
1643,4909
1644,4906
1644,4911
1644,4913
1645,4918
1646,4916
1646,4921
1646,4922
1647,4919
1647,4925
1648,4924
1648,4927
1648,4929
1648,4930
1648,4932
1649,4933
1650,4940
1651,4936
1651,4942
1652,4939
1652,4942
1652,4944
1652,4946
1652,4947
1653,4940
1653,4943
1653,4945
1653,4946
1653,4948
1654,4945
1654,4951
1655,4694
1655,4947
1655,4952
1655,4953
1656,4950
1656,4955
1656,4956
1657,4954
1657,4960
1658,4959
1658,4964
1658,4965
1658,4967
1659,4960
1659,4967
1660,4962
1660,4967
1660,4968
1661,4965
1661,4972
1662,4975
1663,1408
1663,4973
1663,4979
1664,4979
1664,4984
1664,4986
1665,4980
1665,4983
1665,4985
1665,4986
1665,4988
1666,4730
1666,4985
1666,4990
1666,4991
1667,4986
1667,4993
1668,4989
1668,4994
1668,4995
1669,4992
1669,4997
1669,4998
1670,4994
1670,4999
1670,5000
1671,4996
1671,5001
1671,5003
1672,5000
1672,5005
1672,5006
1672,5008
1673,5001
1673,5007
1674,4746
1674,5002
1674,5005
1674,5007
1674,5008
1675,5003
1675,5008
1675,5010
1676,4750
1676,5006
1676,5009
1676,5011
1676,5012
1676,5013
1677,4752
1677,5008
1677,5013
1677,5014
1678,5019
1679,5016
1679,5021
1679,5022
1680,5020
1680,5025
1680,5026
1681,4765
1681,5022
1681,5025
1681,5027
1681,5028
1682,5029
1682,5032
1682,5034
1682,5035
1682,5036
1682,5037
1683,5032
1683,5038
1684,5034
1684,5039
1684,5040
1684,5042
1685,5037
1685,5043
1686,5043
1686,5048
1686,5050
1687,5049
1687,5055
1688,5051
1688,5056
1688,5057
1689,5059
1690,5055
1690,5061
1691,5066
1692,4803
1692,5062
1692,5067
1692,5068
1693,5066
1693,5071
1693,5073
1694,5067
1694,5072
1694,5073
1694,5075
1695,5070
1695,5076
1696,5071
1696,5074
1696,5076
1696,5077
1696,5078
1696,5079
1697,5081
1698,5076
1698,5083
1699,5077
1699,5082
1699,5083
1699,5085
1700,4820
1700,5080
1700,5085
1700,5086
1701,4822
1701,5082
1701,5087
1701,5088
1702,4824
1702,5084
1702,5087
1702,5089
1702,5090
1703,5088
1703,5091
1703,5093
1703,5094
1703,5096
1704,5090
1704,5095
1704,5097
1704,5098
1705,5095
1705,5100
1705,5101
1705,5103
1706,5102
1707,4837
1707,5098
1707,5103
1707,5104
1708,2429
1708,4838
1708,5099
1708,5102
1708,5104
1708,5106
1708,5107
1709,5104
1709,5111
1710,5107
1710,5110
1710,5112
1710,5113
1710,5115
1711,5110
1711,5113
1711,5115
1711,5116
1711,5117
1711,5118
1712,5114
1712,5117
1712,5119
1712,5120
1712,5121
1712,5122
1713,5121
1714,5116
1714,5121
1714,5123
1715,5119
1715,5124
1715,5125
1716,5130
1717,5124
1717,5130
1718,5126
1718,5129
1718,5131
1718,5132
1718,5134
1719,5131
1719,5136
1719,5137
1719,5139
1720,5133
1720,5139
1721,5136
1721,5142
1722,5143
1722,5148
1722,5149
1723,5149
1723,5152
1723,5154
1723,5156
1723,5157
1724,5154
1724,5160
1725,1460
1725,5157
1725,5163
1726,4896
1726,5160
1726,5163
1726,5165
1726,5166
1727,3851
1727,5165
1727,5168
1727,5170
1727,5172
1727,5173
1728,5168
1728,5174
1729,5172
1729,5179
1730,5181
1731,5186
1732,5186
1733,5182
1733,5187
1733,5189
1734,5189
1735,5187
1735,5190
1735,5192
1735,5193
1735,5194
1735,5195
1736,5189
1736,5196
1737,5190
1737,5195
1737,5196
1738,5194
1738,5199
1738,5200
1739,5197
1739,5202
1739,5203
1740,5200
1740,5205
1740,5206
1741,5210
1742,5208
1742,5211
1742,5213
1742,5214
1742,5216
1743,5214
1743,5220
1744,5221
1745,5219
1745,5226
1746,5226
1746,5231
1746,5233
1747,5228
1747,5233
1747,5234
1748,5230
1748,5236
1749,4965
1749,5233
1749,5236
1749,5238
1749,5240
1750,5235
1750,5240
1750,5241
1751,5239
1751,5244
1751,5245
1752,5241
1752,5246
1752,5247
1753,5243
1753,5248
1753,5250
1753,5251
1754,5247
1754,5252
1754,5253
1755,5259
1756,5257
1756,5260
1756,5262
1756,5264
1756,5265
1757,5266
1758,5262
1758,5269
1759,5265
1759,5270
1759,5271
1759,5273
1760,5272
1760,5278
1761,5276
1761,5281
1761,5283
1761,5284
1762,5277
1762,5283
1763,5280
1763,5285
1763,5287
1764,5282
1764,5287
1764,5288
1765,5285
1765,5292
1766,5286
1766,5292
1767,5019
1767,5290
1767,5293
1767,5295
1767,5297
1768,5022
1768,5293
1768,5298
1768,5299
1769,5298
1769,5304
1770,5302
1770,5307
1770,5308
1770,5310
1771,5306
1771,5311
1771,5313
1772,5307
1772,5312
1772,5313
1773,5308
1773,5314
1774,5309
1774,5316
1775,5315
1775,5320
1775,5321
1775,5323
1776,5325
1777,5321
1777,5326
1777,5327
1777,5329
1778,5330
1779,5327
1779,5334
1780,5335
1781,5333
1781,5339
1782,5336
1782,5341
1782,5342
1783,5339
1783,5344
1783,5346
1784,5341
1784,5347
1785,5342
1785,5347
1785,5348
1785,5350
1786,5070
1786,5344
1786,5349
1786,5351
1787,5075
1787,5349
1787,5354
1787,5355
1788,5350
1788,5355
1788,5356
1789,5352
1789,5358
1790,5355
1790,5360
1790,5361
1791,5367
1792,5361
1792,5367
1793,5364
1793,5370
1794,5091
1794,5366
1794,5369
1794,5371
1794,5372
1795,5368
1795,5373
1795,5374
1796,5374
1796,5379
1796,5381
1797,5375
1797,5380
1797,5381
1797,5383
1798,5379
1798,5384
1798,5386
1799,5383
1799,5389
1800,5388
1800,5395
1801,5391
1801,5398
1802,5400
1803,5397
1803,5402
1803,5403
1803,5405
1804,5399
1804,5404
1804,5405
1805,5402
1805,5407
1805,5408
1806,5404
1806,5410
1807,5408
1807,5411
1807,5413
1807,5414
1807,5416
1808,5414
1808,5419
1808,5421
1809,5419
1809,5424
1809,5426
1810,5420
1810,5426
1810,5428
1811,5424
1811,5429
1811,5431
1812,5433
1813,5430
1813,5435
1813,5436
1813,5438
1814,5433
1814,5439
1814,5440
1814,5442
1815,5437
1815,5443
1815,5445
1816,5162
1816,5440
1816,5446
1816,5447
1817,5442
1817,5449
1818,5166
1818,5444
1818,5450
1818,5452
1819,5446
1819,5452
1819,5454
1819,5455
1820,5447
1820,5454
1821,5450
1821,5456
1821,5457
1821,5459
1822,5451
1822,5457
1822,5459
1823,5453
1823,5459
1823,5461
1824,1266
1824,5455
1824,5461
1824,5462
1824,5464
1825,5182
1825,5461
1825,5467
1825,5468
1826,5464
1826,5471
1827,5468
1827,5475
1828,5469
1828,5476
1829,5475
1829,5482
1830,5199
1830,5479
1830,5485
1830,5487
1831,5483
1831,5487
1831,5489
1831,5490
1831,5492
1832,5486
1832,5490
1832,5492
1832,5494
1832,5495
1833,5496
1834,5215
1834,5496
1834,5500
1834,5502
1834,5503
1835,5499
1835,5505
1835,5506
1836,5220
1836,5501
1836,5507
1836,5508
1837,5505
1837,5511
1837,5513
1838,5518
1839,5515
1839,5521
1839,5522
1840,5237
1840,5519
1840,5525
1840,5527
1841,5520
1841,5526
1841,5527
1842,5530
1843,5534
1844,5531
1844,5535
1844,5537
1844,5539
1844,5540
1845,5251
1845,5534
1845,5540
1845,5541
1846,5537
1846,5543
1846,5544
1847,5546
1848,5541
1848,5548
1849,5543
1849,5549
1849,5550
1849,5552
1850,5555
1851,5550
1851,5557
1852,5269
1852,5553
1852,5559
1852,5560
1853,5564
1854,5558
1854,5564
1854,5565
1855,5560
1855,5564
1855,5566
1855,5567
1855,5569
1856,5565
1856,5572
1857,5569
1857,5573
1857,5575
1857,5576
1857,5577
1857,5578
1858,5575
1858,5583
1859,5292
1859,5577
1859,5583
1859,5585
1860,5579
1860,5585
1860,5586
1860,5588
1861,5584
1861,5588
1861,5590
1861,5591
1861,5593
1862,5589
1862,5595
1862,5597
1863,5591
1863,5597
1863,5598
1864,5592
1864,5600
1865,5595
1865,5602
1866,5310
1866,5596
1866,5602
1866,5604
1867,5598
1867,5604
1867,5605
1867,5607
1868,5600
1868,5606
1868,5607
1869,5606
1869,5612
1869,5614
1869,5615
1870,5607
1870,5613
1870,5614
1870,5616
1871,5612
1871,5619
1872,5625
1873,5621
1873,5625
1873,5627
1873,5628
1873,5630
1874,5624
1874,5632
1875,5632
1876,5629
1876,5637
1877,1307
1877,5344
1877,5632
1877,5638
1877,5639
1878,5635
1878,5641
1878,5642
1879,5636
1879,5642
1879,5644
1879,5645
1880,5639
1880,5647
1881,5640
1881,5644
1881,5646
1881,5647
1881,5648
1881,5649
1882,5643
1882,5651
1883,5645
1883,5651
1883,5653
1884,5649
1884,5655
1884,5656
1885,5651
1885,5657
1885,5658
1886,5654
1886,5660
1886,5661
1886,5663
1887,5656
1887,5662
1887,5663
1888,5657
1888,5661
1888,5663
1888,5665
1888,5666
1889,5659
1889,5665
1889,5666
1889,5668
1890,5670
1891,5673
1892,5381
1892,5671
1892,5677
1892,5679
1893,5674
1893,5680
1893,5682
1894,5679
1894,5685
1894,5686
1894,5688
1895,5682
1895,5686
1895,5688
1895,5689
1895,5690
1895,5691
1896,5687
1896,5693
1896,5694
1897,5698
1898,5694
1898,5700
1898,5701
1899,5699
1899,5703
1899,5705
1899,5707
1899,5708
1900,5412
1900,5471
1900,5704
1900,5708
1900,5710
1900,5712
1901,5414
1901,5706
1901,5712
1901,5714
1902,5416
1902,5708
1902,5714
1902,5715
1903,5721
1904,5484
1904,5718
1904,5722
1904,5724
1904,5726
1904,5727
1905,5721
1905,5729
1906,5729
1906,5735
1906,5736
1907,5735
1907,5743
1908,5737
1908,5743
1908,5745
1908,5746
1909,5739
1909,5743
1909,5745
1909,5747
1909,5748
1910,5743
1910,5750
1911,5745
1911,5752
1912,5746
1912,5752
1912,5754
1913,5453
1913,5747
1913,5753
1913,5754
1914,5750
1914,5756
1914,5757
1915,5759
1916,5756
1916,5762
1916,5764
1916,5765
1917,5759
1917,5765
1917,5766
1918,5763
1918,5771
1919,5767
1919,5773
1919,5775
1919,5776
1920,5771
1920,5777
1920,5778
1921,5774
1921,5780
1921,5782
1922,5778
1922,5784
1922,5785
1923,5781
1923,5789
1924,5488
1924,5784
1924,5788
1924,5790
1924,5792
1925,5788
1925,5796
1926,5794
1926,5800
1926,5801
1927,5503
1927,5800
1927,5806
1927,5808
1928,5802
1928,5810
1929,5804
1929,5810
1929,5811
1930,5807
1930,5813
1930,5815
1931,5810
1931,5816
1931,5818
1931,5819
1932,5812
1932,5818
1932,5820
1932,5821
1933,5519
1933,5817
1933,5823
1933,5825
1934,5523
1934,5821
1934,5825
1934,5827
1934,5829
1935,5832
1936,5828
1936,5834
1936,5836
1937,5832
1937,5838
1937,5839
1938,5833
1938,5839
1938,5841
1939,5536
1939,5596
1939,5835
1939,5839
1939,5841
1939,5843
1940,5541
1940,5840
1940,5846
1940,5848
1941,5542
1941,5841
1941,5847
1941,5848
1942,954
1942,5852
1942,5853
1942,5855
1943,5848
1943,5852
1943,5854
1943,5855
1943,5857
1944,5850
1944,5857
1945,5853
1945,5860
1946,5858
1946,5865
1947,5859
1947,5865
1947,5867
1948,5862
1948,5868
1948,5869
1949,5865
1949,5869
1949,5871
1949,5872
1949,5873
1949,5874
1950,5867
1950,5874
1951,5869
1951,5875
1951,5876
1951,5878
1952,5873
1952,5881
1953,5874
1953,5881
1954,5574
1954,5875
1954,5881
1954,5883
1955,5881
1955,5888
1956,5884
1956,5890
1956,5892
1957,5888
1957,5894
1957,5895
1957,5897
1958,5899
1959,5593
1959,5895
1959,5901
1959,5902
1960,5904
1961,5909
1962,5911
1963,5908
1963,5914
1963,5916
1964,5609
1964,5912
1964,5918
1964,5920
1965,5613
1965,5674
1965,5916
1965,5920
1965,5922
1965,5923
1965,5924
1965,5925
1966,5921
1966,5927
1966,5928
1967,5925
1967,5931
1967,5932
1968,5626
1968,5930
1968,5936
1968,5937
1969,5941
1970,5936
1970,5944
1971,5937
1971,5944
1972,5942
1972,5949
1973,5948
1973,5956
1974,5953
1974,5960
1975,5956
1975,5963
1976,5960
1976,5964
1976,5966
1976,5967
1976,5968
1976,5969
1977,5964
1977,5965
1977,5968
1977,5970
1977,5972
1977,5973
1978,5966
1978,5972
1978,5974
1978,5975
1979,5663
1979,5969
1979,5975
1979,5977
1980,1386
1980,5667
1980,5973
1980,5979
1980,5981
1981,5975
1981,5983
1982,5977
1982,5983
1982,5984
1982,5986
1983,5988
1984,5984
1984,5990
1984,5991
1985,5995
1986,5684
1986,5991
1986,5995
1986,5997
1986,5998
1986,5999
1987,5993
1987,6000
1988,5998
1988,6004
1988,6005
1989,6000
1989,6006
1989,6007
1990,6001
1990,6007
1990,6009
1990,6010
1991,6004
1991,6012
1992,6007
1992,6014
1993,6010
1993,6016
1993,6018
1994,6013
1994,6019
1994,6021
1995,6023
1996,6017
1996,6023
1996,6025
1996,6026
1997,6020
1997,6028
1998,6023
1998,6029
1998,6030
1999,6025
1999,6031
1999,6033
2000,6026
2000,6033
2001,6032
2001,6038
2001,6040
2001,6041
2002,6035
2002,6041
2002,6042
2003,6037
2003,6041
2003,6043
2003,6045
2003,6046
2004,6041
2004,6045
2004,6047
2004,6049
2004,6050
2005,6044
2005,6052
2006,6048
2006,6056
2007,6059
2008,6052
2008,6058
2008,6059
2008,6061
2009,6057
2009,6063
2009,6065
2009,6066
2010,6060
2010,6061
2010,6064
2010,6066
2010,6068
2010,6069
2011,6062
2011,6068
2011,6070
2012,6064
2012,6070
2012,6072
2013,5755
2013,6066
2013,6072
2013,6073
2014,6068
2014,6074
2014,6075
2015,6077
2016,6074
2016,6080
2016,6082
2016,6083
2017,6077
2017,6083
2017,6084
2018,6081
2018,6089
2019,6083
2019,6089
2019,6091
2020,6085
2020,6093
2021,5775
2021,6087
2021,6093
2021,6094
2022,6089
2022,6096
2023,6094
2023,6098
2023,6100
2023,6101
2023,6102
2023,6103
2024,6098
2024,6105
2025,6099
2025,6103
2025,6105
2025,6107
2025,6108
2026,6100
2026,6106
2026,6108
2027,6105
2027,6112
2028,6109
2028,6117
2029,6111
2029,6117
2029,6119
2030,6121
2031,6121
2031,6127
2031,6129
2032,6123
2032,6129
2032,6131
2033,6127
2033,6135
2034,4570
2034,6130
2034,6134
2034,6136
2034,6138
2034,6139
2035,6132
2035,6140
2036,6133
2036,6139
2036,6140
2037,6137
2037,6143
2037,6145
2038,6140
2038,6146
2038,6147
2039,5828
2039,6143
2039,6149
2039,6150
2040,6149
2040,6155
2040,6157
2041,6151
2041,6159
2042,6157
2042,6164
2043,6168
2044,6163
2044,6169
2044,6171
2045,6165
2045,6173
2046,6170
2046,6178
2047,6182
2048,6175
2048,6182
2049,6178
2049,6185
2050,6189
2051,5866
2051,6183
2051,6189
2051,6191
2052,6187
2052,6191
2052,6193
2052,6194
2052,6196
2053,6193
2053,6197
2053,6199
2053,6201
2053,6202
2054,6196
2054,6202
2054,6203
2055,6208
2056,6203
2056,6204
2056,6206
2056,6207
2056,6209
2056,6210
2056,6211
2056,6212
2057,6213
2058,6210
2058,6216
2058,6217
2058,6219
2059,6211
2059,6217
2059,6219
2060,6224
2061,6219
2061,6227
2062,6222
2062,6228
2062,6229
2062,6231
2063,6226
2063,6232
2063,6234
2063,6235
2064,6236
2065,6231
2065,6237
2065,6238
2065,6240
2066,6235
2066,6241
2066,6243
2067,6236
2067,6243
2068,5919
2068,6239
2068,6245
2068,6247
2069,6241
2069,6248
2070,1019
2070,6251
2070,6252
2071,6247
2071,6253
2071,6255
2071,6256
2072,6249
2072,6257
2073,6253
2073,6261
2074,5937
2074,6258
2074,6264
2074,6266
2075,6273
2076,6269
2076,6275
2076,6276
2077,6271
2077,6277
2077,6278
2078,5950
2078,6272
2078,6276
2078,6278
2078,6280
2079,6276
2079,6283
2080,6287
2081,6281
2081,6287
2081,6289
2082,6290
2083,6292
2084,6028
2084,6286
2084,6290
2084,6292
2084,6294
2084,6295
2085,6287
2085,6293
2085,6294
2086,6290
2086,6297
2087,6292
2087,6298
2087,6299
2088,5971
2088,6294
2088,6300
2088,6301
2089,6300
2089,6306
2089,6308
2089,6309
2090,6303
2090,6311
2091,6307
2091,6311
2091,6313
2091,6315
2091,6316
2092,6308
2092,6314
2092,6315
2093,6311
2093,6317
2093,6318
2094,6318
2094,6325
2095,6327
2096,6324
2096,6332
2097,6325
2097,6332
2098,6007
2098,6332
2098,6338
2098,6339
2099,6334
2099,6340
2099,6341
2100,6345
2101,6342
2101,6346
2101,6348
2101,6350
2101,6351
2102,6346
2102,6352
2102,6353
2103,6348
2103,6354
2103,6355
2104,6357
2105,6352
2105,6358
2105,6360
2106,6364
2107,6098
2107,6359
2107,6360
2107,6363
2107,6365
2107,6367
2107,6368
2108,6362
2108,6368
2108,6369
2108,6371
2109,6371
2110,6041
2110,6368
2110,6374
2110,6376
2111,6044
2111,6330
2111,6371
2111,6372
2111,6373
2111,6374
2111,6375
2111,6377
2111,6378
2111,6379
2111,6380
2112,6376
2112,6382
2112,6383
2113,6381
2113,6387
2113,6388
2114,6383
2114,6390
2115,6386
2115,6392
2115,6394
2116,6387
2116,6395
2117,6063
2117,6391
2117,6395
2117,6397
2117,6399
2118,6392
2118,6399
2119,6393
2119,6397
2119,6399
2119,6401
2119,6402
2120,6136
2120,6399
2120,6403
2120,6405
2120,6406
2120,6407
2120,6408
2121,6403
2121,6407
2121,6409
2121,6411
2121,6412
2122,6413
2123,6410
2123,6416
2123,6418
2124,6415
2124,6421
2124,6423
2125,6418
2125,6424
2125,6425
2125,6427
2126,6420
2126,6426
2126,6427
2127,6421
2127,6425
2127,6427
2127,6429
2127,6430
2128,6093
2128,6423
2128,6427
2128,6429
2128,6430
2129,6426
2129,6432
2129,6434
2130,6428
2130,6434
2130,6436
2131,6437
2132,6441
2133,6436
2133,6442
2133,6444
2133,6445
2134,6439
2134,6443
2134,6445
2134,6446
2134,6447
2134,6448
2135,6444
2135,6451
2136,6117
2136,6448
2136,6454
2136,6455
2137,6450
2137,6456
2137,6458
2137,6459
2138,6455
2138,6461
2138,6462
2139,6467
2140,6130
2140,6462
2140,6466
2140,6468
2140,6469
2141,6133
2141,6465
2141,6469
2141,6471
2141,6472
2141,6473
2142,6469
2142,6476
2143,6473
2143,6479
2143,6481
2144,6479
2144,6485
2144,6487
2145,6482
2145,6490
2146,6485
2146,6491
2146,6493
2147,6487
2147,6495
2148,6489
2148,6495
2148,6497
2149,6500
2150,6496
2150,6502
2150,6504
2150,6505
2151,6507
2152,6511
2153,6506
2153,6507
2153,6510
2153,6512
2153,6514
2153,6515
2154,6516
2155,6514
2155,6515
2155,6518
2155,6520
2155,6522
2155,6523
2156,6517
2156,6525
2157,6520
2157,6526
2157,6528
2158,6524
2158,6532
2159,6527
2159,6535
2160,6529
2160,6537
2161,6530
2161,6536
2161,6537
2162,6534
2162,6540
2162,6542
2162,6543
2163,6201
2163,6537
2163,6543
2163,6544
2164,6550
2165,6545
2165,6553
2166,6547
2166,6553
2166,6555
2167,6552
2167,6558
2167,6560
2167,6561
2168,6554
2168,6560
2168,6562
2169,6563
2170,6567
2171,6563
2171,6571
2172,6564
2172,6572
2173,6567
2173,6573
2173,6574
2174,6570
2174,6576
2174,6578
2174,6579
2175,6236
2175,6574
2175,6578
2175,6580
2175,6581
2176,6577
2176,6585
2177,6242
2177,6580
2177,6584
2177,6586
2177,6588
2178,6581
2178,6588
2179,6586
2179,6592
2179,6593
2180,6590
2180,6596
2180,6598
2181,6255
2181,6594
2181,6600
2181,6602
2182,6596
2182,6604
2183,6597
2183,6603
2183,6605
2184,6600
2184,6607
2185,6603
2185,6609
2185,6611
2185,6612
2186,6604
2186,6610
2186,6612
2186,6613
2187,6606
2187,6612
2187,6614
2187,6615
2188,6608
2188,6616
2189,6616
2190,6272
2190,6612
2190,6618
2190,6620
2191,6614
2191,6621
2192,6617
2192,6623
2192,6625
2193,6622
2193,6628
2193,6630
2193,6631
2194,6625
2194,6633
2195,6627
2195,6635
2196,6291
2196,6632
2196,6638
2196,6640
2197,6634
2197,6642
2198,6635
2198,6642
2199,6637
2199,6643
2199,6644
2200,6646
2201,6643
2201,6651
2202,6647
2202,6653
2202,6655
2203,6656
2204,6650
2204,6658
2205,6311
2205,6653
2205,6659
2205,6661
2206,6665
2207,6663
2207,6669
2207,6671
2208,6667
2208,6673
2208,6674
2208,6676
2209,6678
2210,6673
2210,6679
2210,6681
2211,6674
2211,6681
2212,6675
2212,6681
2212,6683
2213,6678
2213,6684
2213,6686
2214,6684
2214,6690
2214,6692
2214,6693
2215,6688
2215,6695
2216,6349
2216,6693
2216,6699
2216,6700
2217,6697
2217,6703
2217,6705
2217,6706
2218,6703
2218,6709
2218,6711
2219,6705
2219,6713
2220,6708
2220,6716
2221,6709
2221,6716
2222,6713
2222,6719
2222,6721
2223,6714
2223,6720
2223,6721
2223,6723
2224,6726
2225,6722
2225,6730
2226,6723
2226,6729
2226,6730
2226,6732
2227,6728
2227,6735
2228,6740
2229,6737
2229,6743
2229,6744
2229,6746
2230,6740
2230,6748
2231,6749
2232,6744
2232,6750
2232,6751
2233,6398
2233,6745
2233,6751
2233,6753
2234,6401
2234,6748
2234,6752
2234,6754
2234,6756
2235,6402
2235,6749
2235,6755
2235,6756
2236,6751
2236,6757
2236,6758
2237,6761
2238,6765
2239,6761
2239,6767
2239,6769
2240,6416
2240,6764
2240,6768
2240,6770
2240,6772
2241,6776
2242,6421
2242,6769
2242,6775
2242,6777
2243,6770
2243,6776
2243,6778
2244,6771
2244,6779
2245,6773
2245,6777
2245,6779
2245,6781
2245,6782
2246,6776
2246,6782
2246,6784
2247,6781
2247,6787
2247,6789
2247,6790
2248,6434
2248,6783
2248,6787
2248,6789
2248,6791
2249,6786
2249,6793
2250,6789
2250,6797
2251,6798
2251,6802
2251,6804
2251,6806
2251,6807
2252,6799
2252,6805
2252,6807
2253,6801
2253,6807
2253,6809
2254,6803
2254,6809
2254,6811
2255,6806
2255,6812
2255,6814
2256,6810
2256,6816
2256,6818
2256,6819
2257,6815
2257,6821
2257,6823
2257,6824
2258,6825
2259,6828
2260,6824
2260,6832
2261,6826
2261,6834
2262,6828
2262,6835
2263,6829
2263,6835
2263,6837
2263,6838
2264,6831
2264,6839
2265,6833
2265,6841
2266,6838
2266,6842
2266,6844
2266,6846
2266,6847
2267,6840
2267,6846
2267,6848
2268,6849
2269,6844
2269,6851
2270,6850
2270,6856
2270,6858
2271,6862
2272,6859
2272,6865
2272,6867
2273,6862
2273,6868
2273,6870
2274,1120
2274,6871
2274,6872
2275,6866
2275,6872
2275,6874
2276,6869
2276,6875
2276,6877
2277,6871
2277,6879
2278,6875
2278,6883
2279,6876
2279,6882
2279,6884
2280,6524
2280,6878
2280,6882
2280,6884
2280,6886
2281,6879
2281,6885
2281,6886
2282,6528
2282,6882
2282,6888
2282,6890
2283,6884
2283,6890
2283,6892
2284,6886
2284,6893
2285,6891
2285,6895
2285,6897
2285,6899
2285,6900
2286,6895
2286,6901
2286,6903
2286,6904
2287,6905
2288,6899
2288,6907
2289,6900
2289,6906
2289,6907
2290,6902
2290,6910
2291,6906
2291,6914
2292,6909
2292,6913
2292,6915
2292,6916
2292,6918
2293,6911
2293,6915
2293,6917
2293,6919
2293,6920
2294,6919
2294,6925
2294,6927
2295,6565
2295,6921
2295,6927
2295,6928
2296,6926
2296,6932
2296,6934
2297,6931
2297,6939
2298,6933
2298,6941
2299,6581
2299,6938
2299,6944
2299,6946
2300,6941
2300,6947
2300,6949
2301,6945
2301,6953
2302,6947
2302,6955
2303,6952
2303,6960
2304,6953
2304,6961
2305,6963
2306,6959
2306,6967
2307,6962
2307,6970
2308,6966
2308,6974
2309,6969
2309,6974
2309,6977
2309,6978
2310,6973
2310,6978
2310,6981
2311,6618
2311,6977
2311,6982
2311,6985
2312,6978
2312,6986
2313,6981
2313,6986
2313,6989
2314,6985
2314,6989
2314,6990
2314,6993
2314,6994
2315,6990
2315,6995
2315,6998
2316,6636
2316,6708
2316,6996
2316,7000
2316,7001
2316,7004
2317,6637
2317,6997
2317,7002
2317,7005
2318,6999
2318,7007
2319,7001
2319,7009
2320,7005
2320,7013
2321,7007
2321,7011
2321,7012
2321,7014
2321,7016
2322,7009
2322,7014
2322,7016
2322,7018
2323,7010
2323,7018
2324,6652
2324,7013
2324,7017
2324,7018
2324,7021
2325,7018
2325,7026
2326,7025
2326,7030
2326,7033
2327,7028
2327,7033
2327,7036
2327,7037
2328,7030
2328,7035
2328,7037
2329,7035
2329,7040
2329,7043
2330,7047
2331,1149
2331,7048
2331,7051
2332,7045
2332,7053
2333,7056
2334,7051
2334,7056
2334,7058
2335,7053
2335,7061
2336,7054
2336,7059
2336,7062
2337,7058
2337,7063
2337,7065
2337,7067
2338,7060
2338,7068
2339,7062
2339,7067
2339,7070
2339,7071
2340,7066
2340,7071
2340,7074
2340,7075
2341,6703
2341,6776
2341,7067
2341,7071
2341,7072
2341,7075
2341,7076
2342,6706
2342,7070
2342,7074
2342,7075
2342,7078
2342,7079
2343,7081
2344,7074
2344,7078
2344,7079
2344,7082
2344,7083
2345,7078
2345,7083
2345,7086
2345,7087
2346,7081
2346,7088
2347,7084
2347,7089
2347,7092
2348,7095
2349,7090
2349,7098
2350,7094
2350,7099
2350,7102
2351,7097
2351,7102
2351,7105
2352,7101
2352,7106
2352,7109
2352,7110
2353,7102
2353,7107
2353,7109
2354,6739
2354,6812
2354,7105
2354,7109
2354,7110
2354,7113
2354,7114
2355,7108
2355,7116
2356,7112
2356,7117
2356,7120
2357,7123
2358,7120
2358,7128
2359,7123
2359,7128
2359,7130
2360,7125
2360,7133
2361,7128
2361,7133
2361,7136
2362,7135
2362,7139
2362,7140
2362,7143
2362,7144
2363,6845
2363,7139
2363,7143
2363,7144
2363,7145
2363,7147
2363,7148
2364,7142
2364,7147
2364,7150
2365,7144
2365,7149
2365,7151
2366,7154
2367,7149
2367,7154
2367,7157
2368,7151
2368,7156
2368,7158
2369,7160
2370,7167
2371,7160
2371,7165
2371,7167
2371,7169
2372,7161
2372,7169
2373,6797
2373,7166
2373,7171
2373,7174
2374,6799
2374,7168
2374,7173
2374,7176
2375,7180
2376,7173
2376,7181
2377,7176
2377,7180
2377,7181
2377,7184
2377,7185
2378,7178
2378,7183
2378,7186
2379,7183
2379,7191
2380,6816
2380,7186
2380,7191
2380,7194
2381,7188
2381,7193
2381,7195
2381,7197
2382,7190
2382,7195
2382,7198
2383,7194
2383,7199
2383,7202
2384,7207
2385,7211
2386,7205
2386,7210
2386,7213
2387,7209
2387,7214
2387,7216
2388,7210
2388,7214
2388,7215
2388,7216
2388,7217
2388,7218
2388,7219
2389,7214
2389,7219
2389,7222
2389,7223
2390,7216
2390,7224
2391,6851
2391,6925
2391,7223
2391,7227
2391,7228
2391,7231
2391,7232
2392,7226
2392,7231
2392,7234
2393,7235
2394,7229
2394,7234
2394,7237
2394,7238
2395,7232
2395,7237
2395,7239
2396,7242
2397,6864
2397,7237
2397,7241
2397,7242
2397,7245
2398,7244
2398,7249
2398,7252
2399,7257
2400,7251
2400,7256
2400,7259
2401,7255
2401,7260
2401,7263
2402,7266
2403,7267
2404,7262
2404,7267
2404,7270
2405,7264
2405,7269
2405,7272
2405,7273
2406,7267
2406,7271
2406,7272
2406,7274
2406,7276
2407,7272
2407,7280
2408,7275
2408,7283
2409,7280
2409,7285
2409,7288
2410,7283
2410,7287
2410,7288
2410,7291
2410,7292
2411,7285
2411,7290
2411,7293
2412,7289
2412,7294
2412,7297
2413,7292
2413,7300
2414,7293
2414,7298
2414,7301
2414,7302
2415,7296
2415,7301
2415,7304
2416,6923
2416,7299
2416,7304
2416,7307
2417,7301
2417,7305
2417,7306
2417,7309
2417,7310
2418,7305
2418,7309
2418,7310
2418,7313
2418,7314
2419,7306
2419,7311
2419,7314
2419,7315
2420,7313
2420,7318
2420,7321
2421,7317
2421,7322
2421,7325
2422,7318
2422,7325
2423,7321
2423,7325
2423,7326
2423,7329
2423,7330
2424,7326
2424,7331
2424,7334
2424,7335
2425,7331
2425,7336
2425,7339
2426,7337
2426,7342
2426,7345
2427,7339
2427,7347
2428,7342
2428,7347
2428,7350
2429,7352
2430,7346
2430,7350
2430,7351
2430,7354
2430,7355
2431,7349
2431,7354
2431,7357
2431,7358
2432,7360
2433,7365
2434,7373
2435,7376
2436,7372
2436,7377
2436,7380
2437,6995
2437,7375
2437,7380
2437,7383
2438,7379
2438,7387
2439,7381
2439,7386
2439,7389
2440,7383
2440,7388
2440,7391
2440,7392
2441,7385
2441,7390
2441,7393
2442,7388
2442,7396
2443,7392
2443,7400
2444,7012
2444,7393
2444,7398
2444,7401
2445,7396
2445,7404
2446,7401
2446,7406
2446,7409
2446,7410
2447,7405
2447,7410
2447,7413
2447,7414
2448,7416
2449,7418
2450,7415
2450,7423
2451,7420
2451,7425
2451,7427
2451,7429
2452,7422
2452,7427
2452,7430
2453,7424
2453,7429
2453,7432
2454,7426
2454,7434
2455,7430
2455,7435
2455,7438
2456,7433
2456,7438
2456,7441
2457,7437
2457,7441
2457,7442
2457,7445
2457,7446
2458,7447
2459,7443
2459,7448
2459,7451
2460,7454
2461,7447
2461,7452
2461,7455
2462,7451
2462,7456
2462,7459
2463,7454
2463,7462
2464,7457
2464,7461
2464,7462
2464,7464
2464,7466
2465,7461
2465,7469
2466,2112
2466,7463
2466,7471
2467,7083
2467,7468
2467,7473
2467,7476
2468,7473
2468,7478
2468,7481
2469,7476
2469,7484
2470,7478
2470,7482
2470,7483
2470,7486
2470,7487
2471,7480
2471,7485
2471,7488
2472,7482
2472,7490
2473,7485
2473,7490
2473,7493
2474,7488
2474,7493
2474,7496
2475,7490
2475,7495
2475,7498
2476,7494
2476,7498
2476,7499
2476,7502
2476,7503
2477,7501
2477,7505
2477,7506
2477,7509
2477,7510
2478,7505
2478,7510
2478,7513
2479,7507
2479,7515
2480,7509
2480,7517
2481,7511
2481,7519
2482,7520
2483,7516
2483,7521
2483,7524
2483,7525
2484,7519
2484,7524
2484,7527
2485,7529
2486,7526
2486,7534
2487,7529
2487,7534
2487,7537
2488,7532
2488,7537
2488,7540
2489,7543
2490,7153
2490,7542
2490,7546
2490,7547
2490,7550
2491,7544
2491,7549
2491,7552
2492,7545
2492,7550
2492,7553
2493,7547
2493,7552
2493,7555
2493,7556
2494,7549
2494,7554
2494,7557
2495,7559
2496,7554
2496,7559
2496,7562
2497,7558
2497,7563
2497,7566
2498,7564
2498,7569
2498,7572
2499,7566
2499,7573
