:START_ID(Entity-ID),:END_ID(Agent-ID)
4,0
5,0
6,0
7,0
8,0
9,0
10,1
11,1
12,0
13,0
14,0
15,0
16,0
17,0
18,0
19,0
20,0
21,0
22,0
23,0
24,0
25,0
26,0
27,0
28,2
29,0
30,0
31,0
32,3
33,3
34,3
35,0
36,0
37,1
38,1
39,1
40,1
41,1
42,3
43,3
44,3
45,3
46,3
47,3
48,2
49,2
50,2
51,0
52,0
53,0
54,0
55,0
56,1
57,1
58,1
59,1
60,1
61,1
62,1
63,0
64,0
65,0
66,0
67,0
68,0
69,0
70,0
71,0
72,0
73,1
74,0
75,0
76,0
77,0
78,0
79,0
80,2
81,2
82,2
83,2
84,2
85,2
86,2
