:START_ID(Entity-ID),:END_ID(Agent-ID)
2,2
3,2
4,2
5,2
6,2
7,2
8,1
9,1
10,1
11,1
12,1
13,1
14,2
15,2
16,2
17,2
18,2
19,2
20,4
21,2
22,2
23,2
24,2
25,2
26,2
27,2
28,2
29,0
30,0
31,0
32,0
33,0
34,0
35,0
36,0
37,0
38,0
39,0
40,0
41,0
42,0
43,0
44,0
45,0
46,0
47,0
48,1
49,1
50,1
51,1
52,1
53,1
54,1
55,7
56,0
57,0
58,0
59,1
60,1
61,1
62,1
63,4
64,4
65,4
66,3
67,3
68,3
69,3
70,0
71,0
72,0
73,0
74,0
75,0
76,0
77,0
78,0
79,0
80,0
81,0
82,0
83,0
84,3
85,3
86,1
87,1
88,1
89,1
90,1
91,1
92,2
93,2
94,2
95,5
96,5
97,8
98,8
99,8
100,0
101,0
102,4
103,5
104,1
105,1
106,1
107,1
108,1
109,1
110,1
111,1
112,1
113,0
114,0
115,0
116,0
117,0
118,0
119,0
120,0
121,0
122,0
123,0
124,0
125,0
126,0
127,0
128,6
129,6
130,0
131,0
132,0
133,0
134,1
135,1
136,1
137,4
138,4
139,4
140,4
141,4
142,4
143,1
144,1
145,1
146,1
147,0
148,0
149,0
150,1
151,0
152,0
153,0
154,0
155,0
156,0
157,0
158,0
159,0
160,0
161,1
162,1
163,1
164,1
165,1
166,8
167,8
168,8
169,8
170,2
171,2
172,2
173,2
174,2
175,0
176,0
177,0
178,1
179,1
180,1
181,1
182,3
183,3
184,3
185,3
186,6
187,1
188,1
189,1
190,0
191,0
192,0
193,0
194,0
195,1
196,1
197,1
198,1
199,0
200,0
201,0
202,1
203,1
204,1
205,1
206,0
207,0
208,0
209,0
210,0
211,0
212,3
213,3
214,3
215,3
216,3
217,1
218,1
219,1
220,4
221,0
222,6
223,6
224,6
225,6
226,6
227,6
228,6
229,6
230,4
231,4
232,4
233,0
234,0
235,0
236,0
237,0
238,3
239,0
240,0
241,0
242,0
243,0
244,4
245,4
246,0
247,0
248,0
249,0
250,0
251,0
252,0
253,0
254,0
255,0
256,2
257,3
258,0
259,0
260,0
261,0
262,1
263,1
264,1
265,1
266,1
267,0
268,0
269,0
270,0
271,0
272,0
273,0
274,0
275,0
276,3
277,3
278,0
279,0
280,3
281,3
282,3
283,0
284,0
285,0
286,0
287,0
288,0
289,5
290,5
291,5
292,5
293,4
294,0
295,0
296,0
297,1
298,1
299,1
300,0
301,0
302,0
303,1
304,1
305,1
306,1
307,1
308,2
309,2
310,2
311,2
312,2
313,2
314,3
315,3
316,3
317,3
318,0
319,0
320,5
321,5
322,5
323,0
324,0
325,0
326,5
327,5
328,0
329,0
330,0
331,0
332,0
333,6
334,6
335,6
336,6
337,6
338,6
339,0
340,0
341,0
342,1
343,1
344,0
345,0
346,0
347,0
348,0
349,1
350,1
351,1
352,1
353,1
354,1
355,1
356,1
357,1
358,1
359,1
360,1
361,1
362,1
363,1
364,0
365,0
366,0
367,6
368,6
369,6
370,1
371,1
372,1
373,0
374,0
375,2
376,2
377,0
378,0
379,0
380,1
381,4
382,4
383,4
384,4
385,4
386,3
387,3
388,8
389,8
390,8
391,1
392,1
393,1
394,6
395,6
396,0
397,2
398,2
399,0
400,0
401,0
402,7
403,7
404,7
405,7
406,7
407,7
408,2
409,2
410,0
411,0
412,0
413,1
414,1
415,1
416,1
417,0
418,0
419,0
420,0
421,5
422,5
423,1
424,1
425,1
426,1
427,1
428,4
429,4
430,4
431,4
432,4
433,1
434,1
435,2
436,2
437,2
438,1
439,1
440,1
441,1
442,0
443,0
444,0
445,0
446,0
447,0
448,3
449,3
450,0
451,0
452,1
453,1
454,1
455,1
456,0
457,0
458,0
459,2
460,2
461,3
462,3
463,3
464,3
465,6
466,6
467,0
468,0
469,0
470,0
471,0
472,0
473,0
474,0
475,0
476,0
477,1
478,1
479,4
480,4
481,7
482,7
483,7
484,7
485,4
486,4
487,2
488,2
489,2
490,3
491,3
492,3
493,1
494,1
495,1
496,3
497,0
498,6
499,6
500,0
501,0
502,0
503,0
504,0
505,0
506,0
507,0
508,0
509,0
510,0
511,2
512,2
513,1
514,1
515,2
516,2
517,2
518,2
519,0
520,0
521,0
522,0
523,3
524,3
525,3
526,0
527,0
528,0
529,0
530,0
531,1
532,1
533,0
534,0
535,0
536,0
537,0
538,0
539,0
540,0
541,0
542,0
543,0
544,0
545,0
546,0
547,0
548,2
549,4
550,4
551,4
552,4
553,0
554,0
555,0
556,4
557,4
558,0
559,5
560,5
561,5
562,6
563,6
564,6
565,6
566,2
567,2
568,2
569,0
570,0
571,0
572,0
573,1
574,1
575,1
576,1
577,0
578,0
579,1
580,1
581,1
582,1
583,1
584,1
585,1
586,1
587,1
588,1
589,1
590,1
591,2
592,2
593,2
594,2
595,0
596,0
597,0
598,0
599,0
600,0
601,0
602,0
603,0
604,0
605,3
606,3
607,0
608,0
609,0
610,0
611,0
612,0
613,1
614,1
615,1
616,0
617,0
618,2
619,2
620,3
621,3
622,4
623,4
624,3
625,3
626,3
627,3
628,0
629,0
630,0
631,1
632,1
633,1
634,1
635,7
636,7
637,1
638,1
639,1
640,1
641,1
642,1
643,1
644,1
645,2
646,2
647,2
648,2
649,2
650,6
651,6
652,6
653,1
654,1
655,1
656,3
657,3
658,3
659,3
660,3
661,3
662,3
663,0
664,0
665,0
666,1
667,1
668,1
669,1
670,6
671,4
672,4
673,1
674,1
675,1
676,1
677,1
678,6
679,6
680,0
681,0
682,0
683,0
684,0
685,2
686,2
687,6
688,6
689,5
690,5
691,5
692,6
693,6
694,6
695,6
696,6
697,2
698,2
699,5
700,5
701,5
702,5
703,5
704,5
705,5
706,0
707,0
708,8
709,8
710,8
711,8
712,0
713,0
714,0
715,0
716,6
717,6
718,6
719,6
720,5
721,5
722,5
723,2
724,2
725,2
726,1
727,1
728,1
729,3
730,3
731,3
732,2
733,2
734,2
735,2
736,0
737,0
738,0
739,0
740,2
741,2
742,2
743,2
744,0
745,0
746,0
747,4
748,4
749,4
750,4
751,6
752,0
753,0
754,0
755,5
756,5
757,5
758,5
759,5
760,5
761,5
762,6
763,6
764,6
765,4
766,4
767,4
768,4
769,4
770,5
771,5
772,5
773,0
774,0
775,0
776,0
777,0
778,3
779,3
780,0
781,0
782,0
783,0
784,0
785,4
786,4
787,4
788,1
789,1
790,0
791,0
792,0
793,0
794,8
795,8
796,8
797,0
798,0
799,4
800,4
801,4
802,4
803,4
804,0
805,0
806,0
807,0
808,0
809,0
810,0
811,0
812,0
813,0
814,1
815,1
816,1
817,5
818,1
819,1
820,1
821,1
822,1
823,1
824,1
825,1
826,1
827,1
828,4
829,4
830,4
831,2
832,2
833,2
834,2
835,2
836,2
837,2
838,2
839,0
840,0
841,0
842,0
843,0
844,0
845,0
846,0
847,0
848,0
849,0
850,1
851,1
852,0
853,0
854,0
855,1
856,1
857,0
858,1
859,3
860,5
861,5
862,6
863,6
864,6
865,0
866,0
867,0
868,0
869,0
870,0
871,0
872,0
873,0
874,1
875,1
876,1
877,2
878,5
879,5
880,0
881,0
882,5
883,0
884,0
885,0
886,0
887,0
888,1
889,1
890,3
891,3
892,3
893,3
894,3
895,0
896,0
897,0
898,0
899,0
900,0
901,5
902,5
903,5
904,0
905,0
906,0
907,0
908,0
909,0
910,6
911,6
912,1
913,1
914,1
915,0
916,0
917,0
918,0
919,2
920,2
921,0
922,0
923,0
924,0
925,0
926,4
927,4
928,0
929,0
930,0
931,0
932,0
933,0
934,0
935,0
936,0
937,8
938,8
939,8
940,0
941,0
942,0
943,0
944,0
945,0
946,0
947,0
948,0
949,3
950,0
951,0
952,0
953,0
954,0
955,0
956,0
957,0
958,0
959,0
960,0
961,0
962,3
963,3
964,3
965,0
966,2
967,2
968,1
969,1
970,3
971,3
972,3
973,3
974,3
975,3
976,0
977,0
978,0
979,0
980,0
981,7
982,7
983,7
984,7
985,0
986,0
987,1
988,1
989,5
990,5
991,5
992,5
993,0
994,0
995,0
996,1
997,1
998,2
999,2
1000,2
1001,2
1002,2
1003,2
1004,2
1005,1
1006,1
1007,1
1008,1
1009,1
1010,1
1011,8
1012,8
1013,8
1014,8
1015,0
1016,0
1017,1
1018,1
1019,1
1020,1
1021,1
1022,1
1023,0
1024,6
1025,6
1026,6
1027,1
1028,1
1029,0
1030,0
1031,0
1032,0
1033,0
1034,0
1035,0
1036,6
1037,6
1038,6
1039,0
1040,0
1041,0
1042,7
1043,7
1044,7
1045,7
1046,7
1047,7
1048,7
1049,4
1050,0
1051,0
1052,0
1053,0
1054,0
1055,7
1056,7
1057,7
1058,7
1059,3
1060,3
1061,3
1062,6
1063,6
1064,0
1065,0
1066,0
1067,0
1068,0
1069,0
1070,0
1071,0
1072,0
1073,2
1074,2
1075,2
1076,0
1077,0
1078,0
1079,0
1080,0
1081,0
1082,3
1083,3
1084,0
1085,0
1086,0
1087,0
1088,0
1089,1
1090,1
1091,1
1092,0
1093,0
1094,0
1095,0
1096,0
1097,0
1098,0
1099,2
1100,2
1101,2
1102,0
1103,1
1104,1
1105,1
1106,1
1107,0
1108,4
1109,4
1110,4
1111,4
1112,3
1113,3
1114,3
1115,3
1116,3
1117,3
1118,1
1119,1
1120,1
1121,1
1122,2
1123,2
1124,7
1125,7
1126,2
1127,2
1128,2
1129,2
1130,2
1131,2
1132,2
1133,2
1134,2
1135,2
1136,2
1137,0
1138,0
1139,4
1140,4
1141,4
1142,6
1143,6
1144,6
1145,4
1146,4
1147,4
1148,0
1149,0
1150,0
1151,0
1152,0
1153,0
1154,0
1155,0
1156,8
1157,8
1158,4
1159,4
1160,8
1161,8
1162,0
1163,0
1164,0
1165,0
1166,0
1167,0
1168,0
1169,0
1170,0
1171,0
1172,0
1173,0
1174,0
1175,0
1176,0
1177,0
1178,0
1179,0
1180,0
1181,0
1182,0
1183,0
1184,0
1185,0
1186,0
1187,8
1188,8
1189,8
1190,8
1191,8
1192,1
1193,1
1194,4
1195,4
1196,0
1197,1
1198,1
1199,1
1200,1
1201,1
1202,2
1203,2
1204,2
1205,0
1206,0
1207,5
1208,5
1209,5
1210,5
1211,7
1212,0
1213,0
1214,1
1215,1
1216,1
1217,1
1218,1
1219,1
1220,1
1221,0
1222,0
1223,2
1224,0
1225,0
1226,0
1227,0
1228,6
1229,6
1230,0
1231,0
1232,1
1233,1
1234,1
1235,7
1236,7
1237,0
1238,0
1239,0
1240,0
1241,0
1242,7
1243,7
1244,7
1245,0
1246,0
1247,0
1248,0
1249,0
1250,0
1251,8
1252,0
1253,0
1254,0
1255,0
1256,0
1257,0
1258,0
1259,0
1260,0
1261,0
1262,0
1263,0
1264,0
1265,6
1266,6
1267,6
1268,6
1269,2
1270,2
1271,2
1272,4
1273,2
1274,2
1275,2
1276,2
1277,2
1278,2
1279,0
1280,4
1281,4
1282,4
1283,4
1284,0
1285,0
1286,0
1287,5
1288,5
1289,0
1290,0
1291,0
1292,0
1293,0
1294,0
1295,0
1296,0
1297,0
1298,3
1299,3
1300,0
1301,0
1302,0
1303,0
1304,0
1305,0
1306,0
1307,0
1308,5
1309,5
1310,7
1311,7
1312,7
1313,2
1314,3
1315,3
1316,2
1317,2
1318,2
1319,0
1320,0
1321,4
1322,4
1323,4
1324,4
1325,3
1326,3
1327,3
1328,3
1329,3
1330,1
1331,0
1332,0
1333,0
1334,0
1335,8
1336,8
1337,8
1338,0
1339,0
1340,0
1341,4
1342,4
1343,4
1344,4
1345,1
1346,1
1347,1
1348,0
1349,0
1350,0
1351,0
1352,0
1353,0
1354,0
1355,4
1356,4
1357,4
1358,0
1359,0
1360,0
1361,0
1362,0
1363,4
1364,0
1365,0
1366,3
1367,0
1368,0
1369,0
1370,0
1371,8
1372,8
1373,8
1374,8
1375,8
1376,1
1377,1
1378,1
1379,1
1380,1
1381,2
1382,2
1383,2
1384,2
1385,6
1386,6
1387,0
1388,0
1389,0
1390,0
1391,3
1392,2
1393,2
1394,2
1395,1
1396,1
1397,1
1398,1
1399,1
1400,1
1401,0
1402,0
1403,0
1404,0
1405,0
1406,0
1407,0
1408,0
1409,0
1410,4
1411,4
1412,0
1413,0
1414,1
1415,1
1416,1
1417,1
1418,2
1419,2
1420,3
1421,3
1422,3
1423,0
1424,0
1425,0
1426,8
1427,8
1428,8
1429,8
1430,8
1431,8
1432,8
1433,3
1434,3
1435,3
1436,3
1437,0
1438,0
1439,3
1440,3
1441,3
1442,1
1443,1
1444,1
1445,3
1446,3
1447,3
1448,3
1449,3
1450,0
1451,0
1452,0
1453,5
1454,5
1455,4
1456,6
1457,6
1458,6
1459,1
1460,1
1461,1
1462,0
1463,0
1464,0
1465,0
1466,1
1467,1
1468,2
1469,2
1470,2
1471,0
1472,0
1473,0
1474,0
1475,2
1476,2
1477,2
1478,2
1479,2
1480,2
1481,0
1482,3
1483,3
1484,3
1485,2
1486,2
1487,2
1488,2
1489,0
1490,0
1491,0
1492,0
1493,0
1494,0
1495,0
1496,0
1497,0
1498,0
1499,4
1500,4
1501,4
1502,4
1503,4
1504,4
1505,2
1506,2
1507,2
1508,2
1509,2
1510,2
1511,6
1512,6
1513,6
1514,6
1515,6
1516,0
1517,0
1518,4
1519,4
1520,4
1521,4
1522,1
1523,1
1524,1
1525,1
1526,1
1527,0
1528,0
1529,4
1530,4
1531,0
1532,0
1533,0
1534,0
1535,0
1536,0
1537,3
1538,3
1539,3
1540,0
1541,0
1542,0
1543,0
1544,0
1545,0
1546,0
1547,1
1548,1
1549,1
1550,8
1551,8
1552,4
1553,4
1554,1
1555,1
1556,2
1557,2
1558,8
1559,8
1560,8
1561,2
1562,2
1563,2
1564,2
1565,2
1566,2
1567,1
1568,1
1569,1
1570,1
1571,1
1572,1
1573,1
1574,1
1575,0
1576,0
1577,0
1578,0
1579,0
1580,1
1581,1
1582,1
1583,1
1584,1
1585,0
1586,0
1587,0
1588,0
1589,0
1590,3
1591,3
1592,7
1593,7
1594,1
1595,1
1596,1
1597,1
1598,2
1599,2
1600,2
1601,2
1602,2
1603,0
1604,0
1605,0
1606,0
1607,0
1608,0
1609,0
1610,0
1611,0
1612,0
1613,3
1614,3
1615,5
1616,5
1617,6
1618,6
1619,6
1620,6
1621,0
1622,0
1623,0
1624,0
1625,0
1626,0
1627,3
1628,3
1629,3
1630,0
1631,0
1632,0
1633,0
1634,0
1635,1
1636,1
1637,1
1638,1
1639,0
1640,0
1641,0
1642,0
1643,0
1644,2
1645,2
1646,6
1647,6
1648,0
1649,0
1650,3
1651,3
1652,0
1653,0
1654,4
1655,1
1656,1
1657,0
1658,0
1659,0
1660,0
1661,0
1662,0
1663,6
1664,6
1665,6
1666,6
1667,6
1668,6
1669,0
1670,2
1671,2
1672,2
1673,1
1674,1
1675,4
1676,4
1677,4
1678,4
1679,4
1680,0
1681,0
1682,0
1683,8
1684,8
1685,8
1686,8
1687,8
1688,0
1689,0
1690,0
1691,0
1692,0
1693,0
1694,0
1695,0
1696,2
1697,2
1698,2
1699,2
1700,2
1701,2
1702,2
1703,4
1704,4
1705,4
1706,1
1707,1
1708,1
1709,0
1710,0
1711,0
1712,0
1713,3
1714,3
1715,3
1716,0
1717,0
1718,1
1719,1
1720,1
1721,0
1722,0
1723,0
1724,0
1725,4
1726,4
1727,4
1728,4
1729,0
1730,0
1731,0
1732,0
1733,4
1734,4
1735,4
1736,4
1737,4
1738,4
1739,4
1740,3
1741,3
1742,3
1743,3
1744,3
1745,0
1746,0
1747,0
1748,0
1749,0
1750,0
1751,0
1752,0
1753,0
1754,0
1755,0
1756,0
1757,3
1758,3
1759,0
1760,0
1761,0
1762,0
1763,0
1764,0
1765,2
1766,2
1767,2
1768,2
1769,2
1770,2
1771,2
1772,2
1773,0
1774,0
1775,0
1776,4
1777,4
1778,4
1779,4
1780,4
1781,0
1782,0
1783,0
1784,0
1785,0
1786,7
1787,7
1788,7
1789,7
1790,0
1791,0
1792,0
1793,0
1794,6
1795,6
1796,2
1797,6
1798,6
1799,6
1800,6
1801,0
1802,0
1803,0
1804,0
1805,1
1806,1
1807,0
1808,0
1809,0
1810,0
1811,0
1812,0
1813,0
1814,2
1815,2
1816,2
1817,2
1818,2
1819,2
1820,2
1821,2
1822,1
1823,0
1824,0
1825,0
1826,0
1827,0
1828,0
1829,1
1830,1
1831,2
1832,2
1833,2
1834,2
1835,2
1836,2
1837,2
1838,0
1839,0
1840,0
1841,0
1842,0
1843,0
1844,0
1845,3
1846,3
1847,3
1848,0
1849,0
1850,0
1851,0
1852,0
1853,0
1854,0
1855,5
1856,5
1857,5
1858,5
1859,5
1860,1
1861,1
1862,1
1863,1
1864,0
1865,0
1866,2
1867,3
1868,3
1869,3
1870,3
1871,0
1872,0
1873,0
1874,0
1875,0
1876,2
1877,2
1878,2
1879,2
1880,2
1881,2
1882,2
1883,2
1884,2
1885,2
1886,1
1887,4
1888,4
1889,4
1890,0
1891,0
1892,0
1893,3
1894,3
1895,3
1896,1
1897,1
1898,0
1899,0
1900,0
1901,0
1902,1
1903,1
1904,1
1905,1
1906,0
1907,0
1908,0
1909,0
1910,0
1911,2
1912,1
1913,1
1914,0
1915,0
1916,0
1917,1
1918,1
1919,1
1920,1
1921,1
1922,0
1923,0
1924,1
1925,1
1926,4
1927,4
1928,0
1929,0
1930,0
1931,0
1932,0
1933,0
1934,0
1935,0
1936,0
1937,1
1938,1
1939,7
1940,7
1941,7
1942,0
1943,0
1944,0
1945,0
1946,0
1947,0
1948,0
1949,0
1950,1
1951,1
1952,0
1953,0
1954,0
1955,0
1956,5
1957,5
1958,0
1959,0
1960,0
1961,0
1962,0
1963,0
1964,0
1965,0
1966,2
1967,2
1968,2
1969,2
1970,2
1971,2
1972,2
1973,2
1974,1
1975,1
1976,1
1977,1
1978,1
1979,1
1980,1
1981,1
1982,1
1983,1
1984,2
1985,2
1986,2
1987,5
1988,0
1989,0
1990,0
1991,0
1992,0
1993,1
1994,1
1995,4
1996,4
1997,4
1998,4
1999,0
2000,0
2001,1
2002,1
2003,1
2004,3
2005,3
2006,3
2007,3
2008,0
2009,0
2010,0
2011,0
2012,0
2013,0
2014,0
2015,0
2016,0
2017,1
2018,1
2019,1
2020,1
2021,0
2022,0
2023,0
2024,1
2025,1
2026,1
2027,1
2028,1
2029,0
2030,0
2031,3
2032,3
2033,3
2034,3
2035,8
2036,8
2037,3
2038,3
2039,3
2040,3
2041,3
2042,3
2043,0
2044,0
2045,0
2046,0
2047,0
2048,0
2049,2
2050,2
2051,0
2052,0
2053,0
2054,1
2055,0
2056,2
2057,2
2058,2
2059,2
2060,2
2061,2
2062,2
2063,1
2064,1
2065,3
2066,3
2067,0
2068,0
2069,0
2070,0
2071,0
2072,0
2073,0
2074,0
2075,0
2076,6
2077,6
2078,6
2079,6
2080,6
2081,6
2082,3
2083,3
2084,3
2085,3
2086,3
2087,3
2088,3
2089,1
2090,1
2091,1
2092,0
2093,0
2094,0
2095,0
2096,0
2097,0
2098,0
2099,4
2100,4
2101,4
2102,1
2103,1
2104,1
2105,1
2106,0
2107,0
2108,0
2109,0
2110,0
2111,0
2112,0
2113,3
2114,3
2115,0
2116,4
2117,4
2118,4
2119,4
2120,4
2121,4
2122,0
2123,0
2124,0
2125,4
2126,1
2127,1
2128,1
2129,1
2130,1
2131,1
2132,5
2133,5
2134,0
2135,0
2136,0
2137,0
2138,2
2139,2
2140,0
2141,0
2142,0
2143,0
2144,0
2145,0
2146,0
2147,4
2148,4
2149,4
2150,4
2151,4
2152,0
2153,5
2154,5
2155,5
2156,5
2157,2
2158,2
2159,0
2160,0
2161,0
2162,0
2163,6
2164,6
2165,6
2166,6
2167,1
2168,1
2169,0
2170,0
2171,0
2172,0
2173,0
2174,1
2175,2
2176,2
2177,2
2178,2
2179,1
2180,1
2181,1
2182,1
2183,5
2184,5
2185,0
2186,0
2187,0
2188,0
2189,6
2190,6
2191,6
2192,6
2193,7
2194,0
2195,0
2196,0
2197,0
2198,0
2199,0
2200,0
2201,0
2202,0
2203,1
2204,1
2205,1
2206,1
2207,1
2208,0
2209,0
2210,0
2211,6
2212,6
2213,6
2214,6
2215,6
2216,6
2217,6
2218,6
2219,6
2220,3
2221,3
2222,3
2223,0
2224,0
2225,0
2226,2
2227,2
2228,2
2229,0
2230,0
2231,0
2232,0
2233,0
2234,0
2235,0
2236,0
2237,0
2238,0
2239,2
2240,2
2241,2
2242,2
2243,0
2244,4
2245,4
2246,0
2247,0
2248,0
2249,0
2250,0
2251,0
2252,0
2253,0
2254,6
2255,6
2256,1
2257,1
2258,3
2259,3
2260,2
2261,2
2262,0
2263,0
2264,0
2265,0
2266,2
2267,2
2268,2
2269,0
2270,0
2271,0
2272,0
2273,0
2274,0
2275,0
2276,0
2277,0
2278,0
2279,4
2280,4
2281,4
2282,4
2283,1
2284,1
2285,1
2286,3
2287,3
2288,3
2289,1
2290,1
2291,1
2292,1
2293,2
2294,2
2295,0
2296,0
2297,0
2298,0
2299,0
2300,0
2301,0
2302,0
2303,0
2304,0
2305,0
2306,0
2307,0
2308,1
2309,1
2310,1
2311,4
2312,4
2313,4
2314,4
2315,4
2316,2
2317,2
2318,2
2319,2
2320,2
2321,1
2322,3
2323,3
2324,3
2325,3
2326,3
2327,3
2328,1
2329,1
2330,1
2331,7
2332,6
2333,6
2334,0
2335,0
2336,4
2337,4
2338,4
2339,8
2340,8
2341,8
2342,6
2343,6
2344,6
2345,6
2346,0
2347,0
2348,5
2349,5
2350,5
2351,5
2352,0
2353,0
2354,0
2355,0
2356,0
2357,0
2358,0
2359,0
2360,0
2361,4
2362,4
2363,0
2364,0
2365,1
2366,1
2367,7
2368,7
2369,7
2370,7
2371,2
2372,2
2373,4
2374,4
2375,0
2376,0
2377,1
2378,0
2379,0
2380,0
2381,0
2382,1
2383,1
2384,5
2385,5
2386,1
2387,1
2388,1
2389,1
2390,1
2391,1
2392,0
2393,0
2394,0
2395,0
2396,0
2397,0
2398,0
2399,0
2400,0
2401,5
2402,5
2403,0
2404,0
2405,0
2406,2
2407,2
2408,2
2409,2
2410,2
2411,1
2412,1
2413,1
2414,1
2415,1
2416,1
2417,0
2418,0
2419,0
2420,0
2421,0
2422,0
2423,1
2424,1
2425,1
2426,1
2427,1
2428,8
2429,7
2430,7
2431,0
2432,0
2433,0
2434,4
2435,4
2436,0
2437,0
2438,0
2439,0
2440,0
2441,5
2442,5
2443,5
2444,2
2445,2
2446,2
2447,2
2448,2
2449,8
2450,8
2451,8
2452,8
2453,6
2454,6
2455,3
2456,3
2457,3
2458,3
2459,6
2460,6
2461,6
2462,1
2463,1
2464,1
2465,0
2466,0
2467,0
2468,0
2469,0
2470,0
2471,0
2472,0
2473,0
2474,0
2475,0
2476,6
2477,6
2478,6
2479,3
2480,3
2481,0
2482,0
2483,0
2484,0
2485,0
2486,0
2487,0
2488,0
2489,0
2490,0
2491,0
2492,0
2493,0
2494,0
2495,0
2496,0
2497,0
2498,1
2499,1
2500,7
2501,7
2502,7
2503,7
2504,2
2505,2
2506,2
2507,8
2508,8
2509,8
2510,1
2511,1
2512,1
2513,1
2514,1
2515,1
2516,0
2517,0
2518,0
2519,0
2520,0
2521,0
2522,0
2523,0
2524,0
2525,0
2526,0
2527,0
2528,0
2529,0
2530,0
2531,0
2532,1
2533,1
2534,1
2535,0
2536,0
2537,0
2538,0
2539,0
2540,0
2541,0
2542,0
2543,0
2544,0
2545,0
2546,0
2547,0
2548,7
2549,7
2550,7
2551,0
2552,0
2553,0
2554,0
2555,4
2556,4
2557,0
2558,0
2559,0
2560,0
2561,0
2562,0
2563,0
2564,0
2565,0
2566,0
2567,0
2568,0
2569,0
2570,0
2571,0
2572,0
2573,0
2574,0
2575,0
2576,0
2577,4
2578,4
2579,4
2580,8
2581,8
2582,8
2583,0
2584,0
2585,0
2586,0
2587,0
2588,5
2589,5
2590,5
2591,5
2592,5
2593,0
2594,1
2595,1
2596,0
2597,3
2598,3
2599,3
2600,1
2601,1
2602,1
2603,1
2604,1
2605,7
2606,7
2607,7
2608,7
2609,7
2610,0
2611,0
2612,6
2613,6
2614,4
2615,4
2616,4
2617,4
2618,4
2619,4
2620,4
2621,4
2622,4
2623,0
2624,0
2625,0
2626,0
2627,0
2628,0
2629,0
2630,0
2631,0
2632,0
2633,0
2634,3
2635,3
2636,3
2637,1
2638,1
2639,1
2640,1
2641,2
2642,2
2643,7
2644,1
2645,1
2646,1
2647,1
2648,1
2649,2
2650,2
2651,0
2652,0
2653,0
2654,0
2655,0
2656,0
2657,0
2658,0
2659,1
2660,1
2661,3
2662,3
2663,0
2664,0
2665,0
2666,0
2667,0
2668,0
2669,0
2670,0
2671,2
2672,2
2673,2
2674,2
2675,2
2676,7
2677,7
2678,1
2679,1
2680,4
2681,4
2682,5
2683,5
2684,5
2685,5
2686,0
2687,0
2688,0
2689,6
2690,6
2691,6
2692,6
2693,1
2694,1
2695,1
2696,1
2697,1
2698,1
2699,1
2700,3
2701,3
2702,3
2703,3
2704,3
2705,3
2706,1
2707,1
2708,7
2709,7
2710,0
2711,0
2712,0
2713,0
2714,0
2715,2
2716,2
2717,5
2718,5
2719,5
2720,0
2721,2
2722,2
2723,2
2724,0
2725,0
2726,0
2727,0
2728,4
2729,4
2730,0
2731,0
2732,0
2733,1
2734,4
2735,4
2736,1
2737,1
2738,6
2739,6
2740,6
2741,0
2742,0
2743,5
2744,5
2745,0
2746,0
2747,0
2748,0
2749,7
2750,7
2751,7
2752,7
2753,7
2754,7
2755,2
2756,2
2757,1
2758,1
2759,1
2760,1
2761,1
2762,0
2763,0
2764,0
2765,0
2766,0
2767,0
2768,0
2769,7
2770,7
2771,7
2772,7
2773,0
2774,0
2775,0
2776,0
2777,0
2778,0
2779,0
2780,0
2781,0
2782,0
2783,0
2784,0
2785,7
2786,7
2787,6
2788,6
2789,6
2790,6
2791,2
2792,2
2793,2
2794,2
2795,2
2796,0
2797,0
2798,3
2799,3
2800,3
2801,4
2802,4
2803,0
2804,0
2805,0
2806,2
2807,2
2808,2
2809,2
2810,2
2811,5
2812,5
2813,7
2814,7
2815,7
2816,7
2817,7
2818,7
2819,2
2820,2
2821,2
2822,4
2823,4
2824,4
2825,0
2826,0
2827,0
2828,2
2829,2
2830,2
2831,2
2832,1
2833,1
2834,0
2835,1
2836,1
2837,1
2838,1
2839,0
2840,0
2841,0
2842,0
2843,0
2844,0
2845,0
2846,3
2847,3
2848,3
2849,3
2850,3
2851,0
2852,0
2853,0
2854,0
2855,3
2856,3
2857,3
2858,3
2859,3
2860,0
2861,0
2862,0
2863,0
2864,1
2865,1
2866,1
2867,1
2868,5
2869,5
2870,5
2871,0
2872,0
2873,0
2874,0
2875,1
2876,1
2877,0
2878,0
2879,0
2880,0
2881,3
2882,2
2883,2
2884,4
2885,0
2886,0
2887,4
2888,4
2889,4
2890,4
2891,0
2892,0
2893,0
2894,1
2895,1
2896,4
2897,4
2898,0
2899,0
2900,0
2901,6
2902,6
2903,2
2904,2
2905,2
2906,1
2907,1
2908,1
2909,1
2910,1
2911,7
2912,7
2913,7
2914,7
2915,0
2916,0
2917,0
2918,1
2919,1
2920,1
2921,1
2922,1
2923,1
2924,1
2925,0
2926,0
2927,2
2928,2
2929,2
2930,0
2931,0
2932,0
2933,0
2934,0
2935,0
2936,0
2937,0
2938,0
2939,0
2940,0
2941,0
2942,0
2943,1
2944,1
2945,2
2946,2
2947,2
2948,2
2949,0
2950,0
2951,0
2952,0
2953,0
2954,0
2955,0
2956,0
2957,0
2958,0
2959,0
2960,0
2961,0
2962,0
2963,0
2964,0
2965,0
2966,0
2967,0
2968,0
2969,0
2970,0
2971,0
2972,0
2973,0
2974,0
2975,0
2976,0
2977,0
2978,0
2979,0
2980,0
2981,0
2982,0
2983,0
2984,0
2985,2
2986,2
2987,4
2988,4
2989,0
2990,0
2991,0
2992,0
2993,0
2994,0
2995,0
2996,0
2997,0
2998,0
2999,0
3000,0
3001,0
3002,0
3003,0
3004,0
3005,0
3006,0
3007,0
3008,0
3009,3
3010,3
3011,3
3012,3
3013,0
3014,0
3015,0
3016,0
3017,0
3018,3
3019,3
3020,3
3021,3
3022,5
3023,5
3024,5
3025,0
3026,0
3027,0
3028,1
3029,1
3030,1
3031,1
3032,1
3033,4
3034,0
3035,1
3036,1
3037,1
3038,1
3039,1
3040,3
3041,3
3042,8
3043,2
3044,2
3045,8
3046,8
3047,4
3048,4
3049,4
3050,4
3051,0
3052,0
3053,0
3054,0
3055,0
3056,3
3057,3
3058,3
3059,3
3060,3
3061,3
3062,3
3063,3
3064,3
3065,3
3066,3
3067,3
3068,2
3069,2
3070,2
3071,2
3072,2
3073,3
3074,3
3075,1
3076,1
3077,1
3078,1
3079,1
3080,2
3081,2
3082,2
3083,6
3084,6
3085,6
3086,2
3087,2
3088,2
3089,2
3090,8
3091,8
3092,8
3093,8
3094,8
3095,0
3096,0
3097,0
3098,0
3099,0
3100,0
3101,8
3102,8
3103,8
3104,8
3105,8
3106,0
3107,0
3108,0
3109,0
3110,0
3111,2
3112,2
3113,4
3114,4
3115,4
3116,1
3117,0
3118,0
3119,0
3120,1
3121,1
3122,1
3123,0
3124,0
3125,0
3126,1
3127,1
3128,1
3129,0
3130,1
3131,1
3132,1
3133,0
3134,0
3135,0
3136,0
3137,0
3138,0
3139,2
3140,2
3141,1
3142,1
3143,1
3144,1
3145,1
3146,0
3147,0
3148,2
3149,2
3150,2
3151,2
3152,0
3153,0
3154,0
3155,1
3156,1
3157,0
3158,0
3159,2
3160,2
3161,2
3162,2
3163,0
3164,0
3165,0
3166,0
3167,1
3168,1
3169,1
3170,0
3171,0
3172,0
3173,4
3174,4
3175,4
3176,4
3177,4
3178,4
3179,7
3180,7
3181,7
3182,7
3183,7
3184,2
3185,2
3186,1
3187,1
3188,3
3189,3
3190,6
3191,6
3192,6
3193,0
3194,0
3195,0
3196,0
3197,3
3198,3
3199,3
3200,3
3201,3
3202,3
3203,2
3204,2
3205,0
3206,0
3207,0
3208,0
3209,0
3210,0
3211,0
3212,0
3213,0
3214,1
3215,4
3216,4
3217,4
3218,4
3219,4
3220,4
3221,1
3222,1
3223,1
3224,1
3225,0
3226,0
3227,0
3228,2
3229,1
3230,1
3231,1
3232,2
3233,2
3234,2
3235,2
3236,2
3237,0
3238,0
3239,0
3240,0
3241,0
3242,8
3243,8
3244,8
3245,8
3246,0
3247,0
3248,0
3249,0
3250,0
3251,1
3252,1
3253,1
3254,1
3255,4
3256,4
3257,4
3258,4
3259,0
3260,0
3261,0
3262,0
3263,0
3264,0
3265,0
3266,0
3267,7
3268,0
3269,0
3270,0
3271,1
3272,1
3273,1
3274,1
3275,0
3276,0
3277,0
3278,0
3279,0
3280,0
3281,0
3282,0
3283,1
3284,1
3285,1
3286,6
3287,6
3288,6
3289,6
3290,0
3291,0
3292,4
3293,4
3294,4
3295,4
3296,4
3297,3
3298,3
3299,3
3300,2
3301,2
3302,2
3303,2
3304,1
3305,1
3306,1
3307,1
3308,0
3309,0
3310,0
3311,3
3312,3
3313,3
3314,3
3315,3
3316,0
3317,0
3318,0
3319,0
3320,2
3321,2
3322,2
3323,2
3324,6
3325,6
3326,6
3327,2
3328,2
3329,2
3330,2
3331,1
3332,1
3333,1
3334,0
3335,0
3336,0
3337,0
3338,0
3339,0
3340,0
3341,1
3342,1
3343,1
3344,1
3345,1
3346,1
3347,1
3348,1
3349,6
3350,4
3351,4
3352,4
3353,4
3354,2
3355,2
3356,4
3357,4
3358,1
3359,1
3360,1
3361,1
3362,1
3363,0
3364,0
3365,0
3366,6
3367,6
3368,3
3369,3
3370,3
3371,4
3372,4
3373,4
3374,4
3375,4
3376,0
3377,0
3378,0
3379,0
3380,0
3381,7
3382,7
3383,7
3384,1
3385,0
3386,0
3387,0
3388,1
3389,1
3390,1
3391,6
3392,6
3393,1
3394,0
3395,0
3396,0
3397,3
3398,3
3399,0
3400,0
3401,0
3402,0
3403,0
3404,0
3405,0
3406,0
3407,0
3408,0
3409,0
3410,7
3411,7
3412,7
3413,7
3414,3
3415,3
3416,3
3417,5
3418,5
3419,5
3420,5
3421,0
3422,0
3423,0
3424,0
3425,4
3426,4
3427,4
3428,1
3429,1
3430,1
3431,0
3432,0
3433,0
3434,1
3435,1
3436,0
3437,0
3438,0
3439,0
3440,8
3441,0
3442,0
3443,0
3444,5
3445,5
3446,8
3447,8
3448,0
3449,0
3450,0
3451,0
3452,0
3453,0
3454,6
3455,6
3456,6
3457,6
3458,6
3459,6
3460,0
3461,0
3462,0
3463,0
3464,0
3465,1
3466,1
3467,1
3468,0
3469,0
3470,0
3471,0
3472,0
3473,0
3474,0
3475,5
3476,5
3477,4
3478,4
3479,4
3480,0
3481,0
3482,0
3483,0
3484,0
3485,0
3486,0
3487,0
3488,0
3489,0
3490,0
3491,0
3492,7
3493,7
3494,7
3495,7
3496,7
3497,2
3498,2
3499,2
3500,1
3501,1
3502,1
3503,1
3504,1
3505,1
3506,1
3507,1
3508,1
3509,0
3510,0
3511,0
3512,2
3513,2
3514,2
3515,2
3516,2
3517,2
3518,2
3519,2
3520,2
3521,3
3522,3
3523,3
3524,4
3525,4
3526,4
3527,5
3528,5
3529,5
3530,5
3531,3
3532,0
3533,0
3534,0
3535,0
3536,0
3537,8
3538,8
3539,8
3540,0
3541,0
3542,0
3543,0
3544,0
3545,1
3546,1
3547,1
3548,1
3549,0
3550,0
3551,0
3552,0
3553,0
3554,0
3555,0
3556,0
3557,0
3558,4
3559,4
3560,4
3561,4
3562,1
3563,1
3564,1
3565,1
3566,5
3567,5
3568,5
3569,5
3570,5
3571,3
3572,3
3573,3
3574,3
3575,0
3576,0
3577,0
3578,0
3579,1
3580,1
3581,1
3582,1
3583,1
3584,1
3585,1
3586,3
3587,3
3588,3
3589,3
3590,3
3591,3
3592,0
3593,0
3594,1
3595,1
3596,1
3597,1
3598,1
3599,0
3600,0
3601,5
3602,5
3603,5
3604,5
3605,5
3606,4
3607,0
3608,0
3609,4
3610,4
3611,4
3612,4
3613,4
3614,0
3615,0
3616,0
3617,0
3618,2
3619,2
3620,1
3621,1
3622,1
3623,1
3624,1
3625,0
3626,3
3627,3
3628,3
3629,7
3630,7
3631,7
3632,2
3633,2
3634,2
3635,7
3636,7
3637,7
3638,2
3639,2
3640,6
3641,6
3642,1
3643,1
3644,1
3645,1
3646,0
3647,0
3648,0
3649,0
3650,3
3651,3
3652,3
3653,3
3654,3
3655,1
3656,1
3657,1
3658,1
3659,1
3660,1
3661,0
3662,0
3663,0
3664,0
3665,0
3666,2
3667,2
3668,1
3669,1
3670,1
3671,1
3672,1
3673,1
3674,1
3675,0
3676,0
3677,1
3678,1
3679,1
3680,1
3681,1
3682,7
3683,7
3684,0
3685,0
3686,0
3687,0
3688,0
3689,0
3690,0
3691,5
3692,5
3693,0
3694,0
3695,0
3696,0
3697,0
3698,0
3699,5
3700,5
3701,5
3702,5
3703,0
3704,0
3705,0
3706,0
3707,0
3708,4
3709,4
3710,4
3711,4
3712,4
3713,8
3714,8
3715,1
3716,0
3717,0
3718,0
3719,0
3720,0
3721,0
3722,0
3723,0
3724,7
3725,7
3726,7
3727,7
3728,7
3729,7
3730,1
3731,1
3732,1
3733,1
3734,0
3735,0
3736,0
3737,0
3738,0
3739,0
3740,0
3741,0
3742,0
3743,0
3744,0
3745,0
3746,0
3747,3
3748,3
3749,1
3750,1
3751,1
3752,0
3753,0
3754,0
3755,0
3756,2
3757,2
3758,1
3759,1
3760,1
3761,0
3762,0
3763,0
3764,0
3765,0
3766,0
3767,0
3768,0
3769,5
3770,5
3771,5
3772,5
3773,0
3774,0
3775,0
3776,0
3777,0
3778,1
3779,1
3780,1
3781,1
3782,0
3783,0
3784,0
3785,0
3786,2
3787,2
3788,2
3789,1
3790,0
3791,0
3792,1
3793,1
3794,1
3795,1
3796,2
3797,2
3798,2
3799,2
3800,2
3801,0
3802,0
3803,0
3804,0
3805,0
3806,2
3807,2
3808,2
3809,3
3810,3
3811,3
3812,0
3813,0
3814,0
3815,0
3816,0
3817,0
3818,0
3819,0
3820,1
3821,1
3822,1
3823,1
3824,7
3825,7
3826,7
3827,7
3828,0
3829,0
3830,0
3831,0
3832,0
3833,0
3834,0
3835,3
3836,3
3837,5
3838,5
3839,0
3840,0
3841,0
3842,0
3843,3
3844,3
3845,3
3846,3
3847,3
3848,5
3849,5
3850,5
3851,1
3852,2
3853,2
3854,2
3855,0
3856,0
3857,0
3858,0
3859,0
3860,4
3861,4
3862,1
3863,1
3864,2
3865,1
3866,1
3867,1
3868,0
3869,0
3870,0
3871,0
3872,0
3873,0
3874,0
3875,3
3876,3
3877,3
3878,3
3879,3
3880,3
3881,2
3882,2
3883,2
3884,2
3885,0
3886,0
3887,0
3888,0
3889,0
3890,0
3891,1
3892,0
3893,0
3894,0
3895,0
3896,4
3897,4
3898,4
3899,4
3900,5
3901,5
3902,2
3903,2
3904,2
3905,0
3906,0
3907,0
3908,0
3909,0
3910,0
3911,0
3912,0
3913,0
3914,0
3915,0
3916,3
3917,3
3918,1
3919,1
3920,0
3921,0
3922,0
3923,2
3924,0
3925,0
3926,0
3927,0
3928,0
3929,0
3930,0
3931,0
3932,2
3933,2
3934,2
3935,2
3936,0
3937,0
3938,0
3939,6
3940,6
3941,6
3942,6
3943,4
3944,4
3945,4
3946,4
3947,1
3948,1
3949,1
3950,1
3951,0
3952,0
3953,0
3954,0
3955,2
3956,6
3957,6
3958,6
3959,6
3960,3
3961,3
3962,3
3963,3
3964,3
3965,0
3966,0
3967,0
3968,0
3969,0
3970,0
3971,5
3972,5
3973,5
3974,0
3975,0
3976,0
3977,0
3978,0
3979,0
3980,0
3981,0
3982,0
3983,0
3984,0
3985,0
3986,1
3987,1
3988,1
3989,0
3990,0
3991,0
3992,0
3993,0
3994,0
3995,3
3996,3
3997,3
3998,0
3999,0
4000,0
4001,0
4002,0
4003,0
4004,0
4005,0
4006,0
4007,0
4008,0
4009,6
4010,6
4011,6
4012,6
4013,1
4014,1
4015,1
4016,0
4017,0
4018,2
4019,4
4020,4
4021,4
4022,4
4023,4
4024,4
4025,4
4026,4
4027,2
4028,2
4029,2
4030,2
4031,6
4032,0
4033,0
4034,0
4035,0
4036,1
4037,2
4038,2
4039,2
4040,2
4041,2
4042,2
4043,0
4044,0
4045,0
4046,0
4047,0
4048,0
4049,4
4050,4
4051,4
4052,4
4053,4
4054,0
4055,0
4056,0
4057,0
4058,0
4059,0
4060,0
4061,7
4062,7
4063,7
4064,1
4065,1
4066,2
4067,7
4068,4
4069,4
4070,4
4071,8
4072,8
4073,0
4074,0
4075,0
4076,0
4077,0
4078,0
4079,0
4080,3
4081,3
4082,0
4083,0
4084,0
4085,0
4086,5
4087,5
4088,4
4089,4
4090,4
4091,4
4092,4
4093,4
4094,2
4095,2
4096,3
4097,3
4098,3
4099,7
4100,7
4101,0
4102,0
4103,0
4104,1
4105,1
4106,1
4107,0
4108,0
4109,0
4110,0
4111,1
4112,1
4113,7
4114,7
4115,0
4116,0
4117,1
4118,1
4119,1
4120,1
4121,1
4122,1
4123,1
4124,1
4125,7
4126,7
4127,2
4128,2
4129,2
4130,0
4131,0
4132,0
4133,0
4134,1
4135,1
4136,0
4137,0
4138,0
4139,6
4140,6
4141,6
4142,0
4143,0
4144,3
4145,3
4146,3
4147,0
4148,0
4149,0
4150,0
4151,0
4152,0
4153,0
4154,1
4155,1
4156,1
4157,1
4158,4
4159,0
4160,0
4161,0
4162,8
4163,8
4164,8
4165,8
4166,8
4167,8
4168,8
4169,8
4170,6
4171,6
4172,6
4173,6
4174,1
4175,1
4176,1
4177,3
4178,3
4179,3
4180,3
4181,3
4182,3
4183,0
4184,0
4185,0
4186,0
4187,0
4188,1
4189,1
4190,1
4191,1
4192,1
4193,1
4194,6
4195,6
4196,6
4197,6
4198,0
4199,0
4200,5
4201,5
4202,5
4203,5
4204,1
4205,1
4206,1
4207,2
4208,2
4209,2
4210,2
4211,2
4212,3
4213,3
4214,3
4215,6
4216,6
4217,6
4218,5
4219,5
4220,6
4221,6
4222,5
4223,0
4224,0
4225,0
4226,0
4227,0
4228,0
4229,0
4230,0
4231,0
4232,7
4233,7
4234,7
4235,7
4236,5
4237,5
4238,0
4239,0
4240,0
4241,0
4242,0
4243,0
4244,0
4245,0
4246,0
4247,1
4248,2
4249,2
4250,8
4251,8
4252,8
4253,8
4254,0
4255,0
4256,1
4257,1
4258,0
4259,0
4260,0
4261,2
4262,2
4263,0
4264,1
4265,1
4266,1
4267,1
4268,2
4269,2
4270,2
4271,0
4272,0
4273,5
4274,5
4275,5
4276,5
4277,0
4278,0
4279,8
4280,8
4281,8
4282,3
4283,3
4284,4
4285,4
4286,4
4287,0
4288,0
4289,0
4290,0
4291,0
4292,2
4293,2
4294,2
4295,2
4296,3
4297,3
4298,3
4299,3
4300,3
4301,3
4302,3
4303,0
4304,0
4305,0
4306,0
4307,0
4308,0
4309,0
4310,0
4311,0
4312,1
4313,1
4314,1
4315,2
4316,2
4317,2
4318,1
4319,1
4320,0
4321,0
4322,0
4323,0
4324,3
4325,3
4326,3
4327,3
4328,0
4329,0
4330,0
4331,0
4332,0
4333,0
4334,0
4335,2
4336,2
4337,2
4338,2
4339,0
4340,0
4341,0
4342,0
4343,0
4344,0
4345,0
4346,0
4347,0
4348,0
4349,0
4350,0
4351,0
4352,0
4353,0
4354,0
4355,0
4356,0
4357,0
4358,1
4359,1
4360,0
4361,0
4362,0
4363,0
4364,0
4365,0
4366,0
4367,0
4368,0
4369,0
4370,0
4371,8
4372,8
4373,8
4374,5
4375,5
4376,5
4377,5
4378,5
4379,3
4380,3
4381,3
4382,5
4383,2
4384,2
4385,2
4386,2
4387,2
4388,2
4389,2
4390,2
4391,2
4392,2
4393,2
4394,2
4395,0
4396,0
4397,0
4398,0
4399,0
4400,0
4401,2
4402,2
4403,2
4404,2
4405,5
4406,0
4407,0
4408,0
4409,0
4410,0
4411,0
4412,0
4413,0
4414,0
4415,0
4416,0
4417,0
4418,0
4419,0
4420,0
4421,0
4422,0
4423,3
4424,3
4425,3
4426,3
4427,1
4428,1
4429,1
4430,1
4431,1
4432,1
4433,4
4434,3
4435,3
4436,3
4437,3
4438,3
4439,2
4440,2
4441,2
4442,1
4443,1
4444,1
4445,1
4446,1
4447,1
4448,1
4449,1
4450,1
4451,0
4452,0
4453,0
4454,0
4455,0
4456,0
4457,0
4458,0
4459,0
4460,0
4461,0
4462,3
4463,3
4464,0
4465,0
4466,0
4467,0
4468,0
4469,0
4470,0
4471,0
4472,0
4473,0
4474,0
4475,3
4476,3
4477,0
4478,4
4479,4
4480,4
4481,3
4482,3
4483,3
4484,3
4485,4
4486,4
4487,4
4488,4
4489,4
4490,0
4491,0
4492,0
4493,0
4494,0
4495,0
4496,0
4497,3
4498,3
4499,3
4500,1
4501,1
4502,1
4503,7
4504,7
4505,7
4506,7
4507,2
4508,2
4509,2
4510,2
4511,8
4512,8
4513,8
4514,8
4515,8
4516,0
4517,0
4518,0
4519,7
4520,0
4521,0
4522,0
4523,0
4524,0
4525,0
4526,0
4527,0
4528,3
4529,3
4530,3
4531,3
4532,1
4533,1
4534,1
4535,1
4536,1
4537,8
4538,8
4539,8
4540,0
4541,0
4542,0
4543,0
4544,0
4545,0
4546,0
4547,0
4548,0
4549,0
4550,0
4551,0
4552,0
4553,0
4554,5
4555,5
4556,5
4557,0
4558,0
4559,0
4560,0
4561,0
4562,1
4563,1
4564,0
4565,0
4566,0
4567,0
4568,0
4569,2
4570,1
4571,1
4572,1
4573,8
4574,8
4575,8
4576,6
4577,6
4578,6
4579,4
4580,4
4581,4
4582,4
4583,4
4584,5
4585,5
4586,0
4587,0
4588,0
4589,0
4590,0
4591,0
4592,0
4593,0
4594,0
4595,2
4596,2
4597,2
4598,2
4599,3
4600,3
4601,3
4602,3
4603,5
4604,5
4605,5
4606,5
4607,5
4608,0
4609,1
4610,1
4611,1
4612,1
4613,1
4614,2
4615,2
4616,4
4617,4
4618,4
4619,4
4620,0
4621,0
4622,6
4623,6
4624,6
4625,3
4626,8
4627,2
4628,1
4629,1
4630,1
4631,1
4632,0
4633,0
4634,0
4635,3
4636,3
4637,3
4638,3
4639,0
4640,0
4641,0
4642,0
4643,0
4644,0
4645,0
4646,2
4647,2
4648,2
4649,0
4650,0
4651,0
4652,0
4653,0
4654,0
4655,0
4656,2
4657,2
4658,3
4659,3
4660,3
4661,1
4662,1
4663,1
4664,0
4665,0
4666,0
4667,0
4668,0
4669,7
4670,7
4671,7
4672,7
4673,6
4674,6
4675,6
4676,6
4677,1
4678,1
4679,0
4680,0
4681,0
4682,1
4683,1
4684,1
4685,1
4686,1
4687,0
4688,0
4689,0
4690,0
4691,0
4692,0
4693,0
4694,0
4695,0
4696,0
4697,0
4698,0
4699,0
4700,0
4701,0
4702,0
4703,0
4704,0
4705,2
4706,2
4707,2
4708,1
4709,1
4710,1
4711,0
4712,0
4713,0
4714,5
4715,5
4716,5
4717,1
4718,1
4719,2
4720,2
4721,2
4722,7
4723,2
4724,3
4725,3
4726,3
4727,0
4728,0
4729,0
4730,0
4731,0
4732,3
4733,3
4734,3
4735,3
4736,3
4737,4
4738,4
4739,3
4740,1
4741,1
4742,1
4743,2
4744,2
4745,2
4746,2
4747,2
4748,2
4749,0
4750,0
4751,0
4752,0
4753,0
4754,1
4755,1
4756,1
4757,0
4758,0
4759,0
4760,0
4761,0
4762,0
4763,1
4764,1
4765,1
4766,1
4767,1
4768,2
4769,2
4770,0
4771,0
4772,0
4773,2
4774,2
4775,2
4776,1
4777,1
4778,1
4779,1
4780,1
4781,1
4782,1
4783,0
4784,0
4785,8
4786,8
4787,1
4788,1
4789,1
4790,1
4791,0
4792,0
4793,0
4794,0
4795,0
4796,0
4797,0
4798,0
4799,0
4800,0
4801,0
4802,0
4803,0
4804,2
4805,2
4806,2
4807,2
4808,2
4809,1
4810,1
4811,0
4812,0
4813,0
4814,0
4815,0
4816,0
4817,0
4818,0
4819,0
4820,0
4821,0
4822,0
4823,0
4824,0
4825,0
4826,5
4827,5
4828,5
4829,5
4830,5
4831,5
4832,5
4833,5
4834,0
4835,0
4836,0
4837,2
4838,7
4839,7
4840,0
4841,0
4842,0
4843,0
4844,0
4845,0
4846,0
4847,0
4848,0
4849,0
4850,0
4851,3
4852,3
4853,0
4854,0
4855,1
4856,1
4857,0
4858,0
4859,0
4860,0
4861,5
4862,5
4863,5
4864,0
4865,0
4866,0
4867,0
4868,2
4869,2
4870,1
4871,1
4872,1
4873,0
4874,0
4875,0
4876,0
4877,0
4878,0
4879,7
4880,4
4881,4
4882,4
4883,4
4884,4
4885,0
4886,0
4887,0
4888,0
4889,0
4890,0
4891,1
4892,1
4893,1
4894,5
4895,5
4896,3
4897,5
4898,5
4899,5
4900,5
4901,5
4902,0
4903,0
4904,0
4905,5
4906,5
4907,5
4908,0
4909,0
4910,8
4911,8
4912,0
4913,0
4914,0
4915,0
4916,0
4917,0
4918,0
4919,0
4920,0
4921,0
4922,0
4923,5
4924,2
4925,2
4926,2
4927,0
4928,0
4929,0
4930,0
4931,0
4932,2
4933,2
4934,3
4935,3
4936,3
4937,3
4938,3
4939,3
4940,3
4941,3
4942,6
4943,6
4944,0
4945,0
4946,0
4947,0
4948,0
4949,0
4950,0
4951,0
4952,0
4953,0
4954,0
4955,0
4956,0
4957,0
4958,0
4959,5
4960,5
4961,5
4962,5
4963,5
4964,5
4965,5
4966,0
4967,1
4968,1
4969,2
4970,2
4971,0
4972,0
4973,5
4974,5
4975,5
4976,0
4977,3
4978,3
4979,3
4980,3
4981,2
4982,7
4983,2
4984,2
4985,2
4986,2
4987,2
4988,2
4989,0
4990,0
4991,0
4992,0
4993,1
4994,1
4995,1
4996,0
4997,0
4998,0
4999,0
5000,0
5001,2
5002,2
5003,2
5004,6
5005,6
5006,6
5007,1
5008,1
5009,1
5010,1
5011,0
5012,0
5013,0
5014,0
5015,0
5016,0
5017,5
5018,5
5019,2
5020,7
5021,0
5022,0
5023,1
5024,1
5025,1
5026,1
5027,1
5028,1
5029,1
5030,1
5031,1
5032,1
5033,1
5034,1
5035,2
5036,2
5037,2
5038,2
5039,0
5040,0
5041,0
5042,7
5043,7
5044,7
5045,7
5046,2
5047,2
5048,0
5049,0
5050,0
5051,0
5052,0
5053,0
5054,0
5055,0
5056,0
5057,0
5058,0
5059,6
5060,6
5061,6
5062,4
5063,4
5064,4
5065,4
5066,2
5067,2
5068,2
5069,2
5070,3
5071,3
5072,3
5073,3
5074,3
5075,3
5076,3
5077,0
5078,0
5079,0
5080,0
5081,0
5082,0
5083,0
5084,0
5085,1
5086,2
5087,2
5088,0
5089,0
5090,0
5091,0
5092,0
5093,0
5094,0
5095,0
5096,0
5097,0
5098,0
5099,0
5100,6
5101,6
5102,6
5103,2
5104,2
5105,2
5106,6
5107,6
5108,6
5109,6
5110,6
5111,1
5112,1
5113,1
5114,0
5115,0
5116,0
5117,5
5118,5
5119,6
5120,6
5121,1
5122,1
5123,1
5124,1
5125,4
5126,4
5127,4
5128,0
5129,0
5130,0
5131,0
5132,0
5133,0
5134,0
5135,1
5136,1
5137,1
5138,7
5139,7
5140,7
5141,7
5142,7
5143,1
5144,1
5145,1
5146,1
5147,0
5148,0
5149,1
5150,1
5151,1
5152,1
5153,4
5154,4
5155,4
5156,0
5157,0
5158,0
5159,0
5160,0
5161,0
5162,0
5163,0
5164,0
5165,0
5166,0
5167,2
5168,2
5169,2
5170,2
5171,4
5172,4
5173,4
5174,0
5175,0
5176,0
5177,0
5178,1
5179,1
5180,1
5181,1
5182,4
5183,4
5184,4
5185,1
5186,1
5187,1
5188,6
5189,6
5190,6
5191,6
5192,6
5193,6
5194,6
5195,6
5196,6
5197,1
5198,0
5199,0
5200,0
5201,0
5202,0
5203,1
5204,1
5205,2
5206,2
5207,2
5208,2
5209,0
5210,0
5211,0
5212,0
5213,0
5214,2
5215,2
5216,2
5217,2
5218,1
5219,1
5220,1
5221,1
5222,5
5223,0
5224,0
5225,1
5226,1
5227,0
5228,0
5229,0
5230,0
5231,0
5232,0
5233,0
5234,0
5235,0
5236,0
5237,0
5238,3
5239,3
5240,0
5241,3
5242,3
5243,3
5244,1
5245,1
5246,1
5247,4
5248,4
5249,0
5250,0
5251,0
5252,0
5253,0
5254,0
5255,0
5256,0
5257,0
5258,0
5259,0
5260,0
5261,0
5262,0
5263,0
5264,0
5265,0
5266,0
5267,0
5268,0
5269,0
5270,0
5271,3
5272,3
5273,3
5274,1
5275,1
5276,1
5277,0
5278,0
5279,0
5280,0
5281,0
5282,0
5283,0
5284,0
5285,0
5286,0
5287,0
5288,5
5289,5
5290,5
5291,5
5292,1
5293,1
5294,1
5295,1
5296,1
5297,1
5298,7
5299,7
5300,7
5301,7
5302,0
5303,0
5304,0
5305,0
5306,0
5307,0
5308,1
5309,1
5310,1
5311,1
5312,4
5313,4
5314,5
5315,5
5316,5
5317,0
5318,0
5319,0
5320,0
5321,0
5322,0
5323,0
5324,1
5325,1
5326,1
5327,3
5328,3
5329,3
5330,0
5331,0
5332,0
5333,0
5334,5
5335,5
5336,5
5337,5
5338,3
5339,3
5340,3
5341,3
5342,3
5343,0
5344,2
5345,2
5346,2
5347,0
5348,0
5349,1
5350,1
5351,1
5352,0
5353,0
5354,0
5355,3
5356,3
5357,3
5358,3
5359,3
5360,3
5361,0
5362,0
5363,0
5364,0
5365,0
5366,0
5367,0
5368,0
5369,0
5370,0
5371,1
5372,1
5373,0
5374,0
5375,0
5376,2
5377,2
5378,0
5379,0
5380,8
5381,8
5382,8
5383,8
5384,8
5385,8
5386,4
5387,4
5388,4
5389,0
5390,0
5391,0
5392,0
5393,0
5394,2
5395,2
5396,1
5397,1
5398,4
5399,4
5400,4
5401,4
5402,1
5403,1
5404,1
5405,0
5406,0
5407,1
5408,1
5409,1
5410,1
5411,1
5412,3
5413,3
5414,3
5415,3
5416,6
5417,6
5418,6
5419,6
5420,6
5421,3
5422,0
5423,0
5424,0
5425,5
5426,5
5427,5
5428,0
5429,0
5430,0
5431,7
5432,7
5433,3
5434,3
5435,3
5436,0
5437,0
5438,0
5439,0
5440,0
5441,0
5442,0
5443,0
5444,0
5445,0
5446,0
5447,1
5448,1
5449,1
5450,1
5451,0
5452,0
5453,6
5454,6
5455,6
5456,1
5457,1
5458,1
5459,1
5460,1
5461,1
5462,1
5463,1
5464,1
5465,3
5466,0
5467,0
5468,0
5469,0
5470,0
5471,0
5472,0
5473,0
5474,0
5475,0
5476,0
5477,0
5478,2
5479,2
5480,2
5481,0
5482,0
5483,0
5484,0
5485,0
5486,3
5487,3
5488,3
5489,0
5490,0
5491,0
5492,0
5493,3
5494,3
5495,3
5496,6
5497,6
5498,5
5499,0
5500,0
5501,0
5502,0
5503,1
5504,1
5505,1
5506,1
5507,1
5508,3
5509,3
5510,3
5511,3
5512,3
5513,6
5514,6
5515,0
5516,0
5517,1
5518,1
5519,1
5520,2
5521,2
5522,2
5523,0
5524,0
5525,1
5526,1
5527,0
5528,0
5529,0
5530,0
5531,0
5532,0
5533,0
5534,0
5535,3
5536,3
5537,3
5538,3
5539,0
5540,6
5541,0
5542,0
5543,0
5544,0
5545,0
5546,0
5547,0
5548,1
5549,1
5550,1
5551,1
5552,0
5553,0
5554,0
5555,0
5556,0
5557,0
5558,0
5559,0
5560,0
5561,0
5562,0
5563,0
5564,0
5565,0
5566,0
5567,0
5568,3
5569,3
5570,3
5571,1
5572,2
5573,2
5574,2
5575,3
5576,3
5577,3
5578,3
5579,3
5580,3
5581,3
5582,0
5583,1
5584,1
5585,1
5586,1
5587,7
5588,7
5589,7
5590,0
5591,0
5592,0
5593,0
5594,0
5595,0
5596,0
5597,0
5598,0
5599,0
5600,0
5601,2
5602,2
5603,7
5604,7
5605,7
5606,7
5607,4
5608,4
5609,4
5610,4
5611,1
5612,1
5613,1
5614,0
5615,0
5616,0
5617,0
5618,0
5619,0
5620,0
5621,0
5622,1
5623,1
5624,1
5625,0
5626,0
5627,0
5628,0
5629,0
5630,0
5631,4
5632,4
5633,4
5634,4
5635,0
5636,0
5637,0
5638,0
5639,0
5640,0
5641,0
5642,0
5643,0
5644,0
5645,0
5646,0
5647,5
5648,5
5649,5
5650,5
5651,1
5652,1
5653,1
5654,1
5655,0
5656,0
5657,0
5658,0
5659,0
5660,0
5661,0
5662,0
5663,0
5664,0
5665,0
5666,0
5667,0
5668,0
5669,0
5670,0
5671,0
5672,4
5673,4
5674,4
5675,4
5676,4
5677,7
5678,7
5679,0
5680,6
5681,1
5682,1
5683,3
5684,3
5685,0
5686,0
5687,0
5688,0
5689,0
5690,6
5691,6
5692,6
5693,0
5694,0
5695,2
5696,2
5697,2
5698,2
5699,2
5700,2
5701,2
5702,0
5703,0
5704,6
5705,6
5706,6
5707,6
5708,6
5709,6
5710,4
5711,4
5712,4
5713,4
5714,0
5715,0
5716,0
5717,0
5718,8
5719,8
5720,8
5721,8
5722,8
5723,2
5724,2
5725,2
5726,2
5727,0
5728,0
5729,0
5730,0
5731,0
5732,1
5733,3
5734,3
5735,3
5736,0
5737,0
5738,2
5739,2
5740,2
5741,0
5742,0
5743,0
5744,0
5745,0
5746,0
5747,0
5748,0
5749,0
5750,0
5751,0
5752,2
5753,2
5754,0
5755,0
5756,0
5757,4
5758,4
5759,0
5760,0
5761,0
5762,3
5763,3
5764,3
5765,3
5766,2
5767,2
5768,7
5769,7
5770,7
5771,3
5772,4
5773,4
5774,4
5775,4
5776,7
5777,7
5778,0
5779,0
5780,0
5781,0
5782,0
5783,3
5784,3
5785,3
5786,3
5787,1
5788,1
5789,1
5790,0
5791,0
5792,0
5793,0
5794,0
5795,0
5796,0
5797,0
5798,1
5799,1
5800,1
5801,1
5802,0
5803,0
5804,2
5805,2
5806,2
5807,2
5808,0
5809,0
5810,4
5811,4
5812,4
5813,2
5814,2
5815,1
5816,1
5817,1
5818,1
5819,1
5820,1
5821,2
5822,2
5823,2
5824,2
5825,2
5826,2
5827,0
5828,0
5829,0
5830,0
5831,0
5832,0
5833,0
5834,0
5835,0
5836,0
5837,0
5838,5
5839,5
5840,5
5841,5
5842,5
5843,0
5844,0
5845,0
5846,0
5847,0
5848,2
5849,2
5850,3
5851,3
5852,3
5853,2
5854,2
5855,2
5856,2
5857,2
5858,4
5859,4
5860,4
5861,4
5862,1
5863,1
5864,1
5865,1
5866,0
5867,1
5868,1
5869,1
5870,1
5871,3
5872,6
5873,6
5874,1
5875,1
5876,1
5877,1
5878,1
5879,1
5880,1
5881,1
5882,0
5883,0
5884,0
5885,3
5886,3
5887,3
5888,3
5889,3
5890,3
5891,0
5892,0
5893,0
5894,8
5895,8
5896,8
5897,8
5898,0
5899,0
5900,6
5901,6
5902,6
5903,3
5904,0
5905,0
5906,0
5907,0
5908,0
5909,0
5910,0
5911,0
5912,1
5913,1
5914,1
5915,1
5916,1
5917,1
5918,1
5919,1
5920,0
5921,0
5922,0
5923,0
5924,0
5925,0
5926,2
5927,0
5928,0
5929,0
5930,0
5931,0
5932,0
5933,0
5934,0
5935,0
5936,0
5937,0
5938,0
5939,0
5940,1
5941,1
5942,0
5943,0
5944,0
5945,0
5946,3
5947,8
5948,8
5949,0
5950,0
5951,0
5952,4
5953,4
5954,1
5955,1
5956,2
5957,2
5958,2
5959,2
5960,2
5961,2
5962,0
5963,0
5964,0
5965,0
5966,0
5967,0
5968,0
5969,3
5970,3
5971,3
5972,3
5973,2
5974,2
5975,2
5976,1
5977,1
5978,1
5979,1
5980,1
5981,0
5982,0
5983,0
5984,0
5985,5
5986,5
5987,5
5988,2
5989,2
5990,2
5991,0
5992,0
5993,0
5994,0
5995,0
5996,0
5997,0
5998,0
5999,0
6000,0
6001,0
6002,1
6003,1
6004,1
6005,0
6006,0
6007,0
6008,0
6009,0
6010,1
6011,1
6012,1
6013,1
6014,3
6015,3
6016,3
6017,0
6018,0
6019,0
6020,0
6021,0
6022,6
6023,6
6024,6
6025,6
6026,6
6027,1
6028,1
6029,0
6030,0
6031,0
6032,0
6033,0
6034,6
6035,6
6036,6
6037,0
6038,0
6039,0
6040,0
6041,3
6042,3
6043,3
6044,3
6045,0
6046,0
6047,1
6048,1
6049,1
6050,1
6051,2
6052,2
6053,2
6054,2
6055,2
6056,2
6057,3
6058,3
6059,2
6060,2
6061,2
6062,2
6063,1
6064,1
6065,1
6066,1
6067,1
6068,2
6069,2
6070,7
6071,7
6072,7
6073,7
6074,7
6075,7
6076,0
6077,0
6078,0
6079,0
6080,1
6081,1
6082,3
6083,3
6084,0
6085,0
6086,0
6087,0
6088,0
6089,0
6090,0
6091,0
6092,0
6093,3
6094,3
6095,3
6096,1
6097,1
6098,1
6099,1
6100,7
6101,7
6102,0
6103,0
6104,0
6105,0
6106,0
6107,0
6108,0
6109,0
6110,0
6111,0
6112,0
6113,0
6114,1
6115,0
6116,0
6117,0
6118,0
6119,3
6120,3
6121,3
6122,5
6123,5
6124,0
6125,0
6126,0
6127,0
6128,0
6129,0
6130,0
6131,0
6132,0
6133,0
6134,1
6135,1
6136,2
6137,1
6138,1
6139,0
6140,0
6141,5
6142,5
6143,5
6144,2
6145,2
6146,3
6147,3
6148,8
6149,8
6150,8
6151,1
6152,1
6153,1
6154,1
6155,4
6156,4
6157,4
6158,4
6159,1
6160,1
6161,1
6162,1
6163,0
6164,0
6165,0
6166,0
6167,2
6168,2
6169,0
6170,0
6171,0
6172,0
6173,1
6174,1
6175,1
6176,1
6177,4
6178,4
6179,4
6180,4
6181,4
6182,1
6183,1
6184,1
6185,3
6186,3
6187,3
6188,0
6189,0
6190,0
6191,0
6192,0
6193,0
6194,0
6195,0
6196,5
6197,5
6198,1
6199,1
6200,1
6201,1
6202,0
6203,0
6204,0
6205,2
6206,2
6207,2
6208,2
6209,6
6210,6
6211,6
6212,1
6213,1
6214,1
6215,1
6216,1
6217,0
6218,0
6219,0
6220,0
6221,0
6222,0
6223,0
6224,0
6225,2
6226,2
6227,8
6228,8
6229,8
6230,8
6231,0
6232,0
6233,0
6234,0
6235,0
6236,0
6237,0
6238,0
6239,0
6240,0
6241,0
6242,0
6243,3
6244,3
6245,3
6246,3
6247,0
6248,0
6249,0
6250,0
6251,6
6252,6
6253,6
6254,6
6255,6
6256,2
6257,2
6258,2
6259,2
6260,2
6261,2
6262,5
6263,5
6264,5
6265,5
6266,5
6267,5
6268,1
6269,1
6270,1
6271,1
6272,5
6273,5
6274,0
6275,0
6276,0
6277,0
6278,0
6279,0
6280,0
6281,0
6282,0
6283,0
6284,0
6285,4
6286,4
6287,0
6288,0
6289,0
6290,0
6291,0
6292,0
6293,3
6294,3
6295,3
6296,3
6297,3
6298,3
6299,3
6300,3
6301,3
6302,7
6303,7
6304,7
6305,1
6306,1
6307,1
6308,1
6309,1
6310,1
6311,2
6312,2
6313,2
6314,3
6315,3
6316,3
6317,5
6318,5
6319,5
6320,0
6321,0
6322,0
6323,5
6324,5
6325,2
6326,2
6327,2
6328,1
6329,1
6330,3
6331,3
6332,3
6333,3
6334,2
6335,2
6336,2
6337,2
6338,2
6339,0
6340,0
6341,0
6342,0
6343,0
6344,3
6345,3
6346,1
6347,1
6348,1
6349,0
6350,0
6351,0
6352,0
6353,0
6354,0
6355,7
6356,7
6357,7
6358,7
6359,7
6360,7
6361,1
6362,1
6363,1
6364,1
6365,1
6366,4
6367,4
6368,4
6369,0
6370,0
6371,0
6372,1
6373,5
6374,5
6375,5
6376,5
6377,5
6378,5
6379,2
6380,2
6381,1
6382,3
6383,3
6384,3
6385,3
6386,3
6387,3
6388,0
6389,8
6390,8
6391,8
6392,8
6393,8
6394,8
6395,4
6396,1
6397,1
6398,1
6399,1
6400,1
6401,0
6402,0
6403,0
6404,0
6405,0
6406,0
6407,0
6408,0
6409,0
6410,0
6411,0
6412,0
6413,0
6414,0
6415,8
6416,8
6417,8
6418,8
6419,4
6420,4
6421,4
6422,4
6423,5
6424,5
6425,5
6426,5
6427,2
6428,2
6429,2
6430,1
6431,1
6432,2
6433,2
6434,2
6435,2
6436,2
6437,2
6438,2
6439,0
6440,0
6441,0
6442,0
6443,3
6444,3
6445,3
6446,0
6447,5
6448,0
6449,0
6450,0
6451,0
6452,0
6453,0
6454,0
6455,0
6456,0
6457,2
6458,2
6459,2
6460,2
6461,2
6462,1
6463,1
6464,1
6465,1
6466,0
6467,0
6468,0
6469,1
6470,1
6471,1
6472,1
6473,1
6474,0
6475,0
6476,0
6477,0
6478,3
6479,3
6480,3
6481,3
6482,3
6483,0
6484,0
6485,0
6486,8
6487,8
6488,8
6489,2
6490,2
6491,3
6492,3
6493,3
6494,3
6495,3
6496,0
6497,0
6498,0
6499,0
6500,0
6501,6
6502,4
6503,4
6504,4
6505,4
6506,4
6507,4
6508,1
6509,1
6510,1
6511,1
6512,1
6513,1
6514,1
6515,1
6516,2
6517,2
6518,2
6519,5
6520,5
6521,5
6522,0
6523,0
6524,8
6525,8
6526,8
6527,8
6528,8
6529,5
6530,5
6531,2
6532,2
6533,2
6534,2
6535,4
6536,1
6537,1
6538,1
6539,1
6540,1
6541,0
6542,0
6543,0
6544,0
6545,0
6546,0
6547,0
6548,0
6549,0
6550,0
6551,0
6552,0
6553,0
6554,0
6555,5
6556,5
6557,5
6558,6
6559,6
6560,6
6561,6
6562,2
6563,2
6564,2
6565,8
6566,5
6567,5
6568,0
6569,0
6570,0
6571,0
6572,0
6573,0
6574,0
6575,0
6576,0
6577,0
6578,0
6579,0
6580,0
6581,0
6582,3
6583,3
6584,8
6585,0
6586,3
6587,7
6588,7
6589,7
6590,7
6591,7
6592,7
6593,7
6594,7
6595,1
6596,1
6597,1
6598,1
6599,3
6600,3
6601,3
6602,2
6603,2
6604,5
6605,5
6606,5
6607,0
6608,0
6609,0
6610,0
6611,0
6612,0
6613,0
6614,2
6615,2
6616,2
6617,3
6618,3
6619,2
6620,4
6621,4
6622,1
6623,1
6624,1
6625,0
6626,0
6627,0
6628,2
6629,2
6630,5
6631,5
6632,0
6633,2
6634,2
6635,2
6636,0
6637,0
6638,0
6639,0
6640,0
6641,1
6642,1
6643,1
6644,1
6645,0
6646,0
6647,2
6648,2
6649,2
6650,2
6651,5
6652,5
6653,3
6654,3
6655,3
6656,0
6657,0
6658,7
6659,7
6660,2
6661,2
6662,2
6663,2
6664,2
6665,2
6666,0
6667,0
6668,0
6669,0
6670,0
6671,1
6672,1
6673,1
6674,1
6675,1
6676,1
6677,3
6678,3
6679,3
6680,6
6681,6
6682,0
6683,0
6684,5
6685,5
6686,5
6687,8
6688,8
6689,8
6690,2
6691,2
6692,2
6693,2
6694,6
6695,6
6696,6
6697,6
6698,6
6699,6
6700,6
6701,5
6702,5
6703,5
6704,5
6705,5
6706,1
6707,1
6708,1
6709,0
6710,0
6711,0
6712,0
6713,0
6714,0
6715,0
6716,0
6717,1
6718,1
6719,1
6720,1
6721,1
6722,1
6723,0
6724,0
6725,0
6726,0
6727,0
6728,0
6729,3
6730,3
6731,3
6732,0
6733,0
6734,0
6735,0
6736,0
6737,0
6738,1
6739,1
6740,2
6741,2
6742,2
6743,2
6744,3
6745,1
6746,1
6747,1
6748,1
6749,2
6750,2
6751,2
6752,2
6753,2
6754,2
6755,2
6756,2
6757,0
6758,0
6759,0
6760,0
6761,7
6762,7
6763,7
6764,0
6765,0
6766,0
6767,0
6768,0
6769,0
6770,0
6771,0
6772,0
6773,0
6774,0
6775,0
6776,0
6777,3
6778,3
6779,3
6780,1
6781,1
6782,2
6783,2
6784,2
6785,0
6786,0
6787,0
6788,0
6789,0
6790,0
6791,0
6792,3
6793,3
6794,3
6795,3
6796,3
6797,0
6798,0
6799,0
6800,0
6801,0
6802,0
6803,4
6804,4
6805,3
6806,3
6807,8
6808,8
6809,8
6810,1
6811,1
6812,1
6813,1
6814,1
6815,3
6816,3
6817,3
6818,0
6819,0
6820,0
6821,0
6822,1
6823,6
6824,6
6825,6
6826,6
6827,6
6828,6
6829,6
6830,7
6831,7
6832,7
6833,7
6834,3
6835,3
6836,3
6837,3
6838,0
6839,0
6840,0
6841,0
6842,2
6843,2
6844,2
6845,2
6846,1
6847,1
6848,1
6849,1
6850,1
6851,0
6852,0
6853,0
6854,1
6855,1
6856,1
6857,1
6858,1
6859,1
6860,1
6861,1
6862,0
6863,0
6864,0
6865,5
6866,5
6867,5
6868,5
6869,5
6870,1
6871,1
6872,1
6873,1
6874,1
6875,8
6876,0
6877,0
6878,0
6879,6
6880,6
6881,4
6882,4
6883,4
6884,4
6885,4
6886,3
6887,3
6888,8
6889,8
6890,8
6891,8
6892,8
6893,0
6894,0
6895,0
6896,0
6897,0
6898,1
6899,0
6900,0
6901,1
6902,1
6903,1
6904,4
6905,4
6906,7
6907,0
6908,0
6909,0
6910,0
6911,0
6912,4
6913,4
6914,4
6915,4
6916,0
6917,0
6918,0
6919,1
6920,1
6921,1
6922,1
6923,1
6924,1
6925,1
6926,1
6927,0
6928,0
6929,0
6930,0
6931,0
6932,1
6933,1
6934,2
6935,4
6936,4
6937,4
6938,3
6939,3
6940,1
6941,1
6942,1
6943,1
6944,2
6945,2
6946,0
6947,0
6948,7
6949,7
6950,7
6951,7
6952,7
6953,7
6954,7
6955,7
6956,1
6957,1
6958,4
6959,4
6960,4
6961,4
6962,8
6963,8
6964,8
6965,2
6966,2
6967,2
6968,5
6969,5
6970,5
6971,5
6972,5
6973,0
6974,0
6975,0
6976,3
6977,3
6978,3
6979,8
6980,8
6981,8
6982,8
6983,4
6984,4
6985,0
6986,0
6987,1
6988,1
6989,6
6990,6
6991,0
6992,0
6993,1
6994,1
6995,0
6996,0
6997,4
6998,4
6999,4
7000,7
7001,7
7002,7
7003,0
7004,0
7005,0
7006,4
7007,2
7008,2
7009,2
7010,0
7011,0
7012,0
7013,0
7014,1
7015,1
7016,1
7017,1
7018,1
7019,1
7020,1
7021,4
7022,0
7023,0
7024,0
7025,0
7026,0
7027,2
7028,2
7029,2
7030,2
7031,3
7032,3
7033,3
7034,3
7035,3
7036,2
7037,2
7038,2
7039,4
7040,4
7041,0
7042,0
7043,1
7044,1
7045,0
7046,1
7047,1
7048,1
7049,1
7050,1
7051,1
7052,0
7053,0
7054,0
7055,0
7056,1
7057,1
7058,0
7059,0
7060,3
7061,0
7062,8
7063,8
7064,8
7065,3
7066,3
7067,3
7068,1
7069,1
7070,1
7071,1
7072,2
7073,2
7074,0
7075,0
7076,0
7077,0
7078,0
7079,0
7080,0
7081,3
7082,0
7083,0
7084,0
7085,0
7086,0
7087,0
7088,0
7089,0
7090,0
7091,3
7092,3
7093,3
7094,3
7095,3
7096,3
7097,3
7098,1
7099,1
7100,1
7101,1
7102,1
7103,1
7104,1
7105,0
7106,0
7107,0
7108,0
7109,0
7110,0
7111,0
7112,4
7113,4
7114,4
7115,4
7116,7
7117,7
7118,7
7119,7
7120,1
7121,1
7122,2
7123,2
7124,2
7125,2
7126,2
7127,1
7128,1
7129,1
7130,1
7131,1
7132,1
7133,1
7134,1
7135,1
7136,1
7137,0
7138,0
7139,1
7140,1
7141,1
7142,5
7143,5
7144,5
7145,8
7146,8
7147,8
7148,8
7149,8
7150,0
7151,0
7152,0
7153,0
7154,7
7155,7
7156,7
7157,7
7158,5
7159,5
7160,5
7161,0
7162,0
7163,0
7164,0
7165,0
7166,5
7167,5
7168,5
7169,0
7170,0
7171,0
7172,0
7173,0
7174,0
7175,1
7176,1
7177,0
7178,0
7179,0
7180,0
7181,0
7182,0
7183,0
7184,0
7185,0
7186,0
7187,2
7188,2
7189,2
7190,2
7191,0
7192,0
7193,1
7194,1
7195,1
7196,1
7197,2
7198,2
7199,2
7200,2
7201,0
7202,0
7203,0
7204,0
7205,0
7206,0
7207,0
7208,1
7209,0
7210,0
7211,0
7212,0
7213,0
7214,0
7215,0
7216,0
7217,0
7218,0
7219,0
7220,0
7221,0
7222,0
7223,7
7224,7
7225,1
7226,1
7227,1
7228,1
7229,1
7230,1
7231,0
7232,0
7233,1
7234,1
7235,1
7236,1
7237,1
7238,0
7239,0
7240,0
7241,0
7242,0
7243,1
7244,1
7245,1
7246,6
7247,0
7248,0
7249,0
7250,0
7251,0
7252,0
7253,1
7254,1
7255,1
7256,2
7257,2
7258,2
7259,2
7260,0
7261,3
7262,3
7263,3
7264,1
7265,7
7266,7
7267,7
7268,7
7269,0
7270,0
7271,0
7272,0
7273,0
7274,0
7275,0
7276,0
7277,0
7278,0
7279,0
7280,0
7281,0
7282,0
7283,1
7284,1
7285,1
7286,7
7287,7
7288,0
7289,0
7290,0
7291,0
7292,6
7293,6
7294,6
7295,6
7296,2
7297,2
7298,2
7299,2
7300,2
7301,2
7302,2
7303,8
7304,8
7305,8
7306,8
7307,0
7308,0
7309,0
7310,0
7311,1
7312,1
7313,3
7314,3
7315,0
7316,0
7317,0
7318,0
7319,0
7320,0
7321,0
7322,0
7323,0
7324,0
7325,0
7326,0
7327,0
7328,0
7329,0
7330,0
7331,2
7332,0
7333,0
7334,0
7335,0
7336,0
7337,0
7338,0
7339,0
7340,0
7341,0
7342,0
7343,0
7344,0
7345,7
7346,7
7347,7
7348,7
7349,1
7350,1
7351,1
7352,1
7353,6
7354,6
7355,6
7356,0
7357,0
7358,0
7359,0
7360,0
7361,0
7362,0
7363,6
7364,6
7365,2
7366,2
7367,2
7368,4
7369,2
7370,2
7371,2
7372,2
7373,0
7374,0
7375,0
7376,0
7377,0
7378,0
7379,0
7380,5
7381,5
7382,5
7383,0
7384,0
7385,0
7386,0
7387,0
7388,0
7389,1
7390,1
7391,1
7392,1
7393,1
7394,0
7395,0
7396,0
7397,0
7398,0
7399,1
7400,1
7401,1
7402,0
7403,0
7404,0
7405,0
7406,0
7407,0
7408,2
7409,2
7410,2
7411,7
7412,7
7413,7
7414,0
7415,0
7416,0
7417,0
7418,0
7419,0
7420,0
7421,7
7422,0
7423,0
7424,1
7425,1
7426,0
7427,0
7428,0
7429,3
7430,3
7431,3
7432,6
7433,6
7434,6
7435,0
7436,0
7437,0
7438,3
7439,3
7440,3
7441,3
7442,0
7443,0
7444,0
7445,0
7446,0
7447,0
7448,7
7449,0
7450,0
7451,6
7452,6
7453,0
7454,0
7455,0
7456,0
7457,3
7458,3
7459,3
7460,3
7461,3
7462,3
7463,3
7464,1
7465,1
7466,0
7467,0
7468,0
7469,0
7470,0
7471,0
7472,0
7473,0
7474,0
7475,0
7476,0
7477,0
7478,0
7479,0
7480,0
7481,1
7482,1
7483,1
7484,0
7485,0
7486,0
7487,0
7488,2
7489,2
7490,2
7491,2
7492,2
7493,2
7494,0
7495,0
7496,0
7497,5
7498,5
7499,5
7500,5
7501,5
7502,5
7503,1
7504,1
7505,1
7506,1
7507,0
7508,3
7509,3
7510,3
7511,3
7512,5
7513,0
7514,0
7515,0
7516,0
7517,0
7518,5
7519,5
7520,2
7521,2
7522,2
7523,2
7524,2
7525,2
7526,0
7527,0
7528,1
7529,1
7530,1
7531,1
7532,1
7533,1
7534,1
7535,1
7536,1
7537,1
7538,1
7539,1
7540,1
7541,0
7542,0
7543,0
7544,0
7545,0
7546,3
7547,3
7548,3
7549,0
7550,0
7551,0
7552,1
7553,1
7554,1
7555,0
7556,0
7557,0
7558,0
7559,5
7560,5
7561,0
7562,0
7563,0
7564,0
7565,0
7566,0
7567,0
7568,1
7569,7
7570,1
7571,1
7572,4
7573,4
7574,4
7575,3
7576,3
7577,1
7578,1
7579,1
7580,1
7581,6
7582,6
7583,6
7584,6
7585,4
7586,4
7587,0
7588,0
7589,0
7590,0
7591,0
7592,0
7593,0
7594,0
7595,0
7596,0
7597,0
7598,0
7599,0
7600,1
7601,1
7602,1
7603,1
7604,1
7605,1
7606,1
7607,0
7608,0
7609,1
7610,1
7611,4
7612,4
7613,4
7614,4
7615,4
7616,8
7617,8
7618,8
7619,2
7620,2
7621,3
7622,3
7623,3
7624,3
7625,0
7626,0
7627,0
7628,0
7629,0
7630,0
7631,0
7632,1
7633,1
7634,0
7635,0
7636,0
7637,5
7638,5
