segment: [0]
vertex id: label
33: 0
34: 0
35: 0
36: 0
37: 4
38: 3
39: 1
40: 2
41: 4
42: 3
0: 5
1: 5
2: 5
3: 5
4: 5
5: 5
6: 5
7: 5
8: 5
9: 5
10: 5
11: 5
12: 5
13: 5
14: 5
15: 5
16: 5
17: 5
18: 5
19: 5
20: 5
21: 5
22: 5
23: 5
24: 5
25: 5
26: 5
27: 5
28: 5
29: 5
30: 5
31: 5
32: 5
edge from: to
33: 0
34: 2
35: 5
35: 6
36: 2
36: 5
36: 6
36: 7
37: 9
37: 11
38: 11
38: 13
38: 15
39: 15
39: 16
40: 21
41: 23
42: 25
42: 28
1: 33
2: 33
3: 34
4: 34
5: 34
6: 34
7: 35
8: 36
9: 36
10: 36
11: 36
12: 37
13: 37
14: 37
15: 37
16: 38
17: 38
18: 38
19: 39
20: 39
21: 39
22: 39
23: 40
24: 40
25: 40
26: 40
27: 41
28: 41
29: 41
30: 41
31: 42
32: 42
segment: [1]
vertex id: label
26: 0
27: 0
28: 0
29: 0
30: 0
31: 1
32: 2
33: 4
34: 3
35: 4
0: 5
1: 5
2: 5
3: 5
4: 5
5: 5
6: 5
7: 5
8: 5
9: 5
10: 5
11: 5
12: 5
13: 5
14: 5
15: 5
16: 5
17: 5
18: 5
19: 5
20: 5
21: 5
22: 5
23: 5
24: 5
25: 5
edge from: to
26: 0
26: 1
26: 2
27: 4
28: 6
29: 8
30: 11
31: 14
32: 14
32: 15
33: 17
33: 19
34: 18
34: 20
35: 19
35: 22
3: 26
4: 26
5: 27
6: 27
7: 28
8: 28
9: 29
10: 29
11: 29
12: 29
13: 29
14: 30
15: 30
16: 30
17: 31
18: 32
19: 32
20: 32
21: 33
22: 34
23: 34
24: 35
25: 35
segment: [2]
vertex id: label
30: 0
31: 0
32: 0
33: 0
34: 0
35: 0
36: 0
37: 0
38: 0
39: 0
0: 5
1: 5
2: 5
3: 5
4: 5
5: 5
6: 5
7: 5
8: 5
9: 5
10: 5
11: 5
12: 5
13: 5
14: 5
15: 5
16: 5
17: 5
18: 5
19: 5
20: 5
21: 5
22: 5
23: 5
24: 5
25: 5
26: 5
27: 5
28: 5
29: 5
edge from: to
30: 0
31: 4
31: 5
32: 6
32: 7
32: 8
33: 7
33: 8
34: 12
35: 7
35: 10
35: 12
36: 14
36: 15
36: 16
36: 17
37: 17
37: 19
38: 23
39: 23
39: 25
1: 30
2: 30
3: 30
4: 30
5: 30
6: 31
7: 31
8: 31
9: 32
10: 33
11: 33
12: 33
13: 34
14: 34
15: 35
16: 35
17: 35
18: 36
19: 36
20: 36
21: 37
22: 37
23: 37
24: 37
25: 38
26: 38
27: 38
28: 38
29: 39
segment: [3]
vertex id: label
27: 0
28: 0
29: 0
30: 0
31: 0
32: 0
33: 0
34: 0
35: 1
36: 2
0: 5
1: 5
2: 5
3: 5
4: 5
5: 5
6: 5
7: 5
8: 5
9: 5
10: 5
11: 5
12: 5
13: 5
14: 5
15: 5
16: 5
17: 5
18: 5
19: 5
20: 5
21: 5
22: 5
23: 5
24: 5
25: 5
26: 5
edge from: to
27: 0
27: 1
27: 2
28: 3
28: 4
29: 4
29: 5
30: 3
30: 5
30: 6
31: 7
31: 8
31: 9
32: 9
32: 10
33: 11
34: 11
34: 13
35: 16
35: 18
36: 21
3: 27
4: 27
5: 28
6: 29
7: 30
8: 30
9: 30
10: 31
11: 32
12: 32
13: 32
14: 33
15: 33
16: 34
17: 34
18: 34
19: 34
20: 35
21: 35
22: 35
23: 36
24: 36
25: 36
26: 36
segment: [4]
vertex id: label
35: 0
36: 0
37: 0
38: 0
39: 0
40: 0
41: 0
42: 0
43: 0
44: 0
0: 5
1: 5
2: 5
3: 5
4: 5
5: 5
6: 5
7: 5
8: 5
9: 5
10: 5
11: 5
12: 5
13: 5
14: 5
15: 5
16: 5
17: 5
18: 5
19: 5
20: 5
21: 5
22: 5
23: 5
24: 5
25: 5
26: 5
27: 5
28: 5
29: 5
30: 5
31: 5
32: 5
33: 5
34: 5
edge from: to
35: 0
36: 3
37: 3
37: 5
37: 6
38: 9
38: 10
39: 6
39: 11
39: 12
39: 13
40: 14
40: 15
41: 18
42: 20
42: 23
43: 23
43: 25
44: 25
44: 28
1: 35
2: 35
3: 35
4: 36
5: 36
6: 36
7: 37
8: 37
9: 37
10: 37
11: 38
12: 38
13: 38
14: 39
15: 39
16: 39
17: 39
18: 40
19: 40
20: 41
21: 41
22: 41
23: 41
24: 41
25: 42
26: 42
27: 42
28: 42
29: 43
30: 43
31: 44
32: 44
33: 44
34: 44
segment: [5]
vertex id: label
40: 0
41: 0
42: 0
43: 0
44: 0
45: 0
46: 0
47: 0
48: 0
49: 0
0: 5
1: 5
2: 5
3: 5
4: 5
5: 5
6: 5
7: 5
8: 5
9: 5
10: 5
11: 5
12: 5
13: 5
14: 5
15: 5
16: 5
17: 5
18: 5
19: 5
20: 5
21: 5
22: 5
23: 5
24: 5
25: 5
26: 5
27: 5
28: 5
29: 5
30: 5
31: 5
32: 5
33: 5
34: 5
35: 5
36: 5
37: 5
38: 5
39: 5
edge from: to
40: 0
40: 1
40: 2
40: 3
41: 6
41: 7
42: 5
42: 9
42: 10
43: 11
43: 13
43: 15
44: 16
45: 21
46: 24
47: 29
48: 28
48: 32
49: 25
49: 29
49: 33
4: 40
5: 40
6: 40
7: 40
8: 41
9: 41
10: 41
11: 42
12: 42
13: 42
14: 42
15: 42
16: 43
17: 43
18: 43
19: 44
20: 44
21: 44
22: 44
23: 45
24: 45
25: 45
26: 45
27: 45
28: 46
29: 46
30: 46
31: 46
32: 47
33: 47
34: 47
35: 48
36: 49
37: 49
38: 49
39: 49
segment: [6]
vertex id: label
33: 0
34: 0
35: 0
36: 0
37: 0
38: 0
39: 0
40: 0
41: 0
42: 0
0: 5
1: 5
2: 5
3: 5
4: 5
5: 5
6: 5
7: 5
8: 5
9: 5
10: 5
11: 5
12: 5
13: 5
14: 5
15: 5
16: 5
17: 5
18: 5
19: 5
20: 5
21: 5
22: 5
23: 5
24: 5
25: 5
26: 5
27: 5
28: 5
29: 5
30: 5
31: 5
32: 5
edge from: to
33: 0
34: 3
35: 0
35: 3
35: 5
35: 6
36: 6
36: 7
36: 8
37: 9
37: 11
38: 7
38: 10
38: 12
39: 14
39: 15
39: 17
40: 21
41: 21
41: 24
42: 26
1: 33
2: 33
3: 33
4: 34
5: 34
6: 34
7: 35
8: 35
9: 36
10: 36
11: 36
12: 37
13: 37
14: 37
15: 38
16: 38
17: 38
18: 39
19: 39
20: 39
21: 39
22: 39
23: 40
24: 40
25: 40
26: 41
27: 41
28: 41
29: 41
30: 42
31: 42
32: 42
segment: [7]
vertex id: label
31: 0
32: 0
33: 0
34: 0
35: 0
36: 0
37: 0
38: 0
39: 0
40: 1
0: 5
1: 5
2: 5
3: 5
4: 5
5: 5
6: 5
7: 5
8: 5
9: 5
10: 5
11: 5
12: 5
13: 5
14: 5
15: 5
16: 5
17: 5
18: 5
19: 5
20: 5
21: 5
22: 5
23: 5
24: 5
25: 5
26: 5
27: 5
28: 5
29: 5
30: 5
edge from: to
31: 0
32: 4
32: 5
33: 7
33: 8
34: 10
34: 12
35: 16
35: 18
36: 19
37: 21
38: 22
39: 24
40: 24
1: 31
2: 31
3: 31
4: 31
5: 31
6: 32
7: 32
8: 32
9: 33
10: 33
11: 33
12: 33
13: 34
14: 34
15: 34
16: 34
17: 34
18: 34
19: 34
20: 35
21: 36
22: 36
23: 37
24: 38
25: 38
26: 39
27: 39
28: 40
29: 40
30: 40
segment: [8]
vertex id: label
29: 0
30: 0
31: 0
32: 0
33: 0
34: 0
35: 0
36: 0
37: 0
38: 0
0: 5
1: 5
2: 5
3: 5
4: 5
5: 5
6: 5
7: 5
8: 5
9: 5
10: 5
11: 5
12: 5
13: 5
14: 5
15: 5
16: 5
17: 5
18: 5
19: 5
20: 5
21: 5
22: 5
23: 5
24: 5
25: 5
26: 5
27: 5
28: 5
edge from: to
29: 0
30: 0
30: 2
30: 3
31: 3
31: 4
32: 3
32: 5
32: 6
33: 5
33: 9
33: 10
34: 11
35: 14
35: 15
35: 17
36: 16
36: 18
37: 19
37: 22
38: 23
1: 29
2: 29
3: 29
4: 30
5: 31
6: 31
7: 32
8: 32
9: 32
10: 32
11: 33
12: 34
13: 34
14: 34
15: 34
16: 34
17: 34
18: 35
19: 35
20: 36
21: 36
22: 36
23: 36
24: 37
25: 38
26: 38
27: 38
28: 38
segment: [9]
vertex id: label
28: 0
29: 0
30: 0
31: 0
32: 0
33: 0
34: 0
35: 0
36: 0
37: 0
0: 5
1: 5
2: 5
3: 5
4: 5
5: 5
6: 5
7: 5
8: 5
9: 5
10: 5
11: 5
12: 5
13: 5
14: 5
15: 5
16: 5
17: 5
18: 5
19: 5
20: 5
21: 5
22: 5
23: 5
24: 5
25: 5
26: 5
27: 5
edge from: to
28: 0
29: 2
30: 2
30: 3
30: 4
31: 6
32: 7
32: 8
33: 10
33: 12
34: 7
34: 10
34: 12
35: 14
35: 15
36: 16
36: 18
37: 18
37: 20
1: 28
2: 28
3: 29
4: 29
5: 30
6: 30
7: 31
8: 31
9: 31
10: 32
11: 32
12: 32
13: 33
14: 33
15: 34
16: 34
17: 34
18: 35
19: 35
20: 36
21: 36
22: 37
23: 37
24: 37
25: 37
26: 37
27: 37
