segment: [0]
vertex id: label
61: 0
62: 1
63: 3
64: 0
65: 3
66: 2
67: 2
68: 4
69: 2
70: 3
71: 1
72: 0
73: 1
74: 3
75: 2
76: 3
77: 1
78: 2
79: 3
80: 0
0: 5
1: 5
2: 5
3: 5
4: 5
5: 5
6: 5
7: 5
8: 5
9: 5
10: 5
11: 5
12: 5
13: 5
14: 5
15: 5
16: 5
17: 5
18: 5
19: 5
20: 5
21: 5
22: 5
23: 5
24: 5
25: 5
26: 5
27: 5
28: 5
29: 5
30: 5
31: 5
32: 5
33: 5
34: 5
35: 5
36: 5
37: 5
38: 5
39: 5
40: 5
41: 5
42: 5
43: 5
44: 5
45: 5
46: 5
47: 5
48: 5
49: 5
50: 5
51: 5
52: 5
53: 5
54: 5
55: 5
56: 5
57: 5
58: 5
59: 5
60: 5
edge from: to
61: 0
62: 2
62: 3
63: 5
64: 1
64: 13
65: 14
65: 16
66: 13
66: 16
66: 17
66: 19
66: 20
67: 18
68: 27
69: 23
69: 28
70: 27
70: 29
70: 31
71: 26
72: 31
72: 37
72: 39
73: 33
73: 36
73: 37
73: 40
73: 41
73: 42
74: 35
74: 42
75: 39
75: 44
75: 46
76: 50
77: 41
78: 42
78: 51
79: 45
79: 55
80: 59
1: 61
2: 61
3: 61
4: 62
5: 62
6: 62
7: 63
8: 63
9: 63
10: 63
11: 63
12: 63
13: 63
14: 64
15: 64
16: 64
17: 64
18: 65
19: 65
20: 65
21: 66
22: 66
23: 66
24: 67
25: 67
26: 67
27: 67
28: 68
29: 68
30: 69
31: 69
32: 70
33: 70
34: 71
35: 71
36: 71
37: 71
38: 71
39: 71
40: 72
41: 72
42: 72
43: 73
44: 73
45: 74
46: 74
47: 75
48: 75
49: 75
50: 75
51: 76
52: 76
53: 77
54: 78
55: 78
56: 78
57: 78
58: 79
59: 79
60: 80
segment: [1]
vertex id: label
66: 0
67: 1
68: 3
69: 0
70: 1
71: 3
72: 2
73: 2
74: 3
75: 0
76: 1
77: 0
78: 1
79: 0
80: 1
81: 0
82: 0
83: 3
84: 2
85: 3
0: 5
1: 5
2: 5
3: 5
4: 5
5: 5
6: 5
7: 5
8: 5
9: 5
10: 5
11: 5
12: 5
13: 5
14: 5
15: 5
16: 5
17: 5
18: 5
19: 5
20: 5
21: 5
22: 5
23: 5
24: 5
25: 5
26: 5
27: 5
28: 5
29: 5
30: 5
31: 5
32: 5
33: 5
34: 5
35: 5
36: 5
37: 5
38: 5
39: 5
40: 5
41: 5
42: 5
43: 5
44: 5
45: 5
46: 5
47: 5
48: 5
49: 5
50: 5
51: 5
52: 5
53: 5
54: 5
55: 5
56: 5
57: 5
58: 5
59: 5
60: 5
61: 5
62: 5
63: 5
64: 5
65: 5
edge from: to
66: 0
66: 1
66: 2
67: 4
68: 7
69: 9
70: 1
70: 10
71: 11
72: 9
72: 11
72: 14
72: 16
73: 16
74: 2
74: 19
75: 22
75: 24
75: 27
75: 28
76: 24
76: 29
76: 30
77: 27
77: 32
77: 34
78: 31
78: 33
78: 37
78: 39
79: 34
79: 37
79: 41
79: 43
80: 35
80: 38
80: 42
80: 44
81: 38
82: 42
83: 59
84: 48
84: 58
85: 33
85: 62
85: 64
3: 66
4: 66
5: 66
6: 67
7: 67
8: 67
9: 67
10: 68
11: 68
12: 69
13: 70
14: 70
15: 71
16: 71
17: 71
18: 72
19: 72
20: 72
21: 73
22: 73
23: 73
24: 73
25: 74
26: 74
27: 74
28: 74
29: 75
30: 75
31: 76
32: 76
33: 76
34: 76
35: 77
36: 77
37: 77
38: 77
39: 77
40: 78
41: 78
42: 78
43: 78
44: 79
45: 80
46: 80
47: 80
48: 80
49: 81
50: 81
51: 81
52: 81
53: 81
54: 82
55: 82
56: 82
57: 82
58: 82
59: 82
60: 83
61: 83
62: 84
63: 84
64: 84
65: 85
segment: [2]
vertex id: label
63: 0
64: 3
65: 2
66: 3
67: 2
68: 3
69: 3
70: 0
71: 1
72: 3
73: 3
74: 2
75: 3
76: 0
77: 1
78: 2
79: 2
80: 3
81: 2
82: 0
0: 5
1: 5
2: 5
3: 5
4: 5
5: 5
6: 5
7: 5
8: 5
9: 5
10: 5
11: 5
12: 5
13: 5
14: 5
15: 5
16: 5
17: 5
18: 5
19: 5
20: 5
21: 5
22: 5
23: 5
24: 5
25: 5
26: 5
27: 5
28: 5
29: 5
30: 5
31: 5
32: 5
33: 5
34: 5
35: 5
36: 5
37: 5
38: 5
39: 5
40: 5
41: 5
42: 5
43: 5
44: 5
45: 5
46: 5
47: 5
48: 5
49: 5
50: 5
51: 5
52: 5
53: 5
54: 5
55: 5
56: 5
57: 5
58: 5
59: 5
60: 5
61: 5
62: 5
edge from: to
63: 0
63: 1
64: 3
64: 4
65: 5
65: 6
66: 7
67: 9
67: 10
68: 12
68: 14
69: 12
69: 17
69: 18
70: 2
70: 19
70: 24
71: 26
71: 27
72: 29
72: 31
73: 27
74: 31
74: 37
75: 33
75: 40
75: 42
76: 35
77: 31
77: 39
77: 44
77: 46
78: 37
78: 45
79: 50
80: 41
81: 52
81: 54
82: 45
2: 63
3: 63
4: 63
5: 64
6: 64
7: 65
8: 65
9: 65
10: 66
11: 66
12: 67
13: 67
14: 67
15: 67
16: 68
17: 68
18: 68
19: 69
20: 69
21: 69
22: 69
23: 69
24: 69
25: 70
26: 70
27: 70
28: 71
29: 71
30: 71
31: 71
32: 72
33: 72
34: 72
35: 73
36: 73
37: 73
38: 73
39: 73
40: 74
41: 74
42: 74
43: 75
44: 75
45: 76
46: 76
47: 77
48: 78
49: 78
50: 78
51: 79
52: 79
53: 80
54: 80
55: 81
56: 81
57: 81
58: 82
59: 82
60: 82
61: 82
62: 82
segment: [3]
vertex id: label
72: 0
73: 3
74: 0
75: 1
76: 3
77: 2
78: 2
79: 3
80: 1
81: 0
82: 3
83: 1
84: 3
85: 0
86: 1
87: 2
88: 2
89: 3
90: 1
91: 0
0: 5
1: 5
2: 5
3: 5
4: 5
5: 5
6: 5
7: 5
8: 5
9: 5
10: 5
11: 5
12: 5
13: 5
14: 5
15: 5
16: 5
17: 5
18: 5
19: 5
20: 5
21: 5
22: 5
23: 5
24: 5
25: 5
26: 5
27: 5
28: 5
29: 5
30: 5
31: 5
32: 5
33: 5
34: 5
35: 5
36: 5
37: 5
38: 5
39: 5
40: 5
41: 5
42: 5
43: 5
44: 5
45: 5
46: 5
47: 5
48: 5
49: 5
50: 5
51: 5
52: 5
53: 5
54: 5
55: 5
56: 5
57: 5
58: 5
59: 5
60: 5
61: 5
62: 5
63: 5
64: 5
65: 5
66: 5
67: 5
68: 5
69: 5
70: 5
71: 5
edge from: to
72: 0
73: 2
73: 3
74: 7
75: 11
75: 13
76: 13
76: 15
76: 16
77: 18
78: 2
78: 19
79: 26
79: 27
80: 27
80: 29
80: 31
81: 26
81: 31
81: 33
82: 28
82: 33
83: 3
83: 29
84: 34
85: 37
86: 41
86: 50
86: 52
87: 45
87: 55
88: 30
88: 56
88: 58
89: 49
90: 51
90: 63
91: 65
91: 68
1: 72
2: 72
3: 72
4: 73
5: 73
6: 73
7: 73
8: 73
9: 73
10: 74
11: 74
12: 74
13: 74
14: 74
15: 75
16: 75
17: 76
18: 76
19: 77
20: 77
21: 77
22: 77
23: 77
24: 77
25: 78
26: 78
27: 78
28: 79
29: 79
30: 79
31: 79
32: 80
33: 80
34: 81
35: 81
36: 82
37: 82
38: 83
39: 83
40: 83
41: 83
42: 83
43: 83
44: 84
45: 84
46: 84
47: 84
48: 85
49: 85
50: 85
51: 85
52: 85
53: 86
54: 86
55: 86
56: 86
57: 86
58: 87
59: 88
60: 88
61: 88
62: 88
63: 89
64: 89
65: 89
66: 90
67: 90
68: 90
69: 91
70: 91
71: 91
segment: [4]
vertex id: label
67: 0
68: 1
69: 0
70: 1
71: 0
72: 1
73: 2
74: 3
75: 0
76: 0
77: 0
78: 1
79: 3
80: 2
81: 3
82: 2
83: 3
84: 2
85: 3
86: 1
0: 5
1: 5
2: 5
3: 5
4: 5
5: 5
6: 5
7: 5
8: 5
9: 5
10: 5
11: 5
12: 5
13: 5
14: 5
15: 5
16: 5
17: 5
18: 5
19: 5
20: 5
21: 5
22: 5
23: 5
24: 5
25: 5
26: 5
27: 5
28: 5
29: 5
30: 5
31: 5
32: 5
33: 5
34: 5
35: 5
36: 5
37: 5
38: 5
39: 5
40: 5
41: 5
42: 5
43: 5
44: 5
45: 5
46: 5
47: 5
48: 5
49: 5
50: 5
51: 5
52: 5
53: 5
54: 5
55: 5
56: 5
57: 5
58: 5
59: 5
60: 5
61: 5
62: 5
63: 5
64: 5
65: 5
66: 5
edge from: to
67: 0
67: 1
67: 2
68: 1
68: 2
68: 3
68: 4
69: 7
69: 9
70: 6
70: 9
70: 10
70: 11
71: 12
72: 17
72: 18
73: 21
73: 22
74: 2
74: 20
75: 21
76: 23
76: 28
77: 29
77: 31
78: 3
78: 29
79: 33
79: 40
80: 35
80: 42
81: 44
81: 46
82: 37
83: 40
83: 49
84: 44
84: 54
85: 38
85: 57
85: 59
86: 49
3: 67
4: 67
5: 68
6: 68
7: 68
8: 68
9: 68
10: 69
11: 69
12: 70
13: 70
14: 70
15: 70
16: 71
17: 71
18: 71
19: 72
20: 72
21: 72
22: 72
23: 73
24: 73
25: 73
26: 74
27: 75
28: 75
29: 75
30: 76
31: 76
32: 77
33: 77
34: 77
35: 77
36: 77
37: 77
38: 78
39: 78
40: 78
41: 78
42: 78
43: 79
44: 79
45: 80
46: 80
47: 81
48: 82
49: 82
50: 82
51: 82
52: 83
53: 83
54: 83
55: 83
56: 83
57: 84
58: 84
59: 84
60: 85
61: 85
62: 85
63: 86
64: 86
65: 86
66: 86
segment: [5]
vertex id: label
59: 0
60: 1
61: 0
62: 1
63: 0
64: 3
65: 0
66: 0
67: 0
68: 0
69: 1
70: 2
71: 3
72: 2
73: 3
74: 0
75: 1
76: 3
77: 0
78: 1
0: 5
1: 5
2: 5
3: 5
4: 5
5: 5
6: 5
7: 5
8: 5
9: 5
10: 5
11: 5
12: 5
13: 5
14: 5
15: 5
16: 5
17: 5
18: 5
19: 5
20: 5
21: 5
22: 5
23: 5
24: 5
25: 5
26: 5
27: 5
28: 5
29: 5
30: 5
31: 5
32: 5
33: 5
34: 5
35: 5
36: 5
37: 5
38: 5
39: 5
40: 5
41: 5
42: 5
43: 5
44: 5
45: 5
46: 5
47: 5
48: 5
49: 5
50: 5
51: 5
52: 5
53: 5
54: 5
55: 5
56: 5
57: 5
58: 5
edge from: to
59: 0
60: 5
60: 6
61: 6
61: 7
62: 9
62: 10
63: 1
63: 7
63: 9
63: 11
63: 12
63: 13
64: 12
65: 13
65: 15
65: 16
66: 15
66: 18
67: 2
67: 13
67: 20
68: 22
68: 27
69: 29
69: 31
70: 30
70: 32
71: 27
71: 32
71: 34
72: 29
73: 38
73: 40
74: 33
74: 40
75: 43
75: 45
76: 37
77: 40
77: 49
77: 51
78: 52
78: 54
1: 59
2: 59
3: 59
4: 59
5: 59
6: 59
7: 60
8: 61
9: 61
10: 61
11: 61
12: 62
13: 62
14: 63
15: 63
16: 64
17: 65
18: 65
19: 65
20: 66
21: 66
22: 66
23: 66
24: 66
25: 66
26: 67
27: 67
28: 67
29: 68
30: 68
31: 68
32: 69
33: 70
34: 70
35: 71
36: 71
37: 71
38: 72
39: 72
40: 72
41: 73
42: 73
43: 74
44: 74
45: 74
46: 75
47: 75
48: 76
49: 76
50: 76
51: 76
52: 77
53: 77
54: 77
55: 78
56: 78
57: 78
58: 78
segment: [6]
vertex id: label
59: 0
60: 1
61: 3
62: 1
63: 2
64: 4
65: 2
66: 3
67: 3
68: 2
69: 2
70: 3
71: 0
72: 0
73: 3
74: 3
75: 0
76: 0
77: 1
78: 0
0: 5
1: 5
2: 5
3: 5
4: 5
5: 5
6: 5
7: 5
8: 5
9: 5
10: 5
11: 5
12: 5
13: 5
14: 5
15: 5
16: 5
17: 5
18: 5
19: 5
20: 5
21: 5
22: 5
23: 5
24: 5
25: 5
26: 5
27: 5
28: 5
29: 5
30: 5
31: 5
32: 5
33: 5
34: 5
35: 5
36: 5
37: 5
38: 5
39: 5
40: 5
41: 5
42: 5
43: 5
44: 5
45: 5
46: 5
47: 5
48: 5
49: 5
50: 5
51: 5
52: 5
53: 5
54: 5
55: 5
56: 5
57: 5
58: 5
edge from: to
59: 0
59: 1
59: 2
59: 3
60: 4
61: 5
61: 6
62: 7
63: 6
63: 9
63: 10
64: 8
64: 10
64: 12
64: 14
65: 14
66: 15
66: 19
66: 21
66: 22
67: 2
67: 13
67: 20
67: 25
68: 24
69: 30
69: 32
70: 27
70: 32
71: 30
71: 36
71: 38
72: 31
73: 40
74: 33
74: 40
75: 46
76: 37
77: 50
78: 52
78: 54
4: 59
5: 59
6: 60
7: 61
8: 61
9: 62
10: 62
11: 62
12: 63
13: 63
14: 63
15: 63
16: 64
17: 64
18: 65
19: 65
20: 65
21: 65
22: 65
23: 66
24: 66
25: 66
26: 67
27: 67
28: 67
29: 67
30: 67
31: 68
32: 68
33: 69
34: 69
35: 70
36: 70
37: 70
38: 70
39: 71
40: 72
41: 73
42: 73
43: 74
44: 74
45: 74
46: 74
47: 75
48: 76
49: 76
50: 76
51: 77
52: 77
53: 77
54: 77
55: 78
56: 78
57: 78
58: 78
segment: [7]
vertex id: label
59: 0
60: 1
61: 0
62: 0
63: 1
64: 0
65: 1
66: 3
67: 3
68: 0
69: 0
70: 0
71: 0
72: 0
73: 3
74: 3
75: 2
76: 4
77: 4
78: 2
0: 5
1: 5
2: 5
3: 5
4: 5
5: 5
6: 5
7: 5
8: 5
9: 5
10: 5
11: 5
12: 5
13: 5
14: 5
15: 5
16: 5
17: 5
18: 5
19: 5
20: 5
21: 5
22: 5
23: 5
24: 5
25: 5
26: 5
27: 5
28: 5
29: 5
30: 5
31: 5
32: 5
33: 5
34: 5
35: 5
36: 5
37: 5
38: 5
39: 5
40: 5
41: 5
42: 5
43: 5
44: 5
45: 5
46: 5
47: 5
48: 5
49: 5
50: 5
51: 5
52: 5
53: 5
54: 5
55: 5
56: 5
57: 5
58: 5
edge from: to
59: 0
60: 3
61: 5
62: 7
62: 9
63: 10
64: 1
64: 13
65: 13
65: 15
65: 16
66: 12
66: 16
66: 17
66: 18
67: 16
67: 19
67: 20
68: 17
69: 2
69: 19
69: 24
70: 21
70: 25
71: 23
72: 27
73: 34
73: 36
74: 31
74: 37
75: 35
75: 39
75: 41
76: 38
76: 46
77: 41
77: 50
78: 42
78: 51
1: 59
2: 59
3: 59
4: 60
5: 60
6: 60
7: 61
8: 61
9: 61
10: 62
11: 62
12: 62
13: 63
14: 64
15: 64
16: 64
17: 65
18: 65
19: 66
20: 66
21: 67
22: 68
23: 68
24: 68
25: 69
26: 69
27: 70
28: 70
29: 70
30: 71
31: 71
32: 71
33: 71
34: 71
35: 72
36: 72
37: 73
38: 73
39: 73
40: 74
41: 74
42: 75
43: 75
44: 75
45: 75
46: 75
47: 75
48: 75
49: 76
50: 76
51: 76
52: 76
53: 77
54: 78
55: 78
56: 78
57: 78
58: 78
segment: [8]
vertex id: label
52: 0
53: 0
54: 1
55: 2
56: 0
57: 0
58: 1
59: 3
60: 1
61: 2
62: 3
63: 0
64: 1
65: 3
66: 0
67: 1
68: 0
69: 0
70: 3
71: 2
0: 5
1: 5
2: 5
3: 5
4: 5
5: 5
6: 5
7: 5
8: 5
9: 5
10: 5
11: 5
12: 5
13: 5
14: 5
15: 5
16: 5
17: 5
18: 5
19: 5
20: 5
21: 5
22: 5
23: 5
24: 5
25: 5
26: 5
27: 5
28: 5
29: 5
30: 5
31: 5
32: 5
33: 5
34: 5
35: 5
36: 5
37: 5
38: 5
39: 5
40: 5
41: 5
42: 5
43: 5
44: 5
45: 5
46: 5
47: 5
48: 5
49: 5
50: 5
51: 5
edge from: to
52: 0
53: 3
54: 7
55: 9
56: 1
56: 10
57: 13
58: 13
58: 15
59: 15
60: 17
60: 20
61: 12
61: 18
61: 22
62: 21
63: 19
63: 23
63: 28
63: 29
64: 6
64: 27
64: 30
64: 32
65: 28
66: 30
66: 36
67: 31
67: 37
67: 39
68: 34
69: 45
70: 46
71: 50
1: 52
2: 52
3: 52
4: 52
5: 53
6: 53
7: 53
8: 53
9: 54
10: 54
11: 54
12: 55
13: 56
14: 57
15: 57
16: 57
17: 58
18: 58
19: 58
20: 59
21: 59
22: 60
23: 60
24: 61
25: 61
26: 61
27: 62
28: 62
29: 62
30: 63
31: 63
32: 63
33: 64
34: 64
35: 64
36: 65
37: 65
38: 65
39: 66
40: 67
41: 67
42: 67
43: 67
44: 68
45: 68
46: 69
47: 70
48: 70
49: 70
50: 70
51: 71
segment: [9]
vertex id: label
58: 0
59: 1
60: 2
61: 2
62: 3
63: 1
64: 3
65: 1
66: 0
67: 3
68: 2
69: 3
70: 3
71: 2
72: 0
73: 1
74: 2
75: 3
76: 0
77: 3
0: 5
1: 5
2: 5
3: 5
4: 5
5: 5
6: 5
7: 5
8: 5
9: 5
10: 5
11: 5
12: 5
13: 5
14: 5
15: 5
16: 5
17: 5
18: 5
19: 5
20: 5
21: 5
22: 5
23: 5
24: 5
25: 5
26: 5
27: 5
28: 5
29: 5
30: 5
31: 5
32: 5
33: 5
34: 5
35: 5
36: 5
37: 5
38: 5
39: 5
40: 5
41: 5
42: 5
43: 5
44: 5
45: 5
46: 5
47: 5
48: 5
49: 5
50: 5
51: 5
52: 5
53: 5
54: 5
55: 5
56: 5
57: 5
edge from: to
58: 0
59: 1
59: 2
59: 3
59: 4
60: 5
61: 6
62: 9
62: 10
63: 11
63: 13
63: 14
64: 13
65: 12
65: 17
65: 18
66: 2
66: 13
66: 20
66: 25
67: 22
68: 26
68: 31
69: 3
69: 29
70: 30
70: 33
70: 36
70: 38
71: 38
71: 40
72: 33
72: 40
73: 35
73: 42
74: 37
75: 50
76: 41
76: 50
76: 52
77: 44
1: 58
2: 58
3: 58
4: 58
5: 59
6: 59
7: 60
8: 61
9: 61
10: 61
11: 61
12: 62
13: 62
14: 62
15: 63
16: 63
17: 64
18: 64
19: 65
20: 65
21: 65
22: 65
23: 65
24: 65
25: 65
26: 66
27: 66
28: 66
29: 67
30: 67
31: 67
32: 67
33: 67
34: 68
35: 68
36: 68
37: 68
38: 69
39: 70
40: 70
41: 71
42: 71
43: 72
44: 72
45: 73
46: 73
47: 73
48: 74
49: 74
50: 74
51: 75
52: 75
53: 76
54: 76
55: 76
56: 76
57: 77
