segment: [0]
vertex id: label
31: 0
32: 1
33: 0
34: 1
35: 0
36: 1
37: 0
38: 1
39: 0
40: 1
0: 5
1: 5
2: 5
3: 5
4: 5
5: 5
6: 5
7: 5
8: 5
9: 5
10: 5
11: 5
12: 5
13: 5
14: 5
15: 5
16: 5
17: 5
18: 5
19: 5
20: 5
21: 5
22: 5
23: 5
24: 5
25: 5
26: 5
27: 5
28: 5
29: 5
30: 5
edge from: to
31: 0
31: 1
31: 2
32: 0
32: 5
33: 6
34: 11
35: 3
35: 12
36: 13
36: 15
37: 15
37: 16
38: 18
38: 21
39: 3
39: 19
39: 20
39: 22
40: 22
40: 25
3: 31
4: 31
5: 31
6: 32
7: 33
8: 33
9: 33
10: 33
11: 33
12: 34
13: 34
14: 35
15: 35
16: 36
17: 37
18: 37
19: 37
20: 37
21: 37
22: 38
23: 39
24: 39
25: 39
26: 40
27: 40
28: 40
29: 40
30: 40
segment: [1]
vertex id: label
29: 0
30: 1
31: 0
32: 1
33: 0
34: 1
35: 0
36: 1
37: 0
38: 1
0: 5
1: 5
2: 5
3: 5
4: 5
5: 5
6: 5
7: 5
8: 5
9: 5
10: 5
11: 5
12: 5
13: 5
14: 5
15: 5
16: 5
17: 5
18: 5
19: 5
20: 5
21: 5
22: 5
23: 5
24: 5
25: 5
26: 5
27: 5
28: 5
edge from: to
29: 0
29: 1
30: 1
30: 3
31: 5
32: 3
32: 5
32: 6
32: 9
32: 10
33: 15
34: 4
35: 16
35: 18
36: 20
36: 22
36: 23
37: 22
37: 24
37: 25
38: 6
38: 26
2: 29
3: 29
4: 30
5: 30
6: 31
7: 31
8: 31
9: 31
10: 31
11: 32
12: 32
13: 32
14: 32
15: 32
16: 33
17: 33
18: 34
19: 35
20: 35
21: 35
22: 35
23: 35
24: 36
25: 36
26: 37
27: 38
28: 38
segment: [2]
vertex id: label
35: 0
36: 1
37: 0
38: 1
39: 0
40: 1
41: 0
42: 1
43: 0
44: 1
0: 5
1: 5
2: 5
3: 5
4: 5
5: 5
6: 5
7: 5
8: 5
9: 5
10: 5
11: 5
12: 5
13: 5
14: 5
15: 5
16: 5
17: 5
18: 5
19: 5
20: 5
21: 5
22: 5
23: 5
24: 5
25: 5
26: 5
27: 5
28: 5
29: 5
30: 5
31: 5
32: 5
33: 5
34: 5
edge from: to
35: 0
35: 1
36: 0
36: 5
37: 2
37: 7
38: 3
38: 11
38: 12
38: 13
39: 18
40: 19
40: 20
41: 20
41: 22
41: 23
42: 6
43: 32
44: 32
44: 33
2: 35
3: 35
4: 35
5: 35
6: 36
7: 36
8: 36
9: 37
10: 37
11: 37
12: 37
13: 37
14: 38
15: 38
16: 38
17: 38
18: 38
19: 39
20: 39
21: 40
22: 40
23: 40
24: 41
25: 41
26: 41
27: 42
28: 42
29: 42
30: 42
31: 42
32: 42
33: 43
34: 44
segment: [3]
vertex id: label
39: 0
40: 1
41: 0
42: 1
43: 0
44: 1
45: 0
46: 1
47: 0
48: 1
0: 5
1: 5
2: 5
3: 5
4: 5
5: 5
6: 5
7: 5
8: 5
9: 5
10: 5
11: 5
12: 5
13: 5
14: 5
15: 5
16: 5
17: 5
18: 5
19: 5
20: 5
21: 5
22: 5
23: 5
24: 5
25: 5
26: 5
27: 5
28: 5
29: 5
30: 5
31: 5
32: 5
33: 5
34: 5
35: 5
36: 5
37: 5
38: 5
edge from: to
39: 0
39: 1
40: 0
40: 3
40: 4
40: 5
41: 6
41: 7
42: 8
42: 9
43: 3
43: 11
43: 12
43: 13
44: 14
45: 17
45: 18
45: 19
45: 20
46: 8
46: 28
47: 29
48: 27
48: 30
48: 31
2: 39
3: 39
4: 39
5: 39
6: 40
7: 40
8: 41
9: 41
10: 42
11: 42
12: 42
13: 42
14: 43
15: 44
16: 44
17: 44
18: 44
19: 44
20: 44
21: 45
22: 45
23: 45
24: 45
25: 45
26: 45
27: 45
28: 45
29: 46
30: 47
31: 47
32: 48
33: 48
34: 48
35: 48
36: 48
37: 48
38: 48
segment: [4]
vertex id: label
36: 0
37: 1
38: 0
39: 1
40: 0
41: 1
42: 0
43: 1
44: 0
45: 1
0: 5
1: 5
2: 5
3: 5
4: 5
5: 5
6: 5
7: 5
8: 5
9: 5
10: 5
11: 5
12: 5
13: 5
14: 5
15: 5
16: 5
17: 5
18: 5
19: 5
20: 5
21: 5
22: 5
23: 5
24: 5
25: 5
26: 5
27: 5
28: 5
29: 5
30: 5
31: 5
32: 5
33: 5
34: 5
35: 5
edge from: to
36: 0
36: 1
37: 0
37: 5
38: 2
38: 5
38: 7
38: 8
39: 9
40: 3
40: 12
41: 16
41: 18
42: 18
42: 20
42: 21
43: 23
44: 28
45: 29
2: 36
3: 36
4: 36
5: 36
6: 37
7: 37
8: 37
9: 38
10: 39
11: 39
12: 39
13: 39
14: 40
15: 40
16: 40
17: 40
18: 40
19: 41
20: 41
21: 41
22: 42
23: 42
24: 43
25: 43
26: 43
27: 43
28: 43
29: 44
30: 44
31: 45
32: 45
33: 45
34: 45
35: 45
segment: [5]
vertex id: label
26: 0
27: 1
28: 0
29: 1
30: 0
31: 1
32: 0
33: 1
34: 0
35: 1
0: 5
1: 5
2: 5
3: 5
4: 5
5: 5
6: 5
7: 5
8: 5
9: 5
10: 5
11: 5
12: 5
13: 5
14: 5
15: 5
16: 5
17: 5
18: 5
19: 5
20: 5
21: 5
22: 5
23: 5
24: 5
25: 5
edge from: to
26: 0
27: 0
28: 1
29: 5
30: 2
30: 7
31: 5
31: 8
31: 9
32: 7
32: 10
32: 11
33: 14
34: 3
34: 19
34: 20
34: 22
35: 7
35: 24
1: 26
2: 27
3: 27
4: 27
5: 28
6: 29
7: 29
8: 29
9: 30
10: 31
11: 31
12: 32
13: 32
14: 32
15: 33
16: 33
17: 33
18: 33
19: 33
20: 33
21: 33
22: 33
23: 34
24: 34
25: 35
segment: [6]
vertex id: label
28: 0
29: 1
30: 0
31: 1
32: 0
33: 1
34: 0
35: 1
36: 0
37: 1
0: 5
1: 5
2: 5
3: 5
4: 5
5: 5
6: 5
7: 5
8: 5
9: 5
10: 5
11: 5
12: 5
13: 5
14: 5
15: 5
16: 5
17: 5
18: 5
19: 5
20: 5
21: 5
22: 5
23: 5
24: 5
25: 5
26: 5
27: 5
edge from: to
28: 0
28: 1
29: 5
30: 2
31: 10
32: 11
33: 3
34: 13
34: 15
35: 19
36: 22
36: 23
37: 22
37: 23
37: 24
37: 25
2: 28
3: 28
4: 28
5: 28
6: 29
7: 29
8: 29
9: 30
10: 30
11: 31
12: 32
13: 32
14: 33
15: 33
16: 34
17: 34
18: 34
19: 34
20: 35
21: 35
22: 35
23: 35
24: 36
25: 36
26: 37
27: 37
segment: [7]
vertex id: label
37: 0
38: 1
39: 0
40: 1
41: 0
42: 1
43: 0
44: 1
45: 0
46: 1
0: 5
1: 5
2: 5
3: 5
4: 5
5: 5
6: 5
7: 5
8: 5
9: 5
10: 5
11: 5
12: 5
13: 5
14: 5
15: 5
16: 5
17: 5
18: 5
19: 5
20: 5
21: 5
22: 5
23: 5
24: 5
25: 5
26: 5
27: 5
28: 5
29: 5
30: 5
31: 5
32: 5
33: 5
34: 5
35: 5
36: 5
edge from: to
37: 0
37: 1
37: 2
38: 1
38: 4
39: 0
39: 3
39: 5
40: 3
41: 15
41: 16
42: 19
43: 22
43: 23
44: 22
44: 24
44: 25
45: 32
46: 33
3: 37
4: 37
5: 38
6: 39
7: 39
8: 39
9: 39
10: 39
11: 39
12: 39
13: 39
14: 40
15: 40
16: 40
17: 41
18: 41
19: 41
20: 42
21: 42
22: 42
23: 42
24: 43
25: 43
26: 44
27: 44
28: 44
29: 44
30: 44
31: 44
32: 44
33: 44
34: 45
35: 46
36: 46
segment: [8]
vertex id: label
28: 0
29: 1
30: 0
31: 1
32: 0
33: 1
34: 0
35: 1
36: 0
37: 1
0: 5
1: 5
2: 5
3: 5
4: 5
5: 5
6: 5
7: 5
8: 5
9: 5
10: 5
11: 5
12: 5
13: 5
14: 5
15: 5
16: 5
17: 5
18: 5
19: 5
20: 5
21: 5
22: 5
23: 5
24: 5
25: 5
26: 5
27: 5
edge from: to
28: 0
29: 0
29: 1
29: 2
29: 3
30: 0
30: 1
30: 4
31: 6
31: 7
32: 7
32: 11
32: 12
33: 14
34: 14
34: 15
34: 16
35: 19
36: 18
36: 21
37: 7
37: 24
1: 28
4: 29
5: 30
6: 30
7: 30
8: 31
9: 31
10: 31
11: 31
12: 31
13: 32
14: 32
15: 33
16: 33
17: 34
18: 34
19: 34
20: 35
21: 35
22: 36
23: 36
24: 36
25: 37
26: 37
27: 37
segment: [9]
vertex id: label
42: 0
43: 1
44: 0
45: 1
46: 0
47: 1
48: 0
49: 1
50: 0
51: 1
0: 5
1: 5
2: 5
3: 5
4: 5
5: 5
6: 5
7: 5
8: 5
9: 5
10: 5
11: 5
12: 5
13: 5
14: 5
15: 5
16: 5
17: 5
18: 5
19: 5
20: 5
21: 5
22: 5
23: 5
24: 5
25: 5
26: 5
27: 5
28: 5
29: 5
30: 5
31: 5
32: 5
33: 5
34: 5
35: 5
36: 5
37: 5
38: 5
39: 5
40: 5
41: 5
edge from: to
42: 0
42: 1
42: 2
43: 2
43: 7
43: 8
44: 11
44: 12
45: 13
45: 15
46: 4
47: 17
47: 19
48: 7
48: 21
48: 23
48: 24
49: 27
50: 20
50: 29
50: 31
50: 32
50: 33
51: 35
51: 36
3: 42
4: 42
5: 42
6: 42
7: 42
8: 42
9: 43
10: 43
11: 43
12: 43
13: 44
14: 44
15: 44
16: 45
17: 45
18: 46
19: 46
20: 47
21: 47
22: 47
23: 47
24: 47
25: 48
26: 48
27: 48
28: 49
29: 49
30: 49
31: 49
32: 49
33: 49
34: 50
35: 50
36: 50
37: 50
38: 51
39: 51
40: 51
41: 51
