segment: [0]
vertex id: label
76: 0
77: 2
78: 3
79: 3
80: 0
81: 2
82: 2
83: 2
84: 3
85: 3
86: 3
87: 3
88: 3
89: 0
90: 2
91: 3
92: 3
93: 3
94: 3
95: 3
0: 5
1: 5
2: 5
3: 5
4: 5
5: 5
6: 5
7: 5
8: 5
9: 5
10: 5
11: 5
12: 5
13: 5
14: 5
15: 5
16: 5
17: 5
18: 5
19: 5
20: 5
21: 5
22: 5
23: 5
24: 5
25: 5
26: 5
27: 5
28: 5
29: 5
30: 5
31: 5
32: 5
33: 5
34: 5
35: 5
36: 5
37: 5
38: 5
39: 5
40: 5
41: 5
42: 5
43: 5
44: 5
45: 5
46: 5
47: 5
48: 5
49: 5
50: 5
51: 5
52: 5
53: 5
54: 5
55: 5
56: 5
57: 5
58: 5
59: 5
60: 5
61: 5
62: 5
63: 5
64: 5
65: 5
66: 5
67: 5
68: 5
69: 5
70: 5
71: 5
72: 5
73: 5
74: 5
75: 5
edge from: to
76: 0
76: 1
76: 2
77: 2
77: 3
77: 4
78: 3
78: 10
79: 17
80: 23
81: 19
81: 24
81: 25
82: 4
82: 29
83: 14
83: 31
83: 33
83: 34
84: 38
85: 13
85: 30
85: 39
85: 40
86: 42
87: 43
87: 46
87: 47
88: 48
88: 49
89: 7
89: 51
90: 25
90: 54
91: 16
92: 60
93: 64
93: 65
94: 19
95: 72
95: 73
3: 76
4: 76
5: 77
6: 77
7: 77
8: 77
9: 77
10: 77
11: 78
12: 78
13: 78
14: 78
15: 78
16: 78
17: 78
18: 79
19: 79
20: 79
21: 79
22: 79
23: 79
24: 80
25: 80
26: 81
27: 81
28: 81
29: 81
30: 82
31: 82
32: 82
33: 82
34: 82
35: 83
36: 83
37: 83
38: 83
39: 84
40: 84
41: 85
42: 85
43: 86
44: 86
45: 86
46: 86
47: 86
48: 87
49: 87
50: 88
51: 88
52: 89
53: 89
54: 89
55: 90
56: 90
57: 90
58: 91
59: 91
60: 91
61: 91
62: 92
63: 92
64: 92
65: 92
66: 93
67: 93
68: 93
69: 94
70: 94
71: 94
72: 94
73: 94
74: 95
75: 95
segment: [1]
vertex id: label
63: 0
64: 2
65: 3
66: 3
67: 3
68: 3
69: 3
70: 3
71: 3
72: 3
73: 0
74: 2
75: 3
76: 3
77: 3
78: 3
79: 0
80: 2
81: 3
82: 3
0: 5
1: 5
2: 5
3: 5
4: 5
5: 5
6: 5
7: 5
8: 5
9: 5
10: 5
11: 5
12: 5
13: 5
14: 5
15: 5
16: 5
17: 5
18: 5
19: 5
20: 5
21: 5
22: 5
23: 5
24: 5
25: 5
26: 5
27: 5
28: 5
29: 5
30: 5
31: 5
32: 5
33: 5
34: 5
35: 5
36: 5
37: 5
38: 5
39: 5
40: 5
41: 5
42: 5
43: 5
44: 5
45: 5
46: 5
47: 5
48: 5
49: 5
50: 5
51: 5
52: 5
53: 5
54: 5
55: 5
56: 5
57: 5
58: 5
59: 5
60: 5
61: 5
62: 5
edge from: to
63: 0
64: 6
65: 8
66: 3
66: 5
66: 10
67: 5
67: 13
67: 15
68: 16
69: 8
69: 13
69: 17
70: 22
70: 23
71: 21
71: 25
71: 26
72: 29
73: 14
73: 33
73: 34
74: 28
74: 36
74: 37
75: 30
75: 35
75: 37
75: 38
76: 41
76: 42
77: 15
77: 45
77: 46
78: 48
79: 51
80: 54
81: 57
81: 58
82: 59
82: 60
1: 63
2: 63
3: 63
4: 63
5: 63
6: 63
7: 64
8: 64
9: 65
10: 65
11: 66
12: 66
13: 66
14: 66
15: 66
16: 67
17: 68
18: 69
19: 69
20: 69
21: 69
22: 69
23: 69
24: 70
25: 70
26: 70
27: 71
28: 71
29: 71
30: 72
31: 72
32: 72
33: 72
34: 72
35: 73
36: 73
37: 73
38: 74
39: 75
40: 75
41: 75
42: 75
43: 76
44: 76
45: 76
46: 76
47: 77
48: 77
49: 78
50: 78
51: 78
52: 79
53: 79
54: 79
55: 80
56: 80
57: 80
58: 80
59: 81
60: 81
61: 82
62: 82
segment: [2]
vertex id: label
51: 0
52: 2
53: 3
54: 3
55: 3
56: 3
57: 0
58: 2
59: 3
60: 3
61: 0
62: 2
63: 3
64: 0
65: 2
66: 3
67: 3
68: 0
69: 2
70: 3
0: 5
1: 5
2: 5
3: 5
4: 5
5: 5
6: 5
7: 5
8: 5
9: 5
10: 5
11: 5
12: 5
13: 5
14: 5
15: 5
16: 5
17: 5
18: 5
19: 5
20: 5
21: 5
22: 5
23: 5
24: 5
25: 5
26: 5
27: 5
28: 5
29: 5
30: 5
31: 5
32: 5
33: 5
34: 5
35: 5
36: 5
37: 5
38: 5
39: 5
40: 5
41: 5
42: 5
43: 5
44: 5
45: 5
46: 5
47: 5
48: 5
49: 5
50: 5
edge from: to
51: 0
52: 4
52: 5
53: 2
53: 7
54: 3
54: 9
55: 4
55: 9
55: 12
56: 8
56: 13
56: 17
57: 6
57: 7
58: 18
58: 22
58: 23
59: 26
59: 27
60: 14
60: 24
60: 29
60: 30
61: 9
62: 14
62: 33
62: 34
63: 35
64: 5
64: 36
65: 30
65: 32
65: 35
65: 37
65: 38
66: 11
67: 14
67: 43
68: 33
68: 43
68: 44
69: 15
69: 42
69: 45
69: 46
70: 46
70: 47
1: 51
2: 51
3: 51
4: 51
5: 51
6: 52
7: 52
8: 53
9: 53
10: 54
11: 54
12: 54
13: 55
14: 55
15: 55
16: 55
17: 55
18: 56
19: 56
20: 56
21: 56
22: 57
23: 57
24: 58
25: 58
26: 58
27: 58
28: 59
29: 59
30: 59
31: 60
32: 60
33: 61
34: 61
35: 62
36: 63
37: 64
38: 64
39: 65
40: 66
41: 66
42: 66
43: 66
44: 67
45: 68
46: 68
47: 69
48: 70
49: 70
50: 70
segment: [3]
vertex id: label
62: 0
63: 2
64: 3
65: 3
66: 3
67: 3
68: 3
69: 3
70: 3
71: 3
72: 3
73: 3
74: 0
75: 2
76: 3
77: 0
78: 2
79: 2
80: 2
81: 3
0: 5
1: 5
2: 5
3: 5
4: 5
5: 5
6: 5
7: 5
8: 5
9: 5
10: 5
11: 5
12: 5
13: 5
14: 5
15: 5
16: 5
17: 5
18: 5
19: 5
20: 5
21: 5
22: 5
23: 5
24: 5
25: 5
26: 5
27: 5
28: 5
29: 5
30: 5
31: 5
32: 5
33: 5
34: 5
35: 5
36: 5
37: 5
38: 5
39: 5
40: 5
41: 5
42: 5
43: 5
44: 5
45: 5
46: 5
47: 5
48: 5
49: 5
50: 5
51: 5
52: 5
53: 5
54: 5
55: 5
56: 5
57: 5
58: 5
59: 5
60: 5
61: 5
edge from: to
62: 0
62: 1
63: 4
64: 2
64: 4
64: 5
65: 9
66: 11
67: 5
67: 15
68: 18
69: 18
69: 22
69: 23
70: 25
70: 26
71: 23
71: 25
71: 26
71: 27
72: 14
72: 29
72: 30
73: 25
73: 32
73: 33
74: 32
74: 34
74: 35
75: 11
76: 41
77: 43
77: 44
78: 14
79: 25
79: 53
79: 54
80: 57
81: 59
2: 62
3: 62
4: 62
5: 63
6: 64
7: 64
8: 64
9: 64
10: 65
11: 65
12: 66
13: 66
14: 66
15: 66
16: 67
17: 67
18: 67
19: 68
20: 68
21: 68
22: 68
23: 68
24: 69
25: 69
26: 69
27: 70
28: 71
29: 71
30: 71
31: 72
32: 72
33: 72
34: 73
35: 73
36: 74
37: 74
38: 74
39: 74
40: 75
41: 75
42: 76
43: 76
44: 76
45: 77
46: 77
47: 77
48: 77
49: 77
50: 77
51: 78
52: 78
53: 78
54: 78
55: 79
56: 79
57: 79
58: 79
59: 80
60: 80
61: 81
segment: [4]
vertex id: label
51: 0
52: 2
53: 3
54: 3
55: 3
56: 3
57: 0
58: 2
59: 3
60: 3
61: 3
62: 3
63: 3
64: 3
65: 0
66: 2
67: 3
68: 3
69: 3
70: 3
0: 5
1: 5
2: 5
3: 5
4: 5
5: 5
6: 5
7: 5
8: 5
9: 5
10: 5
11: 5
12: 5
13: 5
14: 5
15: 5
16: 5
17: 5
18: 5
19: 5
20: 5
21: 5
22: 5
23: 5
24: 5
25: 5
26: 5
27: 5
28: 5
29: 5
30: 5
31: 5
32: 5
33: 5
34: 5
35: 5
36: 5
37: 5
38: 5
39: 5
40: 5
41: 5
42: 5
43: 5
44: 5
45: 5
46: 5
47: 5
48: 5
49: 5
50: 5
edge from: to
51: 0
52: 0
52: 1
52: 2
52: 3
53: 2
53: 6
54: 3
55: 4
55: 12
56: 17
57: 8
57: 9
57: 18
57: 19
58: 10
58: 15
58: 19
58: 20
59: 22
60: 22
60: 23
61: 23
61: 24
62: 26
63: 8
63: 27
63: 28
64: 28
64: 30
64: 31
65: 34
65: 35
66: 30
66: 35
66: 37
66: 38
67: 11
68: 44
69: 48
70: 48
70: 49
1: 51
2: 51
3: 51
4: 52
5: 52
6: 52
7: 53
8: 53
9: 53
10: 53
11: 54
12: 54
13: 55
14: 55
15: 55
16: 55
17: 55
18: 56
19: 56
20: 57
21: 58
22: 58
23: 59
24: 60
25: 61
26: 61
27: 62
28: 62
29: 63
30: 63
31: 63
32: 64
33: 64
34: 64
35: 64
36: 65
37: 65
38: 65
39: 66
40: 67
41: 67
42: 67
43: 67
44: 67
45: 68
46: 68
47: 68
48: 68
49: 69
50: 70
segment: [5]
vertex id: label
60: 0
61: 2
62: 3
63: 0
64: 2
65: 3
66: 3
67: 3
68: 3
69: 3
70: 3
71: 3
72: 3
73: 3
74: 0
75: 2
76: 2
77: 2
78: 3
79: 3
0: 5
1: 5
2: 5
3: 5
4: 5
5: 5
6: 5
7: 5
8: 5
9: 5
10: 5
11: 5
12: 5
13: 5
14: 5
15: 5
16: 5
17: 5
18: 5
19: 5
20: 5
21: 5
22: 5
23: 5
24: 5
25: 5
26: 5
27: 5
28: 5
29: 5
30: 5
31: 5
32: 5
33: 5
34: 5
35: 5
36: 5
37: 5
38: 5
39: 5
40: 5
41: 5
42: 5
43: 5
44: 5
45: 5
46: 5
47: 5
48: 5
49: 5
50: 5
51: 5
52: 5
53: 5
54: 5
55: 5
56: 5
57: 5
58: 5
59: 5
edge from: to
60: 0
60: 1
60: 2
60: 3
61: 6
62: 2
62: 4
62: 6
62: 8
63: 3
63: 10
64: 13
65: 18
66: 10
66: 15
66: 16
66: 19
66: 20
67: 18
67: 23
67: 24
68: 8
69: 30
70: 32
70: 33
71: 35
72: 38
73: 44
74: 46
74: 47
75: 36
75: 47
75: 48
76: 51
77: 39
77: 51
77: 52
78: 25
78: 54
79: 26
79: 42
79: 54
79: 55
79: 56
4: 60
5: 60
6: 60
7: 61
8: 61
9: 62
10: 62
11: 63
12: 63
13: 63
14: 64
15: 64
16: 64
17: 64
18: 64
19: 65
20: 65
21: 66
22: 66
23: 66
24: 66
25: 67
26: 67
27: 67
28: 67
29: 68
30: 68
31: 69
32: 69
33: 69
34: 70
35: 70
36: 71
37: 71
38: 71
39: 72
40: 72
41: 72
42: 72
43: 72
44: 72
45: 73
46: 73
47: 73
48: 74
49: 75
50: 75
51: 75
52: 76
53: 77
54: 77
55: 78
56: 78
57: 79
58: 79
59: 79
segment: [6]
vertex id: label
55: 0
56: 2
57: 3
58: 3
59: 0
60: 2
61: 3
62: 0
63: 3
64: 3
65: 3
66: 3
67: 3
68: 3
69: 3
70: 3
71: 3
72: 0
73: 2
74: 3
0: 5
1: 5
2: 5
3: 5
4: 5
5: 5
6: 5
7: 5
8: 5
9: 5
10: 5
11: 5
12: 5
13: 5
14: 5
15: 5
16: 5
17: 5
18: 5
19: 5
20: 5
21: 5
22: 5
23: 5
24: 5
25: 5
26: 5
27: 5
28: 5
29: 5
30: 5
31: 5
32: 5
33: 5
34: 5
35: 5
36: 5
37: 5
38: 5
39: 5
40: 5
41: 5
42: 5
43: 5
44: 5
45: 5
46: 5
47: 5
48: 5
49: 5
50: 5
51: 5
52: 5
53: 5
54: 5
edge from: to
55: 0
56: 0
56: 1
56: 2
57: 2
57: 3
57: 4
58: 2
58: 3
58: 6
59: 8
60: 3
60: 10
61: 9
61: 10
61: 11
62: 10
62: 13
63: 8
63: 13
63: 15
63: 17
64: 22
65: 23
65: 24
66: 8
66: 28
67: 30
67: 31
68: 33
69: 5
69: 27
69: 36
70: 41
71: 40
71: 41
71: 42
72: 33
72: 43
72: 44
73: 46
73: 47
74: 51
1: 55
2: 55
3: 56
4: 56
5: 57
6: 57
7: 58
8: 58
9: 59
10: 59
11: 60
12: 61
13: 61
14: 62
15: 62
16: 62
17: 62
18: 63
19: 63
20: 63
21: 63
22: 63
23: 64
24: 64
25: 65
26: 65
27: 65
28: 65
29: 66
30: 66
31: 66
32: 67
33: 67
34: 68
35: 68
36: 68
37: 69
38: 69
39: 69
40: 69
41: 69
42: 70
43: 71
44: 71
45: 72
46: 72
47: 72
48: 73
49: 73
50: 73
51: 73
52: 74
53: 74
54: 74
segment: [7]
vertex id: label
58: 0
59: 2
60: 3
61: 3
62: 3
63: 3
64: 0
65: 2
66: 3
67: 3
68: 3
69: 3
70: 3
71: 3
72: 3
73: 3
74: 3
75: 3
76: 0
77: 3
0: 5
1: 5
2: 5
3: 5
4: 5
5: 5
6: 5
7: 5
8: 5
9: 5
10: 5
11: 5
12: 5
13: 5
14: 5
15: 5
16: 5
17: 5
18: 5
19: 5
20: 5
21: 5
22: 5
23: 5
24: 5
25: 5
26: 5
27: 5
28: 5
29: 5
30: 5
31: 5
32: 5
33: 5
34: 5
35: 5
36: 5
37: 5
38: 5
39: 5
40: 5
41: 5
42: 5
43: 5
44: 5
45: 5
46: 5
47: 5
48: 5
49: 5
50: 5
51: 5
52: 5
53: 5
54: 5
55: 5
56: 5
57: 5
edge from: to
58: 0
58: 1
59: 0
59: 1
59: 2
59: 3
60: 1
60: 2
60: 7
61: 12
62: 4
62: 14
63: 17
64: 20
65: 3
65: 22
66: 24
66: 25
67: 8
67: 28
68: 26
68: 28
68: 30
68: 31
69: 14
69: 33
69: 34
70: 35
71: 38
72: 40
73: 41
73: 42
74: 46
74: 47
75: 14
75: 50
76: 25
76: 54
77: 54
77: 55
2: 58
3: 58
4: 59
5: 59
6: 59
7: 59
8: 60
9: 60
10: 60
11: 60
12: 60
13: 61
14: 61
15: 62
16: 62
17: 62
18: 63
19: 63
20: 63
21: 64
22: 64
23: 65
24: 65
25: 65
26: 66
27: 66
28: 66
29: 67
30: 67
31: 67
32: 68
33: 68
34: 68
35: 69
36: 70
37: 70
38: 70
39: 71
40: 71
41: 72
42: 72
43: 73
44: 73
45: 73
46: 73
47: 73
48: 74
49: 74
50: 74
51: 75
52: 75
53: 75
54: 75
55: 76
56: 77
57: 77
segment: [8]
vertex id: label
73: 0
74: 2
75: 3
76: 3
77: 3
78: 3
79: 3
80: 3
81: 3
82: 0
83: 2
84: 3
85: 3
86: 3
87: 3
88: 3
89: 3
90: 3
91: 0
92: 2
0: 5
1: 5
2: 5
3: 5
4: 5
5: 5
6: 5
7: 5
8: 5
9: 5
10: 5
11: 5
12: 5
13: 5
14: 5
15: 5
16: 5
17: 5
18: 5
19: 5
20: 5
21: 5
22: 5
23: 5
24: 5
25: 5
26: 5
27: 5
28: 5
29: 5
30: 5
31: 5
32: 5
33: 5
34: 5
35: 5
36: 5
37: 5
38: 5
39: 5
40: 5
41: 5
42: 5
43: 5
44: 5
45: 5
46: 5
47: 5
48: 5
49: 5
50: 5
51: 5
52: 5
53: 5
54: 5
55: 5
56: 5
57: 5
58: 5
59: 5
60: 5
61: 5
62: 5
63: 5
64: 5
65: 5
66: 5
67: 5
68: 5
69: 5
70: 5
71: 5
72: 5
edge from: to
73: 0
73: 1
73: 2
74: 0
74: 1
74: 3
75: 13
76: 12
76: 16
77: 6
77: 14
77: 17
77: 18
78: 23
79: 25
80: 8
80: 28
81: 14
81: 30
82: 33
83: 5
83: 36
84: 40
85: 20
85: 31
85: 39
85: 40
85: 41
86: 47
87: 7
87: 51
88: 55
89: 57
90: 57
90: 60
90: 61
90: 62
91: 63
92: 65
3: 73
4: 74
5: 74
6: 74
7: 74
8: 74
9: 74
10: 74
11: 74
12: 74
13: 74
14: 75
15: 75
16: 75
17: 76
18: 76
19: 77
20: 77
21: 77
22: 77
23: 77
24: 78
25: 78
26: 79
27: 79
28: 79
29: 80
30: 80
31: 81
32: 81
33: 81
34: 82
35: 82
36: 82
37: 83
38: 83
39: 83
40: 83
41: 84
42: 85
43: 85
44: 85
45: 85
46: 85
47: 85
48: 86
49: 86
50: 86
51: 86
52: 87
53: 87
54: 87
55: 87
56: 87
57: 88
58: 88
59: 89
60: 89
61: 89
62: 89
63: 90
64: 90
65: 91
66: 91
67: 92
68: 92
69: 92
70: 92
71: 92
72: 92
segment: [9]
vertex id: label
67: 0
68: 2
69: 3
70: 3
71: 3
72: 0
73: 2
74: 2
75: 3
76: 3
77: 0
78: 2
79: 3
80: 0
81: 2
82: 3
83: 3
84: 0
85: 2
86: 2
0: 5
1: 5
2: 5
3: 5
4: 5
5: 5
6: 5
7: 5
8: 5
9: 5
10: 5
11: 5
12: 5
13: 5
14: 5
15: 5
16: 5
17: 5
18: 5
19: 5
20: 5
21: 5
22: 5
23: 5
24: 5
25: 5
26: 5
27: 5
28: 5
29: 5
30: 5
31: 5
32: 5
33: 5
34: 5
35: 5
36: 5
37: 5
38: 5
39: 5
40: 5
41: 5
42: 5
43: 5
44: 5
45: 5
46: 5
47: 5
48: 5
49: 5
50: 5
51: 5
52: 5
53: 5
54: 5
55: 5
56: 5
57: 5
58: 5
59: 5
60: 5
61: 5
62: 5
63: 5
64: 5
65: 5
66: 5
edge from: to
67: 0
68: 2
69: 1
70: 2
70: 6
71: 3
71: 4
71: 9
71: 12
72: 5
72: 13
72: 15
73: 8
73: 13
73: 14
73: 15
73: 17
74: 19
75: 22
75: 23
76: 8
76: 21
76: 22
76: 27
76: 28
77: 31
78: 9
79: 34
79: 35
80: 40
81: 21
81: 44
81: 45
82: 14
82: 50
83: 25
83: 53
83: 54
84: 26
84: 55
84: 56
85: 57
85: 58
86: 59
86: 60
1: 67
2: 67
3: 68
4: 69
5: 69
6: 69
7: 70
8: 70
9: 70
10: 70
11: 70
12: 70
13: 71
14: 71
15: 71
16: 72
17: 72
18: 73
19: 73
20: 74
21: 74
22: 74
23: 74
24: 75
25: 75
26: 75
27: 75
28: 75
29: 76
30: 76
31: 76
32: 77
33: 78
34: 78
35: 78
36: 79
37: 79
38: 79
39: 79
40: 79
41: 80
42: 80
43: 80
44: 80
45: 80
46: 81
47: 81
48: 81
49: 81
50: 81
51: 82
52: 82
53: 82
54: 82
55: 83
56: 83
57: 84
58: 84
59: 85
60: 85
61: 86
62: 86
63: 86
64: 86
65: 86
66: 86
