segment: [0]
vertex id: label
36: 0
37: 4
38: 4
39: 4
40: 4
41: 4
42: 4
43: 4
44: 4
45: 4
0: 5
1: 5
2: 5
3: 5
4: 5
5: 5
6: 5
7: 5
8: 5
9: 5
10: 5
11: 5
12: 5
13: 5
14: 5
15: 5
16: 5
17: 5
18: 5
19: 5
20: 5
21: 5
22: 5
23: 5
24: 5
25: 5
26: 5
27: 5
28: 5
29: 5
30: 5
31: 5
32: 5
33: 5
34: 5
35: 5
edge from: to
36: 0
37: 2
37: 4
38: 6
38: 7
39: 11
40: 13
40: 14
41: 18
42: 11
42: 21
42: 22
43: 25
44: 14
44: 17
44: 22
44: 27
44: 28
45: 32
45: 33
1: 36
2: 36
3: 36
4: 36
5: 37
6: 37
7: 37
8: 38
9: 38
10: 38
11: 38
12: 39
13: 39
14: 39
15: 40
16: 40
17: 40
18: 40
19: 41
20: 41
21: 41
22: 41
23: 42
24: 42
25: 42
26: 43
27: 43
28: 43
29: 44
30: 44
31: 44
32: 44
33: 44
34: 45
35: 45
segment: [1]
vertex id: label
30: 0
31: 4
32: 4
33: 4
34: 4
35: 4
36: 4
37: 4
38: 4
39: 4
0: 5
1: 5
2: 5
3: 5
4: 5
5: 5
6: 5
7: 5
8: 5
9: 5
10: 5
11: 5
12: 5
13: 5
14: 5
15: 5
16: 5
17: 5
18: 5
19: 5
20: 5
21: 5
22: 5
23: 5
24: 5
25: 5
26: 5
27: 5
28: 5
29: 5
edge from: to
30: 0
30: 1
31: 1
31: 2
31: 5
32: 3
32: 4
32: 5
32: 8
33: 11
34: 7
35: 10
35: 20
36: 22
37: 25
38: 10
38: 16
38: 26
38: 27
39: 14
39: 17
39: 27
39: 28
2: 30
3: 30
4: 30
5: 30
6: 31
7: 31
8: 31
9: 32
10: 32
11: 32
12: 33
13: 33
14: 33
15: 33
16: 33
17: 33
18: 33
19: 33
20: 34
21: 35
22: 35
23: 36
24: 36
25: 36
26: 37
27: 37
28: 38
29: 39
segment: [2]
vertex id: label
37: 0
38: 4
39: 4
40: 4
41: 4
42: 4
43: 4
44: 4
45: 4
46: 4
0: 5
1: 5
2: 5
3: 5
4: 5
5: 5
6: 5
7: 5
8: 5
9: 5
10: 5
11: 5
12: 5
13: 5
14: 5
15: 5
16: 5
17: 5
18: 5
19: 5
20: 5
21: 5
22: 5
23: 5
24: 5
25: 5
26: 5
27: 5
28: 5
29: 5
30: 5
31: 5
32: 5
33: 5
34: 5
35: 5
36: 5
edge from: to
37: 0
37: 1
38: 1
38: 6
39: 1
39: 10
40: 13
40: 14
41: 18
42: 7
43: 4
43: 23
44: 25
44: 26
45: 11
45: 15
45: 29
46: 32
46: 33
2: 37
3: 37
4: 37
5: 37
6: 37
7: 38
8: 38
9: 38
10: 38
11: 39
12: 39
13: 39
14: 39
15: 40
16: 40
17: 40
18: 40
19: 41
20: 42
21: 42
22: 42
23: 42
24: 43
25: 43
26: 43
27: 44
28: 44
29: 44
30: 44
31: 45
32: 45
33: 45
34: 46
35: 46
36: 46
segment: [3]
vertex id: label
34: 0
35: 4
36: 4
37: 4
38: 4
39: 4
40: 4
41: 4
42: 4
43: 4
0: 5
1: 5
2: 5
3: 5
4: 5
5: 5
6: 5
7: 5
8: 5
9: 5
10: 5
11: 5
12: 5
13: 5
14: 5
15: 5
16: 5
17: 5
18: 5
19: 5
20: 5
21: 5
22: 5
23: 5
24: 5
25: 5
26: 5
27: 5
28: 5
29: 5
30: 5
31: 5
32: 5
33: 5
edge from: to
34: 0
34: 1
34: 2
35: 2
35: 6
35: 7
36: 9
37: 5
37: 13
38: 3
38: 17
39: 21
40: 23
41: 25
42: 10
42: 26
43: 11
43: 29
3: 34
4: 34
5: 34
6: 34
7: 34
8: 35
9: 35
10: 36
11: 36
12: 36
13: 36
14: 37
15: 37
16: 37
17: 37
18: 38
19: 38
20: 38
21: 38
22: 39
23: 39
24: 40
25: 40
26: 41
27: 41
28: 42
29: 42
30: 42
31: 43
32: 43
33: 43
segment: [4]
vertex id: label
38: 0
39: 4
40: 4
41: 4
42: 4
43: 4
44: 4
45: 4
46: 4
47: 4
0: 5
1: 5
2: 5
3: 5
4: 5
5: 5
6: 5
7: 5
8: 5
9: 5
10: 5
11: 5
12: 5
13: 5
14: 5
15: 5
16: 5
17: 5
18: 5
19: 5
20: 5
21: 5
22: 5
23: 5
24: 5
25: 5
26: 5
27: 5
28: 5
29: 5
30: 5
31: 5
32: 5
33: 5
34: 5
35: 5
36: 5
37: 5
edge from: to
38: 0
38: 1
39: 1
39: 2
40: 1
40: 2
41: 3
42: 2
42: 10
42: 12
43: 2
43: 7
43: 15
43: 19
44: 23
44: 24
45: 3
45: 5
45: 29
46: 33
47: 36
2: 38
3: 39
4: 39
5: 39
6: 40
7: 40
8: 40
9: 41
10: 41
11: 41
12: 41
13: 42
14: 42
15: 42
16: 42
17: 42
18: 42
19: 42
20: 43
21: 43
22: 43
23: 43
24: 43
25: 44
26: 44
27: 44
28: 44
29: 44
30: 45
31: 45
32: 45
33: 45
34: 46
35: 46
36: 46
37: 47
segment: [5]
vertex id: label
29: 0
30: 4
31: 4
32: 4
33: 4
34: 4
35: 4
36: 4
37: 4
38: 4
0: 5
1: 5
2: 5
3: 5
4: 5
5: 5
6: 5
7: 5
8: 5
9: 5
10: 5
11: 5
12: 5
13: 5
14: 5
15: 5
16: 5
17: 5
18: 5
19: 5
20: 5
21: 5
22: 5
23: 5
24: 5
25: 5
26: 5
27: 5
28: 5
edge from: to
29: 0
29: 1
30: 0
30: 1
30: 2
31: 4
32: 1
32: 2
32: 3
32: 4
32: 5
33: 5
33: 13
34: 6
35: 17
36: 10
36: 20
37: 23
38: 10
2: 29
3: 30
4: 30
5: 31
6: 32
7: 32
8: 32
9: 32
10: 32
11: 32
12: 32
13: 32
14: 33
15: 33
16: 33
17: 34
18: 35
19: 35
20: 35
21: 36
22: 36
23: 36
24: 37
25: 37
26: 37
27: 37
28: 38
segment: [6]
vertex id: label
31: 0
32: 4
33: 4
34: 4
35: 4
36: 4
37: 4
38: 4
39: 4
40: 4
0: 5
1: 5
2: 5
3: 5
4: 5
5: 5
6: 5
7: 5
8: 5
9: 5
10: 5
11: 5
12: 5
13: 5
14: 5
15: 5
16: 5
17: 5
18: 5
19: 5
20: 5
21: 5
22: 5
23: 5
24: 5
25: 5
26: 5
27: 5
28: 5
29: 5
30: 5
edge from: to
31: 0
32: 2
32: 4
33: 1
33: 6
34: 3
34: 8
35: 2
35: 10
35: 12
36: 17
37: 18
38: 7
39: 21
39: 22
40: 25
40: 26
1: 31
2: 31
3: 31
4: 31
5: 32
6: 32
7: 33
8: 33
9: 34
10: 34
11: 34
12: 34
13: 35
14: 35
15: 35
16: 35
17: 35
18: 36
19: 37
20: 38
21: 38
22: 38
23: 39
24: 39
25: 39
26: 39
27: 40
28: 40
29: 40
30: 40
segment: [7]
vertex id: label
32: 0
33: 4
34: 4
35: 4
36: 4
37: 4
38: 4
39: 4
40: 4
41: 4
0: 5
1: 5
2: 5
3: 5
4: 5
5: 5
6: 5
7: 5
8: 5
9: 5
10: 5
11: 5
12: 5
13: 5
14: 5
15: 5
16: 5
17: 5
18: 5
19: 5
20: 5
21: 5
22: 5
23: 5
24: 5
25: 5
26: 5
27: 5
28: 5
29: 5
30: 5
31: 5
edge from: to
32: 0
32: 1
32: 2
33: 1
33: 6
34: 1
34: 9
35: 2
35: 10
35: 12
36: 5
36: 8
36: 13
37: 17
38: 7
38: 19
39: 14
39: 15
39: 16
39: 17
39: 18
39: 20
39: 21
40: 24
41: 5
41: 29
3: 32
4: 32
5: 32
6: 32
7: 33
8: 33
9: 33
10: 34
11: 34
12: 34
13: 35
14: 36
15: 36
16: 36
17: 36
18: 37
19: 37
20: 38
21: 38
22: 39
23: 39
24: 39
25: 40
26: 40
27: 40
28: 40
29: 40
30: 41
31: 41
segment: [8]
vertex id: label
32: 0
33: 1
34: 2
35: 0
36: 4
37: 4
38: 4
39: 4
40: 4
41: 4
0: 5
1: 5
2: 5
3: 5
4: 5
5: 5
6: 5
7: 5
8: 5
9: 5
10: 5
11: 5
12: 5
13: 5
14: 5
15: 5
16: 5
17: 5
18: 5
19: 5
20: 5
21: 5
22: 5
23: 5
24: 5
25: 5
26: 5
27: 5
28: 5
29: 5
30: 5
31: 5
edge from: to
32: 0
32: 1
32: 2
33: 1
33: 6
34: 7
35: 1
35: 8
35: 10
36: 5
36: 13
37: 3
37: 17
38: 7
39: 4
39: 23
40: 10
40: 26
40: 27
41: 11
3: 32
4: 32
5: 32
6: 32
7: 33
8: 34
9: 34
10: 34
11: 35
12: 35
13: 35
14: 36
15: 36
16: 36
17: 36
18: 37
19: 37
20: 38
21: 38
22: 38
23: 38
24: 39
25: 39
26: 39
27: 39
28: 40
29: 40
30: 40
31: 41
segment: [9]
vertex id: label
31: 0
32: 4
33: 4
34: 4
35: 4
36: 4
37: 4
38: 4
39: 4
40: 4
0: 5
1: 5
2: 5
3: 5
4: 5
5: 5
6: 5
7: 5
8: 5
9: 5
10: 5
11: 5
12: 5
13: 5
14: 5
15: 5
16: 5
17: 5
18: 5
19: 5
20: 5
21: 5
22: 5
23: 5
24: 5
25: 5
26: 5
27: 5
28: 5
29: 5
30: 5
edge from: to
31: 0
32: 0
32: 1
33: 2
33: 4
34: 3
35: 2
35: 11
36: 15
37: 21
38: 12
38: 23
38: 24
39: 26
40: 10
40: 26
40: 27
1: 31
2: 32
3: 32
4: 32
5: 33
6: 33
7: 33
8: 33
9: 34
10: 34
11: 34
12: 35
13: 35
14: 35
15: 35
16: 36
17: 36
18: 36
19: 36
20: 36
21: 36
22: 37
23: 37
24: 37
25: 38
26: 38
27: 39
28: 40
29: 40
30: 40
