segment: [0]
vertex id: label
27: 0
28: 3
29: 1
30: 0
31: 4
32: 3
33: 1
34: 1
35: 0
36: 0
0: 5
1: 5
2: 5
3: 5
4: 5
5: 5
6: 5
7: 5
8: 5
9: 5
10: 5
11: 5
12: 5
13: 5
14: 5
15: 5
16: 5
17: 5
18: 5
19: 5
20: 5
21: 5
22: 5
23: 5
24: 5
25: 5
26: 5
edge from: to
27: 0
28: 1
28: 2
29: 4
30: 7
31: 8
32: 12
33: 3
33: 14
33: 16
34: 6
34: 13
34: 17
35: 15
35: 19
36: 18
1: 27
2: 27
3: 28
4: 28
5: 28
6: 29
7: 29
8: 29
9: 29
10: 30
11: 31
12: 31
13: 31
14: 31
15: 31
16: 32
17: 33
18: 34
19: 34
20: 35
21: 35
22: 35
23: 35
24: 36
25: 36
26: 36
segment: [1]
vertex id: label
28: 0
29: 3
30: 1
31: 4
32: 1
33: 3
34: 0
35: 4
36: 4
37: 3
0: 5
1: 5
2: 5
3: 5
4: 5
5: 5
6: 5
7: 5
8: 5
9: 5
10: 5
11: 5
12: 5
13: 5
14: 5
15: 5
16: 5
17: 5
18: 5
19: 5
20: 5
21: 5
22: 5
23: 5
24: 5
25: 5
26: 5
27: 5
edge from: to
28: 0
29: 2
30: 3
30: 4
31: 3
31: 6
31: 8
32: 11
33: 12
34: 6
34: 13
35: 7
35: 16
36: 17
37: 19
37: 23
37: 24
1: 28
2: 28
3: 29
4: 29
5: 30
6: 30
7: 30
8: 30
9: 31
10: 31
11: 31
12: 31
13: 31
14: 31
15: 32
16: 33
17: 33
18: 34
19: 34
20: 34
21: 35
22: 35
23: 36
24: 36
25: 37
26: 37
27: 37
segment: [2]
vertex id: label
29: 0
30: 3
31: 1
32: 0
33: 0
34: 4
35: 3
36: 3
37: 2
38: 3
0: 5
1: 5
2: 5
3: 5
4: 5
5: 5
6: 5
7: 5
8: 5
9: 5
10: 5
11: 5
12: 5
13: 5
14: 5
15: 5
16: 5
17: 5
18: 5
19: 5
20: 5
21: 5
22: 5
23: 5
24: 5
25: 5
26: 5
27: 5
28: 5
edge from: to
29: 0
30: 3
30: 4
31: 3
31: 4
31: 5
31: 6
32: 7
32: 9
33: 8
34: 5
34: 11
34: 14
35: 12
35: 15
36: 15
36: 19
37: 17
38: 19
1: 29
2: 29
3: 29
4: 29
5: 30
6: 30
7: 31
8: 31
9: 31
10: 32
11: 33
12: 33
13: 33
14: 33
15: 34
16: 35
17: 35
18: 35
19: 35
20: 36
21: 36
22: 36
23: 37
24: 37
25: 38
26: 38
27: 38
28: 38
segment: [3]
vertex id: label
34: 0
35: 4
36: 4
37: 4
38: 1
39: 0
40: 0
41: 2
42: 3
43: 1
0: 5
1: 5
2: 5
3: 5
4: 5
5: 5
6: 5
7: 5
8: 5
9: 5
10: 5
11: 5
12: 5
13: 5
14: 5
15: 5
16: 5
17: 5
18: 5
19: 5
20: 5
21: 5
22: 5
23: 5
24: 5
25: 5
26: 5
27: 5
28: 5
29: 5
30: 5
31: 5
32: 5
33: 5
edge from: to
34: 0
35: 4
36: 3
36: 6
37: 9
38: 10
39: 12
40: 16
41: 21
42: 19
42: 23
42: 24
43: 9
43: 20
43: 26
1: 34
2: 34
3: 34
4: 34
5: 34
6: 35
7: 35
8: 35
9: 36
10: 36
11: 36
12: 37
13: 37
14: 38
15: 38
16: 39
17: 40
18: 40
19: 40
20: 40
21: 40
22: 41
23: 41
24: 41
25: 42
26: 42
27: 43
28: 43
29: 43
30: 43
31: 43
32: 43
33: 43
segment: [4]
vertex id: label
28: 0
29: 4
30: 3
31: 1
32: 0
33: 4
34: 0
35: 3
36: 0
37: 4
0: 5
1: 5
2: 5
3: 5
4: 5
5: 5
6: 5
7: 5
8: 5
9: 5
10: 5
11: 5
12: 5
13: 5
14: 5
15: 5
16: 5
17: 5
18: 5
19: 5
20: 5
21: 5
22: 5
23: 5
24: 5
25: 5
26: 5
27: 5
edge from: to
28: 0
28: 1
29: 0
29: 1
29: 2
29: 3
30: 5
31: 6
31: 7
31: 9
32: 10
33: 3
33: 16
34: 14
34: 16
34: 17
34: 18
35: 4
35: 21
36: 8
36: 18
36: 23
37: 19
37: 24
2: 28
3: 28
4: 29
5: 29
6: 29
7: 30
8: 30
9: 30
10: 31
11: 31
12: 31
13: 31
14: 32
15: 32
16: 32
17: 33
18: 33
19: 34
20: 34
21: 34
22: 35
23: 35
24: 36
25: 37
26: 37
27: 37
segment: [5]
vertex id: label
29: 0
30: 3
31: 3
32: 1
33: 1
34: 4
35: 4
36: 3
37: 1
38: 2
0: 5
1: 5
2: 5
3: 5
4: 5
5: 5
6: 5
7: 5
8: 5
9: 5
10: 5
11: 5
12: 5
13: 5
14: 5
15: 5
16: 5
17: 5
18: 5
19: 5
20: 5
21: 5
22: 5
23: 5
24: 5
25: 5
26: 5
27: 5
28: 5
edge from: to
29: 0
29: 1
30: 1
30: 2
30: 4
31: 3
31: 6
31: 7
32: 7
32: 9
33: 8
34: 5
34: 8
34: 12
35: 11
36: 16
37: 4
37: 21
38: 17
2: 29
3: 29
4: 29
5: 29
6: 30
7: 30
8: 31
9: 31
10: 32
11: 33
12: 33
13: 34
14: 34
15: 35
16: 35
17: 36
18: 36
19: 36
20: 36
21: 36
22: 37
23: 38
24: 38
25: 38
26: 38
27: 38
28: 38
segment: [6]
vertex id: label
31: 0
32: 1
33: 3
34: 0
35: 3
36: 0
37: 3
38: 1
39: 3
40: 1
0: 5
1: 5
2: 5
3: 5
4: 5
5: 5
6: 5
7: 5
8: 5
9: 5
10: 5
11: 5
12: 5
13: 5
14: 5
15: 5
16: 5
17: 5
18: 5
19: 5
20: 5
21: 5
22: 5
23: 5
24: 5
25: 5
26: 5
27: 5
28: 5
29: 5
30: 5
edge from: to
31: 0
32: 0
32: 1
32: 2
32: 3
33: 1
33: 2
33: 4
34: 6
35: 12
36: 5
36: 11
37: 6
37: 13
38: 7
38: 16
39: 19
39: 24
40: 22
1: 31
2: 31
4: 32
5: 32
6: 33
7: 33
8: 34
9: 34
10: 34
11: 34
12: 34
13: 35
14: 35
15: 36
16: 36
17: 36
18: 37
19: 37
20: 37
21: 38
22: 38
23: 38
24: 38
25: 39
26: 39
27: 39
28: 39
29: 40
30: 40
segment: [7]
vertex id: label
39: 0
40: 4
41: 4
42: 2
43: 4
44: 0
45: 0
46: 0
47: 4
48: 1
0: 5
1: 5
2: 5
3: 5
4: 5
5: 5
6: 5
7: 5
8: 5
9: 5
10: 5
11: 5
12: 5
13: 5
14: 5
15: 5
16: 5
17: 5
18: 5
19: 5
20: 5
21: 5
22: 5
23: 5
24: 5
25: 5
26: 5
27: 5
28: 5
29: 5
30: 5
31: 5
32: 5
33: 5
34: 5
35: 5
36: 5
37: 5
38: 5
edge from: to
39: 0
39: 1
40: 1
40: 2
40: 4
41: 3
41: 6
42: 6
42: 10
42: 13
43: 15
44: 17
44: 22
45: 9
45: 12
45: 20
45: 26
46: 30
47: 25
47: 32
48: 17
48: 34
48: 36
48: 37
2: 39
3: 39
4: 39
5: 39
6: 40
7: 40
8: 40
9: 41
10: 41
11: 41
12: 41
13: 41
14: 42
15: 42
16: 42
17: 42
18: 42
19: 42
20: 43
21: 43
22: 43
23: 44
24: 44
25: 44
26: 44
27: 45
28: 45
29: 45
30: 45
31: 46
32: 46
33: 47
34: 47
35: 47
36: 47
37: 47
38: 48
segment: [8]
vertex id: label
26: 0
27: 0
28: 4
29: 1
30: 0
31: 4
32: 1
33: 0
34: 4
35: 4
0: 5
1: 5
2: 5
3: 5
4: 5
5: 5
6: 5
7: 5
8: 5
9: 5
10: 5
11: 5
12: 5
13: 5
14: 5
15: 5
16: 5
17: 5
18: 5
19: 5
20: 5
21: 5
22: 5
23: 5
24: 5
25: 5
edge from: to
26: 0
27: 1
27: 2
27: 3
28: 6
29: 7
30: 8
31: 10
31: 13
32: 5
32: 11
32: 14
33: 16
34: 6
34: 8
34: 13
34: 17
35: 16
1: 26
2: 26
3: 26
4: 27
5: 27
6: 27
7: 27
8: 28
9: 28
10: 29
11: 30
12: 30
13: 30
14: 31
15: 32
16: 32
17: 33
18: 34
19: 34
20: 34
21: 35
22: 35
23: 35
24: 35
25: 35
segment: [9]
vertex id: label
36: 0
37: 0
38: 3
39: 3
40: 4
41: 3
42: 1
43: 2
44: 3
45: 4
0: 5
1: 5
2: 5
3: 5
4: 5
5: 5
6: 5
7: 5
8: 5
9: 5
10: 5
11: 5
12: 5
13: 5
14: 5
15: 5
16: 5
17: 5
18: 5
19: 5
20: 5
21: 5
22: 5
23: 5
24: 5
25: 5
26: 5
27: 5
28: 5
29: 5
30: 5
31: 5
32: 5
33: 5
34: 5
35: 5
edge from: to
36: 0
36: 1
36: 2
36: 3
37: 6
37: 7
38: 8
39: 4
39: 9
39: 11
40: 10
41: 11
42: 14
42: 18
43: 4
43: 21
44: 19
44: 24
45: 6
45: 25
45: 30
45: 31
45: 32
4: 36
5: 36
6: 36
7: 36
8: 37
9: 37
10: 37
11: 38
12: 39
13: 39
14: 40
15: 41
16: 41
17: 41
18: 41
19: 42
20: 42
21: 42
22: 43
23: 43
24: 43
25: 44
26: 44
27: 44
28: 44
29: 44
30: 44
31: 44
32: 44
33: 45
34: 45
35: 45
