segment: [0]
vertex id: label
36: 0
37: 2
38: 2
39: 2
40: 2
41: 2
42: 2
43: 2
44: 2
45: 2
0: 5
1: 5
2: 5
3: 5
4: 5
5: 5
6: 5
7: 5
8: 5
9: 5
10: 5
11: 5
12: 5
13: 5
14: 5
15: 5
16: 5
17: 5
18: 5
19: 5
20: 5
21: 5
22: 5
23: 5
24: 5
25: 5
26: 5
27: 5
28: 5
29: 5
30: 5
31: 5
32: 5
33: 5
34: 5
35: 5
edge from: to
36: 0
37: 0
37: 1
37: 2
38: 9
39: 11
39: 14
40: 0
40: 7
40: 16
41: 3
41: 12
41: 18
42: 20
42: 22
43: 6
44: 19
44: 29
45: 0
45: 14
45: 21
45: 32
45: 33
1: 36
2: 36
3: 37
4: 37
5: 37
6: 37
7: 37
8: 37
9: 37
10: 38
11: 38
12: 38
13: 38
14: 38
15: 39
16: 39
17: 40
18: 40
19: 41
20: 41
21: 41
22: 41
23: 42
24: 42
25: 42
26: 42
27: 43
28: 43
29: 43
30: 44
31: 44
32: 44
33: 44
34: 45
35: 45
segment: [1]
vertex id: label
36: 0
37: 2
38: 2
39: 2
40: 2
41: 0
42: 2
43: 2
44: 2
45: 2
0: 5
1: 5
2: 5
3: 5
4: 5
5: 5
6: 5
7: 5
8: 5
9: 5
10: 5
11: 5
12: 5
13: 5
14: 5
15: 5
16: 5
17: 5
18: 5
19: 5
20: 5
21: 5
22: 5
23: 5
24: 5
25: 5
26: 5
27: 5
28: 5
29: 5
30: 5
31: 5
32: 5
33: 5
34: 5
35: 5
edge from: to
36: 0
37: 0
37: 1
37: 2
38: 1
39: 1
39: 4
39: 5
39: 6
40: 6
40: 9
41: 14
42: 7
42: 16
43: 21
44: 6
44: 17
45: 32
1: 36
2: 36
3: 37
4: 37
5: 38
6: 38
7: 39
8: 39
9: 39
10: 40
11: 40
12: 40
13: 40
14: 40
15: 41
16: 41
17: 42
18: 42
19: 42
20: 42
21: 42
22: 43
23: 43
24: 43
25: 43
26: 43
27: 44
28: 44
29: 44
30: 44
31: 44
32: 44
33: 44
34: 45
35: 45
segment: [2]
vertex id: label
33: 0
34: 2
35: 2
36: 1
37: 1
38: 3
39: 3
40: 0
41: 2
42: 2
0: 5
1: 5
2: 5
3: 5
4: 5
5: 5
6: 5
7: 5
8: 5
9: 5
10: 5
11: 5
12: 5
13: 5
14: 5
15: 5
16: 5
17: 5
18: 5
19: 5
20: 5
21: 5
22: 5
23: 5
24: 5
25: 5
26: 5
27: 5
28: 5
29: 5
30: 5
31: 5
32: 5
edge from: to
33: 0
34: 1
34: 2
35: 1
35: 3
35: 4
36: 9
36: 11
37: 6
37: 11
37: 14
38: 0
38: 3
38: 12
38: 14
38: 18
39: 13
39: 20
40: 22
41: 6
41: 17
42: 27
42: 28
1: 33
2: 33
3: 34
4: 34
5: 35
6: 35
7: 35
8: 35
9: 35
10: 35
11: 35
12: 36
13: 36
14: 36
15: 37
16: 37
17: 37
18: 37
19: 38
20: 38
21: 39
22: 39
23: 40
24: 40
25: 40
26: 40
27: 41
28: 41
29: 42
30: 42
31: 42
32: 42
segment: [3]
vertex id: label
35: 0
36: 2
37: 2
38: 2
39: 2
40: 2
41: 2
42: 2
43: 2
44: 2
0: 5
1: 5
2: 5
3: 5
4: 5
5: 5
6: 5
7: 5
8: 5
9: 5
10: 5
11: 5
12: 5
13: 5
14: 5
15: 5
16: 5
17: 5
18: 5
19: 5
20: 5
21: 5
22: 5
23: 5
24: 5
25: 5
26: 5
27: 5
28: 5
29: 5
30: 5
31: 5
32: 5
33: 5
34: 5
edge from: to
35: 0
35: 1
36: 0
36: 1
36: 3
36: 4
36: 5
37: 2
38: 10
39: 3
39: 12
39: 13
40: 16
41: 14
41: 21
42: 16
42: 23
42: 24
42: 25
43: 29
44: 31
2: 35
3: 35
4: 35
5: 35
6: 36
7: 36
8: 36
9: 37
10: 37
11: 38
12: 38
13: 38
14: 39
15: 39
16: 39
17: 40
18: 40
19: 40
20: 40
21: 40
22: 41
23: 41
24: 41
25: 41
26: 42
27: 42
28: 42
29: 42
30: 43
31: 43
32: 44
33: 44
34: 44
segment: [4]
vertex id: label
35: 0
36: 2
37: 2
38: 2
39: 2
40: 2
41: 2
42: 2
43: 2
44: 0
0: 5
1: 5
2: 5
3: 5
4: 5
5: 5
6: 5
7: 5
8: 5
9: 5
10: 5
11: 5
12: 5
13: 5
14: 5
15: 5
16: 5
17: 5
18: 5
19: 5
20: 5
21: 5
22: 5
23: 5
24: 5
25: 5
26: 5
27: 5
28: 5
29: 5
30: 5
31: 5
32: 5
33: 5
34: 5
edge from: to
35: 0
35: 1
36: 2
37: 11
38: 3
38: 12
38: 13
39: 16
40: 18
41: 13
41: 18
41: 20
42: 23
43: 26
43: 27
44: 21
44: 32
2: 35
3: 35
4: 35
5: 35
6: 35
7: 35
8: 35
9: 36
10: 36
11: 36
12: 37
13: 37
14: 38
15: 38
16: 38
17: 39
18: 39
19: 40
20: 40
21: 41
22: 41
23: 41
24: 42
25: 42
26: 42
27: 42
28: 43
29: 43
30: 43
31: 43
32: 43
33: 44
34: 44
segment: [5]
vertex id: label
27: 0
28: 2
29: 2
30: 2
31: 2
32: 2
33: 2
34: 2
35: 1
36: 3
0: 5
1: 5
2: 5
3: 5
4: 5
5: 5
6: 5
7: 5
8: 5
9: 5
10: 5
11: 5
12: 5
13: 5
14: 5
15: 5
16: 5
17: 5
18: 5
19: 5
20: 5
21: 5
22: 5
23: 5
24: 5
25: 5
26: 5
edge from: to
27: 0
27: 1
28: 0
28: 2
28: 3
29: 5
29: 7
30: 6
30: 9
31: 7
31: 10
32: 7
32: 9
32: 11
33: 11
33: 14
34: 4
34: 17
35: 14
35: 21
36: 20
36: 22
2: 27
3: 27
4: 28
5: 28
6: 28
7: 28
8: 29
9: 29
10: 30
11: 31
12: 32
13: 32
14: 32
15: 33
16: 33
17: 33
18: 34
19: 34
20: 34
21: 34
22: 35
23: 36
24: 36
25: 36
26: 36
segment: [6]
vertex id: label
26: 0
27: 2
28: 2
29: 1
30: 3
31: 0
32: 2
33: 2
34: 2
35: 2
0: 5
1: 5
2: 5
3: 5
4: 5
5: 5
6: 5
7: 5
8: 5
9: 5
10: 5
11: 5
12: 5
13: 5
14: 5
15: 5
16: 5
17: 5
18: 5
19: 5
20: 5
21: 5
22: 5
23: 5
24: 5
25: 5
edge from: to
26: 0
27: 2
28: 3
29: 6
30: 7
30: 10
31: 12
32: 12
32: 18
33: 0
33: 15
33: 17
33: 19
34: 15
34: 23
35: 22
35: 24
1: 26
2: 26
3: 27
4: 28
5: 28
6: 28
7: 29
8: 29
9: 29
10: 29
11: 30
12: 30
13: 31
14: 31
15: 31
16: 31
17: 31
18: 31
19: 32
20: 33
21: 33
22: 33
23: 33
24: 34
25: 35
segment: [7]
vertex id: label
29: 0
30: 2
31: 2
32: 2
33: 2
34: 2
35: 0
36: 2
37: 2
38: 2
0: 5
1: 5
2: 5
3: 5
4: 5
5: 5
6: 5
7: 5
8: 5
9: 5
10: 5
11: 5
12: 5
13: 5
14: 5
15: 5
16: 5
17: 5
18: 5
19: 5
20: 5
21: 5
22: 5
23: 5
24: 5
25: 5
26: 5
27: 5
28: 5
edge from: to
29: 0
30: 0
31: 2
31: 8
32: 9
32: 11
33: 10
33: 15
34: 3
34: 12
34: 14
34: 18
35: 20
36: 14
36: 21
37: 22
37: 24
38: 23
38: 24
38: 25
1: 29
2: 30
3: 30
4: 30
5: 30
6: 30
7: 30
8: 30
9: 31
10: 31
11: 31
12: 32
13: 32
14: 32
15: 32
16: 33
17: 33
18: 33
19: 34
20: 34
21: 35
22: 36
23: 36
24: 36
25: 37
26: 38
27: 38
28: 38
segment: [8]
vertex id: label
32: 0
33: 2
34: 0
35: 2
36: 2
37: 1
38: 3
39: 0
40: 2
41: 2
0: 5
1: 5
2: 5
3: 5
4: 5
5: 5
6: 5
7: 5
8: 5
9: 5
10: 5
11: 5
12: 5
13: 5
14: 5
15: 5
16: 5
17: 5
18: 5
19: 5
20: 5
21: 5
22: 5
23: 5
24: 5
25: 5
26: 5
27: 5
28: 5
29: 5
30: 5
31: 5
edge from: to
32: 0
33: 2
33: 3
34: 2
35: 9
35: 11
36: 14
37: 7
37: 16
38: 12
38: 18
39: 14
39: 21
40: 22
40: 24
41: 19
41: 27
41: 28
41: 29
1: 32
2: 32
3: 32
4: 33
5: 33
6: 33
7: 33
8: 33
9: 34
10: 34
11: 34
12: 35
13: 35
14: 35
15: 36
16: 36
17: 37
18: 37
19: 38
20: 38
21: 38
22: 39
23: 39
24: 39
25: 40
26: 40
27: 40
28: 40
29: 40
30: 41
31: 41
segment: [9]
vertex id: label
40: 0
41: 2
42: 2
43: 2
44: 2
45: 2
46: 1
47: 1
48: 3
49: 0
0: 5
1: 5
2: 5
3: 5
4: 5
5: 5
6: 5
7: 5
8: 5
9: 5
10: 5
11: 5
12: 5
13: 5
14: 5
15: 5
16: 5
17: 5
18: 5
19: 5
20: 5
21: 5
22: 5
23: 5
24: 5
25: 5
26: 5
27: 5
28: 5
29: 5
30: 5
31: 5
32: 5
33: 5
34: 5
35: 5
36: 5
37: 5
38: 5
39: 5
edge from: to
40: 0
41: 2
42: 5
42: 6
42: 7
43: 6
43: 8
43: 9
44: 3
45: 0
45: 7
45: 16
46: 3
46: 12
46: 18
47: 20
47: 22
48: 23
49: 29
49: 30
1: 40
2: 40
3: 41
4: 41
5: 41
6: 41
7: 41
8: 42
9: 42
10: 43
11: 43
12: 43
13: 43
14: 44
15: 44
16: 44
17: 45
18: 45
19: 46
20: 46
21: 46
22: 46
23: 47
24: 48
25: 48
26: 48
27: 48
28: 48
29: 48
30: 48
31: 49
32: 49
33: 49
34: 49
35: 49
36: 49
37: 49
38: 49
39: 49
