segment: [0]
vertex id: label
23: 0
24: 4
25: 3
26: 3
27: 3
28: 3
29: 1
30: 2
31: 0
32: 4
0: 5
1: 5
2: 5
3: 5
4: 5
5: 5
6: 5
7: 5
8: 5
9: 5
10: 5
11: 5
12: 5
13: 5
14: 5
15: 5
16: 5
17: 5
18: 5
19: 5
20: 5
21: 5
22: 5
edge from: to
23: 0
24: 0
24: 1
24: 2
25: 1
25: 2
25: 3
26: 3
27: 5
27: 7
27: 9
28: 11
29: 7
29: 12
30: 8
30: 14
31: 8
31: 17
32: 4
32: 9
32: 19
1: 23
2: 23
3: 24
4: 25
5: 25
6: 26
7: 26
8: 26
9: 26
10: 27
11: 27
12: 28
13: 29
14: 29
15: 30
16: 30
17: 30
18: 31
19: 31
20: 32
21: 32
22: 32
segment: [1]
vertex id: label
32: 0
33: 4
34: 3
35: 3
36: 0
37: 4
38: 3
39: 3
40: 3
41: 3
0: 5
1: 5
2: 5
3: 5
4: 5
5: 5
6: 5
7: 5
8: 5
9: 5
10: 5
11: 5
12: 5
13: 5
14: 5
15: 5
16: 5
17: 5
18: 5
19: 5
20: 5
21: 5
22: 5
23: 5
24: 5
25: 5
26: 5
27: 5
28: 5
29: 5
30: 5
31: 5
edge from: to
32: 0
32: 1
33: 4
33: 7
34: 4
34: 5
34: 8
35: 6
35: 7
35: 9
35: 12
36: 8
36: 17
37: 9
37: 19
38: 16
38: 22
39: 24
40: 14
40: 25
41: 15
41: 27
2: 32
3: 32
4: 32
5: 32
6: 32
7: 32
8: 33
9: 34
10: 34
11: 34
12: 34
13: 35
14: 35
15: 35
16: 35
17: 35
18: 36
19: 36
20: 37
21: 37
22: 37
23: 38
24: 38
25: 39
26: 40
27: 40
28: 41
29: 41
30: 41
31: 41
segment: [2]
vertex id: label
35: 0
36: 4
37: 3
38: 3
39: 3
40: 3
41: 3
42: 2
43: 2
44: 2
0: 5
1: 5
2: 5
3: 5
4: 5
5: 5
6: 5
7: 5
8: 5
9: 5
10: 5
11: 5
12: 5
13: 5
14: 5
15: 5
16: 5
17: 5
18: 5
19: 5
20: 5
21: 5
22: 5
23: 5
24: 5
25: 5
26: 5
27: 5
28: 5
29: 5
30: 5
31: 5
32: 5
33: 5
34: 5
edge from: to
35: 0
35: 1
36: 2
36: 3
37: 5
37: 9
38: 7
38: 12
39: 11
39: 15
40: 9
40: 19
41: 15
41: 17
41: 19
41: 20
42: 16
42: 17
42: 22
43: 15
44: 30
2: 35
3: 35
4: 36
5: 36
6: 36
7: 36
8: 36
9: 36
10: 37
11: 37
12: 37
13: 38
14: 38
15: 38
16: 39
17: 39
18: 39
19: 39
20: 40
21: 41
22: 41
23: 42
24: 42
25: 42
26: 42
27: 42
28: 43
29: 43
30: 43
31: 44
32: 44
33: 44
34: 44
segment: [3]
vertex id: label
34: 0
35: 4
36: 1
37: 1
38: 2
39: 0
40: 4
41: 3
42: 3
43: 3
0: 5
1: 5
2: 5
3: 5
4: 5
5: 5
6: 5
7: 5
8: 5
9: 5
10: 5
11: 5
12: 5
13: 5
14: 5
15: 5
16: 5
17: 5
18: 5
19: 5
20: 5
21: 5
22: 5
23: 5
24: 5
25: 5
26: 5
27: 5
28: 5
29: 5
30: 5
31: 5
32: 5
33: 5
edge from: to
34: 0
35: 2
35: 3
36: 2
36: 3
36: 4
37: 3
37: 5
38: 6
39: 8
40: 7
40: 12
41: 10
41: 11
42: 20
43: 14
43: 25
1: 34
2: 34
3: 34
4: 35
5: 36
6: 37
7: 38
8: 38
9: 39
10: 39
11: 39
12: 39
13: 40
14: 40
15: 40
16: 40
17: 40
18: 40
19: 41
20: 41
21: 42
22: 42
23: 42
24: 42
25: 42
26: 43
27: 43
28: 43
29: 43
30: 43
31: 43
32: 43
33: 43
segment: [4]
vertex id: label
32: 0
33: 4
34: 3
35: 3
36: 3
37: 3
38: 3
39: 3
40: 3
41: 3
0: 5
1: 5
2: 5
3: 5
4: 5
5: 5
6: 5
7: 5
8: 5
9: 5
10: 5
11: 5
12: 5
13: 5
14: 5
15: 5
16: 5
17: 5
18: 5
19: 5
20: 5
21: 5
22: 5
23: 5
24: 5
25: 5
26: 5
27: 5
28: 5
29: 5
30: 5
31: 5
edge from: to
32: 0
32: 1
32: 2
33: 3
33: 4
33: 5
34: 4
34: 7
35: 5
35: 8
36: 9
37: 10
37: 11
37: 18
38: 20
39: 23
40: 16
40: 26
41: 20
41: 28
3: 32
4: 32
5: 32
6: 33
7: 33
8: 34
9: 35
10: 35
11: 35
12: 35
13: 35
14: 35
15: 35
16: 35
17: 36
18: 36
19: 37
20: 37
21: 38
22: 38
23: 38
24: 39
25: 39
26: 39
27: 40
28: 40
29: 41
30: 41
31: 41
segment: [5]
vertex id: label
31: 0
32: 4
33: 3
34: 3
35: 1
36: 2
37: 2
38: 2
39: 2
40: 0
0: 5
1: 5
2: 5
3: 5
4: 5
5: 5
6: 5
7: 5
8: 5
9: 5
10: 5
11: 5
12: 5
13: 5
14: 5
15: 5
16: 5
17: 5
18: 5
19: 5
20: 5
21: 5
22: 5
23: 5
24: 5
25: 5
26: 5
27: 5
28: 5
29: 5
30: 5
edge from: to
31: 0
32: 2
32: 3
33: 3
33: 4
33: 6
34: 10
35: 7
36: 10
36: 11
36: 13
36: 14
36: 18
37: 21
38: 23
39: 24
40: 26
1: 31
2: 31
3: 31
4: 32
5: 32
6: 32
7: 33
8: 33
9: 33
10: 33
11: 34
12: 34
13: 35
14: 35
15: 35
16: 35
17: 35
18: 35
19: 36
20: 36
21: 36
22: 37
23: 37
24: 38
25: 39
26: 39
27: 40
28: 40
29: 40
30: 40
segment: [6]
vertex id: label
33: 0
34: 4
35: 3
36: 3
37: 0
38: 4
39: 3
40: 3
41: 3
42: 3
0: 5
1: 5
2: 5
3: 5
4: 5
5: 5
6: 5
7: 5
8: 5
9: 5
10: 5
11: 5
12: 5
13: 5
14: 5
15: 5
16: 5
17: 5
18: 5
19: 5
20: 5
21: 5
22: 5
23: 5
24: 5
25: 5
26: 5
27: 5
28: 5
29: 5
30: 5
31: 5
32: 5
edge from: to
33: 0
34: 2
34: 3
35: 6
36: 5
36: 7
36: 9
37: 7
37: 12
38: 8
38: 10
38: 14
39: 9
39: 10
39: 12
39: 16
40: 10
40: 13
40: 21
41: 14
41: 25
42: 16
42: 22
42: 29
1: 33
2: 33
3: 33
4: 34
5: 34
6: 34
7: 35
8: 35
9: 35
10: 36
11: 36
12: 36
13: 37
14: 37
15: 38
16: 38
17: 39
18: 39
19: 39
20: 39
21: 39
22: 40
23: 40
24: 40
25: 40
26: 41
27: 41
28: 41
29: 41
30: 42
31: 42
32: 42
segment: [7]
vertex id: label
35: 0
36: 4
37: 3
38: 3
39: 3
40: 3
41: 1
42: 2
43: 0
44: 4
0: 5
1: 5
2: 5
3: 5
4: 5
5: 5
6: 5
7: 5
8: 5
9: 5
10: 5
11: 5
12: 5
13: 5
14: 5
15: 5
16: 5
17: 5
18: 5
19: 5
20: 5
21: 5
22: 5
23: 5
24: 5
25: 5
26: 5
27: 5
28: 5
29: 5
30: 5
31: 5
32: 5
33: 5
34: 5
edge from: to
35: 0
35: 1
35: 2
35: 3
36: 4
37: 6
38: 5
38: 9
39: 15
40: 8
40: 17
41: 15
41: 20
42: 17
42: 24
43: 14
43: 16
43: 29
43: 30
44: 17
44: 19
4: 35
5: 36
6: 36
7: 37
8: 37
9: 37
10: 38
11: 38
12: 38
13: 38
14: 38
15: 38
16: 39
17: 39
18: 40
19: 40
20: 40
21: 41
22: 41
23: 41
24: 41
25: 42
26: 42
27: 42
28: 42
29: 42
30: 42
31: 43
32: 44
33: 44
34: 44
segment: [8]
vertex id: label
33: 0
34: 4
35: 2
36: 0
37: 4
38: 3
39: 3
40: 3
41: 3
42: 3
0: 5
1: 5
2: 5
3: 5
4: 5
5: 5
6: 5
7: 5
8: 5
9: 5
10: 5
11: 5
12: 5
13: 5
14: 5
15: 5
16: 5
17: 5
18: 5
19: 5
20: 5
21: 5
22: 5
23: 5
24: 5
25: 5
26: 5
27: 5
28: 5
29: 5
30: 5
31: 5
32: 5
edge from: to
33: 0
33: 1
34: 4
35: 4
35: 5
35: 7
36: 10
37: 8
37: 10
37: 14
38: 9
39: 10
39: 11
40: 16
40: 17
40: 22
41: 26
42: 28
2: 33
3: 33
4: 33
5: 34
6: 34
7: 34
8: 35
9: 35
10: 35
11: 36
12: 36
13: 36
14: 36
15: 37
16: 37
17: 38
18: 38
19: 39
20: 39
21: 39
22: 39
23: 40
24: 40
25: 40
26: 40
27: 41
28: 41
29: 42
30: 42
31: 42
32: 42
segment: [9]
vertex id: label
32: 0
33: 4
34: 3
35: 3
36: 0
37: 4
38: 3
39: 3
40: 3
41: 3
0: 5
1: 5
2: 5
3: 5
4: 5
5: 5
6: 5
7: 5
8: 5
9: 5
10: 5
11: 5
12: 5
13: 5
14: 5
15: 5
16: 5
17: 5
18: 5
19: 5
20: 5
21: 5
22: 5
23: 5
24: 5
25: 5
26: 5
27: 5
28: 5
29: 5
30: 5
31: 5
edge from: to
32: 0
33: 4
34: 5
34: 8
35: 7
35: 8
35: 11
36: 7
36: 12
37: 9
37: 10
37: 16
38: 4
38: 9
38: 19
39: 21
40: 12
40: 14
40: 25
41: 20
41: 21
41: 27
41: 28
1: 32
2: 32
3: 32
4: 32
5: 33
6: 33
7: 33
8: 33
9: 34
10: 34
11: 34
12: 35
13: 36
14: 36
15: 36
16: 36
17: 37
18: 37
19: 37
20: 38
21: 38
22: 39
23: 39
24: 39
25: 39
26: 40
27: 40
28: 40
29: 41
30: 41
31: 41
