segment: [0]
vertex id: label
73: 0
74: 4
75: 0
76: 4
77: 0
78: 4
79: 0
80: 2
81: 2
82: 1
83: 0
84: 2
85: 4
86: 0
87: 2
88: 0
89: 2
90: 4
91: 0
92: 2
0: 5
1: 5
2: 5
3: 5
4: 5
5: 5
6: 5
7: 5
8: 5
9: 5
10: 5
11: 5
12: 5
13: 5
14: 5
15: 5
16: 5
17: 5
18: 5
19: 5
20: 5
21: 5
22: 5
23: 5
24: 5
25: 5
26: 5
27: 5
28: 5
29: 5
30: 5
31: 5
32: 5
33: 5
34: 5
35: 5
36: 5
37: 5
38: 5
39: 5
40: 5
41: 5
42: 5
43: 5
44: 5
45: 5
46: 5
47: 5
48: 5
49: 5
50: 5
51: 5
52: 5
53: 5
54: 5
55: 5
56: 5
57: 5
58: 5
59: 5
60: 5
61: 5
62: 5
63: 5
64: 5
65: 5
66: 5
67: 5
68: 5
69: 5
70: 5
71: 5
72: 5
edge from: to
73: 0
73: 1
73: 2
73: 3
73: 4
74: 6
75: 1
75: 9
76: 4
76: 11
77: 5
77: 13
78: 2
78: 7
78: 13
78: 14
78: 15
78: 16
79: 2
80: 21
81: 26
81: 27
82: 25
82: 29
82: 30
83: 29
83: 33
83: 34
84: 37
84: 38
85: 15
85: 36
85: 41
86: 44
87: 45
87: 47
88: 50
89: 54
89: 56
90: 59
91: 64
92: 59
92: 68
92: 70
5: 73
6: 73
7: 74
8: 74
9: 74
10: 75
11: 75
12: 76
13: 76
14: 76
15: 77
16: 77
17: 78
18: 78
19: 79
20: 79
21: 79
22: 79
23: 80
24: 80
25: 80
26: 80
27: 80
28: 81
29: 81
30: 81
31: 82
32: 82
33: 82
34: 82
35: 83
36: 83
37: 83
38: 83
39: 84
40: 84
41: 84
42: 84
43: 84
44: 85
45: 85
46: 86
47: 86
48: 87
49: 87
50: 87
51: 87
52: 87
53: 88
54: 88
55: 88
56: 88
57: 89
58: 89
59: 89
60: 89
61: 89
62: 90
63: 90
64: 90
65: 90
66: 90
67: 91
68: 91
69: 91
70: 91
71: 92
72: 92
segment: [1]
vertex id: label
63: 0
64: 2
65: 1
66: 4
67: 0
68: 3
69: 1
70: 4
71: 0
72: 2
73: 4
74: 0
75: 2
76: 4
77: 0
78: 4
79: 2
80: 4
81: 0
82: 2
0: 5
1: 5
2: 5
3: 5
4: 5
5: 5
6: 5
7: 5
8: 5
9: 5
10: 5
11: 5
12: 5
13: 5
14: 5
15: 5
16: 5
17: 5
18: 5
19: 5
20: 5
21: 5
22: 5
23: 5
24: 5
25: 5
26: 5
27: 5
28: 5
29: 5
30: 5
31: 5
32: 5
33: 5
34: 5
35: 5
36: 5
37: 5
38: 5
39: 5
40: 5
41: 5
42: 5
43: 5
44: 5
45: 5
46: 5
47: 5
48: 5
49: 5
50: 5
51: 5
52: 5
53: 5
54: 5
55: 5
56: 5
57: 5
58: 5
59: 5
60: 5
61: 5
62: 5
edge from: to
63: 0
63: 1
64: 1
64: 2
64: 5
65: 1
65: 9
66: 11
66: 12
66: 13
67: 15
68: 19
69: 19
69: 21
69: 22
70: 24
70: 25
71: 27
72: 31
73: 38
74: 14
74: 39
75: 40
75: 42
76: 15
76: 41
77: 46
77: 47
77: 48
78: 47
79: 6
79: 45
79: 53
80: 53
80: 54
80: 55
81: 48
81: 55
81: 57
82: 50
82: 57
82: 59
2: 63
3: 63
4: 63
5: 63
6: 64
7: 64
8: 64
9: 64
10: 65
11: 65
12: 65
13: 65
14: 66
15: 66
16: 66
17: 67
18: 67
19: 67
20: 67
21: 68
22: 68
23: 69
24: 69
25: 69
26: 70
27: 70
28: 70
29: 71
30: 71
31: 71
32: 71
33: 72
34: 72
35: 72
36: 72
37: 72
38: 72
39: 72
40: 73
41: 74
42: 74
43: 75
44: 76
45: 76
46: 76
47: 76
48: 76
49: 77
50: 78
51: 78
52: 78
53: 78
54: 79
55: 79
56: 80
57: 80
58: 81
59: 81
60: 82
61: 82
62: 82
segment: [2]
vertex id: label
54: 0
55: 4
56: 1
57: 4
58: 0
59: 4
60: 0
61: 4
62: 0
63: 4
64: 0
65: 2
66: 0
67: 4
68: 0
69: 2
70: 2
71: 4
72: 0
73: 2
0: 5
1: 5
2: 5
3: 5
4: 5
5: 5
6: 5
7: 5
8: 5
9: 5
10: 5
11: 5
12: 5
13: 5
14: 5
15: 5
16: 5
17: 5
18: 5
19: 5
20: 5
21: 5
22: 5
23: 5
24: 5
25: 5
26: 5
27: 5
28: 5
29: 5
30: 5
31: 5
32: 5
33: 5
34: 5
35: 5
36: 5
37: 5
38: 5
39: 5
40: 5
41: 5
42: 5
43: 5
44: 5
45: 5
46: 5
47: 5
48: 5
49: 5
50: 5
51: 5
52: 5
53: 5
edge from: to
54: 0
55: 1
55: 4
56: 6
57: 1
57: 8
57: 9
58: 11
59: 7
59: 11
59: 12
59: 13
60: 2
60: 15
60: 18
61: 20
62: 22
62: 23
63: 3
64: 27
64: 28
65: 30
65: 31
66: 32
66: 33
67: 35
67: 36
68: 37
69: 14
69: 39
70: 39
71: 5
71: 37
71: 44
72: 16
72: 44
73: 48
1: 54
2: 54
3: 54
4: 54
5: 55
6: 55
7: 56
8: 56
9: 56
10: 57
11: 57
12: 58
13: 58
14: 59
15: 59
16: 59
17: 59
18: 59
19: 60
20: 60
21: 60
22: 61
23: 61
24: 62
25: 62
26: 62
27: 63
28: 63
29: 64
30: 64
31: 64
32: 65
33: 65
34: 66
35: 66
36: 66
37: 67
38: 67
39: 68
40: 68
41: 69
42: 70
43: 70
44: 70
45: 71
46: 71
47: 72
48: 72
49: 72
50: 72
51: 73
52: 73
53: 73
segment: [3]
vertex id: label
60: 0
61: 4
62: 2
63: 4
64: 0
65: 3
66: 1
67: 4
68: 0
69: 2
70: 3
71: 1
72: 4
73: 0
74: 2
75: 4
76: 0
77: 4
78: 1
79: 4
0: 5
1: 5
2: 5
3: 5
4: 5
5: 5
6: 5
7: 5
8: 5
9: 5
10: 5
11: 5
12: 5
13: 5
14: 5
15: 5
16: 5
17: 5
18: 5
19: 5
20: 5
21: 5
22: 5
23: 5
24: 5
25: 5
26: 5
27: 5
28: 5
29: 5
30: 5
31: 5
32: 5
33: 5
34: 5
35: 5
36: 5
37: 5
38: 5
39: 5
40: 5
41: 5
42: 5
43: 5
44: 5
45: 5
46: 5
47: 5
48: 5
49: 5
50: 5
51: 5
52: 5
53: 5
54: 5
55: 5
56: 5
57: 5
58: 5
59: 5
edge from: to
60: 0
60: 1
60: 2
61: 1
61: 4
62: 5
63: 2
63: 3
63: 4
63: 6
63: 7
64: 12
65: 13
66: 15
67: 21
68: 24
68: 25
69: 26
70: 29
70: 30
71: 33
72: 13
72: 36
73: 38
73: 39
74: 39
75: 45
76: 49
76: 51
77: 6
77: 53
78: 53
79: 56
79: 58
3: 60
4: 60
5: 61
6: 62
7: 62
8: 63
9: 63
10: 63
11: 63
12: 63
13: 64
14: 64
15: 65
16: 65
17: 66
18: 66
19: 66
20: 66
21: 66
22: 66
23: 67
24: 67
25: 67
26: 68
27: 68
28: 69
29: 69
30: 69
31: 70
32: 70
33: 70
34: 70
35: 71
36: 71
37: 71
38: 72
39: 72
40: 73
41: 73
42: 74
43: 74
44: 74
45: 74
46: 74
47: 74
48: 75
49: 75
50: 75
51: 75
52: 76
53: 76
54: 77
55: 77
56: 78
57: 78
58: 78
59: 79
segment: [4]
vertex id: label
63: 0
64: 4
65: 0
66: 2
67: 0
68: 2
69: 3
70: 1
71: 4
72: 0
73: 2
74: 3
75: 1
76: 4
77: 2
78: 4
79: 0
80: 2
81: 0
82: 2
0: 5
1: 5
2: 5
3: 5
4: 5
5: 5
6: 5
7: 5
8: 5
9: 5
10: 5
11: 5
12: 5
13: 5
14: 5
15: 5
16: 5
17: 5
18: 5
19: 5
20: 5
21: 5
22: 5
23: 5
24: 5
25: 5
26: 5
27: 5
28: 5
29: 5
30: 5
31: 5
32: 5
33: 5
34: 5
35: 5
36: 5
37: 5
38: 5
39: 5
40: 5
41: 5
42: 5
43: 5
44: 5
45: 5
46: 5
47: 5
48: 5
49: 5
50: 5
51: 5
52: 5
53: 5
54: 5
55: 5
56: 5
57: 5
58: 5
59: 5
60: 5
61: 5
62: 5
edge from: to
63: 0
63: 1
64: 6
65: 1
65: 3
66: 9
66: 10
67: 11
67: 13
68: 18
69: 18
69: 20
69: 21
70: 3
70: 26
71: 27
71: 31
71: 32
72: 32
73: 29
73: 33
73: 34
74: 13
74: 31
74: 36
75: 38
76: 15
76: 36
76: 41
76: 42
77: 16
77: 39
77: 44
78: 40
78: 45
78: 47
79: 50
80: 55
81: 56
81: 58
82: 58
2: 63
3: 63
4: 63
5: 63
6: 63
7: 64
8: 64
9: 65
10: 65
11: 66
12: 66
13: 66
14: 67
15: 67
16: 67
17: 67
18: 67
19: 67
20: 68
21: 68
22: 69
23: 69
24: 69
25: 69
26: 69
27: 70
28: 70
29: 70
30: 70
31: 70
32: 70
33: 71
34: 72
35: 73
36: 73
37: 73
38: 74
39: 74
40: 75
41: 75
42: 75
43: 75
44: 76
45: 76
46: 76
47: 77
48: 78
49: 78
50: 78
51: 78
52: 78
53: 79
54: 79
55: 79
56: 79
57: 79
58: 80
59: 81
60: 81
61: 82
62: 82
segment: [5]
vertex id: label
68: 0
69: 4
70: 2
71: 2
72: 2
73: 1
74: 4
75: 0
76: 2
77: 4
78: 0
79: 4
80: 0
81: 2
82: 1
83: 4
84: 0
85: 2
86: 1
87: 4
0: 5
1: 5
2: 5
3: 5
4: 5
5: 5
6: 5
7: 5
8: 5
9: 5
10: 5
11: 5
12: 5
13: 5
14: 5
15: 5
16: 5
17: 5
18: 5
19: 5
20: 5
21: 5
22: 5
23: 5
24: 5
25: 5
26: 5
27: 5
28: 5
29: 5
30: 5
31: 5
32: 5
33: 5
34: 5
35: 5
36: 5
37: 5
38: 5
39: 5
40: 5
41: 5
42: 5
43: 5
44: 5
45: 5
46: 5
47: 5
48: 5
49: 5
50: 5
51: 5
52: 5
53: 5
54: 5
55: 5
56: 5
57: 5
58: 5
59: 5
60: 5
61: 5
62: 5
63: 5
64: 5
65: 5
66: 5
67: 5
edge from: to
68: 0
69: 0
69: 1
70: 5
70: 6
71: 1
72: 15
73: 19
73: 21
73: 22
74: 24
75: 27
76: 26
76: 30
76: 31
77: 35
77: 36
78: 39
79: 44
79: 45
80: 16
80: 39
80: 44
81: 47
81: 49
82: 50
82: 52
83: 53
84: 55
85: 49
85: 56
85: 58
86: 59
86: 60
86: 61
87: 61
1: 68
2: 68
3: 69
4: 69
5: 69
6: 69
7: 70
8: 70
9: 70
10: 71
11: 71
12: 71
13: 71
14: 71
15: 71
16: 71
17: 72
18: 72
19: 72
20: 72
21: 72
22: 72
23: 73
24: 73
25: 73
26: 74
27: 74
28: 74
29: 75
30: 75
31: 75
32: 76
33: 76
34: 76
35: 76
36: 76
37: 77
38: 77
39: 77
40: 77
41: 78
42: 78
43: 78
44: 78
45: 78
46: 79
47: 80
48: 80
49: 80
50: 81
51: 81
52: 81
53: 82
54: 82
55: 82
56: 83
57: 83
58: 84
59: 85
60: 85
61: 85
62: 86
63: 86
64: 87
65: 87
66: 87
67: 87
segment: [6]
vertex id: label
69: 0
70: 4
71: 1
72: 4
73: 0
74: 4
75: 0
76: 4
77: 0
78: 2
79: 0
80: 2
81: 2
82: 4
83: 0
84: 4
85: 2
86: 4
87: 0
88: 4
0: 5
1: 5
2: 5
3: 5
4: 5
5: 5
6: 5
7: 5
8: 5
9: 5
10: 5
11: 5
12: 5
13: 5
14: 5
15: 5
16: 5
17: 5
18: 5
19: 5
20: 5
21: 5
22: 5
23: 5
24: 5
25: 5
26: 5
27: 5
28: 5
29: 5
30: 5
31: 5
32: 5
33: 5
34: 5
35: 5
36: 5
37: 5
38: 5
39: 5
40: 5
41: 5
42: 5
43: 5
44: 5
45: 5
46: 5
47: 5
48: 5
49: 5
50: 5
51: 5
52: 5
53: 5
54: 5
55: 5
56: 5
57: 5
58: 5
59: 5
60: 5
61: 5
62: 5
63: 5
64: 5
65: 5
66: 5
67: 5
68: 5
edge from: to
69: 0
70: 1
70: 3
71: 7
72: 9
72: 10
73: 13
74: 13
74: 14
74: 15
75: 18
75: 19
76: 19
76: 20
77: 21
77: 22
78: 23
78: 24
79: 28
80: 7
80: 28
80: 32
80: 33
81: 36
82: 14
82: 39
83: 39
84: 45
84: 47
85: 50
86: 54
86: 56
87: 58
88: 55
88: 63
88: 65
1: 69
2: 69
3: 69
4: 70
5: 70
6: 70
7: 70
8: 71
9: 71
10: 71
11: 72
12: 72
13: 72
14: 72
15: 73
16: 74
17: 74
18: 74
19: 74
20: 75
21: 76
22: 76
23: 77
24: 77
25: 78
26: 78
27: 78
28: 78
29: 78
30: 79
31: 79
32: 79
33: 79
34: 80
35: 80
36: 80
37: 80
38: 81
39: 81
40: 81
41: 82
42: 83
43: 83
44: 83
45: 83
46: 83
47: 83
48: 84
49: 84
50: 84
51: 84
52: 84
53: 85
54: 85
55: 85
56: 85
57: 86
58: 86
59: 86
60: 86
61: 87
62: 87
63: 87
64: 87
65: 87
66: 88
67: 88
68: 88
segment: [7]
vertex id: label
76: 0
77: 2
78: 2
79: 4
80: 0
81: 2
82: 0
83: 4
84: 0
85: 4
86: 1
87: 4
88: 0
89: 2
90: 1
91: 4
92: 0
93: 2
94: 0
95: 2
0: 5
1: 5
2: 5
3: 5
4: 5
5: 5
6: 5
7: 5
8: 5
9: 5
10: 5
11: 5
12: 5
13: 5
14: 5
15: 5
16: 5
17: 5
18: 5
19: 5
20: 5
21: 5
22: 5
23: 5
24: 5
25: 5
26: 5
27: 5
28: 5
29: 5
30: 5
31: 5
32: 5
33: 5
34: 5
35: 5
36: 5
37: 5
38: 5
39: 5
40: 5
41: 5
42: 5
43: 5
44: 5
45: 5
46: 5
47: 5
48: 5
49: 5
50: 5
51: 5
52: 5
53: 5
54: 5
55: 5
56: 5
57: 5
58: 5
59: 5
60: 5
61: 5
62: 5
63: 5
64: 5
65: 5
66: 5
67: 5
68: 5
69: 5
70: 5
71: 5
72: 5
73: 5
74: 5
75: 5
edge from: to
76: 0
76: 1
77: 5
78: 1
79: 11
80: 15
80: 16
81: 19
82: 3
82: 26
83: 29
84: 4
85: 38
86: 5
86: 44
87: 44
88: 16
88: 39
88: 44
88: 45
89: 6
89: 26
89: 45
89: 47
89: 48
89: 49
90: 6
90: 53
91: 54
92: 58
93: 64
94: 58
94: 67
94: 69
95: 8
95: 71
2: 76
3: 76
4: 76
5: 76
6: 77
7: 77
8: 77
9: 77
10: 78
11: 78
12: 79
13: 79
14: 79
15: 79
16: 79
17: 80
18: 80
19: 80
20: 80
21: 81
22: 81
23: 81
24: 81
25: 81
26: 81
27: 82
28: 82
29: 82
30: 82
31: 83
32: 83
33: 83
34: 83
35: 83
36: 84
37: 84
38: 84
39: 84
40: 85
41: 85
42: 85
43: 85
44: 85
45: 86
46: 87
47: 88
48: 88
49: 88
50: 89
51: 89
52: 89
53: 89
54: 90
55: 90
56: 90
57: 91
58: 91
59: 91
60: 91
61: 92
62: 92
63: 92
64: 92
65: 92
66: 92
67: 93
68: 93
69: 93
70: 94
71: 94
72: 95
73: 95
74: 95
75: 95
segment: [8]
vertex id: label
61: 0
62: 2
63: 1
64: 3
65: 4
66: 0
67: 2
68: 3
69: 1
70: 4
71: 0
72: 4
73: 0
74: 2
75: 2
76: 4
77: 0
78: 2
79: 2
80: 3
0: 5
1: 5
2: 5
3: 5
4: 5
5: 5
6: 5
7: 5
8: 5
9: 5
10: 5
11: 5
12: 5
13: 5
14: 5
15: 5
16: 5
17: 5
18: 5
19: 5
20: 5
21: 5
22: 5
23: 5
24: 5
25: 5
26: 5
27: 5
28: 5
29: 5
30: 5
31: 5
32: 5
33: 5
34: 5
35: 5
36: 5
37: 5
38: 5
39: 5
40: 5
41: 5
42: 5
43: 5
44: 5
45: 5
46: 5
47: 5
48: 5
49: 5
50: 5
51: 5
52: 5
53: 5
54: 5
55: 5
56: 5
57: 5
58: 5
59: 5
60: 5
edge from: to
61: 0
61: 1
62: 5
63: 1
63: 3
64: 11
65: 5
65: 13
66: 2
66: 18
67: 18
67: 19
68: 23
69: 29
69: 30
70: 32
70: 33
71: 35
71: 36
72: 37
73: 39
74: 44
74: 45
75: 16
75: 44
76: 44
76: 46
76: 47
76: 48
77: 49
77: 51
78: 53
78: 55
79: 54
79: 56
80: 56
2: 61
3: 61
4: 61
5: 61
6: 62
7: 62
8: 62
9: 63
10: 63
11: 63
12: 64
13: 64
14: 64
15: 65
16: 65
17: 65
18: 65
19: 66
20: 67
21: 67
22: 67
23: 67
24: 67
25: 68
26: 68
27: 68
28: 68
29: 68
30: 68
31: 69
32: 69
33: 69
34: 70
35: 70
36: 70
37: 71
38: 71
39: 72
40: 72
41: 72
42: 73
43: 73
44: 73
45: 73
46: 74
47: 75
48: 75
49: 76
50: 76
51: 76
52: 77
53: 77
54: 77
55: 77
56: 78
57: 79
58: 79
59: 80
60: 80
segment: [9]
vertex id: label
58: 0
59: 4
60: 0
61: 2
62: 3
63: 0
64: 2
65: 0
66: 4
67: 0
68: 2
69: 3
70: 1
71: 4
72: 0
73: 2
74: 2
75: 4
76: 0
77: 4
0: 5
1: 5
2: 5
3: 5
4: 5
5: 5
6: 5
7: 5
8: 5
9: 5
10: 5
11: 5
12: 5
13: 5
14: 5
15: 5
16: 5
17: 5
18: 5
19: 5
20: 5
21: 5
22: 5
23: 5
24: 5
25: 5
26: 5
27: 5
28: 5
29: 5
30: 5
31: 5
32: 5
33: 5
34: 5
35: 5
36: 5
37: 5
38: 5
39: 5
40: 5
41: 5
42: 5
43: 5
44: 5
45: 5
46: 5
47: 5
48: 5
49: 5
50: 5
51: 5
52: 5
53: 5
54: 5
55: 5
56: 5
57: 5
edge from: to
58: 0
59: 5
60: 1
60: 3
61: 8
61: 9
61: 10
62: 12
63: 15
63: 16
64: 2
65: 18
66: 21
66: 22
67: 3
67: 22
67: 26
68: 27
68: 28
69: 31
70: 4
70: 35
71: 13
71: 31
71: 36
72: 38
73: 40
74: 5
74: 44
75: 44
76: 46
76: 48
77: 6
1: 58
2: 58
3: 58
4: 58
5: 58
6: 59
7: 59
8: 59
9: 60
10: 60
11: 61
12: 61
13: 62
14: 62
15: 62
16: 62
17: 63
18: 63
19: 64
20: 65
21: 65
22: 65
23: 66
24: 66
25: 66
26: 66
27: 67
28: 67
29: 68
30: 68
31: 68
32: 68
33: 69
34: 69
35: 69
36: 70
37: 70
38: 71
39: 71
40: 72
41: 72
42: 72
43: 73
44: 73
45: 74
46: 75
47: 75
48: 75
49: 76
50: 76
51: 76
52: 76
53: 76
54: 77
55: 77
56: 77
57: 77
