segment: [0]
vertex id: label
56: 0
57: 3
58: 0
59: 3
60: 0
61: 3
62: 0
63: 3
64: 0
65: 3
66: 3
67: 2
68: 0
69: 3
70: 0
71: 3
72: 0
73: 3
74: 0
75: 3
0: 5
1: 5
2: 5
3: 5
4: 5
5: 5
6: 5
7: 5
8: 5
9: 5
10: 5
11: 5
12: 5
13: 5
14: 5
15: 5
16: 5
17: 5
18: 5
19: 5
20: 5
21: 5
22: 5
23: 5
24: 5
25: 5
26: 5
27: 5
28: 5
29: 5
30: 5
31: 5
32: 5
33: 5
34: 5
35: 5
36: 5
37: 5
38: 5
39: 5
40: 5
41: 5
42: 5
43: 5
44: 5
45: 5
46: 5
47: 5
48: 5
49: 5
50: 5
51: 5
52: 5
53: 5
54: 5
55: 5
edge from: to
56: 0
56: 1
57: 4
58: 1
58: 2
58: 6
59: 2
59: 11
60: 4
60: 13
61: 6
61: 14
62: 3
62: 14
62: 15
63: 17
64: 18
65: 22
66: 13
66: 25
66: 26
67: 29
68: 10
69: 36
70: 36
70: 37
70: 38
71: 38
71: 39
72: 43
73: 19
73: 44
73: 45
74: 49
75: 51
75: 52
2: 56
3: 56
4: 56
5: 57
6: 57
7: 58
8: 58
9: 58
10: 58
11: 58
12: 59
13: 59
14: 60
15: 61
16: 62
17: 62
18: 63
19: 64
20: 64
21: 64
22: 64
23: 65
24: 65
25: 65
26: 65
27: 66
28: 66
29: 66
30: 67
31: 67
32: 67
33: 67
34: 68
35: 68
36: 68
37: 69
38: 69
39: 70
40: 71
41: 71
42: 71
43: 71
44: 72
45: 72
46: 73
47: 73
48: 73
49: 73
50: 74
51: 74
52: 74
53: 75
54: 75
55: 75
segment: [1]
vertex id: label
67: 0
68: 3
69: 0
70: 3
71: 0
72: 3
73: 0
74: 3
75: 0
76: 1
77: 2
78: 4
79: 2
80: 0
81: 3
82: 0
83: 3
84: 3
85: 0
86: 3
0: 5
1: 5
2: 5
3: 5
4: 5
5: 5
6: 5
7: 5
8: 5
9: 5
10: 5
11: 5
12: 5
13: 5
14: 5
15: 5
16: 5
17: 5
18: 5
19: 5
20: 5
21: 5
22: 5
23: 5
24: 5
25: 5
26: 5
27: 5
28: 5
29: 5
30: 5
31: 5
32: 5
33: 5
34: 5
35: 5
36: 5
37: 5
38: 5
39: 5
40: 5
41: 5
42: 5
43: 5
44: 5
45: 5
46: 5
47: 5
48: 5
49: 5
50: 5
51: 5
52: 5
53: 5
54: 5
55: 5
56: 5
57: 5
58: 5
59: 5
60: 5
61: 5
62: 5
63: 5
64: 5
65: 5
66: 5
edge from: to
67: 0
68: 2
69: 3
69: 7
70: 3
70: 6
70: 11
70: 12
71: 4
71: 13
72: 5
73: 17
74: 9
74: 17
74: 18
75: 9
75: 20
75: 21
76: 24
76: 25
77: 31
77: 32
78: 37
78: 38
79: 41
80: 43
80: 44
81: 44
81: 45
82: 48
82: 49
83: 9
83: 50
83: 51
84: 17
84: 24
84: 56
85: 60
85: 61
86: 62
1: 67
2: 67
3: 68
4: 68
5: 68
6: 68
7: 68
8: 69
9: 69
10: 69
11: 69
12: 69
13: 70
14: 71
15: 71
16: 71
17: 72
18: 73
19: 74
20: 74
21: 74
22: 75
23: 75
24: 75
25: 75
26: 76
27: 76
28: 76
29: 76
30: 76
31: 76
32: 76
33: 77
34: 77
35: 77
36: 77
37: 77
38: 77
39: 78
40: 78
41: 78
42: 79
43: 79
44: 79
45: 80
46: 81
47: 81
48: 81
49: 81
50: 82
51: 82
52: 83
53: 83
54: 83
55: 83
56: 83
57: 83
58: 84
59: 84
60: 84
61: 84
62: 85
63: 85
64: 86
65: 86
66: 86
segment: [2]
vertex id: label
58: 0
59: 3
60: 0
61: 3
62: 0
63: 3
64: 0
65: 1
66: 2
67: 4
68: 4
69: 2
70: 0
71: 1
72: 2
73: 4
74: 4
75: 4
76: 4
77: 2
0: 5
1: 5
2: 5
3: 5
4: 5
5: 5
6: 5
7: 5
8: 5
9: 5
10: 5
11: 5
12: 5
13: 5
14: 5
15: 5
16: 5
17: 5
18: 5
19: 5
20: 5
21: 5
22: 5
23: 5
24: 5
25: 5
26: 5
27: 5
28: 5
29: 5
30: 5
31: 5
32: 5
33: 5
34: 5
35: 5
36: 5
37: 5
38: 5
39: 5
40: 5
41: 5
42: 5
43: 5
44: 5
45: 5
46: 5
47: 5
48: 5
49: 5
50: 5
51: 5
52: 5
53: 5
54: 5
55: 5
56: 5
57: 5
edge from: to
58: 0
59: 2
59: 4
60: 5
61: 8
62: 3
63: 6
63: 11
63: 12
64: 3
64: 5
64: 16
65: 23
65: 24
66: 13
66: 24
66: 25
66: 26
67: 5
67: 28
68: 31
69: 10
69: 32
70: 33
70: 34
70: 35
71: 23
71: 32
71: 33
71: 34
71: 35
71: 36
71: 37
72: 37
72: 38
72: 39
73: 42
73: 43
74: 44
74: 45
75: 15
75: 49
76: 53
76: 54
77: 54
77: 55
1: 58
2: 58
3: 58
4: 58
5: 59
6: 60
7: 60
8: 60
9: 61
10: 61
11: 62
12: 62
13: 63
14: 63
15: 63
16: 63
17: 64
18: 64
19: 64
20: 64
21: 64
22: 64
23: 64
24: 64
25: 65
26: 65
27: 66
28: 66
29: 67
30: 67
31: 67
32: 68
33: 68
34: 69
35: 69
36: 70
37: 70
38: 71
39: 71
40: 72
41: 72
42: 72
43: 72
44: 73
45: 73
46: 74
47: 74
48: 74
49: 74
50: 74
51: 75
52: 75
53: 75
54: 75
55: 76
56: 77
57: 77
segment: [3]
vertex id: label
64: 0
65: 3
66: 0
67: 3
68: 3
69: 0
70: 3
71: 0
72: 3
73: 0
74: 3
75: 0
76: 3
77: 0
78: 3
79: 0
80: 3
81: 0
82: 3
83: 0
0: 5
1: 5
2: 5
3: 5
4: 5
5: 5
6: 5
7: 5
8: 5
9: 5
10: 5
11: 5
12: 5
13: 5
14: 5
15: 5
16: 5
17: 5
18: 5
19: 5
20: 5
21: 5
22: 5
23: 5
24: 5
25: 5
26: 5
27: 5
28: 5
29: 5
30: 5
31: 5
32: 5
33: 5
34: 5
35: 5
36: 5
37: 5
38: 5
39: 5
40: 5
41: 5
42: 5
43: 5
44: 5
45: 5
46: 5
47: 5
48: 5
49: 5
50: 5
51: 5
52: 5
53: 5
54: 5
55: 5
56: 5
57: 5
58: 5
59: 5
60: 5
61: 5
62: 5
63: 5
edge from: to
64: 0
64: 1
64: 2
64: 3
64: 4
65: 8
66: 3
66: 5
66: 10
67: 4
67: 13
68: 5
69: 21
70: 23
70: 24
71: 5
71: 28
72: 32
73: 35
74: 36
74: 37
75: 42
76: 8
76: 42
76: 43
76: 44
77: 44
77: 46
77: 47
78: 15
79: 53
80: 55
81: 17
81: 56
82: 58
82: 59
83: 59
83: 60
5: 64
6: 64
7: 64
8: 64
9: 65
10: 65
11: 66
12: 66
13: 66
14: 67
15: 67
16: 67
17: 68
18: 68
19: 68
20: 68
21: 68
22: 69
23: 69
24: 69
25: 70
26: 70
27: 70
28: 70
29: 71
30: 71
31: 71
32: 71
33: 72
34: 72
35: 72
36: 73
37: 73
38: 74
39: 74
40: 74
41: 74
42: 74
43: 75
44: 75
45: 76
46: 76
47: 76
48: 77
49: 77
50: 77
51: 78
52: 78
53: 78
54: 79
55: 79
56: 80
57: 80
58: 81
59: 81
60: 82
61: 83
62: 83
63: 83
segment: [4]
vertex id: label
64: 0
65: 1
66: 2
67: 4
68: 4
69: 4
70: 4
71: 2
72: 0
73: 1
74: 2
75: 0
76: 3
77: 0
78: 0
79: 3
80: 0
81: 3
82: 2
83: 4
0: 5
1: 5
2: 5
3: 5
4: 5
5: 5
6: 5
7: 5
8: 5
9: 5
10: 5
11: 5
12: 5
13: 5
14: 5
15: 5
16: 5
17: 5
18: 5
19: 5
20: 5
21: 5
22: 5
23: 5
24: 5
25: 5
26: 5
27: 5
28: 5
29: 5
30: 5
31: 5
32: 5
33: 5
34: 5
35: 5
36: 5
37: 5
38: 5
39: 5
40: 5
41: 5
42: 5
43: 5
44: 5
45: 5
46: 5
47: 5
48: 5
49: 5
50: 5
51: 5
52: 5
53: 5
54: 5
55: 5
56: 5
57: 5
58: 5
59: 5
60: 5
61: 5
62: 5
63: 5
edge from: to
64: 0
64: 1
65: 1
65: 2
66: 2
67: 2
67: 4
67: 8
68: 3
69: 5
69: 16
70: 20
71: 23
71: 24
72: 22
72: 24
72: 25
73: 5
73: 27
73: 28
74: 31
75: 6
75: 34
76: 38
77: 12
78: 42
79: 47
80: 49
81: 53
81: 54
82: 55
82: 56
83: 58
83: 59
2: 64
3: 65
4: 65
5: 65
6: 65
7: 66
8: 66
9: 67
10: 67
11: 68
12: 68
13: 68
14: 68
15: 68
16: 68
17: 69
18: 69
19: 69
20: 69
21: 70
22: 70
23: 70
24: 70
25: 71
26: 72
27: 72
28: 72
29: 73
30: 73
31: 73
32: 74
33: 74
34: 74
35: 75
36: 75
37: 75
38: 75
39: 76
40: 76
41: 77
42: 77
43: 78
44: 78
45: 78
46: 78
47: 78
48: 79
49: 79
50: 80
51: 80
52: 80
53: 80
54: 80
55: 81
56: 81
57: 82
58: 82
59: 82
60: 83
61: 83
62: 83
63: 83
segment: [5]
vertex id: label
65: 0
66: 3
67: 0
68: 3
69: 0
70: 3
71: 0
72: 3
73: 1
74: 2
75: 4
76: 4
77: 4
78: 3
79: 2
80: 0
81: 3
82: 3
83: 2
84: 0
0: 5
1: 5
2: 5
3: 5
4: 5
5: 5
6: 5
7: 5
8: 5
9: 5
10: 5
11: 5
12: 5
13: 5
14: 5
15: 5
16: 5
17: 5
18: 5
19: 5
20: 5
21: 5
22: 5
23: 5
24: 5
25: 5
26: 5
27: 5
28: 5
29: 5
30: 5
31: 5
32: 5
33: 5
34: 5
35: 5
36: 5
37: 5
38: 5
39: 5
40: 5
41: 5
42: 5
43: 5
44: 5
45: 5
46: 5
47: 5
48: 5
49: 5
50: 5
51: 5
52: 5
53: 5
54: 5
55: 5
56: 5
57: 5
58: 5
59: 5
60: 5
61: 5
62: 5
63: 5
64: 5
edge from: to
65: 0
65: 1
66: 3
66: 7
67: 3
67: 10
68: 4
68: 12
68: 13
69: 15
70: 12
70: 17
70: 18
70: 19
71: 24
71: 25
72: 5
72: 28
73: 10
73: 32
74: 6
74: 34
75: 37
76: 12
76: 39
77: 42
78: 43
78: 45
78: 46
79: 47
79: 48
80: 15
80: 49
81: 51
81: 53
81: 54
82: 10
82: 27
82: 54
82: 55
83: 17
84: 60
84: 61
2: 65
3: 65
4: 65
5: 65
6: 65
7: 65
8: 66
9: 66
10: 66
11: 67
12: 67
13: 67
14: 68
15: 68
16: 69
17: 69
18: 69
19: 69
20: 70
21: 70
22: 70
23: 70
24: 70
25: 70
26: 71
27: 71
28: 71
29: 72
30: 72
31: 72
32: 72
33: 72
34: 73
35: 74
36: 74
37: 74
38: 75
39: 75
40: 75
41: 76
42: 76
43: 77
44: 77
45: 77
46: 77
47: 78
48: 78
49: 79
50: 79
51: 80
52: 80
53: 80
54: 80
55: 81
56: 82
57: 82
58: 83
59: 83
60: 83
61: 83
62: 84
63: 84
64: 84
segment: [6]
vertex id: label
72: 0
73: 3
74: 0
75: 3
76: 2
77: 0
78: 3
79: 0
80: 3
81: 0
82: 3
83: 0
84: 3
85: 3
86: 0
87: 3
88: 0
89: 3
90: 0
91: 3
0: 5
1: 5
2: 5
3: 5
4: 5
5: 5
6: 5
7: 5
8: 5
9: 5
10: 5
11: 5
12: 5
13: 5
14: 5
15: 5
16: 5
17: 5
18: 5
19: 5
20: 5
21: 5
22: 5
23: 5
24: 5
25: 5
26: 5
27: 5
28: 5
29: 5
30: 5
31: 5
32: 5
33: 5
34: 5
35: 5
36: 5
37: 5
38: 5
39: 5
40: 5
41: 5
42: 5
43: 5
44: 5
45: 5
46: 5
47: 5
48: 5
49: 5
50: 5
51: 5
52: 5
53: 5
54: 5
55: 5
56: 5
57: 5
58: 5
59: 5
60: 5
61: 5
62: 5
63: 5
64: 5
65: 5
66: 5
67: 5
68: 5
69: 5
70: 5
71: 5
edge from: to
72: 0
72: 1
73: 7
74: 4
74: 9
75: 11
76: 4
76: 13
77: 20
78: 5
78: 27
78: 28
79: 31
79: 32
80: 34
81: 37
81: 38
82: 38
82: 39
82: 40
82: 41
83: 43
83: 44
84: 46
85: 44
85: 46
85: 47
86: 46
86: 48
86: 49
87: 51
87: 53
87: 55
87: 56
88: 59
89: 62
89: 63
90: 13
90: 62
90: 64
90: 65
91: 29
91: 68
91: 69
2: 72
3: 72
4: 72
5: 72
6: 72
7: 72
8: 73
9: 73
10: 74
11: 74
12: 75
13: 75
14: 76
15: 76
16: 76
17: 76
18: 76
19: 76
20: 76
21: 77
22: 77
23: 77
24: 77
25: 77
26: 77
27: 77
28: 77
29: 78
30: 78
31: 78
32: 78
33: 79
34: 79
35: 80
36: 80
37: 80
38: 80
39: 81
40: 81
41: 81
42: 82
43: 82
44: 82
45: 83
46: 83
47: 84
48: 85
49: 85
50: 86
51: 86
52: 86
53: 86
54: 86
55: 86
56: 86
57: 87
58: 87
59: 87
60: 88
61: 88
62: 88
63: 88
64: 89
65: 89
66: 90
67: 90
68: 90
69: 90
70: 91
71: 91
segment: [7]
vertex id: label
56: 0
57: 3
58: 0
59: 3
60: 0
61: 3
62: 0
63: 3
64: 0
65: 3
66: 4
67: 4
68: 4
69: 3
70: 0
71: 3
72: 3
73: 0
74: 3
75: 0
0: 5
1: 5
2: 5
3: 5
4: 5
5: 5
6: 5
7: 5
8: 5
9: 5
10: 5
11: 5
12: 5
13: 5
14: 5
15: 5
16: 5
17: 5
18: 5
19: 5
20: 5
21: 5
22: 5
23: 5
24: 5
25: 5
26: 5
27: 5
28: 5
29: 5
30: 5
31: 5
32: 5
33: 5
34: 5
35: 5
36: 5
37: 5
38: 5
39: 5
40: 5
41: 5
42: 5
43: 5
44: 5
45: 5
46: 5
47: 5
48: 5
49: 5
50: 5
51: 5
52: 5
53: 5
54: 5
55: 5
edge from: to
56: 0
56: 1
57: 1
57: 4
57: 5
58: 8
59: 12
60: 3
60: 13
60: 14
60: 15
61: 19
62: 4
62: 21
62: 22
63: 26
64: 26
64: 27
65: 28
65: 29
66: 30
66: 31
67: 6
67: 33
67: 34
68: 36
69: 38
70: 40
70: 41
71: 43
71: 44
72: 46
73: 48
74: 15
74: 49
74: 50
75: 52
2: 56
3: 56
4: 56
5: 56
6: 57
7: 57
8: 57
9: 58
10: 58
11: 58
12: 58
13: 59
14: 59
15: 59
16: 60
17: 60
18: 60
19: 60
20: 61
21: 61
22: 61
23: 62
24: 62
25: 62
26: 62
27: 63
28: 64
29: 64
30: 65
31: 65
32: 66
33: 66
34: 66
35: 67
36: 67
37: 68
38: 68
39: 69
40: 69
41: 69
42: 70
43: 70
44: 70
45: 71
46: 71
47: 72
48: 72
49: 73
50: 73
51: 74
52: 74
53: 75
54: 75
55: 75
segment: [8]
vertex id: label
65: 0
66: 3
67: 0
68: 1
69: 2
70: 0
71: 1
72: 2
73: 0
74: 3
75: 0
76: 3
77: 0
78: 3
79: 0
80: 3
81: 0
82: 3
83: 0
84: 3
0: 5
1: 5
2: 5
3: 5
4: 5
5: 5
6: 5
7: 5
8: 5
9: 5
10: 5
11: 5
12: 5
13: 5
14: 5
15: 5
16: 5
17: 5
18: 5
19: 5
20: 5
21: 5
22: 5
23: 5
24: 5
25: 5
26: 5
27: 5
28: 5
29: 5
30: 5
31: 5
32: 5
33: 5
34: 5
35: 5
36: 5
37: 5
38: 5
39: 5
40: 5
41: 5
42: 5
43: 5
44: 5
45: 5
46: 5
47: 5
48: 5
49: 5
50: 5
51: 5
52: 5
53: 5
54: 5
55: 5
56: 5
57: 5
58: 5
59: 5
60: 5
61: 5
62: 5
63: 5
64: 5
edge from: to
65: 0
65: 1
65: 2
66: 2
67: 9
68: 11
69: 4
70: 6
70: 7
70: 14
71: 9
71: 18
72: 4
72: 21
72: 22
73: 24
73: 25
74: 29
75: 35
75: 36
76: 36
76: 37
76: 38
77: 39
78: 40
78: 41
79: 8
79: 43
79: 44
80: 45
80: 46
81: 51
82: 50
82: 52
82: 53
83: 59
84: 61
84: 62
3: 65
4: 65
5: 65
6: 65
7: 66
8: 66
9: 66
10: 67
11: 67
12: 68
13: 68
14: 69
15: 70
16: 70
17: 70
18: 70
19: 71
20: 71
21: 71
22: 71
23: 72
24: 72
25: 72
26: 73
27: 73
28: 73
29: 73
30: 74
31: 74
32: 74
33: 74
34: 74
35: 74
36: 74
37: 75
38: 75
39: 76
40: 77
41: 77
42: 78
43: 78
44: 78
45: 79
46: 79
47: 80
48: 80
49: 80
50: 80
51: 80
52: 81
53: 81
54: 82
55: 82
56: 82
57: 82
58: 82
59: 82
60: 83
61: 83
62: 83
63: 84
64: 84
segment: [9]
vertex id: label
65: 0
66: 3
67: 0
68: 3
69: 0
70: 3
71: 0
72: 3
73: 0
74: 3
75: 2
76: 0
77: 3
78: 3
79: 0
80: 3
81: 2
82: 0
83: 3
84: 2
0: 5
1: 5
2: 5
3: 5
4: 5
5: 5
6: 5
7: 5
8: 5
9: 5
10: 5
11: 5
12: 5
13: 5
14: 5
15: 5
16: 5
17: 5
18: 5
19: 5
20: 5
21: 5
22: 5
23: 5
24: 5
25: 5
26: 5
27: 5
28: 5
29: 5
30: 5
31: 5
32: 5
33: 5
34: 5
35: 5
36: 5
37: 5
38: 5
39: 5
40: 5
41: 5
42: 5
43: 5
44: 5
45: 5
46: 5
47: 5
48: 5
49: 5
50: 5
51: 5
52: 5
53: 5
54: 5
55: 5
56: 5
57: 5
58: 5
59: 5
60: 5
61: 5
62: 5
63: 5
64: 5
edge from: to
65: 0
65: 1
65: 2
66: 2
67: 8
68: 12
69: 4
69: 13
70: 3
70: 15
71: 9
71: 18
72: 5
72: 10
72: 19
72: 20
73: 6
73: 12
73: 23
73: 24
74: 26
75: 6
75: 33
75: 34
76: 34
76: 35
76: 36
77: 36
77: 37
77: 38
78: 39
78: 40
78: 41
79: 44
79: 46
79: 47
80: 49
81: 52
82: 55
83: 58
83: 59
84: 61
84: 62
3: 65
4: 65
5: 65
6: 65
7: 66
8: 66
9: 67
10: 67
11: 67
12: 67
13: 68
14: 69
15: 69
16: 70
17: 70
18: 70
19: 71
20: 71
21: 72
22: 72
23: 72
24: 72
25: 73
26: 73
27: 74
28: 74
29: 74
30: 74
31: 74
32: 74
33: 74
34: 74
35: 75
36: 75
37: 76
38: 76
39: 77
40: 77
41: 77
42: 78
43: 78
44: 78
45: 78
46: 78
47: 78
48: 79
49: 79
50: 80
51: 80
52: 80
53: 81
54: 81
55: 81
56: 82
57: 82
58: 82
59: 82
60: 83
61: 83
62: 83
63: 84
64: 84
