segment: [0]
vertex id: label
32: 0
33: 4
34: 0
35: 4
36: 0
37: 4
38: 0
39: 4
40: 0
41: 4
0: 5
1: 5
2: 5
3: 5
4: 5
5: 5
6: 5
7: 5
8: 5
9: 5
10: 5
11: 5
12: 5
13: 5
14: 5
15: 5
16: 5
17: 5
18: 5
19: 5
20: 5
21: 5
22: 5
23: 5
24: 5
25: 5
26: 5
27: 5
28: 5
29: 5
30: 5
31: 5
edge from: to
32: 0
33: 2
33: 3
34: 10
34: 11
35: 3
36: 17
37: 19
37: 20
38: 12
38: 21
39: 21
39: 22
40: 23
41: 24
41: 25
41: 26
1: 32
2: 32
3: 32
4: 33
5: 33
6: 33
7: 33
8: 33
9: 33
10: 33
11: 33
12: 34
13: 34
14: 34
15: 35
16: 35
17: 35
18: 36
19: 36
20: 36
21: 37
22: 38
23: 39
24: 40
25: 40
26: 40
27: 41
28: 41
29: 41
30: 41
31: 41
segment: [1]
vertex id: label
30: 0
31: 4
32: 0
33: 4
34: 0
35: 4
36: 0
37: 4
38: 0
39: 4
0: 5
1: 5
2: 5
3: 5
4: 5
5: 5
6: 5
7: 5
8: 5
9: 5
10: 5
11: 5
12: 5
13: 5
14: 5
15: 5
16: 5
17: 5
18: 5
19: 5
20: 5
21: 5
22: 5
23: 5
24: 5
25: 5
26: 5
27: 5
28: 5
29: 5
edge from: to
30: 0
30: 1
31: 2
31: 3
32: 1
33: 10
33: 11
34: 15
35: 17
36: 4
37: 23
38: 25
39: 24
39: 25
39: 26
39: 27
2: 30
3: 30
4: 31
5: 31
6: 32
7: 32
8: 32
9: 32
10: 32
11: 32
12: 33
13: 33
14: 33
15: 33
16: 34
17: 34
18: 35
19: 35
20: 36
21: 36
22: 36
23: 36
24: 37
25: 37
26: 38
27: 38
28: 39
29: 39
segment: [2]
vertex id: label
27: 0
28: 4
29: 0
30: 4
31: 0
32: 4
33: 0
34: 4
35: 0
36: 4
0: 5
1: 5
2: 5
3: 5
4: 5
5: 5
6: 5
7: 5
8: 5
9: 5
10: 5
11: 5
12: 5
13: 5
14: 5
15: 5
16: 5
17: 5
18: 5
19: 5
20: 5
21: 5
22: 5
23: 5
24: 5
25: 5
26: 5
edge from: to
27: 0
28: 1
28: 3
28: 4
29: 1
29: 2
29: 5
29: 6
30: 6
30: 7
30: 8
31: 11
32: 10
32: 12
32: 13
33: 1
33: 14
33: 15
34: 20
35: 21
36: 13
36: 23
1: 27
2: 27
3: 27
4: 27
5: 28
6: 28
7: 29
8: 29
9: 30
10: 30
11: 30
12: 31
13: 31
14: 32
15: 32
16: 33
17: 33
18: 33
19: 33
20: 33
21: 34
22: 35
23: 35
24: 36
25: 36
26: 36
segment: [3]
vertex id: label
31: 0
32: 4
33: 0
34: 4
35: 0
36: 4
37: 0
38: 4
39: 0
40: 4
0: 5
1: 5
2: 5
3: 5
4: 5
5: 5
6: 5
7: 5
8: 5
9: 5
10: 5
11: 5
12: 5
13: 5
14: 5
15: 5
16: 5
17: 5
18: 5
19: 5
20: 5
21: 5
22: 5
23: 5
24: 5
25: 5
26: 5
27: 5
28: 5
29: 5
30: 5
edge from: to
31: 0
31: 1
32: 0
32: 2
32: 3
33: 5
33: 6
34: 2
34: 9
35: 3
35: 8
36: 15
37: 16
37: 17
37: 18
38: 20
39: 12
39: 21
40: 26
40: 27
2: 31
3: 31
4: 32
5: 32
6: 32
7: 33
8: 33
9: 33
10: 34
11: 34
12: 34
13: 34
14: 34
15: 35
16: 36
17: 36
18: 36
19: 37
20: 37
21: 38
22: 39
23: 39
24: 39
25: 39
26: 39
27: 39
28: 40
29: 40
30: 40
segment: [4]
vertex id: label
32: 0
33: 4
34: 0
35: 4
36: 0
37: 4
38: 0
39: 4
40: 0
41: 4
0: 5
1: 5
2: 5
3: 5
4: 5
5: 5
6: 5
7: 5
8: 5
9: 5
10: 5
11: 5
12: 5
13: 5
14: 5
15: 5
16: 5
17: 5
18: 5
19: 5
20: 5
21: 5
22: 5
23: 5
24: 5
25: 5
26: 5
27: 5
28: 5
29: 5
30: 5
31: 5
edge from: to
32: 0
32: 1
33: 1
33: 2
34: 0
34: 2
34: 3
35: 5
35: 6
36: 10
36: 11
37: 7
37: 12
38: 1
38: 9
38: 16
39: 18
40: 5
40: 23
40: 24
41: 26
2: 32
3: 33
4: 34
5: 34
6: 34
7: 35
8: 35
9: 35
10: 35
11: 35
12: 36
13: 37
14: 37
15: 37
16: 37
17: 38
18: 38
19: 39
20: 39
21: 39
22: 39
23: 39
24: 39
25: 40
26: 40
27: 41
28: 41
29: 41
30: 41
31: 41
segment: [5]
vertex id: label
34: 0
35: 4
36: 0
37: 4
38: 0
39: 4
40: 0
41: 4
42: 0
43: 4
0: 5
1: 5
2: 5
3: 5
4: 5
5: 5
6: 5
7: 5
8: 5
9: 5
10: 5
11: 5
12: 5
13: 5
14: 5
15: 5
16: 5
17: 5
18: 5
19: 5
20: 5
21: 5
22: 5
23: 5
24: 5
25: 5
26: 5
27: 5
28: 5
29: 5
30: 5
31: 5
32: 5
33: 5
edge from: to
34: 0
35: 1
35: 4
36: 4
36: 7
37: 6
37: 10
38: 15
38: 16
38: 17
39: 4
39: 18
39: 19
40: 25
41: 26
42: 27
42: 28
43: 17
43: 29
1: 34
2: 34
3: 34
4: 34
5: 35
6: 35
7: 35
8: 36
9: 36
10: 36
11: 37
12: 37
13: 37
14: 37
15: 37
16: 37
17: 37
18: 38
19: 38
20: 39
21: 39
22: 39
23: 39
24: 39
25: 39
26: 40
27: 41
28: 41
29: 42
30: 42
31: 43
32: 43
33: 43
segment: [6]
vertex id: label
25: 0
26: 4
27: 0
28: 4
29: 0
30: 4
31: 0
32: 4
33: 0
34: 4
0: 5
1: 5
2: 5
3: 5
4: 5
5: 5
6: 5
7: 5
8: 5
9: 5
10: 5
11: 5
12: 5
13: 5
14: 5
15: 5
16: 5
17: 5
18: 5
19: 5
20: 5
21: 5
22: 5
23: 5
24: 5
edge from: to
25: 0
26: 0
26: 1
27: 2
27: 3
28: 7
28: 8
29: 2
29: 7
29: 8
29: 9
30: 10
30: 11
31: 12
32: 9
32: 16
33: 18
34: 21
1: 25
2: 26
3: 26
4: 27
5: 27
6: 27
7: 27
8: 27
9: 28
10: 29
11: 29
12: 30
13: 31
14: 31
15: 31
16: 31
17: 32
18: 32
19: 33
20: 33
21: 33
22: 34
23: 34
24: 34
segment: [7]
vertex id: label
38: 0
39: 4
40: 0
41: 4
42: 0
43: 4
44: 0
45: 4
46: 0
47: 4
0: 5
1: 5
2: 5
3: 5
4: 5
5: 5
6: 5
7: 5
8: 5
9: 5
10: 5
11: 5
12: 5
13: 5
14: 5
15: 5
16: 5
17: 5
18: 5
19: 5
20: 5
21: 5
22: 5
23: 5
24: 5
25: 5
26: 5
27: 5
28: 5
29: 5
30: 5
31: 5
32: 5
33: 5
34: 5
35: 5
36: 5
37: 5
edge from: to
38: 0
38: 1
38: 2
39: 1
39: 4
40: 7
40: 8
41: 7
41: 12
42: 17
43: 13
43: 22
43: 23
44: 24
44: 25
45: 26
45: 27
45: 28
46: 2
46: 17
46: 29
47: 32
47: 33
3: 38
4: 38
5: 39
6: 39
7: 39
8: 39
9: 40
10: 40
11: 40
12: 40
13: 41
14: 41
15: 41
16: 41
17: 41
18: 42
19: 42
20: 42
21: 42
22: 42
23: 42
24: 43
25: 43
26: 44
27: 44
28: 44
29: 45
30: 45
31: 46
32: 46
33: 46
34: 47
35: 47
36: 47
37: 47
segment: [8]
vertex id: label
40: 0
41: 4
42: 0
43: 4
44: 0
45: 4
46: 0
47: 4
48: 0
49: 4
0: 5
1: 5
2: 5
3: 5
4: 5
5: 5
6: 5
7: 5
8: 5
9: 5
10: 5
11: 5
12: 5
13: 5
14: 5
15: 5
16: 5
17: 5
18: 5
19: 5
20: 5
21: 5
22: 5
23: 5
24: 5
25: 5
26: 5
27: 5
28: 5
29: 5
30: 5
31: 5
32: 5
33: 5
34: 5
35: 5
36: 5
37: 5
38: 5
39: 5
edge from: to
40: 0
41: 1
41: 4
42: 6
42: 9
42: 10
43: 13
44: 16
44: 17
45: 21
46: 13
46: 23
47: 26
47: 27
48: 28
48: 29
48: 30
48: 31
49: 35
49: 36
49: 37
1: 40
2: 40
3: 40
4: 40
5: 41
6: 41
7: 41
8: 41
9: 41
10: 41
11: 42
12: 42
13: 42
14: 43
15: 43
16: 43
17: 43
18: 44
19: 44
20: 44
21: 44
22: 45
23: 45
24: 46
25: 46
26: 46
27: 46
28: 47
29: 47
30: 47
31: 47
32: 48
33: 48
34: 48
35: 48
36: 48
37: 48
38: 49
39: 49
segment: [9]
vertex id: label
28: 0
29: 4
30: 0
31: 4
32: 0
33: 4
34: 0
35: 4
36: 0
37: 4
0: 5
1: 5
2: 5
3: 5
4: 5
5: 5
6: 5
7: 5
8: 5
9: 5
10: 5
11: 5
12: 5
13: 5
14: 5
15: 5
16: 5
17: 5
18: 5
19: 5
20: 5
21: 5
22: 5
23: 5
24: 5
25: 5
26: 5
27: 5
edge from: to
28: 0
28: 1
28: 2
28: 3
29: 1
29: 3
29: 4
29: 5
30: 8
31: 2
31: 9
32: 12
33: 2
33: 10
33: 12
33: 13
34: 1
34: 15
35: 4
35: 18
35: 19
36: 12
36: 15
36: 19
36: 20
36: 21
37: 13
37: 22
37: 23
4: 28
5: 28
6: 29
7: 29
8: 29
9: 30
10: 31
11: 31
12: 31
13: 32
14: 33
15: 33
16: 34
17: 34
18: 34
19: 34
20: 35
21: 35
22: 36
23: 36
24: 37
25: 37
26: 37
27: 37
