segment: [0]
vertex id: label
71: 0
72: 0
73: 0
74: 0
75: 0
76: 0
77: 0
78: 0
79: 0
80: 0
81: 0
82: 0
83: 0
84: 0
85: 0
86: 0
87: 0
88: 0
89: 0
90: 0
0: 5
1: 5
2: 5
3: 5
4: 5
5: 5
6: 5
7: 5
8: 5
9: 5
10: 5
11: 5
12: 5
13: 5
14: 5
15: 5
16: 5
17: 5
18: 5
19: 5
20: 5
21: 5
22: 5
23: 5
24: 5
25: 5
26: 5
27: 5
28: 5
29: 5
30: 5
31: 5
32: 5
33: 5
34: 5
35: 5
36: 5
37: 5
38: 5
39: 5
40: 5
41: 5
42: 5
43: 5
44: 5
45: 5
46: 5
47: 5
48: 5
49: 5
50: 5
51: 5
52: 5
53: 5
54: 5
55: 5
56: 5
57: 5
58: 5
59: 5
60: 5
61: 5
62: 5
63: 5
64: 5
65: 5
66: 5
67: 5
68: 5
69: 5
70: 5
edge from: to
71: 0
71: 1
72: 4
72: 6
73: 5
73: 6
73: 7
73: 9
74: 8
74: 12
75: 7
75: 9
76: 8
76: 10
76: 12
76: 14
76: 15
77: 19
78: 16
79: 20
80: 35
81: 37
82: 27
82: 38
82: 41
83: 45
84: 31
84: 47
85: 49
86: 37
86: 53
86: 56
87: 56
87: 57
87: 59
88: 57
88: 58
88: 60
89: 30
89: 59
89: 63
90: 61
90: 65
2: 71
3: 71
4: 71
5: 71
6: 71
7: 72
8: 72
9: 72
10: 73
11: 73
12: 73
13: 74
14: 75
15: 75
16: 76
17: 76
18: 76
19: 76
20: 77
21: 77
22: 77
23: 77
24: 77
25: 78
26: 78
27: 78
28: 78
29: 78
30: 78
31: 79
32: 79
33: 79
34: 79
35: 79
36: 80
37: 80
38: 81
39: 81
40: 81
41: 81
42: 82
43: 82
44: 82
45: 82
46: 83
47: 83
48: 84
49: 84
50: 85
51: 85
52: 85
53: 85
54: 85
55: 85
56: 85
57: 86
58: 86
59: 86
60: 87
61: 88
62: 88
63: 88
64: 89
65: 89
66: 90
67: 90
68: 90
69: 90
70: 90
segment: [1]
vertex id: label
67: 0
68: 0
69: 0
70: 0
71: 0
72: 0
73: 0
74: 0
75: 0
76: 0
77: 0
78: 0
79: 0
80: 0
81: 0
82: 0
83: 0
84: 0
85: 0
86: 0
0: 5
1: 5
2: 5
3: 5
4: 5
5: 5
6: 5
7: 5
8: 5
9: 5
10: 5
11: 5
12: 5
13: 5
14: 5
15: 5
16: 5
17: 5
18: 5
19: 5
20: 5
21: 5
22: 5
23: 5
24: 5
25: 5
26: 5
27: 5
28: 5
29: 5
30: 5
31: 5
32: 5
33: 5
34: 5
35: 5
36: 5
37: 5
38: 5
39: 5
40: 5
41: 5
42: 5
43: 5
44: 5
45: 5
46: 5
47: 5
48: 5
49: 5
50: 5
51: 5
52: 5
53: 5
54: 5
55: 5
56: 5
57: 5
58: 5
59: 5
60: 5
61: 5
62: 5
63: 5
64: 5
65: 5
66: 5
edge from: to
67: 0
67: 1
68: 3
68: 4
68: 6
69: 3
69: 8
70: 5
70: 6
71: 11
71: 13
71: 15
71: 16
72: 12
72: 18
73: 18
73: 20
74: 23
75: 20
75: 28
75: 30
76: 22
76: 33
77: 24
77: 34
77: 36
78: 14
78: 37
78: 40
79: 42
80: 15
80: 40
80: 43
81: 25
81: 48
82: 46
82: 49
83: 54
84: 7
84: 9
84: 55
84: 57
84: 58
85: 61
86: 42
86: 64
2: 67
3: 67
4: 67
5: 67
6: 67
7: 68
8: 68
9: 69
10: 70
11: 70
12: 70
13: 70
14: 70
15: 70
16: 70
17: 71
18: 71
19: 72
20: 72
21: 73
22: 73
23: 73
24: 74
25: 74
26: 74
27: 74
28: 74
29: 74
30: 74
31: 75
32: 75
33: 75
34: 76
35: 76
36: 76
37: 77
38: 77
39: 77
40: 77
41: 78
42: 78
43: 79
44: 80
45: 80
46: 80
47: 80
48: 80
49: 81
50: 82
51: 82
52: 82
53: 82
54: 82
55: 83
56: 83
57: 83
58: 83
59: 84
60: 84
61: 84
62: 85
63: 85
64: 85
65: 86
66: 86
segment: [2]
vertex id: label
61: 0
62: 0
63: 0
64: 0
65: 0
66: 0
67: 0
68: 0
69: 0
70: 0
71: 0
72: 0
73: 0
74: 0
75: 0
76: 0
77: 0
78: 0
79: 0
80: 0
0: 5
1: 5
2: 5
3: 5
4: 5
5: 5
6: 5
7: 5
8: 5
9: 5
10: 5
11: 5
12: 5
13: 5
14: 5
15: 5
16: 5
17: 5
18: 5
19: 5
20: 5
21: 5
22: 5
23: 5
24: 5
25: 5
26: 5
27: 5
28: 5
29: 5
30: 5
31: 5
32: 5
33: 5
34: 5
35: 5
36: 5
37: 5
38: 5
39: 5
40: 5
41: 5
42: 5
43: 5
44: 5
45: 5
46: 5
47: 5
48: 5
49: 5
50: 5
51: 5
52: 5
53: 5
54: 5
55: 5
56: 5
57: 5
58: 5
59: 5
60: 5
edge from: to
61: 0
61: 1
61: 2
62: 4
62: 6
63: 8
64: 7
65: 6
65: 8
65: 12
66: 5
66: 14
67: 19
68: 22
69: 16
69: 24
70: 14
70: 27
70: 29
71: 15
71: 29
71: 31
72: 22
73: 24
74: 39
75: 27
76: 15
76: 43
77: 23
77: 29
78: 31
78: 44
78: 47
79: 48
79: 51
80: 37
3: 61
4: 61
5: 61
6: 61
7: 62
8: 62
9: 63
10: 63
11: 64
12: 64
13: 65
14: 65
15: 66
16: 66
17: 66
18: 66
19: 66
20: 67
21: 67
22: 67
23: 68
24: 68
25: 69
26: 69
27: 69
28: 69
29: 69
30: 70
31: 70
32: 71
33: 71
34: 72
35: 72
36: 72
37: 73
38: 73
39: 73
40: 74
41: 74
42: 75
43: 75
44: 76
45: 77
46: 77
47: 77
48: 78
49: 78
50: 78
51: 78
52: 79
53: 79
54: 79
55: 79
56: 79
57: 80
58: 80
59: 80
60: 80
segment: [3]
vertex id: label
52: 0
53: 0
54: 0
55: 0
56: 0
57: 0
58: 0
59: 0
60: 0
61: 0
62: 0
63: 0
64: 0
65: 0
66: 0
67: 0
68: 0
69: 0
70: 0
71: 0
0: 5
1: 5
2: 5
3: 5
4: 5
5: 5
6: 5
7: 5
8: 5
9: 5
10: 5
11: 5
12: 5
13: 5
14: 5
15: 5
16: 5
17: 5
18: 5
19: 5
20: 5
21: 5
22: 5
23: 5
24: 5
25: 5
26: 5
27: 5
28: 5
29: 5
30: 5
31: 5
32: 5
33: 5
34: 5
35: 5
36: 5
37: 5
38: 5
39: 5
40: 5
41: 5
42: 5
43: 5
44: 5
45: 5
46: 5
47: 5
48: 5
49: 5
50: 5
51: 5
edge from: to
52: 0
52: 1
53: 3
54: 3
54: 5
55: 4
55: 5
55: 7
56: 7
56: 10
57: 7
57: 9
58: 11
59: 19
60: 11
60: 14
61: 25
62: 13
62: 18
62: 27
63: 15
63: 29
63: 30
63: 31
64: 34
65: 21
65: 27
65: 33
65: 34
65: 35
66: 38
67: 36
67: 39
68: 14
68: 40
69: 42
70: 46
71: 49
2: 52
3: 52
4: 52
5: 53
6: 54
7: 54
8: 55
9: 55
10: 55
11: 56
12: 56
13: 56
14: 57
15: 57
16: 57
17: 58
18: 58
19: 58
20: 59
21: 59
22: 60
23: 60
24: 60
25: 60
26: 61
27: 61
28: 62
29: 62
30: 62
31: 62
32: 63
33: 63
34: 63
35: 64
36: 65
37: 65
38: 65
39: 66
40: 67
41: 68
42: 68
43: 69
44: 69
45: 69
46: 69
47: 70
48: 70
49: 70
50: 71
51: 71
segment: [4]
vertex id: label
59: 0
60: 0
61: 0
62: 0
63: 0
64: 0
65: 0
66: 0
67: 0
68: 0
69: 0
70: 0
71: 0
72: 0
73: 0
74: 0
75: 0
76: 0
77: 0
78: 0
0: 5
1: 5
2: 5
3: 5
4: 5
5: 5
6: 5
7: 5
8: 5
9: 5
10: 5
11: 5
12: 5
13: 5
14: 5
15: 5
16: 5
17: 5
18: 5
19: 5
20: 5
21: 5
22: 5
23: 5
24: 5
25: 5
26: 5
27: 5
28: 5
29: 5
30: 5
31: 5
32: 5
33: 5
34: 5
35: 5
36: 5
37: 5
38: 5
39: 5
40: 5
41: 5
42: 5
43: 5
44: 5
45: 5
46: 5
47: 5
48: 5
49: 5
50: 5
51: 5
52: 5
53: 5
54: 5
55: 5
56: 5
57: 5
58: 5
edge from: to
59: 0
60: 0
60: 1
60: 2
61: 5
62: 4
62: 5
63: 7
63: 10
64: 8
64: 12
65: 6
65: 9
65: 16
65: 17
66: 18
66: 20
67: 22
68: 12
68: 23
68: 25
69: 18
70: 29
71: 30
71: 32
72: 24
73: 27
73: 38
73: 41
74: 22
74: 39
74: 42
75: 31
76: 48
76: 50
76: 51
77: 35
78: 52
78: 55
1: 59
2: 59
3: 60
4: 60
5: 60
6: 61
7: 61
8: 62
9: 62
10: 62
11: 63
12: 63
13: 64
14: 64
15: 64
16: 64
17: 64
18: 65
19: 65
20: 65
21: 66
22: 66
23: 67
24: 67
25: 67
26: 68
27: 68
28: 69
29: 69
30: 70
31: 70
32: 70
33: 71
34: 71
35: 71
36: 71
37: 72
38: 72
39: 72
40: 72
41: 72
42: 73
43: 74
44: 74
45: 74
46: 74
47: 74
48: 75
49: 75
50: 75
51: 75
52: 76
53: 76
54: 77
55: 77
56: 78
57: 78
58: 78
segment: [5]
vertex id: label
59: 0
60: 0
61: 0
62: 0
63: 0
64: 0
65: 0
66: 0
67: 0
68: 0
69: 0
70: 0
71: 0
72: 0
73: 0
74: 0
75: 0
76: 0
77: 0
78: 0
0: 5
1: 5
2: 5
3: 5
4: 5
5: 5
6: 5
7: 5
8: 5
9: 5
10: 5
11: 5
12: 5
13: 5
14: 5
15: 5
16: 5
17: 5
18: 5
19: 5
20: 5
21: 5
22: 5
23: 5
24: 5
25: 5
26: 5
27: 5
28: 5
29: 5
30: 5
31: 5
32: 5
33: 5
34: 5
35: 5
36: 5
37: 5
38: 5
39: 5
40: 5
41: 5
42: 5
43: 5
44: 5
45: 5
46: 5
47: 5
48: 5
49: 5
50: 5
51: 5
52: 5
53: 5
54: 5
55: 5
56: 5
57: 5
58: 5
edge from: to
59: 0
59: 1
60: 1
60: 2
61: 5
62: 8
63: 14
64: 8
64: 10
65: 12
66: 10
66: 19
67: 22
68: 12
68: 23
68: 25
69: 18
70: 20
70: 30
71: 30
71: 32
72: 35
73: 13
73: 37
74: 20
74: 36
74: 38
75: 40
76: 22
76: 24
76: 43
76: 46
77: 46
77: 49
78: 48
78: 50
78: 51
2: 59
3: 59
4: 60
5: 60
6: 61
7: 61
8: 61
9: 62
10: 62
11: 62
12: 62
13: 62
14: 62
15: 63
16: 64
17: 64
18: 64
19: 65
20: 66
21: 66
22: 66
23: 67
24: 67
25: 67
26: 68
27: 68
28: 69
29: 69
30: 69
31: 70
32: 70
33: 71
34: 71
35: 71
36: 72
37: 72
38: 73
39: 74
40: 74
41: 75
42: 75
43: 75
44: 75
45: 75
46: 75
47: 76
48: 76
49: 76
50: 77
51: 77
52: 78
53: 78
54: 78
55: 78
56: 78
57: 78
58: 78
segment: [6]
vertex id: label
64: 0
65: 0
66: 0
67: 0
68: 0
69: 0
70: 1
71: 0
72: 0
73: 0
74: 0
75: 0
76: 0
77: 0
78: 0
79: 0
80: 0
81: 0
82: 0
83: 0
0: 5
1: 5
2: 5
3: 5
4: 5
5: 5
6: 5
7: 5
8: 5
9: 5
10: 5
11: 5
12: 5
13: 5
14: 5
15: 5
16: 5
17: 5
18: 5
19: 5
20: 5
21: 5
22: 5
23: 5
24: 5
25: 5
26: 5
27: 5
28: 5
29: 5
30: 5
31: 5
32: 5
33: 5
34: 5
35: 5
36: 5
37: 5
38: 5
39: 5
40: 5
41: 5
42: 5
43: 5
44: 5
45: 5
46: 5
47: 5
48: 5
49: 5
50: 5
51: 5
52: 5
53: 5
54: 5
55: 5
56: 5
57: 5
58: 5
59: 5
60: 5
61: 5
62: 5
63: 5
edge from: to
64: 0
64: 1
65: 2
66: 3
67: 5
68: 5
68: 6
69: 7
69: 9
70: 17
71: 18
71: 20
72: 11
72: 14
72: 21
73: 16
73: 24
74: 14
74: 27
74: 28
74: 29
75: 22
75: 33
76: 13
76: 35
76: 37
77: 40
78: 21
78: 23
78: 29
78: 44
79: 31
79: 44
79: 47
80: 49
81: 35
82: 52
82: 55
83: 46
83: 56
83: 57
83: 59
2: 64
3: 64
4: 65
5: 66
6: 66
7: 66
8: 67
9: 67
10: 68
11: 68
12: 68
13: 68
14: 69
15: 69
16: 69
17: 69
18: 70
19: 70
20: 70
21: 71
22: 72
23: 72
24: 72
25: 73
26: 73
27: 73
28: 73
29: 73
30: 74
31: 74
32: 74
33: 74
34: 75
35: 75
36: 75
37: 75
38: 76
39: 76
40: 76
41: 77
42: 77
43: 77
44: 77
45: 78
46: 78
47: 78
48: 79
49: 79
50: 80
51: 80
52: 80
53: 80
54: 81
55: 81
56: 82
57: 82
58: 82
59: 82
60: 83
61: 83
62: 83
63: 83
segment: [7]
vertex id: label
65: 0
66: 0
67: 0
68: 0
69: 0
70: 0
71: 0
72: 0
73: 0
74: 0
75: 0
76: 0
77: 0
78: 0
79: 0
80: 0
81: 0
82: 0
83: 0
84: 0
0: 5
1: 5
2: 5
3: 5
4: 5
5: 5
6: 5
7: 5
8: 5
9: 5
10: 5
11: 5
12: 5
13: 5
14: 5
15: 5
16: 5
17: 5
18: 5
19: 5
20: 5
21: 5
22: 5
23: 5
24: 5
25: 5
26: 5
27: 5
28: 5
29: 5
30: 5
31: 5
32: 5
33: 5
34: 5
35: 5
36: 5
37: 5
38: 5
39: 5
40: 5
41: 5
42: 5
43: 5
44: 5
45: 5
46: 5
47: 5
48: 5
49: 5
50: 5
51: 5
52: 5
53: 5
54: 5
55: 5
56: 5
57: 5
58: 5
59: 5
60: 5
61: 5
62: 5
63: 5
64: 5
edge from: to
65: 0
66: 2
67: 4
67: 6
68: 3
68: 8
69: 11
70: 9
71: 10
72: 10
72: 17
72: 18
72: 19
73: 22
74: 1
74: 26
75: 29
76: 20
77: 30
77: 32
78: 24
78: 34
78: 36
79: 27
79: 38
79: 41
80: 15
80: 40
80: 43
81: 23
81: 29
81: 44
82: 46
82: 48
82: 49
83: 48
83: 51
84: 37
1: 65
2: 65
3: 66
4: 66
5: 66
6: 66
7: 67
8: 67
9: 68
10: 68
11: 68
12: 69
13: 69
14: 70
15: 70
16: 71
17: 71
18: 71
19: 71
20: 72
21: 72
22: 72
23: 73
24: 73
25: 73
26: 73
27: 74
28: 74
29: 74
30: 75
31: 76
32: 76
33: 77
34: 77
35: 77
36: 77
37: 78
38: 78
39: 78
40: 78
41: 78
42: 79
43: 79
44: 80
45: 81
46: 81
47: 81
48: 81
49: 81
50: 82
51: 82
52: 83
53: 83
54: 83
55: 83
56: 83
57: 84
58: 84
59: 84
60: 84
61: 84
62: 84
63: 84
64: 84
segment: [8]
vertex id: label
72: 0
73: 0
74: 0
75: 0
76: 0
77: 0
78: 1
79: 3
80: 3
81: 3
82: 3
83: 3
84: 3
85: 3
86: 3
87: 3
88: 3
89: 3
90: 3
91: 3
0: 5
1: 5
2: 5
3: 5
4: 5
5: 5
6: 5
7: 5
8: 5
9: 5
10: 5
11: 5
12: 5
13: 5
14: 5
15: 5
16: 5
17: 5
18: 5
19: 5
20: 5
21: 5
22: 5
23: 5
24: 5
25: 5
26: 5
27: 5
28: 5
29: 5
30: 5
31: 5
32: 5
33: 5
34: 5
35: 5
36: 5
37: 5
38: 5
39: 5
40: 5
41: 5
42: 5
43: 5
44: 5
45: 5
46: 5
47: 5
48: 5
49: 5
50: 5
51: 5
52: 5
53: 5
54: 5
55: 5
56: 5
57: 5
58: 5
59: 5
60: 5
61: 5
62: 5
63: 5
64: 5
65: 5
66: 5
67: 5
68: 5
69: 5
70: 5
71: 5
edge from: to
72: 0
73: 2
73: 3
73: 5
74: 6
74: 11
75: 5
75: 7
75: 13
75: 14
76: 6
76: 9
76: 16
76: 17
77: 18
77: 20
78: 23
79: 12
79: 25
80: 18
80: 27
81: 20
81: 30
82: 30
82: 31
82: 32
83: 24
84: 40
85: 22
85: 42
86: 24
86: 46
87: 48
87: 51
88: 2
88: 53
88: 54
89: 54
89: 57
90: 56
90: 59
91: 23
91: 66
1: 72
2: 72
3: 72
4: 72
5: 72
6: 73
7: 73
8: 73
9: 73
10: 73
11: 73
12: 74
13: 74
14: 74
15: 75
16: 75
17: 75
18: 76
19: 76
20: 76
21: 77
22: 77
23: 77
24: 78
25: 78
26: 79
27: 79
28: 80
29: 80
30: 80
31: 81
32: 81
33: 82
34: 82
35: 82
36: 82
37: 83
38: 83
39: 83
40: 83
41: 84
42: 84
43: 85
44: 85
45: 85
46: 85
47: 86
48: 86
49: 86
50: 86
51: 86
52: 87
53: 87
54: 87
55: 88
56: 88
57: 88
58: 89
59: 89
60: 90
61: 90
62: 90
63: 90
64: 90
65: 90
66: 90
67: 91
68: 91
69: 91
70: 91
71: 91
segment: [9]
vertex id: label
63: 0
64: 0
65: 0
66: 0
67: 1
68: 3
69: 3
70: 3
71: 3
72: 3
73: 3
74: 3
75: 3
76: 3
77: 3
78: 3
79: 3
80: 3
81: 3
82: 3
0: 5
1: 5
2: 5
3: 5
4: 5
5: 5
6: 5
7: 5
8: 5
9: 5
10: 5
11: 5
12: 5
13: 5
14: 5
15: 5
16: 5
17: 5
18: 5
19: 5
20: 5
21: 5
22: 5
23: 5
24: 5
25: 5
26: 5
27: 5
28: 5
29: 5
30: 5
31: 5
32: 5
33: 5
34: 5
35: 5
36: 5
37: 5
38: 5
39: 5
40: 5
41: 5
42: 5
43: 5
44: 5
45: 5
46: 5
47: 5
48: 5
49: 5
50: 5
51: 5
52: 5
53: 5
54: 5
55: 5
56: 5
57: 5
58: 5
59: 5
60: 5
61: 5
62: 5
edge from: to
63: 0
63: 1
64: 2
64: 3
64: 4
65: 3
65: 8
66: 8
67: 8
67: 10
67: 14
67: 15
68: 19
69: 22
70: 16
70: 24
71: 1
71: 9
71: 25
71: 26
72: 31
73: 22
73: 31
73: 32
73: 33
74: 13
74: 37
75: 38
76: 14
76: 37
76: 40
77: 23
77: 29
78: 42
78: 45
79: 31
80: 27
80: 52
81: 34
81: 40
81: 54
81: 55
81: 56
81: 57
82: 56
82: 57
82: 59
2: 63
3: 63
4: 63
5: 64
6: 64
7: 64
8: 64
9: 65
10: 65
11: 65
12: 65
13: 66
14: 66
15: 66
16: 67
17: 67
18: 67
19: 67
20: 68
21: 68
22: 68
23: 69
24: 69
25: 70
26: 70
27: 71
28: 71
29: 71
30: 71
31: 71
32: 72
33: 72
34: 73
35: 73
36: 73
37: 73
38: 74
39: 75
40: 75
41: 76
42: 76
43: 76
44: 76
45: 77
46: 78
47: 78
48: 79
49: 79
50: 79
51: 79
52: 79
53: 80
54: 80
55: 80
56: 80
57: 80
58: 81
59: 81
60: 82
61: 82
62: 82
