segment: [0]
vertex id: label
73: 0
74: 2
75: 4
76: 0
77: 2
78: 2
79: 4
80: 0
81: 4
82: 0
83: 2
84: 3
85: 0
86: 2
87: 3
88: 4
89: 0
90: 4
91: 0
92: 4
0: 5
1: 5
2: 5
3: 5
4: 5
5: 5
6: 5
7: 5
8: 5
9: 5
10: 5
11: 5
12: 5
13: 5
14: 5
15: 5
16: 5
17: 5
18: 5
19: 5
20: 5
21: 5
22: 5
23: 5
24: 5
25: 5
26: 5
27: 5
28: 5
29: 5
30: 5
31: 5
32: 5
33: 5
34: 5
35: 5
36: 5
37: 5
38: 5
39: 5
40: 5
41: 5
42: 5
43: 5
44: 5
45: 5
46: 5
47: 5
48: 5
49: 5
50: 5
51: 5
52: 5
53: 5
54: 5
55: 5
56: 5
57: 5
58: 5
59: 5
60: 5
61: 5
62: 5
63: 5
64: 5
65: 5
66: 5
67: 5
68: 5
69: 5
70: 5
71: 5
72: 5
edge from: to
73: 0
74: 2
74: 3
75: 1
75: 3
75: 4
75: 5
76: 9
77: 10
77: 11
77: 12
78: 13
79: 17
80: 23
81: 25
81: 28
81: 29
82: 26
82: 28
83: 29
83: 33
83: 34
84: 7
84: 29
84: 31
85: 31
85: 33
86: 34
86: 36
87: 38
88: 43
88: 50
89: 55
90: 50
91: 52
92: 13
92: 54
92: 58
1: 73
2: 73
3: 73
4: 74
5: 74
6: 75
7: 75
8: 75
9: 75
10: 75
11: 76
12: 76
13: 77
14: 77
15: 77
16: 78
17: 78
18: 78
19: 78
20: 78
21: 79
22: 79
23: 79
24: 79
25: 79
26: 79
27: 79
28: 80
29: 80
30: 81
31: 81
32: 81
33: 82
34: 82
35: 83
36: 83
37: 84
38: 84
39: 85
40: 85
41: 85
42: 85
43: 86
44: 86
45: 87
46: 87
47: 87
48: 87
49: 87
50: 87
51: 88
52: 88
53: 88
54: 88
55: 88
56: 89
57: 89
58: 89
59: 90
60: 90
61: 91
62: 91
63: 91
64: 91
65: 91
66: 91
67: 91
68: 92
69: 92
70: 92
71: 92
72: 92
segment: [1]
vertex id: label
59: 0
60: 2
61: 3
62: 4
63: 0
64: 2
65: 2
66: 4
67: 0
68: 2
69: 4
70: 0
71: 2
72: 3
73: 4
74: 0
75: 0
76: 2
77: 2
78: 2
0: 5
1: 5
2: 5
3: 5
4: 5
5: 5
6: 5
7: 5
8: 5
9: 5
10: 5
11: 5
12: 5
13: 5
14: 5
15: 5
16: 5
17: 5
18: 5
19: 5
20: 5
21: 5
22: 5
23: 5
24: 5
25: 5
26: 5
27: 5
28: 5
29: 5
30: 5
31: 5
32: 5
33: 5
34: 5
35: 5
36: 5
37: 5
38: 5
39: 5
40: 5
41: 5
42: 5
43: 5
44: 5
45: 5
46: 5
47: 5
48: 5
49: 5
50: 5
51: 5
52: 5
53: 5
54: 5
55: 5
56: 5
57: 5
58: 5
edge from: to
59: 0
59: 1
60: 4
61: 5
62: 7
62: 8
63: 8
63: 9
64: 14
65: 17
65: 19
66: 18
66: 19
67: 21
67: 23
67: 26
68: 26
69: 26
69: 28
70: 29
70: 31
71: 31
71: 33
72: 35
72: 40
73: 34
73: 36
74: 37
75: 39
76: 42
76: 49
77: 45
78: 47
78: 53
78: 54
78: 55
2: 59
3: 59
4: 59
5: 60
6: 60
7: 61
8: 61
9: 62
10: 62
11: 63
12: 63
13: 63
14: 63
15: 63
16: 63
17: 64
18: 64
19: 64
20: 65
21: 65
22: 65
23: 66
24: 66
25: 66
26: 66
27: 67
28: 67
29: 67
30: 67
31: 68
32: 68
33: 69
34: 69
35: 69
36: 69
37: 70
38: 70
39: 71
40: 71
41: 72
42: 72
43: 73
44: 74
45: 74
46: 75
47: 75
48: 75
49: 75
50: 76
51: 76
52: 76
53: 77
54: 77
55: 77
56: 78
57: 78
58: 78
segment: [2]
vertex id: label
64: 0
65: 2
66: 1
67: 3
68: 4
69: 0
70: 2
71: 4
72: 0
73: 2
74: 4
75: 0
76: 2
77: 4
78: 0
79: 2
80: 4
81: 0
82: 4
83: 0
0: 5
1: 5
2: 5
3: 5
4: 5
5: 5
6: 5
7: 5
8: 5
9: 5
10: 5
11: 5
12: 5
13: 5
14: 5
15: 5
16: 5
17: 5
18: 5
19: 5
20: 5
21: 5
22: 5
23: 5
24: 5
25: 5
26: 5
27: 5
28: 5
29: 5
30: 5
31: 5
32: 5
33: 5
34: 5
35: 5
36: 5
37: 5
38: 5
39: 5
40: 5
41: 5
42: 5
43: 5
44: 5
45: 5
46: 5
47: 5
48: 5
49: 5
50: 5
51: 5
52: 5
53: 5
54: 5
55: 5
56: 5
57: 5
58: 5
59: 5
60: 5
61: 5
62: 5
63: 5
edge from: to
64: 0
64: 1
64: 2
65: 3
65: 4
66: 7
66: 8
67: 9
67: 10
67: 11
68: 12
68: 13
69: 16
69: 17
70: 17
70: 18
70: 21
71: 21
71: 23
72: 24
73: 26
74: 27
74: 29
74: 32
75: 31
76: 3
76: 30
76: 32
76: 36
77: 31
77: 33
78: 35
78: 39
78: 40
79: 34
79: 36
80: 37
80: 40
81: 44
82: 46
82: 49
82: 56
83: 52
83: 60
3: 64
4: 64
5: 65
6: 65
7: 65
8: 65
9: 66
10: 66
11: 66
12: 67
13: 67
14: 67
15: 67
16: 68
17: 68
18: 68
19: 68
20: 68
21: 69
22: 70
23: 70
24: 70
25: 70
26: 70
27: 71
28: 71
29: 72
30: 72
31: 73
32: 73
33: 73
34: 74
35: 74
36: 74
37: 75
38: 76
39: 77
40: 77
41: 78
42: 78
43: 79
44: 79
45: 79
46: 79
47: 80
48: 80
49: 80
50: 80
51: 80
52: 81
53: 81
54: 81
55: 81
56: 81
57: 81
58: 82
59: 82
60: 82
61: 83
62: 83
63: 83
segment: [3]
vertex id: label
69: 0
70: 2
71: 2
72: 2
73: 4
74: 4
75: 0
76: 3
77: 4
78: 0
79: 3
80: 4
81: 0
82: 2
83: 4
84: 0
85: 4
86: 0
87: 2
88: 2
0: 5
1: 5
2: 5
3: 5
4: 5
5: 5
6: 5
7: 5
8: 5
9: 5
10: 5
11: 5
12: 5
13: 5
14: 5
15: 5
16: 5
17: 5
18: 5
19: 5
20: 5
21: 5
22: 5
23: 5
24: 5
25: 5
26: 5
27: 5
28: 5
29: 5
30: 5
31: 5
32: 5
33: 5
34: 5
35: 5
36: 5
37: 5
38: 5
39: 5
40: 5
41: 5
42: 5
43: 5
44: 5
45: 5
46: 5
47: 5
48: 5
49: 5
50: 5
51: 5
52: 5
53: 5
54: 5
55: 5
56: 5
57: 5
58: 5
59: 5
60: 5
61: 5
62: 5
63: 5
64: 5
65: 5
66: 5
67: 5
68: 5
edge from: to
69: 0
69: 1
69: 2
70: 8
70: 9
71: 11
72: 3
72: 12
72: 13
73: 17
74: 18
74: 19
75: 20
76: 23
76: 24
76: 27
77: 27
78: 27
78: 29
79: 29
80: 31
80: 33
80: 37
81: 36
82: 38
83: 4
83: 43
83: 49
83: 50
84: 53
84: 54
84: 55
85: 48
86: 51
86: 59
87: 55
88: 54
88: 58
3: 69
4: 69
5: 69
6: 69
7: 69
8: 69
9: 69
10: 70
11: 70
12: 70
13: 71
14: 71
15: 71
16: 72
17: 72
18: 72
19: 72
20: 72
21: 73
22: 73
23: 74
24: 75
25: 75
26: 75
27: 75
28: 75
29: 76
30: 76
31: 76
32: 77
33: 77
34: 78
35: 79
36: 79
37: 79
38: 79
39: 80
40: 80
41: 80
42: 80
43: 81
44: 81
45: 82
46: 82
47: 82
48: 82
49: 82
50: 82
51: 83
52: 83
53: 83
54: 83
55: 83
56: 84
57: 85
58: 85
59: 85
60: 86
61: 86
62: 86
63: 86
64: 86
65: 87
66: 87
67: 87
68: 88
segment: [4]
vertex id: label
46: 0
47: 2
48: 4
49: 0
50: 2
51: 4
52: 0
53: 3
54: 4
55: 0
56: 0
57: 4
58: 0
59: 4
60: 0
61: 2
62: 2
63: 3
64: 4
65: 0
0: 5
1: 5
2: 5
3: 5
4: 5
5: 5
6: 5
7: 5
8: 5
9: 5
10: 5
11: 5
12: 5
13: 5
14: 5
15: 5
16: 5
17: 5
18: 5
19: 5
20: 5
21: 5
22: 5
23: 5
24: 5
25: 5
26: 5
27: 5
28: 5
29: 5
30: 5
31: 5
32: 5
33: 5
34: 5
35: 5
36: 5
37: 5
38: 5
39: 5
40: 5
41: 5
42: 5
43: 5
44: 5
45: 5
edge from: to
46: 0
47: 2
48: 2
48: 3
49: 4
50: 5
51: 7
51: 8
52: 10
52: 11
53: 14
54: 14
54: 15
54: 17
55: 19
56: 20
57: 23
57: 24
58: 25
58: 27
59: 29
60: 30
60: 35
61: 31
61: 33
62: 34
62: 39
63: 8
63: 33
63: 35
63: 39
63: 40
64: 37
65: 38
65: 43
65: 44
1: 46
2: 46
3: 47
4: 48
5: 49
6: 49
7: 50
8: 50
9: 51
10: 51
11: 51
12: 51
13: 52
14: 52
15: 52
16: 52
17: 53
18: 54
19: 54
20: 54
21: 54
22: 54
23: 55
24: 56
25: 56
26: 56
27: 56
28: 56
29: 57
30: 57
31: 57
32: 58
33: 58
34: 59
35: 59
36: 60
37: 60
38: 60
39: 61
40: 62
41: 62
42: 63
43: 63
44: 64
45: 65
segment: [5]
vertex id: label
66: 0
67: 4
68: 0
69: 4
70: 0
71: 2
72: 4
73: 0
74: 4
75: 0
76: 2
77: 3
78: 4
79: 0
80: 4
81: 0
82: 3
83: 2
84: 4
85: 0
0: 5
1: 5
2: 5
3: 5
4: 5
5: 5
6: 5
7: 5
8: 5
9: 5
10: 5
11: 5
12: 5
13: 5
14: 5
15: 5
16: 5
17: 5
18: 5
19: 5
20: 5
21: 5
22: 5
23: 5
24: 5
25: 5
26: 5
27: 5
28: 5
29: 5
30: 5
31: 5
32: 5
33: 5
34: 5
35: 5
36: 5
37: 5
38: 5
39: 5
40: 5
41: 5
42: 5
43: 5
44: 5
45: 5
46: 5
47: 5
48: 5
49: 5
50: 5
51: 5
52: 5
53: 5
54: 5
55: 5
56: 5
57: 5
58: 5
59: 5
60: 5
61: 5
62: 5
63: 5
64: 5
65: 5
edge from: to
66: 0
67: 2
68: 1
68: 4
68: 5
69: 7
70: 9
71: 12
72: 14
72: 15
73: 16
74: 18
74: 19
74: 22
75: 22
75: 23
75: 26
76: 26
77: 29
78: 30
78: 32
79: 34
79: 39
80: 36
81: 9
81: 37
81: 40
82: 44
83: 42
83: 45
84: 49
85: 53
85: 61
1: 66
2: 66
3: 67
4: 67
5: 67
6: 68
7: 68
8: 68
9: 69
10: 69
11: 70
12: 70
13: 70
14: 70
15: 71
16: 71
17: 71
18: 72
19: 73
20: 73
21: 73
22: 73
23: 74
24: 74
25: 74
26: 74
27: 74
28: 75
29: 75
30: 75
31: 76
32: 76
33: 76
34: 76
35: 77
36: 77
37: 77
38: 78
39: 78
40: 79
41: 79
42: 79
43: 80
44: 80
45: 80
46: 80
47: 81
48: 81
49: 81
50: 81
51: 81
52: 82
53: 83
54: 83
55: 83
56: 83
57: 83
58: 84
59: 84
60: 84
61: 84
62: 85
63: 85
64: 85
65: 85
segment: [6]
vertex id: label
74: 0
75: 0
76: 2
77: 2
78: 3
79: 4
80: 0
81: 4
82: 0
83: 2
84: 3
85: 4
86: 0
87: 4
88: 0
89: 4
90: 0
91: 2
92: 4
93: 0
0: 5
1: 5
2: 5
3: 5
4: 5
5: 5
6: 5
7: 5
8: 5
9: 5
10: 5
11: 5
12: 5
13: 5
14: 5
15: 5
16: 5
17: 5
18: 5
19: 5
20: 5
21: 5
22: 5
23: 5
24: 5
25: 5
26: 5
27: 5
28: 5
29: 5
30: 5
31: 5
32: 5
33: 5
34: 5
35: 5
36: 5
37: 5
38: 5
39: 5
40: 5
41: 5
42: 5
43: 5
44: 5
45: 5
46: 5
47: 5
48: 5
49: 5
50: 5
51: 5
52: 5
53: 5
54: 5
55: 5
56: 5
57: 5
58: 5
59: 5
60: 5
61: 5
62: 5
63: 5
64: 5
65: 5
66: 5
67: 5
68: 5
69: 5
70: 5
71: 5
72: 5
73: 5
edge from: to
74: 0
74: 1
74: 2
75: 5
76: 8
76: 9
77: 9
77: 10
78: 12
78: 14
79: 14
80: 17
81: 18
82: 21
82: 24
83: 23
84: 25
84: 28
84: 29
85: 29
85: 30
85: 33
85: 34
85: 35
86: 35
86: 40
87: 37
88: 40
89: 42
90: 42
90: 45
91: 51
92: 51
92: 54
93: 55
93: 58
93: 59
93: 63
93: 65
93: 67
93: 68
3: 74
4: 74
5: 74
6: 75
7: 75
8: 75
9: 75
10: 75
11: 76
12: 77
13: 77
14: 77
15: 78
16: 78
17: 79
18: 79
19: 79
20: 80
21: 80
22: 81
23: 81
24: 81
25: 82
26: 82
27: 83
28: 83
29: 83
30: 84
31: 84
32: 84
33: 84
34: 84
35: 84
36: 85
37: 85
38: 85
39: 85
40: 85
41: 86
42: 86
43: 86
44: 87
45: 87
46: 87
47: 88
48: 88
49: 88
50: 89
51: 89
52: 89
53: 90
54: 90
55: 90
56: 90
57: 90
58: 90
59: 90
60: 91
61: 91
62: 91
63: 91
64: 92
65: 92
66: 92
67: 92
68: 92
69: 93
70: 93
71: 93
72: 93
73: 93
segment: [7]
vertex id: label
66: 0
67: 2
68: 3
69: 4
70: 0
71: 4
72: 0
73: 4
74: 0
75: 4
76: 0
77: 4
78: 0
79: 3
80: 4
81: 4
82: 0
83: 4
84: 0
85: 2
0: 5
1: 5
2: 5
3: 5
4: 5
5: 5
6: 5
7: 5
8: 5
9: 5
10: 5
11: 5
12: 5
13: 5
14: 5
15: 5
16: 5
17: 5
18: 5
19: 5
20: 5
21: 5
22: 5
23: 5
24: 5
25: 5
26: 5
27: 5
28: 5
29: 5
30: 5
31: 5
32: 5
33: 5
34: 5
35: 5
36: 5
37: 5
38: 5
39: 5
40: 5
41: 5
42: 5
43: 5
44: 5
45: 5
46: 5
47: 5
48: 5
49: 5
50: 5
51: 5
52: 5
53: 5
54: 5
55: 5
56: 5
57: 5
58: 5
59: 5
60: 5
61: 5
62: 5
63: 5
64: 5
65: 5
edge from: to
66: 0
66: 1
67: 3
68: 5
69: 7
69: 8
70: 10
71: 11
71: 13
72: 15
72: 16
73: 17
73: 19
74: 19
74: 20
74: 23
75: 20
75: 22
76: 25
77: 28
78: 29
78: 31
79: 33
79: 35
80: 39
80: 45
81: 41
82: 44
83: 48
84: 46
84: 49
84: 56
85: 53
85: 58
85: 60
85: 61
2: 66
3: 66
4: 67
5: 67
6: 68
7: 68
8: 68
9: 69
10: 69
11: 69
12: 70
13: 70
14: 71
15: 71
16: 71
17: 71
18: 71
19: 72
20: 73
21: 73
22: 73
23: 73
24: 74
25: 74
26: 75
27: 75
28: 75
29: 75
30: 76
31: 76
32: 76
33: 77
34: 77
35: 77
36: 77
37: 78
38: 78
39: 78
40: 78
41: 78
42: 79
43: 79
44: 79
45: 79
46: 80
47: 80
48: 80
49: 81
50: 81
51: 81
52: 82
53: 82
54: 82
55: 82
56: 82
57: 83
58: 84
59: 84
60: 84
61: 84
62: 85
63: 85
64: 85
65: 85
segment: [8]
vertex id: label
68: 0
69: 2
70: 3
71: 2
72: 4
73: 0
74: 4
75: 0
76: 2
77: 4
78: 0
79: 2
80: 4
81: 0
82: 4
83: 0
84: 4
85: 0
86: 2
87: 3
0: 5
1: 5
2: 5
3: 5
4: 5
5: 5
6: 5
7: 5
8: 5
9: 5
10: 5
11: 5
12: 5
13: 5
14: 5
15: 5
16: 5
17: 5
18: 5
19: 5
20: 5
21: 5
22: 5
23: 5
24: 5
25: 5
26: 5
27: 5
28: 5
29: 5
30: 5
31: 5
32: 5
33: 5
34: 5
35: 5
36: 5
37: 5
38: 5
39: 5
40: 5
41: 5
42: 5
43: 5
44: 5
45: 5
46: 5
47: 5
48: 5
49: 5
50: 5
51: 5
52: 5
53: 5
54: 5
55: 5
56: 5
57: 5
58: 5
59: 5
60: 5
61: 5
62: 5
63: 5
64: 5
65: 5
66: 5
67: 5
edge from: to
68: 0
69: 2
69: 3
70: 8
71: 10
71: 11
72: 14
72: 15
73: 18
73: 19
73: 22
74: 22
75: 21
75: 23
76: 22
76: 23
77: 25
77: 27
78: 30
78: 32
78: 36
79: 34
80: 34
80: 36
81: 38
82: 39
82: 41
82: 47
83: 45
84: 47
84: 53
84: 54
84: 55
85: 50
86: 54
87: 56
1: 68
2: 68
3: 68
4: 69
5: 69
6: 69
7: 69
8: 69
9: 69
10: 70
11: 70
12: 70
13: 71
14: 71
15: 71
16: 71
17: 71
18: 72
19: 72
20: 72
21: 72
22: 72
23: 73
24: 73
25: 73
26: 74
27: 75
28: 76
29: 76
30: 76
31: 76
32: 77
33: 77
34: 77
35: 77
36: 77
37: 77
38: 78
39: 78
40: 79
41: 79
42: 79
43: 80
44: 80
45: 81
46: 81
47: 81
48: 81
49: 82
50: 82
51: 82
52: 82
53: 83
54: 83
55: 83
56: 84
57: 84
58: 84
59: 85
60: 85
61: 85
62: 85
63: 85
64: 86
65: 86
66: 87
67: 87
segment: [9]
vertex id: label
77: 0
78: 2
79: 3
80: 4
81: 0
82: 4
83: 0
84: 0
85: 2
86: 4
87: 0
88: 2
89: 3
90: 4
91: 0
92: 4
93: 0
94: 2
95: 2
96: 2
0: 5
1: 5
2: 5
3: 5
4: 5
5: 5
6: 5
7: 5
8: 5
9: 5
10: 5
11: 5
12: 5
13: 5
14: 5
15: 5
16: 5
17: 5
18: 5
19: 5
20: 5
21: 5
22: 5
23: 5
24: 5
25: 5
26: 5
27: 5
28: 5
29: 5
30: 5
31: 5
32: 5
33: 5
34: 5
35: 5
36: 5
37: 5
38: 5
39: 5
40: 5
41: 5
42: 5
43: 5
44: 5
45: 5
46: 5
47: 5
48: 5
49: 5
50: 5
51: 5
52: 5
53: 5
54: 5
55: 5
56: 5
57: 5
58: 5
59: 5
60: 5
61: 5
62: 5
63: 5
64: 5
65: 5
66: 5
67: 5
68: 5
69: 5
70: 5
71: 5
72: 5
73: 5
74: 5
75: 5
76: 5
edge from: to
77: 0
77: 1
77: 2
78: 3
79: 0
79: 7
79: 8
80: 8
81: 10
81: 11
82: 12
82: 13
83: 14
83: 15
84: 18
84: 19
85: 25
85: 28
85: 29
86: 31
87: 31
87: 33
87: 37
88: 33
88: 35
89: 39
89: 45
90: 38
90: 41
91: 41
91: 44
91: 50
92: 48
93: 53
94: 55
94: 62
94: 63
94: 64
95: 57
95: 66
96: 60
3: 77
4: 78
5: 78
6: 78
7: 78
8: 78
9: 79
10: 80
11: 80
12: 80
13: 81
14: 81
15: 81
16: 82
17: 82
18: 83
19: 83
20: 83
21: 83
22: 83
23: 84
24: 84
25: 84
26: 84
27: 84
28: 84
29: 84
30: 85
31: 85
32: 85
33: 85
34: 85
35: 85
36: 85
37: 86
38: 86
39: 87
40: 87
41: 87
42: 88
43: 88
44: 88
45: 88
46: 89
47: 89
48: 90
49: 90
50: 90
51: 90
52: 91
53: 91
54: 91
55: 91
56: 91
57: 92
58: 92
59: 92
60: 92
61: 92
62: 93
63: 93
64: 93
65: 94
66: 94
67: 95
68: 95
69: 95
70: 95
71: 96
72: 96
73: 96
74: 96
75: 96
76: 96
