segment: [0]
vertex id: label
66: 0
67: 1
68: 4
69: 3
70: 4
71: 4
72: 4
73: 0
74: 1
75: 3
76: 0
77: 1
78: 4
79: 4
80: 4
81: 4
82: 4
83: 3
84: 1
85: 0
0: 5
1: 5
2: 5
3: 5
4: 5
5: 5
6: 5
7: 5
8: 5
9: 5
10: 5
11: 5
12: 5
13: 5
14: 5
15: 5
16: 5
17: 5
18: 5
19: 5
20: 5
21: 5
22: 5
23: 5
24: 5
25: 5
26: 5
27: 5
28: 5
29: 5
30: 5
31: 5
32: 5
33: 5
34: 5
35: 5
36: 5
37: 5
38: 5
39: 5
40: 5
41: 5
42: 5
43: 5
44: 5
45: 5
46: 5
47: 5
48: 5
49: 5
50: 5
51: 5
52: 5
53: 5
54: 5
55: 5
56: 5
57: 5
58: 5
59: 5
60: 5
61: 5
62: 5
63: 5
64: 5
65: 5
edge from: to
66: 0
66: 1
67: 4
68: 8
69: 11
69: 13
70: 13
71: 3
71: 15
72: 11
72: 18
72: 19
73: 21
74: 22
74: 24
74: 25
75: 24
76: 29
76: 30
76: 31
77: 31
78: 34
79: 34
79: 37
79: 38
80: 40
81: 44
82: 33
82: 49
82: 53
82: 54
83: 51
83: 54
84: 54
84: 57
85: 56
2: 66
3: 66
4: 66
5: 67
6: 67
7: 67
8: 67
9: 68
10: 68
11: 68
12: 68
13: 68
14: 69
15: 69
16: 70
17: 70
18: 71
19: 71
20: 72
21: 72
22: 72
23: 73
24: 73
25: 73
26: 74
27: 74
28: 75
29: 75
30: 75
31: 75
32: 76
33: 76
34: 77
35: 77
36: 77
37: 78
38: 78
39: 79
40: 79
41: 79
42: 79
43: 79
44: 80
45: 80
46: 80
47: 80
48: 80
49: 80
50: 81
51: 81
52: 81
53: 81
54: 81
55: 82
56: 83
57: 83
58: 83
59: 84
60: 84
61: 84
62: 84
63: 85
64: 85
65: 85
segment: [1]
vertex id: label
61: 0
62: 1
63: 0
64: 1
65: 1
66: 2
67: 4
68: 4
69: 4
70: 4
71: 3
72: 3
73: 0
74: 4
75: 3
76: 2
77: 1
78: 0
79: 1
80: 4
0: 5
1: 5
2: 5
3: 5
4: 5
5: 5
6: 5
7: 5
8: 5
9: 5
10: 5
11: 5
12: 5
13: 5
14: 5
15: 5
16: 5
17: 5
18: 5
19: 5
20: 5
21: 5
22: 5
23: 5
24: 5
25: 5
26: 5
27: 5
28: 5
29: 5
30: 5
31: 5
32: 5
33: 5
34: 5
35: 5
36: 5
37: 5
38: 5
39: 5
40: 5
41: 5
42: 5
43: 5
44: 5
45: 5
46: 5
47: 5
48: 5
49: 5
50: 5
51: 5
52: 5
53: 5
54: 5
55: 5
56: 5
57: 5
58: 5
59: 5
60: 5
edge from: to
61: 0
61: 1
62: 2
62: 3
63: 5
63: 8
64: 2
64: 9
64: 11
65: 9
65: 11
65: 13
66: 14
67: 18
68: 21
69: 21
70: 24
70: 26
71: 25
72: 29
73: 33
74: 21
74: 33
74: 36
75: 37
75: 40
76: 25
76: 41
76: 43
77: 44
77: 46
78: 29
78: 46
78: 50
79: 30
79: 48
79: 52
80: 52
2: 61
3: 61
4: 62
5: 62
6: 62
7: 62
8: 62
9: 63
10: 63
11: 63
12: 64
13: 64
14: 65
15: 65
16: 65
17: 66
18: 66
19: 66
20: 67
21: 67
22: 67
23: 68
24: 68
25: 69
26: 69
27: 69
28: 70
29: 71
30: 71
31: 71
32: 72
33: 72
34: 72
35: 72
36: 73
37: 73
38: 74
39: 74
40: 74
41: 74
42: 75
43: 75
44: 75
45: 76
46: 76
47: 76
48: 77
49: 77
50: 77
51: 77
52: 78
53: 78
54: 79
55: 79
56: 79
57: 80
58: 80
59: 80
60: 80
segment: [2]
vertex id: label
64: 0
65: 1
66: 2
67: 1
68: 0
69: 1
70: 0
71: 4
72: 4
73: 4
74: 4
75: 4
76: 2
77: 2
78: 2
79: 3
80: 2
81: 2
82: 2
83: 1
0: 5
1: 5
2: 5
3: 5
4: 5
5: 5
6: 5
7: 5
8: 5
9: 5
10: 5
11: 5
12: 5
13: 5
14: 5
15: 5
16: 5
17: 5
18: 5
19: 5
20: 5
21: 5
22: 5
23: 5
24: 5
25: 5
26: 5
27: 5
28: 5
29: 5
30: 5
31: 5
32: 5
33: 5
34: 5
35: 5
36: 5
37: 5
38: 5
39: 5
40: 5
41: 5
42: 5
43: 5
44: 5
45: 5
46: 5
47: 5
48: 5
49: 5
50: 5
51: 5
52: 5
53: 5
54: 5
55: 5
56: 5
57: 5
58: 5
59: 5
60: 5
61: 5
62: 5
63: 5
edge from: to
64: 0
64: 1
64: 2
65: 1
65: 5
66: 5
66: 7
66: 8
67: 2
67: 11
68: 12
68: 14
68: 16
68: 18
69: 12
69: 20
69: 21
70: 19
70: 21
70: 23
70: 24
71: 24
72: 28
73: 29
74: 31
74: 32
74: 33
75: 20
75: 33
75: 34
76: 36
77: 42
77: 44
77: 45
78: 44
78: 46
78: 47
79: 45
79: 49
79: 50
80: 46
80: 50
81: 33
81: 49
81: 53
81: 54
82: 51
82: 54
83: 48
83: 57
83: 60
83: 61
3: 64
4: 64
5: 64
6: 65
7: 65
8: 65
9: 66
10: 66
11: 66
12: 67
13: 67
14: 67
15: 67
16: 67
17: 67
18: 67
19: 68
20: 68
21: 68
22: 69
23: 69
24: 69
25: 70
26: 70
27: 70
28: 71
29: 71
30: 71
31: 72
32: 73
33: 73
34: 74
35: 74
36: 75
37: 75
38: 75
39: 75
40: 75
41: 76
42: 76
43: 76
44: 76
45: 76
46: 77
47: 77
48: 78
49: 78
50: 78
51: 79
52: 80
53: 80
54: 80
55: 81
56: 82
57: 82
58: 82
59: 82
60: 82
61: 82
62: 83
63: 83
segment: [3]
vertex id: label
63: 0
64: 4
65: 2
66: 1
67: 4
68: 3
69: 4
70: 4
71: 4
72: 4
73: 4
74: 4
75: 4
76: 3
77: 0
78: 4
79: 4
80: 4
81: 1
82: 0
0: 5
1: 5
2: 5
3: 5
4: 5
5: 5
6: 5
7: 5
8: 5
9: 5
10: 5
11: 5
12: 5
13: 5
14: 5
15: 5
16: 5
17: 5
18: 5
19: 5
20: 5
21: 5
22: 5
23: 5
24: 5
25: 5
26: 5
27: 5
28: 5
29: 5
30: 5
31: 5
32: 5
33: 5
34: 5
35: 5
36: 5
37: 5
38: 5
39: 5
40: 5
41: 5
42: 5
43: 5
44: 5
45: 5
46: 5
47: 5
48: 5
49: 5
50: 5
51: 5
52: 5
53: 5
54: 5
55: 5
56: 5
57: 5
58: 5
59: 5
60: 5
61: 5
62: 5
edge from: to
63: 0
64: 2
64: 3
64: 4
65: 1
65: 5
66: 8
67: 10
68: 13
69: 15
70: 18
70: 19
71: 19
72: 22
72: 23
73: 15
73: 23
73: 25
74: 30
74: 31
75: 34
75: 37
76: 39
76: 41
77: 40
77: 42
78: 45
78: 47
79: 46
79: 50
80: 51
80: 54
81: 10
81: 45
81: 53
81: 57
82: 57
1: 63
2: 63
3: 63
4: 63
5: 64
6: 65
7: 65
8: 65
9: 66
10: 66
11: 66
12: 66
13: 67
14: 67
15: 67
16: 68
17: 68
18: 69
19: 69
20: 70
21: 71
22: 71
23: 71
24: 72
25: 72
26: 72
27: 73
28: 73
29: 73
30: 73
31: 73
32: 73
33: 74
34: 74
35: 74
36: 74
37: 74
38: 74
39: 75
40: 75
41: 75
42: 75
43: 76
44: 77
45: 77
46: 77
47: 77
48: 77
49: 78
50: 78
51: 78
52: 79
53: 79
54: 79
55: 79
56: 80
57: 80
58: 81
59: 81
60: 81
61: 81
62: 82
segment: [4]
vertex id: label
53: 0
54: 1
55: 0
56: 1
57: 4
58: 4
59: 3
60: 1
61: 0
62: 4
63: 4
64: 1
65: 0
66: 1
67: 2
68: 3
69: 0
70: 1
71: 3
72: 4
0: 5
1: 5
2: 5
3: 5
4: 5
5: 5
6: 5
7: 5
8: 5
9: 5
10: 5
11: 5
12: 5
13: 5
14: 5
15: 5
16: 5
17: 5
18: 5
19: 5
20: 5
21: 5
22: 5
23: 5
24: 5
25: 5
26: 5
27: 5
28: 5
29: 5
30: 5
31: 5
32: 5
33: 5
34: 5
35: 5
36: 5
37: 5
38: 5
39: 5
40: 5
41: 5
42: 5
43: 5
44: 5
45: 5
46: 5
47: 5
48: 5
49: 5
50: 5
51: 5
52: 5
edge from: to
53: 0
54: 4
55: 5
55: 7
55: 8
56: 2
56: 11
57: 11
58: 8
58: 11
58: 12
58: 14
59: 12
59: 13
59: 15
60: 14
60: 16
60: 18
61: 20
62: 22
63: 23
64: 28
65: 30
66: 31
66: 32
67: 34
68: 34
69: 35
69: 38
70: 41
70: 43
71: 43
71: 45
72: 45
72: 49
72: 50
1: 53
2: 53
3: 53
4: 53
5: 54
6: 54
7: 54
8: 54
9: 55
10: 55
11: 55
12: 56
13: 56
14: 57
15: 58
16: 59
17: 59
18: 59
19: 60
20: 60
21: 60
22: 61
23: 61
24: 61
25: 61
26: 62
27: 63
28: 63
29: 63
30: 63
31: 64
32: 64
33: 65
34: 66
35: 66
36: 66
37: 67
38: 67
39: 68
40: 69
41: 69
42: 69
43: 69
44: 69
45: 70
46: 70
47: 71
48: 71
49: 71
50: 71
51: 72
52: 72
segment: [5]
vertex id: label
62: 0
63: 4
64: 4
65: 1
66: 1
67: 0
68: 3
69: 3
70: 4
71: 4
72: 4
73: 4
74: 1
75: 4
76: 4
77: 4
78: 4
79: 1
80: 4
81: 4
0: 5
1: 5
2: 5
3: 5
4: 5
5: 5
6: 5
7: 5
8: 5
9: 5
10: 5
11: 5
12: 5
13: 5
14: 5
15: 5
16: 5
17: 5
18: 5
19: 5
20: 5
21: 5
22: 5
23: 5
24: 5
25: 5
26: 5
27: 5
28: 5
29: 5
30: 5
31: 5
32: 5
33: 5
34: 5
35: 5
36: 5
37: 5
38: 5
39: 5
40: 5
41: 5
42: 5
43: 5
44: 5
45: 5
46: 5
47: 5
48: 5
49: 5
50: 5
51: 5
52: 5
53: 5
54: 5
55: 5
56: 5
57: 5
58: 5
59: 5
60: 5
61: 5
edge from: to
62: 0
62: 1
62: 2
63: 3
64: 7
65: 5
65: 8
66: 6
66: 10
67: 11
67: 13
68: 12
68: 13
68: 15
69: 14
69: 16
69: 18
70: 21
70: 23
71: 23
72: 18
72: 24
72: 26
72: 27
73: 29
73: 30
74: 6
74: 32
74: 34
75: 21
75: 25
75: 33
75: 36
76: 7
76: 36
77: 39
78: 44
78: 46
78: 47
79: 44
80: 49
80: 53
81: 55
81: 58
3: 62
4: 63
5: 63
6: 63
7: 63
8: 64
9: 65
10: 65
11: 66
12: 66
13: 66
14: 67
15: 67
16: 68
17: 68
18: 68
19: 69
20: 69
21: 69
22: 69
23: 69
24: 69
25: 70
26: 70
27: 71
28: 72
29: 72
30: 72
31: 72
32: 73
33: 73
34: 73
35: 74
36: 74
37: 74
38: 75
39: 75
40: 75
41: 76
42: 76
43: 77
44: 77
45: 77
46: 77
47: 77
48: 78
49: 78
50: 79
51: 79
52: 79
53: 79
54: 79
55: 80
56: 80
57: 80
58: 80
59: 80
60: 81
61: 81
segment: [6]
vertex id: label
58: 0
59: 1
60: 4
61: 4
62: 3
63: 3
64: 2
65: 3
66: 4
67: 3
68: 4
69: 0
70: 2
71: 2
72: 1
73: 0
74: 1
75: 2
76: 1
77: 2
0: 5
1: 5
2: 5
3: 5
4: 5
5: 5
6: 5
7: 5
8: 5
9: 5
10: 5
11: 5
12: 5
13: 5
14: 5
15: 5
16: 5
17: 5
18: 5
19: 5
20: 5
21: 5
22: 5
23: 5
24: 5
25: 5
26: 5
27: 5
28: 5
29: 5
30: 5
31: 5
32: 5
33: 5
34: 5
35: 5
36: 5
37: 5
38: 5
39: 5
40: 5
41: 5
42: 5
43: 5
44: 5
45: 5
46: 5
47: 5
48: 5
49: 5
50: 5
51: 5
52: 5
53: 5
54: 5
55: 5
56: 5
57: 5
edge from: to
58: 0
58: 1
59: 0
59: 1
59: 2
59: 3
60: 5
60: 8
61: 6
61: 10
62: 11
63: 16
64: 19
64: 20
65: 21
66: 5
66: 16
66: 25
67: 26
68: 30
69: 31
70: 20
70: 33
70: 34
70: 35
71: 34
71: 37
72: 39
73: 43
74: 44
74: 46
74: 47
75: 45
76: 47
76: 51
76: 52
77: 51
2: 58
3: 58
4: 59
5: 59
6: 59
7: 59
8: 59
9: 60
10: 60
11: 61
12: 61
13: 61
14: 62
15: 62
16: 62
17: 62
18: 62
19: 63
20: 63
21: 64
22: 64
23: 64
24: 64
25: 65
26: 65
27: 65
28: 65
29: 66
30: 67
31: 67
32: 67
33: 68
34: 69
35: 69
36: 70
37: 70
38: 70
39: 71
40: 71
41: 71
42: 71
43: 72
44: 72
45: 72
46: 72
47: 73
48: 74
49: 75
50: 75
51: 75
52: 75
53: 76
54: 76
55: 76
56: 77
57: 77
segment: [7]
vertex id: label
60: 0
61: 1
62: 4
63: 4
64: 4
65: 4
66: 0
67: 1
68: 4
69: 1
70: 4
71: 4
72: 1
73: 4
74: 4
75: 4
76: 4
77: 4
78: 4
79: 4
0: 5
1: 5
2: 5
3: 5
4: 5
5: 5
6: 5
7: 5
8: 5
9: 5
10: 5
11: 5
12: 5
13: 5
14: 5
15: 5
16: 5
17: 5
18: 5
19: 5
20: 5
21: 5
22: 5
23: 5
24: 5
25: 5
26: 5
27: 5
28: 5
29: 5
30: 5
31: 5
32: 5
33: 5
34: 5
35: 5
36: 5
37: 5
38: 5
39: 5
40: 5
41: 5
42: 5
43: 5
44: 5
45: 5
46: 5
47: 5
48: 5
49: 5
50: 5
51: 5
52: 5
53: 5
54: 5
55: 5
56: 5
57: 5
58: 5
59: 5
edge from: to
60: 0
61: 1
61: 2
61: 3
62: 4
62: 7
63: 10
64: 11
64: 13
65: 13
65: 15
66: 15
67: 18
67: 19
68: 21
69: 18
69: 22
69: 23
70: 15
70: 23
70: 25
70: 26
71: 24
71: 26
72: 28
73: 30
74: 33
75: 39
76: 41
77: 44
77: 48
77: 49
78: 47
79: 49
1: 60
2: 60
3: 60
4: 61
5: 61
6: 61
7: 61
8: 62
9: 62
10: 62
11: 63
12: 63
13: 63
14: 64
15: 64
16: 65
17: 65
18: 66
19: 66
20: 67
21: 67
22: 67
23: 68
24: 69
25: 69
26: 69
27: 70
28: 71
29: 71
30: 71
31: 72
32: 72
33: 73
34: 73
35: 73
36: 73
37: 73
38: 74
39: 74
40: 74
41: 74
42: 74
43: 75
44: 75
45: 76
46: 76
47: 76
48: 76
49: 76
50: 77
51: 77
52: 77
53: 78
54: 78
55: 79
56: 79
57: 79
58: 79
59: 79
segment: [8]
vertex id: label
63: 0
64: 1
65: 4
66: 4
67: 4
68: 3
69: 4
70: 1
71: 0
72: 2
73: 2
74: 2
75: 4
76: 1
77: 4
78: 1
79: 4
80: 4
81: 3
82: 4
0: 5
1: 5
2: 5
3: 5
4: 5
5: 5
6: 5
7: 5
8: 5
9: 5
10: 5
11: 5
12: 5
13: 5
14: 5
15: 5
16: 5
17: 5
18: 5
19: 5
20: 5
21: 5
22: 5
23: 5
24: 5
25: 5
26: 5
27: 5
28: 5
29: 5
30: 5
31: 5
32: 5
33: 5
34: 5
35: 5
36: 5
37: 5
38: 5
39: 5
40: 5
41: 5
42: 5
43: 5
44: 5
45: 5
46: 5
47: 5
48: 5
49: 5
50: 5
51: 5
52: 5
53: 5
54: 5
55: 5
56: 5
57: 5
58: 5
59: 5
60: 5
61: 5
62: 5
edge from: to
63: 0
64: 4
65: 7
66: 10
67: 11
68: 3
68: 10
68: 15
69: 16
70: 20
71: 15
71: 21
71: 22
72: 23
73: 26
73: 28
74: 30
75: 6
75: 32
76: 34
76: 37
77: 27
77: 37
77: 40
77: 41
78: 39
79: 43
80: 45
81: 30
81: 48
81: 52
82: 53
1: 63
2: 63
3: 63
4: 63
5: 64
6: 64
7: 64
8: 65
9: 65
10: 65
11: 66
12: 66
13: 66
14: 67
15: 67
16: 67
17: 67
18: 68
19: 69
20: 69
21: 69
22: 70
23: 71
24: 71
25: 71
26: 71
27: 72
28: 72
29: 72
30: 73
31: 73
32: 73
33: 74
34: 74
35: 75
36: 75
37: 75
38: 75
39: 76
40: 76
41: 76
42: 77
43: 78
44: 78
45: 78
46: 78
47: 79
48: 79
49: 80
50: 80
51: 80
52: 80
53: 80
54: 81
55: 81
56: 81
57: 81
58: 82
59: 82
60: 82
61: 82
62: 82
segment: [9]
vertex id: label
63: 0
64: 1
65: 0
66: 4
67: 4
68: 3
69: 3
70: 4
71: 2
72: 3
73: 3
74: 4
75: 1
76: 4
77: 4
78: 4
79: 4
80: 4
81: 4
82: 0
0: 5
1: 5
2: 5
3: 5
4: 5
5: 5
6: 5
7: 5
8: 5
9: 5
10: 5
11: 5
12: 5
13: 5
14: 5
15: 5
16: 5
17: 5
18: 5
19: 5
20: 5
21: 5
22: 5
23: 5
24: 5
25: 5
26: 5
27: 5
28: 5
29: 5
30: 5
31: 5
32: 5
33: 5
34: 5
35: 5
36: 5
37: 5
38: 5
39: 5
40: 5
41: 5
42: 5
43: 5
44: 5
45: 5
46: 5
47: 5
48: 5
49: 5
50: 5
51: 5
52: 5
53: 5
54: 5
55: 5
56: 5
57: 5
58: 5
59: 5
60: 5
61: 5
62: 5
edge from: to
63: 0
64: 1
64: 2
64: 3
65: 7
66: 5
66: 6
66: 7
66: 8
67: 6
67: 7
67: 10
68: 12
68: 14
69: 3
69: 15
70: 20
71: 22
71: 24
71: 25
72: 24
72: 26
73: 28
73: 29
74: 26
74: 31
74: 32
74: 33
75: 33
76: 35
77: 7
77: 36
78: 41
78: 43
79: 46
80: 49
81: 53
82: 56
1: 63
2: 63
3: 63
4: 64
5: 64
6: 64
7: 64
8: 65
9: 66
10: 66
11: 67
12: 67
13: 67
14: 67
15: 68
16: 68
17: 68
18: 69
19: 69
20: 69
21: 69
22: 70
23: 70
24: 70
25: 70
26: 71
27: 71
28: 72
29: 72
30: 72
31: 73
32: 73
33: 73
34: 74
35: 74
36: 75
37: 75
38: 75
39: 75
40: 76
41: 77
42: 77
43: 77
44: 77
45: 78
46: 78
47: 78
48: 78
49: 78
50: 78
51: 78
52: 79
53: 79
54: 79
55: 80
56: 80
57: 80
58: 81
59: 81
60: 81
61: 82
62: 82
