segment: [0]
vertex id: label
30: 0
31: 2
32: 2
33: 3
34: 3
35: 2
36: 3
37: 3
38: 0
39: 2
0: 5
1: 5
2: 5
3: 5
4: 5
5: 5
6: 5
7: 5
8: 5
9: 5
10: 5
11: 5
12: 5
13: 5
14: 5
15: 5
16: 5
17: 5
18: 5
19: 5
20: 5
21: 5
22: 5
23: 5
24: 5
25: 5
26: 5
27: 5
28: 5
29: 5
edge from: to
30: 0
31: 1
32: 5
32: 6
33: 3
33: 6
33: 7
33: 8
34: 5
34: 13
35: 6
35: 15
35: 16
36: 14
36: 19
36: 20
37: 21
38: 22
38: 23
39: 23
39: 25
1: 30
2: 30
3: 30
4: 31
5: 31
6: 31
7: 32
8: 32
9: 33
10: 33
11: 33
12: 33
13: 33
14: 34
15: 34
16: 34
17: 35
18: 35
19: 35
20: 35
21: 36
22: 37
23: 37
24: 38
25: 38
26: 39
27: 39
28: 39
29: 39
segment: [1]
vertex id: label
22: 0
23: 2
24: 2
25: 1
26: 1
27: 1
28: 4
29: 2
30: 2
31: 2
0: 5
1: 5
2: 5
3: 5
4: 5
5: 5
6: 5
7: 5
8: 5
9: 5
10: 5
11: 5
12: 5
13: 5
14: 5
15: 5
16: 5
17: 5
18: 5
19: 5
20: 5
21: 5
edge from: to
22: 0
22: 1
23: 4
24: 2
24: 5
25: 7
26: 4
26: 9
27: 12
28: 5
28: 13
29: 14
30: 13
30: 14
30: 15
31: 18
2: 22
3: 22
4: 22
5: 23
6: 24
7: 24
8: 25
9: 25
10: 26
11: 26
12: 26
13: 27
14: 28
15: 29
16: 30
17: 30
18: 30
19: 31
20: 31
21: 31
segment: [2]
vertex id: label
33: 0
34: 1
35: 3
36: 2
37: 2
38: 3
39: 0
40: 2
41: 3
42: 2
0: 5
1: 5
2: 5
3: 5
4: 5
5: 5
6: 5
7: 5
8: 5
9: 5
10: 5
11: 5
12: 5
13: 5
14: 5
15: 5
16: 5
17: 5
18: 5
19: 5
20: 5
21: 5
22: 5
23: 5
24: 5
25: 5
26: 5
27: 5
28: 5
29: 5
30: 5
31: 5
32: 5
edge from: to
33: 0
34: 1
34: 3
35: 5
35: 6
36: 7
36: 10
37: 5
37: 13
38: 6
38: 11
38: 15
38: 16
39: 16
39: 18
40: 24
41: 10
41: 27
42: 11
42: 30
1: 33
2: 33
3: 33
4: 34
5: 34
6: 34
7: 35
8: 35
9: 35
10: 35
11: 36
12: 36
13: 36
14: 37
15: 37
16: 37
17: 38
18: 38
19: 39
20: 39
21: 39
22: 39
23: 39
24: 39
25: 40
26: 40
27: 40
28: 41
29: 41
30: 41
31: 42
32: 42
segment: [3]
vertex id: label
32: 0
33: 1
34: 1
35: 3
36: 2
37: 2
38: 3
39: 3
40: 2
41: 3
0: 5
1: 5
2: 5
3: 5
4: 5
5: 5
6: 5
7: 5
8: 5
9: 5
10: 5
11: 5
12: 5
13: 5
14: 5
15: 5
16: 5
17: 5
18: 5
19: 5
20: 5
21: 5
22: 5
23: 5
24: 5
25: 5
26: 5
27: 5
28: 5
29: 5
30: 5
31: 5
edge from: to
32: 0
32: 1
32: 2
32: 3
33: 5
33: 6
34: 4
34: 8
34: 9
35: 10
35: 11
36: 6
36: 16
37: 16
37: 18
38: 22
39: 22
39: 23
39: 25
40: 26
41: 10
4: 32
5: 32
6: 32
7: 33
8: 33
9: 33
10: 34
11: 34
12: 35
13: 35
14: 35
15: 35
16: 35
17: 36
18: 36
19: 37
20: 37
21: 37
22: 37
23: 38
24: 38
25: 38
26: 39
27: 40
28: 41
29: 41
30: 41
31: 41
segment: [4]
vertex id: label
32: 0
33: 2
34: 3
35: 3
36: 3
37: 2
38: 1
39: 3
40: 0
41: 2
0: 5
1: 5
2: 5
3: 5
4: 5
5: 5
6: 5
7: 5
8: 5
9: 5
10: 5
11: 5
12: 5
13: 5
14: 5
15: 5
16: 5
17: 5
18: 5
19: 5
20: 5
21: 5
22: 5
23: 5
24: 5
25: 5
26: 5
27: 5
28: 5
29: 5
30: 5
31: 5
edge from: to
32: 0
33: 2
34: 7
35: 7
35: 10
36: 11
36: 12
37: 15
38: 18
39: 14
39: 19
39: 20
40: 22
40: 23
41: 11
41: 26
1: 32
2: 32
3: 32
4: 32
5: 32
6: 33
7: 33
8: 34
9: 34
10: 34
11: 35
12: 35
13: 36
14: 36
15: 36
16: 37
17: 37
18: 37
19: 38
20: 38
21: 39
22: 39
23: 39
24: 40
25: 40
26: 40
27: 41
28: 41
29: 41
30: 41
31: 41
segment: [5]
vertex id: label
33: 0
34: 1
35: 1
36: 3
37: 3
38: 2
39: 3
40: 1
41: 3
42: 2
0: 5
1: 5
2: 5
3: 5
4: 5
5: 5
6: 5
7: 5
8: 5
9: 5
10: 5
11: 5
12: 5
13: 5
14: 5
15: 5
16: 5
17: 5
18: 5
19: 5
20: 5
21: 5
22: 5
23: 5
24: 5
25: 5
26: 5
27: 5
28: 5
29: 5
30: 5
31: 5
32: 5
edge from: to
33: 0
33: 1
33: 2
34: 7
35: 8
35: 10
35: 11
36: 6
36: 14
37: 6
37: 15
37: 16
38: 7
39: 20
40: 21
41: 7
41: 22
41: 23
41: 25
42: 20
42: 28
42: 29
3: 33
4: 33
5: 33
6: 33
7: 33
8: 34
9: 34
10: 34
11: 34
12: 35
13: 35
14: 35
15: 36
16: 36
17: 37
18: 37
19: 37
20: 38
21: 39
22: 40
23: 40
24: 40
25: 40
26: 41
27: 41
28: 41
29: 41
30: 42
31: 42
32: 42
segment: [6]
vertex id: label
33: 0
34: 1
35: 1
36: 3
37: 4
38: 1
39: 3
40: 2
41: 3
42: 3
0: 5
1: 5
2: 5
3: 5
4: 5
5: 5
6: 5
7: 5
8: 5
9: 5
10: 5
11: 5
12: 5
13: 5
14: 5
15: 5
16: 5
17: 5
18: 5
19: 5
20: 5
21: 5
22: 5
23: 5
24: 5
25: 5
26: 5
27: 5
28: 5
29: 5
30: 5
31: 5
32: 5
edge from: to
33: 0
33: 1
34: 1
35: 2
35: 3
35: 4
35: 5
36: 7
36: 8
36: 10
37: 10
37: 11
37: 12
38: 14
38: 15
39: 19
39: 20
40: 23
41: 11
41: 25
41: 26
42: 11
42: 30
2: 33
3: 34
4: 34
5: 34
6: 35
7: 35
8: 35
9: 35
10: 35
11: 36
12: 36
13: 37
14: 37
15: 37
16: 38
17: 38
18: 38
19: 38
20: 38
21: 39
22: 39
23: 39
24: 40
25: 40
26: 40
27: 41
28: 41
29: 41
30: 41
31: 42
32: 42
segment: [7]
vertex id: label
32: 0
33: 2
34: 3
35: 4
36: 1
37: 1
38: 1
39: 1
40: 1
41: 1
0: 5
1: 5
2: 5
3: 5
4: 5
5: 5
6: 5
7: 5
8: 5
9: 5
10: 5
11: 5
12: 5
13: 5
14: 5
15: 5
16: 5
17: 5
18: 5
19: 5
20: 5
21: 5
22: 5
23: 5
24: 5
25: 5
26: 5
27: 5
28: 5
29: 5
30: 5
31: 5
edge from: to
32: 0
32: 1
33: 2
33: 4
34: 7
34: 10
35: 11
35: 12
36: 6
36: 14
37: 6
38: 7
39: 21
39: 22
40: 26
40: 28
41: 11
41: 28
41: 30
2: 32
3: 32
4: 32
5: 33
6: 33
7: 33
8: 33
9: 33
10: 33
11: 34
12: 34
13: 35
14: 35
15: 36
16: 36
17: 37
18: 37
19: 37
20: 38
21: 38
22: 38
23: 39
24: 39
25: 39
26: 39
27: 39
28: 39
29: 40
30: 40
31: 41
segment: [8]
vertex id: label
21: 0
22: 2
23: 3
24: 1
25: 3
26: 2
27: 3
28: 4
29: 1
30: 4
0: 5
1: 5
2: 5
3: 5
4: 5
5: 5
6: 5
7: 5
8: 5
9: 5
10: 5
11: 5
12: 5
13: 5
14: 5
15: 5
16: 5
17: 5
18: 5
19: 5
20: 5
edge from: to
21: 0
22: 0
22: 1
23: 1
24: 2
24: 3
24: 4
24: 5
25: 6
26: 3
26: 8
27: 10
27: 11
28: 12
29: 6
29: 10
29: 14
30: 16
30: 17
1: 21
2: 22
3: 22
4: 23
5: 23
6: 24
7: 25
8: 25
9: 26
10: 26
11: 26
12: 27
13: 28
14: 28
15: 29
16: 29
17: 29
18: 30
19: 30
20: 30
segment: [9]
vertex id: label
29: 0
30: 1
31: 1
32: 1
33: 3
34: 3
35: 3
36: 2
37: 2
38: 1
0: 5
1: 5
2: 5
3: 5
4: 5
5: 5
6: 5
7: 5
8: 5
9: 5
10: 5
11: 5
12: 5
13: 5
14: 5
15: 5
16: 5
17: 5
18: 5
19: 5
20: 5
21: 5
22: 5
23: 5
24: 5
25: 5
26: 5
27: 5
28: 5
edge from: to
29: 0
30: 0
30: 1
30: 2
31: 2
32: 7
33: 7
33: 10
34: 5
35: 15
36: 7
36: 19
37: 16
37: 22
37: 23
38: 11
38: 25
38: 26
1: 29
3: 30
4: 30
5: 30
6: 31
7: 31
8: 32
9: 32
10: 32
11: 33
12: 33
13: 33
14: 34
15: 34
16: 35
17: 35
18: 35
19: 35
20: 36
21: 36
22: 36
23: 36
24: 37
25: 37
26: 37
27: 38
28: 38
