segment: [0]
vertex id: label
55: 0
56: 4
57: 3
58: 1
59: 4
60: 2
61: 2
62: 2
63: 0
64: 0
65: 1
66: 2
67: 3
68: 2
69: 2
70: 2
71: 2
72: 2
73: 3
74: 1
0: 5
1: 5
2: 5
3: 5
4: 5
5: 5
6: 5
7: 5
8: 5
9: 5
10: 5
11: 5
12: 5
13: 5
14: 5
15: 5
16: 5
17: 5
18: 5
19: 5
20: 5
21: 5
22: 5
23: 5
24: 5
25: 5
26: 5
27: 5
28: 5
29: 5
30: 5
31: 5
32: 5
33: 5
34: 5
35: 5
36: 5
37: 5
38: 5
39: 5
40: 5
41: 5
42: 5
43: 5
44: 5
45: 5
46: 5
47: 5
48: 5
49: 5
50: 5
51: 5
52: 5
53: 5
54: 5
edge from: to
55: 0
55: 1
56: 4
57: 3
57: 7
57: 8
58: 8
59: 10
59: 12
60: 11
60: 13
61: 13
62: 16
63: 17
64: 9
64: 20
64: 23
65: 25
65: 26
66: 24
67: 22
67: 29
67: 31
68: 3
68: 26
69: 29
69: 34
70: 35
70: 37
71: 33
71: 38
72: 35
73: 32
73: 37
73: 43
73: 45
74: 42
74: 49
2: 55
3: 55
4: 55
5: 56
6: 56
7: 56
8: 56
9: 57
10: 58
11: 58
12: 58
13: 59
14: 60
15: 60
16: 60
17: 61
18: 61
19: 61
20: 62
21: 63
22: 63
23: 63
24: 63
25: 64
26: 64
27: 65
28: 65
29: 65
30: 66
31: 66
32: 67
33: 68
34: 68
35: 68
36: 69
37: 69
38: 70
39: 70
40: 70
41: 71
42: 71
43: 71
44: 72
45: 72
46: 73
47: 73
48: 73
49: 73
50: 73
51: 73
52: 74
53: 74
54: 74
segment: [1]
vertex id: label
52: 0
53: 4
54: 0
55: 1
56: 0
57: 4
58: 3
59: 1
60: 3
61: 0
62: 0
63: 0
64: 0
65: 3
66: 0
67: 1
68: 0
69: 1
70: 0
71: 0
0: 5
1: 5
2: 5
3: 5
4: 5
5: 5
6: 5
7: 5
8: 5
9: 5
10: 5
11: 5
12: 5
13: 5
14: 5
15: 5
16: 5
17: 5
18: 5
19: 5
20: 5
21: 5
22: 5
23: 5
24: 5
25: 5
26: 5
27: 5
28: 5
29: 5
30: 5
31: 5
32: 5
33: 5
34: 5
35: 5
36: 5
37: 5
38: 5
39: 5
40: 5
41: 5
42: 5
43: 5
44: 5
45: 5
46: 5
47: 5
48: 5
49: 5
50: 5
51: 5
edge from: to
52: 0
53: 2
53: 3
53: 4
53: 5
54: 7
54: 8
55: 8
56: 5
56: 11
56: 12
56: 13
57: 14
58: 1
58: 15
58: 17
58: 18
59: 17
59: 19
59: 20
60: 18
60: 21
61: 21
61: 24
61: 25
62: 22
63: 23
64: 24
64: 28
64: 29
65: 25
65: 26
65: 28
65: 29
65: 30
66: 27
67: 29
67: 34
68: 36
69: 32
69: 37
70: 34
70: 39
71: 37
1: 52
2: 52
3: 52
4: 52
5: 52
6: 53
7: 53
8: 53
9: 54
10: 55
11: 55
12: 55
13: 55
14: 56
15: 56
16: 56
17: 56
18: 57
19: 58
20: 58
21: 59
22: 59
23: 60
24: 60
25: 60
26: 61
27: 61
28: 62
29: 63
30: 64
31: 65
32: 65
33: 65
34: 66
35: 66
36: 67
37: 68
38: 68
39: 68
40: 69
41: 69
42: 70
43: 70
44: 70
45: 70
46: 71
47: 71
48: 71
49: 71
50: 71
51: 71
segment: [2]
vertex id: label
65: 0
66: 0
67: 4
68: 2
69: 2
70: 2
71: 3
72: 1
73: 0
74: 0
75: 0
76: 0
77: 4
78: 3
79: 0
80: 4
81: 3
82: 1
83: 0
84: 0
0: 5
1: 5
2: 5
3: 5
4: 5
5: 5
6: 5
7: 5
8: 5
9: 5
10: 5
11: 5
12: 5
13: 5
14: 5
15: 5
16: 5
17: 5
18: 5
19: 5
20: 5
21: 5
22: 5
23: 5
24: 5
25: 5
26: 5
27: 5
28: 5
29: 5
30: 5
31: 5
32: 5
33: 5
34: 5
35: 5
36: 5
37: 5
38: 5
39: 5
40: 5
41: 5
42: 5
43: 5
44: 5
45: 5
46: 5
47: 5
48: 5
49: 5
50: 5
51: 5
52: 5
53: 5
54: 5
55: 5
56: 5
57: 5
58: 5
59: 5
60: 5
61: 5
62: 5
63: 5
64: 5
edge from: to
65: 0
66: 3
66: 4
67: 7
67: 8
68: 12
68: 13
69: 14
69: 16
70: 17
70: 19
71: 17
72: 20
73: 22
74: 3
74: 26
75: 29
76: 32
76: 37
76: 39
77: 16
77: 35
77: 41
78: 37
79: 45
79: 47
80: 41
81: 53
82: 47
83: 49
84: 50
1: 65
2: 65
3: 65
4: 65
5: 66
6: 66
7: 66
8: 66
9: 67
10: 67
11: 67
12: 67
13: 67
14: 67
15: 68
16: 68
17: 68
18: 69
19: 69
20: 69
21: 70
22: 71
23: 71
24: 71
25: 72
26: 72
27: 72
28: 73
29: 73
30: 73
31: 73
32: 73
33: 74
34: 74
35: 74
36: 75
37: 75
38: 75
39: 75
40: 76
41: 76
42: 76
43: 76
44: 77
45: 77
46: 78
47: 78
48: 79
49: 79
50: 79
51: 80
52: 80
53: 80
54: 81
55: 81
56: 81
57: 81
58: 82
59: 82
60: 82
61: 83
62: 84
63: 84
64: 84
segment: [3]
vertex id: label
61: 0
62: 0
63: 4
64: 4
65: 3
66: 4
67: 3
68: 1
69: 2
70: 0
71: 3
72: 1
73: 0
74: 0
75: 0
76: 0
77: 3
78: 1
79: 2
80: 0
0: 5
1: 5
2: 5
3: 5
4: 5
5: 5
6: 5
7: 5
8: 5
9: 5
10: 5
11: 5
12: 5
13: 5
14: 5
15: 5
16: 5
17: 5
18: 5
19: 5
20: 5
21: 5
22: 5
23: 5
24: 5
25: 5
26: 5
27: 5
28: 5
29: 5
30: 5
31: 5
32: 5
33: 5
34: 5
35: 5
36: 5
37: 5
38: 5
39: 5
40: 5
41: 5
42: 5
43: 5
44: 5
45: 5
46: 5
47: 5
48: 5
49: 5
50: 5
51: 5
52: 5
53: 5
54: 5
55: 5
56: 5
57: 5
58: 5
59: 5
60: 5
edge from: to
61: 0
62: 1
62: 3
62: 4
63: 6
63: 7
64: 1
64: 9
64: 11
65: 10
65: 12
65: 13
65: 14
66: 14
66: 15
67: 16
68: 19
68: 22
69: 22
70: 24
70: 28
71: 25
71: 29
71: 30
72: 27
72: 32
73: 35
73: 36
74: 33
74: 38
74: 40
75: 4
75: 40
75: 42
76: 38
76: 44
77: 34
77: 45
77: 46
77: 48
78: 41
79: 45
79: 53
80: 47
80: 55
1: 61
2: 61
3: 61
4: 61
5: 62
6: 62
7: 62
8: 63
9: 63
10: 63
11: 63
12: 64
13: 64
14: 64
15: 65
16: 66
17: 66
18: 66
19: 66
20: 67
21: 67
22: 67
23: 67
24: 68
25: 68
26: 68
27: 68
28: 69
29: 69
30: 70
31: 71
32: 71
33: 71
34: 72
35: 72
36: 72
37: 73
38: 73
39: 73
40: 73
41: 74
42: 74
43: 75
44: 75
45: 75
46: 75
47: 76
48: 76
49: 77
50: 77
51: 78
52: 78
53: 78
54: 78
55: 78
56: 79
57: 79
58: 80
59: 80
60: 80
segment: [4]
vertex id: label
71: 0
72: 0
73: 1
74: 2
75: 2
76: 1
77: 3
78: 1
79: 2
80: 3
81: 0
82: 0
83: 4
84: 4
85: 3
86: 1
87: 0
88: 0
89: 1
90: 1
0: 5
1: 5
2: 5
3: 5
4: 5
5: 5
6: 5
7: 5
8: 5
9: 5
10: 5
11: 5
12: 5
13: 5
14: 5
15: 5
16: 5
17: 5
18: 5
19: 5
20: 5
21: 5
22: 5
23: 5
24: 5
25: 5
26: 5
27: 5
28: 5
29: 5
30: 5
31: 5
32: 5
33: 5
34: 5
35: 5
36: 5
37: 5
38: 5
39: 5
40: 5
41: 5
42: 5
43: 5
44: 5
45: 5
46: 5
47: 5
48: 5
49: 5
50: 5
51: 5
52: 5
53: 5
54: 5
55: 5
56: 5
57: 5
58: 5
59: 5
60: 5
61: 5
62: 5
63: 5
64: 5
65: 5
66: 5
67: 5
68: 5
69: 5
70: 5
edge from: to
71: 0
72: 5
72: 6
73: 8
74: 11
74: 13
75: 11
75: 14
75: 15
76: 17
76: 19
76: 20
77: 21
78: 24
78: 28
79: 27
80: 35
80: 37
81: 33
81: 38
81: 40
82: 35
83: 37
84: 40
85: 45
85: 53
86: 56
86: 58
87: 51
88: 61
88: 62
88: 63
88: 64
89: 53
89: 63
90: 55
90: 65
1: 71
2: 71
3: 71
4: 71
5: 71
6: 71
7: 72
8: 72
9: 72
10: 73
11: 73
12: 73
13: 73
14: 74
15: 74
16: 75
17: 75
18: 75
19: 75
20: 75
21: 76
22: 76
23: 76
24: 76
25: 76
26: 77
27: 77
28: 77
29: 77
30: 78
31: 78
32: 78
33: 78
34: 79
35: 79
36: 79
37: 79
38: 80
39: 80
40: 80
41: 81
42: 81
43: 81
44: 82
45: 82
46: 83
47: 83
48: 83
49: 83
50: 84
51: 84
52: 84
53: 84
54: 84
55: 84
56: 85
57: 85
58: 85
59: 86
60: 86
61: 86
62: 86
63: 87
64: 87
65: 88
66: 89
67: 89
68: 90
69: 90
70: 90
segment: [5]
vertex id: label
64: 0
65: 0
66: 4
67: 4
68: 3
69: 1
70: 1
71: 2
72: 3
73: 1
74: 4
75: 3
76: 1
77: 0
78: 0
79: 0
80: 3
81: 1
82: 4
83: 3
0: 5
1: 5
2: 5
3: 5
4: 5
5: 5
6: 5
7: 5
8: 5
9: 5
10: 5
11: 5
12: 5
13: 5
14: 5
15: 5
16: 5
17: 5
18: 5
19: 5
20: 5
21: 5
22: 5
23: 5
24: 5
25: 5
26: 5
27: 5
28: 5
29: 5
30: 5
31: 5
32: 5
33: 5
34: 5
35: 5
36: 5
37: 5
38: 5
39: 5
40: 5
41: 5
42: 5
43: 5
44: 5
45: 5
46: 5
47: 5
48: 5
49: 5
50: 5
51: 5
52: 5
53: 5
54: 5
55: 5
56: 5
57: 5
58: 5
59: 5
60: 5
61: 5
62: 5
63: 5
edge from: to
64: 0
65: 0
65: 1
65: 2
65: 3
66: 1
66: 3
66: 4
67: 7
67: 8
68: 1
68: 9
69: 11
69: 13
70: 13
71: 17
71: 19
71: 20
72: 21
72: 24
73: 29
73: 31
74: 28
75: 27
75: 31
75: 35
75: 36
75: 38
76: 34
77: 16
77: 35
77: 41
78: 36
78: 42
78: 44
79: 38
79: 44
80: 3
80: 50
80: 52
81: 46
82: 56
82: 57
82: 59
83: 50
83: 59
83: 61
1: 64
2: 64
4: 65
5: 66
6: 66
7: 66
8: 66
9: 67
10: 67
11: 67
12: 68
13: 68
14: 69
15: 69
16: 69
17: 70
18: 70
19: 70
20: 70
21: 71
22: 71
23: 71
24: 71
25: 71
26: 72
27: 72
28: 72
29: 72
30: 72
31: 72
32: 73
33: 73
34: 73
35: 74
36: 74
37: 74
38: 74
39: 75
40: 75
41: 75
42: 76
43: 76
44: 77
45: 78
46: 78
47: 79
48: 79
49: 79
50: 79
51: 79
52: 79
53: 80
54: 80
55: 80
56: 80
57: 81
58: 81
59: 81
60: 82
61: 82
62: 83
63: 83
segment: [6]
vertex id: label
49: 0
50: 3
51: 0
52: 0
53: 0
54: 4
55: 3
56: 0
57: 4
58: 3
59: 1
60: 0
61: 1
62: 0
63: 0
64: 4
65: 2
66: 2
67: 3
68: 1
0: 5
1: 5
2: 5
3: 5
4: 5
5: 5
6: 5
7: 5
8: 5
9: 5
10: 5
11: 5
12: 5
13: 5
14: 5
15: 5
16: 5
17: 5
18: 5
19: 5
20: 5
21: 5
22: 5
23: 5
24: 5
25: 5
26: 5
27: 5
28: 5
29: 5
30: 5
31: 5
32: 5
33: 5
34: 5
35: 5
36: 5
37: 5
38: 5
39: 5
40: 5
41: 5
42: 5
43: 5
44: 5
45: 5
46: 5
47: 5
48: 5
edge from: to
49: 0
49: 1
50: 0
50: 1
50: 2
50: 3
51: 5
51: 6
52: 7
53: 11
54: 15
55: 15
55: 17
56: 16
56: 18
57: 19
58: 20
59: 21
59: 24
59: 25
60: 25
60: 26
61: 22
61: 26
61: 27
62: 29
62: 31
63: 27
63: 32
64: 29
65: 33
66: 42
67: 36
67: 42
68: 37
2: 49
3: 49
4: 50
5: 50
6: 50
7: 51
8: 51
9: 52
10: 52
11: 52
12: 52
13: 52
14: 53
15: 53
16: 54
17: 54
18: 54
19: 55
20: 56
21: 56
22: 56
23: 56
24: 57
25: 58
26: 59
27: 60
28: 61
29: 61
30: 61
31: 61
32: 62
33: 62
34: 63
35: 63
36: 64
37: 64
38: 64
39: 64
40: 64
41: 65
42: 65
43: 66
44: 66
45: 67
46: 68
47: 68
48: 68
segment: [7]
vertex id: label
64: 0
65: 4
66: 3
67: 0
68: 0
69: 1
70: 4
71: 2
72: 3
73: 1
74: 1
75: 0
76: 3
77: 0
78: 1
79: 2
80: 2
81: 3
82: 4
83: 2
0: 5
1: 5
2: 5
3: 5
4: 5
5: 5
6: 5
7: 5
8: 5
9: 5
10: 5
11: 5
12: 5
13: 5
14: 5
15: 5
16: 5
17: 5
18: 5
19: 5
20: 5
21: 5
22: 5
23: 5
24: 5
25: 5
26: 5
27: 5
28: 5
29: 5
30: 5
31: 5
32: 5
33: 5
34: 5
35: 5
36: 5
37: 5
38: 5
39: 5
40: 5
41: 5
42: 5
43: 5
44: 5
45: 5
46: 5
47: 5
48: 5
49: 5
50: 5
51: 5
52: 5
53: 5
54: 5
55: 5
56: 5
57: 5
58: 5
59: 5
60: 5
61: 5
62: 5
63: 5
edge from: to
64: 0
65: 4
66: 8
67: 8
68: 12
69: 14
69: 15
70: 14
70: 16
70: 17
71: 17
71: 19
72: 9
72: 20
72: 23
73: 21
73: 24
74: 26
75: 24
76: 26
77: 34
77: 35
77: 36
78: 4
78: 40
78: 42
79: 36
79: 42
79: 44
80: 46
80: 48
81: 42
82: 44
83: 57
83: 59
1: 64
2: 64
3: 64
4: 64
5: 65
6: 65
7: 65
8: 65
9: 65
10: 66
11: 67
12: 67
13: 67
14: 67
15: 68
16: 69
17: 69
18: 70
19: 70
20: 70
21: 71
22: 71
23: 71
24: 71
25: 72
26: 73
27: 74
28: 74
29: 74
30: 75
31: 75
32: 75
33: 76
34: 76
35: 76
36: 76
37: 77
38: 77
39: 77
40: 77
41: 77
42: 77
43: 78
44: 78
45: 79
46: 79
47: 79
48: 79
49: 80
50: 80
51: 80
52: 81
53: 81
54: 81
55: 82
56: 82
57: 82
58: 82
59: 82
60: 83
61: 83
62: 83
63: 83
segment: [8]
vertex id: label
64: 0
65: 0
66: 4
67: 2
68: 2
69: 3
70: 2
71: 2
72: 3
73: 1
74: 0
75: 0
76: 0
77: 3
78: 3
79: 1
80: 0
81: 3
82: 1
83: 0
0: 5
1: 5
2: 5
3: 5
4: 5
5: 5
6: 5
7: 5
8: 5
9: 5
10: 5
11: 5
12: 5
13: 5
14: 5
15: 5
16: 5
17: 5
18: 5
19: 5
20: 5
21: 5
22: 5
23: 5
24: 5
25: 5
26: 5
27: 5
28: 5
29: 5
30: 5
31: 5
32: 5
33: 5
34: 5
35: 5
36: 5
37: 5
38: 5
39: 5
40: 5
41: 5
42: 5
43: 5
44: 5
45: 5
46: 5
47: 5
48: 5
49: 5
50: 5
51: 5
52: 5
53: 5
54: 5
55: 5
56: 5
57: 5
58: 5
59: 5
60: 5
61: 5
62: 5
63: 5
edge from: to
64: 0
64: 1
64: 2
65: 5
65: 6
66: 7
66: 8
67: 10
68: 12
69: 15
70: 11
70: 17
70: 19
70: 20
71: 18
71: 21
72: 20
72: 23
73: 26
74: 25
74: 29
75: 28
75: 32
75: 33
75: 34
76: 36
77: 15
77: 20
77: 35
77: 36
77: 37
78: 35
79: 37
79: 43
80: 40
80: 46
80: 47
80: 49
81: 42
81: 49
82: 5
82: 53
83: 56
83: 58
3: 64
4: 64
5: 64
6: 64
7: 65
8: 65
9: 66
10: 66
11: 66
12: 66
13: 67
14: 67
15: 68
16: 68
17: 68
18: 68
19: 69
20: 69
21: 70
22: 70
23: 71
24: 71
25: 72
26: 72
27: 73
28: 73
29: 73
30: 73
31: 74
32: 74
33: 74
34: 74
35: 75
36: 75
37: 76
38: 77
39: 77
40: 77
41: 77
42: 77
43: 77
44: 78
45: 78
46: 79
47: 79
48: 79
49: 79
50: 80
51: 80
52: 81
53: 81
54: 82
55: 82
56: 82
57: 82
58: 82
59: 83
60: 83
61: 83
62: 83
63: 83
segment: [9]
vertex id: label
61: 0
62: 0
63: 0
64: 0
65: 2
66: 2
67: 2
68: 1
69: 0
70: 0
71: 3
72: 1
73: 0
74: 0
75: 4
76: 0
77: 4
78: 2
79: 2
80: 3
0: 5
1: 5
2: 5
3: 5
4: 5
5: 5
6: 5
7: 5
8: 5
9: 5
10: 5
11: 5
12: 5
13: 5
14: 5
15: 5
16: 5
17: 5
18: 5
19: 5
20: 5
21: 5
22: 5
23: 5
24: 5
25: 5
26: 5
27: 5
28: 5
29: 5
30: 5
31: 5
32: 5
33: 5
34: 5
35: 5
36: 5
37: 5
38: 5
39: 5
40: 5
41: 5
42: 5
43: 5
44: 5
45: 5
46: 5
47: 5
48: 5
49: 5
50: 5
51: 5
52: 5
53: 5
54: 5
55: 5
56: 5
57: 5
58: 5
59: 5
60: 5
edge from: to
61: 0
61: 1
62: 4
62: 5
63: 6
64: 8
64: 9
65: 1
65: 9
65: 11
66: 12
66: 13
66: 14
67: 14
68: 17
69: 18
69: 21
69: 22
70: 25
70: 26
71: 3
71: 26
72: 28
72: 33
73: 32
74: 34
74: 39
74: 41
75: 37
75: 43
76: 46
76: 48
77: 40
77: 47
78: 53
79: 45
79: 53
80: 47
2: 61
3: 61
4: 61
5: 61
6: 62
7: 62
8: 63
9: 63
10: 64
11: 64
12: 65
13: 65
14: 65
15: 66
16: 66
17: 66
18: 67
19: 67
20: 67
21: 68
22: 68
23: 69
24: 69
25: 69
26: 69
27: 70
28: 70
29: 70
30: 70
31: 70
32: 70
33: 71
34: 71
35: 72
36: 72
37: 72
38: 72
39: 72
40: 73
41: 73
42: 74
43: 74
44: 74
45: 74
46: 75
47: 75
48: 75
49: 76
50: 77
51: 77
52: 77
53: 77
54: 78
55: 78
56: 79
57: 79
58: 80
59: 80
60: 80
