segment: [0]
vertex id: label
27: 0
28: 0
29: 2
30: 2
31: 3
32: 4
33: 4
34: 4
35: 4
36: 4
0: 5
1: 5
2: 5
3: 5
4: 5
5: 5
6: 5
7: 5
8: 5
9: 5
10: 5
11: 5
12: 5
13: 5
14: 5
15: 5
16: 5
17: 5
18: 5
19: 5
20: 5
21: 5
22: 5
23: 5
24: 5
25: 5
26: 5
edge from: to
27: 0
27: 1
27: 2
28: 2
28: 3
29: 7
30: 3
30: 8
30: 9
30: 10
31: 10
31: 13
32: 11
32: 14
32: 15
33: 7
33: 12
34: 14
34: 19
35: 21
36: 11
36: 24
36: 25
3: 27
4: 27
5: 28
6: 28
7: 28
8: 28
9: 28
10: 29
11: 30
12: 30
13: 30
14: 31
15: 31
16: 32
17: 33
18: 33
19: 33
20: 34
21: 34
22: 35
23: 35
24: 35
25: 35
26: 36
segment: [1]
vertex id: label
36: 0
37: 0
38: 2
39: 2
40: 4
41: 1
42: 4
43: 2
44: 3
45: 1
0: 5
1: 5
2: 5
3: 5
4: 5
5: 5
6: 5
7: 5
8: 5
9: 5
10: 5
11: 5
12: 5
13: 5
14: 5
15: 5
16: 5
17: 5
18: 5
19: 5
20: 5
21: 5
22: 5
23: 5
24: 5
25: 5
26: 5
27: 5
28: 5
29: 5
30: 5
31: 5
32: 5
33: 5
34: 5
35: 5
edge from: to
36: 0
36: 1
37: 5
37: 6
38: 10
39: 10
39: 13
40: 11
41: 14
41: 19
42: 21
43: 10
43: 17
44: 13
44: 30
45: 31
45: 33
2: 36
3: 36
4: 36
5: 36
6: 36
7: 37
8: 37
9: 37
10: 37
11: 38
12: 38
13: 38
14: 39
15: 39
16: 40
17: 40
18: 40
19: 40
20: 41
21: 41
22: 42
23: 42
24: 43
25: 43
26: 43
27: 43
28: 43
29: 43
30: 43
31: 44
32: 44
33: 44
34: 45
35: 45
segment: [2]
vertex id: label
30: 0
31: 3
32: 2
33: 2
34: 1
35: 4
36: 0
37: 0
38: 3
39: 2
0: 5
1: 5
2: 5
3: 5
4: 5
5: 5
6: 5
7: 5
8: 5
9: 5
10: 5
11: 5
12: 5
13: 5
14: 5
15: 5
16: 5
17: 5
18: 5
19: 5
20: 5
21: 5
22: 5
23: 5
24: 5
25: 5
26: 5
27: 5
28: 5
29: 5
edge from: to
30: 0
30: 1
30: 2
31: 0
31: 3
32: 1
32: 2
32: 6
32: 7
32: 8
33: 5
33: 8
34: 12
34: 13
34: 14
35: 11
36: 14
36: 19
37: 20
37: 21
38: 22
39: 21
39: 28
3: 30
4: 31
5: 31
6: 31
7: 31
8: 31
9: 32
10: 32
11: 32
12: 33
13: 33
14: 33
15: 34
16: 35
17: 35
18: 35
19: 35
20: 36
21: 36
22: 37
23: 38
24: 38
25: 38
26: 38
27: 38
28: 38
29: 39
segment: [3]
vertex id: label
36: 0
37: 0
38: 0
39: 3
40: 3
41: 3
42: 2
43: 3
44: 1
45: 3
0: 5
1: 5
2: 5
3: 5
4: 5
5: 5
6: 5
7: 5
8: 5
9: 5
10: 5
11: 5
12: 5
13: 5
14: 5
15: 5
16: 5
17: 5
18: 5
19: 5
20: 5
21: 5
22: 5
23: 5
24: 5
25: 5
26: 5
27: 5
28: 5
29: 5
30: 5
31: 5
32: 5
33: 5
34: 5
35: 5
edge from: to
36: 0
36: 1
37: 4
37: 5
38: 8
38: 9
38: 10
39: 13
39: 14
40: 11
40: 15
41: 14
41: 18
41: 19
42: 18
42: 23
42: 24
43: 21
43: 28
44: 13
44: 30
45: 25
45: 34
2: 36
3: 36
4: 36
5: 36
6: 37
7: 37
8: 37
9: 37
10: 37
11: 38
12: 38
13: 38
14: 38
15: 39
16: 40
17: 40
18: 40
19: 40
20: 41
21: 41
22: 41
23: 41
24: 41
25: 42
26: 42
27: 42
28: 42
29: 43
30: 43
31: 44
32: 44
33: 44
34: 44
35: 45
segment: [4]
vertex id: label
37: 0
38: 3
39: 3
40: 1
41: 4
42: 4
43: 1
44: 0
45: 0
46: 0
0: 5
1: 5
2: 5
3: 5
4: 5
5: 5
6: 5
7: 5
8: 5
9: 5
10: 5
11: 5
12: 5
13: 5
14: 5
15: 5
16: 5
17: 5
18: 5
19: 5
20: 5
21: 5
22: 5
23: 5
24: 5
25: 5
26: 5
27: 5
28: 5
29: 5
30: 5
31: 5
32: 5
33: 5
34: 5
35: 5
36: 5
edge from: to
37: 0
38: 3
39: 9
39: 10
40: 10
40: 13
41: 14
42: 1
42: 13
42: 15
42: 17
43: 21
44: 10
44: 17
44: 22
45: 27
45: 29
46: 30
46: 32
1: 37
2: 37
3: 37
4: 37
5: 38
6: 38
7: 38
8: 38
9: 38
10: 38
11: 39
12: 39
13: 39
14: 40
15: 41
16: 41
17: 41
18: 42
19: 42
20: 42
21: 42
22: 43
23: 43
24: 44
25: 44
26: 44
27: 44
28: 44
29: 44
30: 45
31: 45
32: 45
33: 46
34: 46
35: 46
36: 46
segment: [5]
vertex id: label
30: 0
31: 4
32: 1
33: 0
34: 3
35: 1
36: 4
37: 2
38: 2
39: 2
0: 5
1: 5
2: 5
3: 5
4: 5
5: 5
6: 5
7: 5
8: 5
9: 5
10: 5
11: 5
12: 5
13: 5
14: 5
15: 5
16: 5
17: 5
18: 5
19: 5
20: 5
21: 5
22: 5
23: 5
24: 5
25: 5
26: 5
27: 5
28: 5
29: 5
edge from: to
30: 0
31: 2
31: 3
32: 8
32: 9
32: 10
33: 10
34: 11
34: 14
34: 15
35: 14
36: 18
36: 20
36: 21
36: 22
37: 10
37: 17
38: 18
39: 23
39: 24
39: 26
1: 30
2: 30
3: 30
4: 30
5: 31
6: 31
7: 31
8: 31
9: 31
10: 31
11: 32
12: 32
13: 32
14: 33
15: 33
16: 34
17: 34
18: 34
19: 34
20: 35
21: 35
22: 35
23: 36
24: 37
25: 38
26: 38
27: 39
28: 39
29: 39
segment: [6]
vertex id: label
25: 0
26: 0
27: 3
28: 2
29: 3
30: 3
31: 3
32: 3
33: 2
34: 1
0: 5
1: 5
2: 5
3: 5
4: 5
5: 5
6: 5
7: 5
8: 5
9: 5
10: 5
11: 5
12: 5
13: 5
14: 5
15: 5
16: 5
17: 5
18: 5
19: 5
20: 5
21: 5
22: 5
23: 5
24: 5
edge from: to
25: 0
25: 1
26: 2
27: 2
27: 3
28: 5
28: 6
29: 6
29: 7
30: 10
30: 13
31: 7
31: 12
31: 13
31: 15
32: 8
32: 18
33: 15
33: 20
34: 18
34: 20
34: 21
34: 22
2: 25
3: 26
4: 26
5: 27
6: 27
7: 28
8: 29
9: 29
10: 29
11: 29
12: 29
13: 29
14: 30
15: 30
16: 30
17: 31
18: 31
19: 32
20: 32
21: 33
22: 33
23: 34
24: 34
segment: [7]
vertex id: label
36: 0
37: 3
38: 2
39: 4
40: 4
41: 2
42: 3
43: 4
44: 1
45: 0
0: 5
1: 5
2: 5
3: 5
4: 5
5: 5
6: 5
7: 5
8: 5
9: 5
10: 5
11: 5
12: 5
13: 5
14: 5
15: 5
16: 5
17: 5
18: 5
19: 5
20: 5
21: 5
22: 5
23: 5
24: 5
25: 5
26: 5
27: 5
28: 5
29: 5
30: 5
31: 5
32: 5
33: 5
34: 5
35: 5
edge from: to
36: 0
36: 1
37: 5
38: 5
38: 8
38: 10
39: 8
39: 11
39: 12
39: 13
39: 14
40: 11
40: 15
41: 12
42: 15
42: 20
43: 10
43: 17
44: 20
45: 13
45: 30
2: 36
3: 36
4: 36
5: 36
6: 36
7: 37
8: 37
9: 37
10: 37
11: 37
12: 38
13: 38
14: 38
15: 39
16: 40
17: 41
18: 41
19: 41
20: 41
21: 42
22: 42
23: 42
24: 43
25: 43
26: 43
27: 43
28: 44
29: 44
30: 44
31: 45
32: 45
33: 45
34: 45
35: 45
segment: [8]
vertex id: label
35: 0
36: 1
37: 1
38: 0
39: 0
40: 3
41: 3
42: 2
43: 4
44: 1
0: 5
1: 5
2: 5
3: 5
4: 5
5: 5
6: 5
7: 5
8: 5
9: 5
10: 5
11: 5
12: 5
13: 5
14: 5
15: 5
16: 5
17: 5
18: 5
19: 5
20: 5
21: 5
22: 5
23: 5
24: 5
25: 5
26: 5
27: 5
28: 5
29: 5
30: 5
31: 5
32: 5
33: 5
34: 5
edge from: to
35: 0
35: 1
36: 0
36: 3
37: 5
38: 10
39: 8
40: 9
40: 12
41: 11
42: 13
43: 11
43: 22
43: 24
43: 25
44: 21
44: 28
2: 35
3: 35
4: 36
5: 36
6: 36
7: 37
8: 37
9: 37
10: 37
11: 38
12: 39
13: 40
14: 40
15: 40
16: 41
17: 41
18: 42
19: 42
20: 42
21: 42
22: 42
23: 42
24: 42
25: 42
26: 43
27: 43
28: 43
29: 44
30: 44
31: 44
32: 44
33: 44
34: 44
segment: [9]
vertex id: label
35: 0
36: 0
37: 3
38: 3
39: 2
40: 0
41: 0
42: 3
43: 2
44: 0
0: 5
1: 5
2: 5
3: 5
4: 5
5: 5
6: 5
7: 5
8: 5
9: 5
10: 5
11: 5
12: 5
13: 5
14: 5
15: 5
16: 5
17: 5
18: 5
19: 5
20: 5
21: 5
22: 5
23: 5
24: 5
25: 5
26: 5
27: 5
28: 5
29: 5
30: 5
31: 5
32: 5
33: 5
34: 5
edge from: to
35: 0
35: 1
36: 0
36: 3
37: 9
37: 10
38: 10
38: 12
38: 13
39: 1
39: 13
39: 17
40: 15
41: 21
42: 18
42: 24
43: 24
43: 26
44: 30
2: 35
3: 35
4: 36
5: 36
6: 36
7: 36
8: 36
9: 36
10: 36
11: 37
12: 37
13: 37
14: 38
15: 38
16: 38
17: 38
18: 39
19: 39
20: 39
21: 40
22: 41
23: 41
24: 41
25: 42
26: 42
27: 43
28: 43
29: 43
30: 43
31: 44
32: 44
33: 44
34: 44
