segment: [0]
vertex id: label
67: 0
68: 2
69: 3
70: 0
71: 2
72: 3
73: 3
74: 0
75: 1
76: 2
77: 3
78: 0
79: 2
80: 3
81: 0
82: 1
83: 0
84: 1
85: 0
86: 2
0: 5
1: 5
2: 5
3: 5
4: 5
5: 5
6: 5
7: 5
8: 5
9: 5
10: 5
11: 5
12: 5
13: 5
14: 5
15: 5
16: 5
17: 5
18: 5
19: 5
20: 5
21: 5
22: 5
23: 5
24: 5
25: 5
26: 5
27: 5
28: 5
29: 5
30: 5
31: 5
32: 5
33: 5
34: 5
35: 5
36: 5
37: 5
38: 5
39: 5
40: 5
41: 5
42: 5
43: 5
44: 5
45: 5
46: 5
47: 5
48: 5
49: 5
50: 5
51: 5
52: 5
53: 5
54: 5
55: 5
56: 5
57: 5
58: 5
59: 5
60: 5
61: 5
62: 5
63: 5
64: 5
65: 5
66: 5
edge from: to
67: 0
67: 1
68: 2
69: 0
69: 3
70: 9
70: 10
71: 8
71: 10
71: 15
71: 16
71: 17
72: 19
73: 11
73: 22
74: 25
75: 31
76: 15
77: 38
78: 37
78: 40
79: 41
80: 20
80: 40
81: 45
82: 49
83: 54
84: 57
85: 58
86: 57
86: 61
2: 67
3: 67
4: 67
5: 68
6: 68
7: 69
8: 69
9: 69
10: 69
11: 70
12: 70
13: 70
14: 70
15: 70
16: 70
17: 70
18: 71
19: 71
20: 72
21: 72
22: 72
23: 72
24: 72
25: 73
26: 74
27: 74
28: 74
29: 74
30: 74
31: 74
32: 75
33: 75
34: 76
35: 76
36: 76
37: 76
38: 76
39: 77
40: 77
41: 78
42: 79
43: 79
44: 79
45: 80
46: 81
47: 81
48: 81
49: 81
50: 82
51: 82
52: 82
53: 82
54: 82
55: 83
56: 83
57: 83
58: 84
59: 85
60: 85
61: 85
62: 86
63: 86
64: 86
65: 86
66: 86
segment: [1]
vertex id: label
60: 0
61: 1
62: 4
63: 1
64: 2
65: 3
66: 0
67: 2
68: 3
69: 0
70: 0
71: 1
72: 1
73: 4
74: 3
75: 0
76: 2
77: 3
78: 0
79: 0
0: 5
1: 5
2: 5
3: 5
4: 5
5: 5
6: 5
7: 5
8: 5
9: 5
10: 5
11: 5
12: 5
13: 5
14: 5
15: 5
16: 5
17: 5
18: 5
19: 5
20: 5
21: 5
22: 5
23: 5
24: 5
25: 5
26: 5
27: 5
28: 5
29: 5
30: 5
31: 5
32: 5
33: 5
34: 5
35: 5
36: 5
37: 5
38: 5
39: 5
40: 5
41: 5
42: 5
43: 5
44: 5
45: 5
46: 5
47: 5
48: 5
49: 5
50: 5
51: 5
52: 5
53: 5
54: 5
55: 5
56: 5
57: 5
58: 5
59: 5
edge from: to
60: 0
61: 0
61: 5
62: 6
62: 9
63: 10
64: 10
64: 11
65: 16
66: 8
67: 17
67: 19
68: 19
68: 21
69: 25
69: 27
70: 32
71: 15
72: 16
73: 34
73: 37
74: 40
75: 43
75: 47
76: 49
77: 52
78: 52
78: 54
78: 55
78: 56
79: 58
1: 60
2: 60
3: 60
4: 60
5: 60
6: 61
7: 61
8: 61
9: 61
10: 62
11: 63
12: 64
13: 64
14: 64
15: 64
16: 64
17: 65
18: 66
19: 66
20: 67
21: 67
22: 68
23: 68
24: 68
25: 68
26: 68
27: 68
28: 69
29: 69
30: 69
31: 69
32: 69
33: 70
34: 71
35: 71
36: 72
37: 72
38: 73
39: 73
40: 73
41: 74
42: 74
43: 74
44: 74
45: 74
46: 74
47: 74
48: 75
49: 75
50: 76
51: 76
52: 76
53: 77
54: 77
55: 77
56: 77
57: 78
58: 78
59: 79
segment: [2]
vertex id: label
67: 0
68: 2
69: 3
70: 2
71: 3
72: 2
73: 2
74: 3
75: 4
76: 3
77: 2
78: 2
79: 3
80: 0
81: 1
82: 1
83: 4
84: 2
85: 3
86: 3
0: 5
1: 5
2: 5
3: 5
4: 5
5: 5
6: 5
7: 5
8: 5
9: 5
10: 5
11: 5
12: 5
13: 5
14: 5
15: 5
16: 5
17: 5
18: 5
19: 5
20: 5
21: 5
22: 5
23: 5
24: 5
25: 5
26: 5
27: 5
28: 5
29: 5
30: 5
31: 5
32: 5
33: 5
34: 5
35: 5
36: 5
37: 5
38: 5
39: 5
40: 5
41: 5
42: 5
43: 5
44: 5
45: 5
46: 5
47: 5
48: 5
49: 5
50: 5
51: 5
52: 5
53: 5
54: 5
55: 5
56: 5
57: 5
58: 5
59: 5
60: 5
61: 5
62: 5
63: 5
64: 5
65: 5
66: 5
edge from: to
67: 0
68: 0
68: 3
69: 0
69: 3
69: 4
70: 9
71: 2
71: 4
71: 7
71: 9
71: 10
71: 11
72: 7
72: 9
72: 14
73: 17
73: 18
74: 20
75: 11
76: 27
77: 18
77: 28
77: 30
77: 31
78: 16
78: 32
78: 35
79: 39
80: 42
81: 20
81: 40
81: 44
82: 49
83: 52
84: 24
84: 49
84: 53
85: 52
85: 56
86: 55
86: 59
1: 67
2: 67
3: 67
4: 68
5: 68
6: 68
7: 69
8: 69
9: 69
10: 70
11: 70
12: 71
13: 71
14: 71
15: 71
16: 72
17: 72
18: 72
19: 73
20: 73
21: 74
22: 74
23: 74
24: 74
25: 75
26: 75
27: 75
28: 76
29: 76
30: 76
31: 76
32: 77
33: 77
34: 77
35: 77
36: 78
37: 78
38: 78
39: 78
40: 79
41: 79
42: 79
43: 80
44: 80
45: 81
46: 81
47: 81
48: 81
49: 81
50: 82
51: 82
52: 82
53: 83
54: 84
55: 84
56: 84
57: 85
58: 85
59: 85
60: 86
61: 86
62: 86
63: 86
64: 86
65: 86
66: 86
segment: [3]
vertex id: label
67: 0
68: 1
69: 1
70: 0
71: 2
72: 3
73: 0
74: 1
75: 2
76: 3
77: 0
78: 1
79: 0
80: 1
81: 2
82: 1
83: 2
84: 3
85: 0
86: 2
0: 5
1: 5
2: 5
3: 5
4: 5
5: 5
6: 5
7: 5
8: 5
9: 5
10: 5
11: 5
12: 5
13: 5
14: 5
15: 5
16: 5
17: 5
18: 5
19: 5
20: 5
21: 5
22: 5
23: 5
24: 5
25: 5
26: 5
27: 5
28: 5
29: 5
30: 5
31: 5
32: 5
33: 5
34: 5
35: 5
36: 5
37: 5
38: 5
39: 5
40: 5
41: 5
42: 5
43: 5
44: 5
45: 5
46: 5
47: 5
48: 5
49: 5
50: 5
51: 5
52: 5
53: 5
54: 5
55: 5
56: 5
57: 5
58: 5
59: 5
60: 5
61: 5
62: 5
63: 5
64: 5
65: 5
66: 5
edge from: to
67: 0
67: 1
67: 2
67: 3
68: 7
69: 6
69: 12
70: 18
71: 20
72: 23
73: 25
74: 27
74: 30
75: 20
75: 31
75: 34
76: 37
77: 36
77: 39
78: 20
78: 40
78: 44
79: 45
80: 1
80: 50
81: 51
82: 24
82: 49
82: 53
83: 36
83: 50
83: 54
84: 53
84: 57
85: 60
86: 63
4: 67
5: 67
6: 67
7: 67
8: 68
9: 68
10: 68
11: 68
12: 68
13: 68
14: 69
15: 69
16: 69
17: 69
18: 69
19: 70
20: 70
21: 71
22: 71
23: 71
24: 72
25: 72
26: 73
27: 73
28: 73
29: 73
30: 73
31: 74
32: 74
33: 74
34: 74
35: 75
36: 75
37: 75
38: 76
39: 76
40: 77
41: 77
42: 77
43: 77
44: 77
45: 78
46: 79
47: 79
48: 79
49: 79
50: 79
51: 80
52: 81
53: 81
54: 82
55: 83
56: 83
57: 83
58: 84
59: 84
60: 84
61: 85
62: 85
63: 85
64: 86
65: 86
66: 86
segment: [4]
vertex id: label
47: 0
48: 2
49: 3
50: 0
51: 2
52: 3
53: 0
54: 2
55: 3
56: 2
57: 3
58: 2
59: 3
60: 4
61: 1
62: 2
63: 3
64: 0
65: 1
66: 0
0: 5
1: 5
2: 5
3: 5
4: 5
5: 5
6: 5
7: 5
8: 5
9: 5
10: 5
11: 5
12: 5
13: 5
14: 5
15: 5
16: 5
17: 5
18: 5
19: 5
20: 5
21: 5
22: 5
23: 5
24: 5
25: 5
26: 5
27: 5
28: 5
29: 5
30: 5
31: 5
32: 5
33: 5
34: 5
35: 5
36: 5
37: 5
38: 5
39: 5
40: 5
41: 5
42: 5
43: 5
44: 5
45: 5
46: 5
edge from: to
47: 0
48: 1
49: 3
50: 0
50: 3
50: 5
51: 0
51: 7
52: 4
53: 9
53: 10
54: 12
55: 6
55: 8
55: 12
56: 8
56: 16
57: 18
57: 20
58: 21
59: 11
59: 22
60: 27
61: 15
62: 36
63: 35
63: 38
64: 38
64: 41
65: 42
66: 20
66: 40
1: 47
2: 48
3: 48
4: 49
5: 49
6: 50
7: 50
8: 51
9: 52
10: 52
11: 53
12: 53
13: 54
14: 55
15: 55
16: 55
17: 55
18: 56
19: 56
20: 56
21: 57
22: 58
23: 58
24: 58
25: 59
26: 59
27: 59
28: 60
29: 60
30: 60
31: 60
32: 60
33: 60
34: 61
35: 61
36: 61
37: 62
38: 62
39: 63
40: 63
41: 63
42: 64
43: 65
44: 65
45: 66
46: 66
segment: [5]
vertex id: label
58: 0
59: 1
60: 2
61: 3
62: 0
63: 2
64: 3
65: 0
66: 2
67: 3
68: 4
69: 3
70: 1
71: 4
72: 3
73: 0
74: 1
75: 2
76: 1
77: 0
0: 5
1: 5
2: 5
3: 5
4: 5
5: 5
6: 5
7: 5
8: 5
9: 5
10: 5
11: 5
12: 5
13: 5
14: 5
15: 5
16: 5
17: 5
18: 5
19: 5
20: 5
21: 5
22: 5
23: 5
24: 5
25: 5
26: 5
27: 5
28: 5
29: 5
30: 5
31: 5
32: 5
33: 5
34: 5
35: 5
36: 5
37: 5
38: 5
39: 5
40: 5
41: 5
42: 5
43: 5
44: 5
45: 5
46: 5
47: 5
48: 5
49: 5
50: 5
51: 5
52: 5
53: 5
54: 5
55: 5
56: 5
57: 5
edge from: to
58: 0
58: 1
58: 2
59: 0
59: 3
59: 4
60: 4
60: 10
60: 11
61: 6
61: 8
61: 12
62: 16
63: 18
64: 20
65: 20
65: 22
66: 21
66: 23
67: 11
67: 22
68: 23
68: 25
69: 27
69: 29
70: 32
71: 38
72: 36
72: 39
73: 42
74: 31
74: 41
74: 43
74: 45
74: 46
74: 47
75: 51
76: 24
76: 49
76: 53
77: 56
3: 58
4: 58
5: 58
6: 58
7: 59
8: 59
9: 59
10: 59
11: 59
12: 60
13: 60
14: 61
15: 61
16: 61
17: 62
18: 62
19: 63
20: 63
21: 64
22: 64
23: 65
24: 66
25: 67
26: 68
27: 68
28: 68
29: 68
30: 69
31: 69
32: 69
33: 70
34: 70
35: 70
36: 70
37: 70
38: 70
39: 71
40: 72
41: 72
42: 72
43: 73
44: 73
45: 73
46: 73
47: 73
48: 74
49: 74
50: 74
51: 74
52: 75
53: 75
54: 76
55: 76
56: 76
57: 77
segment: [6]
vertex id: label
69: 0
70: 0
71: 1
72: 1
73: 3
74: 3
75: 1
76: 0
77: 2
78: 3
79: 2
80: 3
81: 0
82: 1
83: 2
84: 3
85: 2
86: 3
87: 0
88: 2
0: 5
1: 5
2: 5
3: 5
4: 5
5: 5
6: 5
7: 5
8: 5
9: 5
10: 5
11: 5
12: 5
13: 5
14: 5
15: 5
16: 5
17: 5
18: 5
19: 5
20: 5
21: 5
22: 5
23: 5
24: 5
25: 5
26: 5
27: 5
28: 5
29: 5
30: 5
31: 5
32: 5
33: 5
34: 5
35: 5
36: 5
37: 5
38: 5
39: 5
40: 5
41: 5
42: 5
43: 5
44: 5
45: 5
46: 5
47: 5
48: 5
49: 5
50: 5
51: 5
52: 5
53: 5
54: 5
55: 5
56: 5
57: 5
58: 5
59: 5
60: 5
61: 5
62: 5
63: 5
64: 5
65: 5
66: 5
67: 5
68: 5
edge from: to
69: 0
70: 0
70: 1
70: 2
71: 7
72: 11
73: 6
74: 16
75: 20
76: 12
77: 32
78: 21
78: 33
78: 36
79: 38
80: 37
80: 39
80: 40
81: 38
81: 42
82: 42
82: 46
83: 1
83: 49
84: 52
84: 54
84: 56
85: 54
85: 58
86: 59
87: 59
87: 61
87: 63
88: 61
88: 63
88: 64
88: 65
1: 69
2: 69
3: 70
4: 70
5: 70
6: 70
7: 70
8: 71
9: 71
10: 71
11: 71
12: 72
13: 72
14: 73
15: 73
16: 73
17: 74
18: 74
19: 74
20: 74
21: 75
22: 75
23: 75
24: 75
25: 75
26: 75
27: 76
28: 76
29: 76
30: 76
31: 76
32: 76
33: 77
34: 77
35: 77
36: 77
37: 78
38: 78
39: 79
40: 79
41: 80
42: 80
43: 81
44: 81
45: 81
46: 81
47: 82
48: 82
49: 82
50: 83
51: 83
52: 83
53: 83
54: 83
55: 83
56: 83
57: 84
58: 84
59: 85
60: 86
61: 86
62: 86
63: 86
64: 87
65: 87
66: 88
67: 88
68: 88
segment: [7]
vertex id: label
66: 0
67: 2
68: 3
69: 0
70: 1
71: 2
72: 2
73: 2
74: 3
75: 0
76: 0
77: 1
78: 2
79: 3
80: 1
81: 3
82: 0
83: 1
84: 2
85: 3
0: 5
1: 5
2: 5
3: 5
4: 5
5: 5
6: 5
7: 5
8: 5
9: 5
10: 5
11: 5
12: 5
13: 5
14: 5
15: 5
16: 5
17: 5
18: 5
19: 5
20: 5
21: 5
22: 5
23: 5
24: 5
25: 5
26: 5
27: 5
28: 5
29: 5
30: 5
31: 5
32: 5
33: 5
34: 5
35: 5
36: 5
37: 5
38: 5
39: 5
40: 5
41: 5
42: 5
43: 5
44: 5
45: 5
46: 5
47: 5
48: 5
49: 5
50: 5
51: 5
52: 5
53: 5
54: 5
55: 5
56: 5
57: 5
58: 5
59: 5
60: 5
61: 5
62: 5
63: 5
64: 5
65: 5
edge from: to
66: 0
67: 1
68: 0
68: 2
68: 3
68: 4
69: 0
69: 5
69: 7
70: 10
70: 11
71: 15
71: 16
72: 21
73: 25
73: 27
74: 31
75: 16
75: 32
76: 35
76: 38
77: 38
77: 41
78: 30
78: 41
78: 45
79: 1
79: 48
80: 1
80: 47
80: 48
80: 49
81: 52
82: 54
83: 56
84: 58
85: 57
85: 61
1: 66
2: 67
3: 67
4: 67
5: 68
6: 68
7: 68
8: 69
9: 69
10: 69
11: 69
12: 70
13: 70
14: 70
15: 70
16: 70
17: 71
18: 71
19: 71
20: 71
21: 71
22: 72
23: 72
24: 72
25: 72
26: 72
27: 72
28: 73
29: 73
30: 73
31: 73
32: 74
33: 74
34: 74
35: 74
36: 75
37: 75
38: 75
39: 76
40: 76
41: 76
42: 77
43: 77
44: 77
45: 77
46: 78
47: 78
48: 78
49: 79
50: 80
51: 80
52: 80
53: 81
54: 81
55: 82
56: 82
57: 83
58: 83
59: 84
60: 84
61: 84
62: 85
63: 85
64: 85
65: 85
segment: [8]
vertex id: label
66: 0
67: 1
68: 4
69: 1
70: 2
71: 3
72: 1
73: 0
74: 1
75: 2
76: 3
77: 0
78: 1
79: 2
80: 3
81: 0
82: 1
83: 3
84: 0
85: 1
0: 5
1: 5
2: 5
3: 5
4: 5
5: 5
6: 5
7: 5
8: 5
9: 5
10: 5
11: 5
12: 5
13: 5
14: 5
15: 5
16: 5
17: 5
18: 5
19: 5
20: 5
21: 5
22: 5
23: 5
24: 5
25: 5
26: 5
27: 5
28: 5
29: 5
30: 5
31: 5
32: 5
33: 5
34: 5
35: 5
36: 5
37: 5
38: 5
39: 5
40: 5
41: 5
42: 5
43: 5
44: 5
45: 5
46: 5
47: 5
48: 5
49: 5
50: 5
51: 5
52: 5
53: 5
54: 5
55: 5
56: 5
57: 5
58: 5
59: 5
60: 5
61: 5
62: 5
63: 5
64: 5
65: 5
edge from: to
66: 0
66: 1
66: 2
66: 3
67: 0
67: 5
68: 9
69: 12
70: 7
70: 14
71: 13
71: 17
71: 19
72: 18
72: 20
73: 13
73: 20
73: 22
74: 11
75: 17
75: 23
75: 25
76: 17
76: 27
76: 29
77: 31
78: 20
78: 31
78: 34
79: 5
79: 34
79: 37
80: 36
80: 39
81: 41
81: 45
82: 1
82: 48
83: 7
83: 49
83: 51
83: 52
84: 56
85: 28
85: 36
85: 58
85: 62
4: 66
5: 66
6: 67
7: 67
8: 67
9: 67
10: 68
11: 68
12: 68
13: 69
14: 69
15: 69
16: 70
17: 70
18: 70
19: 70
20: 71
21: 72
22: 72
23: 73
24: 73
25: 74
26: 75
27: 75
28: 75
29: 75
30: 76
31: 76
32: 77
33: 77
34: 77
35: 78
36: 78
37: 78
38: 79
39: 79
40: 80
41: 80
42: 80
43: 80
44: 80
45: 80
46: 81
47: 81
48: 81
49: 82
50: 82
51: 82
52: 82
53: 83
54: 83
55: 83
56: 83
57: 84
58: 84
59: 84
60: 84
61: 84
62: 84
63: 85
64: 85
65: 85
segment: [9]
vertex id: label
58: 0
59: 2
60: 0
61: 2
62: 3
63: 1
64: 3
65: 2
66: 3
67: 0
68: 1
69: 0
70: 2
71: 3
72: 0
73: 2
74: 0
75: 0
76: 2
77: 3
0: 5
1: 5
2: 5
3: 5
4: 5
5: 5
6: 5
7: 5
8: 5
9: 5
10: 5
11: 5
12: 5
13: 5
14: 5
15: 5
16: 5
17: 5
18: 5
19: 5
20: 5
21: 5
22: 5
23: 5
24: 5
25: 5
26: 5
27: 5
28: 5
29: 5
30: 5
31: 5
32: 5
33: 5
34: 5
35: 5
36: 5
37: 5
38: 5
39: 5
40: 5
41: 5
42: 5
43: 5
44: 5
45: 5
46: 5
47: 5
48: 5
49: 5
50: 5
51: 5
52: 5
53: 5
54: 5
55: 5
56: 5
57: 5
edge from: to
58: 0
58: 1
58: 2
58: 3
59: 0
59: 7
60: 10
60: 11
61: 14
62: 13
62: 17
62: 19
63: 13
63: 20
63: 22
64: 25
65: 30
66: 29
66: 31
66: 32
67: 34
68: 36
69: 35
69: 38
70: 38
70: 42
71: 20
72: 45
73: 47
74: 1
74: 48
74: 49
75: 51
76: 50
76: 54
77: 55
4: 58
5: 58
6: 58
7: 58
8: 59
9: 59
10: 59
11: 59
12: 60
13: 60
14: 60
15: 61
16: 61
17: 61
18: 61
19: 61
20: 62
21: 62
22: 62
23: 63
24: 63
25: 63
26: 64
27: 64
28: 64
29: 64
30: 64
31: 65
32: 65
33: 66
34: 66
35: 67
36: 67
37: 68
38: 68
39: 69
40: 69
41: 69
42: 69
43: 70
44: 70
45: 71
46: 72
47: 72
48: 73
49: 73
50: 74
51: 74
52: 75
53: 75
54: 75
55: 76
56: 77
57: 77
