segment: [0]
vertex id: label
66: 0
67: 2
68: 1
69: 0
70: 2
71: 1
72: 2
73: 1
74: 2
75: 1
76: 0
77: 4
78: 4
79: 3
80: 4
81: 0
82: 4
83: 1
84: 3
85: 4
0: 5
1: 5
2: 5
3: 5
4: 5
5: 5
6: 5
7: 5
8: 5
9: 5
10: 5
11: 5
12: 5
13: 5
14: 5
15: 5
16: 5
17: 5
18: 5
19: 5
20: 5
21: 5
22: 5
23: 5
24: 5
25: 5
26: 5
27: 5
28: 5
29: 5
30: 5
31: 5
32: 5
33: 5
34: 5
35: 5
36: 5
37: 5
38: 5
39: 5
40: 5
41: 5
42: 5
43: 5
44: 5
45: 5
46: 5
47: 5
48: 5
49: 5
50: 5
51: 5
52: 5
53: 5
54: 5
55: 5
56: 5
57: 5
58: 5
59: 5
60: 5
61: 5
62: 5
63: 5
64: 5
65: 5
edge from: to
66: 0
66: 1
67: 3
67: 9
67: 10
68: 12
69: 13
69: 14
70: 15
70: 16
71: 5
71: 11
71: 16
72: 6
72: 18
73: 22
74: 29
75: 31
75: 32
75: 33
76: 37
77: 25
77: 37
77: 40
78: 43
79: 47
80: 51
81: 50
81: 52
81: 54
82: 56
83: 55
83: 57
84: 59
84: 60
84: 61
85: 60
85: 62
85: 63
2: 66
3: 66
4: 66
5: 66
6: 66
7: 66
8: 66
9: 66
10: 66
11: 67
12: 67
13: 68
14: 68
15: 69
16: 69
17: 70
18: 71
19: 71
20: 71
21: 72
22: 72
23: 73
24: 73
25: 73
26: 73
27: 73
28: 73
29: 73
30: 74
31: 74
32: 74
33: 74
34: 75
35: 75
36: 75
37: 75
38: 76
39: 76
40: 76
41: 77
42: 77
43: 77
44: 78
45: 78
46: 78
47: 78
48: 79
49: 79
50: 79
51: 79
52: 80
53: 80
54: 80
55: 81
56: 81
57: 82
58: 82
59: 83
60: 83
61: 83
62: 83
63: 84
64: 84
65: 85
segment: [1]
vertex id: label
61: 0
62: 4
63: 1
64: 3
65: 2
66: 1
67: 2
68: 4
69: 0
70: 4
71: 0
72: 4
73: 4
74: 4
75: 4
76: 0
77: 4
78: 4
79: 0
80: 4
0: 5
1: 5
2: 5
3: 5
4: 5
5: 5
6: 5
7: 5
8: 5
9: 5
10: 5
11: 5
12: 5
13: 5
14: 5
15: 5
16: 5
17: 5
18: 5
19: 5
20: 5
21: 5
22: 5
23: 5
24: 5
25: 5
26: 5
27: 5
28: 5
29: 5
30: 5
31: 5
32: 5
33: 5
34: 5
35: 5
36: 5
37: 5
38: 5
39: 5
40: 5
41: 5
42: 5
43: 5
44: 5
45: 5
46: 5
47: 5
48: 5
49: 5
50: 5
51: 5
52: 5
53: 5
54: 5
55: 5
56: 5
57: 5
58: 5
59: 5
60: 5
edge from: to
61: 0
62: 0
62: 1
63: 3
63: 6
63: 7
64: 8
65: 6
65: 8
65: 9
66: 11
66: 12
67: 15
67: 16
68: 17
68: 19
69: 24
70: 8
71: 29
71: 31
72: 31
72: 33
73: 37
74: 39
74: 40
74: 42
75: 46
76: 49
77: 51
78: 49
78: 53
79: 2
79: 16
80: 56
1: 61
2: 61
3: 61
4: 62
5: 62
6: 62
7: 62
8: 63
9: 64
10: 65
11: 65
12: 65
13: 66
14: 66
15: 66
16: 66
17: 67
18: 67
19: 67
20: 68
21: 68
22: 68
23: 68
24: 68
25: 69
26: 69
27: 69
28: 70
29: 70
30: 70
31: 70
32: 71
33: 71
34: 72
35: 72
36: 72
37: 72
38: 73
39: 73
40: 73
41: 73
42: 73
43: 74
44: 74
45: 74
46: 74
47: 75
48: 75
49: 75
50: 76
51: 76
52: 77
53: 77
54: 78
55: 78
56: 79
57: 79
58: 80
59: 80
60: 80
segment: [2]
vertex id: label
57: 0
58: 4
59: 2
60: 1
61: 2
62: 1
63: 1
64: 4
65: 3
66: 1
67: 2
68: 1
69: 0
70: 3
71: 4
72: 0
73: 0
74: 4
75: 1
76: 0
0: 5
1: 5
2: 5
3: 5
4: 5
5: 5
6: 5
7: 5
8: 5
9: 5
10: 5
11: 5
12: 5
13: 5
14: 5
15: 5
16: 5
17: 5
18: 5
19: 5
20: 5
21: 5
22: 5
23: 5
24: 5
25: 5
26: 5
27: 5
28: 5
29: 5
30: 5
31: 5
32: 5
33: 5
34: 5
35: 5
36: 5
37: 5
38: 5
39: 5
40: 5
41: 5
42: 5
43: 5
44: 5
45: 5
46: 5
47: 5
48: 5
49: 5
50: 5
51: 5
52: 5
53: 5
54: 5
55: 5
56: 5
edge from: to
57: 0
58: 0
58: 4
58: 5
59: 3
59: 4
59: 9
59: 10
60: 11
60: 12
61: 4
61: 12
62: 15
63: 6
63: 18
64: 15
64: 22
64: 24
65: 26
66: 1
66: 29
67: 29
67: 31
68: 31
68: 33
69: 35
70: 34
70: 36
71: 36
71: 38
72: 12
72: 38
73: 41
73: 42
73: 43
73: 44
74: 28
74: 42
74: 45
75: 14
75: 45
76: 47
76: 50
1: 57
2: 57
3: 57
4: 57
5: 57
6: 58
7: 58
8: 58
9: 58
10: 58
11: 59
12: 59
13: 60
14: 61
15: 61
16: 62
17: 62
18: 62
19: 62
20: 62
21: 63
22: 63
23: 63
24: 63
25: 64
26: 64
27: 65
28: 65
29: 65
30: 66
31: 66
32: 67
33: 67
34: 68
35: 68
36: 69
37: 70
38: 70
39: 71
40: 71
41: 71
42: 72
43: 72
44: 72
45: 73
46: 74
47: 74
48: 74
49: 75
50: 75
51: 76
52: 76
53: 76
54: 76
55: 76
56: 76
segment: [3]
vertex id: label
69: 0
70: 4
71: 3
72: 4
73: 2
74: 4
75: 0
76: 2
77: 1
78: 0
79: 2
80: 1
81: 0
82: 3
83: 1
84: 0
85: 4
86: 4
87: 3
88: 4
0: 5
1: 5
2: 5
3: 5
4: 5
5: 5
6: 5
7: 5
8: 5
9: 5
10: 5
11: 5
12: 5
13: 5
14: 5
15: 5
16: 5
17: 5
18: 5
19: 5
20: 5
21: 5
22: 5
23: 5
24: 5
25: 5
26: 5
27: 5
28: 5
29: 5
30: 5
31: 5
32: 5
33: 5
34: 5
35: 5
36: 5
37: 5
38: 5
39: 5
40: 5
41: 5
42: 5
43: 5
44: 5
45: 5
46: 5
47: 5
48: 5
49: 5
50: 5
51: 5
52: 5
53: 5
54: 5
55: 5
56: 5
57: 5
58: 5
59: 5
60: 5
61: 5
62: 5
63: 5
64: 5
65: 5
66: 5
67: 5
68: 5
edge from: to
69: 0
69: 1
70: 0
70: 1
70: 2
70: 3
71: 6
71: 8
71: 9
72: 16
73: 5
73: 16
74: 6
75: 23
75: 24
75: 25
76: 1
76: 26
76: 27
76: 28
77: 29
77: 31
78: 10
78: 32
79: 37
80: 42
81: 41
81: 42
81: 44
82: 14
83: 49
83: 52
84: 56
85: 59
86: 60
87: 59
87: 62
88: 65
2: 69
3: 69
4: 70
5: 70
6: 70
7: 70
8: 70
9: 70
10: 71
11: 71
12: 71
13: 71
14: 71
15: 71
16: 71
17: 72
18: 73
19: 73
20: 73
21: 74
22: 74
23: 74
24: 74
25: 74
26: 75
27: 75
28: 75
29: 76
30: 76
31: 76
32: 77
33: 77
34: 77
35: 78
36: 78
37: 78
38: 79
39: 79
40: 79
41: 79
42: 79
43: 80
44: 80
45: 81
46: 81
47: 81
48: 81
49: 82
50: 82
51: 82
52: 82
53: 83
54: 83
55: 83
56: 83
57: 84
58: 84
59: 84
60: 85
61: 85
62: 86
63: 86
64: 87
65: 87
66: 87
67: 88
68: 88
segment: [4]
vertex id: label
66: 0
67: 3
68: 2
69: 1
70: 0
71: 2
72: 1
73: 2
74: 1
75: 0
76: 0
77: 3
78: 1
79: 3
80: 1
81: 3
82: 1
83: 1
84: 0
85: 4
0: 5
1: 5
2: 5
3: 5
4: 5
5: 5
6: 5
7: 5
8: 5
9: 5
10: 5
11: 5
12: 5
13: 5
14: 5
15: 5
16: 5
17: 5
18: 5
19: 5
20: 5
21: 5
22: 5
23: 5
24: 5
25: 5
26: 5
27: 5
28: 5
29: 5
30: 5
31: 5
32: 5
33: 5
34: 5
35: 5
36: 5
37: 5
38: 5
39: 5
40: 5
41: 5
42: 5
43: 5
44: 5
45: 5
46: 5
47: 5
48: 5
49: 5
50: 5
51: 5
52: 5
53: 5
54: 5
55: 5
56: 5
57: 5
58: 5
59: 5
60: 5
61: 5
62: 5
63: 5
64: 5
65: 5
edge from: to
66: 0
66: 1
67: 0
67: 1
67: 3
68: 2
69: 10
69: 11
70: 4
70: 12
71: 6
71: 14
71: 15
72: 5
72: 16
73: 17
73: 19
74: 21
74: 23
75: 29
76: 10
76: 32
77: 29
77: 36
77: 37
77: 38
78: 12
79: 39
79: 40
79: 42
80: 45
81: 14
82: 49
82: 52
83: 56
84: 36
84: 55
84: 56
84: 57
85: 58
85: 60
2: 66
3: 66
4: 67
5: 67
6: 67
7: 68
8: 68
9: 68
10: 68
11: 68
12: 69
13: 69
14: 70
15: 70
16: 71
17: 71
18: 72
19: 72
20: 73
21: 73
22: 73
23: 73
24: 74
25: 74
26: 74
27: 74
28: 74
29: 74
30: 75
31: 75
32: 75
33: 75
34: 75
35: 76
36: 76
37: 76
38: 76
39: 77
40: 77
41: 77
42: 78
43: 79
44: 79
45: 79
46: 80
47: 80
48: 80
49: 81
50: 81
51: 81
52: 81
53: 82
54: 82
55: 82
56: 82
57: 82
58: 83
59: 84
60: 84
61: 84
62: 85
63: 85
64: 85
65: 85
segment: [5]
vertex id: label
63: 0
64: 4
65: 2
66: 1
67: 2
68: 0
69: 4
70: 1
71: 4
72: 1
73: 4
74: 1
75: 0
76: 4
77: 3
78: 4
79: 0
80: 3
81: 4
82: 3
0: 5
1: 5
2: 5
3: 5
4: 5
5: 5
6: 5
7: 5
8: 5
9: 5
10: 5
11: 5
12: 5
13: 5
14: 5
15: 5
16: 5
17: 5
18: 5
19: 5
20: 5
21: 5
22: 5
23: 5
24: 5
25: 5
26: 5
27: 5
28: 5
29: 5
30: 5
31: 5
32: 5
33: 5
34: 5
35: 5
36: 5
37: 5
38: 5
39: 5
40: 5
41: 5
42: 5
43: 5
44: 5
45: 5
46: 5
47: 5
48: 5
49: 5
50: 5
51: 5
52: 5
53: 5
54: 5
55: 5
56: 5
57: 5
58: 5
59: 5
60: 5
61: 5
62: 5
edge from: to
63: 0
63: 1
64: 0
64: 1
64: 2
64: 3
65: 4
66: 2
66: 6
67: 3
67: 6
67: 7
68: 8
68: 9
69: 3
69: 9
69: 10
70: 4
71: 14
71: 15
72: 6
72: 18
73: 24
74: 1
74: 8
74: 27
75: 28
75: 30
76: 10
76: 32
76: 34
77: 36
77: 39
78: 39
78: 40
78: 42
79: 46
80: 50
81: 54
81: 56
82: 57
82: 59
2: 63
3: 63
4: 64
5: 65
6: 65
7: 66
8: 67
9: 67
10: 68
11: 69
12: 69
13: 69
14: 70
15: 70
16: 71
17: 71
18: 71
19: 71
20: 71
21: 72
22: 72
23: 72
24: 72
25: 73
26: 73
27: 73
28: 74
29: 74
30: 74
31: 75
32: 75
33: 75
34: 75
35: 76
36: 76
37: 76
38: 76
39: 76
40: 77
41: 77
42: 77
43: 78
44: 78
45: 78
46: 78
47: 79
48: 79
49: 79
50: 79
51: 80
52: 80
53: 80
54: 80
55: 80
56: 80
57: 80
58: 81
59: 81
60: 81
61: 82
62: 82
segment: [6]
vertex id: label
64: 0
65: 4
66: 3
67: 1
68: 0
69: 3
70: 2
71: 1
72: 3
73: 2
74: 3
75: 4
76: 1
77: 0
78: 3
79: 1
80: 4
81: 0
82: 4
83: 2
0: 5
1: 5
2: 5
3: 5
4: 5
5: 5
6: 5
7: 5
8: 5
9: 5
10: 5
11: 5
12: 5
13: 5
14: 5
15: 5
16: 5
17: 5
18: 5
19: 5
20: 5
21: 5
22: 5
23: 5
24: 5
25: 5
26: 5
27: 5
28: 5
29: 5
30: 5
31: 5
32: 5
33: 5
34: 5
35: 5
36: 5
37: 5
38: 5
39: 5
40: 5
41: 5
42: 5
43: 5
44: 5
45: 5
46: 5
47: 5
48: 5
49: 5
50: 5
51: 5
52: 5
53: 5
54: 5
55: 5
56: 5
57: 5
58: 5
59: 5
60: 5
61: 5
62: 5
63: 5
edge from: to
64: 0
65: 1
66: 0
66: 3
66: 4
67: 7
68: 4
68: 12
69: 17
69: 19
70: 21
71: 21
71: 22
71: 23
72: 23
72: 25
73: 11
73: 24
73: 25
73: 26
74: 29
75: 30
75: 32
76: 35
77: 38
78: 12
79: 43
80: 42
80: 45
81: 14
82: 48
82: 49
82: 51
83: 49
83: 53
1: 64
2: 64
3: 64
4: 65
5: 66
6: 66
7: 66
8: 67
9: 67
10: 67
11: 67
12: 67
13: 67
14: 68
15: 68
16: 68
17: 68
18: 68
19: 68
20: 69
21: 69
22: 70
23: 70
24: 71
25: 71
26: 72
27: 73
28: 73
29: 73
30: 74
31: 74
32: 74
33: 75
34: 75
35: 75
36: 76
37: 76
38: 76
39: 77
40: 77
41: 77
42: 78
43: 78
44: 79
45: 79
46: 80
47: 80
48: 80
49: 81
50: 81
51: 81
52: 82
53: 82
54: 83
55: 83
56: 83
57: 83
58: 83
59: 83
60: 83
61: 83
62: 83
63: 83
segment: [7]
vertex id: label
61: 0
62: 4
63: 2
64: 1
65: 0
66: 2
67: 1
68: 0
69: 3
70: 2
71: 1
72: 0
73: 4
74: 2
75: 4
76: 2
77: 1
78: 4
79: 4
80: 1
0: 5
1: 5
2: 5
3: 5
4: 5
5: 5
6: 5
7: 5
8: 5
9: 5
10: 5
11: 5
12: 5
13: 5
14: 5
15: 5
16: 5
17: 5
18: 5
19: 5
20: 5
21: 5
22: 5
23: 5
24: 5
25: 5
26: 5
27: 5
28: 5
29: 5
30: 5
31: 5
32: 5
33: 5
34: 5
35: 5
36: 5
37: 5
38: 5
39: 5
40: 5
41: 5
42: 5
43: 5
44: 5
45: 5
46: 5
47: 5
48: 5
49: 5
50: 5
51: 5
52: 5
53: 5
54: 5
55: 5
56: 5
57: 5
58: 5
59: 5
60: 5
edge from: to
61: 0
61: 1
61: 2
61: 3
62: 0
62: 5
63: 6
63: 8
63: 9
64: 15
65: 3
65: 5
65: 11
65: 16
66: 19
66: 21
67: 14
67: 20
67: 21
67: 22
68: 23
68: 25
69: 30
70: 30
70: 31
70: 32
71: 36
72: 36
72: 39
73: 37
73: 40
74: 41
74: 44
75: 42
75: 45
76: 46
77: 46
77: 48
77: 49
78: 50
78: 51
78: 52
78: 53
78: 54
79: 56
80: 54
80: 55
80: 56
4: 61
5: 61
6: 62
7: 62
8: 62
9: 62
10: 63
11: 63
12: 63
13: 63
14: 63
15: 63
16: 64
17: 64
18: 65
19: 65
20: 65
21: 65
22: 66
23: 67
24: 67
25: 67
26: 68
27: 68
28: 68
29: 68
30: 68
31: 69
32: 69
33: 70
34: 70
35: 70
36: 70
37: 71
38: 71
39: 71
40: 72
41: 73
42: 73
43: 73
44: 73
45: 74
46: 75
47: 76
48: 76
49: 76
50: 77
51: 77
52: 77
53: 77
54: 77
55: 78
56: 78
57: 79
58: 80
59: 80
60: 80
segment: [8]
vertex id: label
69: 0
70: 4
71: 0
72: 4
73: 0
74: 4
75: 3
76: 1
77: 2
78: 1
79: 0
80: 4
81: 0
82: 3
83: 1
84: 0
85: 4
86: 1
87: 1
88: 4
0: 5
1: 5
2: 5
3: 5
4: 5
5: 5
6: 5
7: 5
8: 5
9: 5
10: 5
11: 5
12: 5
13: 5
14: 5
15: 5
16: 5
17: 5
18: 5
19: 5
20: 5
21: 5
22: 5
23: 5
24: 5
25: 5
26: 5
27: 5
28: 5
29: 5
30: 5
31: 5
32: 5
33: 5
34: 5
35: 5
36: 5
37: 5
38: 5
39: 5
40: 5
41: 5
42: 5
43: 5
44: 5
45: 5
46: 5
47: 5
48: 5
49: 5
50: 5
51: 5
52: 5
53: 5
54: 5
55: 5
56: 5
57: 5
58: 5
59: 5
60: 5
61: 5
62: 5
63: 5
64: 5
65: 5
66: 5
67: 5
68: 5
edge from: to
69: 0
69: 1
70: 4
71: 2
71: 6
72: 5
72: 7
72: 8
73: 10
73: 11
74: 5
75: 1
75: 19
75: 21
76: 23
76: 25
77: 1
77: 8
78: 29
79: 30
79: 32
80: 34
80: 36
81: 28
81: 42
81: 43
81: 44
81: 45
82: 46
82: 49
83: 51
84: 52
85: 16
86: 54
86: 56
87: 61
88: 64
2: 69
3: 69
4: 69
5: 70
6: 70
7: 71
8: 71
9: 72
10: 72
11: 72
12: 73
13: 73
14: 73
15: 73
16: 73
17: 73
18: 74
19: 74
20: 74
21: 74
22: 75
23: 75
24: 75
25: 75
26: 76
27: 76
28: 77
29: 77
30: 78
31: 78
32: 78
33: 79
34: 79
35: 79
36: 79
37: 80
38: 80
39: 80
40: 80
41: 80
42: 80
43: 80
44: 80
45: 80
46: 81
47: 81
48: 81
49: 81
50: 82
51: 82
52: 83
53: 84
54: 84
55: 84
56: 85
57: 85
58: 86
59: 86
60: 86
61: 86
62: 86
63: 87
64: 87
65: 87
66: 88
67: 88
68: 88
segment: [9]
vertex id: label
60: 0
61: 4
62: 1
63: 4
64: 1
65: 0
66: 4
67: 1
68: 0
69: 4
70: 0
71: 4
72: 2
73: 1
74: 2
75: 4
76: 1
77: 4
78: 3
79: 1
0: 5
1: 5
2: 5
3: 5
4: 5
5: 5
6: 5
7: 5
8: 5
9: 5
10: 5
11: 5
12: 5
13: 5
14: 5
15: 5
16: 5
17: 5
18: 5
19: 5
20: 5
21: 5
22: 5
23: 5
24: 5
25: 5
26: 5
27: 5
28: 5
29: 5
30: 5
31: 5
32: 5
33: 5
34: 5
35: 5
36: 5
37: 5
38: 5
39: 5
40: 5
41: 5
42: 5
43: 5
44: 5
45: 5
46: 5
47: 5
48: 5
49: 5
50: 5
51: 5
52: 5
53: 5
54: 5
55: 5
56: 5
57: 5
58: 5
59: 5
edge from: to
60: 0
60: 1
60: 2
60: 3
61: 2
61: 6
62: 7
63: 8
63: 9
64: 6
64: 9
64: 11
64: 12
65: 14
66: 19
66: 21
67: 8
68: 30
69: 31
70: 10
70: 32
70: 33
70: 34
71: 36
71: 38
72: 40
73: 12
74: 39
74: 40
74: 42
75: 41
75: 44
76: 47
77: 47
77: 50
78: 49
78: 53
79: 56
4: 60
5: 60
6: 60
7: 61
8: 62
9: 62
10: 63
11: 63
12: 63
13: 64
14: 64
15: 65
16: 65
17: 65
18: 65
19: 65
20: 65
21: 65
22: 66
23: 66
24: 66
25: 66
26: 66
27: 66
28: 67
29: 67
30: 67
31: 68
32: 69
33: 69
34: 69
35: 70
36: 70
37: 70
38: 70
39: 71
40: 71
41: 72
42: 73
43: 74
44: 74
45: 75
46: 75
47: 75
48: 76
49: 76
50: 76
51: 77
52: 77
53: 77
54: 78
55: 78
56: 78
57: 79
58: 79
59: 79
