segment: [0]
vertex id: label
29: 0
30: 4
31: 1
32: 4
33: 0
34: 4
35: 1
36: 4
37: 1
38: 0
0: 5
1: 5
2: 5
3: 5
4: 5
5: 5
6: 5
7: 5
8: 5
9: 5
10: 5
11: 5
12: 5
13: 5
14: 5
15: 5
16: 5
17: 5
18: 5
19: 5
20: 5
21: 5
22: 5
23: 5
24: 5
25: 5
26: 5
27: 5
28: 5
edge from: to
29: 0
30: 0
31: 5
32: 4
32: 8
33: 11
34: 14
35: 14
35: 17
35: 19
36: 19
37: 1
38: 25
1: 29
2: 29
3: 30
4: 30
5: 30
6: 31
7: 31
8: 31
9: 32
10: 32
11: 32
12: 32
13: 33
14: 33
15: 33
16: 34
17: 34
18: 34
19: 34
20: 35
21: 35
22: 36
23: 36
24: 36
25: 37
26: 37
27: 37
28: 38
segment: [1]
vertex id: label
38: 0
39: 4
40: 2
41: 4
42: 0
43: 4
44: 0
45: 2
46: 3
47: 1
0: 5
1: 5
2: 5
3: 5
4: 5
5: 5
6: 5
7: 5
8: 5
9: 5
10: 5
11: 5
12: 5
13: 5
14: 5
15: 5
16: 5
17: 5
18: 5
19: 5
20: 5
21: 5
22: 5
23: 5
24: 5
25: 5
26: 5
27: 5
28: 5
29: 5
30: 5
31: 5
32: 5
33: 5
34: 5
35: 5
36: 5
37: 5
edge from: to
38: 0
39: 0
39: 3
40: 12
41: 17
42: 10
42: 18
43: 11
43: 20
43: 22
44: 1
44: 12
45: 27
46: 24
46: 30
46: 32
47: 33
1: 38
2: 38
3: 38
4: 39
5: 39
6: 39
7: 39
8: 39
9: 39
10: 39
11: 39
12: 39
13: 39
14: 40
15: 40
16: 40
17: 40
18: 40
19: 41
20: 41
21: 42
22: 42
23: 43
24: 43
25: 44
26: 44
27: 44
28: 44
29: 44
30: 45
31: 45
32: 45
33: 46
34: 46
35: 46
36: 47
37: 47
segment: [2]
vertex id: label
34: 0
35: 4
36: 1
37: 0
38: 2
39: 4
40: 1
41: 0
42: 4
43: 2
0: 5
1: 5
2: 5
3: 5
4: 5
5: 5
6: 5
7: 5
8: 5
9: 5
10: 5
11: 5
12: 5
13: 5
14: 5
15: 5
16: 5
17: 5
18: 5
19: 5
20: 5
21: 5
22: 5
23: 5
24: 5
25: 5
26: 5
27: 5
28: 5
29: 5
30: 5
31: 5
32: 5
33: 5
edge from: to
34: 0
35: 1
35: 2
35: 4
35: 5
36: 4
36: 8
37: 6
37: 9
37: 11
38: 8
38: 12
38: 15
39: 17
40: 1
40: 12
40: 18
41: 20
41: 25
41: 26
41: 27
42: 27
42: 28
42: 29
43: 15
43: 28
43: 30
1: 34
2: 34
3: 34
4: 34
5: 34
6: 35
7: 35
8: 35
9: 36
10: 36
11: 36
12: 36
13: 37
14: 37
15: 37
16: 37
17: 38
18: 38
19: 38
20: 39
21: 39
22: 39
23: 39
24: 39
25: 40
26: 40
27: 40
28: 41
29: 41
30: 42
31: 43
32: 43
33: 43
segment: [3]
vertex id: label
38: 0
39: 2
40: 4
41: 0
42: 2
43: 4
44: 1
45: 0
46: 2
47: 4
0: 5
1: 5
2: 5
3: 5
4: 5
5: 5
6: 5
7: 5
8: 5
9: 5
10: 5
11: 5
12: 5
13: 5
14: 5
15: 5
16: 5
17: 5
18: 5
19: 5
20: 5
21: 5
22: 5
23: 5
24: 5
25: 5
26: 5
27: 5
28: 5
29: 5
30: 5
31: 5
32: 5
33: 5
34: 5
35: 5
36: 5
37: 5
edge from: to
38: 0
38: 1
38: 2
39: 1
39: 4
39: 5
40: 9
41: 13
42: 11
42: 14
42: 15
43: 17
43: 19
44: 19
44: 21
45: 24
46: 27
46: 29
47: 30
47: 32
3: 38
4: 38
5: 38
6: 39
7: 39
8: 39
9: 39
10: 40
11: 40
12: 40
13: 40
14: 40
15: 41
16: 42
17: 42
18: 42
19: 42
20: 43
21: 43
22: 44
23: 44
24: 44
25: 44
26: 45
27: 45
28: 45
29: 45
30: 46
31: 46
32: 46
33: 47
34: 47
35: 47
36: 47
37: 47
segment: [4]
vertex id: label
31: 0
32: 4
33: 1
34: 0
35: 4
36: 1
37: 4
38: 2
39: 4
40: 1
0: 5
1: 5
2: 5
3: 5
4: 5
5: 5
6: 5
7: 5
8: 5
9: 5
10: 5
11: 5
12: 5
13: 5
14: 5
15: 5
16: 5
17: 5
18: 5
19: 5
20: 5
21: 5
22: 5
23: 5
24: 5
25: 5
26: 5
27: 5
28: 5
29: 5
30: 5
edge from: to
31: 0
31: 1
31: 2
32: 0
32: 2
32: 3
33: 3
33: 6
34: 9
35: 14
35: 15
36: 9
36: 17
37: 10
37: 18
38: 11
38: 20
38: 22
39: 1
40: 20
40: 24
40: 25
40: 26
40: 27
3: 31
4: 31
5: 32
6: 32
7: 33
8: 33
9: 33
10: 33
11: 34
12: 34
13: 34
14: 34
15: 34
16: 35
17: 35
18: 35
19: 36
20: 36
21: 37
22: 37
23: 38
24: 39
25: 39
26: 39
27: 39
28: 40
29: 40
30: 40
segment: [5]
vertex id: label
41: 0
42: 4
43: 2
44: 3
45: 1
46: 3
47: 1
48: 0
49: 2
50: 1
0: 5
1: 5
2: 5
3: 5
4: 5
5: 5
6: 5
7: 5
8: 5
9: 5
10: 5
11: 5
12: 5
13: 5
14: 5
15: 5
16: 5
17: 5
18: 5
19: 5
20: 5
21: 5
22: 5
23: 5
24: 5
25: 5
26: 5
27: 5
28: 5
29: 5
30: 5
31: 5
32: 5
33: 5
34: 5
35: 5
36: 5
37: 5
38: 5
39: 5
40: 5
edge from: to
41: 0
42: 0
42: 2
43: 5
43: 7
44: 4
44: 6
44: 8
44: 10
44: 11
45: 6
45: 9
45: 11
46: 14
46: 17
46: 19
47: 1
48: 3
48: 24
48: 25
49: 15
49: 28
50: 34
1: 41
2: 41
3: 41
4: 41
5: 42
6: 42
7: 42
8: 43
9: 43
10: 43
11: 43
12: 44
13: 45
14: 45
15: 45
16: 45
17: 45
18: 45
19: 45
20: 46
21: 46
22: 46
23: 46
24: 47
25: 47
26: 48
27: 48
28: 48
29: 48
30: 48
31: 49
32: 49
33: 49
34: 49
35: 49
36: 49
37: 50
38: 50
39: 50
40: 50
segment: [6]
vertex id: label
37: 0
38: 4
39: 2
40: 4
41: 0
42: 4
43: 0
44: 4
45: 2
46: 2
0: 5
1: 5
2: 5
3: 5
4: 5
5: 5
6: 5
7: 5
8: 5
9: 5
10: 5
11: 5
12: 5
13: 5
14: 5
15: 5
16: 5
17: 5
18: 5
19: 5
20: 5
21: 5
22: 5
23: 5
24: 5
25: 5
26: 5
27: 5
28: 5
29: 5
30: 5
31: 5
32: 5
33: 5
34: 5
35: 5
36: 5
edge from: to
37: 0
38: 0
38: 2
38: 3
39: 7
40: 6
40: 11
41: 13
42: 16
42: 17
43: 10
43: 15
43: 18
43: 20
44: 24
44: 25
45: 13
45: 24
46: 24
46: 30
46: 31
46: 32
1: 37
2: 37
3: 37
4: 38
5: 38
6: 38
7: 38
8: 39
9: 39
10: 39
11: 39
12: 39
13: 40
14: 40
15: 41
16: 41
17: 41
18: 42
19: 42
20: 42
21: 43
22: 43
23: 43
24: 43
25: 43
26: 44
27: 45
28: 45
29: 45
30: 45
31: 45
32: 45
33: 46
34: 46
35: 46
36: 46
segment: [7]
vertex id: label
31: 0
32: 4
33: 1
34: 0
35: 4
36: 0
37: 2
38: 4
39: 0
40: 4
0: 5
1: 5
2: 5
3: 5
4: 5
5: 5
6: 5
7: 5
8: 5
9: 5
10: 5
11: 5
12: 5
13: 5
14: 5
15: 5
16: 5
17: 5
18: 5
19: 5
20: 5
21: 5
22: 5
23: 5
24: 5
25: 5
26: 5
27: 5
28: 5
29: 5
30: 5
edge from: to
31: 0
31: 1
32: 0
33: 3
33: 4
33: 5
33: 6
34: 8
35: 2
35: 7
35: 9
36: 11
37: 16
37: 17
38: 19
39: 24
40: 20
40: 25
40: 26
40: 27
2: 31
3: 31
4: 32
5: 32
6: 32
7: 33
8: 33
9: 34
10: 35
11: 35
12: 35
13: 36
14: 36
15: 36
16: 36
17: 36
18: 37
19: 37
20: 37
21: 37
22: 38
23: 38
24: 38
25: 38
26: 39
27: 39
28: 40
29: 40
30: 40
segment: [8]
vertex id: label
30: 0
31: 4
32: 1
33: 0
34: 4
35: 0
36: 4
37: 2
38: 4
39: 2
0: 5
1: 5
2: 5
3: 5
4: 5
5: 5
6: 5
7: 5
8: 5
9: 5
10: 5
11: 5
12: 5
13: 5
14: 5
15: 5
16: 5
17: 5
18: 5
19: 5
20: 5
21: 5
22: 5
23: 5
24: 5
25: 5
26: 5
27: 5
28: 5
29: 5
edge from: to
30: 0
30: 1
30: 2
31: 0
31: 3
32: 3
32: 4
32: 5
32: 6
33: 5
33: 7
34: 5
34: 9
35: 7
35: 13
35: 14
36: 17
36: 19
37: 16
37: 19
37: 21
38: 1
38: 17
38: 23
39: 24
3: 30
4: 31
5: 31
6: 31
7: 32
8: 33
9: 33
10: 33
11: 34
12: 34
13: 34
14: 34
15: 35
16: 35
17: 35
18: 35
19: 35
20: 36
21: 36
22: 37
23: 37
24: 38
25: 38
26: 39
27: 39
28: 39
29: 39
segment: [9]
vertex id: label
36: 0
37: 4
38: 1
39: 4
40: 0
41: 4
42: 1
43: 0
44: 4
45: 1
0: 5
1: 5
2: 5
3: 5
4: 5
5: 5
6: 5
7: 5
8: 5
9: 5
10: 5
11: 5
12: 5
13: 5
14: 5
15: 5
16: 5
17: 5
18: 5
19: 5
20: 5
21: 5
22: 5
23: 5
24: 5
25: 5
26: 5
27: 5
28: 5
29: 5
30: 5
31: 5
32: 5
33: 5
34: 5
35: 5
edge from: to
36: 0
36: 1
37: 0
37: 2
37: 3
38: 9
39: 9
40: 7
40: 10
40: 11
40: 12
40: 13
41: 9
41: 17
42: 10
42: 18
43: 1
43: 23
44: 20
44: 25
44: 27
45: 28
2: 36
3: 36
4: 36
5: 37
6: 37
7: 37
8: 37
9: 37
10: 38
11: 39
12: 39
13: 39
14: 40
15: 40
16: 40
17: 40
18: 40
19: 41
20: 41
21: 42
22: 42
23: 42
24: 43
25: 43
26: 43
27: 43
28: 44
29: 44
30: 44
31: 45
32: 45
33: 45
34: 45
35: 45
