segment: [0]
vertex id: label
32: 0
33: 3
34: 4
35: 3
36: 4
37: 3
38: 4
39: 3
40: 4
41: 3
0: 5
1: 5
2: 5
3: 5
4: 5
5: 5
6: 5
7: 5
8: 5
9: 5
10: 5
11: 5
12: 5
13: 5
14: 5
15: 5
16: 5
17: 5
18: 5
19: 5
20: 5
21: 5
22: 5
23: 5
24: 5
25: 5
26: 5
27: 5
28: 5
29: 5
30: 5
31: 5
edge from: to
32: 0
33: 1
33: 5
34: 3
34: 7
35: 1
35: 6
35: 13
35: 14
36: 17
37: 20
38: 22
39: 24
39: 25
40: 25
41: 27
41: 28
1: 32
2: 32
3: 32
4: 32
5: 32
6: 33
7: 33
8: 34
9: 34
10: 34
11: 34
12: 34
13: 34
14: 34
15: 35
16: 35
17: 35
18: 36
19: 36
20: 36
21: 36
22: 37
23: 37
24: 38
25: 38
26: 39
27: 40
28: 40
29: 41
30: 41
31: 41
segment: [1]
vertex id: label
26: 0
27: 3
28: 4
29: 3
30: 4
31: 3
32: 4
33: 3
34: 4
35: 3
0: 5
1: 5
2: 5
3: 5
4: 5
5: 5
6: 5
7: 5
8: 5
9: 5
10: 5
11: 5
12: 5
13: 5
14: 5
15: 5
16: 5
17: 5
18: 5
19: 5
20: 5
21: 5
22: 5
23: 5
24: 5
25: 5
edge from: to
26: 0
26: 1
27: 2
27: 4
28: 7
29: 1
29: 3
29: 8
29: 11
30: 2
30: 4
30: 12
31: 6
31: 14
32: 4
32: 5
32: 15
33: 16
33: 17
34: 19
35: 20
2: 26
3: 26
4: 26
5: 27
6: 27
7: 27
8: 28
9: 28
10: 28
11: 28
12: 29
13: 30
14: 30
15: 31
16: 32
17: 32
18: 33
19: 33
20: 34
21: 34
22: 35
23: 35
24: 35
25: 35
segment: [2]
vertex id: label
27: 0
28: 3
29: 4
30: 3
31: 4
32: 3
33: 4
34: 3
35: 4
36: 3
0: 5
1: 5
2: 5
3: 5
4: 5
5: 5
6: 5
7: 5
8: 5
9: 5
10: 5
11: 5
12: 5
13: 5
14: 5
15: 5
16: 5
17: 5
18: 5
19: 5
20: 5
21: 5
22: 5
23: 5
24: 5
25: 5
26: 5
edge from: to
27: 0
28: 0
28: 1
29: 3
30: 7
31: 2
31: 10
32: 2
33: 14
34: 11
34: 12
34: 14
34: 15
34: 16
35: 7
35: 9
35: 20
36: 17
36: 22
36: 23
1: 27
2: 28
3: 28
4: 29
5: 29
6: 29
7: 29
8: 30
9: 30
10: 30
11: 31
12: 31
13: 32
14: 32
15: 33
16: 33
17: 34
18: 34
19: 34
20: 34
21: 34
22: 35
23: 35
24: 36
25: 36
26: 36
segment: [3]
vertex id: label
30: 0
31: 3
32: 4
33: 3
34: 4
35: 3
36: 4
37: 3
38: 4
39: 3
0: 5
1: 5
2: 5
3: 5
4: 5
5: 5
6: 5
7: 5
8: 5
9: 5
10: 5
11: 5
12: 5
13: 5
14: 5
15: 5
16: 5
17: 5
18: 5
19: 5
20: 5
21: 5
22: 5
23: 5
24: 5
25: 5
26: 5
27: 5
28: 5
29: 5
edge from: to
30: 0
30: 1
31: 5
32: 2
32: 3
32: 7
33: 10
34: 2
34: 12
35: 13
36: 17
37: 20
38: 16
38: 21
38: 22
39: 24
2: 30
3: 30
4: 30
5: 30
6: 31
7: 31
8: 32
9: 32
10: 32
11: 33
12: 33
13: 34
14: 35
15: 35
16: 35
17: 35
18: 36
19: 36
20: 36
21: 36
22: 37
23: 38
24: 38
25: 38
26: 39
27: 39
28: 39
29: 39
segment: [4]
vertex id: label
30: 0
31: 3
32: 4
33: 3
34: 4
35: 3
36: 4
37: 3
38: 4
39: 3
0: 5
1: 5
2: 5
3: 5
4: 5
5: 5
6: 5
7: 5
8: 5
9: 5
10: 5
11: 5
12: 5
13: 5
14: 5
15: 5
16: 5
17: 5
18: 5
19: 5
20: 5
21: 5
22: 5
23: 5
24: 5
25: 5
26: 5
27: 5
28: 5
29: 5
edge from: to
30: 0
30: 1
31: 4
32: 1
32: 6
33: 9
34: 14
35: 15
35: 16
35: 17
36: 20
37: 17
37: 22
37: 23
38: 16
38: 23
38: 24
39: 11
39: 25
2: 30
3: 30
4: 30
5: 31
6: 31
7: 32
8: 32
9: 32
10: 33
11: 33
12: 33
13: 33
14: 33
15: 34
16: 34
17: 34
18: 35
19: 35
20: 35
21: 35
22: 36
23: 36
24: 37
25: 38
26: 38
27: 39
28: 39
29: 39
segment: [5]
vertex id: label
27: 0
28: 3
29: 4
30: 3
31: 4
32: 3
33: 4
34: 3
35: 4
36: 3
0: 5
1: 5
2: 5
3: 5
4: 5
5: 5
6: 5
7: 5
8: 5
9: 5
10: 5
11: 5
12: 5
13: 5
14: 5
15: 5
16: 5
17: 5
18: 5
19: 5
20: 5
21: 5
22: 5
23: 5
24: 5
25: 5
26: 5
edge from: to
27: 0
28: 0
28: 1
28: 2
29: 1
29: 6
30: 6
30: 8
31: 2
32: 5
32: 15
33: 16
33: 17
34: 19
34: 20
35: 16
35: 21
35: 22
36: 24
1: 27
2: 27
3: 28
4: 28
5: 28
6: 28
7: 29
8: 29
9: 30
10: 30
11: 30
12: 30
13: 31
14: 31
15: 31
16: 32
17: 32
18: 33
19: 33
20: 33
21: 34
22: 34
23: 35
24: 35
25: 35
26: 36
segment: [6]
vertex id: label
29: 0
30: 3
31: 4
32: 3
33: 4
34: 3
35: 4
36: 3
37: 4
38: 3
0: 5
1: 5
2: 5
3: 5
4: 5
5: 5
6: 5
7: 5
8: 5
9: 5
10: 5
11: 5
12: 5
13: 5
14: 5
15: 5
16: 5
17: 5
18: 5
19: 5
20: 5
21: 5
22: 5
23: 5
24: 5
25: 5
26: 5
27: 5
28: 5
edge from: to
29: 0
30: 4
31: 3
31: 7
32: 4
32: 9
33: 2
33: 12
34: 4
34: 5
34: 10
34: 14
34: 15
35: 3
35: 18
36: 15
36: 19
36: 20
37: 21
38: 11
38: 25
1: 29
2: 29
3: 29
4: 29
5: 30
6: 30
7: 30
8: 31
9: 31
10: 32
11: 32
12: 32
13: 33
14: 33
15: 33
16: 34
17: 34
18: 34
19: 35
20: 35
21: 36
22: 36
23: 37
24: 37
25: 37
26: 37
27: 38
28: 38
segment: [7]
vertex id: label
29: 0
30: 3
31: 4
32: 3
33: 4
34: 3
35: 4
36: 3
37: 4
38: 3
0: 5
1: 5
2: 5
3: 5
4: 5
5: 5
6: 5
7: 5
8: 5
9: 5
10: 5
11: 5
12: 5
13: 5
14: 5
15: 5
16: 5
17: 5
18: 5
19: 5
20: 5
21: 5
22: 5
23: 5
24: 5
25: 5
26: 5
27: 5
28: 5
edge from: to
29: 0
29: 1
30: 1
30: 2
30: 4
31: 1
31: 6
32: 2
32: 12
33: 9
33: 10
33: 13
34: 14
35: 14
35: 15
35: 16
35: 17
36: 21
37: 22
37: 23
38: 24
2: 29
3: 29
4: 29
5: 30
6: 30
7: 31
8: 31
9: 31
10: 31
11: 31
12: 31
13: 32
14: 33
15: 34
16: 34
17: 34
18: 35
19: 35
20: 35
21: 35
22: 35
23: 36
24: 37
25: 37
26: 38
27: 38
28: 38
segment: [8]
vertex id: label
30: 0
31: 3
32: 4
33: 3
34: 4
35: 3
36: 4
37: 3
38: 4
39: 3
0: 5
1: 5
2: 5
3: 5
4: 5
5: 5
6: 5
7: 5
8: 5
9: 5
10: 5
11: 5
12: 5
13: 5
14: 5
15: 5
16: 5
17: 5
18: 5
19: 5
20: 5
21: 5
22: 5
23: 5
24: 5
25: 5
26: 5
27: 5
28: 5
29: 5
edge from: to
30: 0
31: 2
31: 4
32: 6
32: 8
33: 2
33: 10
34: 13
35: 15
36: 16
36: 17
37: 9
37: 20
38: 22
39: 26
39: 27
1: 30
2: 30
3: 30
4: 30
5: 31
6: 31
7: 31
8: 31
9: 32
10: 32
11: 33
12: 33
13: 33
14: 34
15: 34
16: 35
17: 35
18: 36
19: 36
20: 36
21: 36
22: 37
23: 37
24: 38
25: 38
26: 38
27: 38
28: 39
29: 39
segment: [9]
vertex id: label
29: 0
30: 3
31: 4
32: 3
33: 4
34: 3
35: 4
36: 3
37: 4
38: 3
0: 5
1: 5
2: 5
3: 5
4: 5
5: 5
6: 5
7: 5
8: 5
9: 5
10: 5
11: 5
12: 5
13: 5
14: 5
15: 5
16: 5
17: 5
18: 5
19: 5
20: 5
21: 5
22: 5
23: 5
24: 5
25: 5
26: 5
27: 5
28: 5
edge from: to
29: 0
29: 1
30: 3
31: 2
31: 3
31: 7
32: 8
33: 2
33: 12
34: 1
34: 6
34: 13
34: 14
35: 15
35: 16
35: 17
36: 20
37: 21
37: 22
38: 11
38: 25
2: 29
3: 29
4: 30
5: 30
6: 30
7: 30
8: 31
9: 32
10: 32
11: 32
12: 32
13: 33
14: 33
15: 34
16: 34
17: 34
18: 35
19: 35
20: 35
21: 35
22: 36
23: 37
24: 37
25: 37
26: 37
27: 38
28: 38
