segment: [0]
vertex id: label
69: 0
70: 2
71: 0
72: 2
73: 0
74: 2
75: 0
76: 2
77: 0
78: 2
79: 0
80: 2
81: 0
82: 2
83: 0
84: 2
85: 0
86: 2
87: 0
88: 2
0: 5
1: 5
2: 5
3: 5
4: 5
5: 5
6: 5
7: 5
8: 5
9: 5
10: 5
11: 5
12: 5
13: 5
14: 5
15: 5
16: 5
17: 5
18: 5
19: 5
20: 5
21: 5
22: 5
23: 5
24: 5
25: 5
26: 5
27: 5
28: 5
29: 5
30: 5
31: 5
32: 5
33: 5
34: 5
35: 5
36: 5
37: 5
38: 5
39: 5
40: 5
41: 5
42: 5
43: 5
44: 5
45: 5
46: 5
47: 5
48: 5
49: 5
50: 5
51: 5
52: 5
53: 5
54: 5
55: 5
56: 5
57: 5
58: 5
59: 5
60: 5
61: 5
62: 5
63: 5
64: 5
65: 5
66: 5
67: 5
68: 5
edge from: to
69: 0
69: 1
69: 2
70: 0
71: 3
71: 9
72: 12
72: 13
73: 16
74: 13
74: 16
74: 20
74: 22
75: 25
75: 27
76: 22
76: 27
76: 29
76: 30
77: 25
77: 31
77: 34
78: 33
78: 36
79: 35
79: 38
80: 38
81: 41
81: 42
81: 44
81: 46
82: 43
83: 46
84: 49
85: 53
85: 57
86: 56
86: 60
86: 61
87: 37
87: 59
87: 63
87: 64
88: 60
3: 69
4: 69
5: 70
6: 70
7: 70
8: 70
9: 70
10: 70
11: 71
12: 71
13: 71
14: 72
15: 72
16: 72
17: 72
18: 73
19: 73
20: 73
21: 73
22: 73
23: 74
24: 74
25: 74
26: 74
27: 74
28: 75
29: 75
30: 75
31: 76
32: 76
33: 76
34: 76
35: 77
36: 77
37: 78
38: 78
39: 79
40: 79
41: 79
42: 79
43: 80
44: 80
45: 80
46: 80
47: 81
48: 82
49: 82
50: 82
51: 83
52: 83
53: 83
54: 84
55: 84
56: 84
57: 84
58: 84
59: 85
60: 85
61: 85
62: 86
63: 86
64: 86
65: 87
66: 88
67: 88
68: 88
segment: [1]
vertex id: label
59: 0
60: 2
61: 0
62: 2
63: 0
64: 2
65: 0
66: 2
67: 0
68: 2
69: 0
70: 2
71: 0
72: 2
73: 0
74: 2
75: 0
76: 2
77: 0
78: 2
0: 5
1: 5
2: 5
3: 5
4: 5
5: 5
6: 5
7: 5
8: 5
9: 5
10: 5
11: 5
12: 5
13: 5
14: 5
15: 5
16: 5
17: 5
18: 5
19: 5
20: 5
21: 5
22: 5
23: 5
24: 5
25: 5
26: 5
27: 5
28: 5
29: 5
30: 5
31: 5
32: 5
33: 5
34: 5
35: 5
36: 5
37: 5
38: 5
39: 5
40: 5
41: 5
42: 5
43: 5
44: 5
45: 5
46: 5
47: 5
48: 5
49: 5
50: 5
51: 5
52: 5
53: 5
54: 5
55: 5
56: 5
57: 5
58: 5
edge from: to
59: 0
60: 0
60: 2
61: 0
62: 3
62: 9
63: 13
64: 17
65: 20
65: 22
66: 21
66: 23
67: 22
68: 24
68: 26
69: 25
70: 27
70: 29
71: 24
71: 29
71: 30
71: 33
72: 33
73: 38
73: 42
74: 30
74: 40
74: 44
75: 41
75: 42
75: 44
75: 46
76: 46
77: 50
78: 51
78: 56
1: 59
2: 59
3: 60
4: 61
5: 61
6: 61
7: 61
8: 61
9: 61
10: 61
11: 62
12: 62
13: 62
14: 62
15: 63
16: 63
17: 63
18: 63
19: 63
20: 64
21: 64
22: 64
23: 65
24: 66
25: 67
26: 67
27: 68
28: 69
29: 69
30: 70
31: 70
32: 70
33: 70
34: 71
35: 71
36: 71
37: 72
38: 72
39: 72
40: 72
41: 72
42: 72
43: 73
44: 73
45: 74
46: 74
47: 75
48: 75
49: 75
50: 75
51: 76
52: 76
53: 76
54: 76
55: 77
56: 77
57: 78
58: 78
segment: [2]
vertex id: label
63: 0
64: 2
65: 0
66: 2
67: 0
68: 2
69: 0
70: 2
71: 0
72: 2
73: 0
74: 2
75: 0
76: 2
77: 0
78: 2
79: 0
80: 2
81: 0
82: 2
0: 5
1: 5
2: 5
3: 5
4: 5
5: 5
6: 5
7: 5
8: 5
9: 5
10: 5
11: 5
12: 5
13: 5
14: 5
15: 5
16: 5
17: 5
18: 5
19: 5
20: 5
21: 5
22: 5
23: 5
24: 5
25: 5
26: 5
27: 5
28: 5
29: 5
30: 5
31: 5
32: 5
33: 5
34: 5
35: 5
36: 5
37: 5
38: 5
39: 5
40: 5
41: 5
42: 5
43: 5
44: 5
45: 5
46: 5
47: 5
48: 5
49: 5
50: 5
51: 5
52: 5
53: 5
54: 5
55: 5
56: 5
57: 5
58: 5
59: 5
60: 5
61: 5
62: 5
edge from: to
63: 0
64: 0
64: 1
64: 2
65: 0
66: 12
67: 11
67: 15
67: 16
68: 18
68: 20
69: 16
69: 20
69: 22
70: 7
70: 22
71: 23
71: 25
72: 20
72: 24
72: 25
72: 27
73: 22
73: 27
73: 30
74: 33
75: 36
75: 39
76: 36
76: 37
76: 40
77: 42
77: 46
78: 43
78: 45
78: 49
79: 48
79: 52
80: 50
81: 53
81: 57
82: 55
82: 59
1: 63
2: 63
3: 63
4: 64
5: 64
6: 64
7: 64
8: 65
9: 65
10: 65
11: 65
12: 65
13: 65
14: 66
15: 66
16: 66
17: 67
18: 67
19: 67
20: 67
21: 68
22: 68
23: 69
24: 69
25: 70
26: 71
27: 71
28: 72
29: 72
30: 72
31: 73
32: 73
33: 73
34: 73
35: 73
36: 73
37: 74
38: 74
39: 74
40: 75
41: 76
42: 76
43: 76
44: 76
45: 76
46: 76
47: 77
48: 77
49: 77
50: 78
51: 78
52: 78
53: 79
54: 79
55: 79
56: 80
57: 80
58: 80
59: 81
60: 81
61: 82
62: 82
segment: [3]
vertex id: label
60: 0
61: 2
62: 0
63: 2
64: 0
65: 2
66: 0
67: 2
68: 0
69: 2
70: 0
71: 2
72: 0
73: 2
74: 0
75: 2
76: 0
77: 2
78: 0
79: 2
0: 5
1: 5
2: 5
3: 5
4: 5
5: 5
6: 5
7: 5
8: 5
9: 5
10: 5
11: 5
12: 5
13: 5
14: 5
15: 5
16: 5
17: 5
18: 5
19: 5
20: 5
21: 5
22: 5
23: 5
24: 5
25: 5
26: 5
27: 5
28: 5
29: 5
30: 5
31: 5
32: 5
33: 5
34: 5
35: 5
36: 5
37: 5
38: 5
39: 5
40: 5
41: 5
42: 5
43: 5
44: 5
45: 5
46: 5
47: 5
48: 5
49: 5
50: 5
51: 5
52: 5
53: 5
54: 5
55: 5
56: 5
57: 5
58: 5
59: 5
edge from: to
60: 0
61: 0
61: 1
61: 3
61: 4
62: 0
63: 3
63: 9
64: 12
65: 14
65: 15
66: 5
66: 16
67: 18
68: 7
68: 22
68: 24
69: 25
70: 27
70: 30
71: 25
71: 30
71: 31
71: 34
72: 34
73: 38
74: 25
74: 39
74: 43
75: 41
75: 45
76: 41
76: 42
76: 44
76: 46
77: 44
77: 48
78: 37
78: 48
78: 50
78: 54
79: 53
1: 60
2: 60
3: 60
4: 60
5: 61
6: 61
7: 61
8: 61
9: 62
10: 62
11: 63
12: 63
13: 63
14: 64
15: 64
16: 65
17: 65
18: 66
19: 66
20: 66
21: 67
22: 67
23: 67
24: 67
25: 68
26: 68
27: 68
28: 69
29: 69
30: 69
31: 70
32: 70
33: 70
34: 70
35: 71
36: 71
37: 71
38: 72
39: 72
40: 72
41: 72
42: 73
43: 73
44: 74
45: 74
46: 75
47: 76
48: 76
49: 77
50: 77
51: 77
52: 77
53: 77
54: 77
55: 78
56: 78
57: 78
58: 78
59: 79
segment: [4]
vertex id: label
64: 0
65: 2
66: 0
67: 2
68: 0
69: 2
70: 0
71: 2
72: 0
73: 2
74: 0
75: 2
76: 0
77: 2
78: 0
79: 2
80: 0
81: 2
82: 0
83: 2
0: 5
1: 5
2: 5
3: 5
4: 5
5: 5
6: 5
7: 5
8: 5
9: 5
10: 5
11: 5
12: 5
13: 5
14: 5
15: 5
16: 5
17: 5
18: 5
19: 5
20: 5
21: 5
22: 5
23: 5
24: 5
25: 5
26: 5
27: 5
28: 5
29: 5
30: 5
31: 5
32: 5
33: 5
34: 5
35: 5
36: 5
37: 5
38: 5
39: 5
40: 5
41: 5
42: 5
43: 5
44: 5
45: 5
46: 5
47: 5
48: 5
49: 5
50: 5
51: 5
52: 5
53: 5
54: 5
55: 5
56: 5
57: 5
58: 5
59: 5
60: 5
61: 5
62: 5
63: 5
edge from: to
64: 0
65: 0
65: 1
65: 2
65: 3
66: 0
67: 0
67: 6
67: 8
68: 11
68: 12
69: 15
70: 17
71: 19
71: 21
72: 22
73: 25
73: 26
73: 27
73: 28
74: 27
75: 32
76: 37
76: 40
77: 28
77: 38
77: 41
78: 30
78: 40
78: 44
79: 45
80: 48
81: 51
82: 53
83: 43
83: 54
83: 59
1: 64
2: 64
4: 65
5: 65
6: 65
7: 66
8: 66
9: 67
10: 67
11: 67
12: 67
13: 68
14: 68
15: 68
16: 68
17: 69
18: 69
19: 70
20: 70
21: 70
22: 71
23: 71
24: 71
25: 72
26: 72
27: 72
28: 72
29: 73
30: 73
31: 74
32: 74
33: 74
34: 74
35: 74
36: 75
37: 75
38: 75
39: 75
40: 75
41: 76
42: 77
43: 77
44: 77
45: 78
46: 78
47: 78
48: 78
49: 78
50: 79
51: 79
52: 79
53: 80
54: 80
55: 80
56: 80
57: 81
58: 81
59: 82
60: 83
61: 83
62: 83
63: 83
segment: [5]
vertex id: label
60: 0
61: 2
62: 0
63: 2
64: 0
65: 2
66: 0
67: 2
68: 0
69: 2
70: 0
71: 2
72: 0
73: 2
74: 0
75: 2
76: 0
77: 2
78: 0
79: 2
0: 5
1: 5
2: 5
3: 5
4: 5
5: 5
6: 5
7: 5
8: 5
9: 5
10: 5
11: 5
12: 5
13: 5
14: 5
15: 5
16: 5
17: 5
18: 5
19: 5
20: 5
21: 5
22: 5
23: 5
24: 5
25: 5
26: 5
27: 5
28: 5
29: 5
30: 5
31: 5
32: 5
33: 5
34: 5
35: 5
36: 5
37: 5
38: 5
39: 5
40: 5
41: 5
42: 5
43: 5
44: 5
45: 5
46: 5
47: 5
48: 5
49: 5
50: 5
51: 5
52: 5
53: 5
54: 5
55: 5
56: 5
57: 5
58: 5
59: 5
edge from: to
60: 0
61: 0
61: 2
62: 0
63: 0
63: 6
64: 11
65: 14
66: 5
66: 12
66: 16
66: 17
67: 13
67: 17
67: 19
68: 18
69: 22
70: 25
71: 27
71: 29
72: 29
73: 32
73: 35
74: 27
74: 33
74: 34
74: 37
75: 36
75: 39
76: 37
76: 38
76: 42
77: 44
77: 48
78: 46
78: 50
79: 49
79: 53
1: 60
2: 60
3: 61
4: 61
5: 62
6: 62
7: 63
8: 63
9: 63
10: 63
11: 63
12: 63
13: 64
14: 64
15: 64
16: 65
17: 65
18: 66
19: 66
20: 67
21: 68
22: 68
23: 68
24: 68
25: 69
26: 69
27: 69
28: 70
29: 70
30: 71
31: 71
32: 71
33: 72
34: 72
35: 72
36: 73
37: 73
38: 74
39: 74
40: 75
41: 75
42: 75
43: 76
44: 76
45: 76
46: 76
47: 76
48: 76
49: 77
50: 77
51: 78
52: 78
53: 78
54: 79
55: 79
56: 79
57: 79
58: 79
59: 79
segment: [6]
vertex id: label
64: 0
65: 2
66: 0
67: 2
68: 0
69: 2
70: 0
71: 2
72: 0
73: 2
74: 0
75: 2
76: 0
77: 2
78: 0
79: 2
80: 0
81: 2
82: 0
83: 2
0: 5
1: 5
2: 5
3: 5
4: 5
5: 5
6: 5
7: 5
8: 5
9: 5
10: 5
11: 5
12: 5
13: 5
14: 5
15: 5
16: 5
17: 5
18: 5
19: 5
20: 5
21: 5
22: 5
23: 5
24: 5
25: 5
26: 5
27: 5
28: 5
29: 5
30: 5
31: 5
32: 5
33: 5
34: 5
35: 5
36: 5
37: 5
38: 5
39: 5
40: 5
41: 5
42: 5
43: 5
44: 5
45: 5
46: 5
47: 5
48: 5
49: 5
50: 5
51: 5
52: 5
53: 5
54: 5
55: 5
56: 5
57: 5
58: 5
59: 5
60: 5
61: 5
62: 5
63: 5
edge from: to
64: 0
65: 0
66: 0
66: 5
67: 0
68: 0
68: 8
69: 12
70: 13
70: 14
71: 15
71: 16
72: 19
73: 22
73: 23
73: 25
74: 24
74: 26
75: 28
76: 31
76: 34
77: 34
77: 37
78: 38
79: 38
79: 42
80: 40
80: 44
81: 43
81: 45
81: 49
82: 47
82: 51
83: 51
1: 64
2: 64
3: 65
4: 65
5: 65
6: 66
7: 66
8: 67
9: 68
10: 68
11: 68
12: 68
13: 68
14: 69
15: 70
16: 70
17: 71
18: 71
19: 71
20: 71
21: 71
22: 72
23: 72
24: 72
25: 72
26: 73
27: 74
28: 74
29: 74
30: 74
31: 74
32: 75
33: 75
34: 75
35: 76
36: 76
37: 76
38: 77
39: 77
40: 77
41: 77
42: 78
43: 79
44: 79
45: 80
46: 80
47: 80
48: 80
49: 80
50: 81
51: 81
52: 82
53: 82
54: 82
55: 82
56: 82
57: 83
58: 83
59: 83
60: 83
61: 83
62: 83
63: 83
segment: [7]
vertex id: label
56: 0
57: 2
58: 0
59: 2
60: 0
61: 2
62: 0
63: 2
64: 0
65: 2
66: 0
67: 2
68: 0
69: 2
70: 0
71: 2
72: 0
73: 2
74: 0
75: 2
0: 5
1: 5
2: 5
3: 5
4: 5
5: 5
6: 5
7: 5
8: 5
9: 5
10: 5
11: 5
12: 5
13: 5
14: 5
15: 5
16: 5
17: 5
18: 5
19: 5
20: 5
21: 5
22: 5
23: 5
24: 5
25: 5
26: 5
27: 5
28: 5
29: 5
30: 5
31: 5
32: 5
33: 5
34: 5
35: 5
36: 5
37: 5
38: 5
39: 5
40: 5
41: 5
42: 5
43: 5
44: 5
45: 5
46: 5
47: 5
48: 5
49: 5
50: 5
51: 5
52: 5
53: 5
54: 5
55: 5
edge from: to
56: 0
57: 0
57: 1
58: 0
58: 4
58: 5
59: 0
59: 7
60: 3
60: 7
60: 9
61: 10
61: 11
62: 12
62: 13
63: 14
64: 17
65: 19
65: 20
65: 21
66: 22
67: 23
68: 25
68: 26
68: 28
69: 29
70: 32
70: 35
71: 36
72: 39
73: 42
73: 46
74: 43
74: 47
75: 48
1: 56
2: 56
3: 56
4: 57
5: 57
6: 58
7: 58
8: 59
9: 59
10: 59
11: 60
12: 61
13: 61
14: 62
15: 62
16: 63
17: 63
18: 63
19: 63
20: 64
21: 64
22: 65
23: 65
24: 65
25: 66
26: 67
27: 67
28: 67
29: 68
30: 68
31: 68
32: 68
33: 69
34: 69
35: 69
36: 70
37: 70
38: 70
39: 70
40: 71
41: 71
42: 71
43: 71
44: 72
45: 72
46: 72
47: 73
48: 74
49: 74
50: 74
51: 74
52: 74
53: 75
54: 75
55: 75
segment: [8]
vertex id: label
63: 0
64: 2
65: 0
66: 2
67: 0
68: 2
69: 0
70: 2
71: 0
72: 2
73: 0
74: 2
75: 0
76: 2
77: 0
78: 2
79: 0
80: 2
81: 0
82: 2
0: 5
1: 5
2: 5
3: 5
4: 5
5: 5
6: 5
7: 5
8: 5
9: 5
10: 5
11: 5
12: 5
13: 5
14: 5
15: 5
16: 5
17: 5
18: 5
19: 5
20: 5
21: 5
22: 5
23: 5
24: 5
25: 5
26: 5
27: 5
28: 5
29: 5
30: 5
31: 5
32: 5
33: 5
34: 5
35: 5
36: 5
37: 5
38: 5
39: 5
40: 5
41: 5
42: 5
43: 5
44: 5
45: 5
46: 5
47: 5
48: 5
49: 5
50: 5
51: 5
52: 5
53: 5
54: 5
55: 5
56: 5
57: 5
58: 5
59: 5
60: 5
61: 5
62: 5
edge from: to
63: 0
63: 1
63: 2
64: 0
65: 0
65: 9
66: 9
66: 12
66: 13
67: 5
67: 16
68: 16
68: 21
68: 23
69: 23
69: 25
70: 26
70: 28
71: 20
71: 27
71: 29
72: 18
72: 28
72: 31
73: 31
73: 34
74: 35
75: 38
76: 43
77: 35
77: 44
77: 48
78: 35
78: 37
78: 47
78: 51
79: 48
80: 50
80: 51
80: 53
80: 56
81: 54
82: 56
82: 60
3: 63
4: 63
5: 63
6: 64
7: 64
8: 64
9: 64
10: 65
11: 65
12: 65
13: 65
14: 66
15: 66
16: 66
17: 66
18: 67
19: 67
20: 67
21: 67
22: 67
23: 67
24: 68
25: 68
26: 69
27: 69
28: 69
29: 70
30: 71
31: 71
32: 72
33: 72
34: 72
35: 73
36: 73
37: 73
38: 73
39: 74
40: 74
41: 74
42: 75
43: 75
44: 75
45: 75
46: 75
47: 75
48: 76
49: 77
50: 77
51: 77
52: 78
53: 79
54: 79
55: 79
56: 79
57: 80
58: 80
59: 80
60: 81
61: 81
62: 82
segment: [9]
vertex id: label
70: 0
71: 2
72: 0
73: 2
74: 0
75: 2
76: 0
77: 2
78: 0
79: 2
80: 0
81: 2
82: 0
83: 2
84: 0
85: 2
86: 0
87: 2
88: 0
89: 2
0: 5
1: 5
2: 5
3: 5
4: 5
5: 5
6: 5
7: 5
8: 5
9: 5
10: 5
11: 5
12: 5
13: 5
14: 5
15: 5
16: 5
17: 5
18: 5
19: 5
20: 5
21: 5
22: 5
23: 5
24: 5
25: 5
26: 5
27: 5
28: 5
29: 5
30: 5
31: 5
32: 5
33: 5
34: 5
35: 5
36: 5
37: 5
38: 5
39: 5
40: 5
41: 5
42: 5
43: 5
44: 5
45: 5
46: 5
47: 5
48: 5
49: 5
50: 5
51: 5
52: 5
53: 5
54: 5
55: 5
56: 5
57: 5
58: 5
59: 5
60: 5
61: 5
62: 5
63: 5
64: 5
65: 5
66: 5
67: 5
68: 5
69: 5
edge from: to
70: 0
70: 1
71: 0
72: 0
72: 7
73: 10
73: 11
74: 14
74: 15
75: 17
75: 18
76: 19
77: 21
77: 23
78: 24
78: 26
79: 27
80: 22
80: 29
80: 32
81: 37
81: 40
82: 30
82: 40
82: 44
83: 44
84: 49
84: 53
85: 39
85: 52
85: 56
85: 57
86: 53
87: 55
87: 59
88: 57
88: 61
89: 60
89: 64
2: 70
3: 70
4: 70
5: 70
6: 71
7: 71
8: 72
9: 72
10: 72
11: 72
12: 73
13: 73
14: 73
15: 73
16: 74
17: 74
18: 74
19: 75
20: 75
21: 75
22: 76
23: 76
24: 77
25: 77
26: 77
27: 78
28: 78
29: 78
30: 79
31: 79
32: 79
33: 80
34: 80
35: 80
36: 80
37: 80
38: 80
39: 80
40: 80
41: 81
42: 81
43: 81
44: 81
45: 82
46: 82
47: 82
48: 82
49: 83
50: 83
51: 83
52: 83
53: 83
54: 84
55: 84
56: 84
57: 84
58: 85
59: 86
60: 86
61: 87
62: 87
63: 88
64: 88
65: 88
66: 89
67: 89
68: 89
69: 89
