segment: [0]
vertex id: label
28: 0
29: 4
30: 1
31: 2
32: 4
33: 1
34: 1
35: 2
36: 1
37: 1
0: 5
1: 5
2: 5
3: 5
4: 5
5: 5
6: 5
7: 5
8: 5
9: 5
10: 5
11: 5
12: 5
13: 5
14: 5
15: 5
16: 5
17: 5
18: 5
19: 5
20: 5
21: 5
22: 5
23: 5
24: 5
25: 5
26: 5
27: 5
edge from: to
28: 0
29: 1
29: 2
30: 1
30: 3
30: 5
31: 4
31: 8
32: 10
33: 12
34: 8
34: 16
35: 9
35: 18
36: 16
36: 20
36: 21
37: 23
1: 28
2: 28
3: 29
4: 29
5: 29
6: 30
7: 30
8: 30
9: 31
10: 31
11: 32
12: 32
13: 33
14: 33
15: 33
16: 33
17: 34
18: 34
19: 35
20: 35
21: 35
22: 36
23: 36
24: 37
25: 37
26: 37
27: 37
segment: [1]
vertex id: label
24: 0
25: 2
26: 2
27: 2
28: 4
29: 1
30: 0
31: 4
32: 3
33: 0
0: 5
1: 5
2: 5
3: 5
4: 5
5: 5
6: 5
7: 5
8: 5
9: 5
10: 5
11: 5
12: 5
13: 5
14: 5
15: 5
16: 5
17: 5
18: 5
19: 5
20: 5
21: 5
22: 5
23: 5
edge from: to
24: 0
24: 1
25: 3
26: 1
26: 5
27: 8
28: 2
28: 11
29: 6
29: 9
29: 11
29: 12
30: 16
31: 3
31: 13
31: 17
32: 9
32: 18
33: 17
33: 20
2: 24
3: 24
4: 25
5: 25
6: 26
7: 26
8: 26
9: 27
10: 27
11: 27
12: 28
13: 29
14: 29
15: 29
16: 29
17: 30
18: 31
19: 32
20: 32
21: 33
22: 33
23: 33
segment: [2]
vertex id: label
32: 0
33: 3
34: 4
35: 1
36: 0
37: 4
38: 4
39: 4
40: 4
41: 0
0: 5
1: 5
2: 5
3: 5
4: 5
5: 5
6: 5
7: 5
8: 5
9: 5
10: 5
11: 5
12: 5
13: 5
14: 5
15: 5
16: 5
17: 5
18: 5
19: 5
20: 5
21: 5
22: 5
23: 5
24: 5
25: 5
26: 5
27: 5
28: 5
29: 5
30: 5
31: 5
edge from: to
32: 0
33: 2
34: 1
35: 2
35: 6
35: 11
36: 14
37: 3
38: 21
38: 22
39: 23
39: 24
40: 27
40: 28
41: 29
41: 30
1: 32
2: 32
3: 33
4: 33
5: 33
6: 34
7: 34
8: 34
9: 34
10: 34
11: 34
12: 35
13: 35
14: 35
15: 36
16: 36
17: 36
18: 37
19: 37
20: 37
21: 37
22: 37
23: 38
24: 38
25: 39
26: 39
27: 39
28: 39
29: 40
30: 40
31: 41
segment: [3]
vertex id: label
24: 0
25: 3
26: 1
27: 2
28: 2
29: 4
30: 4
31: 4
32: 4
33: 1
0: 5
1: 5
2: 5
3: 5
4: 5
5: 5
6: 5
7: 5
8: 5
9: 5
10: 5
11: 5
12: 5
13: 5
14: 5
15: 5
16: 5
17: 5
18: 5
19: 5
20: 5
21: 5
22: 5
23: 5
edge from: to
24: 0
25: 2
25: 4
26: 1
26: 5
27: 5
27: 9
28: 10
29: 6
29: 12
30: 14
31: 9
31: 18
32: 19
33: 20
33: 21
1: 24
2: 24
3: 24
4: 24
5: 25
6: 26
7: 26
8: 26
9: 26
10: 27
11: 28
12: 28
13: 29
14: 29
15: 30
16: 30
17: 30
18: 30
19: 31
20: 32
21: 32
22: 33
23: 33
segment: [4]
vertex id: label
27: 0
28: 0
29: 4
30: 1
31: 4
32: 1
33: 4
34: 3
35: 4
36: 1
0: 5
1: 5
2: 5
3: 5
4: 5
5: 5
6: 5
7: 5
8: 5
9: 5
10: 5
11: 5
12: 5
13: 5
14: 5
15: 5
16: 5
17: 5
18: 5
19: 5
20: 5
21: 5
22: 5
23: 5
24: 5
25: 5
26: 5
edge from: to
27: 0
28: 1
28: 2
29: 3
30: 1
30: 5
31: 1
32: 9
33: 13
34: 8
34: 11
34: 12
34: 14
34: 15
35: 9
35: 18
36: 20
1: 27
2: 27
3: 28
4: 29
5: 29
6: 30
7: 31
8: 31
9: 31
10: 32
11: 32
12: 32
13: 32
14: 33
15: 33
16: 34
17: 34
18: 34
19: 35
20: 35
21: 35
22: 36
23: 36
24: 36
25: 36
26: 36
segment: [5]
vertex id: label
39: 0
40: 0
41: 4
42: 4
43: 2
44: 2
45: 2
46: 4
47: 3
48: 4
0: 5
1: 5
2: 5
3: 5
4: 5
5: 5
6: 5
7: 5
8: 5
9: 5
10: 5
11: 5
12: 5
13: 5
14: 5
15: 5
16: 5
17: 5
18: 5
19: 5
20: 5
21: 5
22: 5
23: 5
24: 5
25: 5
26: 5
27: 5
28: 5
29: 5
30: 5
31: 5
32: 5
33: 5
34: 5
35: 5
36: 5
37: 5
38: 5
edge from: to
39: 0
40: 1
40: 5
41: 9
42: 7
42: 10
42: 11
42: 12
42: 13
43: 3
43: 13
43: 16
43: 17
44: 20
45: 23
46: 21
46: 25
46: 26
46: 27
47: 28
48: 6
1: 39
2: 39
3: 39
4: 39
5: 39
6: 40
7: 40
8: 40
9: 40
10: 41
11: 41
12: 41
13: 41
14: 42
15: 42
16: 42
17: 42
18: 43
19: 43
20: 43
21: 44
22: 44
23: 44
24: 44
25: 45
26: 45
27: 45
28: 46
29: 46
30: 47
31: 47
32: 47
33: 47
34: 47
35: 48
36: 48
37: 48
38: 48
segment: [6]
vertex id: label
27: 0
28: 3
29: 4
30: 1
31: 1
32: 1
33: 1
34: 0
35: 3
36: 4
0: 5
1: 5
2: 5
3: 5
4: 5
5: 5
6: 5
7: 5
8: 5
9: 5
10: 5
11: 5
12: 5
13: 5
14: 5
15: 5
16: 5
17: 5
18: 5
19: 5
20: 5
21: 5
22: 5
23: 5
24: 5
25: 5
26: 5
edge from: to
27: 0
28: 1
28: 3
28: 5
29: 1
30: 7
31: 2
32: 8
32: 15
33: 3
33: 17
34: 20
35: 21
36: 13
36: 22
36: 23
36: 24
1: 27
2: 27
3: 27
4: 27
5: 27
6: 28
7: 29
8: 30
9: 30
10: 30
11: 30
12: 31
13: 31
14: 31
15: 31
16: 32
17: 32
18: 33
19: 33
20: 33
21: 34
22: 34
23: 35
24: 35
25: 36
26: 36
segment: [7]
vertex id: label
30: 0
31: 0
32: 4
33: 1
34: 1
35: 2
36: 2
37: 4
38: 1
39: 2
0: 5
1: 5
2: 5
3: 5
4: 5
5: 5
6: 5
7: 5
8: 5
9: 5
10: 5
11: 5
12: 5
13: 5
14: 5
15: 5
16: 5
17: 5
18: 5
19: 5
20: 5
21: 5
22: 5
23: 5
24: 5
25: 5
26: 5
27: 5
28: 5
29: 5
edge from: to
30: 0
31: 0
31: 2
31: 3
32: 1
33: 4
33: 8
34: 5
34: 9
35: 6
35: 9
35: 12
36: 16
37: 15
37: 19
38: 18
38: 21
38: 23
39: 27
1: 30
2: 30
3: 30
4: 31
5: 31
6: 32
7: 32
8: 32
9: 33
10: 34
11: 34
12: 34
13: 35
14: 35
15: 35
16: 35
17: 36
18: 36
19: 36
20: 37
21: 37
22: 37
23: 37
24: 38
25: 38
26: 38
27: 38
28: 38
29: 39
segment: [8]
vertex id: label
33: 0
34: 0
35: 4
36: 1
37: 1
38: 4
39: 1
40: 1
41: 4
42: 0
0: 5
1: 5
2: 5
3: 5
4: 5
5: 5
6: 5
7: 5
8: 5
9: 5
10: 5
11: 5
12: 5
13: 5
14: 5
15: 5
16: 5
17: 5
18: 5
19: 5
20: 5
21: 5
22: 5
23: 5
24: 5
25: 5
26: 5
27: 5
28: 5
29: 5
30: 5
31: 5
32: 5
edge from: to
33: 0
34: 0
34: 1
34: 2
35: 1
35: 3
36: 2
37: 13
38: 16
39: 17
39: 20
40: 18
40: 19
40: 21
40: 23
41: 14
41: 25
41: 26
42: 26
1: 33
2: 33
3: 34
4: 34
5: 34
6: 34
7: 35
8: 35
9: 35
10: 35
11: 35
12: 36
13: 36
14: 37
15: 37
16: 37
17: 38
18: 38
19: 38
20: 38
21: 39
22: 39
23: 39
24: 40
25: 40
26: 40
27: 41
28: 42
29: 42
30: 42
31: 42
32: 42
segment: [9]
vertex id: label
34: 0
35: 0
36: 4
37: 1
38: 4
39: 1
40: 1
41: 2
42: 2
43: 1
0: 5
1: 5
2: 5
3: 5
4: 5
5: 5
6: 5
7: 5
8: 5
9: 5
10: 5
11: 5
12: 5
13: 5
14: 5
15: 5
16: 5
17: 5
18: 5
19: 5
20: 5
21: 5
22: 5
23: 5
24: 5
25: 5
26: 5
27: 5
28: 5
29: 5
30: 5
31: 5
32: 5
33: 5
edge from: to
34: 0
34: 1
34: 2
34: 3
35: 4
36: 4
36: 6
36: 8
37: 6
37: 9
37: 12
38: 8
38: 15
39: 18
40: 16
40: 20
40: 21
41: 23
41: 24
42: 25
43: 30
43: 31
4: 34
5: 35
6: 35
7: 35
8: 35
9: 36
10: 36
11: 36
12: 36
13: 37
14: 37
15: 37
16: 38
17: 38
18: 38
19: 39
20: 39
21: 39
22: 40
23: 40
24: 40
25: 41
26: 41
27: 42
28: 42
29: 42
30: 42
31: 42
32: 43
33: 43
