segment: [0]
vertex id: label
42: 0
43: 4
44: 1
45: 2
46: 3
47: 0
48: 4
49: 1
50: 2
51: 4
0: 5
1: 5
2: 5
3: 5
4: 5
5: 5
6: 5
7: 5
8: 5
9: 5
10: 5
11: 5
12: 5
13: 5
14: 5
15: 5
16: 5
17: 5
18: 5
19: 5
20: 5
21: 5
22: 5
23: 5
24: 5
25: 5
26: 5
27: 5
28: 5
29: 5
30: 5
31: 5
32: 5
33: 5
34: 5
35: 5
36: 5
37: 5
38: 5
39: 5
40: 5
41: 5
edge from: to
42: 0
42: 1
43: 5
43: 6
44: 4
44: 9
45: 10
45: 11
45: 12
46: 10
46: 13
46: 14
47: 20
47: 21
48: 17
48: 23
48: 24
49: 26
50: 29
51: 35
51: 37
2: 42
3: 42
4: 42
5: 42
6: 42
7: 43
8: 43
9: 43
10: 43
11: 44
12: 44
13: 45
14: 45
15: 46
16: 46
17: 46
18: 46
19: 46
20: 46
21: 46
22: 47
23: 47
24: 47
25: 48
26: 48
27: 48
28: 49
29: 49
30: 49
31: 50
32: 50
33: 50
34: 50
35: 50
36: 50
37: 50
38: 51
39: 51
40: 51
41: 51
segment: [1]
vertex id: label
31: 0
32: 4
33: 1
34: 2
35: 4
36: 1
37: 2
38: 4
39: 1
40: 2
0: 5
1: 5
2: 5
3: 5
4: 5
5: 5
6: 5
7: 5
8: 5
9: 5
10: 5
11: 5
12: 5
13: 5
14: 5
15: 5
16: 5
17: 5
18: 5
19: 5
20: 5
21: 5
22: 5
23: 5
24: 5
25: 5
26: 5
27: 5
28: 5
29: 5
30: 5
edge from: to
31: 0
32: 0
32: 2
32: 3
33: 2
33: 5
34: 3
34: 5
34: 7
35: 7
35: 9
36: 10
36: 12
37: 14
38: 16
39: 2
39: 20
39: 22
40: 25
1: 31
2: 31
3: 31
4: 32
5: 32
6: 33
7: 33
8: 34
9: 34
10: 35
11: 35
12: 35
13: 36
14: 36
15: 36
16: 37
17: 37
18: 38
19: 38
20: 38
21: 38
22: 38
23: 39
24: 39
25: 39
26: 39
27: 40
28: 40
29: 40
30: 40
segment: [2]
vertex id: label
28: 0
29: 4
30: 1
31: 2
32: 4
33: 1
34: 2
35: 4
36: 1
37: 2
0: 5
1: 5
2: 5
3: 5
4: 5
5: 5
6: 5
7: 5
8: 5
9: 5
10: 5
11: 5
12: 5
13: 5
14: 5
15: 5
16: 5
17: 5
18: 5
19: 5
20: 5
21: 5
22: 5
23: 5
24: 5
25: 5
26: 5
27: 5
edge from: to
28: 0
28: 1
29: 5
30: 3
30: 7
31: 1
31: 6
31: 7
31: 9
32: 12
33: 9
33: 12
33: 13
34: 2
34: 17
34: 18
35: 15
35: 20
35: 21
36: 22
37: 24
2: 28
3: 28
4: 28
5: 28
6: 29
7: 29
8: 30
9: 30
10: 31
11: 31
12: 31
13: 32
14: 33
15: 33
16: 33
17: 33
18: 33
19: 34
20: 34
21: 34
22: 35
23: 35
24: 36
25: 36
26: 37
27: 37
segment: [3]
vertex id: label
28: 0
29: 4
30: 1
31: 2
32: 3
33: 0
34: 4
35: 1
36: 2
37: 3
0: 5
1: 5
2: 5
3: 5
4: 5
5: 5
6: 5
7: 5
8: 5
9: 5
10: 5
11: 5
12: 5
13: 5
14: 5
15: 5
16: 5
17: 5
18: 5
19: 5
20: 5
21: 5
22: 5
23: 5
24: 5
25: 5
26: 5
27: 5
edge from: to
28: 0
28: 1
29: 2
29: 3
30: 3
30: 7
31: 9
32: 9
32: 12
32: 13
33: 6
33: 14
33: 15
34: 16
35: 18
35: 19
36: 20
36: 21
37: 23
2: 28
3: 28
4: 29
5: 29
6: 29
7: 29
8: 30
9: 30
10: 30
11: 31
12: 31
13: 31
14: 32
15: 32
16: 33
17: 33
18: 34
19: 34
20: 35
21: 35
22: 36
23: 36
24: 36
25: 37
26: 37
27: 37
segment: [4]
vertex id: label
35: 0
36: 4
37: 1
38: 2
39: 3
40: 0
41: 4
42: 1
43: 2
44: 4
0: 5
1: 5
2: 5
3: 5
4: 5
5: 5
6: 5
7: 5
8: 5
9: 5
10: 5
11: 5
12: 5
13: 5
14: 5
15: 5
16: 5
17: 5
18: 5
19: 5
20: 5
21: 5
22: 5
23: 5
24: 5
25: 5
26: 5
27: 5
28: 5
29: 5
30: 5
31: 5
32: 5
33: 5
34: 5
edge from: to
35: 0
35: 1
36: 2
36: 5
37: 6
37: 7
37: 9
38: 9
38: 13
39: 10
39: 13
39: 14
40: 16
41: 8
41: 19
42: 2
42: 22
43: 25
43: 26
44: 29
44: 30
2: 35
3: 35
4: 35
5: 35
6: 36
7: 36
8: 36
9: 36
10: 37
11: 37
12: 37
13: 37
14: 38
15: 39
16: 39
17: 39
18: 40
19: 40
20: 40
21: 41
22: 41
23: 42
24: 42
25: 42
26: 42
27: 43
28: 43
29: 43
30: 43
31: 44
32: 44
33: 44
34: 44
segment: [5]
vertex id: label
28: 0
29: 4
30: 1
31: 2
32: 4
33: 1
34: 2
35: 4
36: 1
37: 2
0: 5
1: 5
2: 5
3: 5
4: 5
5: 5
6: 5
7: 5
8: 5
9: 5
10: 5
11: 5
12: 5
13: 5
14: 5
15: 5
16: 5
17: 5
18: 5
19: 5
20: 5
21: 5
22: 5
23: 5
24: 5
25: 5
26: 5
27: 5
edge from: to
28: 0
29: 2
29: 3
30: 2
30: 5
31: 7
31: 9
32: 10
32: 11
32: 12
33: 13
34: 13
34: 15
34: 16
35: 8
35: 19
36: 9
36: 22
37: 25
1: 28
2: 28
3: 28
4: 29
5: 29
6: 30
7: 30
8: 30
9: 30
10: 31
11: 31
12: 31
13: 32
14: 33
15: 33
16: 33
17: 34
18: 34
19: 34
20: 34
21: 35
22: 35
23: 35
24: 36
25: 36
26: 36
27: 37
segment: [6]
vertex id: label
39: 0
40: 4
41: 1
42: 2
43: 3
44: 0
45: 4
46: 1
47: 2
48: 4
0: 5
1: 5
2: 5
3: 5
4: 5
5: 5
6: 5
7: 5
8: 5
9: 5
10: 5
11: 5
12: 5
13: 5
14: 5
15: 5
16: 5
17: 5
18: 5
19: 5
20: 5
21: 5
22: 5
23: 5
24: 5
25: 5
26: 5
27: 5
28: 5
29: 5
30: 5
31: 5
32: 5
33: 5
34: 5
35: 5
36: 5
37: 5
38: 5
edge from: to
39: 0
39: 1
40: 3
40: 4
41: 3
41: 7
42: 1
42: 11
43: 12
44: 14
45: 15
45: 18
45: 19
46: 20
46: 21
47: 29
47: 31
48: 33
2: 39
3: 39
4: 39
5: 40
6: 40
7: 40
8: 41
9: 41
10: 41
11: 41
12: 42
13: 43
14: 43
15: 43
16: 44
17: 44
18: 44
19: 44
20: 45
21: 45
22: 46
23: 46
24: 46
25: 46
26: 46
27: 46
28: 46
29: 46
30: 46
31: 46
32: 47
33: 47
34: 47
35: 48
36: 48
37: 48
38: 48
segment: [7]
vertex id: label
32: 0
33: 4
34: 1
35: 2
36: 4
37: 1
38: 2
39: 4
40: 1
41: 2
0: 5
1: 5
2: 5
3: 5
4: 5
5: 5
6: 5
7: 5
8: 5
9: 5
10: 5
11: 5
12: 5
13: 5
14: 5
15: 5
16: 5
17: 5
18: 5
19: 5
20: 5
21: 5
22: 5
23: 5
24: 5
25: 5
26: 5
27: 5
28: 5
29: 5
30: 5
31: 5
edge from: to
32: 0
32: 1
32: 2
33: 5
34: 7
35: 9
36: 13
37: 12
37: 16
37: 17
38: 18
38: 19
39: 22
40: 26
41: 23
41: 28
41: 29
3: 32
4: 32
5: 32
6: 33
7: 33
8: 34
9: 34
10: 34
11: 35
12: 35
13: 35
14: 36
15: 36
16: 36
17: 36
18: 37
19: 37
20: 38
21: 38
22: 38
23: 38
24: 39
25: 39
26: 39
27: 39
28: 40
29: 40
30: 41
31: 41
segment: [8]
vertex id: label
31: 0
32: 4
33: 1
34: 2
35: 4
36: 1
37: 2
38: 3
39: 0
40: 4
0: 5
1: 5
2: 5
3: 5
4: 5
5: 5
6: 5
7: 5
8: 5
9: 5
10: 5
11: 5
12: 5
13: 5
14: 5
15: 5
16: 5
17: 5
18: 5
19: 5
20: 5
21: 5
22: 5
23: 5
24: 5
25: 5
26: 5
27: 5
28: 5
29: 5
30: 5
edge from: to
31: 0
31: 1
32: 3
33: 3
33: 4
34: 2
34: 5
35: 7
35: 9
36: 1
36: 8
36: 11
37: 9
37: 13
38: 6
38: 14
39: 19
40: 24
2: 31
3: 31
4: 32
5: 33
6: 34
7: 34
8: 34
9: 34
10: 35
11: 35
12: 36
13: 36
14: 37
15: 37
16: 38
17: 38
18: 38
19: 38
20: 38
21: 39
22: 39
23: 39
24: 39
25: 39
26: 40
27: 40
28: 40
29: 40
30: 40
segment: [9]
vertex id: label
35: 0
36: 4
37: 1
38: 2
39: 4
40: 1
41: 2
42: 3
43: 0
44: 4
0: 5
1: 5
2: 5
3: 5
4: 5
5: 5
6: 5
7: 5
8: 5
9: 5
10: 5
11: 5
12: 5
13: 5
14: 5
15: 5
16: 5
17: 5
18: 5
19: 5
20: 5
21: 5
22: 5
23: 5
24: 5
25: 5
26: 5
27: 5
28: 5
29: 5
30: 5
31: 5
32: 5
33: 5
34: 5
edge from: to
35: 0
35: 1
35: 2
36: 4
37: 7
38: 4
38: 9
39: 13
40: 13
40: 15
40: 16
41: 8
41: 14
41: 16
41: 19
42: 23
42: 24
43: 20
43: 24
43: 25
44: 30
44: 32
3: 35
4: 35
5: 36
6: 36
7: 36
8: 37
9: 37
10: 37
11: 38
12: 38
13: 38
14: 38
15: 39
16: 39
17: 40
18: 40
19: 40
20: 40
21: 41
22: 41
23: 41
24: 41
25: 42
26: 43
27: 43
28: 43
29: 43
30: 43
31: 43
32: 43
33: 44
34: 44
