segment: [0]
vertex id: label
66: 0
67: 0
68: 0
69: 0
70: 0
71: 0
72: 0
73: 0
74: 0
75: 0
76: 0
77: 0
78: 0
79: 0
80: 0
81: 0
82: 0
83: 0
84: 0
85: 0
0: 5
1: 5
2: 5
3: 5
4: 5
5: 5
6: 5
7: 5
8: 5
9: 5
10: 5
11: 5
12: 5
13: 5
14: 5
15: 5
16: 5
17: 5
18: 5
19: 5
20: 5
21: 5
22: 5
23: 5
24: 5
25: 5
26: 5
27: 5
28: 5
29: 5
30: 5
31: 5
32: 5
33: 5
34: 5
35: 5
36: 5
37: 5
38: 5
39: 5
40: 5
41: 5
42: 5
43: 5
44: 5
45: 5
46: 5
47: 5
48: 5
49: 5
50: 5
51: 5
52: 5
53: 5
54: 5
55: 5
56: 5
57: 5
58: 5
59: 5
60: 5
61: 5
62: 5
63: 5
64: 5
65: 5
edge from: to
66: 0
66: 1
66: 2
66: 3
66: 4
67: 6
67: 8
68: 0
68: 6
68: 8
68: 10
69: 12
70: 19
70: 21
71: 17
72: 14
72: 23
72: 25
73: 27
73: 29
74: 24
75: 30
75: 33
76: 28
77: 35
77: 38
78: 34
78: 43
79: 35
79: 41
79: 44
79: 45
80: 46
81: 37
81: 44
81: 47
81: 48
82: 47
82: 50
82: 51
83: 55
83: 56
84: 58
84: 59
85: 59
85: 63
85: 64
5: 66
6: 66
7: 66
8: 66
9: 67
10: 67
11: 68
12: 68
13: 68
14: 68
15: 68
16: 69
17: 69
18: 69
19: 69
20: 69
21: 69
22: 70
23: 71
24: 71
25: 71
26: 72
27: 72
28: 72
29: 72
30: 73
31: 73
32: 74
33: 74
34: 75
35: 75
36: 75
37: 76
38: 76
39: 77
40: 77
41: 77
42: 77
43: 77
44: 77
45: 78
46: 79
47: 80
48: 80
49: 81
50: 81
51: 81
52: 82
53: 82
54: 82
55: 82
56: 82
57: 83
58: 83
59: 83
60: 84
61: 84
62: 84
63: 84
64: 84
65: 85
segment: [1]
vertex id: label
68: 0
69: 0
70: 0
71: 0
72: 0
73: 0
74: 0
75: 0
76: 0
77: 0
78: 0
79: 0
80: 0
81: 0
82: 0
83: 0
84: 0
85: 0
86: 0
87: 0
0: 5
1: 5
2: 5
3: 5
4: 5
5: 5
6: 5
7: 5
8: 5
9: 5
10: 5
11: 5
12: 5
13: 5
14: 5
15: 5
16: 5
17: 5
18: 5
19: 5
20: 5
21: 5
22: 5
23: 5
24: 5
25: 5
26: 5
27: 5
28: 5
29: 5
30: 5
31: 5
32: 5
33: 5
34: 5
35: 5
36: 5
37: 5
38: 5
39: 5
40: 5
41: 5
42: 5
43: 5
44: 5
45: 5
46: 5
47: 5
48: 5
49: 5
50: 5
51: 5
52: 5
53: 5
54: 5
55: 5
56: 5
57: 5
58: 5
59: 5
60: 5
61: 5
62: 5
63: 5
64: 5
65: 5
66: 5
67: 5
edge from: to
68: 0
68: 1
69: 1
69: 3
70: 0
70: 2
70: 3
70: 6
71: 9
72: 0
72: 4
72: 12
73: 16
74: 17
74: 22
75: 23
75: 25
76: 22
77: 25
77: 32
78: 24
78: 36
78: 39
79: 32
80: 35
81: 46
81: 47
82: 46
82: 49
82: 50
83: 51
84: 48
84: 51
84: 52
85: 15
85: 45
86: 16
86: 48
86: 57
87: 62
87: 63
2: 68
3: 68
4: 68
5: 69
6: 69
7: 69
8: 70
9: 70
10: 70
11: 70
12: 71
13: 71
14: 71
15: 71
16: 72
17: 72
18: 72
19: 72
20: 72
21: 73
22: 73
23: 74
24: 74
25: 74
26: 75
27: 75
28: 75
29: 76
30: 76
31: 76
32: 76
33: 77
34: 77
35: 77
36: 77
37: 77
38: 77
39: 77
40: 78
41: 78
42: 79
43: 79
44: 79
45: 79
46: 80
47: 80
48: 81
49: 81
50: 81
51: 82
52: 83
53: 84
54: 84
55: 84
56: 84
57: 84
58: 84
59: 85
60: 85
61: 85
62: 85
63: 86
64: 87
65: 87
66: 87
67: 87
segment: [2]
vertex id: label
61: 0
62: 0
63: 0
64: 0
65: 0
66: 0
67: 0
68: 0
69: 0
70: 0
71: 0
72: 0
73: 0
74: 0
75: 0
76: 0
77: 0
78: 0
79: 0
80: 0
0: 5
1: 5
2: 5
3: 5
4: 5
5: 5
6: 5
7: 5
8: 5
9: 5
10: 5
11: 5
12: 5
13: 5
14: 5
15: 5
16: 5
17: 5
18: 5
19: 5
20: 5
21: 5
22: 5
23: 5
24: 5
25: 5
26: 5
27: 5
28: 5
29: 5
30: 5
31: 5
32: 5
33: 5
34: 5
35: 5
36: 5
37: 5
38: 5
39: 5
40: 5
41: 5
42: 5
43: 5
44: 5
45: 5
46: 5
47: 5
48: 5
49: 5
50: 5
51: 5
52: 5
53: 5
54: 5
55: 5
56: 5
57: 5
58: 5
59: 5
60: 5
edge from: to
61: 0
61: 1
62: 0
62: 1
62: 3
63: 0
63: 4
63: 5
63: 6
64: 6
64: 8
65: 0
65: 5
65: 7
65: 12
66: 4
66: 12
67: 0
67: 7
67: 16
68: 16
68: 20
69: 17
70: 19
70: 24
71: 22
71: 28
72: 25
73: 33
74: 21
74: 31
74: 34
75: 28
76: 24
76: 36
76: 39
77: 41
77: 42
78: 35
78: 44
79: 49
79: 50
80: 44
80: 52
80: 56
2: 61
3: 61
4: 62
5: 62
6: 62
7: 63
8: 63
9: 64
10: 64
11: 64
12: 64
13: 65
14: 65
15: 65
16: 66
17: 67
18: 67
19: 67
20: 67
21: 68
22: 68
23: 69
24: 69
25: 70
26: 70
27: 70
28: 70
29: 71
30: 71
31: 71
32: 71
33: 72
34: 73
35: 74
36: 74
37: 75
38: 75
39: 75
40: 76
41: 76
42: 76
43: 77
44: 77
45: 77
46: 78
47: 78
48: 78
49: 78
50: 78
51: 79
52: 79
53: 79
54: 79
55: 79
56: 79
57: 79
58: 80
59: 80
60: 80
segment: [3]
vertex id: label
48: 0
49: 0
50: 0
51: 0
52: 0
53: 0
54: 0
55: 0
56: 0
57: 0
58: 0
59: 0
60: 0
61: 0
62: 0
63: 0
64: 0
65: 0
66: 0
67: 0
0: 5
1: 5
2: 5
3: 5
4: 5
5: 5
6: 5
7: 5
8: 5
9: 5
10: 5
11: 5
12: 5
13: 5
14: 5
15: 5
16: 5
17: 5
18: 5
19: 5
20: 5
21: 5
22: 5
23: 5
24: 5
25: 5
26: 5
27: 5
28: 5
29: 5
30: 5
31: 5
32: 5
33: 5
34: 5
35: 5
36: 5
37: 5
38: 5
39: 5
40: 5
41: 5
42: 5
43: 5
44: 5
45: 5
46: 5
47: 5
edge from: to
48: 0
48: 1
49: 1
49: 3
50: 0
50: 4
50: 5
51: 6
52: 0
52: 8
52: 10
53: 12
54: 11
55: 13
55: 17
56: 15
57: 19
57: 21
58: 19
59: 23
59: 25
60: 21
61: 22
61: 28
62: 24
62: 31
63: 33
64: 27
65: 35
65: 37
65: 38
66: 17
66: 18
66: 38
66: 41
66: 42
67: 24
67: 39
67: 43
2: 48
3: 48
4: 49
5: 49
6: 50
7: 50
8: 51
9: 51
10: 51
11: 52
12: 52
13: 53
14: 53
15: 54
16: 54
17: 54
18: 55
19: 55
20: 56
21: 56
22: 57
23: 57
24: 57
25: 58
26: 59
27: 59
28: 60
29: 61
30: 61
31: 61
32: 62
33: 62
34: 63
35: 63
36: 64
37: 64
38: 64
39: 65
40: 65
41: 65
42: 65
43: 66
44: 67
45: 67
46: 67
47: 67
segment: [4]
vertex id: label
82: 0
83: 0
84: 0
85: 0
86: 0
87: 0
88: 0
89: 0
90: 0
91: 0
92: 0
93: 0
94: 0
95: 0
96: 0
97: 0
98: 0
99: 0
100: 0
101: 0
0: 5
1: 5
2: 5
3: 5
4: 5
5: 5
6: 5
7: 5
8: 5
9: 5
10: 5
11: 5
12: 5
13: 5
14: 5
15: 5
16: 5
17: 5
18: 5
19: 5
20: 5
21: 5
22: 5
23: 5
24: 5
25: 5
26: 5
27: 5
28: 5
29: 5
30: 5
31: 5
32: 5
33: 5
34: 5
35: 5
36: 5
37: 5
38: 5
39: 5
40: 5
41: 5
42: 5
43: 5
44: 5
45: 5
46: 5
47: 5
48: 5
49: 5
50: 5
51: 5
52: 5
53: 5
54: 5
55: 5
56: 5
57: 5
58: 5
59: 5
60: 5
61: 5
62: 5
63: 5
64: 5
65: 5
66: 5
67: 5
68: 5
69: 5
70: 5
71: 5
72: 5
73: 5
74: 5
75: 5
76: 5
77: 5
78: 5
79: 5
80: 5
81: 5
edge from: to
82: 0
83: 1
83: 3
84: 7
85: 0
85: 8
85: 10
86: 5
86: 15
87: 6
87: 18
87: 21
88: 21
89: 18
89: 27
89: 29
90: 24
90: 28
90: 31
91: 31
91: 34
92: 32
92: 41
93: 35
93: 41
93: 44
93: 45
94: 47
95: 38
96: 42
96: 53
97: 45
98: 47
98: 56
98: 60
99: 62
99: 66
99: 67
100: 18
100: 54
100: 64
100: 70
101: 72
101: 73
1: 82
2: 82
3: 82
4: 83
5: 83
6: 83
7: 83
8: 83
9: 83
10: 84
11: 85
12: 85
13: 85
14: 85
15: 85
16: 85
17: 85
18: 85
19: 85
20: 86
21: 86
22: 86
23: 86
24: 87
25: 87
26: 87
27: 87
28: 88
29: 88
30: 89
31: 89
32: 90
33: 90
34: 90
35: 91
36: 91
37: 91
38: 91
39: 91
40: 91
41: 91
42: 92
43: 92
44: 92
45: 92
46: 93
47: 93
48: 94
49: 94
50: 95
51: 95
52: 95
53: 95
54: 95
55: 96
56: 96
57: 96
58: 96
59: 97
60: 97
61: 97
62: 98
63: 98
64: 98
65: 98
66: 98
67: 98
68: 99
69: 99
70: 99
71: 100
72: 100
73: 100
74: 101
75: 101
76: 101
77: 101
78: 101
79: 101
80: 101
81: 101
segment: [5]
vertex id: label
61: 0
62: 0
63: 0
64: 0
65: 0
66: 0
67: 0
68: 0
69: 0
70: 0
71: 0
72: 0
73: 0
74: 0
75: 0
76: 0
77: 0
78: 0
79: 0
80: 0
0: 5
1: 5
2: 5
3: 5
4: 5
5: 5
6: 5
7: 5
8: 5
9: 5
10: 5
11: 5
12: 5
13: 5
14: 5
15: 5
16: 5
17: 5
18: 5
19: 5
20: 5
21: 5
22: 5
23: 5
24: 5
25: 5
26: 5
27: 5
28: 5
29: 5
30: 5
31: 5
32: 5
33: 5
34: 5
35: 5
36: 5
37: 5
38: 5
39: 5
40: 5
41: 5
42: 5
43: 5
44: 5
45: 5
46: 5
47: 5
48: 5
49: 5
50: 5
51: 5
52: 5
53: 5
54: 5
55: 5
56: 5
57: 5
58: 5
59: 5
60: 5
edge from: to
61: 0
61: 1
62: 1
62: 3
63: 2
63: 6
64: 0
64: 8
64: 10
65: 10
65: 13
66: 0
66: 4
66: 12
67: 16
68: 6
68: 18
69: 7
69: 21
69: 25
70: 27
70: 30
71: 33
72: 28
73: 39
74: 32
75: 41
75: 42
76: 35
76: 44
77: 28
77: 42
77: 45
77: 46
78: 49
78: 50
79: 41
79: 49
79: 52
80: 15
80: 45
2: 61
3: 61
4: 61
5: 62
6: 62
7: 62
8: 63
9: 63
10: 63
11: 64
12: 64
13: 64
14: 65
15: 65
16: 66
17: 66
18: 66
19: 66
20: 66
21: 67
22: 67
23: 67
24: 68
25: 68
26: 68
27: 68
28: 69
29: 69
30: 69
31: 70
32: 70
33: 70
34: 71
35: 71
36: 71
37: 72
38: 72
39: 72
40: 73
41: 73
42: 74
43: 75
44: 75
45: 75
46: 76
47: 77
48: 77
49: 77
50: 77
51: 78
52: 78
53: 78
54: 79
55: 79
56: 79
57: 79
58: 79
59: 80
60: 80
segment: [6]
vertex id: label
62: 0
63: 0
64: 0
65: 0
66: 0
67: 0
68: 0
69: 0
70: 0
71: 0
72: 0
73: 0
74: 0
75: 0
76: 0
77: 0
78: 0
79: 0
80: 0
81: 0
0: 5
1: 5
2: 5
3: 5
4: 5
5: 5
6: 5
7: 5
8: 5
9: 5
10: 5
11: 5
12: 5
13: 5
14: 5
15: 5
16: 5
17: 5
18: 5
19: 5
20: 5
21: 5
22: 5
23: 5
24: 5
25: 5
26: 5
27: 5
28: 5
29: 5
30: 5
31: 5
32: 5
33: 5
34: 5
35: 5
36: 5
37: 5
38: 5
39: 5
40: 5
41: 5
42: 5
43: 5
44: 5
45: 5
46: 5
47: 5
48: 5
49: 5
50: 5
51: 5
52: 5
53: 5
54: 5
55: 5
56: 5
57: 5
58: 5
59: 5
60: 5
61: 5
edge from: to
62: 0
62: 1
62: 2
63: 0
63: 6
63: 8
64: 0
64: 3
64: 9
65: 11
65: 14
66: 13
66: 17
67: 0
67: 14
67: 18
68: 19
68: 21
69: 14
69: 23
69: 25
70: 20
70: 26
71: 27
71: 29
72: 24
72: 31
73: 25
74: 20
74: 22
74: 28
74: 33
74: 36
75: 39
76: 34
76: 40
76: 43
77: 43
77: 46
77: 47
78: 47
78: 50
78: 51
79: 41
79: 52
80: 44
80: 56
81: 59
3: 62
4: 62
5: 62
6: 62
7: 62
8: 62
9: 63
10: 63
11: 63
12: 64
13: 64
14: 64
15: 65
16: 65
17: 65
18: 66
19: 67
20: 67
21: 67
22: 68
23: 68
24: 68
25: 68
26: 69
27: 70
28: 70
29: 70
30: 71
31: 71
32: 72
33: 73
34: 73
35: 73
36: 73
37: 74
38: 74
39: 74
40: 75
41: 75
42: 75
43: 75
44: 75
45: 76
46: 76
47: 76
48: 77
49: 77
50: 77
51: 77
52: 78
53: 78
54: 79
55: 79
56: 79
57: 79
58: 80
59: 80
60: 81
61: 81
segment: [7]
vertex id: label
66: 0
67: 0
68: 0
69: 0
70: 0
71: 0
72: 0
73: 0
74: 0
75: 0
76: 0
77: 0
78: 0
79: 0
80: 0
81: 0
82: 0
83: 0
84: 0
85: 0
0: 5
1: 5
2: 5
3: 5
4: 5
5: 5
6: 5
7: 5
8: 5
9: 5
10: 5
11: 5
12: 5
13: 5
14: 5
15: 5
16: 5
17: 5
18: 5
19: 5
20: 5
21: 5
22: 5
23: 5
24: 5
25: 5
26: 5
27: 5
28: 5
29: 5
30: 5
31: 5
32: 5
33: 5
34: 5
35: 5
36: 5
37: 5
38: 5
39: 5
40: 5
41: 5
42: 5
43: 5
44: 5
45: 5
46: 5
47: 5
48: 5
49: 5
50: 5
51: 5
52: 5
53: 5
54: 5
55: 5
56: 5
57: 5
58: 5
59: 5
60: 5
61: 5
62: 5
63: 5
64: 5
65: 5
edge from: to
66: 0
66: 1
67: 2
68: 5
69: 0
69: 3
69: 5
69: 9
70: 10
70: 13
71: 0
71: 16
72: 13
72: 17
73: 0
73: 5
73: 15
74: 19
74: 21
75: 24
76: 31
76: 34
77: 38
78: 31
78: 40
79: 34
80: 47
81: 37
81: 44
81: 47
82: 38
83: 41
83: 52
84: 45
85: 47
85: 56
85: 60
2: 66
3: 67
4: 67
5: 67
6: 67
7: 68
8: 68
9: 68
10: 68
11: 68
12: 69
13: 69
14: 70
15: 70
16: 70
17: 71
18: 72
19: 72
20: 73
21: 73
22: 74
23: 74
24: 74
25: 74
26: 74
27: 74
28: 74
29: 74
30: 74
31: 74
32: 75
33: 75
34: 75
35: 76
36: 76
37: 76
38: 76
39: 77
40: 77
41: 78
42: 78
43: 78
44: 78
45: 79
46: 79
47: 79
48: 80
49: 81
50: 82
51: 82
52: 82
53: 82
54: 83
55: 83
56: 83
57: 83
58: 83
59: 84
60: 84
61: 84
62: 85
63: 85
64: 85
65: 85
segment: [8]
vertex id: label
59: 0
60: 0
61: 0
62: 0
63: 0
64: 0
65: 0
66: 0
67: 0
68: 0
69: 0
70: 0
71: 0
72: 0
73: 0
74: 0
75: 0
76: 0
77: 0
78: 0
0: 5
1: 5
2: 5
3: 5
4: 5
5: 5
6: 5
7: 5
8: 5
9: 5
10: 5
11: 5
12: 5
13: 5
14: 5
15: 5
16: 5
17: 5
18: 5
19: 5
20: 5
21: 5
22: 5
23: 5
24: 5
25: 5
26: 5
27: 5
28: 5
29: 5
30: 5
31: 5
32: 5
33: 5
34: 5
35: 5
36: 5
37: 5
38: 5
39: 5
40: 5
41: 5
42: 5
43: 5
44: 5
45: 5
46: 5
47: 5
48: 5
49: 5
50: 5
51: 5
52: 5
53: 5
54: 5
55: 5
56: 5
57: 5
58: 5
edge from: to
59: 0
60: 0
60: 2
61: 4
61: 5
62: 5
62: 6
63: 0
63: 8
63: 10
64: 0
64: 5
64: 12
65: 4
65: 12
66: 0
66: 8
66: 14
66: 18
67: 21
68: 20
69: 29
70: 25
70: 32
71: 27
72: 38
73: 39
74: 31
75: 24
75: 39
75: 42
75: 43
76: 42
76: 45
76: 46
77: 51
78: 41
78: 49
78: 52
1: 59
2: 59
3: 60
4: 60
5: 60
6: 61
7: 62
8: 62
9: 62
10: 62
11: 63
12: 63
13: 64
14: 64
15: 64
16: 65
17: 65
18: 65
19: 66
20: 66
21: 66
22: 67
23: 67
24: 67
25: 67
26: 67
27: 68
28: 68
29: 68
30: 69
31: 69
32: 69
33: 70
34: 70
35: 70
36: 71
37: 71
38: 71
39: 72
40: 73
41: 74
42: 74
43: 74
44: 75
45: 75
46: 75
47: 76
48: 76
49: 76
50: 76
51: 76
52: 77
53: 77
54: 78
55: 78
56: 78
57: 78
58: 78
segment: [9]
vertex id: label
64: 0
65: 0
66: 0
67: 0
68: 0
69: 0
70: 0
71: 0
72: 0
73: 0
74: 0
75: 0
76: 0
77: 0
78: 0
79: 0
80: 0
81: 0
82: 0
83: 0
0: 5
1: 5
2: 5
3: 5
4: 5
5: 5
6: 5
7: 5
8: 5
9: 5
10: 5
11: 5
12: 5
13: 5
14: 5
15: 5
16: 5
17: 5
18: 5
19: 5
20: 5
21: 5
22: 5
23: 5
24: 5
25: 5
26: 5
27: 5
28: 5
29: 5
30: 5
31: 5
32: 5
33: 5
34: 5
35: 5
36: 5
37: 5
38: 5
39: 5
40: 5
41: 5
42: 5
43: 5
44: 5
45: 5
46: 5
47: 5
48: 5
49: 5
50: 5
51: 5
52: 5
53: 5
54: 5
55: 5
56: 5
57: 5
58: 5
59: 5
60: 5
61: 5
62: 5
63: 5
edge from: to
64: 0
64: 1
65: 0
65: 2
66: 5
66: 6
67: 7
67: 9
68: 0
68: 10
68: 13
69: 13
69: 17
70: 0
70: 14
70: 18
71: 17
72: 19
72: 22
72: 24
73: 7
73: 21
73: 25
74: 24
74: 31
75: 14
75: 27
75: 32
75: 35
76: 36
76: 39
77: 34
78: 37
78: 47
79: 50
80: 51
80: 52
81: 55
82: 45
83: 58
83: 59
2: 64
3: 65
4: 65
5: 65
6: 65
7: 66
8: 66
9: 66
10: 67
11: 67
12: 67
13: 67
14: 68
15: 68
16: 68
17: 68
18: 69
19: 70
20: 70
21: 70
22: 70
23: 71
24: 71
25: 72
26: 72
27: 72
28: 73
29: 73
30: 73
31: 73
32: 74
33: 74
34: 74
35: 74
36: 75
37: 75
38: 75
39: 75
40: 76
41: 76
42: 76
43: 76
44: 76
45: 77
46: 77
47: 77
48: 77
49: 78
50: 78
51: 79
52: 79
53: 80
54: 80
55: 80
56: 81
57: 81
58: 81
59: 82
60: 83
61: 83
62: 83
63: 83
