segment: [0]
vertex id: label
57: 0
58: 3
59: 2
60: 2
61: 2
62: 2
63: 2
64: 4
65: 3
66: 2
67: 2
68: 2
69: 0
70: 4
71: 3
72: 2
73: 2
74: 2
75: 2
76: 2
0: 5
1: 5
2: 5
3: 5
4: 5
5: 5
6: 5
7: 5
8: 5
9: 5
10: 5
11: 5
12: 5
13: 5
14: 5
15: 5
16: 5
17: 5
18: 5
19: 5
20: 5
21: 5
22: 5
23: 5
24: 5
25: 5
26: 5
27: 5
28: 5
29: 5
30: 5
31: 5
32: 5
33: 5
34: 5
35: 5
36: 5
37: 5
38: 5
39: 5
40: 5
41: 5
42: 5
43: 5
44: 5
45: 5
46: 5
47: 5
48: 5
49: 5
50: 5
51: 5
52: 5
53: 5
54: 5
55: 5
56: 5
edge from: to
57: 0
57: 1
57: 2
58: 4
58: 6
59: 3
59: 5
59: 8
60: 6
60: 9
61: 8
61: 11
61: 12
62: 10
62: 16
62: 17
63: 19
64: 22
65: 17
65: 19
65: 25
65: 29
66: 31
67: 32
68: 30
68: 33
69: 37
70: 39
71: 26
71: 40
72: 43
73: 37
73: 41
73: 45
74: 43
74: 47
75: 33
75: 51
76: 35
76: 49
76: 51
76: 54
3: 57
4: 57
5: 57
6: 57
7: 58
8: 58
9: 59
10: 60
11: 60
12: 60
13: 61
14: 61
15: 61
16: 61
17: 61
18: 62
19: 62
20: 63
21: 63
22: 63
23: 64
24: 64
25: 64
26: 64
27: 64
28: 64
29: 64
30: 65
31: 65
32: 66
33: 67
34: 68
35: 68
36: 68
37: 68
38: 69
39: 69
40: 70
41: 71
42: 71
43: 71
44: 72
45: 72
46: 73
47: 73
48: 74
49: 74
50: 74
51: 74
52: 75
53: 75
54: 75
55: 76
56: 76
segment: [1]
vertex id: label
67: 0
68: 4
69: 3
70: 2
71: 4
72: 3
73: 2
74: 2
75: 2
76: 2
77: 2
78: 2
79: 2
80: 4
81: 3
82: 2
83: 2
84: 4
85: 3
86: 2
0: 5
1: 5
2: 5
3: 5
4: 5
5: 5
6: 5
7: 5
8: 5
9: 5
10: 5
11: 5
12: 5
13: 5
14: 5
15: 5
16: 5
17: 5
18: 5
19: 5
20: 5
21: 5
22: 5
23: 5
24: 5
25: 5
26: 5
27: 5
28: 5
29: 5
30: 5
31: 5
32: 5
33: 5
34: 5
35: 5
36: 5
37: 5
38: 5
39: 5
40: 5
41: 5
42: 5
43: 5
44: 5
45: 5
46: 5
47: 5
48: 5
49: 5
50: 5
51: 5
52: 5
53: 5
54: 5
55: 5
56: 5
57: 5
58: 5
59: 5
60: 5
61: 5
62: 5
63: 5
64: 5
65: 5
66: 5
edge from: to
67: 0
67: 1
67: 2
68: 3
68: 4
69: 4
69: 6
70: 6
70: 10
71: 8
71: 12
72: 9
72: 10
72: 15
73: 16
73: 19
74: 25
75: 26
75: 28
76: 29
77: 31
78: 21
78: 29
78: 32
79: 34
80: 41
81: 46
82: 45
82: 50
83: 31
83: 53
84: 57
85: 22
85: 35
85: 60
86: 36
86: 62
3: 67
4: 67
5: 68
6: 68
7: 69
8: 69
9: 69
10: 69
11: 70
12: 70
13: 71
14: 71
15: 71
16: 72
17: 72
18: 72
19: 72
20: 73
21: 73
22: 73
23: 73
24: 73
25: 73
26: 74
27: 74
28: 74
29: 75
30: 76
31: 76
32: 77
33: 78
34: 78
35: 79
36: 79
37: 79
38: 79
39: 79
40: 79
41: 79
42: 80
43: 80
44: 80
45: 80
46: 80
47: 81
48: 81
49: 81
50: 81
51: 82
52: 82
53: 82
54: 83
55: 83
56: 83
57: 83
58: 84
59: 84
60: 84
61: 85
62: 85
63: 86
64: 86
65: 86
66: 86
segment: [2]
vertex id: label
55: 0
56: 3
57: 2
58: 2
59: 4
60: 3
61: 2
62: 2
63: 2
64: 2
65: 2
66: 2
67: 2
68: 4
69: 3
70: 2
71: 2
72: 2
73: 2
74: 2
0: 5
1: 5
2: 5
3: 5
4: 5
5: 5
6: 5
7: 5
8: 5
9: 5
10: 5
11: 5
12: 5
13: 5
14: 5
15: 5
16: 5
17: 5
18: 5
19: 5
20: 5
21: 5
22: 5
23: 5
24: 5
25: 5
26: 5
27: 5
28: 5
29: 5
30: 5
31: 5
32: 5
33: 5
34: 5
35: 5
36: 5
37: 5
38: 5
39: 5
40: 5
41: 5
42: 5
43: 5
44: 5
45: 5
46: 5
47: 5
48: 5
49: 5
50: 5
51: 5
52: 5
53: 5
54: 5
edge from: to
55: 0
56: 1
56: 2
57: 2
58: 4
58: 6
59: 9
60: 6
60: 10
61: 10
61: 11
62: 5
62: 8
63: 6
63: 16
64: 21
65: 9
66: 28
66: 31
67: 27
67: 30
67: 31
67: 33
68: 13
68: 35
69: 34
69: 39
70: 24
70: 41
71: 43
72: 40
72: 44
73: 45
74: 33
74: 46
74: 51
1: 55
2: 55
3: 55
4: 56
5: 56
6: 57
7: 58
8: 58
9: 58
10: 59
11: 60
12: 61
13: 61
14: 62
15: 62
16: 62
17: 63
18: 63
19: 63
20: 63
21: 63
22: 64
23: 64
24: 64
25: 65
26: 65
27: 65
28: 65
29: 65
30: 65
31: 65
32: 66
33: 66
34: 67
35: 67
36: 68
37: 68
38: 68
39: 68
40: 69
41: 69
42: 70
43: 70
44: 71
45: 72
46: 73
47: 73
48: 73
49: 73
50: 73
51: 73
52: 74
53: 74
54: 74
segment: [3]
vertex id: label
64: 0
65: 3
66: 2
67: 2
68: 2
69: 0
70: 3
71: 2
72: 2
73: 2
74: 2
75: 4
76: 3
77: 2
78: 2
79: 2
80: 2
81: 2
82: 2
83: 0
0: 5
1: 5
2: 5
3: 5
4: 5
5: 5
6: 5
7: 5
8: 5
9: 5
10: 5
11: 5
12: 5
13: 5
14: 5
15: 5
16: 5
17: 5
18: 5
19: 5
20: 5
21: 5
22: 5
23: 5
24: 5
25: 5
26: 5
27: 5
28: 5
29: 5
30: 5
31: 5
32: 5
33: 5
34: 5
35: 5
36: 5
37: 5
38: 5
39: 5
40: 5
41: 5
42: 5
43: 5
44: 5
45: 5
46: 5
47: 5
48: 5
49: 5
50: 5
51: 5
52: 5
53: 5
54: 5
55: 5
56: 5
57: 5
58: 5
59: 5
60: 5
61: 5
62: 5
63: 5
edge from: to
64: 0
65: 0
65: 1
65: 2
66: 2
66: 3
67: 6
67: 10
68: 12
68: 13
68: 14
69: 19
70: 12
70: 13
70: 20
71: 21
72: 9
73: 26
73: 30
74: 13
75: 38
75: 42
76: 40
76: 44
77: 41
77: 45
78: 48
79: 18
80: 43
80: 47
80: 52
81: 31
81: 44
81: 48
81: 53
82: 57
83: 59
1: 64
3: 65
4: 65
5: 65
6: 66
7: 66
8: 66
9: 66
10: 66
11: 67
12: 67
13: 67
14: 67
15: 68
16: 68
17: 68
18: 68
19: 68
20: 69
21: 70
22: 71
23: 71
24: 71
25: 72
26: 72
27: 72
28: 72
29: 72
30: 72
31: 73
32: 73
33: 73
34: 73
35: 73
36: 74
37: 74
38: 74
39: 74
40: 74
41: 74
42: 74
43: 75
44: 75
45: 76
46: 77
47: 77
48: 77
49: 78
50: 79
51: 79
52: 79
53: 80
54: 81
55: 81
56: 81
57: 81
58: 82
59: 82
60: 83
61: 83
62: 83
63: 83
segment: [4]
vertex id: label
55: 0
56: 1
57: 3
58: 2
59: 4
60: 3
61: 2
62: 2
63: 2
64: 2
65: 2
66: 4
67: 3
68: 2
69: 0
70: 3
71: 2
72: 2
73: 4
74: 3
0: 5
1: 5
2: 5
3: 5
4: 5
5: 5
6: 5
7: 5
8: 5
9: 5
10: 5
11: 5
12: 5
13: 5
14: 5
15: 5
16: 5
17: 5
18: 5
19: 5
20: 5
21: 5
22: 5
23: 5
24: 5
25: 5
26: 5
27: 5
28: 5
29: 5
30: 5
31: 5
32: 5
33: 5
34: 5
35: 5
36: 5
37: 5
38: 5
39: 5
40: 5
41: 5
42: 5
43: 5
44: 5
45: 5
46: 5
47: 5
48: 5
49: 5
50: 5
51: 5
52: 5
53: 5
54: 5
edge from: to
55: 0
56: 1
57: 1
58: 2
58: 3
59: 4
59: 5
59: 6
60: 5
60: 6
60: 7
61: 10
62: 12
63: 10
63: 16
63: 17
64: 21
65: 13
65: 22
66: 9
66: 22
66: 24
67: 10
68: 29
69: 28
69: 31
70: 20
70: 34
71: 37
72: 24
72: 37
72: 41
73: 44
74: 53
1: 55
2: 55
3: 56
4: 57
5: 57
6: 58
7: 59
8: 60
9: 60
10: 60
11: 61
12: 61
13: 62
14: 62
15: 62
16: 62
17: 62
18: 63
19: 63
20: 63
21: 63
22: 64
23: 65
24: 65
25: 66
26: 66
27: 66
28: 67
29: 67
30: 68
31: 68
32: 69
33: 69
34: 69
35: 70
36: 70
37: 70
38: 71
39: 71
40: 71
41: 71
42: 72
43: 72
44: 72
45: 73
46: 73
47: 73
48: 73
49: 73
50: 73
51: 73
52: 73
53: 73
54: 74
segment: [5]
vertex id: label
63: 0
64: 1
65: 0
66: 4
67: 4
68: 3
69: 2
70: 2
71: 2
72: 2
73: 2
74: 2
75: 2
76: 4
77: 3
78: 2
79: 2
80: 4
81: 4
82: 4
0: 5
1: 5
2: 5
3: 5
4: 5
5: 5
6: 5
7: 5
8: 5
9: 5
10: 5
11: 5
12: 5
13: 5
14: 5
15: 5
16: 5
17: 5
18: 5
19: 5
20: 5
21: 5
22: 5
23: 5
24: 5
25: 5
26: 5
27: 5
28: 5
29: 5
30: 5
31: 5
32: 5
33: 5
34: 5
35: 5
36: 5
37: 5
38: 5
39: 5
40: 5
41: 5
42: 5
43: 5
44: 5
45: 5
46: 5
47: 5
48: 5
49: 5
50: 5
51: 5
52: 5
53: 5
54: 5
55: 5
56: 5
57: 5
58: 5
59: 5
60: 5
61: 5
62: 5
edge from: to
63: 0
63: 1
64: 2
65: 3
65: 5
65: 8
66: 6
66: 10
67: 10
67: 16
67: 17
68: 21
69: 25
70: 10
70: 16
71: 17
71: 19
71: 25
71: 29
72: 31
73: 30
73: 33
74: 20
74: 34
75: 34
75: 39
76: 28
76: 43
77: 39
77: 43
77: 47
78: 18
79: 33
79: 51
80: 35
80: 54
81: 56
82: 22
2: 63
3: 63
4: 63
5: 63
6: 64
7: 64
8: 64
9: 65
10: 65
11: 66
12: 66
13: 66
14: 66
15: 66
16: 66
17: 66
18: 67
19: 67
20: 67
21: 67
22: 68
23: 68
24: 68
25: 68
26: 69
27: 69
28: 70
29: 70
30: 71
31: 71
32: 72
33: 72
34: 73
35: 74
36: 74
37: 74
38: 74
39: 74
40: 75
41: 75
42: 75
43: 75
44: 76
45: 76
46: 76
47: 76
48: 77
49: 77
50: 78
51: 78
52: 79
53: 79
54: 79
55: 80
56: 80
57: 81
58: 81
59: 81
60: 81
61: 82
62: 82
segment: [6]
vertex id: label
70: 0
71: 4
72: 3
73: 2
74: 2
75: 4
76: 3
77: 2
78: 2
79: 0
80: 4
81: 3
82: 2
83: 2
84: 2
85: 2
86: 2
87: 4
88: 3
89: 2
0: 5
1: 5
2: 5
3: 5
4: 5
5: 5
6: 5
7: 5
8: 5
9: 5
10: 5
11: 5
12: 5
13: 5
14: 5
15: 5
16: 5
17: 5
18: 5
19: 5
20: 5
21: 5
22: 5
23: 5
24: 5
25: 5
26: 5
27: 5
28: 5
29: 5
30: 5
31: 5
32: 5
33: 5
34: 5
35: 5
36: 5
37: 5
38: 5
39: 5
40: 5
41: 5
42: 5
43: 5
44: 5
45: 5
46: 5
47: 5
48: 5
49: 5
50: 5
51: 5
52: 5
53: 5
54: 5
55: 5
56: 5
57: 5
58: 5
59: 5
60: 5
61: 5
62: 5
63: 5
64: 5
65: 5
66: 5
67: 5
68: 5
69: 5
edge from: to
70: 0
71: 3
71: 4
72: 3
72: 5
72: 8
73: 8
73: 12
74: 6
75: 12
75: 18
76: 14
76: 21
77: 21
77: 23
77: 25
78: 10
78: 16
78: 27
79: 30
80: 20
80: 22
80: 34
81: 32
81: 34
81: 39
82: 38
82: 42
83: 46
84: 28
84: 48
85: 18
86: 52
87: 58
88: 62
89: 39
89: 67
1: 70
2: 70
3: 70
4: 70
5: 71
6: 71
7: 71
8: 71
9: 72
10: 72
11: 72
12: 72
13: 73
14: 73
15: 73
16: 73
17: 74
18: 74
19: 75
20: 75
21: 75
22: 76
23: 76
24: 76
25: 76
26: 77
27: 77
28: 78
29: 78
30: 78
31: 79
32: 79
33: 79
34: 79
35: 80
36: 80
37: 80
38: 80
39: 80
40: 81
41: 81
42: 81
43: 82
44: 82
45: 82
46: 82
47: 83
48: 83
49: 84
50: 85
51: 85
52: 85
53: 86
54: 86
55: 86
56: 86
57: 86
58: 86
59: 87
60: 87
61: 87
62: 87
63: 88
64: 88
65: 88
66: 88
67: 88
68: 89
69: 89
segment: [7]
vertex id: label
54: 0
55: 3
56: 2
57: 2
58: 4
59: 4
60: 4
61: 3
62: 2
63: 2
64: 2
65: 2
66: 2
67: 2
68: 2
69: 2
70: 2
71: 2
72: 2
73: 4
0: 5
1: 5
2: 5
3: 5
4: 5
5: 5
6: 5
7: 5
8: 5
9: 5
10: 5
11: 5
12: 5
13: 5
14: 5
15: 5
16: 5
17: 5
18: 5
19: 5
20: 5
21: 5
22: 5
23: 5
24: 5
25: 5
26: 5
27: 5
28: 5
29: 5
30: 5
31: 5
32: 5
33: 5
34: 5
35: 5
36: 5
37: 5
38: 5
39: 5
40: 5
41: 5
42: 5
43: 5
44: 5
45: 5
46: 5
47: 5
48: 5
49: 5
50: 5
51: 5
52: 5
53: 5
edge from: to
54: 0
55: 0
55: 1
55: 2
56: 4
57: 3
58: 10
58: 11
59: 13
59: 14
60: 6
60: 16
61: 9
61: 16
61: 17
61: 18
61: 19
62: 20
63: 9
63: 22
63: 24
64: 29
65: 30
65: 33
66: 20
66: 34
67: 36
68: 24
68: 37
69: 26
69: 33
69: 36
69: 40
70: 38
70: 42
71: 43
71: 47
72: 18
73: 33
73: 46
73: 51
1: 54
2: 54
3: 55
4: 55
5: 56
6: 56
7: 56
8: 56
9: 57
10: 57
11: 57
12: 58
13: 58
14: 58
15: 59
16: 59
17: 60
18: 60
19: 60
20: 61
21: 62
22: 62
23: 62
24: 62
25: 63
26: 63
27: 63
28: 63
29: 63
30: 64
31: 64
32: 64
33: 64
34: 65
35: 66
36: 66
37: 67
38: 68
39: 68
40: 68
41: 69
42: 69
43: 70
44: 70
45: 70
46: 70
47: 70
48: 71
49: 71
50: 72
51: 72
52: 73
53: 73
segment: [8]
vertex id: label
66: 0
67: 2
68: 2
69: 2
70: 4
71: 4
72: 3
73: 2
74: 2
75: 4
76: 3
77: 2
78: 2
79: 4
80: 3
81: 2
82: 2
83: 0
84: 4
85: 3
0: 5
1: 5
2: 5
3: 5
4: 5
5: 5
6: 5
7: 5
8: 5
9: 5
10: 5
11: 5
12: 5
13: 5
14: 5
15: 5
16: 5
17: 5
18: 5
19: 5
20: 5
21: 5
22: 5
23: 5
24: 5
25: 5
26: 5
27: 5
28: 5
29: 5
30: 5
31: 5
32: 5
33: 5
34: 5
35: 5
36: 5
37: 5
38: 5
39: 5
40: 5
41: 5
42: 5
43: 5
44: 5
45: 5
46: 5
47: 5
48: 5
49: 5
50: 5
51: 5
52: 5
53: 5
54: 5
55: 5
56: 5
57: 5
58: 5
59: 5
60: 5
61: 5
62: 5
63: 5
64: 5
65: 5
edge from: to
66: 0
67: 5
67: 7
68: 6
68: 10
69: 8
69: 12
70: 5
70: 7
70: 12
70: 13
70: 14
71: 21
72: 9
72: 24
73: 10
73: 16
74: 21
74: 29
74: 32
75: 20
75: 34
76: 30
76: 33
76: 34
76: 36
77: 34
77: 39
78: 38
78: 42
79: 42
79: 46
80: 43
80: 47
81: 48
82: 33
82: 51
83: 35
83: 49
83: 54
84: 51
84: 56
85: 52
85: 57
85: 63
1: 66
2: 66
3: 66
4: 66
5: 66
6: 66
7: 66
8: 67
9: 67
10: 67
11: 68
12: 68
13: 69
14: 69
15: 70
16: 70
17: 70
18: 70
19: 70
20: 70
21: 70
22: 71
23: 71
24: 71
25: 72
26: 72
27: 72
28: 73
29: 73
30: 73
31: 73
32: 73
33: 74
34: 74
35: 75
36: 75
37: 76
38: 76
39: 76
40: 77
41: 77
42: 77
43: 78
44: 78
45: 78
46: 78
47: 79
48: 80
49: 81
50: 81
51: 81
52: 82
53: 82
54: 82
55: 83
56: 83
57: 84
58: 84
59: 84
60: 84
61: 84
62: 84
63: 84
64: 85
65: 85
segment: [9]
vertex id: label
62: 0
63: 4
64: 3
65: 2
66: 2
67: 0
68: 2
69: 0
70: 4
71: 3
72: 2
73: 2
74: 2
75: 2
76: 2
77: 2
78: 2
79: 2
80: 2
81: 2
0: 5
1: 5
2: 5
3: 5
4: 5
5: 5
6: 5
7: 5
8: 5
9: 5
10: 5
11: 5
12: 5
13: 5
14: 5
15: 5
16: 5
17: 5
18: 5
19: 5
20: 5
21: 5
22: 5
23: 5
24: 5
25: 5
26: 5
27: 5
28: 5
29: 5
30: 5
31: 5
32: 5
33: 5
34: 5
35: 5
36: 5
37: 5
38: 5
39: 5
40: 5
41: 5
42: 5
43: 5
44: 5
45: 5
46: 5
47: 5
48: 5
49: 5
50: 5
51: 5
52: 5
53: 5
54: 5
55: 5
56: 5
57: 5
58: 5
59: 5
60: 5
61: 5
edge from: to
62: 0
63: 1
64: 4
65: 3
66: 6
66: 10
67: 8
67: 12
68: 12
68: 13
68: 14
69: 10
69: 17
70: 19
71: 14
71: 21
72: 26
73: 31
74: 33
74: 36
75: 24
75: 37
76: 26
76: 40
77: 40
77: 41
77: 44
78: 28
78: 48
79: 33
79: 51
80: 53
81: 56
1: 62
2: 63
3: 63
4: 63
5: 64
6: 64
7: 64
8: 64
9: 65
10: 65
11: 66
12: 66
13: 67
14: 67
15: 68
16: 68
17: 68
18: 69
19: 69
20: 70
21: 70
22: 71
23: 71
24: 71
25: 71
26: 71
27: 72
28: 72
29: 72
30: 72
31: 72
32: 73
33: 73
34: 73
35: 73
36: 73
37: 74
38: 75
39: 75
40: 75
41: 76
42: 76
43: 76
44: 76
45: 77
46: 77
47: 77
48: 77
49: 78
50: 78
51: 78
52: 79
53: 79
54: 80
55: 80
56: 80
57: 81
58: 81
59: 81
60: 81
61: 81
