segment: [0]
vertex id: label
30: 0
31: 0
32: 0
33: 2
34: 4
35: 0
36: 1
37: 2
38: 0
39: 2
0: 5
1: 5
2: 5
3: 5
4: 5
5: 5
6: 5
7: 5
8: 5
9: 5
10: 5
11: 5
12: 5
13: 5
14: 5
15: 5
16: 5
17: 5
18: 5
19: 5
20: 5
21: 5
22: 5
23: 5
24: 5
25: 5
26: 5
27: 5
28: 5
29: 5
edge from: to
30: 0
31: 0
31: 2
32: 1
32: 6
33: 8
33: 9
33: 10
34: 13
35: 15
35: 16
35: 17
35: 18
36: 21
37: 6
37: 20
37: 23
38: 25
39: 26
1: 30
2: 30
3: 31
4: 31
5: 31
6: 31
7: 32
8: 32
9: 32
10: 32
11: 33
12: 33
13: 33
14: 33
15: 34
16: 34
17: 34
18: 34
19: 35
20: 35
21: 35
22: 35
23: 36
24: 36
25: 37
26: 37
27: 38
28: 39
29: 39
segment: [1]
vertex id: label
37: 0
38: 3
39: 2
40: 2
41: 4
42: 0
43: 3
44: 3
45: 3
46: 3
0: 5
1: 5
2: 5
3: 5
4: 5
5: 5
6: 5
7: 5
8: 5
9: 5
10: 5
11: 5
12: 5
13: 5
14: 5
15: 5
16: 5
17: 5
18: 5
19: 5
20: 5
21: 5
22: 5
23: 5
24: 5
25: 5
26: 5
27: 5
28: 5
29: 5
30: 5
31: 5
32: 5
33: 5
34: 5
35: 5
36: 5
edge from: to
37: 0
37: 1
37: 2
37: 3
37: 4
38: 1
38: 2
38: 8
39: 8
39: 9
40: 8
40: 9
40: 10
41: 14
42: 14
42: 17
43: 22
44: 26
45: 28
45: 29
46: 8
46: 31
5: 37
6: 37
7: 37
8: 37
9: 38
10: 39
11: 40
12: 40
13: 40
14: 40
15: 40
16: 41
17: 41
18: 42
19: 42
20: 42
21: 42
22: 42
23: 42
24: 43
25: 43
26: 43
27: 43
28: 44
29: 44
30: 45
31: 45
32: 45
33: 46
34: 46
35: 46
36: 46
segment: [2]
vertex id: label
41: 0
42: 1
43: 2
44: 2
45: 0
46: 3
47: 1
48: 2
49: 0
50: 3
0: 5
1: 5
2: 5
3: 5
4: 5
5: 5
6: 5
7: 5
8: 5
9: 5
10: 5
11: 5
12: 5
13: 5
14: 5
15: 5
16: 5
17: 5
18: 5
19: 5
20: 5
21: 5
22: 5
23: 5
24: 5
25: 5
26: 5
27: 5
28: 5
29: 5
30: 5
31: 5
32: 5
33: 5
34: 5
35: 5
36: 5
37: 5
38: 5
39: 5
40: 5
edge from: to
41: 0
41: 1
42: 4
43: 6
43: 7
44: 11
45: 11
45: 13
46: 14
46: 17
47: 5
47: 19
48: 6
48: 20
48: 22
48: 23
49: 29
49: 30
50: 35
2: 41
3: 41
4: 41
5: 42
6: 42
7: 42
8: 43
9: 43
10: 43
11: 43
12: 44
13: 44
14: 45
15: 45
16: 45
17: 45
18: 46
19: 46
20: 46
21: 47
22: 47
23: 47
24: 47
25: 48
26: 48
27: 48
28: 48
29: 48
30: 48
31: 49
32: 49
33: 49
34: 49
35: 49
36: 49
37: 50
38: 50
39: 50
40: 50
segment: [3]
vertex id: label
37: 0
38: 2
39: 4
40: 2
41: 0
42: 1
43: 3
44: 1
45: 2
46: 0
0: 5
1: 5
2: 5
3: 5
4: 5
5: 5
6: 5
7: 5
8: 5
9: 5
10: 5
11: 5
12: 5
13: 5
14: 5
15: 5
16: 5
17: 5
18: 5
19: 5
20: 5
21: 5
22: 5
23: 5
24: 5
25: 5
26: 5
27: 5
28: 5
29: 5
30: 5
31: 5
32: 5
33: 5
34: 5
35: 5
36: 5
edge from: to
37: 0
37: 1
37: 2
37: 3
37: 4
38: 3
38: 8
38: 9
39: 8
39: 10
40: 13
41: 14
41: 15
42: 17
42: 18
43: 21
44: 21
44: 23
44: 24
44: 25
44: 26
45: 29
46: 8
46: 26
46: 31
5: 37
6: 37
7: 37
8: 37
9: 37
10: 38
11: 39
12: 39
13: 39
14: 39
15: 40
16: 41
17: 41
18: 41
19: 42
20: 42
21: 42
22: 42
23: 43
24: 43
25: 43
26: 43
27: 44
28: 44
29: 44
30: 44
31: 45
32: 45
33: 46
34: 46
35: 46
36: 46
segment: [4]
vertex id: label
37: 0
38: 1
39: 1
40: 1
41: 3
42: 3
43: 3
44: 3
45: 3
46: 0
0: 5
1: 5
2: 5
3: 5
4: 5
5: 5
6: 5
7: 5
8: 5
9: 5
10: 5
11: 5
12: 5
13: 5
14: 5
15: 5
16: 5
17: 5
18: 5
19: 5
20: 5
21: 5
22: 5
23: 5
24: 5
25: 5
26: 5
27: 5
28: 5
29: 5
30: 5
31: 5
32: 5
33: 5
34: 5
35: 5
36: 5
edge from: to
37: 0
38: 4
38: 5
39: 1
39: 2
39: 8
40: 13
41: 2
42: 18
42: 19
43: 5
43: 15
43: 18
43: 19
43: 20
44: 21
45: 21
45: 25
45: 26
46: 31
1: 37
2: 37
3: 37
4: 37
5: 37
6: 38
7: 38
8: 38
9: 39
10: 39
11: 39
12: 39
13: 39
14: 40
15: 40
16: 40
17: 41
18: 41
19: 41
20: 42
21: 43
22: 43
23: 44
24: 44
25: 44
26: 44
27: 45
28: 45
29: 45
30: 45
31: 45
32: 45
33: 46
34: 46
35: 46
36: 46
segment: [5]
vertex id: label
26: 0
27: 1
28: 2
29: 4
30: 4
31: 2
32: 0
33: 4
34: 1
35: 2
0: 5
1: 5
2: 5
3: 5
4: 5
5: 5
6: 5
7: 5
8: 5
9: 5
10: 5
11: 5
12: 5
13: 5
14: 5
15: 5
16: 5
17: 5
18: 5
19: 5
20: 5
21: 5
22: 5
23: 5
24: 5
25: 5
edge from: to
26: 0
26: 1
27: 0
27: 1
27: 2
27: 3
28: 7
29: 8
29: 10
30: 12
31: 13
31: 14
32: 15
32: 17
32: 18
33: 3
33: 18
33: 19
34: 5
34: 19
35: 23
2: 26
3: 26
4: 27
5: 27
6: 27
7: 27
8: 28
9: 28
10: 28
11: 29
12: 29
13: 30
14: 30
15: 31
16: 31
17: 31
18: 31
19: 32
20: 33
21: 34
22: 34
23: 34
24: 34
25: 35
segment: [6]
vertex id: label
35: 0
36: 1
37: 2
38: 4
39: 2
40: 4
41: 3
42: 3
43: 3
44: 2
0: 5
1: 5
2: 5
3: 5
4: 5
5: 5
6: 5
7: 5
8: 5
9: 5
10: 5
11: 5
12: 5
13: 5
14: 5
15: 5
16: 5
17: 5
18: 5
19: 5
20: 5
21: 5
22: 5
23: 5
24: 5
25: 5
26: 5
27: 5
28: 5
29: 5
30: 5
31: 5
32: 5
33: 5
34: 5
edge from: to
35: 0
36: 0
36: 1
36: 2
36: 3
37: 1
37: 2
37: 8
38: 10
39: 11
39: 12
39: 13
40: 17
41: 23
42: 21
42: 25
42: 26
43: 7
43: 27
44: 28
44: 30
44: 31
1: 35
2: 35
3: 35
4: 36
5: 36
6: 36
7: 36
8: 36
9: 37
10: 37
11: 38
12: 38
13: 38
14: 39
15: 39
16: 39
17: 39
18: 39
19: 40
20: 40
21: 40
22: 40
23: 40
24: 40
25: 41
26: 41
27: 42
28: 42
29: 43
30: 43
31: 43
32: 44
33: 44
34: 44
segment: [7]
vertex id: label
33: 0
34: 3
35: 3
36: 1
37: 1
38: 2
39: 0
40: 3
41: 1
42: 2
0: 5
1: 5
2: 5
3: 5
4: 5
5: 5
6: 5
7: 5
8: 5
9: 5
10: 5
11: 5
12: 5
13: 5
14: 5
15: 5
16: 5
17: 5
18: 5
19: 5
20: 5
21: 5
22: 5
23: 5
24: 5
25: 5
26: 5
27: 5
28: 5
29: 5
30: 5
31: 5
32: 5
edge from: to
33: 0
33: 1
33: 2
33: 3
34: 1
34: 2
35: 3
35: 7
35: 8
35: 9
36: 8
36: 9
36: 10
37: 13
38: 14
39: 17
39: 18
40: 16
40: 17
40: 19
40: 20
40: 21
41: 25
41: 26
42: 29
42: 30
4: 33
5: 33
6: 33
7: 33
8: 33
9: 34
10: 35
11: 36
12: 36
13: 36
14: 36
15: 37
16: 38
17: 38
18: 38
19: 39
20: 39
21: 39
22: 40
23: 40
24: 40
25: 40
26: 40
27: 41
28: 41
29: 41
30: 41
31: 42
32: 42
segment: [8]
vertex id: label
32: 0
33: 3
34: 3
35: 3
36: 3
37: 3
38: 0
39: 1
40: 3
41: 3
0: 5
1: 5
2: 5
3: 5
4: 5
5: 5
6: 5
7: 5
8: 5
9: 5
10: 5
11: 5
12: 5
13: 5
14: 5
15: 5
16: 5
17: 5
18: 5
19: 5
20: 5
21: 5
22: 5
23: 5
24: 5
25: 5
26: 5
27: 5
28: 5
29: 5
30: 5
31: 5
edge from: to
32: 0
32: 1
33: 4
34: 10
35: 3
35: 12
36: 14
36: 15
37: 2
37: 4
38: 5
38: 19
39: 21
40: 26
41: 29
2: 32
3: 32
4: 32
5: 33
6: 33
7: 33
8: 33
9: 33
10: 33
11: 34
12: 34
13: 35
14: 35
15: 35
16: 36
17: 37
18: 37
19: 37
20: 37
21: 38
22: 38
23: 39
24: 39
25: 39
26: 39
27: 39
28: 40
29: 40
30: 40
31: 41
segment: [9]
vertex id: label
31: 0
32: 1
33: 2
34: 0
35: 1
36: 2
37: 2
38: 3
39: 0
40: 2
0: 5
1: 5
2: 5
3: 5
4: 5
5: 5
6: 5
7: 5
8: 5
9: 5
10: 5
11: 5
12: 5
13: 5
14: 5
15: 5
16: 5
17: 5
18: 5
19: 5
20: 5
21: 5
22: 5
23: 5
24: 5
25: 5
26: 5
27: 5
28: 5
29: 5
30: 5
edge from: to
31: 0
31: 1
32: 4
33: 4
33: 5
34: 6
34: 7
35: 14
35: 15
36: 14
36: 17
37: 19
37: 22
37: 23
38: 24
39: 21
39: 25
39: 26
40: 27
2: 31
3: 31
4: 31
5: 32
6: 33
7: 33
8: 34
9: 34
10: 34
11: 34
12: 34
13: 34
14: 34
15: 34
16: 35
17: 35
18: 36
19: 36
20: 36
21: 36
22: 36
23: 36
24: 37
25: 37
26: 38
27: 39
28: 39
29: 40
30: 40
