segment: [0]
vertex id: label
71: 0
72: 3
73: 4
74: 4
75: 3
76: 4
77: 4
78: 4
79: 3
80: 4
81: 4
82: 3
83: 4
84: 4
85: 4
86: 3
87: 4
88: 3
89: 4
90: 4
0: 5
1: 5
2: 5
3: 5
4: 5
5: 5
6: 5
7: 5
8: 5
9: 5
10: 5
11: 5
12: 5
13: 5
14: 5
15: 5
16: 5
17: 5
18: 5
19: 5
20: 5
21: 5
22: 5
23: 5
24: 5
25: 5
26: 5
27: 5
28: 5
29: 5
30: 5
31: 5
32: 5
33: 5
34: 5
35: 5
36: 5
37: 5
38: 5
39: 5
40: 5
41: 5
42: 5
43: 5
44: 5
45: 5
46: 5
47: 5
48: 5
49: 5
50: 5
51: 5
52: 5
53: 5
54: 5
55: 5
56: 5
57: 5
58: 5
59: 5
60: 5
61: 5
62: 5
63: 5
64: 5
65: 5
66: 5
67: 5
68: 5
69: 5
70: 5
edge from: to
71: 0
71: 1
72: 0
72: 6
73: 10
74: 11
75: 14
75: 15
76: 17
77: 19
77: 20
78: 20
79: 24
80: 19
80: 25
80: 26
81: 31
82: 1
82: 36
83: 1
83: 37
84: 41
85: 42
85: 44
85: 47
86: 45
86: 47
87: 47
87: 49
87: 52
88: 11
88: 50
88: 52
88: 56
89: 36
89: 53
89: 55
89: 58
89: 59
90: 61
2: 71
3: 71
4: 71
5: 71
6: 71
7: 72
8: 72
9: 72
10: 72
11: 72
12: 73
13: 74
14: 74
15: 74
16: 74
17: 75
18: 75
19: 76
20: 76
21: 76
22: 77
23: 78
24: 78
25: 78
26: 78
27: 79
28: 79
29: 80
30: 80
31: 80
32: 80
33: 80
34: 80
35: 81
36: 81
37: 81
38: 81
39: 81
40: 81
41: 82
42: 83
43: 83
44: 83
45: 84
46: 84
47: 84
48: 85
49: 85
50: 85
51: 86
52: 86
53: 87
54: 87
55: 87
56: 87
57: 88
58: 88
59: 88
60: 89
61: 89
62: 89
63: 89
64: 89
65: 89
66: 90
67: 90
68: 90
69: 90
70: 90
segment: [1]
vertex id: label
56: 0
57: 2
58: 1
59: 1
60: 1
61: 1
62: 1
63: 1
64: 1
65: 1
66: 1
67: 1
68: 1
69: 1
70: 1
71: 1
72: 1
73: 1
74: 1
75: 1
0: 5
1: 5
2: 5
3: 5
4: 5
5: 5
6: 5
7: 5
8: 5
9: 5
10: 5
11: 5
12: 5
13: 5
14: 5
15: 5
16: 5
17: 5
18: 5
19: 5
20: 5
21: 5
22: 5
23: 5
24: 5
25: 5
26: 5
27: 5
28: 5
29: 5
30: 5
31: 5
32: 5
33: 5
34: 5
35: 5
36: 5
37: 5
38: 5
39: 5
40: 5
41: 5
42: 5
43: 5
44: 5
45: 5
46: 5
47: 5
48: 5
49: 5
50: 5
51: 5
52: 5
53: 5
54: 5
55: 5
edge from: to
56: 0
57: 0
57: 3
57: 4
58: 0
58: 6
59: 7
60: 11
61: 12
61: 13
61: 14
62: 15
63: 4
63: 18
63: 19
63: 20
64: 19
64: 20
65: 21
66: 21
66: 22
67: 26
67: 27
68: 30
69: 31
69: 32
69: 35
70: 34
71: 1
72: 40
73: 41
73: 43
74: 46
75: 45
75: 47
75: 50
1: 56
2: 56
3: 56
4: 56
5: 57
6: 57
7: 58
8: 59
9: 59
10: 59
11: 59
12: 59
13: 60
14: 60
15: 61
16: 61
17: 62
18: 62
19: 62
20: 62
21: 63
22: 64
23: 64
24: 65
25: 66
26: 66
27: 66
28: 66
29: 66
30: 67
31: 67
32: 67
33: 67
34: 68
35: 68
36: 69
37: 69
38: 70
39: 70
40: 70
41: 70
42: 71
43: 71
44: 72
45: 72
46: 72
47: 73
48: 73
49: 73
50: 74
51: 75
52: 75
53: 75
54: 75
55: 75
segment: [2]
vertex id: label
59: 0
60: 2
61: 1
62: 1
63: 1
64: 1
65: 1
66: 1
67: 1
68: 1
69: 1
70: 1
71: 1
72: 1
73: 1
74: 1
75: 1
76: 1
77: 1
78: 1
0: 5
1: 5
2: 5
3: 5
4: 5
5: 5
6: 5
7: 5
8: 5
9: 5
10: 5
11: 5
12: 5
13: 5
14: 5
15: 5
16: 5
17: 5
18: 5
19: 5
20: 5
21: 5
22: 5
23: 5
24: 5
25: 5
26: 5
27: 5
28: 5
29: 5
30: 5
31: 5
32: 5
33: 5
34: 5
35: 5
36: 5
37: 5
38: 5
39: 5
40: 5
41: 5
42: 5
43: 5
44: 5
45: 5
46: 5
47: 5
48: 5
49: 5
50: 5
51: 5
52: 5
53: 5
54: 5
55: 5
56: 5
57: 5
58: 5
edge from: to
59: 0
59: 1
59: 2
59: 3
60: 0
60: 5
61: 8
62: 11
63: 12
64: 14
64: 15
65: 17
66: 13
66: 17
66: 18
67: 19
67: 20
68: 23
69: 18
69: 19
69: 24
69: 25
69: 26
69: 27
69: 28
70: 21
70: 28
70: 29
70: 30
70: 31
71: 29
71: 30
71: 32
72: 24
72: 32
72: 33
72: 35
73: 34
73: 35
74: 1
75: 40
76: 32
76: 43
76: 45
77: 47
77: 49
77: 52
78: 50
78: 52
4: 59
5: 59
6: 60
7: 60
8: 60
9: 61
10: 61
11: 61
12: 61
13: 62
14: 63
15: 63
16: 63
17: 64
18: 64
19: 65
20: 66
21: 66
22: 67
23: 67
24: 67
25: 67
26: 68
27: 68
28: 68
29: 69
30: 69
31: 69
32: 70
33: 71
34: 71
35: 71
36: 71
37: 72
38: 72
39: 73
40: 73
41: 73
42: 74
43: 74
44: 75
45: 75
46: 75
47: 75
48: 75
49: 76
50: 76
51: 76
52: 76
53: 77
54: 77
55: 77
56: 77
57: 78
58: 78
segment: [3]
vertex id: label
56: 0
57: 2
58: 1
59: 1
60: 1
61: 1
62: 1
63: 1
64: 1
65: 1
66: 1
67: 1
68: 1
69: 1
70: 1
71: 1
72: 1
73: 1
74: 1
75: 1
0: 5
1: 5
2: 5
3: 5
4: 5
5: 5
6: 5
7: 5
8: 5
9: 5
10: 5
11: 5
12: 5
13: 5
14: 5
15: 5
16: 5
17: 5
18: 5
19: 5
20: 5
21: 5
22: 5
23: 5
24: 5
25: 5
26: 5
27: 5
28: 5
29: 5
30: 5
31: 5
32: 5
33: 5
34: 5
35: 5
36: 5
37: 5
38: 5
39: 5
40: 5
41: 5
42: 5
43: 5
44: 5
45: 5
46: 5
47: 5
48: 5
49: 5
50: 5
51: 5
52: 5
53: 5
54: 5
55: 5
edge from: to
56: 0
56: 1
57: 0
57: 1
57: 5
58: 0
58: 6
59: 8
60: 9
60: 10
61: 10
61: 11
62: 15
62: 16
63: 17
63: 18
64: 21
65: 22
65: 23
66: 24
66: 25
66: 27
67: 28
67: 29
68: 29
68: 30
68: 32
69: 32
70: 34
70: 35
70: 37
70: 38
71: 1
71: 37
72: 39
72: 41
73: 41
73: 43
74: 45
75: 49
2: 56
3: 56
4: 56
5: 56
6: 57
7: 58
8: 58
9: 59
10: 59
11: 60
12: 60
13: 61
14: 61
15: 61
16: 61
17: 61
18: 62
19: 62
20: 63
21: 63
22: 63
23: 63
24: 64
25: 64
26: 65
27: 65
28: 66
29: 66
30: 66
31: 66
32: 67
33: 68
34: 68
35: 68
36: 69
37: 69
38: 69
39: 70
40: 70
41: 70
42: 71
43: 71
44: 71
45: 72
46: 72
47: 73
48: 73
49: 74
50: 74
51: 74
52: 74
53: 75
54: 75
55: 75
segment: [4]
vertex id: label
62: 0
63: 2
64: 1
65: 1
66: 1
67: 1
68: 1
69: 1
70: 1
71: 1
72: 1
73: 1
74: 1
75: 1
76: 1
77: 1
78: 1
79: 1
80: 1
81: 1
0: 5
1: 5
2: 5
3: 5
4: 5
5: 5
6: 5
7: 5
8: 5
9: 5
10: 5
11: 5
12: 5
13: 5
14: 5
15: 5
16: 5
17: 5
18: 5
19: 5
20: 5
21: 5
22: 5
23: 5
24: 5
25: 5
26: 5
27: 5
28: 5
29: 5
30: 5
31: 5
32: 5
33: 5
34: 5
35: 5
36: 5
37: 5
38: 5
39: 5
40: 5
41: 5
42: 5
43: 5
44: 5
45: 5
46: 5
47: 5
48: 5
49: 5
50: 5
51: 5
52: 5
53: 5
54: 5
55: 5
56: 5
57: 5
58: 5
59: 5
60: 5
61: 5
edge from: to
62: 0
62: 1
62: 2
63: 0
64: 9
65: 10
65: 11
66: 13
66: 14
67: 16
67: 17
67: 18
68: 19
69: 22
69: 23
70: 25
70: 26
71: 26
71: 27
71: 29
72: 29
72: 30
73: 31
73: 32
73: 35
74: 24
74: 32
74: 33
74: 35
75: 1
76: 39
76: 41
76: 44
77: 43
77: 45
78: 47
78: 49
79: 49
80: 52
81: 53
3: 62
4: 62
5: 63
6: 63
7: 63
8: 63
9: 63
10: 63
11: 64
12: 64
13: 65
14: 65
15: 65
16: 66
17: 66
18: 66
19: 67
20: 67
21: 67
22: 68
23: 68
24: 68
25: 68
26: 69
27: 69
28: 69
29: 70
30: 71
31: 71
32: 71
33: 72
34: 72
35: 72
36: 73
37: 74
38: 74
39: 74
40: 75
41: 75
42: 75
43: 75
44: 75
45: 76
46: 76
47: 76
48: 76
49: 77
50: 77
51: 77
52: 77
53: 78
54: 79
55: 79
56: 79
57: 80
58: 81
59: 81
60: 81
61: 81
segment: [5]
vertex id: label
74: 0
75: 2
76: 1
77: 1
78: 1
79: 1
80: 1
81: 1
82: 1
83: 1
84: 1
85: 1
86: 1
87: 1
88: 1
89: 1
90: 1
91: 1
92: 1
93: 1
0: 5
1: 5
2: 5
3: 5
4: 5
5: 5
6: 5
7: 5
8: 5
9: 5
10: 5
11: 5
12: 5
13: 5
14: 5
15: 5
16: 5
17: 5
18: 5
19: 5
20: 5
21: 5
22: 5
23: 5
24: 5
25: 5
26: 5
27: 5
28: 5
29: 5
30: 5
31: 5
32: 5
33: 5
34: 5
35: 5
36: 5
37: 5
38: 5
39: 5
40: 5
41: 5
42: 5
43: 5
44: 5
45: 5
46: 5
47: 5
48: 5
49: 5
50: 5
51: 5
52: 5
53: 5
54: 5
55: 5
56: 5
57: 5
58: 5
59: 5
60: 5
61: 5
62: 5
63: 5
64: 5
65: 5
66: 5
67: 5
68: 5
69: 5
70: 5
71: 5
72: 5
73: 5
edge from: to
74: 0
75: 0
76: 5
76: 8
77: 11
78: 15
78: 16
79: 18
79: 19
79: 20
80: 20
81: 22
81: 23
82: 26
82: 27
82: 29
83: 30
83: 31
84: 33
84: 34
84: 37
85: 28
85: 39
86: 40
86: 42
87: 43
87: 45
88: 44
88: 46
89: 38
89: 51
89: 53
90: 55
90: 57
91: 58
92: 59
92: 60
93: 63
1: 74
2: 74
3: 74
4: 74
5: 74
6: 75
7: 75
8: 75
9: 76
10: 76
11: 76
12: 76
13: 77
14: 77
15: 77
16: 77
17: 77
18: 78
19: 78
20: 78
21: 79
22: 79
23: 80
24: 80
25: 80
26: 81
27: 81
28: 81
29: 81
30: 82
31: 82
32: 82
33: 82
34: 82
35: 83
36: 83
37: 83
38: 84
39: 84
40: 84
41: 84
42: 84
43: 85
44: 85
45: 85
46: 86
47: 86
48: 86
49: 87
50: 88
51: 88
52: 88
53: 88
54: 88
55: 88
56: 88
57: 88
58: 89
59: 89
60: 89
61: 89
62: 90
63: 91
64: 91
65: 92
66: 92
67: 92
68: 92
69: 93
70: 93
71: 93
72: 93
73: 93
segment: [6]
vertex id: label
58: 0
59: 2
60: 1
61: 1
62: 1
63: 1
64: 1
65: 1
66: 1
67: 1
68: 1
69: 1
70: 1
71: 1
72: 1
73: 1
74: 1
75: 1
76: 1
77: 1
0: 5
1: 5
2: 5
3: 5
4: 5
5: 5
6: 5
7: 5
8: 5
9: 5
10: 5
11: 5
12: 5
13: 5
14: 5
15: 5
16: 5
17: 5
18: 5
19: 5
20: 5
21: 5
22: 5
23: 5
24: 5
25: 5
26: 5
27: 5
28: 5
29: 5
30: 5
31: 5
32: 5
33: 5
34: 5
35: 5
36: 5
37: 5
38: 5
39: 5
40: 5
41: 5
42: 5
43: 5
44: 5
45: 5
46: 5
47: 5
48: 5
49: 5
50: 5
51: 5
52: 5
53: 5
54: 5
55: 5
56: 5
57: 5
edge from: to
58: 0
58: 1
58: 2
59: 7
60: 9
60: 10
61: 13
62: 14
62: 15
63: 17
64: 13
64: 17
64: 18
65: 19
65: 20
66: 21
66: 22
67: 23
68: 19
68: 25
68: 26
68: 27
69: 29
69: 30
69: 32
70: 35
71: 40
71: 43
72: 39
72: 41
72: 43
72: 44
73: 44
74: 47
74: 49
75: 48
75: 49
75: 53
76: 36
76: 50
76: 53
77: 50
77: 52
3: 58
4: 58
5: 58
6: 58
7: 58
8: 59
9: 59
10: 59
11: 59
12: 60
13: 60
14: 60
15: 61
16: 61
17: 62
18: 62
19: 63
20: 64
21: 64
22: 64
23: 65
24: 65
25: 66
26: 67
27: 67
28: 67
29: 68
30: 68
31: 68
32: 68
33: 69
34: 69
35: 69
36: 69
37: 69
38: 69
39: 70
40: 70
41: 70
42: 70
43: 70
44: 71
45: 72
46: 72
47: 72
48: 73
49: 73
50: 73
51: 73
52: 73
53: 74
54: 75
55: 76
56: 76
57: 77
segment: [7]
vertex id: label
71: 0
72: 2
73: 1
74: 1
75: 1
76: 1
77: 1
78: 1
79: 1
80: 1
81: 1
82: 1
83: 1
84: 1
85: 1
86: 1
87: 1
88: 1
89: 1
90: 1
0: 5
1: 5
2: 5
3: 5
4: 5
5: 5
6: 5
7: 5
8: 5
9: 5
10: 5
11: 5
12: 5
13: 5
14: 5
15: 5
16: 5
17: 5
18: 5
19: 5
20: 5
21: 5
22: 5
23: 5
24: 5
25: 5
26: 5
27: 5
28: 5
29: 5
30: 5
31: 5
32: 5
33: 5
34: 5
35: 5
36: 5
37: 5
38: 5
39: 5
40: 5
41: 5
42: 5
43: 5
44: 5
45: 5
46: 5
47: 5
48: 5
49: 5
50: 5
51: 5
52: 5
53: 5
54: 5
55: 5
56: 5
57: 5
58: 5
59: 5
60: 5
61: 5
62: 5
63: 5
64: 5
65: 5
66: 5
67: 5
68: 5
69: 5
70: 5
edge from: to
71: 0
72: 0
73: 8
74: 11
75: 15
75: 16
75: 17
76: 18
76: 19
77: 19
77: 20
78: 21
79: 25
79: 26
80: 28
81: 8
81: 19
81: 31
81: 32
81: 34
81: 35
82: 33
82: 34
82: 37
83: 40
83: 43
84: 44
85: 45
85: 47
85: 49
85: 50
86: 12
86: 50
86: 51
86: 54
86: 55
87: 52
87: 54
88: 55
88: 57
88: 61
89: 59
89: 60
90: 61
90: 62
1: 71
2: 71
3: 71
4: 72
5: 72
6: 72
7: 72
8: 72
9: 73
10: 73
11: 73
12: 73
13: 74
14: 74
15: 74
16: 74
17: 74
18: 75
19: 75
20: 75
21: 76
22: 77
23: 77
24: 78
25: 78
26: 78
27: 78
28: 78
29: 79
30: 79
31: 79
32: 80
33: 80
34: 80
35: 80
36: 81
37: 81
38: 82
39: 82
40: 82
41: 82
42: 82
43: 82
44: 83
45: 83
46: 83
47: 83
48: 84
49: 84
50: 84
51: 85
52: 85
53: 85
54: 85
55: 85
56: 86
57: 86
58: 86
59: 87
60: 87
61: 87
62: 88
63: 88
64: 88
65: 89
66: 89
67: 90
68: 90
69: 90
70: 90
segment: [8]
vertex id: label
63: 0
64: 2
65: 1
66: 1
67: 1
68: 1
69: 1
70: 1
71: 1
72: 1
73: 1
74: 1
75: 1
76: 1
77: 1
78: 1
79: 1
80: 1
81: 1
82: 1
0: 5
1: 5
2: 5
3: 5
4: 5
5: 5
6: 5
7: 5
8: 5
9: 5
10: 5
11: 5
12: 5
13: 5
14: 5
15: 5
16: 5
17: 5
18: 5
19: 5
20: 5
21: 5
22: 5
23: 5
24: 5
25: 5
26: 5
27: 5
28: 5
29: 5
30: 5
31: 5
32: 5
33: 5
34: 5
35: 5
36: 5
37: 5
38: 5
39: 5
40: 5
41: 5
42: 5
43: 5
44: 5
45: 5
46: 5
47: 5
48: 5
49: 5
50: 5
51: 5
52: 5
53: 5
54: 5
55: 5
56: 5
57: 5
58: 5
59: 5
60: 5
61: 5
62: 5
edge from: to
63: 0
63: 1
63: 2
63: 3
64: 0
64: 1
64: 3
64: 5
65: 2
65: 6
65: 9
66: 11
67: 16
67: 17
67: 18
68: 4
68: 18
68: 19
68: 20
69: 20
69: 21
70: 24
70: 25
70: 27
71: 6
71: 27
71: 28
71: 30
72: 31
73: 34
73: 35
74: 1
75: 40
76: 10
76: 41
76: 42
76: 43
76: 45
76: 46
77: 45
78: 34
78: 46
78: 48
79: 47
79: 49
80: 36
80: 50
81: 52
81: 54
82: 56
4: 63
5: 63
6: 64
7: 64
8: 64
9: 64
10: 65
11: 65
12: 65
13: 66
14: 66
15: 66
16: 66
17: 66
18: 66
19: 67
20: 67
21: 68
22: 68
23: 68
24: 69
25: 69
26: 69
27: 69
28: 70
29: 70
30: 70
31: 71
32: 71
33: 71
34: 71
35: 72
36: 72
37: 72
38: 72
39: 73
40: 73
41: 73
42: 74
43: 74
44: 75
45: 75
46: 75
47: 76
48: 76
49: 77
50: 77
51: 77
52: 78
53: 79
54: 79
55: 80
56: 80
57: 80
58: 80
59: 81
60: 81
61: 82
62: 82
segment: [9]
vertex id: label
48: 0
49: 2
50: 1
51: 1
52: 1
53: 1
54: 1
55: 1
56: 1
57: 1
58: 1
59: 1
60: 1
61: 1
62: 1
63: 1
64: 1
65: 1
66: 1
67: 1
0: 5
1: 5
2: 5
3: 5
4: 5
5: 5
6: 5
7: 5
8: 5
9: 5
10: 5
11: 5
12: 5
13: 5
14: 5
15: 5
16: 5
17: 5
18: 5
19: 5
20: 5
21: 5
22: 5
23: 5
24: 5
25: 5
26: 5
27: 5
28: 5
29: 5
30: 5
31: 5
32: 5
33: 5
34: 5
35: 5
36: 5
37: 5
38: 5
39: 5
40: 5
41: 5
42: 5
43: 5
44: 5
45: 5
46: 5
47: 5
edge from: to
48: 0
49: 0
50: 0
50: 1
50: 2
50: 3
50: 4
50: 5
51: 5
51: 8
52: 9
52: 10
52: 11
53: 13
54: 13
54: 14
54: 15
55: 4
55: 12
55: 16
55: 17
55: 18
56: 18
57: 21
58: 24
59: 25
60: 27
61: 28
62: 29
62: 30
63: 30
63: 31
64: 33
64: 34
65: 1
65: 36
66: 39
67: 41
1: 48
2: 48
3: 49
4: 49
6: 50
7: 50
8: 50
9: 51
10: 51
11: 51
12: 52
13: 52
14: 52
15: 53
16: 54
17: 54
18: 54
19: 55
20: 55
21: 56
22: 56
23: 56
24: 57
25: 57
26: 57
27: 58
28: 59
29: 59
30: 60
31: 60
32: 61
33: 61
34: 62
35: 63
36: 63
37: 63
38: 64
39: 64
40: 64
41: 65
42: 65
43: 66
44: 66
45: 67
46: 67
47: 67
