segment: [0]
vertex id: label
33: 0
34: 2
35: 3
36: 3
37: 3
38: 3
39: 3
40: 3
41: 3
42: 3
0: 5
1: 5
2: 5
3: 5
4: 5
5: 5
6: 5
7: 5
8: 5
9: 5
10: 5
11: 5
12: 5
13: 5
14: 5
15: 5
16: 5
17: 5
18: 5
19: 5
20: 5
21: 5
22: 5
23: 5
24: 5
25: 5
26: 5
27: 5
28: 5
29: 5
30: 5
31: 5
32: 5
edge from: to
33: 0
33: 1
34: 4
34: 5
35: 5
35: 6
36: 7
37: 9
37: 11
38: 11
39: 16
40: 18
40: 22
41: 19
42: 27
42: 30
42: 31
2: 33
3: 33
4: 33
5: 33
6: 34
7: 35
8: 35
9: 35
10: 36
11: 36
12: 37
13: 37
14: 37
15: 38
16: 38
17: 38
18: 38
19: 38
20: 38
21: 39
22: 39
23: 40
24: 40
25: 41
26: 41
27: 41
28: 41
29: 41
30: 41
31: 41
32: 42
segment: [1]
vertex id: label
41: 0
42: 2
43: 3
44: 3
45: 3
46: 3
47: 3
48: 3
49: 3
50: 3
0: 5
1: 5
2: 5
3: 5
4: 5
5: 5
6: 5
7: 5
8: 5
9: 5
10: 5
11: 5
12: 5
13: 5
14: 5
15: 5
16: 5
17: 5
18: 5
19: 5
20: 5
21: 5
22: 5
23: 5
24: 5
25: 5
26: 5
27: 5
28: 5
29: 5
30: 5
31: 5
32: 5
33: 5
34: 5
35: 5
36: 5
37: 5
38: 5
39: 5
40: 5
edge from: to
41: 0
41: 1
41: 2
42: 6
43: 4
43: 7
43: 8
44: 9
45: 14
45: 15
45: 18
46: 17
46: 21
47: 18
48: 23
48: 24
49: 26
49: 27
50: 26
50: 28
50: 35
50: 36
3: 41
4: 41
5: 41
6: 41
7: 41
8: 42
9: 42
10: 43
11: 43
12: 44
13: 44
14: 44
15: 44
16: 44
17: 44
18: 44
19: 45
20: 45
21: 45
22: 46
23: 46
24: 47
25: 47
26: 47
27: 47
28: 47
29: 47
30: 48
31: 48
32: 48
33: 48
34: 49
35: 49
36: 49
37: 50
38: 50
39: 50
40: 50
segment: [2]
vertex id: label
30: 0
31: 2
32: 3
33: 3
34: 3
35: 3
36: 3
37: 3
38: 3
39: 3
0: 5
1: 5
2: 5
3: 5
4: 5
5: 5
6: 5
7: 5
8: 5
9: 5
10: 5
11: 5
12: 5
13: 5
14: 5
15: 5
16: 5
17: 5
18: 5
19: 5
20: 5
21: 5
22: 5
23: 5
24: 5
25: 5
26: 5
27: 5
28: 5
29: 5
edge from: to
30: 0
30: 1
30: 2
31: 3
31: 4
32: 3
32: 6
32: 7
33: 7
33: 8
34: 9
34: 10
34: 11
34: 12
34: 13
35: 13
36: 4
36: 14
36: 17
37: 16
37: 20
38: 19
39: 20
39: 25
3: 30
4: 30
5: 31
6: 31
7: 31
8: 32
9: 32
10: 33
11: 33
12: 33
13: 33
14: 34
15: 34
16: 34
17: 35
18: 36
19: 36
20: 36
21: 37
22: 37
23: 37
24: 37
25: 38
26: 39
27: 39
28: 39
29: 39
segment: [3]
vertex id: label
34: 0
35: 2
36: 3
37: 3
38: 3
39: 3
40: 3
41: 3
42: 3
43: 3
0: 5
1: 5
2: 5
3: 5
4: 5
5: 5
6: 5
7: 5
8: 5
9: 5
10: 5
11: 5
12: 5
13: 5
14: 5
15: 5
16: 5
17: 5
18: 5
19: 5
20: 5
21: 5
22: 5
23: 5
24: 5
25: 5
26: 5
27: 5
28: 5
29: 5
30: 5
31: 5
32: 5
33: 5
edge from: to
34: 0
35: 1
36: 3
37: 3
37: 4
37: 5
38: 9
39: 11
40: 14
41: 5
41: 9
41: 17
41: 21
42: 19
42: 20
43: 23
1: 34
2: 35
3: 35
4: 36
5: 36
6: 37
7: 37
8: 37
9: 37
10: 37
11: 37
12: 38
13: 38
14: 38
15: 39
16: 39
17: 39
18: 39
19: 40
20: 40
21: 40
22: 41
23: 41
24: 41
25: 42
26: 42
27: 42
28: 42
29: 42
30: 43
31: 43
32: 43
33: 43
segment: [4]
vertex id: label
33: 0
34: 2
35: 3
36: 3
37: 3
38: 3
39: 3
40: 3
41: 3
42: 3
0: 5
1: 5
2: 5
3: 5
4: 5
5: 5
6: 5
7: 5
8: 5
9: 5
10: 5
11: 5
12: 5
13: 5
14: 5
15: 5
16: 5
17: 5
18: 5
19: 5
20: 5
21: 5
22: 5
23: 5
24: 5
25: 5
26: 5
27: 5
28: 5
29: 5
30: 5
31: 5
32: 5
edge from: to
33: 0
34: 1
34: 2
35: 1
35: 4
35: 5
35: 6
36: 7
36: 8
36: 9
36: 10
37: 11
37: 12
38: 13
39: 14
40: 16
40: 18
40: 22
41: 21
41: 26
42: 23
1: 33
2: 33
3: 34
4: 34
5: 34
6: 34
7: 35
8: 35
9: 35
10: 35
11: 36
12: 36
13: 36
14: 36
15: 37
16: 37
17: 38
18: 38
19: 39
20: 39
21: 39
22: 39
23: 40
24: 40
25: 40
26: 40
27: 41
28: 41
29: 41
30: 42
31: 42
32: 42
segment: [5]
vertex id: label
26: 0
27: 2
28: 3
29: 3
30: 3
31: 3
32: 3
33: 3
34: 3
35: 3
0: 5
1: 5
2: 5
3: 5
4: 5
5: 5
6: 5
7: 5
8: 5
9: 5
10: 5
11: 5
12: 5
13: 5
14: 5
15: 5
16: 5
17: 5
18: 5
19: 5
20: 5
21: 5
22: 5
23: 5
24: 5
25: 5
edge from: to
26: 0
26: 1
27: 3
27: 4
27: 5
28: 5
29: 7
30: 9
30: 11
31: 11
31: 12
32: 17
33: 15
33: 16
34: 16
34: 20
35: 18
35: 22
2: 26
3: 26
4: 26
5: 26
6: 27
7: 28
8: 28
9: 28
10: 29
11: 29
12: 30
13: 30
14: 30
15: 31
16: 31
17: 31
18: 32
19: 32
20: 33
21: 34
22: 34
23: 35
24: 35
25: 35
segment: [6]
vertex id: label
34: 0
35: 2
36: 3
37: 3
38: 3
39: 3
40: 3
41: 3
42: 3
43: 3
0: 5
1: 5
2: 5
3: 5
4: 5
5: 5
6: 5
7: 5
8: 5
9: 5
10: 5
11: 5
12: 5
13: 5
14: 5
15: 5
16: 5
17: 5
18: 5
19: 5
20: 5
21: 5
22: 5
23: 5
24: 5
25: 5
26: 5
27: 5
28: 5
29: 5
30: 5
31: 5
32: 5
33: 5
edge from: to
34: 0
34: 1
34: 2
35: 5
36: 7
36: 8
37: 10
38: 7
38: 13
39: 15
40: 18
40: 22
41: 18
42: 21
43: 27
43: 31
3: 34
4: 34
5: 34
6: 34
7: 35
8: 35
9: 35
10: 36
11: 36
12: 36
13: 37
14: 37
15: 37
16: 37
17: 38
18: 38
19: 38
20: 39
21: 39
22: 39
23: 40
24: 41
25: 41
26: 41
27: 41
28: 42
29: 42
30: 42
31: 42
32: 43
33: 43
segment: [7]
vertex id: label
32: 0
33: 2
34: 3
35: 3
36: 3
37: 3
38: 3
39: 3
40: 3
41: 3
0: 5
1: 5
2: 5
3: 5
4: 5
5: 5
6: 5
7: 5
8: 5
9: 5
10: 5
11: 5
12: 5
13: 5
14: 5
15: 5
16: 5
17: 5
18: 5
19: 5
20: 5
21: 5
22: 5
23: 5
24: 5
25: 5
26: 5
27: 5
28: 5
29: 5
30: 5
31: 5
edge from: to
32: 0
32: 1
32: 2
33: 3
33: 4
34: 6
35: 7
35: 8
36: 9
36: 10
36: 12
37: 11
37: 12
38: 16
38: 19
38: 20
39: 17
39: 21
40: 19
40: 20
40: 24
41: 26
3: 32
4: 32
5: 33
6: 33
7: 33
8: 34
9: 34
10: 35
11: 35
12: 35
13: 36
14: 36
15: 37
16: 37
17: 37
18: 37
19: 37
20: 37
21: 38
22: 39
23: 39
24: 39
25: 40
26: 40
27: 41
28: 41
29: 41
30: 41
31: 41
segment: [8]
vertex id: label
30: 0
31: 2
32: 3
33: 3
34: 3
35: 3
36: 3
37: 3
38: 3
39: 3
0: 5
1: 5
2: 5
3: 5
4: 5
5: 5
6: 5
7: 5
8: 5
9: 5
10: 5
11: 5
12: 5
13: 5
14: 5
15: 5
16: 5
17: 5
18: 5
19: 5
20: 5
21: 5
22: 5
23: 5
24: 5
25: 5
26: 5
27: 5
28: 5
29: 5
edge from: to
30: 0
30: 1
30: 2
30: 3
31: 3
31: 4
32: 6
33: 10
33: 11
34: 14
35: 16
36: 18
36: 22
37: 20
38: 19
38: 21
38: 23
38: 26
39: 21
39: 22
4: 30
5: 31
6: 31
7: 31
8: 32
9: 32
10: 32
11: 32
12: 32
13: 32
14: 33
15: 33
16: 33
17: 33
18: 33
19: 34
20: 34
21: 35
22: 35
23: 36
24: 36
25: 36
26: 37
27: 38
28: 39
29: 39
segment: [9]
vertex id: label
28: 0
29: 2
30: 3
31: 3
32: 3
33: 3
34: 3
35: 3
36: 3
37: 3
0: 5
1: 5
2: 5
3: 5
4: 5
5: 5
6: 5
7: 5
8: 5
9: 5
10: 5
11: 5
12: 5
13: 5
14: 5
15: 5
16: 5
17: 5
18: 5
19: 5
20: 5
21: 5
22: 5
23: 5
24: 5
25: 5
26: 5
27: 5
edge from: to
28: 0
29: 2
30: 3
31: 3
31: 6
31: 7
32: 7
33: 11
33: 12
34: 14
35: 22
36: 19
37: 21
37: 26
1: 28
2: 28
3: 29
4: 29
5: 30
6: 30
7: 30
8: 31
9: 31
10: 32
11: 32
12: 32
13: 32
14: 32
15: 33
16: 33
17: 33
18: 33
19: 34
20: 34
21: 34
22: 34
23: 35
24: 35
25: 36
26: 36
27: 37
