segment: [0]
vertex id: label
64: 0
65: 1
66: 1
67: 1
68: 1
69: 1
70: 1
71: 1
72: 1
73: 1
74: 1
75: 1
76: 1
77: 1
78: 1
79: 1
80: 1
81: 1
82: 1
83: 1
0: 5
1: 5
2: 5
3: 5
4: 5
5: 5
6: 5
7: 5
8: 5
9: 5
10: 5
11: 5
12: 5
13: 5
14: 5
15: 5
16: 5
17: 5
18: 5
19: 5
20: 5
21: 5
22: 5
23: 5
24: 5
25: 5
26: 5
27: 5
28: 5
29: 5
30: 5
31: 5
32: 5
33: 5
34: 5
35: 5
36: 5
37: 5
38: 5
39: 5
40: 5
41: 5
42: 5
43: 5
44: 5
45: 5
46: 5
47: 5
48: 5
49: 5
50: 5
51: 5
52: 5
53: 5
54: 5
55: 5
56: 5
57: 5
58: 5
59: 5
60: 5
61: 5
62: 5
63: 5
edge from: to
64: 0
64: 1
64: 2
65: 2
66: 3
67: 5
68: 8
68: 10
68: 11
69: 8
69: 14
70: 12
71: 3
71: 19
71: 22
72: 23
72: 26
73: 22
73: 25
73: 29
74: 23
74: 27
74: 31
75: 19
75: 30
75: 33
75: 34
76: 22
77: 25
77: 31
77: 37
77: 42
78: 46
79: 29
79: 49
80: 42
80: 49
80: 50
80: 55
80: 57
81: 32
81: 58
82: 8
82: 52
82: 57
82: 60
83: 62
3: 64
4: 65
5: 65
6: 66
7: 66
8: 66
9: 67
10: 67
11: 67
12: 68
13: 68
14: 68
15: 69
16: 69
17: 69
18: 69
19: 69
20: 69
21: 70
22: 70
23: 71
24: 71
25: 71
26: 71
27: 72
28: 72
29: 72
30: 73
31: 73
32: 74
33: 74
34: 74
35: 75
36: 75
37: 75
38: 76
39: 76
40: 76
41: 76
42: 76
43: 77
44: 77
45: 77
46: 77
47: 78
48: 78
49: 78
50: 79
51: 79
52: 79
53: 79
54: 79
55: 79
56: 79
57: 79
58: 80
59: 81
60: 81
61: 82
62: 82
63: 83
segment: [1]
vertex id: label
52: 0
53: 1
54: 1
55: 1
56: 1
57: 1
58: 1
59: 1
60: 1
61: 1
62: 1
63: 1
64: 1
65: 1
66: 1
67: 1
68: 1
69: 1
70: 1
71: 1
0: 5
1: 5
2: 5
3: 5
4: 5
5: 5
6: 5
7: 5
8: 5
9: 5
10: 5
11: 5
12: 5
13: 5
14: 5
15: 5
16: 5
17: 5
18: 5
19: 5
20: 5
21: 5
22: 5
23: 5
24: 5
25: 5
26: 5
27: 5
28: 5
29: 5
30: 5
31: 5
32: 5
33: 5
34: 5
35: 5
36: 5
37: 5
38: 5
39: 5
40: 5
41: 5
42: 5
43: 5
44: 5
45: 5
46: 5
47: 5
48: 5
49: 5
50: 5
51: 5
edge from: to
52: 0
52: 1
52: 2
53: 3
54: 4
54: 6
54: 7
55: 8
55: 10
55: 11
56: 14
57: 9
58: 16
58: 18
58: 21
59: 22
60: 14
60: 15
60: 19
60: 22
60: 25
61: 23
61: 26
62: 27
63: 25
63: 29
64: 29
64: 33
65: 34
66: 22
67: 36
67: 41
68: 25
68: 42
69: 26
69: 33
69: 38
69: 43
69: 44
70: 47
71: 29
71: 43
71: 47
71: 48
71: 49
3: 52
4: 52
5: 52
6: 53
7: 53
8: 54
9: 54
10: 54
11: 54
12: 55
13: 55
14: 55
15: 56
16: 57
17: 57
18: 57
19: 57
20: 57
21: 57
22: 58
23: 59
24: 59
25: 59
26: 60
27: 61
28: 62
29: 62
30: 63
31: 63
32: 63
33: 63
34: 64
35: 65
36: 65
37: 65
38: 66
39: 66
40: 66
41: 66
42: 67
43: 68
44: 68
45: 69
46: 69
47: 69
48: 70
49: 70
50: 71
51: 71
segment: [2]
vertex id: label
66: 0
67: 1
68: 1
69: 1
70: 1
71: 1
72: 1
73: 1
74: 1
75: 1
76: 1
77: 1
78: 1
79: 1
80: 1
81: 1
82: 1
83: 1
84: 1
85: 1
0: 5
1: 5
2: 5
3: 5
4: 5
5: 5
6: 5
7: 5
8: 5
9: 5
10: 5
11: 5
12: 5
13: 5
14: 5
15: 5
16: 5
17: 5
18: 5
19: 5
20: 5
21: 5
22: 5
23: 5
24: 5
25: 5
26: 5
27: 5
28: 5
29: 5
30: 5
31: 5
32: 5
33: 5
34: 5
35: 5
36: 5
37: 5
38: 5
39: 5
40: 5
41: 5
42: 5
43: 5
44: 5
45: 5
46: 5
47: 5
48: 5
49: 5
50: 5
51: 5
52: 5
53: 5
54: 5
55: 5
56: 5
57: 5
58: 5
59: 5
60: 5
61: 5
62: 5
63: 5
64: 5
65: 5
edge from: to
66: 0
66: 1
66: 2
67: 3
67: 4
68: 4
68: 6
69: 9
70: 7
70: 12
71: 13
71: 17
72: 23
73: 14
73: 15
74: 28
75: 29
75: 32
75: 33
76: 28
76: 38
77: 41
78: 43
79: 45
80: 44
80: 51
81: 53
82: 32
83: 31
83: 33
83: 49
83: 56
84: 52
84: 60
85: 46
85: 54
85: 62
3: 66
4: 66
5: 67
6: 67
7: 68
8: 68
9: 68
10: 69
11: 69
12: 69
13: 70
14: 70
15: 70
16: 70
17: 70
18: 71
19: 71
20: 71
21: 71
22: 71
23: 71
24: 72
25: 72
26: 73
27: 73
28: 73
29: 74
30: 74
31: 74
32: 74
33: 74
34: 75
35: 75
36: 75
37: 75
38: 75
39: 76
40: 76
41: 76
42: 77
43: 77
44: 78
45: 78
46: 79
47: 79
48: 79
49: 79
50: 79
51: 79
52: 80
53: 80
54: 81
55: 82
56: 82
57: 83
58: 83
59: 83
60: 83
61: 84
62: 84
63: 85
64: 85
65: 85
segment: [3]
vertex id: label
62: 0
63: 1
64: 1
65: 1
66: 1
67: 1
68: 1
69: 1
70: 1
71: 1
72: 1
73: 1
74: 1
75: 1
76: 1
77: 1
78: 1
79: 1
80: 1
81: 1
0: 5
1: 5
2: 5
3: 5
4: 5
5: 5
6: 5
7: 5
8: 5
9: 5
10: 5
11: 5
12: 5
13: 5
14: 5
15: 5
16: 5
17: 5
18: 5
19: 5
20: 5
21: 5
22: 5
23: 5
24: 5
25: 5
26: 5
27: 5
28: 5
29: 5
30: 5
31: 5
32: 5
33: 5
34: 5
35: 5
36: 5
37: 5
38: 5
39: 5
40: 5
41: 5
42: 5
43: 5
44: 5
45: 5
46: 5
47: 5
48: 5
49: 5
50: 5
51: 5
52: 5
53: 5
54: 5
55: 5
56: 5
57: 5
58: 5
59: 5
60: 5
61: 5
edge from: to
62: 0
62: 1
63: 2
64: 4
65: 4
65: 7
66: 10
66: 11
67: 13
67: 17
68: 12
69: 22
70: 18
70: 24
71: 27
72: 18
72: 30
73: 19
74: 29
74: 33
75: 22
75: 32
75: 37
76: 30
76: 35
76: 39
76: 40
77: 32
77: 37
77: 42
77: 43
78: 26
78: 35
78: 41
78: 46
78: 47
79: 51
80: 32
80: 54
81: 58
2: 62
3: 62
4: 63
5: 64
6: 64
7: 64
8: 65
9: 65
10: 65
11: 65
12: 66
13: 66
14: 66
15: 66
16: 66
17: 66
18: 67
19: 67
20: 67
21: 68
22: 68
23: 69
24: 69
25: 70
26: 70
27: 70
28: 71
29: 71
30: 71
31: 72
32: 72
33: 73
34: 74
35: 74
36: 74
37: 74
38: 75
39: 75
40: 75
41: 76
42: 76
43: 76
44: 77
45: 77
46: 77
47: 77
48: 78
49: 78
50: 78
51: 78
52: 79
53: 79
54: 79
55: 80
56: 80
57: 80
58: 80
59: 81
60: 81
61: 81
segment: [4]
vertex id: label
64: 0
65: 1
66: 1
67: 1
68: 1
69: 1
70: 1
71: 1
72: 1
73: 1
74: 1
75: 1
76: 1
77: 1
78: 1
79: 1
80: 1
81: 1
82: 1
83: 1
0: 5
1: 5
2: 5
3: 5
4: 5
5: 5
6: 5
7: 5
8: 5
9: 5
10: 5
11: 5
12: 5
13: 5
14: 5
15: 5
16: 5
17: 5
18: 5
19: 5
20: 5
21: 5
22: 5
23: 5
24: 5
25: 5
26: 5
27: 5
28: 5
29: 5
30: 5
31: 5
32: 5
33: 5
34: 5
35: 5
36: 5
37: 5
38: 5
39: 5
40: 5
41: 5
42: 5
43: 5
44: 5
45: 5
46: 5
47: 5
48: 5
49: 5
50: 5
51: 5
52: 5
53: 5
54: 5
55: 5
56: 5
57: 5
58: 5
59: 5
60: 5
61: 5
62: 5
63: 5
edge from: to
64: 0
65: 1
65: 2
66: 4
66: 6
67: 5
68: 8
68: 10
68: 13
69: 13
69: 17
70: 21
71: 15
72: 25
72: 29
73: 18
74: 19
75: 33
76: 28
76: 38
77: 25
77: 42
78: 46
79: 48
80: 52
81: 48
81: 55
82: 44
82: 51
82: 57
82: 59
83: 36
83: 61
1: 64
2: 64
3: 65
4: 65
5: 65
6: 65
7: 66
8: 66
9: 67
10: 67
11: 67
12: 67
13: 67
14: 68
15: 68
16: 68
17: 68
18: 69
19: 69
20: 69
21: 69
22: 70
23: 70
24: 70
25: 70
26: 71
27: 71
28: 71
29: 71
30: 72
31: 73
32: 73
33: 74
34: 75
35: 75
36: 75
37: 75
38: 75
39: 76
40: 76
41: 76
42: 76
43: 77
44: 77
45: 77
46: 77
47: 78
48: 78
49: 79
50: 79
51: 79
52: 79
53: 80
54: 80
55: 80
56: 81
57: 81
58: 81
59: 81
60: 82
61: 82
62: 83
63: 83
segment: [5]
vertex id: label
69: 0
70: 1
71: 1
72: 1
73: 1
74: 1
75: 1
76: 1
77: 1
78: 1
79: 1
80: 1
81: 1
82: 1
83: 1
84: 1
85: 1
86: 1
87: 1
88: 1
0: 5
1: 5
2: 5
3: 5
4: 5
5: 5
6: 5
7: 5
8: 5
9: 5
10: 5
11: 5
12: 5
13: 5
14: 5
15: 5
16: 5
17: 5
18: 5
19: 5
20: 5
21: 5
22: 5
23: 5
24: 5
25: 5
26: 5
27: 5
28: 5
29: 5
30: 5
31: 5
32: 5
33: 5
34: 5
35: 5
36: 5
37: 5
38: 5
39: 5
40: 5
41: 5
42: 5
43: 5
44: 5
45: 5
46: 5
47: 5
48: 5
49: 5
50: 5
51: 5
52: 5
53: 5
54: 5
55: 5
56: 5
57: 5
58: 5
59: 5
60: 5
61: 5
62: 5
63: 5
64: 5
65: 5
66: 5
67: 5
68: 5
edge from: to
69: 0
69: 1
70: 2
71: 4
71: 7
72: 6
73: 9
74: 13
74: 15
74: 16
74: 17
75: 21
76: 3
76: 16
76: 19
76: 21
76: 22
77: 26
78: 23
78: 31
79: 33
80: 36
81: 25
82: 26
82: 41
82: 47
83: 39
83: 46
83: 52
83: 53
84: 31
84: 33
85: 52
85: 60
86: 36
86: 45
86: 53
86: 58
86: 59
86: 61
87: 56
87: 64
88: 39
2: 69
3: 69
4: 70
5: 70
6: 70
7: 70
8: 71
9: 71
10: 71
11: 72
12: 72
13: 72
14: 72
15: 72
16: 73
17: 73
18: 74
19: 74
20: 74
21: 74
22: 75
23: 76
24: 76
25: 76
26: 76
27: 77
28: 77
29: 77
30: 77
31: 77
32: 78
33: 78
34: 79
35: 79
36: 79
37: 80
38: 80
39: 80
40: 80
41: 80
42: 80
43: 81
44: 81
45: 81
46: 81
47: 81
48: 82
49: 82
50: 82
51: 82
52: 82
53: 82
54: 83
55: 83
56: 83
57: 84
58: 84
59: 84
60: 84
61: 85
62: 86
63: 86
64: 86
65: 87
66: 87
67: 88
68: 88
segment: [6]
vertex id: label
57: 0
58: 1
59: 1
60: 1
61: 1
62: 1
63: 1
64: 1
65: 1
66: 1
67: 1
68: 1
69: 1
70: 1
71: 1
72: 1
73: 1
74: 1
75: 1
76: 1
0: 5
1: 5
2: 5
3: 5
4: 5
5: 5
6: 5
7: 5
8: 5
9: 5
10: 5
11: 5
12: 5
13: 5
14: 5
15: 5
16: 5
17: 5
18: 5
19: 5
20: 5
21: 5
22: 5
23: 5
24: 5
25: 5
26: 5
27: 5
28: 5
29: 5
30: 5
31: 5
32: 5
33: 5
34: 5
35: 5
36: 5
37: 5
38: 5
39: 5
40: 5
41: 5
42: 5
43: 5
44: 5
45: 5
46: 5
47: 5
48: 5
49: 5
50: 5
51: 5
52: 5
53: 5
54: 5
55: 5
56: 5
edge from: to
57: 0
58: 2
59: 2
59: 3
59: 4
60: 9
61: 6
62: 1
62: 7
62: 8
62: 11
62: 12
62: 13
62: 14
63: 9
63: 15
64: 13
64: 15
64: 17
65: 16
65: 18
65: 21
66: 13
66: 23
67: 15
68: 21
68: 28
69: 29
70: 23
70: 31
71: 19
71: 34
72: 28
72: 33
72: 38
73: 25
73: 39
73: 45
74: 29
74: 43
74: 49
75: 45
75: 52
76: 48
76: 55
1: 57
2: 57
3: 58
4: 58
5: 59
6: 59
7: 59
8: 59
9: 59
10: 60
11: 61
12: 61
13: 61
14: 61
15: 62
16: 63
17: 63
18: 64
19: 64
20: 64
21: 64
22: 65
23: 65
24: 66
25: 66
26: 67
27: 67
28: 67
29: 68
30: 69
31: 69
32: 70
33: 70
34: 70
35: 71
36: 71
37: 71
38: 71
39: 72
40: 72
41: 72
42: 72
43: 72
44: 72
45: 72
46: 73
47: 73
48: 73
49: 73
50: 74
51: 74
52: 74
53: 75
54: 75
55: 75
56: 76
segment: [7]
vertex id: label
55: 0
56: 1
57: 1
58: 1
59: 1
60: 1
61: 1
62: 1
63: 1
64: 1
65: 1
66: 1
67: 1
68: 1
69: 1
70: 1
71: 1
72: 1
73: 1
74: 1
0: 5
1: 5
2: 5
3: 5
4: 5
5: 5
6: 5
7: 5
8: 5
9: 5
10: 5
11: 5
12: 5
13: 5
14: 5
15: 5
16: 5
17: 5
18: 5
19: 5
20: 5
21: 5
22: 5
23: 5
24: 5
25: 5
26: 5
27: 5
28: 5
29: 5
30: 5
31: 5
32: 5
33: 5
34: 5
35: 5
36: 5
37: 5
38: 5
39: 5
40: 5
41: 5
42: 5
43: 5
44: 5
45: 5
46: 5
47: 5
48: 5
49: 5
50: 5
51: 5
52: 5
53: 5
54: 5
edge from: to
55: 0
56: 2
57: 3
58: 5
59: 7
59: 8
59: 9
60: 10
60: 11
61: 9
61: 11
61: 13
61: 15
62: 9
62: 12
62: 16
63: 12
63: 20
64: 23
65: 15
66: 21
66: 25
66: 28
67: 22
67: 25
67: 29
68: 18
68: 30
69: 26
69: 31
69: 35
70: 22
71: 30
71: 35
71: 39
71: 40
72: 26
73: 29
73: 42
73: 43
73: 46
73: 47
73: 48
73: 49
74: 52
1: 55
2: 55
3: 56
4: 56
5: 56
6: 57
7: 57
8: 57
9: 58
10: 59
11: 59
12: 60
13: 60
14: 60
15: 60
16: 61
17: 62
18: 62
19: 62
20: 62
21: 63
22: 63
23: 63
24: 64
25: 64
26: 65
27: 65
28: 65
29: 66
30: 67
31: 68
32: 68
33: 68
34: 68
35: 68
36: 69
37: 69
38: 70
39: 70
40: 70
41: 71
42: 71
43: 71
44: 71
45: 72
46: 72
47: 72
48: 72
49: 72
50: 73
51: 73
52: 73
53: 74
54: 74
segment: [8]
vertex id: label
57: 0
58: 1
59: 1
60: 1
61: 1
62: 1
63: 1
64: 1
65: 1
66: 1
67: 1
68: 1
69: 1
70: 1
71: 1
72: 1
73: 1
74: 1
75: 1
76: 1
0: 5
1: 5
2: 5
3: 5
4: 5
5: 5
6: 5
7: 5
8: 5
9: 5
10: 5
11: 5
12: 5
13: 5
14: 5
15: 5
16: 5
17: 5
18: 5
19: 5
20: 5
21: 5
22: 5
23: 5
24: 5
25: 5
26: 5
27: 5
28: 5
29: 5
30: 5
31: 5
32: 5
33: 5
34: 5
35: 5
36: 5
37: 5
38: 5
39: 5
40: 5
41: 5
42: 5
43: 5
44: 5
45: 5
46: 5
47: 5
48: 5
49: 5
50: 5
51: 5
52: 5
53: 5
54: 5
55: 5
56: 5
edge from: to
57: 0
58: 0
58: 1
58: 2
59: 3
60: 4
60: 6
60: 7
61: 9
62: 8
62: 13
63: 9
63: 12
63: 14
63: 16
64: 19
64: 22
65: 18
65: 21
65: 24
66: 23
66: 25
66: 26
67: 25
67: 29
68: 16
68: 29
68: 31
68: 32
68: 33
69: 34
70: 22
70: 32
70: 37
71: 39
72: 26
73: 34
73: 46
74: 37
74: 50
75: 38
75: 44
75: 49
75: 51
76: 53
1: 57
3: 58
4: 58
5: 58
6: 59
7: 59
8: 60
9: 60
10: 61
11: 61
12: 61
13: 61
14: 62
15: 62
16: 62
17: 63
18: 63
19: 63
20: 63
21: 63
22: 63
23: 64
24: 64
25: 65
26: 65
27: 66
28: 66
29: 66
30: 67
31: 67
32: 67
33: 67
34: 68
35: 69
36: 69
37: 69
38: 70
39: 70
40: 71
41: 71
42: 71
43: 71
44: 71
45: 72
46: 72
47: 73
48: 73
49: 73
50: 73
51: 74
52: 75
53: 75
54: 76
55: 76
56: 76
segment: [9]
vertex id: label
60: 0
61: 1
62: 1
63: 1
64: 1
65: 1
66: 1
67: 1
68: 1
69: 1
70: 1
71: 1
72: 1
73: 1
74: 1
75: 1
76: 1
77: 1
78: 1
79: 1
0: 5
1: 5
2: 5
3: 5
4: 5
5: 5
6: 5
7: 5
8: 5
9: 5
10: 5
11: 5
12: 5
13: 5
14: 5
15: 5
16: 5
17: 5
18: 5
19: 5
20: 5
21: 5
22: 5
23: 5
24: 5
25: 5
26: 5
27: 5
28: 5
29: 5
30: 5
31: 5
32: 5
33: 5
34: 5
35: 5
36: 5
37: 5
38: 5
39: 5
40: 5
41: 5
42: 5
43: 5
44: 5
45: 5
46: 5
47: 5
48: 5
49: 5
50: 5
51: 5
52: 5
53: 5
54: 5
55: 5
56: 5
57: 5
58: 5
59: 5
edge from: to
60: 0
61: 2
62: 4
63: 4
63: 6
63: 7
64: 7
64: 12
65: 8
65: 12
65: 14
66: 16
67: 22
68: 15
69: 15
69: 27
70: 28
71: 19
72: 19
72: 34
73: 28
73: 33
73: 38
74: 32
74: 43
75: 34
75: 40
75: 46
76: 48
77: 50
78: 32
78: 54
79: 31
79: 33
79: 56
1: 60
2: 60
3: 61
4: 61
5: 62
6: 62
7: 62
8: 63
9: 63
10: 63
11: 63
12: 63
13: 64
14: 64
15: 65
16: 65
17: 66
18: 66
19: 66
20: 66
21: 66
22: 66
23: 67
24: 67
25: 67
26: 68
27: 68
28: 69
29: 70
30: 70
31: 70
32: 70
33: 71
34: 71
35: 72
36: 72
37: 72
38: 72
39: 73
40: 73
41: 73
42: 73
43: 73
44: 74
45: 74
46: 74
47: 75
48: 75
49: 76
50: 76
51: 77
52: 77
53: 77
54: 77
55: 78
56: 78
57: 79
58: 79
59: 79
