segment: [0]
vertex id: label
69: 0
70: 1
71: 4
72: 3
73: 3
74: 3
75: 3
76: 3
77: 3
78: 3
79: 3
80: 3
81: 3
82: 3
83: 3
84: 3
85: 3
86: 3
87: 3
88: 3
0: 5
1: 5
2: 5
3: 5
4: 5
5: 5
6: 5
7: 5
8: 5
9: 5
10: 5
11: 5
12: 5
13: 5
14: 5
15: 5
16: 5
17: 5
18: 5
19: 5
20: 5
21: 5
22: 5
23: 5
24: 5
25: 5
26: 5
27: 5
28: 5
29: 5
30: 5
31: 5
32: 5
33: 5
34: 5
35: 5
36: 5
37: 5
38: 5
39: 5
40: 5
41: 5
42: 5
43: 5
44: 5
45: 5
46: 5
47: 5
48: 5
49: 5
50: 5
51: 5
52: 5
53: 5
54: 5
55: 5
56: 5
57: 5
58: 5
59: 5
60: 5
61: 5
62: 5
63: 5
64: 5
65: 5
66: 5
67: 5
68: 5
edge from: to
69: 0
69: 1
70: 0
70: 2
71: 9
71: 10
72: 13
73: 15
74: 17
74: 18
75: 18
75: 19
75: 21
76: 22
76: 24
76: 26
77: 25
77: 27
77: 30
78: 33
79: 1
79: 36
79: 39
80: 42
81: 1
81: 42
81: 45
82: 25
82: 40
82: 45
82: 48
83: 48
83: 49
83: 51
84: 22
85: 53
85: 57
86: 58
87: 24
87: 56
88: 53
88: 60
88: 64
2: 69
3: 69
4: 69
5: 69
6: 70
7: 70
8: 70
9: 70
10: 70
11: 71
12: 71
13: 71
14: 72
15: 72
16: 73
17: 73
18: 73
19: 74
20: 74
21: 74
22: 75
23: 75
24: 75
25: 75
26: 75
27: 76
28: 76
29: 76
30: 76
31: 77
32: 77
33: 77
34: 78
35: 78
36: 78
37: 78
38: 78
39: 78
40: 79
41: 79
42: 79
43: 80
44: 80
45: 80
46: 81
47: 81
48: 81
49: 82
50: 82
51: 82
52: 83
53: 83
54: 83
55: 83
56: 84
57: 84
58: 85
59: 86
60: 86
61: 87
62: 87
63: 87
64: 87
65: 88
66: 88
67: 88
68: 88
segment: [1]
vertex id: label
66: 0
67: 1
68: 4
69: 3
70: 3
71: 3
72: 3
73: 3
74: 3
75: 3
76: 3
77: 3
78: 3
79: 3
80: 3
81: 3
82: 3
83: 3
84: 3
85: 3
0: 5
1: 5
2: 5
3: 5
4: 5
5: 5
6: 5
7: 5
8: 5
9: 5
10: 5
11: 5
12: 5
13: 5
14: 5
15: 5
16: 5
17: 5
18: 5
19: 5
20: 5
21: 5
22: 5
23: 5
24: 5
25: 5
26: 5
27: 5
28: 5
29: 5
30: 5
31: 5
32: 5
33: 5
34: 5
35: 5
36: 5
37: 5
38: 5
39: 5
40: 5
41: 5
42: 5
43: 5
44: 5
45: 5
46: 5
47: 5
48: 5
49: 5
50: 5
51: 5
52: 5
53: 5
54: 5
55: 5
56: 5
57: 5
58: 5
59: 5
60: 5
61: 5
62: 5
63: 5
64: 5
65: 5
edge from: to
66: 0
66: 1
67: 2
68: 5
69: 12
69: 13
69: 14
70: 16
71: 7
71: 16
72: 17
72: 18
73: 19
73: 21
74: 24
75: 26
75: 28
76: 13
76: 29
77: 33
77: 36
78: 38
78: 41
79: 43
80: 46
81: 46
81: 49
82: 27
82: 43
82: 49
82: 52
83: 56
84: 24
84: 50
84: 56
85: 53
85: 60
85: 64
2: 66
3: 66
4: 66
5: 66
6: 67
7: 67
8: 67
9: 67
10: 67
11: 67
12: 67
13: 68
14: 68
15: 69
16: 69
17: 70
18: 71
19: 72
20: 72
21: 72
22: 73
23: 73
24: 73
25: 74
26: 74
27: 74
28: 74
29: 75
30: 75
31: 75
32: 75
33: 76
34: 76
35: 76
36: 76
37: 77
38: 77
39: 77
40: 77
41: 77
42: 78
43: 78
44: 79
45: 79
46: 79
47: 80
48: 80
49: 80
50: 81
51: 81
52: 81
53: 82
54: 82
55: 82
56: 82
57: 83
58: 83
59: 83
60: 83
61: 84
62: 84
63: 84
64: 84
65: 85
segment: [2]
vertex id: label
68: 0
69: 1
70: 4
71: 1
72: 4
73: 3
74: 3
75: 2
76: 3
77: 3
78: 3
79: 3
80: 3
81: 3
82: 3
83: 3
84: 3
85: 3
86: 3
87: 3
0: 5
1: 5
2: 5
3: 5
4: 5
5: 5
6: 5
7: 5
8: 5
9: 5
10: 5
11: 5
12: 5
13: 5
14: 5
15: 5
16: 5
17: 5
18: 5
19: 5
20: 5
21: 5
22: 5
23: 5
24: 5
25: 5
26: 5
27: 5
28: 5
29: 5
30: 5
31: 5
32: 5
33: 5
34: 5
35: 5
36: 5
37: 5
38: 5
39: 5
40: 5
41: 5
42: 5
43: 5
44: 5
45: 5
46: 5
47: 5
48: 5
49: 5
50: 5
51: 5
52: 5
53: 5
54: 5
55: 5
56: 5
57: 5
58: 5
59: 5
60: 5
61: 5
62: 5
63: 5
64: 5
65: 5
66: 5
67: 5
edge from: to
68: 0
68: 1
69: 7
69: 8
70: 8
70: 9
70: 10
71: 11
71: 12
71: 13
72: 16
73: 7
73: 9
73: 14
73: 16
74: 18
74: 19
74: 21
75: 25
76: 24
76: 26
77: 27
77: 29
78: 31
79: 33
80: 35
81: 1
81: 39
82: 41
82: 44
83: 49
84: 22
84: 46
84: 51
85: 24
85: 45
85: 50
85: 56
85: 60
86: 58
86: 62
87: 53
87: 60
87: 64
2: 68
3: 68
4: 68
5: 68
6: 68
7: 68
8: 68
9: 69
10: 69
11: 70
12: 70
13: 70
14: 71
15: 71
16: 71
17: 72
18: 73
19: 73
20: 73
21: 73
22: 74
23: 74
24: 74
25: 74
26: 75
27: 76
28: 76
29: 76
30: 77
31: 77
32: 78
33: 78
34: 79
35: 79
36: 80
37: 80
38: 80
39: 80
40: 81
41: 81
42: 81
43: 81
44: 81
45: 82
46: 82
47: 82
48: 82
49: 82
50: 83
51: 83
52: 83
53: 83
54: 83
55: 83
56: 84
57: 84
58: 84
59: 84
60: 84
61: 85
62: 85
63: 86
64: 86
65: 87
66: 87
67: 87
segment: [3]
vertex id: label
63: 0
64: 1
65: 4
66: 3
67: 3
68: 3
69: 3
70: 3
71: 3
72: 3
73: 3
74: 3
75: 3
76: 3
77: 3
78: 3
79: 3
80: 3
81: 3
82: 3
0: 5
1: 5
2: 5
3: 5
4: 5
5: 5
6: 5
7: 5
8: 5
9: 5
10: 5
11: 5
12: 5
13: 5
14: 5
15: 5
16: 5
17: 5
18: 5
19: 5
20: 5
21: 5
22: 5
23: 5
24: 5
25: 5
26: 5
27: 5
28: 5
29: 5
30: 5
31: 5
32: 5
33: 5
34: 5
35: 5
36: 5
37: 5
38: 5
39: 5
40: 5
41: 5
42: 5
43: 5
44: 5
45: 5
46: 5
47: 5
48: 5
49: 5
50: 5
51: 5
52: 5
53: 5
54: 5
55: 5
56: 5
57: 5
58: 5
59: 5
60: 5
61: 5
62: 5
edge from: to
63: 0
63: 1
63: 2
64: 0
64: 3
65: 6
66: 8
67: 13
68: 18
69: 9
70: 24
71: 24
71: 26
72: 30
73: 13
73: 29
74: 30
74: 33
74: 36
75: 39
76: 41
77: 39
77: 44
77: 45
77: 46
77: 47
78: 37
78: 41
78: 46
78: 47
78: 49
79: 48
79: 51
80: 54
81: 41
81: 53
81: 55
81: 56
81: 57
82: 24
82: 56
3: 63
4: 64
5: 64
6: 64
7: 65
8: 65
9: 66
10: 66
11: 66
12: 66
13: 66
14: 67
15: 67
16: 67
17: 67
18: 67
19: 68
20: 68
21: 68
22: 68
23: 69
24: 69
25: 70
26: 70
27: 71
28: 71
29: 71
30: 71
31: 72
32: 72
33: 73
34: 73
35: 73
36: 73
37: 74
38: 74
39: 74
40: 75
41: 75
42: 76
43: 76
44: 76
45: 76
46: 76
47: 76
48: 77
49: 77
50: 78
51: 78
52: 79
53: 79
54: 79
55: 80
56: 80
57: 80
58: 81
59: 81
60: 81
61: 82
62: 82
segment: [4]
vertex id: label
62: 0
63: 1
64: 4
65: 3
66: 3
67: 3
68: 3
69: 3
70: 3
71: 3
72: 3
73: 3
74: 3
75: 3
76: 3
77: 3
78: 3
79: 3
80: 3
81: 3
0: 5
1: 5
2: 5
3: 5
4: 5
5: 5
6: 5
7: 5
8: 5
9: 5
10: 5
11: 5
12: 5
13: 5
14: 5
15: 5
16: 5
17: 5
18: 5
19: 5
20: 5
21: 5
22: 5
23: 5
24: 5
25: 5
26: 5
27: 5
28: 5
29: 5
30: 5
31: 5
32: 5
33: 5
34: 5
35: 5
36: 5
37: 5
38: 5
39: 5
40: 5
41: 5
42: 5
43: 5
44: 5
45: 5
46: 5
47: 5
48: 5
49: 5
50: 5
51: 5
52: 5
53: 5
54: 5
55: 5
56: 5
57: 5
58: 5
59: 5
60: 5
61: 5
edge from: to
62: 0
62: 1
63: 0
63: 1
63: 2
64: 0
64: 6
65: 8
65: 9
66: 5
66: 11
67: 17
67: 18
67: 20
68: 21
68: 23
69: 11
69: 25
70: 27
70: 29
71: 13
71: 27
71: 29
71: 32
72: 33
72: 36
73: 38
74: 42
75: 40
75: 43
76: 1
76: 42
76: 45
77: 39
77: 44
77: 45
77: 47
78: 50
79: 49
79: 53
80: 50
80: 54
81: 57
2: 62
3: 63
4: 63
5: 63
6: 63
7: 64
8: 64
9: 64
10: 65
11: 65
12: 65
13: 66
14: 66
15: 66
16: 66
17: 66
18: 66
19: 66
20: 66
21: 67
22: 67
23: 67
24: 68
25: 68
26: 68
27: 68
28: 69
29: 69
30: 70
31: 70
32: 70
33: 71
34: 71
35: 71
36: 71
37: 72
38: 72
39: 73
40: 73
41: 73
42: 73
43: 74
44: 75
45: 75
46: 76
47: 76
48: 77
49: 77
50: 77
51: 78
52: 78
53: 78
54: 79
55: 80
56: 80
57: 80
58: 81
59: 81
60: 81
61: 81
segment: [5]
vertex id: label
67: 0
68: 3
69: 3
70: 3
71: 3
72: 3
73: 3
74: 3
75: 3
76: 3
77: 3
78: 3
79: 3
80: 3
81: 3
82: 3
83: 3
84: 3
85: 3
86: 3
0: 5
1: 5
2: 5
3: 5
4: 5
5: 5
6: 5
7: 5
8: 5
9: 5
10: 5
11: 5
12: 5
13: 5
14: 5
15: 5
16: 5
17: 5
18: 5
19: 5
20: 5
21: 5
22: 5
23: 5
24: 5
25: 5
26: 5
27: 5
28: 5
29: 5
30: 5
31: 5
32: 5
33: 5
34: 5
35: 5
36: 5
37: 5
38: 5
39: 5
40: 5
41: 5
42: 5
43: 5
44: 5
45: 5
46: 5
47: 5
48: 5
49: 5
50: 5
51: 5
52: 5
53: 5
54: 5
55: 5
56: 5
57: 5
58: 5
59: 5
60: 5
61: 5
62: 5
63: 5
64: 5
65: 5
66: 5
edge from: to
67: 0
67: 1
68: 2
69: 10
69: 11
70: 15
71: 17
71: 18
72: 22
72: 24
73: 28
74: 13
74: 29
75: 30
75: 33
75: 36
76: 1
76: 32
76: 38
77: 1
77: 36
77: 38
77: 39
78: 38
78: 41
79: 43
80: 43
80: 46
81: 44
81: 47
82: 52
83: 22
84: 58
85: 57
85: 61
86: 63
2: 67
3: 67
4: 67
5: 67
6: 68
7: 68
8: 68
9: 68
10: 68
11: 68
12: 69
13: 69
14: 69
15: 69
16: 70
17: 70
18: 70
19: 71
20: 71
21: 71
22: 71
23: 71
24: 71
25: 72
26: 72
27: 72
28: 72
29: 73
30: 73
31: 73
32: 73
33: 74
34: 74
35: 74
36: 74
37: 75
38: 75
39: 76
40: 77
41: 77
42: 78
43: 78
44: 79
45: 79
46: 79
47: 80
48: 81
49: 81
50: 81
51: 81
52: 81
53: 82
54: 82
55: 82
56: 83
57: 83
58: 83
59: 84
60: 84
61: 84
62: 85
63: 85
64: 86
65: 86
66: 86
segment: [6]
vertex id: label
60: 0
61: 0
62: 1
63: 0
64: 3
65: 3
66: 3
67: 3
68: 3
69: 3
70: 3
71: 3
72: 3
73: 3
74: 3
75: 3
76: 3
77: 3
78: 3
79: 3
0: 5
1: 5
2: 5
3: 5
4: 5
5: 5
6: 5
7: 5
8: 5
9: 5
10: 5
11: 5
12: 5
13: 5
14: 5
15: 5
16: 5
17: 5
18: 5
19: 5
20: 5
21: 5
22: 5
23: 5
24: 5
25: 5
26: 5
27: 5
28: 5
29: 5
30: 5
31: 5
32: 5
33: 5
34: 5
35: 5
36: 5
37: 5
38: 5
39: 5
40: 5
41: 5
42: 5
43: 5
44: 5
45: 5
46: 5
47: 5
48: 5
49: 5
50: 5
51: 5
52: 5
53: 5
54: 5
55: 5
56: 5
57: 5
58: 5
59: 5
edge from: to
60: 0
60: 1
61: 0
61: 1
62: 6
63: 9
63: 10
64: 15
65: 7
66: 19
67: 21
68: 24
69: 11
69: 23
69: 25
70: 25
70: 27
70: 30
71: 34
71: 37
72: 1
72: 36
72: 39
73: 38
73: 41
74: 35
74: 39
74: 42
75: 42
75: 45
76: 49
77: 50
78: 22
78: 46
78: 51
79: 53
79: 57
2: 60
3: 61
4: 61
5: 61
6: 61
7: 62
8: 62
9: 62
10: 62
11: 63
12: 63
13: 63
14: 63
15: 63
16: 64
17: 64
18: 65
19: 65
20: 66
21: 66
22: 67
23: 67
24: 67
25: 68
26: 68
27: 68
28: 69
29: 69
30: 69
31: 70
32: 70
33: 70
34: 70
35: 70
36: 70
37: 70
38: 71
39: 71
40: 72
41: 72
42: 73
43: 74
44: 74
45: 74
46: 75
47: 75
48: 75
49: 75
50: 76
51: 77
52: 77
53: 77
54: 77
55: 77
56: 78
57: 78
58: 79
59: 79
segment: [7]
vertex id: label
65: 0
66: 3
67: 3
68: 3
69: 3
70: 3
71: 3
72: 3
73: 3
74: 3
75: 3
76: 3
77: 3
78: 3
79: 3
80: 3
81: 3
82: 3
83: 3
84: 3
0: 5
1: 5
2: 5
3: 5
4: 5
5: 5
6: 5
7: 5
8: 5
9: 5
10: 5
11: 5
12: 5
13: 5
14: 5
15: 5
16: 5
17: 5
18: 5
19: 5
20: 5
21: 5
22: 5
23: 5
24: 5
25: 5
26: 5
27: 5
28: 5
29: 5
30: 5
31: 5
32: 5
33: 5
34: 5
35: 5
36: 5
37: 5
38: 5
39: 5
40: 5
41: 5
42: 5
43: 5
44: 5
45: 5
46: 5
47: 5
48: 5
49: 5
50: 5
51: 5
52: 5
53: 5
54: 5
55: 5
56: 5
57: 5
58: 5
59: 5
60: 5
61: 5
62: 5
63: 5
64: 5
edge from: to
65: 0
66: 0
66: 2
66: 3
67: 3
67: 7
68: 11
69: 14
70: 7
71: 17
71: 19
72: 24
73: 23
73: 26
73: 28
74: 13
75: 31
75: 34
76: 33
76: 36
77: 40
78: 35
78: 39
78: 42
79: 1
79: 36
79: 40
79: 43
80: 44
80: 47
81: 52
82: 57
83: 24
84: 57
84: 61
1: 65
2: 65
3: 65
4: 66
5: 66
6: 66
7: 66
8: 67
9: 67
10: 67
11: 67
12: 68
13: 68
14: 68
15: 69
16: 69
17: 69
18: 70
19: 70
20: 71
21: 71
22: 71
23: 71
24: 71
25: 72
26: 72
27: 72
28: 72
29: 73
30: 73
31: 73
32: 73
33: 74
34: 74
35: 75
36: 75
37: 76
38: 76
39: 76
40: 76
41: 77
42: 77
43: 78
44: 79
45: 79
46: 79
47: 79
48: 80
49: 80
50: 80
51: 80
52: 80
53: 81
54: 81
55: 81
56: 81
57: 81
58: 82
59: 82
60: 82
61: 83
62: 84
63: 84
64: 84
segment: [8]
vertex id: label
61: 0
62: 1
63: 4
64: 3
65: 3
66: 3
67: 3
68: 3
69: 3
70: 3
71: 3
72: 3
73: 3
74: 3
75: 3
76: 3
77: 3
78: 3
79: 3
80: 3
0: 5
1: 5
2: 5
3: 5
4: 5
5: 5
6: 5
7: 5
8: 5
9: 5
10: 5
11: 5
12: 5
13: 5
14: 5
15: 5
16: 5
17: 5
18: 5
19: 5
20: 5
21: 5
22: 5
23: 5
24: 5
25: 5
26: 5
27: 5
28: 5
29: 5
30: 5
31: 5
32: 5
33: 5
34: 5
35: 5
36: 5
37: 5
38: 5
39: 5
40: 5
41: 5
42: 5
43: 5
44: 5
45: 5
46: 5
47: 5
48: 5
49: 5
50: 5
51: 5
52: 5
53: 5
54: 5
55: 5
56: 5
57: 5
58: 5
59: 5
60: 5
edge from: to
61: 0
61: 1
62: 2
63: 8
63: 9
64: 9
64: 10
65: 12
65: 13
66: 13
66: 15
66: 16
67: 17
67: 18
68: 22
68: 24
69: 24
69: 26
70: 21
70: 23
70: 26
70: 28
71: 25
71: 27
71: 29
71: 30
72: 25
72: 30
72: 32
72: 33
73: 1
73: 36
73: 39
74: 39
74: 42
75: 43
76: 42
76: 45
77: 40
77: 45
77: 48
78: 46
78: 49
79: 53
80: 56
2: 61
3: 61
4: 61
5: 61
6: 62
7: 62
8: 62
9: 62
10: 63
11: 64
12: 64
13: 64
14: 65
15: 65
16: 65
17: 66
18: 66
19: 67
20: 67
21: 67
22: 67
23: 67
24: 67
25: 68
26: 68
27: 69
28: 69
29: 70
30: 70
31: 71
32: 71
33: 71
34: 72
35: 72
36: 72
37: 72
38: 72
39: 72
40: 73
41: 73
42: 73
43: 74
44: 75
45: 75
46: 76
47: 76
48: 76
49: 77
50: 78
51: 78
52: 78
53: 78
54: 79
55: 79
56: 79
57: 80
58: 80
59: 80
60: 80
segment: [9]
vertex id: label
67: 0
68: 3
69: 2
70: 4
71: 3
72: 2
73: 4
74: 3
75: 3
76: 3
77: 3
78: 3
79: 3
80: 3
81: 3
82: 3
83: 3
84: 3
85: 3
86: 3
0: 5
1: 5
2: 5
3: 5
4: 5
5: 5
6: 5
7: 5
8: 5
9: 5
10: 5
11: 5
12: 5
13: 5
14: 5
15: 5
16: 5
17: 5
18: 5
19: 5
20: 5
21: 5
22: 5
23: 5
24: 5
25: 5
26: 5
27: 5
28: 5
29: 5
30: 5
31: 5
32: 5
33: 5
34: 5
35: 5
36: 5
37: 5
38: 5
39: 5
40: 5
41: 5
42: 5
43: 5
44: 5
45: 5
46: 5
47: 5
48: 5
49: 5
50: 5
51: 5
52: 5
53: 5
54: 5
55: 5
56: 5
57: 5
58: 5
59: 5
60: 5
61: 5
62: 5
63: 5
64: 5
65: 5
66: 5
edge from: to
67: 0
67: 1
68: 0
68: 3
69: 3
69: 6
69: 7
70: 9
71: 6
71: 9
71: 10
71: 11
72: 15
73: 18
74: 21
74: 23
75: 11
76: 27
76: 30
77: 31
77: 34
78: 34
78: 37
79: 40
79: 43
80: 40
80: 45
80: 48
81: 50
82: 27
82: 43
82: 49
82: 52
83: 6
83: 44
83: 49
83: 51
83: 52
83: 53
84: 54
84: 58
85: 24
85: 50
85: 56
86: 59
86: 63
2: 67
3: 67
4: 68
5: 68
6: 68
7: 68
8: 69
9: 69
10: 70
11: 70
12: 71
13: 71
14: 71
15: 71
16: 72
17: 72
18: 72
19: 73
20: 73
21: 73
22: 73
23: 73
24: 74
25: 74
26: 74
27: 74
28: 75
29: 75
30: 75
31: 76
32: 76
33: 76
34: 76
35: 77
36: 77
37: 77
38: 78
39: 78
40: 78
41: 78
42: 78
43: 78
44: 79
45: 79
46: 79
47: 79
48: 79
49: 80
50: 80
51: 81
52: 81
53: 82
54: 83
55: 83
56: 83
57: 83
58: 83
59: 84
60: 84
61: 85
62: 85
63: 85
64: 86
65: 86
66: 86
