segment: [0]
vertex id: label
61: 0
62: 0
63: 2
64: 4
65: 0
66: 0
67: 0
68: 0
69: 0
70: 3
71: 2
72: 4
73: 0
74: 0
75: 0
76: 3
77: 2
78: 4
79: 0
80: 0
0: 5
1: 5
2: 5
3: 5
4: 5
5: 5
6: 5
7: 5
8: 5
9: 5
10: 5
11: 5
12: 5
13: 5
14: 5
15: 5
16: 5
17: 5
18: 5
19: 5
20: 5
21: 5
22: 5
23: 5
24: 5
25: 5
26: 5
27: 5
28: 5
29: 5
30: 5
31: 5
32: 5
33: 5
34: 5
35: 5
36: 5
37: 5
38: 5
39: 5
40: 5
41: 5
42: 5
43: 5
44: 5
45: 5
46: 5
47: 5
48: 5
49: 5
50: 5
51: 5
52: 5
53: 5
54: 5
55: 5
56: 5
57: 5
58: 5
59: 5
60: 5
edge from: to
61: 0
62: 2
63: 1
63: 5
64: 4
64: 7
64: 8
65: 5
65: 8
65: 10
66: 2
66: 3
66: 11
66: 13
67: 13
67: 15
68: 18
69: 22
70: 22
71: 26
72: 5
72: 27
73: 30
73: 34
73: 35
73: 36
74: 33
74: 39
75: 21
75: 42
75: 43
76: 7
76: 38
77: 45
77: 47
77: 48
78: 41
79: 44
79: 52
79: 53
80: 47
80: 56
80: 57
1: 61
2: 61
3: 62
4: 62
5: 62
6: 62
7: 63
8: 63
9: 64
10: 64
11: 65
12: 65
13: 65
14: 66
15: 66
16: 67
17: 67
18: 67
19: 67
20: 67
21: 67
22: 67
23: 68
24: 68
25: 68
26: 68
27: 69
28: 70
29: 70
30: 70
31: 70
32: 71
33: 71
34: 72
35: 72
36: 72
37: 73
38: 73
39: 73
40: 73
41: 74
42: 74
43: 74
44: 75
45: 75
46: 75
47: 76
48: 76
49: 77
50: 77
51: 78
52: 78
53: 78
54: 79
55: 79
56: 79
57: 79
58: 80
59: 80
60: 80
segment: [1]
vertex id: label
51: 0
52: 0
53: 3
54: 2
55: 4
56: 0
57: 0
58: 2
59: 4
60: 0
61: 3
62: 2
63: 4
64: 0
65: 2
66: 4
67: 0
68: 2
69: 4
70: 0
0: 5
1: 5
2: 5
3: 5
4: 5
5: 5
6: 5
7: 5
8: 5
9: 5
10: 5
11: 5
12: 5
13: 5
14: 5
15: 5
16: 5
17: 5
18: 5
19: 5
20: 5
21: 5
22: 5
23: 5
24: 5
25: 5
26: 5
27: 5
28: 5
29: 5
30: 5
31: 5
32: 5
33: 5
34: 5
35: 5
36: 5
37: 5
38: 5
39: 5
40: 5
41: 5
42: 5
43: 5
44: 5
45: 5
46: 5
47: 5
48: 5
49: 5
50: 5
edge from: to
51: 0
52: 2
53: 5
54: 8
54: 10
55: 9
55: 11
56: 2
56: 11
57: 12
57: 13
57: 15
58: 16
58: 18
59: 20
59: 21
60: 18
61: 21
61: 24
61: 25
62: 22
63: 23
63: 27
64: 25
65: 5
65: 27
65: 32
66: 30
66: 35
66: 36
67: 29
67: 37
67: 38
68: 9
68: 34
68: 40
69: 36
69: 43
70: 38
1: 51
2: 51
3: 52
4: 52
5: 52
6: 52
7: 53
8: 53
9: 53
10: 53
11: 54
12: 55
13: 55
14: 56
15: 56
16: 57
17: 57
18: 57
19: 57
20: 58
21: 58
22: 59
23: 60
24: 60
25: 60
26: 61
27: 62
28: 62
29: 63
30: 63
31: 64
32: 64
33: 64
34: 65
35: 65
36: 65
37: 66
38: 66
39: 67
40: 67
41: 67
42: 68
43: 68
44: 68
45: 69
46: 69
47: 70
48: 70
49: 70
50: 70
segment: [2]
vertex id: label
61: 0
62: 3
63: 2
64: 4
65: 0
66: 0
67: 2
68: 4
69: 0
70: 0
71: 0
72: 2
73: 4
74: 0
75: 0
76: 0
77: 0
78: 0
79: 2
80: 4
0: 5
1: 5
2: 5
3: 5
4: 5
5: 5
6: 5
7: 5
8: 5
9: 5
10: 5
11: 5
12: 5
13: 5
14: 5
15: 5
16: 5
17: 5
18: 5
19: 5
20: 5
21: 5
22: 5
23: 5
24: 5
25: 5
26: 5
27: 5
28: 5
29: 5
30: 5
31: 5
32: 5
33: 5
34: 5
35: 5
36: 5
37: 5
38: 5
39: 5
40: 5
41: 5
42: 5
43: 5
44: 5
45: 5
46: 5
47: 5
48: 5
49: 5
50: 5
51: 5
52: 5
53: 5
54: 5
55: 5
56: 5
57: 5
58: 5
59: 5
60: 5
edge from: to
61: 0
61: 1
62: 0
62: 1
62: 2
62: 3
62: 4
63: 1
63: 4
63: 5
64: 1
64: 6
65: 4
65: 7
65: 8
66: 8
67: 13
67: 15
68: 15
68: 17
69: 18
69: 21
70: 8
70: 20
70: 23
70: 24
71: 4
71: 22
72: 23
72: 27
73: 25
74: 5
74: 27
74: 32
75: 32
76: 21
76: 42
76: 43
77: 23
77: 36
77: 39
77: 46
78: 43
78: 51
78: 52
79: 46
80: 47
80: 56
2: 61
3: 61
5: 62
6: 63
7: 63
8: 64
9: 65
10: 65
11: 66
12: 66
13: 66
14: 66
15: 66
16: 67
17: 67
18: 67
19: 68
20: 68
21: 68
22: 68
23: 69
24: 69
25: 70
26: 70
27: 71
28: 71
29: 72
30: 72
31: 73
32: 73
33: 73
34: 74
35: 74
36: 74
37: 74
38: 74
39: 74
40: 75
41: 75
42: 75
43: 75
44: 76
45: 76
46: 76
47: 76
48: 77
49: 77
50: 77
51: 77
52: 77
53: 78
54: 78
55: 78
56: 78
57: 79
58: 80
59: 80
60: 80
segment: [3]
vertex id: label
65: 0
66: 0
67: 0
68: 0
69: 0
70: 0
71: 0
72: 3
73: 2
74: 4
75: 0
76: 0
77: 3
78: 2
79: 4
80: 0
81: 0
82: 2
83: 4
84: 0
0: 5
1: 5
2: 5
3: 5
4: 5
5: 5
6: 5
7: 5
8: 5
9: 5
10: 5
11: 5
12: 5
13: 5
14: 5
15: 5
16: 5
17: 5
18: 5
19: 5
20: 5
21: 5
22: 5
23: 5
24: 5
25: 5
26: 5
27: 5
28: 5
29: 5
30: 5
31: 5
32: 5
33: 5
34: 5
35: 5
36: 5
37: 5
38: 5
39: 5
40: 5
41: 5
42: 5
43: 5
44: 5
45: 5
46: 5
47: 5
48: 5
49: 5
50: 5
51: 5
52: 5
53: 5
54: 5
55: 5
56: 5
57: 5
58: 5
59: 5
60: 5
61: 5
62: 5
63: 5
64: 5
edge from: to
65: 0
65: 1
65: 2
66: 1
66: 4
67: 4
67: 6
67: 7
67: 8
68: 2
68: 11
69: 13
69: 15
70: 20
70: 21
71: 21
71: 24
72: 23
73: 25
73: 29
74: 37
75: 29
75: 36
75: 37
75: 38
76: 35
76: 41
76: 42
77: 36
78: 48
79: 48
79: 49
80: 41
80: 49
81: 44
81: 52
81: 53
82: 48
82: 57
82: 58
83: 59
83: 60
84: 51
3: 65
4: 65
5: 66
6: 66
7: 66
8: 66
9: 67
10: 67
11: 67
12: 67
13: 67
14: 68
15: 68
16: 69
17: 69
18: 69
19: 69
20: 69
21: 69
22: 70
23: 70
24: 70
25: 70
26: 71
27: 71
28: 71
29: 72
30: 72
31: 73
32: 73
33: 73
34: 73
35: 73
36: 73
37: 73
38: 74
39: 75
40: 75
41: 75
42: 75
43: 76
44: 76
45: 77
46: 77
47: 77
48: 77
49: 78
50: 79
51: 80
52: 80
53: 80
54: 81
55: 81
56: 81
57: 81
58: 81
59: 82
60: 82
61: 83
62: 83
63: 84
64: 84
segment: [4]
vertex id: label
70: 0
71: 2
72: 4
73: 0
74: 2
75: 4
76: 0
77: 2
78: 4
79: 0
80: 2
81: 4
82: 0
83: 0
84: 2
85: 4
86: 0
87: 0
88: 0
89: 0
0: 5
1: 5
2: 5
3: 5
4: 5
5: 5
6: 5
7: 5
8: 5
9: 5
10: 5
11: 5
12: 5
13: 5
14: 5
15: 5
16: 5
17: 5
18: 5
19: 5
20: 5
21: 5
22: 5
23: 5
24: 5
25: 5
26: 5
27: 5
28: 5
29: 5
30: 5
31: 5
32: 5
33: 5
34: 5
35: 5
36: 5
37: 5
38: 5
39: 5
40: 5
41: 5
42: 5
43: 5
44: 5
45: 5
46: 5
47: 5
48: 5
49: 5
50: 5
51: 5
52: 5
53: 5
54: 5
55: 5
56: 5
57: 5
58: 5
59: 5
60: 5
61: 5
62: 5
63: 5
64: 5
65: 5
66: 5
67: 5
68: 5
69: 5
edge from: to
70: 0
70: 1
71: 1
71: 2
71: 6
71: 7
72: 13
72: 15
73: 16
74: 17
74: 20
75: 20
75: 21
76: 18
76: 19
76: 21
76: 24
76: 25
77: 22
77: 26
78: 25
79: 27
80: 28
80: 33
81: 32
81: 38
82: 43
83: 7
83: 38
84: 48
85: 43
86: 17
86: 43
86: 46
86: 53
86: 55
86: 56
87: 48
87: 57
87: 58
88: 47
88: 51
88: 59
88: 61
88: 62
89: 10
89: 54
89: 65
2: 70
3: 70
4: 70
5: 70
6: 70
7: 70
8: 71
9: 71
10: 71
11: 71
12: 71
13: 71
14: 71
15: 71
16: 72
17: 72
18: 72
19: 72
20: 73
21: 74
22: 75
23: 75
24: 75
25: 75
26: 76
27: 76
28: 77
29: 77
30: 77
31: 78
32: 78
33: 78
34: 79
35: 80
36: 80
37: 80
38: 80
39: 80
40: 81
41: 81
42: 81
43: 81
44: 82
45: 82
46: 82
47: 83
48: 83
49: 84
50: 84
51: 84
52: 84
53: 85
54: 85
55: 85
56: 85
57: 86
58: 86
59: 87
60: 87
61: 87
62: 87
63: 88
64: 88
65: 88
66: 88
67: 89
68: 89
69: 89
segment: [5]
vertex id: label
54: 0
55: 3
56: 2
57: 4
58: 0
59: 0
60: 0
61: 2
62: 4
63: 0
64: 0
65: 2
66: 4
67: 0
68: 3
69: 2
70: 4
71: 0
72: 0
73: 0
0: 5
1: 5
2: 5
3: 5
4: 5
5: 5
6: 5
7: 5
8: 5
9: 5
10: 5
11: 5
12: 5
13: 5
14: 5
15: 5
16: 5
17: 5
18: 5
19: 5
20: 5
21: 5
22: 5
23: 5
24: 5
25: 5
26: 5
27: 5
28: 5
29: 5
30: 5
31: 5
32: 5
33: 5
34: 5
35: 5
36: 5
37: 5
38: 5
39: 5
40: 5
41: 5
42: 5
43: 5
44: 5
45: 5
46: 5
47: 5
48: 5
49: 5
50: 5
51: 5
52: 5
53: 5
edge from: to
54: 0
55: 1
55: 4
56: 1
56: 6
57: 8
57: 9
58: 9
58: 11
59: 12
60: 14
60: 17
61: 16
61: 18
62: 17
63: 21
64: 19
64: 22
65: 21
66: 4
66: 22
67: 24
67: 28
68: 26
68: 30
69: 27
70: 30
70: 34
70: 35
70: 36
71: 32
71: 38
72: 37
73: 48
73: 49
1: 54
2: 54
3: 54
4: 54
5: 55
6: 55
7: 55
8: 56
9: 56
10: 57
11: 57
12: 58
13: 58
14: 58
15: 59
16: 59
17: 59
18: 60
19: 60
20: 61
21: 62
22: 63
23: 63
24: 64
25: 64
26: 65
27: 66
28: 66
29: 66
30: 67
31: 67
32: 68
33: 68
34: 69
35: 69
36: 69
37: 70
38: 70
39: 70
40: 71
41: 71
42: 71
43: 71
44: 71
45: 71
46: 72
47: 72
48: 72
49: 72
50: 73
51: 73
52: 73
53: 73
segment: [6]
vertex id: label
65: 0
66: 0
67: 3
68: 2
69: 4
70: 0
71: 3
72: 2
73: 4
74: 0
75: 0
76: 0
77: 0
78: 2
79: 4
80: 0
81: 2
82: 4
83: 0
84: 2
0: 5
1: 5
2: 5
3: 5
4: 5
5: 5
6: 5
7: 5
8: 5
9: 5
10: 5
11: 5
12: 5
13: 5
14: 5
15: 5
16: 5
17: 5
18: 5
19: 5
20: 5
21: 5
22: 5
23: 5
24: 5
25: 5
26: 5
27: 5
28: 5
29: 5
30: 5
31: 5
32: 5
33: 5
34: 5
35: 5
36: 5
37: 5
38: 5
39: 5
40: 5
41: 5
42: 5
43: 5
44: 5
45: 5
46: 5
47: 5
48: 5
49: 5
50: 5
51: 5
52: 5
53: 5
54: 5
55: 5
56: 5
57: 5
58: 5
59: 5
60: 5
61: 5
62: 5
63: 5
64: 5
edge from: to
65: 0
65: 1
66: 1
66: 2
66: 4
67: 1
67: 5
67: 6
68: 8
69: 13
70: 13
70: 16
71: 18
72: 20
73: 22
74: 26
74: 30
75: 29
75: 34
75: 35
76: 37
76: 38
77: 36
77: 43
78: 22
78: 37
78: 43
78: 44
78: 45
79: 48
80: 41
80: 49
80: 50
81: 44
82: 47
82: 56
82: 57
83: 60
84: 52
84: 61
2: 65
3: 65
4: 65
5: 66
6: 66
7: 67
8: 67
9: 67
10: 68
11: 68
12: 68
13: 68
14: 68
15: 68
16: 69
17: 70
18: 70
19: 70
20: 70
21: 70
22: 70
23: 71
24: 71
25: 72
26: 72
27: 73
28: 73
29: 73
30: 73
31: 73
32: 74
33: 74
34: 74
35: 74
36: 75
37: 75
38: 75
39: 76
40: 76
41: 76
42: 76
43: 76
44: 76
45: 77
46: 78
47: 78
48: 78
49: 79
50: 79
51: 80
52: 80
53: 80
54: 81
55: 81
56: 81
57: 81
58: 82
59: 82
60: 82
61: 83
62: 83
63: 83
64: 84
segment: [7]
vertex id: label
60: 0
61: 0
62: 0
63: 2
64: 4
65: 0
66: 0
67: 0
68: 3
69: 1
70: 0
71: 3
72: 2
73: 4
74: 0
75: 0
76: 2
77: 4
78: 0
79: 0
0: 5
1: 5
2: 5
3: 5
4: 5
5: 5
6: 5
7: 5
8: 5
9: 5
10: 5
11: 5
12: 5
13: 5
14: 5
15: 5
16: 5
17: 5
18: 5
19: 5
20: 5
21: 5
22: 5
23: 5
24: 5
25: 5
26: 5
27: 5
28: 5
29: 5
30: 5
31: 5
32: 5
33: 5
34: 5
35: 5
36: 5
37: 5
38: 5
39: 5
40: 5
41: 5
42: 5
43: 5
44: 5
45: 5
46: 5
47: 5
48: 5
49: 5
50: 5
51: 5
52: 5
53: 5
54: 5
55: 5
56: 5
57: 5
58: 5
59: 5
edge from: to
60: 0
60: 1
61: 4
62: 8
62: 9
63: 10
64: 7
64: 12
64: 14
65: 13
66: 16
66: 18
67: 18
68: 21
68: 24
68: 25
69: 4
69: 22
70: 6
70: 22
70: 26
70: 27
71: 24
71: 28
72: 26
72: 30
72: 31
73: 28
73: 33
74: 38
75: 34
75: 40
76: 43
77: 48
78: 41
78: 49
79: 12
79: 45
79: 54
2: 60
3: 60
4: 60
5: 61
6: 61
7: 61
8: 61
9: 61
10: 62
11: 62
12: 62
13: 63
14: 63
15: 64
16: 64
17: 65
18: 65
19: 65
20: 66
21: 66
22: 66
23: 67
24: 67
25: 67
26: 68
27: 69
28: 70
29: 70
30: 71
31: 71
32: 72
33: 72
34: 72
35: 73
36: 73
37: 73
38: 73
39: 74
40: 74
41: 74
42: 75
43: 75
44: 76
45: 76
46: 76
47: 76
48: 76
49: 77
50: 77
51: 78
52: 78
53: 78
54: 78
55: 78
56: 79
57: 79
58: 79
59: 79
segment: [8]
vertex id: label
65: 0
66: 0
67: 3
68: 2
69: 4
70: 0
71: 2
72: 4
73: 0
74: 3
75: 2
76: 4
77: 0
78: 2
79: 4
80: 0
81: 0
82: 0
83: 3
84: 2
0: 5
1: 5
2: 5
3: 5
4: 5
5: 5
6: 5
7: 5
8: 5
9: 5
10: 5
11: 5
12: 5
13: 5
14: 5
15: 5
16: 5
17: 5
18: 5
19: 5
20: 5
21: 5
22: 5
23: 5
24: 5
25: 5
26: 5
27: 5
28: 5
29: 5
30: 5
31: 5
32: 5
33: 5
34: 5
35: 5
36: 5
37: 5
38: 5
39: 5
40: 5
41: 5
42: 5
43: 5
44: 5
45: 5
46: 5
47: 5
48: 5
49: 5
50: 5
51: 5
52: 5
53: 5
54: 5
55: 5
56: 5
57: 5
58: 5
59: 5
60: 5
61: 5
62: 5
63: 5
64: 5
edge from: to
65: 0
65: 1
65: 2
65: 3
66: 1
66: 6
67: 8
68: 2
68: 11
69: 4
69: 15
69: 17
70: 18
71: 19
71: 22
72: 21
72: 24
73: 26
74: 5
74: 27
74: 32
74: 33
75: 37
76: 32
76: 38
77: 34
78: 7
78: 38
79: 48
80: 42
80: 50
81: 44
82: 45
82: 54
83: 60
84: 51
84: 61
4: 65
5: 65
6: 65
7: 65
8: 66
9: 66
10: 67
11: 67
12: 67
13: 67
14: 68
15: 68
16: 68
17: 68
18: 68
19: 69
20: 69
21: 69
22: 69
23: 70
24: 71
25: 71
26: 72
27: 72
28: 72
29: 72
30: 72
31: 72
32: 73
33: 73
34: 74
35: 74
36: 74
37: 74
38: 75
39: 75
40: 76
41: 76
42: 77
43: 77
44: 77
45: 77
46: 77
47: 78
48: 78
49: 79
50: 79
51: 79
52: 80
53: 80
54: 81
55: 81
56: 82
57: 82
58: 82
59: 82
60: 82
61: 83
62: 83
63: 84
64: 84
segment: [9]
vertex id: label
62: 0
63: 0
64: 3
65: 2
66: 4
67: 0
68: 0
69: 3
70: 2
71: 4
72: 0
73: 0
74: 3
75: 2
76: 4
77: 0
78: 0
79: 0
80: 0
81: 0
0: 5
1: 5
2: 5
3: 5
4: 5
5: 5
6: 5
7: 5
8: 5
9: 5
10: 5
11: 5
12: 5
13: 5
14: 5
15: 5
16: 5
17: 5
18: 5
19: 5
20: 5
21: 5
22: 5
23: 5
24: 5
25: 5
26: 5
27: 5
28: 5
29: 5
30: 5
31: 5
32: 5
33: 5
34: 5
35: 5
36: 5
37: 5
38: 5
39: 5
40: 5
41: 5
42: 5
43: 5
44: 5
45: 5
46: 5
47: 5
48: 5
49: 5
50: 5
51: 5
52: 5
53: 5
54: 5
55: 5
56: 5
57: 5
58: 5
59: 5
60: 5
61: 5
edge from: to
62: 0
62: 1
62: 2
63: 5
64: 8
64: 9
65: 9
65: 11
66: 2
66: 11
67: 13
68: 15
68: 17
69: 16
70: 18
71: 21
72: 22
72: 26
73: 25
73: 29
73: 30
74: 26
74: 28
74: 33
74: 34
75: 33
75: 39
76: 36
77: 48
77: 49
78: 42
78: 50
79: 41
79: 51
79: 53
79: 54
80: 46
80: 55
81: 59
3: 62
4: 62
5: 62
6: 62
7: 63
8: 63
9: 63
10: 64
11: 64
12: 65
13: 65
14: 66
15: 66
16: 67
17: 67
18: 67
19: 68
20: 69
21: 69
22: 69
23: 70
24: 70
25: 70
26: 71
27: 71
28: 72
29: 72
30: 72
31: 73
32: 73
33: 73
34: 73
35: 74
36: 74
37: 74
38: 74
39: 74
40: 74
41: 75
42: 75
43: 75
44: 75
45: 76
46: 76
47: 76
48: 76
49: 76
50: 77
51: 77
52: 78
53: 78
54: 78
55: 79
56: 79
57: 80
58: 80
59: 80
60: 81
61: 81
