segment: [0]
vertex id: label
67: 0
68: 1
69: 4
70: 3
71: 3
72: 3
73: 3
74: 3
75: 0
76: 3
77: 2
78: 1
79: 1
80: 0
81: 1
82: 4
83: 4
84: 3
85: 3
86: 2
0: 5
1: 5
2: 5
3: 5
4: 5
5: 5
6: 5
7: 5
8: 5
9: 5
10: 5
11: 5
12: 5
13: 5
14: 5
15: 5
16: 5
17: 5
18: 5
19: 5
20: 5
21: 5
22: 5
23: 5
24: 5
25: 5
26: 5
27: 5
28: 5
29: 5
30: 5
31: 5
32: 5
33: 5
34: 5
35: 5
36: 5
37: 5
38: 5
39: 5
40: 5
41: 5
42: 5
43: 5
44: 5
45: 5
46: 5
47: 5
48: 5
49: 5
50: 5
51: 5
52: 5
53: 5
54: 5
55: 5
56: 5
57: 5
58: 5
59: 5
60: 5
61: 5
62: 5
63: 5
64: 5
65: 5
66: 5
edge from: to
67: 0
68: 3
69: 4
69: 5
70: 8
70: 9
71: 10
72: 2
73: 14
73: 17
74: 19
75: 11
75: 17
75: 20
76: 22
77: 22
77: 26
78: 26
78: 28
78: 31
78: 32
79: 32
80: 29
80: 35
81: 21
81: 40
81: 41
82: 43
83: 48
84: 53
85: 46
85: 56
86: 58
1: 67
2: 67
3: 67
4: 68
5: 68
6: 69
7: 69
8: 69
9: 69
10: 70
11: 71
12: 71
13: 71
14: 71
15: 72
16: 72
17: 72
18: 73
19: 73
20: 73
21: 74
22: 75
23: 75
24: 76
25: 76
26: 76
27: 76
28: 77
29: 77
30: 77
31: 77
32: 77
33: 78
34: 79
35: 79
36: 79
37: 80
38: 80
39: 80
40: 80
41: 80
42: 81
43: 81
44: 81
45: 82
46: 82
47: 82
48: 82
49: 82
50: 83
51: 83
52: 83
53: 83
54: 83
55: 83
56: 84
57: 84
58: 85
59: 85
60: 85
61: 86
62: 86
63: 86
64: 86
65: 86
66: 86
segment: [1]
vertex id: label
66: 0
67: 2
68: 1
69: 0
70: 2
71: 1
72: 0
73: 1
74: 3
75: 3
76: 2
77: 1
78: 4
79: 1
80: 0
81: 1
82: 3
83: 2
84: 1
85: 1
0: 5
1: 5
2: 5
3: 5
4: 5
5: 5
6: 5
7: 5
8: 5
9: 5
10: 5
11: 5
12: 5
13: 5
14: 5
15: 5
16: 5
17: 5
18: 5
19: 5
20: 5
21: 5
22: 5
23: 5
24: 5
25: 5
26: 5
27: 5
28: 5
29: 5
30: 5
31: 5
32: 5
33: 5
34: 5
35: 5
36: 5
37: 5
38: 5
39: 5
40: 5
41: 5
42: 5
43: 5
44: 5
45: 5
46: 5
47: 5
48: 5
49: 5
50: 5
51: 5
52: 5
53: 5
54: 5
55: 5
56: 5
57: 5
58: 5
59: 5
60: 5
61: 5
62: 5
63: 5
64: 5
65: 5
edge from: to
66: 0
67: 1
67: 2
68: 5
68: 8
68: 9
69: 13
70: 9
70: 14
70: 17
71: 10
71: 16
71: 18
72: 16
72: 19
72: 20
73: 24
73: 25
74: 26
75: 29
75: 30
76: 26
76: 31
77: 35
78: 19
78: 30
78: 36
79: 39
80: 36
80: 43
81: 38
81: 46
82: 50
82: 51
83: 53
83: 55
84: 30
84: 48
84: 51
84: 57
85: 61
1: 66
2: 66
3: 67
4: 67
5: 67
6: 67
7: 67
8: 67
9: 67
10: 68
11: 68
12: 68
13: 68
14: 69
15: 69
16: 69
17: 69
18: 70
19: 70
20: 71
21: 72
22: 72
23: 72
24: 72
25: 72
26: 73
27: 73
28: 74
29: 74
30: 74
31: 75
32: 75
33: 76
34: 76
35: 76
36: 76
37: 77
38: 78
39: 78
40: 78
41: 79
42: 79
43: 79
44: 79
45: 80
46: 80
47: 80
48: 81
49: 81
50: 81
51: 81
52: 82
53: 82
54: 82
55: 82
56: 83
57: 83
58: 83
59: 83
60: 84
61: 84
62: 84
63: 84
64: 85
65: 85
segment: [2]
vertex id: label
54: 0
55: 1
56: 4
57: 1
58: 0
59: 1
60: 1
61: 1
62: 0
63: 1
64: 0
65: 3
66: 3
67: 3
68: 3
69: 3
70: 3
71: 3
72: 3
73: 3
0: 5
1: 5
2: 5
3: 5
4: 5
5: 5
6: 5
7: 5
8: 5
9: 5
10: 5
11: 5
12: 5
13: 5
14: 5
15: 5
16: 5
17: 5
18: 5
19: 5
20: 5
21: 5
22: 5
23: 5
24: 5
25: 5
26: 5
27: 5
28: 5
29: 5
30: 5
31: 5
32: 5
33: 5
34: 5
35: 5
36: 5
37: 5
38: 5
39: 5
40: 5
41: 5
42: 5
43: 5
44: 5
45: 5
46: 5
47: 5
48: 5
49: 5
50: 5
51: 5
52: 5
53: 5
edge from: to
54: 0
54: 1
55: 5
55: 6
56: 1
56: 6
57: 10
58: 2
58: 12
59: 13
59: 16
60: 15
60: 17
61: 11
61: 17
61: 20
62: 23
63: 13
63: 22
63: 24
63: 25
64: 23
64: 27
65: 15
65: 24
65: 25
65: 28
66: 26
66: 28
66: 31
66: 32
67: 29
67: 35
67: 36
68: 19
68: 30
68: 36
69: 31
69: 37
70: 36
70: 43
71: 45
72: 49
72: 50
73: 50
73: 51
2: 54
3: 54
4: 54
5: 54
6: 54
7: 55
8: 56
9: 56
10: 56
11: 57
12: 57
13: 57
14: 57
15: 58
16: 58
17: 59
18: 59
19: 60
20: 60
21: 60
22: 61
23: 61
24: 61
25: 62
26: 63
27: 63
28: 63
29: 64
30: 65
31: 65
32: 65
33: 66
34: 66
35: 66
36: 66
37: 67
38: 68
39: 69
40: 69
41: 69
42: 69
43: 69
44: 69
45: 70
46: 70
47: 71
48: 71
49: 71
50: 71
51: 72
52: 73
53: 73
segment: [3]
vertex id: label
63: 0
64: 1
65: 2
66: 1
67: 4
68: 3
69: 3
70: 3
71: 2
72: 3
73: 3
74: 3
75: 3
76: 3
77: 0
78: 3
79: 2
80: 1
81: 0
82: 1
0: 5
1: 5
2: 5
3: 5
4: 5
5: 5
6: 5
7: 5
8: 5
9: 5
10: 5
11: 5
12: 5
13: 5
14: 5
15: 5
16: 5
17: 5
18: 5
19: 5
20: 5
21: 5
22: 5
23: 5
24: 5
25: 5
26: 5
27: 5
28: 5
29: 5
30: 5
31: 5
32: 5
33: 5
34: 5
35: 5
36: 5
37: 5
38: 5
39: 5
40: 5
41: 5
42: 5
43: 5
44: 5
45: 5
46: 5
47: 5
48: 5
49: 5
50: 5
51: 5
52: 5
53: 5
54: 5
55: 5
56: 5
57: 5
58: 5
59: 5
60: 5
61: 5
62: 5
edge from: to
63: 0
63: 1
64: 2
64: 3
65: 7
65: 8
66: 9
66: 11
67: 7
67: 11
67: 13
68: 8
68: 12
68: 15
69: 14
69: 17
70: 16
70: 18
70: 19
70: 20
71: 23
72: 22
72: 26
73: 24
73: 28
74: 28
74: 33
75: 31
75: 37
76: 39
77: 22
77: 35
77: 37
77: 42
78: 48
79: 43
79: 52
80: 55
80: 56
81: 58
81: 60
82: 59
82: 61
2: 63
3: 63
4: 64
5: 64
6: 64
7: 64
8: 64
9: 65
10: 65
11: 65
12: 66
13: 66
14: 67
15: 67
16: 68
17: 68
18: 69
19: 69
20: 69
21: 70
22: 70
23: 70
24: 70
25: 71
26: 71
27: 71
28: 72
29: 72
30: 73
31: 73
32: 73
33: 73
34: 73
35: 74
36: 74
37: 74
38: 74
39: 75
40: 75
41: 76
42: 76
43: 76
44: 77
45: 77
46: 77
47: 77
48: 77
49: 77
50: 78
51: 78
52: 78
53: 78
54: 79
55: 79
56: 79
57: 80
58: 80
59: 80
60: 80
61: 81
62: 82
segment: [4]
vertex id: label
47: 0
48: 1
49: 0
50: 1
51: 0
52: 1
53: 2
54: 1
55: 3
56: 0
57: 1
58: 0
59: 3
60: 0
61: 2
62: 1
63: 2
64: 1
65: 0
66: 3
0: 5
1: 5
2: 5
3: 5
4: 5
5: 5
6: 5
7: 5
8: 5
9: 5
10: 5
11: 5
12: 5
13: 5
14: 5
15: 5
16: 5
17: 5
18: 5
19: 5
20: 5
21: 5
22: 5
23: 5
24: 5
25: 5
26: 5
27: 5
28: 5
29: 5
30: 5
31: 5
32: 5
33: 5
34: 5
35: 5
36: 5
37: 5
38: 5
39: 5
40: 5
41: 5
42: 5
43: 5
44: 5
45: 5
46: 5
edge from: to
47: 0
47: 1
48: 1
48: 2
49: 1
49: 2
49: 3
50: 4
51: 6
52: 1
53: 7
53: 8
54: 10
54: 11
54: 12
55: 16
56: 10
56: 16
56: 18
57: 11
57: 17
57: 20
58: 24
59: 24
59: 28
60: 29
61: 30
62: 35
63: 30
63: 36
64: 38
65: 39
66: 42
2: 47
3: 48
4: 49
5: 50
6: 50
7: 51
8: 52
9: 53
10: 53
11: 53
12: 53
13: 54
14: 54
15: 54
16: 54
17: 55
18: 55
19: 55
20: 56
21: 56
22: 57
23: 57
24: 57
25: 57
26: 58
27: 58
28: 58
29: 58
30: 59
31: 60
32: 61
33: 61
34: 61
35: 61
36: 61
37: 62
38: 63
39: 63
40: 64
41: 65
42: 65
43: 65
44: 66
45: 66
46: 66
segment: [5]
vertex id: label
65: 0
66: 2
67: 0
68: 1
69: 4
70: 4
71: 1
72: 4
73: 1
74: 4
75: 1
76: 4
77: 1
78: 3
79: 2
80: 1
81: 0
82: 2
83: 0
84: 2
0: 5
1: 5
2: 5
3: 5
4: 5
5: 5
6: 5
7: 5
8: 5
9: 5
10: 5
11: 5
12: 5
13: 5
14: 5
15: 5
16: 5
17: 5
18: 5
19: 5
20: 5
21: 5
22: 5
23: 5
24: 5
25: 5
26: 5
27: 5
28: 5
29: 5
30: 5
31: 5
32: 5
33: 5
34: 5
35: 5
36: 5
37: 5
38: 5
39: 5
40: 5
41: 5
42: 5
43: 5
44: 5
45: 5
46: 5
47: 5
48: 5
49: 5
50: 5
51: 5
52: 5
53: 5
54: 5
55: 5
56: 5
57: 5
58: 5
59: 5
60: 5
61: 5
62: 5
63: 5
64: 5
edge from: to
65: 0
65: 1
65: 2
66: 2
66: 4
67: 7
67: 8
68: 8
68: 9
68: 10
69: 10
69: 12
70: 2
70: 12
70: 14
71: 17
72: 18
73: 22
74: 22
74: 26
75: 24
75: 28
76: 25
76: 30
77: 29
77: 35
77: 36
78: 37
79: 23
79: 44
79: 45
80: 25
80: 40
80: 42
80: 48
80: 49
81: 42
81: 51
82: 53
83: 29
83: 46
83: 49
83: 55
83: 56
84: 50
84: 60
3: 65
4: 65
5: 66
6: 66
7: 66
8: 66
9: 67
10: 67
11: 68
12: 68
13: 69
14: 69
15: 70
16: 70
17: 70
18: 71
19: 71
20: 72
21: 72
22: 72
23: 72
24: 73
25: 73
26: 73
27: 73
28: 74
29: 74
30: 75
31: 75
32: 76
33: 76
34: 76
35: 76
36: 76
37: 77
38: 77
39: 78
40: 78
41: 78
42: 78
43: 78
44: 78
45: 78
46: 79
47: 79
48: 79
49: 79
50: 80
51: 80
52: 80
53: 81
54: 81
55: 81
56: 82
57: 82
58: 83
59: 83
60: 83
61: 83
62: 83
63: 84
64: 84
segment: [6]
vertex id: label
60: 0
61: 3
62: 2
63: 1
64: 0
65: 1
66: 2
67: 3
68: 3
69: 3
70: 3
71: 2
72: 3
73: 2
74: 1
75: 0
76: 3
77: 3
78: 3
79: 3
0: 5
1: 5
2: 5
3: 5
4: 5
5: 5
6: 5
7: 5
8: 5
9: 5
10: 5
11: 5
12: 5
13: 5
14: 5
15: 5
16: 5
17: 5
18: 5
19: 5
20: 5
21: 5
22: 5
23: 5
24: 5
25: 5
26: 5
27: 5
28: 5
29: 5
30: 5
31: 5
32: 5
33: 5
34: 5
35: 5
36: 5
37: 5
38: 5
39: 5
40: 5
41: 5
42: 5
43: 5
44: 5
45: 5
46: 5
47: 5
48: 5
49: 5
50: 5
51: 5
52: 5
53: 5
54: 5
55: 5
56: 5
57: 5
58: 5
59: 5
edge from: to
60: 0
60: 1
61: 3
61: 4
61: 5
61: 6
62: 1
62: 5
62: 7
62: 8
63: 12
64: 9
64: 14
64: 15
64: 17
65: 15
65: 17
66: 16
66: 19
67: 19
67: 22
68: 14
68: 22
68: 26
69: 27
70: 31
71: 28
71: 33
71: 34
72: 30
72: 36
73: 23
73: 35
73: 39
73: 40
74: 12
74: 36
74: 38
74: 43
74: 44
75: 45
76: 46
77: 49
78: 53
78: 55
79: 54
79: 55
79: 56
2: 60
3: 60
4: 60
5: 60
6: 60
7: 61
8: 61
9: 62
10: 62
11: 62
12: 62
13: 63
14: 63
15: 63
16: 63
17: 63
18: 64
19: 65
20: 65
21: 66
22: 66
23: 66
24: 67
25: 67
26: 67
27: 67
28: 68
29: 69
30: 69
31: 69
32: 69
33: 70
34: 70
35: 71
36: 71
37: 71
38: 72
39: 72
40: 72
41: 73
42: 73
43: 73
44: 73
45: 74
46: 74
47: 75
48: 76
49: 76
50: 76
51: 77
52: 77
53: 77
54: 77
55: 77
56: 78
57: 79
58: 79
59: 79
segment: [7]
vertex id: label
61: 0
62: 2
63: 1
64: 4
65: 3
66: 3
67: 3
68: 2
69: 1
70: 1
71: 4
72: 1
73: 0
74: 3
75: 3
76: 3
77: 3
78: 0
79: 3
80: 2
0: 5
1: 5
2: 5
3: 5
4: 5
5: 5
6: 5
7: 5
8: 5
9: 5
10: 5
11: 5
12: 5
13: 5
14: 5
15: 5
16: 5
17: 5
18: 5
19: 5
20: 5
21: 5
22: 5
23: 5
24: 5
25: 5
26: 5
27: 5
28: 5
29: 5
30: 5
31: 5
32: 5
33: 5
34: 5
35: 5
36: 5
37: 5
38: 5
39: 5
40: 5
41: 5
42: 5
43: 5
44: 5
45: 5
46: 5
47: 5
48: 5
49: 5
50: 5
51: 5
52: 5
53: 5
54: 5
55: 5
56: 5
57: 5
58: 5
59: 5
60: 5
edge from: to
61: 0
61: 1
62: 2
63: 2
63: 4
64: 6
65: 11
66: 7
66: 11
66: 13
67: 2
68: 15
68: 17
69: 16
69: 19
69: 20
70: 21
71: 19
71: 22
72: 24
72: 25
73: 31
74: 19
74: 30
74: 32
74: 36
74: 37
75: 40
76: 43
77: 25
77: 40
77: 48
78: 52
79: 55
80: 56
2: 61
3: 62
4: 62
5: 63
6: 63
7: 64
8: 64
9: 64
10: 64
11: 64
12: 65
13: 65
14: 66
15: 67
16: 67
17: 67
18: 67
19: 68
20: 68
21: 69
22: 69
23: 70
24: 71
25: 71
26: 72
27: 72
28: 72
29: 72
30: 72
31: 72
32: 72
33: 73
34: 73
35: 73
36: 73
37: 73
38: 74
39: 74
40: 74
41: 74
42: 75
43: 75
44: 75
45: 76
46: 76
47: 76
48: 76
49: 76
50: 77
51: 77
52: 77
53: 77
54: 78
55: 78
56: 78
57: 79
58: 80
59: 80
60: 80
segment: [8]
vertex id: label
61: 0
62: 3
63: 2
64: 1
65: 0
66: 1
67: 3
68: 3
69: 3
70: 3
71: 3
72: 0
73: 3
74: 3
75: 0
76: 1
77: 4
78: 4
79: 4
80: 1
0: 5
1: 5
2: 5
3: 5
4: 5
5: 5
6: 5
7: 5
8: 5
9: 5
10: 5
11: 5
12: 5
13: 5
14: 5
15: 5
16: 5
17: 5
18: 5
19: 5
20: 5
21: 5
22: 5
23: 5
24: 5
25: 5
26: 5
27: 5
28: 5
29: 5
30: 5
31: 5
32: 5
33: 5
34: 5
35: 5
36: 5
37: 5
38: 5
39: 5
40: 5
41: 5
42: 5
43: 5
44: 5
45: 5
46: 5
47: 5
48: 5
49: 5
50: 5
51: 5
52: 5
53: 5
54: 5
55: 5
56: 5
57: 5
58: 5
59: 5
60: 5
edge from: to
61: 0
62: 1
62: 2
63: 4
64: 1
65: 8
66: 12
67: 17
68: 17
68: 20
69: 12
69: 19
69: 20
69: 22
70: 23
71: 21
71: 25
72: 23
72: 24
72: 27
72: 28
73: 15
73: 24
73: 28
74: 31
75: 36
76: 34
76: 41
77: 49
78: 44
78: 53
79: 57
80: 30
80: 48
80: 51
80: 57
1: 61
2: 61
3: 62
4: 62
5: 63
6: 63
7: 63
8: 64
9: 65
10: 65
11: 65
12: 65
13: 66
14: 66
15: 66
16: 66
17: 66
18: 67
19: 67
20: 67
21: 67
22: 68
23: 68
24: 69
25: 70
26: 70
27: 71
28: 71
29: 72
30: 73
31: 73
32: 73
33: 74
34: 74
35: 74
36: 74
37: 74
38: 75
39: 75
40: 75
41: 75
42: 75
43: 76
44: 76
45: 76
46: 76
47: 76
48: 76
49: 76
50: 76
51: 77
52: 77
53: 77
54: 77
55: 78
56: 78
57: 78
58: 78
59: 79
60: 80
segment: [9]
vertex id: label
52: 0
53: 2
54: 1
55: 1
56: 0
57: 3
58: 3
59: 2
60: 1
61: 4
62: 1
63: 3
64: 3
65: 3
66: 3
67: 2
68: 3
69: 3
70: 0
71: 3
0: 5
1: 5
2: 5
3: 5
4: 5
5: 5
6: 5
7: 5
8: 5
9: 5
10: 5
11: 5
12: 5
13: 5
14: 5
15: 5
16: 5
17: 5
18: 5
19: 5
20: 5
21: 5
22: 5
23: 5
24: 5
25: 5
26: 5
27: 5
28: 5
29: 5
30: 5
31: 5
32: 5
33: 5
34: 5
35: 5
36: 5
37: 5
38: 5
39: 5
40: 5
41: 5
42: 5
43: 5
44: 5
45: 5
46: 5
47: 5
48: 5
49: 5
50: 5
51: 5
edge from: to
52: 0
53: 4
54: 10
55: 8
55: 10
55: 11
55: 12
56: 8
56: 12
56: 15
57: 13
57: 16
58: 17
59: 18
59: 21
60: 13
60: 24
60: 25
61: 25
62: 22
62: 26
63: 23
63: 27
63: 28
64: 24
64: 28
65: 30
66: 27
66: 32
67: 31
67: 37
67: 38
68: 24
68: 34
68: 36
68: 41
68: 42
69: 45
69: 46
70: 38
70: 46
71: 40
71: 48
1: 52
2: 52
3: 52
4: 52
5: 53
6: 53
7: 53
8: 53
9: 53
10: 53
11: 54
12: 54
13: 55
14: 55
15: 55
16: 56
17: 57
18: 58
19: 58
20: 58
21: 58
22: 58
23: 59
24: 59
25: 59
26: 60
27: 61
28: 62
29: 63
30: 64
31: 64
32: 65
33: 65
34: 66
35: 66
36: 66
37: 66
38: 66
39: 67
40: 67
41: 67
42: 67
43: 68
44: 68
45: 68
46: 68
47: 69
48: 70
49: 70
50: 71
51: 71
