segment: [0]
vertex id: label
58: 0
59: 0
60: 1
61: 0
62: 4
63: 0
64: 3
65: 4
66: 0
67: 3
68: 1
69: 4
70: 0
71: 2
72: 1
73: 4
74: 3
75: 1
76: 4
77: 0
0: 5
1: 5
2: 5
3: 5
4: 5
5: 5
6: 5
7: 5
8: 5
9: 5
10: 5
11: 5
12: 5
13: 5
14: 5
15: 5
16: 5
17: 5
18: 5
19: 5
20: 5
21: 5
22: 5
23: 5
24: 5
25: 5
26: 5
27: 5
28: 5
29: 5
30: 5
31: 5
32: 5
33: 5
34: 5
35: 5
36: 5
37: 5
38: 5
39: 5
40: 5
41: 5
42: 5
43: 5
44: 5
45: 5
46: 5
47: 5
48: 5
49: 5
50: 5
51: 5
52: 5
53: 5
54: 5
55: 5
56: 5
57: 5
edge from: to
58: 0
59: 1
59: 2
60: 2
60: 3
61: 8
62: 10
62: 14
63: 11
64: 17
65: 17
65: 19
65: 20
66: 16
66: 22
67: 24
68: 27
69: 29
69: 31
70: 31
70: 33
71: 26
71: 36
72: 28
72: 35
72: 38
72: 39
73: 40
74: 31
74: 43
75: 43
75: 47
75: 48
76: 51
77: 37
77: 47
77: 52
1: 58
2: 58
3: 59
4: 59
5: 60
6: 60
7: 60
8: 60
9: 60
10: 60
11: 60
12: 61
13: 61
14: 61
15: 62
16: 63
17: 63
18: 64
19: 64
20: 64
21: 65
22: 65
23: 66
24: 66
25: 67
26: 67
27: 67
28: 68
29: 68
30: 68
31: 68
32: 69
33: 69
34: 70
35: 70
36: 70
37: 71
38: 71
39: 71
40: 72
41: 73
42: 73
43: 73
44: 74
45: 74
46: 74
47: 74
48: 74
49: 75
50: 75
51: 75
52: 76
53: 77
54: 77
55: 77
56: 77
57: 77
segment: [1]
vertex id: label
74: 0
75: 0
76: 4
77: 0
78: 0
79: 0
80: 0
81: 0
82: 3
83: 3
84: 2
85: 0
86: 4
87: 0
88: 0
89: 0
90: 3
91: 3
92: 1
93: 2
0: 5
1: 5
2: 5
3: 5
4: 5
5: 5
6: 5
7: 5
8: 5
9: 5
10: 5
11: 5
12: 5
13: 5
14: 5
15: 5
16: 5
17: 5
18: 5
19: 5
20: 5
21: 5
22: 5
23: 5
24: 5
25: 5
26: 5
27: 5
28: 5
29: 5
30: 5
31: 5
32: 5
33: 5
34: 5
35: 5
36: 5
37: 5
38: 5
39: 5
40: 5
41: 5
42: 5
43: 5
44: 5
45: 5
46: 5
47: 5
48: 5
49: 5
50: 5
51: 5
52: 5
53: 5
54: 5
55: 5
56: 5
57: 5
58: 5
59: 5
60: 5
61: 5
62: 5
63: 5
64: 5
65: 5
66: 5
67: 5
68: 5
69: 5
70: 5
71: 5
72: 5
73: 5
edge from: to
74: 0
75: 5
75: 7
76: 13
77: 15
77: 17
78: 2
78: 16
78: 21
78: 22
79: 18
79: 25
80: 24
80: 26
80: 27
81: 20
81: 28
82: 23
83: 25
84: 37
85: 36
85: 39
85: 40
86: 30
87: 44
88: 48
89: 37
90: 54
91: 57
92: 42
92: 59
93: 67
1: 74
2: 74
3: 74
4: 74
5: 74
6: 74
7: 74
8: 75
9: 75
10: 75
11: 75
12: 75
13: 75
14: 76
15: 76
16: 76
17: 76
18: 77
19: 77
20: 77
21: 77
22: 77
23: 78
24: 78
25: 78
26: 79
27: 79
28: 80
29: 81
30: 81
31: 81
32: 81
33: 82
34: 82
35: 82
36: 83
37: 83
38: 84
39: 84
40: 84
41: 85
42: 85
43: 86
44: 86
45: 87
46: 87
47: 87
48: 87
49: 88
50: 88
51: 88
52: 88
53: 89
54: 89
55: 90
56: 90
57: 90
58: 91
59: 91
60: 92
61: 92
62: 92
63: 92
64: 92
65: 92
66: 92
67: 92
68: 93
69: 93
70: 93
71: 93
72: 93
73: 93
segment: [2]
vertex id: label
71: 0
72: 0
73: 3
74: 4
75: 0
76: 0
77: 3
78: 1
79: 3
80: 1
81: 2
82: 0
83: 0
84: 3
85: 1
86: 4
87: 2
88: 1
89: 4
90: 0
0: 5
1: 5
2: 5
3: 5
4: 5
5: 5
6: 5
7: 5
8: 5
9: 5
10: 5
11: 5
12: 5
13: 5
14: 5
15: 5
16: 5
17: 5
18: 5
19: 5
20: 5
21: 5
22: 5
23: 5
24: 5
25: 5
26: 5
27: 5
28: 5
29: 5
30: 5
31: 5
32: 5
33: 5
34: 5
35: 5
36: 5
37: 5
38: 5
39: 5
40: 5
41: 5
42: 5
43: 5
44: 5
45: 5
46: 5
47: 5
48: 5
49: 5
50: 5
51: 5
52: 5
53: 5
54: 5
55: 5
56: 5
57: 5
58: 5
59: 5
60: 5
61: 5
62: 5
63: 5
64: 5
65: 5
66: 5
67: 5
68: 5
69: 5
70: 5
edge from: to
71: 0
71: 1
72: 2
73: 5
73: 7
74: 9
74: 10
74: 12
75: 11
76: 13
77: 20
78: 21
78: 24
79: 19
79: 24
79: 26
79: 27
80: 33
81: 26
81: 36
82: 30
83: 4
83: 19
83: 42
83: 44
83: 45
84: 46
84: 51
85: 37
86: 40
86: 56
87: 58
88: 45
88: 57
88: 63
89: 64
90: 61
90: 66
90: 67
2: 71
3: 71
4: 72
5: 72
6: 72
7: 72
8: 73
9: 73
10: 73
11: 73
12: 73
13: 74
14: 74
15: 74
16: 75
17: 75
18: 75
19: 76
20: 76
21: 77
22: 77
23: 77
24: 77
25: 78
26: 78
27: 78
28: 79
29: 79
30: 79
31: 79
32: 79
33: 79
34: 80
35: 80
36: 80
37: 81
38: 81
39: 81
40: 81
41: 81
42: 81
43: 82
44: 82
45: 82
46: 83
47: 83
48: 83
49: 83
50: 83
51: 83
52: 84
53: 85
54: 85
55: 85
56: 85
57: 86
58: 86
59: 87
60: 87
61: 87
62: 87
63: 87
64: 88
65: 89
66: 89
67: 89
68: 90
69: 90
70: 90
segment: [3]
vertex id: label
56: 0
57: 0
58: 3
59: 3
60: 1
61: 4
62: 0
63: 0
64: 0
65: 3
66: 1
67: 4
68: 0
69: 4
70: 2
71: 0
72: 2
73: 0
74: 0
75: 3
0: 5
1: 5
2: 5
3: 5
4: 5
5: 5
6: 5
7: 5
8: 5
9: 5
10: 5
11: 5
12: 5
13: 5
14: 5
15: 5
16: 5
17: 5
18: 5
19: 5
20: 5
21: 5
22: 5
23: 5
24: 5
25: 5
26: 5
27: 5
28: 5
29: 5
30: 5
31: 5
32: 5
33: 5
34: 5
35: 5
36: 5
37: 5
38: 5
39: 5
40: 5
41: 5
42: 5
43: 5
44: 5
45: 5
46: 5
47: 5
48: 5
49: 5
50: 5
51: 5
52: 5
53: 5
54: 5
55: 5
edge from: to
56: 0
56: 1
56: 2
57: 6
58: 7
58: 9
58: 10
59: 10
59: 14
60: 12
60: 15
60: 17
61: 15
61: 20
61: 21
62: 2
62: 16
62: 21
62: 22
63: 23
64: 17
64: 21
64: 24
65: 18
65: 22
65: 25
66: 20
67: 28
67: 30
68: 23
68: 32
69: 26
69: 36
70: 28
71: 41
71: 43
71: 44
72: 33
73: 43
73: 48
74: 50
75: 38
75: 53
3: 56
4: 56
5: 56
6: 56
7: 57
8: 57
9: 57
10: 57
11: 58
12: 58
13: 58
14: 58
15: 59
16: 59
17: 59
18: 60
19: 60
20: 60
21: 60
22: 61
23: 62
24: 63
25: 64
26: 65
27: 65
28: 65
29: 66
30: 66
31: 67
32: 67
33: 68
34: 68
35: 68
36: 68
37: 69
38: 69
39: 69
40: 70
41: 70
42: 70
43: 70
44: 70
45: 71
46: 71
47: 72
48: 72
49: 73
50: 73
51: 74
52: 74
53: 74
54: 75
55: 75
segment: [4]
vertex id: label
56: 0
57: 2
58: 2
59: 0
60: 3
61: 3
62: 3
63: 4
64: 0
65: 0
66: 0
67: 0
68: 0
69: 0
70: 0
71: 0
72: 4
73: 0
74: 0
75: 2
0: 5
1: 5
2: 5
3: 5
4: 5
5: 5
6: 5
7: 5
8: 5
9: 5
10: 5
11: 5
12: 5
13: 5
14: 5
15: 5
16: 5
17: 5
18: 5
19: 5
20: 5
21: 5
22: 5
23: 5
24: 5
25: 5
26: 5
27: 5
28: 5
29: 5
30: 5
31: 5
32: 5
33: 5
34: 5
35: 5
36: 5
37: 5
38: 5
39: 5
40: 5
41: 5
42: 5
43: 5
44: 5
45: 5
46: 5
47: 5
48: 5
49: 5
50: 5
51: 5
52: 5
53: 5
54: 5
55: 5
edge from: to
56: 0
57: 0
57: 1
58: 3
59: 5
59: 7
60: 9
60: 12
61: 10
62: 14
62: 15
62: 16
63: 14
64: 18
64: 25
65: 20
65: 28
66: 23
67: 25
67: 35
68: 33
68: 37
69: 34
69: 37
69: 38
70: 28
70: 39
71: 40
72: 41
72: 43
72: 44
73: 47
74: 45
74: 49
74: 50
75: 51
1: 56
2: 57
3: 57
4: 57
5: 58
6: 58
7: 58
8: 59
9: 59
10: 59
11: 59
12: 59
13: 60
14: 60
15: 61
16: 61
17: 62
18: 62
19: 62
20: 63
21: 63
22: 63
23: 63
24: 63
25: 63
26: 64
27: 64
28: 64
29: 65
30: 65
31: 65
32: 65
33: 66
34: 66
35: 66
36: 67
37: 67
38: 68
39: 69
40: 70
41: 71
42: 71
43: 71
44: 71
45: 72
46: 72
47: 72
48: 73
49: 73
50: 73
51: 74
52: 75
53: 75
54: 75
55: 75
segment: [5]
vertex id: label
66: 0
67: 0
68: 0
69: 0
70: 3
71: 1
72: 2
73: 2
74: 1
75: 0
76: 0
77: 3
78: 1
79: 4
80: 0
81: 2
82: 1
83: 2
84: 1
85: 2
0: 5
1: 5
2: 5
3: 5
4: 5
5: 5
6: 5
7: 5
8: 5
9: 5
10: 5
11: 5
12: 5
13: 5
14: 5
15: 5
16: 5
17: 5
18: 5
19: 5
20: 5
21: 5
22: 5
23: 5
24: 5
25: 5
26: 5
27: 5
28: 5
29: 5
30: 5
31: 5
32: 5
33: 5
34: 5
35: 5
36: 5
37: 5
38: 5
39: 5
40: 5
41: 5
42: 5
43: 5
44: 5
45: 5
46: 5
47: 5
48: 5
49: 5
50: 5
51: 5
52: 5
53: 5
54: 5
55: 5
56: 5
57: 5
58: 5
59: 5
60: 5
61: 5
62: 5
63: 5
64: 5
65: 5
edge from: to
66: 0
67: 2
68: 3
69: 5
69: 6
70: 10
71: 10
71: 12
71: 14
72: 14
72: 18
72: 19
73: 16
73: 22
74: 24
75: 27
76: 33
77: 26
78: 36
78: 39
78: 40
79: 41
79: 43
79: 44
80: 35
80: 49
81: 38
81: 53
82: 55
83: 40
83: 53
83: 56
83: 57
84: 42
85: 58
85: 64
1: 66
2: 66
3: 67
4: 67
5: 68
6: 68
7: 69
8: 69
9: 69
10: 69
11: 70
12: 70
13: 70
14: 70
15: 71
16: 71
17: 71
18: 71
19: 71
20: 72
21: 72
22: 72
23: 73
24: 73
25: 74
26: 74
27: 74
28: 75
29: 75
30: 75
31: 75
32: 75
33: 75
34: 76
35: 76
36: 76
37: 77
38: 77
39: 77
40: 77
41: 78
42: 78
43: 78
44: 78
45: 79
46: 79
47: 79
48: 79
49: 79
50: 80
51: 80
52: 80
53: 80
54: 81
55: 81
56: 82
57: 82
58: 83
59: 83
60: 84
61: 84
62: 84
63: 84
64: 84
65: 85
segment: [6]
vertex id: label
64: 0
65: 0
66: 0
67: 0
68: 3
69: 3
70: 3
71: 3
72: 1
73: 4
74: 0
75: 2
76: 0
77: 0
78: 2
79: 2
80: 1
81: 2
82: 1
83: 4
0: 5
1: 5
2: 5
3: 5
4: 5
5: 5
6: 5
7: 5
8: 5
9: 5
10: 5
11: 5
12: 5
13: 5
14: 5
15: 5
16: 5
17: 5
18: 5
19: 5
20: 5
21: 5
22: 5
23: 5
24: 5
25: 5
26: 5
27: 5
28: 5
29: 5
30: 5
31: 5
32: 5
33: 5
34: 5
35: 5
36: 5
37: 5
38: 5
39: 5
40: 5
41: 5
42: 5
43: 5
44: 5
45: 5
46: 5
47: 5
48: 5
49: 5
50: 5
51: 5
52: 5
53: 5
54: 5
55: 5
56: 5
57: 5
58: 5
59: 5
60: 5
61: 5
62: 5
63: 5
edge from: to
64: 0
64: 1
64: 2
64: 3
65: 5
65: 7
66: 7
66: 9
66: 10
67: 9
68: 16
69: 2
69: 16
69: 21
69: 22
70: 17
70: 21
70: 23
70: 24
71: 24
71: 26
71: 27
72: 21
72: 26
72: 29
73: 31
74: 34
75: 27
75: 34
75: 37
75: 38
76: 30
76: 42
77: 31
77: 43
78: 33
78: 43
78: 45
78: 46
79: 45
79: 49
79: 50
80: 37
81: 38
82: 57
83: 54
83: 60
4: 64
5: 64
6: 64
7: 64
8: 65
9: 65
10: 65
11: 66
12: 66
13: 67
14: 67
15: 67
16: 67
17: 68
18: 68
19: 68
20: 68
21: 68
22: 68
23: 69
24: 69
25: 70
26: 70
27: 70
28: 71
29: 71
30: 72
31: 72
32: 73
33: 73
34: 73
35: 74
36: 74
37: 74
38: 74
39: 75
40: 75
41: 75
42: 75
43: 76
44: 77
45: 77
46: 77
47: 78
48: 78
49: 78
50: 78
51: 79
52: 79
53: 80
54: 81
55: 81
56: 81
57: 81
58: 82
59: 82
60: 82
61: 83
62: 83
63: 83
segment: [7]
vertex id: label
66: 0
67: 0
68: 0
69: 0
70: 3
71: 1
72: 2
73: 1
74: 0
75: 0
76: 0
77: 4
78: 0
79: 4
80: 0
81: 0
82: 0
83: 0
84: 0
85: 0
0: 5
1: 5
2: 5
3: 5
4: 5
5: 5
6: 5
7: 5
8: 5
9: 5
10: 5
11: 5
12: 5
13: 5
14: 5
15: 5
16: 5
17: 5
18: 5
19: 5
20: 5
21: 5
22: 5
23: 5
24: 5
25: 5
26: 5
27: 5
28: 5
29: 5
30: 5
31: 5
32: 5
33: 5
34: 5
35: 5
36: 5
37: 5
38: 5
39: 5
40: 5
41: 5
42: 5
43: 5
44: 5
45: 5
46: 5
47: 5
48: 5
49: 5
50: 5
51: 5
52: 5
53: 5
54: 5
55: 5
56: 5
57: 5
58: 5
59: 5
60: 5
61: 5
62: 5
63: 5
64: 5
65: 5
edge from: to
66: 0
67: 3
67: 5
67: 6
67: 7
68: 9
68: 12
69: 11
69: 13
69: 15
70: 16
71: 23
72: 19
72: 26
73: 28
73: 30
74: 23
75: 32
75: 34
76: 33
76: 37
77: 40
78: 30
78: 39
78: 41
78: 42
79: 33
80: 50
81: 37
81: 47
81: 52
82: 55
83: 58
84: 61
85: 45
1: 66
2: 66
3: 66
4: 66
5: 66
6: 66
7: 66
8: 67
9: 67
10: 67
11: 67
12: 67
13: 68
14: 68
15: 68
16: 69
17: 70
18: 70
19: 70
20: 70
21: 70
22: 70
23: 70
24: 71
25: 71
26: 71
27: 72
28: 72
29: 72
30: 72
31: 73
32: 73
33: 74
34: 74
35: 75
36: 75
37: 75
38: 76
39: 76
40: 76
41: 77
42: 77
43: 78
44: 78
45: 78
46: 78
47: 79
48: 79
49: 79
50: 79
51: 80
52: 80
53: 81
54: 81
55: 81
56: 82
57: 82
58: 82
59: 83
60: 83
61: 83
62: 84
63: 84
64: 85
65: 85
segment: [8]
vertex id: label
61: 0
62: 0
63: 0
64: 0
65: 0
66: 3
67: 3
68: 3
69: 1
70: 4
71: 0
72: 2
73: 2
74: 1
75: 2
76: 1
77: 2
78: 0
79: 3
80: 3
0: 5
1: 5
2: 5
3: 5
4: 5
5: 5
6: 5
7: 5
8: 5
9: 5
10: 5
11: 5
12: 5
13: 5
14: 5
15: 5
16: 5
17: 5
18: 5
19: 5
20: 5
21: 5
22: 5
23: 5
24: 5
25: 5
26: 5
27: 5
28: 5
29: 5
30: 5
31: 5
32: 5
33: 5
34: 5
35: 5
36: 5
37: 5
38: 5
39: 5
40: 5
41: 5
42: 5
43: 5
44: 5
45: 5
46: 5
47: 5
48: 5
49: 5
50: 5
51: 5
52: 5
53: 5
54: 5
55: 5
56: 5
57: 5
58: 5
59: 5
60: 5
edge from: to
61: 0
61: 1
62: 0
62: 1
62: 2
63: 4
63: 5
64: 6
64: 8
65: 9
66: 11
66: 12
66: 13
67: 14
67: 16
68: 13
68: 16
68: 18
69: 17
69: 21
69: 24
70: 19
71: 24
71: 27
72: 29
72: 31
73: 32
73: 34
74: 25
74: 31
74: 35
75: 26
75: 32
75: 36
76: 30
76: 42
77: 42
77: 44
77: 45
78: 47
79: 54
80: 40
2: 61
3: 62
4: 62
5: 62
6: 63
7: 63
8: 63
9: 64
10: 64
11: 64
12: 64
13: 65
14: 66
15: 66
16: 66
17: 67
18: 67
19: 68
20: 68
21: 68
22: 68
23: 68
24: 68
25: 69
26: 69
27: 70
28: 71
29: 71
30: 71
31: 71
32: 72
33: 72
34: 72
35: 73
36: 74
37: 75
38: 75
39: 75
40: 75
41: 75
42: 75
43: 76
44: 76
45: 76
46: 77
47: 77
48: 78
49: 78
50: 78
51: 78
52: 78
53: 78
54: 78
55: 79
56: 79
57: 80
58: 80
59: 80
60: 80
segment: [9]
vertex id: label
60: 0
61: 0
62: 4
63: 0
64: 2
65: 2
66: 1
67: 2
68: 1
69: 2
70: 0
71: 0
72: 0
73: 4
74: 0
75: 3
76: 1
77: 4
78: 0
79: 3
0: 5
1: 5
2: 5
3: 5
4: 5
5: 5
6: 5
7: 5
8: 5
9: 5
10: 5
11: 5
12: 5
13: 5
14: 5
15: 5
16: 5
17: 5
18: 5
19: 5
20: 5
21: 5
22: 5
23: 5
24: 5
25: 5
26: 5
27: 5
28: 5
29: 5
30: 5
31: 5
32: 5
33: 5
34: 5
35: 5
36: 5
37: 5
38: 5
39: 5
40: 5
41: 5
42: 5
43: 5
44: 5
45: 5
46: 5
47: 5
48: 5
49: 5
50: 5
51: 5
52: 5
53: 5
54: 5
55: 5
56: 5
57: 5
58: 5
59: 5
edge from: to
60: 0
60: 1
61: 1
61: 2
61: 3
62: 5
63: 7
63: 10
64: 8
64: 9
64: 11
65: 9
65: 10
65: 12
66: 14
66: 16
67: 14
67: 19
68: 15
68: 21
69: 20
69: 28
70: 29
70: 30
70: 31
71: 25
72: 26
73: 33
73: 37
74: 36
74: 40
75: 31
76: 42
76: 47
77: 35
78: 38
79: 40
79: 53
79: 56
79: 57
2: 60
3: 60
4: 61
5: 61
6: 61
7: 61
8: 62
9: 62
10: 62
11: 63
12: 64
13: 65
14: 65
15: 65
16: 65
17: 66
18: 66
19: 66
20: 67
21: 67
22: 68
23: 68
24: 68
25: 68
26: 68
27: 68
28: 68
29: 69
30: 69
31: 69
32: 70
33: 70
34: 70
35: 70
36: 71
37: 72
38: 73
39: 73
40: 73
41: 74
42: 74
43: 74
44: 75
45: 75
46: 75
47: 75
48: 76
49: 76
50: 77
51: 77
52: 77
53: 77
54: 78
55: 78
56: 78
57: 78
58: 79
59: 79
