:START_ID(Entity-ID),:END_ID(Activity-ID)
6,0
7,1
8,1
9,1
10,2
11,2
12,3
13,4
14,4
15,4
16,5
17,5
18,5
19,5
20,5
21,6
22,6
23,6
24,7
25,7
26,8
27,8
28,8
29,9
30,9
31,10
32,10
33,10
34,10
35,11
36,11
37,12
38,12
39,13
40,13
41,14
42,14
43,15
44,15
45,15
46,15
47,16
48,16
49,16
50,16
51,16
52,16
53,16
54,16
55,16
56,16
57,17
58,17
59,17
60,17
61,18
62,18
63,18
64,18
65,19
66,19
67,20
68,20
69,20
70,20
71,20
72,20
73,21
74,21
75,22
76,23
77,23
78,23
79,23
80,24
81,24
82,24
83,24
84,25
85,25
86,25
87,26
88,26
89,27
90,28
91,28
92,28
93,28
94,28
95,29
96,29
97,30
98,30
99,30
100,30
101,30
102,30
103,30
104,31
105,32
106,32
107,33
108,33
109,33
110,33
111,34
112,34
113,34
114,34
115,35
116,35
117,36
118,36
119,37
120,37
121,37
122,38
123,38
124,38
125,38
126,39
127,39
128,40
129,40
130,41
131,41
132,41
133,42
134,42
135,42
136,42
137,42
138,43
139,43
140,43
141,43
142,44
143,44
144,44
145,44
146,45
147,46
148,46
149,46
150,47
151,47
152,47
153,47
154,48
155,48
156,49
157,49
158,49
159,49
160,49
161,50
162,50
163,50
164,51
165,51
166,52
167,52
168,53
169,53
170,54
171,55
172,55
173,55
174,56
175,57
176,58
177,58
178,58
179,58
180,59
181,59
182,59
183,60
184,61
185,61
186,61
187,62
188,62
189,62
190,62
191,62
192,63
193,63
194,63
195,63
196,63
197,64
198,64
199,64
200,65
201,65
202,66
203,67
204,67
205,67
206,68
207,68
208,69
209,70
210,70
211,70
212,70
213,70
214,71
215,71
216,72
217,72
218,72
219,73
220,73
221,74
222,74
223,74
224,75
225,75
226,75
227,75
228,76
229,76
230,76
231,76
232,77
233,77
234,77
235,78
236,78
237,78
238,79
239,79
240,79
241,79
242,80
243,80
244,80
245,80
246,81
247,81
248,82
249,82
250,83
251,84
252,84
253,85
254,85
255,86
256,86
257,86
258,87
259,87
260,87
261,87
262,88
263,88
264,88
265,89
266,89
267,90
268,91
269,92
270,92
271,92
272,93
273,93
274,93
275,93
276,93
277,94
278,94
279,95
280,95
281,95
282,95
283,96
284,96
285,96
286,97
287,97
288,97
289,98
290,98
291,98
292,98
293,98
294,99
295,99
296,100
297,100
298,101
299,101
300,101
301,101
302,102
303,103
304,103
305,103
306,103
307,103
308,103
309,104
310,104
311,104
312,105
313,106
314,106
315,106
316,107
317,108
318,108
319,108
320,109
321,109
322,109
323,109
324,110
325,110
326,111
327,111
328,111
329,111
330,111
331,112
332,112
333,113
334,113
335,113
336,113
337,114
338,114
339,114
340,115
341,116
342,116
343,116
344,117
345,117
346,117
347,117
348,117
349,117
350,118
351,118
352,118
353,119
354,119
355,119
356,120
357,121
358,121
359,122
360,122
361,123
362,124
363,125
364,125
365,126
366,126
367,127
368,127
369,127
370,128
371,128
372,128
373,129
374,129
375,129
376,130
377,130
378,130
379,131
380,131
381,131
382,131
383,132
384,132
385,132
386,133
387,133
388,134
389,134
390,134
391,135
392,135
393,135
394,135
395,136
396,136
397,137
398,137
399,137
400,137
401,138
402,138
403,139
404,140
405,141
406,141
407,141
408,142
409,143
410,143
411,144
412,144
413,144
414,145
415,145
416,145
417,145
418,146
419,146
420,146
421,146
422,146
423,147
424,147
425,147
426,147
427,148
428,149
429,149
430,150
431,150
432,150
433,151
434,152
435,152
436,152
437,152
438,152
439,153
440,154
441,154
442,155
443,156
444,156
445,156
446,156
447,157
448,157
449,157
450,157
451,158
452,158
453,158
454,158
455,159
456,159
457,159
458,160
459,160
460,161
461,161
462,161
463,161
464,161
465,162
466,162
467,163
468,163
469,163
470,163
471,163
472,163
473,164
474,164
475,164
476,165
477,165
478,165
479,166
480,166
481,167
482,168
483,169
484,169
485,169
486,170
487,170
488,170
489,171
490,171
491,172
492,172
493,172
494,173
495,174
496,174
497,174
498,175
499,175
500,175
501,176
502,176
503,177
504,177
505,178
506,178
507,178
508,179
509,179
510,179
511,180
512,181
513,181
514,182
515,182
516,182
517,183
518,183
519,183
520,184
521,184
522,184
523,185
524,185
525,186
526,186
527,186
528,186
529,187
530,187
531,188
532,188
533,188
534,188
535,188
536,189
537,189
538,190
539,190
540,191
541,191
542,191
543,192
544,192
545,192
546,192
547,193
548,193
549,194
550,194
551,194
552,195
553,195
554,195
555,195
556,196
557,197
558,197
559,197
560,197
561,198
562,198
563,198
564,199
565,199
566,199
567,200
568,200
569,200
570,201
571,201
572,202
573,203
574,203
575,203
576,204
577,204
578,204
579,204
580,205
581,205
582,205
583,205
584,206
585,206
586,207
587,207
588,207
589,208
590,208
591,208
592,209
593,209
594,210
595,210
596,210
597,211
598,211
599,212
600,212
601,212
602,212
603,213
604,213
605,214
606,214
607,215
608,215
609,216
610,217
611,217
612,218
613,219
614,219
615,219
616,220
617,220
618,220
619,221
620,222
621,222
622,223
623,223
624,223
625,223
626,223
627,223
628,224
629,225
630,226
631,226
632,227
633,228
634,228
635,228
636,229
637,229
638,230
639,230
640,231
641,231
642,231
643,231
644,231
645,231
646,232
647,232
648,233
649,233
650,233
651,234
652,235
653,235
654,235
655,235
656,235
657,236
658,236
659,236
660,237
661,237
662,237
663,237
664,237
665,237
666,238
667,238
668,238
669,238
670,238
671,239
672,239
673,240
674,240
675,240
676,241
677,241
678,241
679,241
680,242
681,242
682,242
683,243
684,243
685,243
686,244
687,244
688,245
689,246
690,246
691,246
692,247
693,247
694,247
695,247
696,248
697,249
698,249
699,249
700,249
701,250
702,251
703,251
704,251
705,251
706,252
707,252
708,252
709,252
710,253
711,253
712,253
713,253
714,254
715,254
716,255
717,255
718,255
719,256
720,256
721,256
722,256
723,257
724,257
725,257
726,257
727,258
728,259
729,259
730,259
731,260
732,260
733,260
734,260
735,261
736,261
737,261
738,262
739,262
740,263
741,263
742,263
743,263
744,264
745,264
746,264
747,264
748,265
749,265
750,265
751,266
752,266
753,267
754,267
755,267
756,268
757,268
758,268
759,269
760,269
761,270
762,271
763,271
764,272
765,272
766,272
767,272
768,273
769,273
770,273
771,274
772,274
773,274
774,275
775,275
776,275
777,275
778,276
779,276
780,276
781,276
782,276
783,277
784,277
785,277
786,278
787,278
788,279
789,279
790,279
791,279
792,280
793,280
794,280
795,280
796,281
797,281
798,281
799,281
800,282
801,282
802,282
803,283
804,283
805,283
806,283
807,283
808,284
809,284
810,284
811,284
812,284
813,284
814,284
815,284
816,284
817,285
818,285
819,285
820,285
821,285
822,286
823,286
824,287
825,287
826,287
827,287
828,287
829,287
830,288
831,288
832,288
833,289
834,289
835,290
836,290
837,291
838,292
839,292
840,293
841,293
842,293
843,293
844,294
845,294
846,295
847,295
848,296
849,296
850,296
851,296
852,297
853,297
854,297
855,297
856,297
857,297
858,298
859,298
860,299
861,299
862,299
863,300
864,300
865,301
866,301
867,302
868,302
869,302
870,302
871,303
872,303
873,303
874,304
875,304
876,304
877,304
878,304
879,304
880,305
881,306
882,306
883,306
884,307
885,307
886,307
887,307
888,307
889,307
890,308
891,308
892,309
893,309
894,310
895,310
896,310
897,310
898,310
899,310
900,311
901,312
902,312
903,313
904,313
905,313
906,313
907,314
908,314
909,314
910,315
911,315
912,315
913,316
914,317
915,317
916,318
917,318
918,318
919,318
920,319
921,319
922,319
923,320
924,321
925,321
926,321
927,322
928,322
929,322
930,323
931,324
932,324
933,325
934,325
935,325
936,326
937,326
938,326
939,326
940,327
941,328
942,328
943,328
944,329
945,329
946,330
947,330
948,330
949,330
950,330
951,330
952,331
953,331
954,331
955,331
956,332
957,333
958,333
959,333
960,333
961,334
962,334
963,334
964,335
965,335
966,336
967,336
968,336
969,337
970,337
971,337
972,337
973,337
974,338
975,338
976,338
977,338
978,338
979,338
980,339
981,339
982,339
983,339
984,339
985,340
986,340
987,340
988,341
989,341
990,341
991,342
992,342
993,343
994,344
995,344
996,344
997,344
998,345
999,346
1000,346
1001,346
1002,347
1003,347
1004,347
1005,347
1006,348
1007,348
1008,348
1009,349
1010,349
1011,350
1012,350
1013,350
1014,350
1015,351
1016,351
1017,351
1018,351
1019,352
1020,352
1021,352
1022,353
1023,353
1024,354
1025,354
1026,354
1027,354
1028,354
1029,355
1030,355
1031,355
1032,355
1033,355
1034,356
1035,356
1036,357
1037,357
1038,357
1039,357
1040,358
1041,358
1042,358
1043,358
1044,359
1045,359
1046,359
1047,359
1048,359
1049,359
1050,360
1051,360
1052,360
1053,361
1054,361
1055,361
1056,361
1057,362
1058,362
1059,363
1060,363
1061,363
1062,363
1063,364
1064,364
1065,365
1066,365
1067,365
1068,365
1069,365
1070,366
1071,367
1072,367
1073,367
1074,368
1075,368
1076,368
1077,368
1078,369
1079,369
1080,370
1081,370
1082,370
1083,371
1084,371
1085,371
1086,371
1087,371
1088,371
1089,371
1090,371
1091,372
1092,372
1093,372
1094,372
1095,372
1096,372
1097,373
1098,373
1099,373
1100,373
1101,373
1102,374
1103,374
1104,374
1105,375
1106,375
1107,375
1108,376
1109,376
1110,376
1111,377
1112,377
1113,378
1114,378
1115,378
1116,378
1117,378
1118,378
1119,379
1120,379
1121,379
1122,380
1123,380
1124,381
1125,381
1126,381
1127,382
1128,382
1129,383
1130,383
1131,384
1132,384
1133,385
1134,385
1135,385
1136,386
1137,386
1138,387
1139,387
1140,387
1141,388
1142,388
1143,388
1144,388
1145,388
1146,389
1147,389
1148,389
1149,389
1150,390
1151,390
1152,391
1153,391
1154,391
1155,392
1156,392
1157,392
1158,392
1159,392
1160,393
1161,393
1162,394
1163,394
1164,394
1165,394
1166,395
1167,395
1168,395
1169,396
1170,396
1171,396
1172,396
1173,397
1174,397
1175,397
1176,397
1177,398
1178,398
1179,398
1180,398
1181,399
1182,399
1183,399
1184,399
1185,400
1186,400
1187,400
1188,400
1189,401
1190,401
1191,401
1192,401
1193,402
1194,402
1195,402
1196,402
1197,402
1198,402
1199,403
1200,403
1201,403
1202,403
1203,403
1204,403
1205,404
1206,404
1207,405
1208,405
1209,405
1210,406
1211,406
1212,406
1213,406
1214,407
1215,408
1216,408
1217,409
1218,409
1219,409
1220,409
1221,410
1222,410
1223,410
1224,411
1225,411
1226,411
1227,411
1228,411
1229,411
1230,411
1231,412
1232,412
1233,413
1234,413
1235,413
1236,414
1237,414
1238,414
1239,414
1240,414
1241,415
1242,416
1243,416
1244,417
1245,417
1246,418
1247,418
1248,419
1249,419
1250,420
1251,420
1252,421
1253,421
1254,422
1255,422
1256,422
1257,423
1258,423
1259,424
1260,424
1261,424
1262,424
1263,424
1264,425
1265,425
1266,425
1267,426
1268,426
1269,427
1270,427
1271,428
1272,429
1273,429
1274,429
1275,430
1276,430
1277,430
1278,430
1279,431
1280,431
1281,431
1282,431
1283,431
1284,431
1285,431
1286,432
1287,432
1288,432
1289,432
1290,433
1291,433
1292,434
1293,434
1294,435
1295,435
1296,435
1297,435
1298,435
1299,436
1300,436
1301,437
1302,438
1303,438
1304,438
1305,438
1306,439
1307,440
1308,440
1309,440
1310,441
1311,441
1312,441
1313,442
1314,442
1315,443
1316,443
1317,443
1318,443
1319,443
1320,444
1321,444
1322,444
1323,445
1324,445
1325,446
1326,446
1327,447
1328,447
1329,448
1330,449
1331,449
1332,449
1333,449
1334,450
1335,450
1336,450
1337,451
1338,451
1339,451
1340,452
1341,452
1342,453
1343,453
1344,453
1345,454
1346,454
1347,455
1348,455
1349,456
1350,456
1351,457
1352,457
1353,457
1354,458
1355,459
1356,459
1357,460
1358,460
1359,460
1360,461
1361,461
1362,461
1363,462
1364,462
1365,462
1366,463
1367,464
1368,464
1369,464
1370,465
1371,465
1372,466
1373,467
1374,467
1375,468
1376,468
1377,468
1378,468
1379,469
1380,470
1381,470
1382,470
1383,470
1384,471
1385,471
1386,471
1387,471
1388,472
1389,472
1390,472
1391,473
1392,473
1393,473
1394,474
1395,474
1396,475
1397,475
1398,475
1399,475
1400,476
1401,476
1402,477
1403,477
1404,477
1405,477
1406,477
1407,477
1408,478
1409,478
1410,478
1411,479
1412,479
1413,479
1414,480
1415,480
1416,480
1417,481
1418,482
1419,482
1420,483
1421,483
1422,484
1423,484
1424,484
1425,485
1426,485
1427,486
1428,486
1429,486
1430,486
1431,487
1432,487
1433,487
1434,488
1435,489
1436,489
1437,489
1438,490
1439,491
1440,491
1441,491
1442,491
1443,492
1444,492
1445,492
1446,493
1447,493
1448,493
1449,494
1450,494
1451,495
1452,495
1453,495
1454,496
1455,496
1456,496
1457,496
1458,497
1459,497
1460,498
1461,498
1462,499
1463,499
1464,499
1465,499
1466,500
1467,500
1468,500
1469,501
1470,501
1471,501
1472,501
1473,502
1474,502
1475,503
1476,503
1477,504
1478,504
1479,505
1480,505
1481,505
1482,505
1483,505
1484,505
1485,506
1486,506
1487,507
1488,507
1489,508
1490,508
1491,508
1492,508
1493,509
1494,509
1495,509
1496,509
1497,510
1498,510
1499,510
1500,511
1501,511
1502,511
1503,512
1504,512
1505,513
1506,513
1507,514
1508,514
1509,514
1510,514
1511,514
1512,514
1513,515
1514,515
1515,515
1516,516
1517,516
1518,517
1519,517
1520,517
1521,518
1522,518
1523,519
1524,519
1525,520
1526,520
1527,521
1528,521
1529,521
1530,521
1531,521
1532,521
1533,522
1534,522
1535,523
1536,523
1537,523
1538,523
1539,524
1540,524
1541,524
1542,524
1543,525
1544,525
1545,525
1546,526
1547,526
1548,527
1549,527
1550,527
1551,528
1552,528
1553,529
1554,530
1555,530
1556,531
1557,531
1558,531
1559,532
1560,532
1561,532
1562,532
1563,533
1564,533
1565,533
1566,533
1567,534
1568,534
1569,534
1570,535
1571,535
1572,536
1573,536
1574,536
1575,536
1576,536
1577,537
1578,537
1579,538
1580,539
1581,539
1582,539
1583,539
1584,540
1585,540
1586,540
1587,541
1588,541
1589,541
1590,542
1591,543
1592,544
1593,544
1594,545
1595,545
1596,545
1597,545
1598,546
1599,546
1600,546
1601,546
1602,547
1603,547
1604,547
1605,548
1606,548
1607,548
1608,548
1609,548
1610,549
1611,549
1612,550
1613,550
1614,550
1615,551
1616,551
1617,552
1618,552
1619,553
1620,553
1621,554
1622,554
1623,554
1624,555
1625,555
1626,555
1627,555
1628,555
1629,556
1630,557
1631,557
1632,557
1633,558
1634,558
1635,558
1636,559
1637,559
1638,559
1639,559
1640,559
1641,559
1642,560
1643,560
1644,560
1645,560
1646,560
1647,561
1648,561
1649,561
1650,561
1651,562
1652,562
1653,562
1654,563
1655,563
1656,563
1657,563
1658,564
1659,564
1660,564
1661,564
1662,565
1663,565
1664,565
1665,565
1666,566
1667,566
1668,566
1669,566
1670,567
1671,568
1672,568
1673,568
1674,569
1675,569
1676,569
1677,570
1678,570
1679,570
1680,571
1681,571
1682,571
1683,571
1684,571
1685,571
1686,571
1687,572
1688,572
1689,572
1690,572
1691,572
1692,572
1693,573
1694,573
1695,573
1696,573
1697,573
1698,574
1699,574
1700,574
1701,574
1702,575
1703,575
1704,575
1705,576
1706,576
1707,576
1708,576
1709,576
1710,576
1711,577
1712,577
1713,577
1714,577
1715,577
1716,578
1717,578
1718,578
1719,579
1720,579
1721,579
1722,579
1723,580
1724,580
1725,580
1726,580
1727,581
1728,581
1729,581
1730,582
1731,583
1732,583
1733,583
1734,583
1735,584
1736,584
1737,585
1738,585
1739,586
1740,586
1741,586
1742,586
1743,587
1744,588
1745,588
1746,589
1747,589
1748,590
1749,590
1750,590
1751,590
1752,591
1753,591
1754,591
1755,592
1756,592
1757,592
1758,592
1759,593
1760,594
1761,594
1762,594
1763,595
1764,595
1765,595
1766,596
1767,596
1768,597
1769,597
1770,597
1771,597
1772,597
1773,598
1774,598
1775,598
1776,598
1777,599
1778,599
1779,600
1780,600
1781,600
1782,600
1783,601
1784,601
1785,602
1786,603
1787,603
1788,604
1789,604
1790,604
1791,604
1792,605
1793,605
1794,605
1795,605
1796,606
1797,606
1798,606
1799,606
1800,606
1801,606
1802,606
1803,607
1804,607
1805,608
1806,608
1807,608
1808,609
1809,609
1810,609
1811,610
1812,610
1813,611
1814,611
1815,611
1816,612
1817,612
1818,612
1819,612
1820,613
1821,613
1822,614
1823,614
1824,615
1825,615
1826,615
1827,615
1828,616
1829,617
1830,618
1831,618
1832,618
1833,618
1834,619
1835,619
1836,619
1837,619
1838,619
1839,620
1840,620
1841,620
1842,621
1843,621
1844,621
1845,622
1846,622
1847,622
1848,622
1849,623
1850,623
1851,623
1852,623
1853,624
1854,624
1855,625
1856,625
1857,625
1858,626
1859,627
1860,628
1861,628
1862,629
1863,629
1864,629
1865,629
1866,630
1867,630
1868,630
1869,630
1870,630
1871,631
1872,632
1873,632
1874,633
1875,633
1876,634
1877,635
1878,635
1879,635
1880,635
1881,635
1882,636
1883,636
1884,636
1885,637
1886,637
1887,638
1888,638
1889,638
1890,638
1891,639
1892,639
1893,639
1894,640
1895,640
1896,640
1897,641
1898,641
1899,641
1900,642
1901,642
1902,642
1903,643
1904,643
1905,643
1906,644
1907,644
1908,644
1909,645
1910,645
1911,646
1912,646
1913,646
1914,646
1915,647
1916,647
1917,647
1918,648
1919,649
1920,650
1921,650
1922,650
1923,650
1924,651
1925,651
1926,652
1927,652
1928,652
1929,652
1930,652
1931,653
1932,654
1933,654
1934,654
1935,655
1936,655
1937,656
1938,656
1939,656
1940,657
1941,657
1942,658
1943,658
1944,658
1945,659
1946,659
1947,659
1948,659
1949,660
1950,661
1951,661
1952,661
1953,661
1954,661
1955,662
1956,662
1957,662
1958,663
1959,663
1960,663
1961,663
1962,663
1963,664
1964,664
1965,665
1966,665
1967,665
1968,665
1969,666
1970,667
1971,667
1972,667
1973,667
1974,668
1975,668
1976,668
1977,669
1978,669
1979,669
1980,669
1981,670
1982,670
1983,670
1984,670
1985,670
1986,670
1987,670
1988,670
1989,670
1990,671
1991,671
1992,671
1993,672
1994,672
1995,673
1996,673
1997,673
1998,673
1999,674
2000,674
2001,674
2002,675
2003,675
2004,675
2005,675
2006,675
2007,676
2008,676
2009,676
2010,676
2011,677
2012,677
2013,677
2014,678
2015,678
2016,678
2017,678
2018,679
2019,680
2020,680
2021,681
2022,682
2023,682
2024,682
2025,682
2026,683
2027,684
2028,684
2029,685
2030,685
2031,686
2032,686
2033,686
2034,687
2035,687
2036,688
2037,689
2038,689
2039,689
2040,690
2041,690
2042,691
2043,691
2044,691
2045,692
2046,692
2047,693
2048,693
2049,693
2050,694
2051,694
2052,694
2053,694
2054,694
2055,694
2056,694
2057,694
2058,694
2059,695
2060,695
2061,695
2062,696
2063,696
2064,696
2065,696
2066,697
2067,697
2068,698
2069,699
2070,699
2071,700
2072,700
2073,701
2074,701
2075,701
2076,701
2077,702
2078,703
2079,703
2080,703
2081,704
2082,704
2083,705
2084,705
2085,705
2086,705
2087,706
2088,706
2089,707
2090,708
2091,708
2092,708
2093,709
2094,709
2095,709
2096,709
2097,709
2098,710
2099,710
2100,710
2101,710
2102,710
2103,711
2104,711
2105,712
2106,712
2107,713
2108,713
2109,714
2110,714
2111,715
2112,715
2113,716
2114,716
2115,716
2116,716
2117,717
2118,717
2119,717
2120,718
2121,718
2122,719
2123,719
2124,719
2125,719
2126,720
2127,720
2128,720
2129,720
2130,720
2131,721
2132,721
2133,721
2134,721
2135,722
2136,723
2137,723
2138,724
2139,724
2140,725
2141,725
2142,725
2143,725
2144,726
2145,726
2146,726
2147,726
2148,726
2149,726
2150,727
2151,727
2152,727
2153,728
2154,728
2155,728
2156,729
2157,729
2158,730
2159,731
2160,732
2161,732
2162,732
2163,732
2164,733
2165,733
2166,733
2167,733
2168,733
2169,734
2170,735
2171,735
2172,736
2173,736
2174,737
2175,737
2176,737
2177,737
2178,738
2179,738
2180,738
2181,738
2182,738
2183,739
2184,739
2185,740
2186,740
2187,740
2188,740
2189,741
2190,741
2191,741
2192,741
2193,742
2194,742
2195,742
2196,742
2197,742
2198,743
2199,744
2200,744
2201,744
2202,744
2203,745
2204,745
2205,745
2206,745
2207,746
2208,746
2209,746
2210,747
2211,747
2212,748
2213,748
2214,749
2215,749
2216,749
2217,749
2218,750
2219,750
2220,750
2221,750
2222,750
2223,751
2224,751
2225,751
2226,751
2227,751
2228,751
2229,752
2230,752
2231,753
2232,754
2233,755
2234,756
2235,756
2236,757
2237,757
2238,757
2239,757
2240,758
2241,758
2242,758
2243,758
2244,758
2245,759
2246,759
2247,759
2248,759
2249,759
2250,760
2251,760
2252,760
2253,761
2254,761
2255,761
2256,762
2257,762
2258,762
2259,763
2260,764
2261,764
2262,765
2263,765
2264,766
2265,766
2266,766
2267,767
2268,767
2269,768
2270,768
2271,768
2272,769
2273,769
2274,769
2275,770
2276,770
2277,770
2278,771
2279,771
2280,771
2281,772
2282,772
2283,772
2284,773
2285,773
2286,773
2287,774
2288,774
2289,774
2290,774
2291,775
2292,775
2293,775
2294,776
2295,776
2296,776
2297,777
2298,777
2299,777
2300,777
2301,777
2302,778
2303,778
2304,779
2305,779
2306,779
2307,779
2308,779
2309,779
2310,779
2311,780
2312,780
2313,781
2314,781
2315,781
2316,781
2317,782
2318,782
2319,782
2320,783
2321,783
2322,784
2323,784
2324,784
2325,785
2326,785
2327,785
2328,786
2329,787
2330,787
2331,787
2332,787
2333,787
2334,787
2335,788
2336,788
2337,788
2338,788
2339,788
2340,789
2341,789
2342,789
2343,790
2344,790
2345,790
2346,790
2347,791
2348,791
2349,792
2350,792
2351,792
2352,792
2353,793
2354,793
2355,794
2356,794
2357,794
2358,794
2359,794
2360,795
2361,795
2362,795
2363,795
2364,796
2365,796
2366,796
2367,796
2368,797
2369,797
2370,797
2371,797
2372,798
2373,798
2374,799
2375,799
2376,800
2377,800
2378,800
2379,800
2380,801
2381,801
2382,802
2383,802
2384,802
2385,803
2386,803
2387,803
2388,803
2389,803
2390,804
2391,805
2392,805
2393,805
2394,806
2395,806
2396,806
2397,806
2398,806
2399,806
2400,806
2401,806
2402,807
2403,807
2404,808
2405,808
2406,809
2407,809
2408,809
2409,809
2410,810
2411,810
2412,811
2413,811
2414,811
2415,811
2416,812
2417,812
2418,812
2419,812
2420,813
2421,813
2422,813
2423,814
2424,814
2425,814
2426,814
2427,815
2428,816
2429,816
2430,816
2431,816
2432,817
2433,817
2434,817
2435,817
2436,818
2437,819
2438,819
2439,820
2440,820
2441,821
2442,821
2443,821
2444,821
2445,821
2446,822
2447,822
2448,823
2449,823
2450,823
2451,823
2452,823
2453,824
2454,824
2455,824
2456,824
2457,825
2458,825
2459,825
2460,826
2461,826
2462,827
2463,827
2464,827
2465,828
2466,828
2467,829
2468,829
2469,829
2470,830
2471,830
2472,831
2473,831
2474,831
2475,832
2476,832
2477,832
2478,832
2479,832
2480,833
2481,834
2482,834
2483,834
2484,835
2485,835
2486,835
2487,836
2488,836
2489,836
2490,836
2491,836
2492,837
2493,837
2494,837
2495,838
2496,838
2497,839
2498,840
2499,840
2500,840
2501,841
2502,841
2503,841
2504,841
2505,841
2506,842
2507,842
2508,842
2509,843
2510,843
2511,843
2512,843
2513,844
2514,845
2515,845
2516,845
2517,846
2518,846
2519,846
2520,846
2521,847
2522,847
2523,847
2524,848
2525,848
2526,848
2527,849
2528,849
2529,850
2530,851
2531,851
2532,851
2533,851
2534,851
2535,852
2536,852
2537,852
2538,852
2539,852
2540,853
2541,853
2542,854
2543,854
2544,854
2545,854
2546,855
2547,855
2548,855
2549,856
2550,857
2551,857
2552,857
2553,858
2554,858
2555,858
2556,858
2557,858
2558,859
2559,859
2560,859
2561,860
2562,860
2563,860
2564,860
2565,860
2566,861
2567,861
2568,862
2569,862
2570,863
2571,863
2572,863
2573,864
2574,864
2575,864
2576,865
2577,865
2578,865
2579,866
2580,866
2581,867
2582,867
2583,868
2584,868
2585,868
2586,869
2587,869
2588,869
2589,869
2590,869
2591,870
2592,870
2593,870
2594,871
2595,871
2596,871
2597,871
2598,871
2599,872
2600,873
2601,873
2602,874
2603,874
2604,874
2605,875
2606,875
2607,875
2608,875
2609,876
2610,876
2611,876
2612,877
2613,877
2614,877
2615,878
2616,879
2617,879
2618,879
2619,880
2620,881
2621,881
2622,881
2623,881
2624,882
2625,882
2626,882
2627,883
2628,883
2629,883
2630,884
2631,884
2632,885
2633,885
2634,885
2635,885
2636,886
2637,886
2638,886
2639,886
2640,887
2641,887
2642,887
2643,887
2644,888
2645,888
2646,889
2647,889
2648,889
2649,890
2650,890
2651,891
2652,891
2653,891
2654,891
2655,892
2656,892
2657,892
2658,893
2659,893
2660,893
2661,893
2662,894
2663,894
2664,894
2665,895
2666,895
2667,896
2668,896
2669,896
2670,896
2671,897
2672,897
2673,897
2674,898
2675,899
2676,899
2677,899
2678,899
2679,899
2680,899
2681,900
2682,900
2683,901
2684,902
2685,902
2686,903
2687,904
2688,904
2689,905
2690,906
2691,906
2692,906
2693,907
2694,907
2695,907
2696,908
2697,908
2698,908
2699,908
2700,908
2701,908
2702,909
2703,910
2704,910
2705,910
2706,910
2707,910
2708,911
2709,911
2710,912
2711,912
2712,912
2713,912
2714,913
2715,913
2716,913
2717,913
2718,914
2719,914
2720,914
2721,914
2722,914
2723,914
2724,915
2725,915
2726,915
2727,915
2728,915
2729,916
2730,916
2731,917
2732,917
2733,917
2734,917
2735,918
2736,918
2737,918
2738,918
2739,919
2740,919
2741,919
2742,920
2743,920
2744,920
2745,920
2746,921
2747,921
2748,921
2749,921
2750,922
2751,922
2752,922
2753,922
2754,923
2755,923
2756,923
2757,924
2758,924
2759,924
2760,925
2761,925
2762,925
2763,925
2764,926
2765,926
2766,926
2767,926
2768,927
2769,927
2770,928
2771,928
2772,928
2773,928
2774,928
2775,929
2776,929
2777,929
2778,929
2779,929
2780,930
2781,931
2782,931
2783,931
2784,931
2785,932
2786,932
2787,932
2788,932
2789,932
2790,933
2791,933
2792,933
2793,934
2794,934
2795,934
2796,935
2797,935
2798,936
2799,936
2800,936
2801,936
2802,936
2803,936
2804,936
2805,937
2806,937
2807,937
2808,937
2809,938
2810,938
2811,938
2812,939
2813,939
2814,940
2815,941
2816,941
2817,941
2818,941
2819,942
2820,942
2821,943
2822,943
2823,944
2824,945
2825,945
2826,945
2827,946
2828,946
2829,946
2830,947
2831,947
2832,947
2833,948
2834,948
2835,949
2836,949
2837,950
2838,950
2839,950
2840,950
2841,950
2842,951
2843,951
2844,951
2845,952
2846,952
2847,953
2848,953
2849,953
2850,954
2851,955
2852,956
2853,956
2854,956
2855,956
2856,957
2857,958
2858,958
2859,958
2860,958
2861,958
2862,958
2863,959
2864,959
2865,959
2866,960
2867,960
2868,961
2869,961
2870,961
2871,961
2872,961
2873,962
2874,962
2875,962
2876,962
2877,962
2878,963
2879,963
2880,963
2881,963
2882,964
2883,964
2884,964
2885,965
2886,965
2887,966
2888,967
2889,967
2890,968
2891,968
2892,969
2893,969
2894,970
2895,971
2896,972
2897,972
2898,972
2899,972
2900,973
2901,973
2902,974
2903,974
2904,974
2905,974
2906,974
2907,975
2908,975
2909,975
2910,976
2911,976
2912,976
2913,976
2914,977
2915,978
2916,979
2917,979
2918,979
2919,980
2920,980
2921,980
2922,980
2923,981
2924,981
2925,981
2926,981
2927,982
2928,983
2929,983
2930,984
2931,984
2932,985
2933,985
2934,985
2935,985
2936,985
2937,985
2938,985
2939,985
2940,986
2941,986
2942,986
2943,987
2944,987
2945,987
2946,988
2947,988
2948,989
2949,989
2950,989
2951,990
2952,990
2953,990
2954,990
2955,991
2956,991
2957,992
2958,992
2959,993
2960,993
2961,993
2962,993
2963,993
2964,994
2965,994
2966,994
2967,994
2968,994
2969,995
2970,995
2971,995
2972,995
2973,995
2974,996
2975,996
2976,996
2977,997
2978,997
2979,997
2980,997
2981,997
2982,998
2983,998
2984,998
2985,999
2986,999
2987,999
2988,1000
2989,1000
2990,1001
2991,1001
2992,1001
2993,1002
2994,1002
2995,1003
2996,1003
2997,1004
2998,1004
2999,1004
3000,1004
3001,1004
3002,1004
3003,1005
3004,1005
3005,1005
3006,1005
3007,1005
3008,1005
3009,1005
3010,1006
3011,1006
3012,1007
3013,1008
3014,1008
3015,1009
3016,1009
3017,1010
3018,1010
3019,1011
3020,1011
3021,1011
3022,1012
3023,1012
3024,1013
3025,1013
3026,1013
3027,1013
3028,1014
3029,1014
3030,1014
3031,1015
3032,1015
3033,1015
3034,1016
3035,1016
3036,1017
3037,1018
3038,1019
3039,1020
3040,1021
3041,1022
3042,1022
3043,1023
3044,1023
3045,1023
3046,1023
3047,1023
3048,1024
3049,1024
3050,1025
3051,1025
3052,1026
3053,1026
3054,1027
3055,1027
3056,1027
3057,1028
3058,1028
3059,1029
3060,1029
3061,1029
3062,1030
3063,1030
3064,1031
3065,1032
3066,1032
3067,1032
3068,1032
3069,1033
3070,1033
3071,1033
3072,1034
3073,1034
3074,1034
3075,1034
3076,1035
3077,1035
3078,1036
3079,1036
3080,1036
3081,1037
3082,1037
3083,1038
3084,1038
3085,1038
3086,1039
3087,1039
3088,1040
3089,1040
3090,1041
3091,1041
3092,1041
3093,1041
3094,1042
3095,1042
3096,1042
3097,1042
3098,1043
3099,1043
3100,1043
3101,1044
3102,1044
3103,1044
3104,1044
3105,1044
3106,1044
3107,1045
3108,1045
3109,1046
3110,1046
3111,1046
3112,1046
3113,1046
3114,1047
3115,1047
3116,1048
3117,1048
3118,1049
3119,1049
3120,1049
3121,1049
3122,1049
3123,1050
3124,1050
3125,1050
3126,1050
3127,1051
3128,1051
3129,1052
3130,1052
3131,1053
3132,1053
3133,1053
3134,1053
3135,1054
3136,1054
3137,1054
3138,1055
3139,1056
3140,1056
3141,1057
3142,1057
3143,1057
3144,1058
3145,1058
3146,1058
3147,1059
3148,1059
3149,1059
3150,1059
3151,1060
3152,1060
3153,1060
3154,1061
3155,1061
3156,1061
3157,1061
3158,1061
3159,1062
3160,1062
3161,1063
3162,1063
3163,1063
3164,1063
3165,1063
3166,1063
3167,1064
3168,1064
3169,1064
3170,1065
3171,1065
3172,1065
3173,1066
3174,1066
3175,1067
3176,1067
3177,1067
3178,1067
3179,1068
3180,1068
3181,1068
3182,1069
3183,1069
3184,1070
3185,1071
3186,1071
3187,1071
3188,1071
3189,1072
3190,1072
3191,1072
3192,1073
3193,1073
3194,1073
3195,1073
3196,1073
3197,1073
3198,1074
3199,1074
3200,1074
3201,1074
3202,1074
3203,1075
3204,1075
3205,1075
3206,1075
3207,1075
3208,1075
3209,1076
3210,1076
3211,1077
3212,1077
3213,1077
3214,1078
3215,1078
3216,1078
3217,1079
3218,1079
3219,1080
3220,1080
3221,1080
3222,1080
3223,1080
3224,1081
3225,1081
3226,1082
3227,1082
3228,1083
3229,1083
3230,1084
3231,1084
3232,1084
3233,1084
3234,1084
3235,1084
3236,1085
3237,1085
3238,1085
3239,1085
3240,1085
3241,1086
3242,1086
3243,1086
3244,1086
3245,1087
3246,1087
3247,1087
3248,1087
3249,1087
3250,1088
3251,1088
3252,1088
3253,1089
3254,1090
3255,1090
3256,1090
3257,1091
3258,1091
3259,1092
3260,1093
3261,1093
3262,1094
3263,1094
3264,1095
3265,1095
3266,1095
3267,1096
3268,1096
3269,1097
3270,1097
3271,1097
3272,1098
3273,1098
3274,1099
3275,1099
3276,1099
3277,1099
3278,1100
3279,1100
3280,1101
3281,1101
3282,1101
3283,1101
3284,1102
3285,1102
3286,1102
3287,1102
3288,1103
3289,1103
3290,1103
3291,1103
3292,1104
3293,1104
3294,1104
3295,1104
3296,1105
3297,1105
3298,1106
3299,1107
3300,1108
3301,1109
3302,1110
3303,1110
3304,1110
3305,1111
3306,1111
3307,1111
3308,1111
3309,1112
3310,1113
3311,1113
3312,1114
3313,1114
3314,1115
3315,1116
3316,1116
3317,1116
3318,1116
3319,1117
3320,1117
3321,1117
3322,1117
3323,1118
3324,1118
3325,1118
3326,1118
3327,1119
3328,1119
3329,1120
3330,1120
3331,1120
3332,1120
3333,1121
3334,1121
3335,1121
3336,1122
3337,1122
3338,1122
3339,1122
3340,1122
3341,1123
3342,1123
3343,1123
3344,1124
3345,1124
3346,1125
3347,1125
3348,1126
3349,1126
3350,1126
3351,1127
3352,1127
3353,1128
3354,1128
3355,1128
3356,1129
3357,1130
3358,1130
3359,1130
3360,1131
3361,1131
3362,1132
3363,1132
3364,1132
3365,1132
3366,1133
3367,1133
3368,1134
3369,1135
3370,1136
3371,1136
3372,1136
3373,1136
3374,1137
3375,1137
3376,1137
3377,1137
3378,1137
3379,1137
3380,1138
3381,1138
3382,1138
3383,1138
3384,1139
3385,1139
3386,1139
3387,1140
3388,1140
3389,1141
3390,1141
3391,1141
3392,1142
3393,1142
3394,1142
3395,1143
3396,1143
3397,1143
3398,1144
3399,1145
3400,1145
3401,1145
3402,1146
3403,1147
3404,1147
3405,1147
3406,1148
3407,1148
3408,1148
3409,1148
3410,1149
3411,1149
3412,1149
3413,1149
3414,1150
3415,1150
3416,1150
3417,1151
3418,1151
3419,1152
3420,1152
3421,1153
3422,1153
3423,1154
3424,1154
3425,1155
3426,1155
3427,1155
3428,1155
3429,1155
3430,1156
3431,1156
3432,1157
3433,1157
3434,1157
3435,1157
3436,1158
3437,1158
3438,1158
3439,1159
3440,1159
3441,1159
3442,1160
3443,1160
3444,1161
3445,1161
3446,1161
3447,1162
3448,1162
3449,1162
3450,1163
3451,1163
3452,1164
3453,1164
3454,1164
3455,1164
3456,1165
3457,1165
3458,1165
3459,1165
3460,1166
3461,1166
3462,1166
3463,1167
3464,1167
3465,1167
3466,1168
3467,1168
3468,1168
3469,1169
3470,1169
3471,1169
3472,1169
3473,1169
3474,1170
3475,1170
3476,1170
3477,1171
3478,1171
3479,1171
3480,1172
3481,1172
3482,1172
3483,1172
3484,1173
3485,1173
3486,1174
3487,1174
3488,1174
3489,1175
3490,1176
3491,1176
3492,1176
3493,1177
3494,1177
3495,1178
3496,1178
3497,1178
3498,1179
3499,1180
3500,1180
3501,1180
3502,1181
3503,1181
3504,1181
3505,1181
3506,1181
3507,1182
3508,1182
3509,1182
3510,1182
3511,1183
3512,1183
3513,1183
3514,1183
3515,1184
3516,1184
3517,1184
3518,1185
3519,1185
3520,1185
3521,1185
3522,1186
3523,1186
3524,1186
3525,1186
3526,1186
3527,1187
3528,1187
3529,1187
3530,1187
3531,1187
3532,1188
3533,1188
3534,1189
3535,1189
3536,1189
3537,1189
3538,1190
3539,1191
3540,1191
3541,1191
3542,1191
3543,1191
3544,1192
3545,1193
3546,1193
3547,1193
3548,1193
3549,1194
3550,1194
3551,1195
3552,1195
3553,1195
3554,1196
3555,1196
3556,1196
3557,1197
3558,1198
3559,1199
3560,1199
3561,1199
3562,1200
3563,1200
3564,1200
3565,1200
3566,1201
3567,1201
3568,1202
3569,1202
3570,1203
3571,1203
3572,1203
3573,1203
3574,1204
3575,1204
3576,1204
3577,1205
3578,1205
3579,1205
3580,1206
3581,1206
3582,1207
3583,1207
3584,1207
3585,1207
3586,1207
3587,1208
3588,1208
3589,1209
3590,1210
3591,1210
3592,1211
3593,1211
3594,1211
3595,1211
3596,1211
3597,1211
3598,1212
3599,1212
3600,1213
3601,1213
3602,1213
3603,1213
3604,1214
3605,1214
3606,1214
3607,1215
3608,1216
3609,1216
3610,1216
3611,1216
3612,1217
3613,1217
3614,1217
3615,1218
3616,1218
3617,1219
3618,1219
3619,1219
3620,1219
3621,1220
3622,1220
3623,1220
3624,1221
3625,1221
3626,1221
3627,1221
3628,1221
3629,1222
3630,1222
3631,1222
3632,1222
3633,1223
3634,1223
3635,1223
3636,1223
3637,1224
3638,1224
3639,1225
3640,1225
3641,1226
3642,1226
3643,1226
3644,1226
3645,1227
3646,1227
3647,1228
3648,1229
3649,1229
3650,1229
3651,1230
3652,1231
3653,1231
3654,1232
3655,1232
3656,1232
3657,1232
3658,1232
3659,1232
3660,1233
3661,1233
3662,1233
3663,1234
3664,1234
3665,1234
3666,1235
3667,1235
3668,1236
3669,1236
3670,1237
3671,1238
3672,1238
3673,1238
3674,1238
3675,1238
3676,1238
3677,1238
3678,1239
3679,1239
3680,1239
3681,1240
3682,1240
3683,1241
3684,1241
3685,1241
3686,1242
3687,1242
3688,1242
3689,1243
3690,1243
3691,1243
3692,1243
3693,1243
3694,1244
3695,1244
3696,1244
3697,1244
3698,1245
3699,1245
3700,1245
3701,1246
3702,1246
3703,1246
3704,1247
3705,1247
3706,1247
3707,1248
3708,1248
3709,1248
3710,1248
3711,1248
3712,1248
3713,1248
3714,1248
3715,1249
3716,1249
3717,1249
3718,1250
3719,1250
3720,1250
3721,1251
3722,1251
3723,1251
3724,1251
3725,1251
3726,1252
3727,1252
3728,1253
3729,1253
3730,1253
3731,1253
3732,1254
3733,1254
3734,1255
3735,1255
3736,1256
3737,1256
3738,1257
3739,1257
3740,1257
3741,1258
3742,1258
3743,1258
3744,1259
3745,1259
3746,1259
3747,1259
3748,1259
3749,1260
3750,1260
3751,1260
3752,1261
3753,1261
3754,1261
3755,1261
3756,1262
3757,1262
3758,1263
3759,1263
3760,1263
3761,1264
3762,1265
3763,1265
3764,1265
3765,1266
3766,1266
3767,1267
3768,1267
3769,1267
3770,1267
3771,1268
3772,1268
3773,1268
3774,1269
3775,1269
3776,1269
3777,1270
3778,1271
3779,1272
3780,1272
3781,1272
3782,1272
3783,1272
3784,1273
3785,1273
3786,1273
3787,1274
3788,1274
3789,1274
3790,1274
3791,1275
3792,1275
3793,1275
3794,1275
3795,1276
3796,1276
3797,1276
3798,1277
3799,1277
3800,1278
3801,1278
3802,1279
3803,1279
3804,1280
3805,1280
3806,1280
3807,1281
3808,1281
3809,1281
3810,1282
3811,1283
3812,1283
3813,1283
3814,1283
3815,1283
3816,1283
3817,1284
3818,1284
3819,1284
3820,1284
3821,1285
3822,1285
3823,1285
3824,1286
3825,1286
3826,1286
3827,1286
3828,1287
3829,1287
3830,1288
3831,1288
3832,1288
3833,1289
3834,1289
3835,1290
3836,1291
3837,1291
3838,1291
3839,1291
3840,1291
3841,1292
3842,1293
3843,1293
3844,1293
3845,1294
3846,1295
3847,1295
3848,1296
3849,1296
3850,1296
3851,1297
3852,1297
3853,1297
3854,1297
3855,1297
3856,1297
3857,1298
3858,1299
3859,1299
3860,1299
3861,1299
3862,1299
3863,1300
3864,1300
3865,1300
3866,1300
3867,1300
3868,1301
3869,1302
3870,1302
3871,1302
3872,1302
3873,1302
3874,1302
3875,1303
3876,1303
3877,1303
3878,1303
3879,1304
3880,1304
3881,1304
3882,1304
3883,1305
3884,1305
3885,1305
3886,1305
3887,1306
3888,1307
3889,1307
3890,1307
3891,1307
3892,1308
3893,1308
3894,1309
3895,1309
3896,1309
3897,1309
3898,1310
3899,1310
3900,1310
3901,1311
3902,1312
3903,1312
3904,1312
3905,1313
3906,1313
3907,1313
3908,1314
3909,1315
3910,1315
3911,1315
3912,1315
3913,1316
3914,1316
3915,1316
3916,1317
3917,1317
3918,1317
3919,1318
3920,1318
3921,1318
3922,1318
3923,1318
3924,1319
3925,1319
3926,1319
3927,1319
3928,1319
3929,1320
3930,1320
3931,1320
3932,1320
3933,1320
3934,1321
3935,1321
3936,1321
3937,1321
3938,1321
3939,1321
3940,1322
3941,1322
3942,1322
3943,1323
3944,1323
3945,1323
3946,1323
3947,1324
3948,1325
3949,1325
3950,1325
3951,1326
3952,1326
3953,1326
3954,1326
3955,1326
3956,1326
3957,1327
3958,1327
3959,1327
3960,1327
3961,1328
3962,1328
3963,1328
3964,1329
3965,1329
3966,1330
3967,1330
3968,1330
3969,1331
3970,1332
3971,1332
3972,1332
3973,1332
3974,1332
3975,1333
3976,1333
3977,1334
3978,1334
3979,1334
3980,1335
3981,1335
3982,1336
3983,1336
3984,1336
3985,1337
3986,1338
3987,1338
3988,1338
3989,1338
3990,1338
3991,1339
3992,1340
3993,1340
3994,1341
3995,1341
3996,1341
3997,1341
3998,1342
3999,1342
4000,1342
4001,1342
4002,1343
4003,1343
4004,1344
4005,1344
4006,1344
4007,1344
4008,1345
4009,1345
4010,1345
4011,1346
4012,1346
4013,1346
4014,1346
4015,1347
4016,1347
4017,1347
4018,1347
4019,1347
4020,1348
4021,1348
4022,1348
4023,1349
4024,1349
4025,1349
4026,1349
4027,1350
4028,1350
4029,1351
4030,1351
4031,1351
4032,1351
4033,1351
4034,1352
4035,1352
4036,1352
4037,1352
4038,1352
4039,1353
4040,1353
4041,1353
4042,1354
4043,1354
4044,1354
4045,1354
4046,1354
4047,1354
4048,1355
4049,1355
4050,1356
4051,1356
4052,1356
4053,1356
4054,1356
4055,1356
4056,1357
4057,1357
4058,1357
4059,1357
4060,1358
4061,1358
4062,1359
4063,1359
4064,1359
4065,1359
4066,1360
4067,1360
4068,1361
4069,1361
4070,1361
4071,1361
4072,1362
4073,1362
4074,1362
4075,1362
4076,1362
4077,1363
4078,1364
4079,1364
4080,1364
4081,1365
4082,1365
4083,1365
4084,1366
4085,1367
4086,1367
4087,1367
4088,1367
4089,1367
4090,1368
4091,1368
4092,1368
4093,1368
4094,1369
4095,1370
4096,1370
4097,1371
4098,1371
4099,1372
4100,1373
4101,1373
4102,1373
4103,1374
4104,1374
4105,1374
4106,1374
4107,1375
4108,1375
4109,1376
4110,1376
4111,1376
4112,1376
4113,1376
4114,1376
4115,1377
4116,1377
4117,1377
4118,1378
4119,1378
4120,1379
4121,1379
4122,1379
4123,1379
4124,1380
4125,1380
4126,1380
4127,1381
4128,1381
4129,1381
4130,1382
4131,1382
4132,1383
4133,1383
4134,1383
4135,1383
4136,1384
4137,1384
4138,1384
4139,1384
4140,1385
4141,1385
4142,1385
4143,1385
4144,1386
4145,1386
4146,1387
4147,1387
4148,1388
4149,1388
4150,1388
4151,1388
4152,1389
4153,1389
4154,1390
4155,1390
4156,1391
4157,1392
4158,1393
4159,1393
4160,1393
4161,1393
4162,1394
4163,1394
4164,1394
4165,1394
4166,1395
4167,1395
4168,1395
4169,1396
4170,1396
4171,1396
4172,1396
4173,1397
4174,1398
4175,1398
4176,1398
4177,1399
4178,1399
4179,1399
4180,1399
4181,1400
4182,1400
4183,1400
4184,1400
4185,1400
4186,1401
4187,1401
4188,1401
4189,1401
4190,1401
4191,1401
4192,1402
4193,1402
4194,1402
4195,1403
4196,1403
4197,1403
4198,1403
4199,1404
4200,1404
4201,1405
4202,1406
4203,1406
4204,1406
4205,1406
4206,1407
4207,1407
4208,1408
4209,1408
4210,1408
4211,1408
4212,1408
4213,1409
4214,1409
4215,1409
4216,1410
4217,1410
4218,1410
4219,1411
4220,1411
4221,1411
4222,1412
4223,1413
4224,1413
4225,1413
4226,1413
4227,1414
4228,1414
4229,1414
4230,1415
4231,1415
4232,1415
4233,1415
4234,1416
4235,1416
4236,1416
4237,1417
4238,1417
4239,1417
4240,1418
4241,1418
4242,1419
4243,1420
4244,1420
4245,1421
4246,1421
4247,1422
4248,1422
4249,1422
4250,1423
4251,1423
4252,1423
4253,1423
4254,1423
4255,1424
4256,1424
4257,1424
4258,1424
4259,1424
4260,1424
4261,1425
4262,1425
4263,1426
4264,1426
4265,1427
4266,1427
4267,1427
4268,1427
4269,1427
4270,1428
4271,1428
4272,1428
4273,1428
4274,1428
4275,1429
4276,1429
4277,1429
4278,1430
4279,1430
4280,1430
4281,1431
4282,1431
4283,1431
4284,1432
4285,1432
4286,1432
4287,1432
4288,1432
4289,1432
4290,1432
4291,1433
4292,1433
4293,1433
4294,1433
4295,1434
4296,1434
4297,1435
4298,1435
4299,1435
4300,1435
4301,1435
4302,1436
4303,1436
4304,1436
4305,1437
4306,1437
4307,1437
4308,1438
4309,1438
4310,1438
4311,1438
4312,1439
4313,1439
4314,1439
4315,1439
4316,1440
4317,1440
4318,1440
4319,1440
4320,1441
4321,1441
4322,1441
4323,1441
4324,1442
4325,1442
4326,1443
4327,1443
4328,1444
4329,1444
4330,1444
4331,1444
4332,1445
4333,1445
4334,1446
4335,1446
4336,1446
4337,1447
4338,1447
4339,1447
4340,1448
4341,1448
4342,1448
4343,1448
4344,1449
4345,1449
4346,1450
4347,1450
4348,1450
4349,1451
4350,1451
4351,1452
4352,1452
4353,1452
4354,1452
4355,1452
4356,1453
4357,1453
4358,1453
4359,1453
4360,1454
4361,1454
4362,1454
4363,1455
4364,1455
4365,1455
4366,1456
4367,1456
4368,1456
4369,1457
4370,1457
4371,1458
4372,1458
4373,1458
4374,1458
4375,1458
4376,1459
4377,1460
4378,1460
4379,1461
4380,1461
4381,1462
4382,1462
4383,1462
4384,1463
4385,1463
4386,1463
4387,1463
4388,1463
4389,1464
4390,1464
4391,1465
4392,1465
4393,1466
4394,1466
4395,1466
4396,1466
4397,1467
4398,1467
4399,1467
4400,1467
4401,1467
4402,1468
4403,1468
4404,1468
4405,1469
4406,1469
4407,1469
4408,1470
4409,1470
4410,1470
4411,1470
4412,1471
4413,1471
4414,1471
4415,1471
4416,1471
4417,1472
4418,1472
4419,1472
4420,1473
4421,1473
4422,1473
4423,1473
4424,1474
4425,1474
4426,1475
4427,1475
4428,1475
4429,1476
4430,1476
4431,1476
4432,1477
4433,1477
4434,1477
4435,1477
4436,1478
4437,1478
4438,1479
4439,1479
4440,1479
4441,1479
4442,1480
4443,1480
4444,1480
4445,1480
4446,1480
4447,1480
4448,1481
4449,1481
4450,1481
4451,1482
4452,1482
4453,1482
4454,1482
4455,1483
4456,1484
4457,1484
4458,1485
4459,1485
4460,1485
4461,1485
4462,1486
4463,1486
4464,1487
4465,1487
4466,1487
4467,1487
4468,1488
4469,1489
4470,1489
4471,1490
4472,1491
4473,1491
4474,1491
4475,1491
4476,1492
4477,1492
4478,1493
4479,1493
4480,1493
4481,1494
4482,1494
4483,1494
4484,1495
4485,1495
4486,1495
4487,1496
4488,1496
4489,1497
4490,1497
4491,1497
4492,1497
4493,1497
4494,1497
4495,1497
4496,1498
4497,1498
4498,1498
4499,1498
4500,1498
4501,1499
4502,1500
4503,1500
4504,1500
4505,1500
4506,1500
4507,1500
4508,1500
4509,1501
4510,1501
4511,1501
4512,1502
4513,1502
4514,1502
4515,1503
4516,1503
4517,1504
4518,1504
4519,1504
4520,1504
4521,1505
4522,1505
4523,1506
4524,1506
4525,1506
4526,1507
4527,1507
4528,1508
4529,1508
4530,1508
4531,1509
4532,1509
4533,1509
4534,1509
4535,1510
4536,1510
4537,1510
4538,1511
4539,1511
4540,1512
4541,1512
4542,1512
4543,1512
4544,1512
4545,1512
4546,1512
4547,1513
4548,1513
4549,1514
4550,1514
4551,1514
4552,1514
4553,1515
4554,1515
4555,1515
4556,1515
4557,1515
4558,1516
4559,1516
4560,1516
4561,1517
4562,1518
4563,1518
4564,1518
4565,1518
4566,1519
4567,1519
4568,1519
4569,1520
4570,1520
4571,1520
4572,1520
4573,1521
4574,1521
4575,1522
4576,1522
4577,1523
4578,1523
4579,1523
4580,1523
4581,1524
4582,1524
4583,1524
4584,1525
4585,1525
4586,1525
4587,1526
4588,1526
4589,1526
4590,1527
4591,1527
4592,1528
4593,1528
4594,1528
4595,1528
4596,1529
4597,1530
4598,1531
4599,1531
4600,1531
4601,1532
4602,1532
4603,1532
4604,1533
4605,1534
4606,1534
4607,1534
4608,1535
4609,1535
4610,1536
4611,1536
4612,1536
4613,1536
4614,1537
4615,1537
4616,1537
4617,1538
4618,1538
4619,1538
4620,1538
4621,1538
4622,1539
4623,1539
4624,1539
4625,1539
4626,1540
4627,1540
4628,1540
4629,1541
4630,1541
4631,1542
4632,1542
4633,1542
4634,1542
4635,1543
4636,1543
4637,1544
4638,1544
4639,1544
4640,1545
4641,1545
4642,1545
4643,1546
4644,1546
4645,1546
4646,1547
4647,1547
4648,1548
4649,1548
4650,1548
4651,1549
4652,1550
4653,1550
4654,1551
4655,1551
4656,1551
4657,1551
4658,1551
4659,1552
4660,1552
4661,1553
4662,1554
4663,1554
4664,1554
4665,1555
4666,1555
4667,1555
4668,1555
4669,1556
4670,1556
4671,1556
4672,1556
4673,1557
4674,1557
4675,1557
4676,1558
4677,1559
4678,1559
4679,1559
4680,1559
4681,1560
4682,1560
4683,1560
4684,1561
4685,1561
4686,1562
4687,1562
4688,1562
4689,1563
4690,1563
4691,1563
4692,1563
4693,1563
4694,1563
4695,1563
4696,1564
4697,1564
4698,1564
4699,1564
4700,1564
4701,1565
4702,1565
4703,1565
4704,1565
4705,1566
4706,1567
4707,1567
4708,1567
4709,1567
4710,1568
4711,1568
4712,1569
4713,1569
4714,1569
4715,1570
4716,1570
4717,1571
4718,1571
4719,1572
4720,1572
4721,1573
4722,1573
4723,1573
4724,1573
4725,1573
4726,1574
4727,1575
4728,1575
4729,1575
4730,1576
4731,1577
4732,1577
4733,1577
4734,1577
4735,1578
4736,1578
4737,1578
4738,1579
4739,1579
4740,1579
4741,1579
4742,1580
4743,1580
4744,1580
4745,1581
4746,1581
4747,1581
4748,1582
4749,1582
4750,1582
4751,1582
4752,1583
4753,1583
4754,1584
4755,1584
4756,1585
4757,1585
4758,1585
4759,1585
4760,1586
4761,1586
4762,1586
4763,1586
4764,1587
4765,1587
4766,1587
4767,1587
4768,1587
4769,1588
4770,1588
4771,1589
4772,1589
4773,1589
4774,1590
4775,1590
4776,1590
4777,1590
4778,1590
4779,1591
4780,1592
4781,1592
4782,1593
4783,1593
4784,1594
4785,1594
4786,1594
4787,1594
4788,1595
4789,1596
4790,1597
4791,1598
4792,1598
4793,1598
4794,1598
4795,1599
4796,1599
4797,1600
4798,1600
4799,1600
4800,1600
4801,1601
4802,1601
4803,1601
4804,1601
4805,1602
4806,1602
4807,1602
4808,1603
4809,1603
4810,1603
4811,1603
4812,1604
4813,1604
4814,1604
4815,1605
4816,1605
4817,1606
4818,1606
4819,1607
4820,1607
4821,1607
4822,1608
4823,1608
4824,1608
4825,1609
4826,1609
4827,1610
4828,1610
4829,1610
4830,1611
4831,1611
4832,1612
4833,1612
4834,1613
4835,1613
4836,1613
4837,1613
4838,1613
4839,1614
4840,1614
4841,1614
4842,1614
4843,1615
4844,1615
4845,1615
4846,1616
4847,1616
4848,1616
4849,1617
4850,1617
4851,1617
4852,1617
4853,1618
4854,1618
4855,1619
4856,1619
4857,1619
4858,1620
4859,1620
4860,1620
4861,1620
4862,1621
4863,1621
4864,1622
4865,1622
4866,1623
4867,1623
4868,1623
4869,1623
4870,1624
4871,1624
4872,1624
4873,1625
4874,1625
4875,1626
4876,1626
4877,1626
4878,1626
4879,1626
4880,1627
4881,1627
4882,1627
4883,1628
4884,1628
4885,1628
4886,1628
4887,1628
4888,1628
4889,1629
4890,1629
4891,1629
4892,1629
4893,1630
4894,1630
4895,1630
4896,1631
4897,1631
4898,1631
4899,1632
4900,1632
4901,1632
4902,1633
4903,1634
4904,1634
4905,1634
4906,1634
4907,1635
4908,1635
4909,1635
4910,1635
4911,1636
4912,1636
4913,1637
4914,1638
4915,1638
4916,1638
4917,1639
4918,1639
4919,1639
4920,1639
4921,1640
4922,1640
4923,1640
4924,1641
4925,1641
4926,1641
4927,1641
4928,1642
4929,1642
4930,1642
4931,1643
4932,1643
4933,1643
4934,1644
4935,1644
4936,1644
4937,1645
4938,1646
4939,1646
4940,1646
4941,1646
4942,1647
4943,1648
4944,1648
4945,1648
4946,1648
4947,1649
4948,1649
4949,1650
4950,1650
4951,1650
4952,1650
4953,1650
4954,1651
4955,1651
4956,1652
4957,1652
4958,1653
4959,1653
4960,1653
4961,1653
4962,1654
4963,1654
4964,1654
4965,1654
4966,1655
4967,1655
4968,1655
4969,1655
4970,1655
4971,1656
4972,1657
4973,1657
4974,1657
4975,1658
4976,1658
4977,1658
4978,1658
4979,1659
4980,1659
4981,1659
4982,1659
4983,1659
4984,1659
4985,1660
4986,1660
4987,1660
4988,1661
4989,1662
4990,1662
4991,1662
4992,1662
4993,1663
4994,1663
4995,1663
4996,1663
4997,1663
4998,1663
4999,1664
5000,1664
5001,1664
5002,1665
5003,1665
5004,1665
5005,1666
5006,1666
5007,1667
5008,1667
5009,1667
5010,1667
5011,1668
5012,1668
5013,1668
5014,1668
5015,1669
5016,1669
5017,1670
5018,1671
5019,1671
5020,1671
5021,1672
5022,1672
5023,1672
5024,1673
5025,1673
5026,1674
5027,1674
5028,1675
5029,1675
5030,1675
5031,1675
5032,1675
5033,1676
5034,1676
5035,1676
5036,1676
5037,1676
5038,1677
5039,1677
5040,1677
5041,1677
5042,1678
5043,1678
5044,1678
5045,1679
5046,1679
5047,1679
5048,1680
5049,1680
5050,1681
5051,1682
5052,1683
5053,1683
5054,1683
5055,1683
5056,1684
5057,1684
5058,1684
5059,1684
5060,1685
5061,1685
5062,1685
5063,1685
5064,1685
5065,1686
5066,1686
5067,1686
5068,1687
5069,1687
5070,1688
5071,1689
5072,1689
5073,1689
5074,1690
5075,1690
5076,1690
5077,1690
5078,1691
5079,1691
5080,1691
5081,1691
5082,1692
5083,1692
5084,1692
5085,1692
5086,1693
5087,1693
5088,1693
5089,1693
5090,1694
5091,1694
5092,1694
5093,1694
5094,1694
5095,1694
5096,1695
5097,1695
5098,1695
5099,1695
5100,1696
5101,1696
5102,1696
5103,1697
5104,1698
5105,1698
5106,1698
5107,1699
5108,1699
5109,1699
5110,1699
5111,1699
5112,1699
5113,1699
5114,1700
5115,1700
5116,1700
5117,1701
5118,1701
5119,1702
5120,1703
5121,1703
5122,1703
5123,1704
5124,1705
5125,1705
5126,1705
5127,1705
5128,1705
5129,1705
5130,1705
5131,1705
5132,1705
5133,1705
5134,1706
5135,1706
5136,1706
5137,1707
5138,1707
5139,1707
5140,1707
5141,1708
5142,1708
5143,1709
5144,1709
5145,1710
5146,1710
5147,1710
5148,1710
5149,1711
5150,1711
5151,1711
5152,1711
5153,1711
5154,1712
5155,1713
5156,1713
5157,1713
5158,1713
5159,1714
5160,1714
5161,1715
5162,1715
5163,1715
5164,1716
5165,1716
5166,1716
5167,1716
5168,1717
5169,1718
5170,1718
5171,1719
5172,1719
5173,1719
5174,1720
5175,1720
5176,1720
5177,1721
5178,1721
5179,1721
5180,1721
5181,1722
5182,1723
5183,1723
5184,1723
5185,1723
5186,1724
5187,1724
5188,1724
5189,1725
5190,1725
5191,1725
5192,1726
5193,1726
5194,1727
5195,1727
5196,1727
5197,1727
5198,1728
5199,1728
5200,1729
5201,1729
5202,1730
5203,1730
5204,1730
5205,1730
5206,1731
5207,1731
5208,1731
5209,1731
5210,1732
5211,1732
5212,1732
5213,1732
5214,1733
5215,1733
5216,1733
5217,1734
5218,1735
5219,1735
5220,1735
5221,1735
5222,1735
5223,1736
5224,1736
5225,1737
5226,1737
5227,1737
5228,1737
5229,1738
5230,1738
5231,1738
5232,1738
5233,1739
5234,1739
5235,1740
5236,1740
5237,1740
5238,1741
5239,1741
5240,1741
5241,1741
5242,1742
5243,1742
5244,1743
5245,1743
5246,1743
5247,1744
5248,1744
5249,1744
5250,1745
5251,1745
5252,1745
5253,1745
5254,1746
5255,1746
5256,1746
5257,1746
5258,1747
5259,1748
5260,1749
5261,1749
5262,1749
5263,1749
5264,1750
5265,1750
5266,1750
5267,1750
5268,1750
5269,1751
5270,1751
5271,1751
5272,1752
5273,1752
5274,1752
5275,1752
5276,1752
5277,1753
5278,1753
5279,1753
5280,1753
5281,1753
5282,1753
5283,1753
5284,1754
5285,1754
5286,1755
5287,1755
5288,1756
5289,1756
5290,1756
5291,1756
5292,1757
5293,1757
5294,1757
5295,1758
5296,1758
5297,1758
5298,1758
5299,1758
5300,1759
5301,1759
5302,1759
5303,1759
5304,1760
5305,1760
5306,1760
5307,1760
5308,1761
5309,1761
5310,1761
5311,1761
5312,1762
5313,1762
5314,1763
5315,1764
5316,1764
5317,1765
5318,1765
5319,1765
5320,1765
5321,1766
5322,1766
5323,1766
5324,1766
5325,1767
5326,1767
5327,1767
5328,1767
5329,1768
5330,1768
5331,1768
5332,1768
5333,1768
5334,1768
5335,1768
5336,1768
5337,1769
5338,1769
5339,1769
5340,1770
5341,1770
5342,1770
5343,1770
5344,1771
5345,1771
5346,1771
5347,1771
5348,1771
5349,1772
5350,1772
5351,1772
5352,1773
5353,1774
5354,1774
5355,1774
5356,1775
5357,1775
5358,1775
5359,1776
5360,1776
5361,1777
5362,1777
5363,1777
5364,1778
5365,1778
5366,1778
5367,1778
5368,1779
5369,1779
5370,1779
5371,1780
5372,1780
5373,1781
5374,1781
5375,1781
5376,1781
5377,1782
5378,1782
5379,1782
5380,1782
5381,1783
5382,1783
5383,1784
5384,1784
5385,1785
5386,1785
5387,1785
5388,1786
5389,1786
5390,1786
5391,1787
5392,1787
5393,1787
5394,1787
5395,1788
5396,1788
5397,1788
5398,1789
5399,1789
5400,1790
5401,1790
5402,1790
5403,1791
5404,1791
5405,1791
5406,1791
5407,1792
5408,1792
5409,1792
5410,1792
5411,1793
5412,1793
5413,1793
5414,1793
5415,1793
5416,1793
5417,1794
5418,1794
5419,1795
5420,1795
5421,1796
5422,1796
5423,1796
5424,1796
5425,1796
5426,1797
5427,1797
5428,1798
5429,1798
5430,1799
5431,1799
5432,1799
5433,1800
5434,1800
5435,1800
5436,1801
5437,1801
5438,1801
5439,1801
5440,1801
5441,1801
5442,1802
5443,1802
5444,1803
5445,1803
5446,1804
5447,1804
5448,1804
5449,1804
5450,1804
5451,1804
5452,1805
5453,1805
5454,1806
5455,1806
5456,1807
5457,1807
5458,1807
5459,1808
5460,1808
5461,1809
5462,1809
5463,1809
5464,1810
5465,1810
5466,1811
5467,1811
5468,1812
5469,1812
5470,1813
5471,1814
5472,1814
5473,1814
5474,1814
5475,1814
5476,1815
5477,1815
5478,1815
5479,1816
5480,1816
5481,1816
5482,1816
5483,1817
5484,1817
5485,1817
5486,1817
5487,1817
5488,1817
5489,1817
5490,1817
5491,1818
5492,1818
5493,1818
5494,1819
5495,1819
5496,1819
5497,1820
5498,1821
5499,1821
5500,1821
5501,1821
5502,1821
5503,1821
5504,1822
5505,1822
5506,1822
5507,1823
5508,1824
5509,1824
5510,1824
5511,1824
5512,1824
5513,1824
5514,1825
5515,1825
5516,1825
5517,1826
5518,1826
5519,1826
5520,1827
5521,1827
5522,1827
5523,1828
5524,1828
5525,1829
5526,1829
5527,1829
5528,1830
5529,1830
5530,1830
5531,1831
5532,1831
5533,1831
5534,1832
5535,1832
5536,1833
5537,1833
5538,1833
5539,1834
5540,1834
5541,1834
5542,1835
5543,1835
5544,1835
5545,1835
5546,1835
5547,1835
5548,1835
5549,1835
5550,1835
5551,1836
5552,1837
5553,1837
5554,1838
5555,1838
5556,1839
5557,1839
5558,1839
5559,1840
5560,1840
5561,1840
5562,1840
5563,1841
5564,1841
5565,1841
5566,1842
5567,1842
5568,1842
5569,1842
5570,1843
5571,1843
5572,1844
5573,1844
5574,1845
5575,1845
5576,1845
5577,1845
5578,1846
5579,1846
5580,1846
5581,1847
5582,1847
5583,1848
5584,1848
5585,1848
5586,1848
5587,1849
5588,1849
5589,1850
5590,1850
5591,1850
5592,1851
5593,1851
5594,1851
5595,1851
5596,1851
5597,1851
5598,1851
5599,1851
5600,1852
5601,1853
5602,1853
5603,1854
5604,1855
5605,1855
5606,1855
5607,1855
5608,1856
5609,1856
5610,1857
5611,1857
5612,1858
5613,1858
5614,1858
5615,1859
5616,1859
5617,1859
5618,1860
5619,1861
5620,1861
5621,1861
5622,1862
5623,1862
5624,1862
5625,1862
5626,1863
5627,1863
5628,1863
5629,1863
5630,1864
5631,1864
5632,1864
5633,1865
5634,1865
5635,1866
5636,1867
5637,1867
5638,1867
5639,1867
5640,1867
5641,1867
5642,1867
5643,1868
5644,1869
5645,1869
5646,1869
5647,1870
5648,1870
5649,1871
5650,1871
5651,1871
5652,1871
5653,1871
5654,1872
5655,1872
5656,1872
5657,1872
5658,1873
5659,1873
5660,1873
5661,1874
5662,1874
5663,1874
5664,1874
5665,1874
5666,1875
5667,1875
5668,1876
5669,1876
5670,1876
5671,1876
5672,1877
5673,1877
5674,1878
5675,1878
5676,1878
5677,1878
5678,1879
5679,1879
5680,1879
5681,1879
5682,1880
5683,1880
5684,1880
5685,1881
5686,1882
5687,1882
5688,1882
5689,1882
5690,1883
5691,1883
5692,1883
5693,1884
5694,1885
5695,1885
5696,1885
5697,1885
5698,1886
5699,1887
5700,1887
5701,1887
5702,1887
5703,1888
5704,1888
5705,1889
5706,1889
5707,1889
5708,1889
5709,1889
5710,1890
5711,1890
5712,1890
5713,1890
5714,1891
5715,1891
5716,1892
5717,1892
5718,1892
5719,1893
5720,1893
5721,1894
5722,1895
5723,1895
5724,1896
5725,1897
5726,1898
5727,1898
5728,1898
5729,1898
5730,1898
5731,1898
5732,1899
5733,1899
5734,1900
5735,1900
5736,1901
5737,1901
5738,1901
5739,1902
5740,1902
5741,1903
5742,1903
5743,1904
5744,1904
5745,1904
5746,1904
5747,1905
5748,1905
5749,1905
5750,1905
5751,1905
5752,1906
5753,1906
5754,1906
5755,1906
5756,1907
5757,1907
5758,1907
5759,1907
5760,1908
5761,1908
5762,1908
5763,1909
5764,1909
5765,1909
5766,1909
5767,1910
5768,1910
5769,1910
5770,1910
5771,1910
5772,1911
5773,1911
5774,1912
5775,1912
5776,1913
5777,1913
5778,1913
5779,1913
5780,1913
5781,1913
5782,1913
5783,1913
5784,1914
5785,1915
5786,1915
5787,1915
5788,1915
5789,1916
5790,1916
5791,1917
5792,1917
5793,1917
5794,1917
5795,1917
5796,1918
5797,1918
5798,1918
5799,1918
5800,1918
5801,1918
5802,1919
5803,1920
5804,1920
5805,1921
5806,1922
5807,1922
5808,1922
5809,1923
5810,1924
5811,1924
5812,1925
5813,1925
5814,1925
5815,1925
5816,1926
5817,1926
5818,1926
5819,1927
5820,1927
5821,1927
5822,1927
5823,1927
5824,1928
5825,1928
5826,1929
5827,1929
5828,1930
5829,1930
5830,1931
5831,1931
5832,1932
5833,1932
5834,1932
5835,1932
5836,1932
5837,1933
5838,1933
5839,1933
5840,1934
5841,1934
5842,1934
5843,1935
5844,1935
5845,1935
5846,1936
5847,1936
5848,1936
5849,1936
5850,1936
5851,1937
5852,1937
5853,1938
5854,1938
5855,1938
5856,1939
5857,1939
5858,1940
5859,1940
5860,1941
5861,1941
5862,1941
5863,1941
5864,1941
5865,1941
5866,1941
5867,1942
5868,1942
5869,1942
5870,1942
5871,1942
5872,1943
5873,1944
5874,1944
5875,1945
5876,1946
5877,1946
5878,1946
5879,1947
5880,1947
5881,1947
5882,1948
5883,1948
5884,1948
5885,1949
5886,1949
5887,1949
5888,1950
5889,1950
5890,1951
5891,1952
5892,1953
5893,1953
5894,1953
5895,1954
5896,1954
5897,1954
5898,1954
5899,1955
5900,1955
5901,1955
5902,1956
5903,1957
5904,1957
5905,1958
5906,1958
5907,1959
5908,1959
5909,1959
5910,1959
5911,1959
5912,1960
5913,1960
5914,1960
5915,1961
5916,1961
5917,1961
5918,1961
5919,1961
5920,1962
5921,1962
5922,1962
5923,1963
5924,1963
5925,1963
5926,1964
5927,1964
5928,1964
5929,1965
5930,1965
5931,1966
5932,1966
5933,1966
5934,1966
5935,1967
5936,1967
5937,1967
5938,1967
5939,1968
5940,1968
5941,1969
5942,1969
5943,1970
5944,1971
5945,1971
5946,1972
5947,1972
5948,1972
5949,1973
5950,1973
5951,1973
5952,1973
5953,1974
5954,1974
5955,1974
5956,1975
5957,1975
5958,1975
5959,1976
5960,1976
5961,1976
5962,1976
5963,1977
5964,1977
5965,1978
5966,1978
5967,1979
5968,1979
5969,1979
5970,1980
5971,1980
5972,1981
5973,1981
5974,1981
5975,1982
5976,1982
5977,1982
5978,1982
5979,1983
5980,1983
5981,1984
5982,1984
5983,1985
5984,1985
5985,1986
5986,1986
5987,1986
5988,1986
5989,1987
5990,1988
5991,1989
5992,1989
5993,1989
5994,1989
5995,1989
5996,1990
5997,1990
5998,1990
5999,1990
6000,1991
6001,1991
6002,1992
6003,1992
6004,1992
6005,1993
6006,1994
6007,1995
6008,1995
6009,1995
6010,1995
6011,1996
6012,1996
6013,1996
6014,1996
6015,1997
6016,1998
6017,1998
6018,1998
6019,1998
6020,1998
6021,1999
6022,1999
6023,2000
6024,2000
6025,2001
6026,2001
6027,2001
6028,2002
6029,2002
6030,2002
6031,2002
6032,2002
6033,2003
6034,2003
6035,2004
6036,2004
6037,2004
6038,2005
6039,2005
6040,2006
6041,2006
6042,2006
6043,2007
6044,2007
6045,2007
6046,2008
6047,2008
6048,2009
6049,2009
6050,2009
6051,2010
6052,2010
6053,2010
6054,2010
6055,2011
6056,2011
6057,2011
6058,2011
6059,2012
6060,2012
6061,2013
6062,2013
6063,2013
6064,2013
6065,2014
6066,2014
6067,2015
6068,2015
6069,2015
6070,2015
6071,2016
6072,2016
6073,2016
6074,2017
6075,2017
6076,2017
6077,2018
6078,2018
6079,2018
6080,2018
6081,2018
6082,2018
6083,2019
6084,2019
6085,2020
6086,2020
6087,2020
6088,2020
6089,2021
6090,2021
6091,2021
6092,2021
6093,2022
6094,2022
6095,2023
6096,2023
6097,2024
6098,2024
6099,2024
6100,2025
6101,2025
6102,2026
6103,2026
6104,2027
6105,2028
6106,2029
6107,2029
6108,2029
6109,2030
6110,2031
6111,2031
6112,2032
6113,2032
6114,2032
6115,2032
6116,2033
6117,2033
6118,2034
6119,2035
6120,2035
6121,2035
6122,2036
6123,2036
6124,2037
6125,2037
6126,2037
6127,2038
6128,2038
6129,2038
6130,2039
6131,2039
6132,2040
6133,2041
6134,2041
6135,2042
6136,2042
6137,2042
6138,2042
6139,2043
6140,2043
6141,2044
6142,2044
6143,2045
6144,2045
6145,2045
6146,2046
6147,2046
6148,2046
6149,2046
6150,2047
6151,2047
6152,2048
6153,2048
6154,2048
6155,2048
6156,2049
6157,2049
6158,2049
6159,2049
6160,2049
6161,2050
6162,2050
6163,2051
6164,2051
6165,2051
6166,2051
6167,2051
6168,2051
6169,2051
6170,2052
6171,2052
6172,2053
6173,2053
6174,2054
6175,2054
6176,2054
6177,2054
6178,2054
6179,2054
6180,2055
6181,2055
6182,2055
6183,2055
6184,2055
6185,2056
6186,2057
6187,2058
6188,2058
6189,2059
6190,2059
6191,2059
6192,2060
6193,2060
6194,2060
6195,2060
6196,2061
6197,2061
6198,2061
6199,2061
6200,2061
6201,2061
6202,2062
6203,2062
6204,2062
6205,2062
6206,2062
6207,2063
6208,2063
6209,2063
6210,2063
6211,2064
6212,2065
6213,2066
6214,2066
6215,2066
6216,2066
6217,2066
6218,2067
6219,2067
6220,2067
6221,2067
6222,2067
6223,2068
6224,2068
6225,2069
6226,2069
6227,2069
6228,2070
6229,2070
6230,2070
6231,2071
6232,2071
6233,2072
6234,2072
6235,2072
6236,2073
6237,2074
6238,2074
6239,2075
6240,2075
6241,2075
6242,2075
6243,2076
6244,2077
6245,2078
6246,2079
6247,2079
6248,2079
6249,2080
6250,2080
6251,2080
6252,2080
6253,2080
6254,2081
6255,2081
6256,2082
6257,2082
6258,2082
6259,2082
6260,2082
6261,2083
6262,2083
6263,2083
6264,2084
6265,2084
6266,2084
6267,2084
6268,2085
6269,2085
6270,2085
6271,2085
6272,2086
6273,2086
6274,2086
6275,2086
6276,2086
6277,2087
6278,2087
6279,2087
6280,2088
6281,2088
6282,2088
6283,2089
6284,2089
6285,2090
6286,2090
6287,2090
6288,2091
6289,2091
6290,2091
6291,2091
6292,2092
6293,2092
6294,2092
6295,2092
6296,2093
6297,2093
6298,2094
6299,2094
6300,2094
6301,2095
6302,2095
6303,2095
6304,2095
6305,2095
6306,2096
6307,2096
6308,2096
6309,2096
6310,2097
6311,2097
6312,2097
6313,2098
6314,2098
6315,2098
6316,2098
6317,2099
6318,2099
6319,2100
6320,2100
6321,2101
6322,2102
6323,2102
6324,2102
6325,2102
6326,2102
6327,2103
6328,2103
6329,2103
6330,2104
6331,2104
6332,2105
6333,2105
6334,2105
6335,2105
6336,2106
6337,2106
6338,2106
6339,2107
6340,2107
6341,2108
6342,2108
6343,2108
6344,2109
6345,2109
6346,2109
6347,2110
6348,2110
6349,2110
6350,2111
6351,2111
6352,2111
6353,2111
6354,2112
6355,2112
6356,2112
6357,2112
6358,2113
6359,2113
6360,2113
6361,2114
6362,2114
6363,2114
6364,2115
6365,2115
6366,2115
6367,2115
6368,2116
6369,2116
6370,2116
6371,2117
6372,2118
6373,2118
6374,2119
6375,2119
6376,2120
6377,2120
6378,2121
6379,2122
6380,2123
6381,2123
6382,2123
6383,2123
6384,2124
6385,2124
6386,2124
6387,2125
6388,2125
6389,2125
6390,2126
6391,2126
6392,2126
6393,2126
6394,2127
6395,2127
6396,2127
6397,2127
6398,2127
6399,2128
6400,2128
6401,2128
6402,2129
6403,2129
6404,2130
6405,2130
6406,2131
6407,2131
6408,2131
6409,2132
6410,2133
6411,2133
6412,2134
6413,2134
6414,2134
6415,2134
6416,2135
6417,2135
6418,2135
6419,2136
6420,2136
6421,2136
6422,2136
6423,2137
6424,2138
6425,2138
6426,2139
6427,2139
6428,2139
6429,2139
6430,2139
6431,2139
6432,2139
6433,2140
6434,2141
6435,2141
6436,2141
6437,2142
6438,2142
6439,2142
6440,2142
6441,2142
6442,2142
6443,2143
6444,2143
6445,2143
6446,2144
6447,2144
6448,2145
6449,2145
6450,2145
6451,2146
6452,2146
6453,2146
6454,2147
6455,2147
6456,2147
6457,2148
6458,2148
6459,2148
6460,2149
6461,2149
6462,2150
6463,2150
6464,2151
6465,2151
6466,2152
6467,2152
6468,2152
6469,2153
6470,2153
6471,2153
6472,2153
6473,2154
6474,2154
6475,2155
6476,2155
6477,2155
6478,2155
6479,2155
6480,2156
6481,2156
6482,2156
6483,2157
6484,2157
6485,2157
6486,2158
6487,2158
6488,2159
6489,2160
6490,2161
6491,2161
6492,2162
6493,2163
6494,2163
6495,2163
6496,2163
6497,2163
6498,2163
6499,2163
6500,2164
6501,2164
6502,2164
6503,2165
6504,2165
6505,2165
6506,2166
6507,2166
6508,2166
6509,2166
6510,2167
6511,2167
6512,2167
6513,2167
6514,2167
6515,2168
6516,2168
6517,2168
6518,2169
6519,2169
6520,2169
6521,2170
6522,2170
6523,2171
6524,2171
6525,2171
6526,2172
6527,2172
6528,2173
6529,2173
6530,2173
6531,2174
6532,2174
6533,2175
6534,2175
6535,2175
6536,2175
6537,2176
6538,2176
6539,2176
6540,2177
6541,2177
6542,2177
6543,2177
6544,2177
6545,2177
6546,2178
6547,2178
6548,2179
6549,2179
6550,2180
6551,2180
6552,2180
6553,2180
6554,2180
6555,2180
6556,2180
6557,2180
6558,2181
6559,2181
6560,2181
6561,2181
6562,2182
6563,2182
6564,2182
6565,2182
6566,2183
6567,2183
6568,2183
6569,2184
6570,2185
6571,2185
6572,2185
6573,2186
6574,2186
6575,2186
6576,2187
6577,2187
6578,2187
6579,2187
6580,2188
6581,2188
6582,2189
6583,2189
6584,2190
6585,2190
6586,2190
6587,2190
6588,2190
6589,2190
6590,2191
6591,2191
6592,2191
6593,2191
6594,2192
6595,2192
6596,2192
6597,2193
6598,2193
6599,2193
6600,2193
6601,2193
6602,2194
6603,2194
6604,2194
6605,2195
6606,2195
6607,2196
6608,2196
6609,2197
6610,2197
6611,2197
6612,2197
6613,2198
6614,2198
6615,2198
6616,2199
6617,2199
6618,2199
6619,2199
6620,2200
6621,2200
6622,2201
6623,2201
6624,2201
6625,2202
6626,2202
6627,2202
6628,2203
6629,2203
6630,2203
6631,2204
6632,2204
6633,2205
6634,2205
6635,2205
6636,2206
6637,2206
6638,2206
6639,2206
6640,2206
6641,2207
6642,2207
6643,2207
6644,2208
6645,2208
6646,2208
6647,2208
6648,2209
6649,2209
6650,2210
6651,2210
6652,2210
6653,2211
6654,2212
6655,2212
6656,2212
6657,2213
6658,2213
6659,2213
6660,2213
6661,2214
6662,2214
6663,2214
6664,2215
6665,2215
6666,2215
6667,2216
6668,2216
6669,2216
6670,2217
6671,2217
6672,2217
6673,2217
6674,2218
6675,2218
6676,2218
6677,2218
6678,2218
6679,2219
6680,2219
6681,2220
6682,2220
6683,2220
6684,2221
6685,2221
6686,2221
6687,2222
6688,2223
6689,2223
6690,2224
6691,2224
6692,2225
6693,2225
6694,2225
6695,2225
6696,2226
6697,2226
6698,2227
6699,2227
6700,2227
6701,2227
6702,2228
6703,2228
6704,2228
6705,2228
6706,2229
6707,2229
6708,2230
6709,2230
6710,2231
6711,2231
6712,2231
6713,2232
6714,2232
6715,2232
6716,2232
6717,2233
6718,2233
6719,2233
6720,2234
6721,2234
6722,2234
6723,2235
6724,2235
6725,2235
6726,2235
6727,2236
6728,2237
6729,2238
6730,2238
6731,2239
6732,2239
6733,2239
6734,2239
6735,2239
6736,2240
6737,2240
6738,2241
6739,2241
6740,2241
6741,2242
6742,2242
6743,2243
6744,2243
6745,2243
6746,2243
6747,2244
6748,2244
6749,2245
6750,2245
6751,2245
6752,2245
6753,2246
6754,2246
6755,2246
6756,2247
6757,2248
6758,2248
6759,2248
6760,2248
6761,2248
6762,2249
6763,2249
6764,2249
6765,2249
6766,2249
6767,2250
6768,2250
6769,2250
6770,2250
6771,2250
6772,2251
6773,2251
6774,2252
6775,2252
6776,2253
6777,2253
6778,2253
6779,2253
6780,2254
6781,2254
6782,2254
6783,2255
6784,2255
6785,2255
6786,2256
6787,2256
6788,2256
6789,2257
6790,2257
6791,2258
6792,2258
6793,2258
6794,2259
6795,2259
6796,2259
6797,2260
6798,2260
6799,2260
6800,2261
6801,2261
6802,2261
6803,2261
6804,2262
6805,2262
6806,2262
6807,2262
6808,2263
6809,2263
6810,2263
6811,2264
6812,2264
6813,2264
6814,2265
6815,2265
6816,2265
6817,2266
6818,2266
6819,2266
6820,2266
6821,2266
6822,2266
6823,2267
6824,2267
6825,2268
6826,2268
6827,2268
6828,2269
6829,2269
6830,2269
6831,2270
6832,2270
6833,2270
6834,2270
6835,2270
6836,2271
6837,2271
6838,2271
6839,2272
6840,2272
6841,2273
6842,2273
6843,2273
6844,2273
6845,2273
6846,2274
6847,2274
6848,2275
6849,2275
6850,2276
6851,2276
6852,2277
6853,2277
6854,2277
6855,2278
6856,2278
6857,2278
6858,2278
6859,2278
6860,2278
6861,2279
6862,2279
6863,2279
6864,2279
6865,2280
6866,2280
6867,2280
6868,2280
6869,2280
6870,2281
6871,2281
6872,2281
6873,2282
6874,2282
6875,2282
6876,2283
6877,2284
6878,2285
6879,2285
6880,2285
6881,2285
6882,2285
6883,2285
6884,2286
6885,2286
6886,2287
6887,2287
6888,2287
6889,2288
6890,2288
6891,2288
6892,2288
6893,2289
6894,2289
6895,2290
6896,2290
6897,2290
6898,2290
6899,2291
6900,2291
6901,2291
6902,2291
6903,2291
6904,2292
6905,2292
6906,2292
6907,2292
6908,2293
6909,2293
6910,2293
6911,2294
6912,2294
6913,2294
6914,2295
6915,2295
6916,2296
6917,2296
6918,2296
6919,2297
6920,2298
6921,2298
6922,2298
6923,2298
6924,2299
6925,2299
6926,2299
6927,2300
6928,2300
6929,2300
6930,2300
6931,2301
6932,2302
6933,2302
6934,2302
6935,2303
6936,2303
6937,2304
6938,2304
6939,2304
6940,2304
6941,2304
6942,2305
6943,2305
6944,2305
6945,2306
6946,2306
6947,2307
6948,2307
6949,2308
6950,2308
6951,2309
6952,2309
6953,2310
6954,2310
6955,2310
6956,2310
6957,2311
6958,2311
6959,2311
6960,2312
6961,2312
6962,2312
6963,2313
6964,2313
6965,2313
6966,2313
6967,2313
6968,2314
6969,2314
6970,2314
6971,2314
6972,2315
6973,2315
6974,2316
6975,2316
6976,2316
6977,2317
6978,2317
6979,2318
6980,2318
6981,2318
6982,2319
6983,2320
6984,2320
6985,2320
6986,2321
6987,2321
6988,2321
6989,2321
6990,2321
6991,2322
6992,2323
6993,2323
6994,2323
6995,2324
6996,2325
6997,2326
6998,2326
6999,2326
7000,2326
7001,2326
7002,2326
7003,2327
7004,2327
7005,2327
7006,2327
7007,2328
7008,2328
7009,2329
7010,2330
7011,2330
7012,2330
7013,2331
7014,2331
7015,2332
7016,2332
7017,2333
7018,2333
7019,2333
7020,2333
7021,2333
7022,2333
7023,2334
7024,2335
7025,2335
7026,2335
7027,2336
7028,2336
7029,2336
7030,2336
7031,2337
7032,2337
7033,2337
7034,2337
7035,2337
7036,2337
7037,2337
7038,2338
7039,2338
7040,2338
7041,2338
7042,2339
7043,2339
7044,2339
7045,2339
7046,2340
7047,2340
7048,2340
7049,2340
7050,2340
7051,2341
7052,2342
7053,2342
7054,2342
7055,2342
7056,2343
7057,2343
7058,2344
7059,2344
7060,2345
7061,2345
7062,2345
7063,2345
7064,2346
7065,2346
7066,2346
7067,2346
7068,2346
7069,2347
7070,2347
7071,2347
7072,2347
7073,2347
7074,2347
7075,2348
7076,2348
7077,2348
7078,2349
7079,2349
7080,2350
7081,2350
7082,2350
7083,2351
7084,2351
7085,2351
7086,2352
7087,2352
7088,2352
7089,2352
7090,2353
7091,2353
7092,2353
7093,2354
7094,2355
7095,2355
7096,2356
7097,2356
7098,2356
7099,2357
7100,2357
7101,2358
7102,2358
7103,2358
7104,2359
7105,2359
7106,2360
7107,2360
7108,2360
7109,2360
7110,2361
7111,2361
7112,2361
7113,2362
7114,2362
7115,2362
7116,2363
7117,2363
7118,2363
7119,2363
7120,2363
7121,2364
7122,2365
7123,2366
7124,2366
7125,2366
7126,2367
7127,2368
7128,2368
7129,2368
7130,2369
7131,2370
7132,2370
7133,2370
7134,2370
7135,2370
7136,2370
7137,2371
7138,2371
7139,2371
7140,2372
7141,2372
7142,2372
7143,2373
7144,2374
7145,2374
7146,2374
7147,2374
7148,2374
7149,2374
7150,2375
7151,2375
7152,2376
7153,2376
7154,2376
7155,2376
7156,2377
7157,2377
7158,2378
7159,2378
7160,2378
7161,2379
7162,2379
7163,2380
7164,2380
7165,2381
7166,2381
7167,2381
7168,2382
7169,2382
7170,2382
7171,2383
7172,2384
7173,2384
7174,2384
7175,2384
7176,2385
7177,2385
7178,2385
7179,2386
7180,2386
7181,2387
7182,2387
7183,2387
7184,2387
7185,2387
7186,2388
7187,2388
7188,2388
7189,2389
7190,2389
7191,2389
7192,2389
7193,2390
7194,2390
7195,2390
7196,2390
7197,2391
7198,2392
7199,2393
7200,2393
7201,2393
7202,2393
7203,2394
7204,2394
7205,2394
7206,2395
7207,2395
7208,2395
7209,2395
7210,2395
7211,2396
7212,2396
7213,2396
7214,2396
7215,2396
7216,2396
7217,2397
7218,2397
7219,2398
7220,2398
7221,2398
7222,2398
7223,2398
7224,2399
7225,2399
7226,2399
7227,2399
7228,2400
7229,2401
7230,2401
7231,2401
7232,2401
7233,2402
7234,2402
7235,2403
7236,2403
7237,2403
7238,2404
7239,2404
7240,2404
7241,2404
7242,2405
7243,2405
7244,2406
7245,2406
7246,2407
7247,2407
7248,2408
7249,2408
7250,2408
7251,2409
7252,2409
7253,2410
7254,2410
7255,2410
7256,2411
7257,2411
7258,2411
7259,2412
7260,2412
7261,2413
7262,2413
7263,2413
7264,2414
7265,2414
7266,2414
7267,2414
7268,2415
7269,2415
7270,2416
7271,2416
7272,2416
7273,2416
7274,2417
7275,2417
7276,2418
7277,2418
7278,2418
7279,2419
7280,2419
7281,2419
7282,2420
7283,2420
7284,2421
7285,2422
7286,2422
7287,2423
7288,2423
7289,2423
7290,2423
7291,2424
7292,2424
7293,2424
7294,2425
7295,2425
7296,2425
7297,2425
7298,2425
7299,2425
7300,2425
7301,2425
7302,2426
7303,2426
7304,2426
7305,2426
7306,2427
7307,2428
7308,2428
7309,2429
7310,2429
7311,2429
7312,2429
7313,2430
7314,2430
7315,2430
7316,2430
7317,2431
7318,2431
7319,2431
7320,2431
7321,2432
7322,2432
7323,2433
7324,2433
7325,2433
7326,2433
7327,2433
7328,2434
7329,2434
7330,2434
7331,2435
7332,2435
7333,2436
7334,2436
7335,2436
7336,2436
7337,2437
7338,2437
7339,2437
7340,2438
7341,2438
7342,2438
7343,2438
7344,2438
7345,2439
7346,2439
7347,2439
7348,2439
7349,2440
7350,2440
7351,2440
7352,2440
7353,2441
7354,2441
7355,2442
7356,2442
7357,2442
7358,2443
7359,2443
7360,2443
7361,2443
7362,2444
7363,2444
7364,2444
7365,2444
7366,2444
7367,2444
7368,2445
7369,2446
7370,2446
7371,2446
7372,2446
7373,2446
7374,2447
7375,2447
7376,2447
7377,2448
7378,2448
7379,2448
7380,2448
7381,2449
7382,2449
7383,2449
7384,2449
7385,2449
7386,2450
7387,2450
7388,2451
7389,2451
7390,2452
7391,2452
7392,2453
7393,2454
7394,2454
7395,2454
7396,2454
7397,2455
7398,2455
7399,2456
7400,2456
7401,2456
7402,2457
7403,2457
7404,2458
7405,2458
7406,2458
7407,2459
7408,2459
7409,2459
7410,2460
7411,2460
7412,2461
7413,2461
7414,2462
7415,2462
7416,2462
7417,2463
7418,2463
7419,2463
7420,2464
7421,2464
7422,2465
7423,2466
7424,2466
7425,2467
7426,2468
7427,2468
7428,2468
7429,2469
7430,2469
7431,2469
7432,2469
7433,2470
7434,2470
7435,2470
7436,2470
7437,2470
7438,2470
7439,2470
7440,2470
7441,2471
7442,2471
7443,2472
7444,2472
7445,2472
7446,2473
7447,2473
7448,2473
7449,2473
7450,2474
7451,2474
7452,2474
7453,2474
7454,2474
7455,2474
7456,2475
7457,2475
7458,2476
7459,2476
7460,2477
7461,2477
7462,2477
7463,2478
7464,2478
7465,2478
7466,2479
7467,2479
7468,2479
7469,2479
7470,2479
7471,2480
7472,2481
7473,2481
7474,2481
7475,2482
7476,2482
7477,2483
7478,2483
7479,2483
7480,2484
7481,2484
7482,2484
7483,2485
7484,2485
7485,2485
7486,2486
7487,2487
7488,2487
7489,2487
7490,2488
7491,2488
7492,2488
7493,2489
7494,2489
7495,2489
7496,2489
7497,2490
7498,2490
7499,2491
7500,2491
7501,2492
7502,2492
7503,2493
7504,2493
7505,2493
7506,2493
7507,2493
7508,2494
7509,2494
7510,2494
7511,2494
7512,2494
7513,2495
7514,2495
7515,2495
7516,2496
7517,2496
7518,2496
7519,2496
7520,2497
7521,2497
7522,2498
7523,2498
7524,2498
7525,2498
7526,2499
7527,2499
