segment: [0]
vertex id: label
57: 0
58: 2
59: 7
60: 6
61: 0
62: 2
63: 7
64: 6
65: 4
66: 4
67: 4
68: 8
69: 8
70: 8
71: 8
72: 8
73: 3
74: 3
75: 2
76: 7
0: 10
1: 10
2: 10
3: 10
4: 10
5: 10
6: 10
7: 10
8: 10
9: 10
10: 10
11: 10
12: 10
13: 10
14: 10
15: 10
16: 10
17: 10
18: 10
19: 10
20: 10
21: 10
22: 10
23: 10
24: 10
25: 10
26: 10
27: 10
28: 10
29: 10
30: 10
31: 10
32: 10
33: 10
34: 10
35: 10
36: 10
37: 10
38: 10
39: 10
40: 10
41: 10
42: 10
43: 10
44: 10
45: 10
46: 10
47: 10
48: 10
49: 10
50: 10
51: 10
52: 10
53: 10
54: 10
55: 10
56: 10
edge from: to
57: 0
58: 0
59: 0
59: 3
59: 4
60: 7
61: 5
61: 6
61: 9
62: 9
63: 12
64: 10
64: 13
64: 14
65: 14
65: 20
66: 17
66: 23
66: 24
67: 24
67: 25
67: 27
68: 28
68: 30
69: 31
70: 35
71: 39
71: 41
72: 41
73: 44
73: 47
74: 45
74: 46
74: 49
75: 50
75: 53
76: 29
76: 35
76: 49
76: 51
1: 57
2: 57
3: 58
4: 58
5: 59
6: 59
7: 59
8: 60
9: 60
10: 61
11: 62
12: 62
13: 62
14: 63
15: 63
16: 64
17: 64
18: 64
19: 64
20: 64
21: 64
22: 65
23: 65
24: 65
25: 65
26: 65
27: 66
28: 67
29: 67
30: 67
31: 68
32: 68
33: 68
34: 69
35: 69
36: 69
37: 69
38: 70
39: 70
40: 70
41: 70
42: 71
43: 71
44: 72
45: 72
46: 72
47: 72
48: 73
49: 73
50: 74
51: 74
52: 74
53: 74
54: 75
55: 76
56: 76
segment: [1]
vertex id: label
71: 0
72: 2
73: 7
74: 6
75: 0
76: 2
77: 7
78: 6
79: 2
80: 7
81: 6
82: 8
83: 8
84: 8
85: 8
86: 3
87: 3
88: 3
89: 3
90: 4
0: 10
1: 10
2: 10
3: 10
4: 10
5: 10
6: 10
7: 10
8: 10
9: 10
10: 10
11: 10
12: 10
13: 10
14: 10
15: 10
16: 10
17: 10
18: 10
19: 10
20: 10
21: 10
22: 10
23: 10
24: 10
25: 10
26: 10
27: 10
28: 10
29: 10
30: 10
31: 10
32: 10
33: 10
34: 10
35: 10
36: 10
37: 10
38: 10
39: 10
40: 10
41: 10
42: 10
43: 10
44: 10
45: 10
46: 10
47: 10
48: 10
49: 10
50: 10
51: 10
52: 10
53: 10
54: 10
55: 10
56: 10
57: 10
58: 10
59: 10
60: 10
61: 10
62: 10
63: 10
64: 10
65: 10
66: 10
67: 10
68: 10
69: 10
70: 10
edge from: to
71: 0
71: 1
71: 2
72: 6
73: 5
73: 7
74: 10
75: 14
76: 15
76: 16
76: 17
77: 21
77: 22
78: 21
78: 22
78: 23
78: 24
79: 25
79: 27
80: 27
80: 29
80: 31
81: 35
82: 36
82: 37
82: 39
82: 41
83: 42
83: 44
84: 43
85: 46
86: 46
86: 47
86: 50
87: 52
88: 57
89: 59
90: 64
90: 67
3: 71
4: 71
5: 71
6: 71
7: 72
8: 73
9: 73
10: 73
11: 73
12: 74
13: 74
14: 74
15: 74
16: 75
17: 75
18: 76
19: 76
20: 76
21: 76
22: 76
23: 77
24: 77
25: 78
26: 78
27: 78
28: 79
29: 79
30: 79
31: 79
32: 80
33: 80
34: 80
35: 80
36: 80
37: 80
38: 81
39: 81
40: 81
41: 81
42: 82
43: 82
44: 82
45: 83
46: 83
47: 84
48: 84
49: 84
50: 85
51: 86
52: 86
53: 86
54: 86
55: 86
56: 87
57: 87
58: 87
59: 87
60: 87
61: 88
62: 88
63: 89
64: 89
65: 89
66: 89
67: 89
68: 90
69: 90
70: 90
segment: [2]
vertex id: label
63: 0
64: 2
65: 7
66: 6
67: 8
68: 8
69: 8
70: 8
71: 8
72: 8
73: 8
74: 8
75: 3
76: 3
77: 4
78: 8
79: 8
80: 8
81: 8
82: 3
0: 10
1: 10
2: 10
3: 10
4: 10
5: 10
6: 10
7: 10
8: 10
9: 10
10: 10
11: 10
12: 10
13: 10
14: 10
15: 10
16: 10
17: 10
18: 10
19: 10
20: 10
21: 10
22: 10
23: 10
24: 10
25: 10
26: 10
27: 10
28: 10
29: 10
30: 10
31: 10
32: 10
33: 10
34: 10
35: 10
36: 10
37: 10
38: 10
39: 10
40: 10
41: 10
42: 10
43: 10
44: 10
45: 10
46: 10
47: 10
48: 10
49: 10
50: 10
51: 10
52: 10
53: 10
54: 10
55: 10
56: 10
57: 10
58: 10
59: 10
60: 10
61: 10
62: 10
edge from: to
63: 0
64: 0
64: 2
65: 8
66: 9
67: 10
67: 13
67: 14
67: 15
68: 1
68: 19
69: 15
69: 20
69: 22
70: 25
71: 19
71: 27
72: 18
72: 29
72: 31
72: 32
72: 33
73: 32
73: 34
74: 36
74: 38
75: 2
75: 26
75: 36
75: 37
75: 38
75: 40
76: 41
77: 46
78: 46
78: 49
78: 52
79: 50
80: 52
80: 55
81: 55
81: 58
82: 57
82: 60
1: 63
2: 63
3: 63
4: 64
5: 64
6: 64
7: 64
8: 64
9: 65
10: 65
11: 66
12: 66
13: 66
14: 66
15: 66
16: 67
17: 67
18: 67
19: 67
20: 68
21: 68
22: 68
23: 68
24: 69
25: 69
26: 69
27: 69
28: 70
29: 70
30: 71
31: 71
32: 71
33: 71
34: 72
35: 73
36: 73
37: 73
38: 73
39: 74
40: 74
41: 75
42: 75
43: 75
44: 76
45: 76
46: 76
47: 76
48: 76
49: 76
50: 77
51: 77
52: 77
53: 78
54: 79
55: 79
56: 80
57: 80
58: 80
59: 81
60: 81
61: 82
62: 82
segment: [3]
vertex id: label
54: 0
55: 2
56: 1
57: 3
58: 1
59: 4
60: 4
61: 4
62: 8
63: 8
64: 8
65: 8
66: 8
67: 3
68: 1
69: 5
70: 2
71: 7
72: 6
73: 4
0: 10
1: 10
2: 10
3: 10
4: 10
5: 10
6: 10
7: 10
8: 10
9: 10
10: 10
11: 10
12: 10
13: 10
14: 10
15: 10
16: 10
17: 10
18: 10
19: 10
20: 10
21: 10
22: 10
23: 10
24: 10
25: 10
26: 10
27: 10
28: 10
29: 10
30: 10
31: 10
32: 10
33: 10
34: 10
35: 10
36: 10
37: 10
38: 10
39: 10
40: 10
41: 10
42: 10
43: 10
44: 10
45: 10
46: 10
47: 10
48: 10
49: 10
50: 10
51: 10
52: 10
53: 10
edge from: to
54: 0
55: 0
55: 2
55: 3
56: 4
56: 6
57: 5
57: 7
58: 10
58: 11
59: 14
59: 15
59: 16
60: 12
60: 17
61: 14
61: 18
61: 20
62: 23
63: 25
63: 27
64: 28
64: 30
65: 31
66: 30
66: 32
66: 34
67: 36
67: 38
68: 2
69: 28
69: 41
70: 43
71: 45
71: 48
72: 46
72: 49
73: 47
1: 54
2: 54
3: 54
4: 55
5: 55
6: 55
7: 56
8: 57
9: 57
10: 57
11: 57
12: 58
13: 58
14: 58
15: 58
16: 58
17: 59
18: 59
19: 60
20: 60
21: 60
22: 61
23: 61
24: 61
25: 62
26: 62
27: 62
28: 63
29: 63
30: 63
31: 64
32: 64
33: 64
34: 65
35: 66
36: 66
37: 66
38: 66
39: 67
40: 68
41: 68
42: 68
43: 68
44: 69
45: 69
46: 70
47: 70
48: 70
49: 71
50: 72
51: 73
52: 73
53: 73
segment: [4]
vertex id: label
67: 0
68: 2
69: 7
70: 6
71: 0
72: 2
73: 7
74: 6
75: 4
76: 8
77: 8
78: 8
79: 8
80: 8
81: 8
82: 8
83: 8
84: 8
85: 8
86: 8
0: 10
1: 10
2: 10
3: 10
4: 10
5: 10
6: 10
7: 10
8: 10
9: 10
10: 10
11: 10
12: 10
13: 10
14: 10
15: 10
16: 10
17: 10
18: 10
19: 10
20: 10
21: 10
22: 10
23: 10
24: 10
25: 10
26: 10
27: 10
28: 10
29: 10
30: 10
31: 10
32: 10
33: 10
34: 10
35: 10
36: 10
37: 10
38: 10
39: 10
40: 10
41: 10
42: 10
43: 10
44: 10
45: 10
46: 10
47: 10
48: 10
49: 10
50: 10
51: 10
52: 10
53: 10
54: 10
55: 10
56: 10
57: 10
58: 10
59: 10
60: 10
61: 10
62: 10
63: 10
64: 10
65: 10
66: 10
edge from: to
67: 0
67: 1
68: 0
69: 4
69: 5
69: 6
70: 9
71: 12
72: 9
72: 15
72: 16
72: 17
73: 1
73: 13
74: 22
74: 23
74: 24
75: 17
75: 24
76: 19
76: 26
76: 27
77: 32
78: 24
78: 34
78: 35
79: 40
79: 42
80: 40
80: 42
80: 44
81: 44
82: 47
83: 49
83: 52
84: 53
85: 55
85: 58
86: 54
86: 58
86: 61
2: 67
3: 68
4: 68
5: 68
6: 68
7: 69
8: 69
9: 69
10: 69
11: 70
12: 70
13: 70
14: 71
15: 71
16: 71
17: 71
18: 72
19: 72
20: 72
21: 73
22: 73
23: 73
24: 73
25: 74
26: 74
27: 75
28: 75
29: 75
30: 76
31: 76
32: 76
33: 76
34: 76
35: 77
36: 77
37: 77
38: 78
39: 78
40: 78
41: 78
42: 78
43: 79
44: 79
45: 80
46: 80
47: 80
48: 81
49: 81
50: 81
51: 82
52: 82
53: 83
54: 83
55: 83
56: 83
57: 84
58: 84
59: 85
60: 85
61: 85
62: 86
63: 86
64: 86
65: 86
66: 86
segment: [5]
vertex id: label
62: 0
63: 2
64: 7
65: 6
66: 2
67: 7
68: 6
69: 0
70: 2
71: 7
72: 6
73: 0
74: 2
75: 7
76: 6
77: 4
78: 4
79: 8
80: 8
81: 8
0: 10
1: 10
2: 10
3: 10
4: 10
5: 10
6: 10
7: 10
8: 10
9: 10
10: 10
11: 10
12: 10
13: 10
14: 10
15: 10
16: 10
17: 10
18: 10
19: 10
20: 10
21: 10
22: 10
23: 10
24: 10
25: 10
26: 10
27: 10
28: 10
29: 10
30: 10
31: 10
32: 10
33: 10
34: 10
35: 10
36: 10
37: 10
38: 10
39: 10
40: 10
41: 10
42: 10
43: 10
44: 10
45: 10
46: 10
47: 10
48: 10
49: 10
50: 10
51: 10
52: 10
53: 10
54: 10
55: 10
56: 10
57: 10
58: 10
59: 10
60: 10
61: 10
edge from: to
62: 0
63: 0
64: 5
64: 7
65: 9
66: 8
66: 10
66: 11
67: 10
67: 14
68: 15
68: 16
69: 9
69: 15
69: 16
69: 17
70: 14
70: 20
71: 23
72: 27
73: 32
74: 35
75: 36
75: 39
75: 41
76: 43
77: 47
78: 47
78: 48
78: 50
78: 53
79: 50
79: 51
79: 52
79: 55
80: 53
80: 55
80: 58
81: 57
81: 60
1: 62
2: 63
3: 63
4: 63
5: 63
6: 63
7: 63
8: 64
9: 64
10: 64
11: 65
12: 65
13: 66
14: 66
15: 66
16: 67
17: 68
18: 69
19: 69
20: 69
21: 69
22: 70
23: 70
24: 70
25: 71
26: 71
27: 71
28: 71
29: 71
30: 72
31: 72
32: 72
33: 72
34: 72
35: 73
36: 73
37: 73
38: 74
39: 74
40: 74
41: 74
42: 75
43: 75
44: 75
45: 75
46: 76
47: 76
48: 76
49: 76
50: 76
51: 77
52: 77
53: 77
54: 78
55: 78
56: 79
57: 79
58: 79
59: 80
60: 80
61: 81
segment: [6]
vertex id: label
71: 0
72: 2
73: 7
74: 6
75: 2
76: 7
77: 6
78: 7
79: 6
80: 0
81: 2
82: 1
83: 4
84: 4
85: 8
86: 8
87: 8
88: 8
89: 8
90: 8
0: 10
1: 10
2: 10
3: 10
4: 10
5: 10
6: 10
7: 10
8: 10
9: 10
10: 10
11: 10
12: 10
13: 10
14: 10
15: 10
16: 10
17: 10
18: 10
19: 10
20: 10
21: 10
22: 10
23: 10
24: 10
25: 10
26: 10
27: 10
28: 10
29: 10
30: 10
31: 10
32: 10
33: 10
34: 10
35: 10
36: 10
37: 10
38: 10
39: 10
40: 10
41: 10
42: 10
43: 10
44: 10
45: 10
46: 10
47: 10
48: 10
49: 10
50: 10
51: 10
52: 10
53: 10
54: 10
55: 10
56: 10
57: 10
58: 10
59: 10
60: 10
61: 10
62: 10
63: 10
64: 10
65: 10
66: 10
67: 10
68: 10
69: 10
70: 10
edge from: to
71: 0
71: 1
72: 0
73: 8
74: 11
74: 12
74: 13
75: 1
75: 13
76: 22
77: 25
78: 32
78: 34
79: 34
79: 35
79: 36
79: 38
80: 2
80: 26
80: 37
81: 40
82: 42
83: 44
84: 48
85: 29
85: 35
85: 49
85: 51
86: 52
86: 55
87: 51
87: 53
87: 56
88: 58
89: 61
89: 64
90: 65
2: 71
3: 71
4: 71
5: 72
6: 72
7: 72
8: 72
9: 73
10: 73
11: 73
12: 73
13: 73
14: 74
15: 74
16: 74
17: 74
18: 74
19: 74
20: 74
21: 75
22: 75
23: 75
24: 76
25: 76
26: 76
27: 76
28: 77
29: 77
30: 77
31: 77
32: 77
33: 77
34: 77
35: 78
36: 78
37: 78
38: 78
39: 79
40: 79
41: 80
42: 80
43: 81
44: 81
45: 82
46: 82
47: 82
48: 83
49: 83
50: 83
51: 83
52: 84
53: 84
54: 84
55: 85
56: 86
57: 87
58: 87
59: 87
60: 87
61: 87
62: 88
63: 88
64: 88
65: 89
66: 89
67: 89
68: 89
69: 90
70: 90
segment: [7]
vertex id: label
60: 0
61: 2
62: 7
63: 6
64: 2
65: 7
66: 6
67: 2
68: 7
69: 6
70: 7
71: 6
72: 2
73: 7
74: 6
75: 0
76: 2
77: 7
78: 6
79: 8
0: 10
1: 10
2: 10
3: 10
4: 10
5: 10
6: 10
7: 10
8: 10
9: 10
10: 10
11: 10
12: 10
13: 10
14: 10
15: 10
16: 10
17: 10
18: 10
19: 10
20: 10
21: 10
22: 10
23: 10
24: 10
25: 10
26: 10
27: 10
28: 10
29: 10
30: 10
31: 10
32: 10
33: 10
34: 10
35: 10
36: 10
37: 10
38: 10
39: 10
40: 10
41: 10
42: 10
43: 10
44: 10
45: 10
46: 10
47: 10
48: 10
49: 10
50: 10
51: 10
52: 10
53: 10
54: 10
55: 10
56: 10
57: 10
58: 10
59: 10
edge from: to
60: 0
61: 0
61: 3
61: 4
62: 5
62: 6
62: 9
63: 10
63: 11
64: 15
65: 1
65: 19
66: 1
67: 23
67: 24
68: 24
68: 25
68: 26
68: 27
69: 19
69: 26
69: 27
70: 21
70: 28
70: 30
70: 32
71: 33
72: 34
72: 36
73: 2
74: 2
74: 26
75: 41
76: 43
76: 44
76: 47
77: 33
77: 45
77: 48
78: 35
78: 49
78: 51
79: 53
1: 60
2: 60
3: 60
4: 60
5: 61
6: 61
7: 61
8: 61
9: 61
10: 62
11: 62
12: 63
13: 63
14: 63
15: 63
16: 63
17: 64
18: 64
19: 64
20: 65
21: 66
22: 66
23: 66
24: 66
25: 67
26: 67
27: 67
28: 68
29: 68
30: 69
31: 69
32: 69
33: 70
34: 70
35: 70
36: 71
37: 72
38: 72
39: 72
40: 73
41: 74
42: 74
43: 74
44: 75
45: 75
46: 75
47: 75
48: 76
49: 76
50: 76
51: 76
52: 77
53: 77
54: 77
55: 78
56: 78
57: 79
58: 79
59: 79
segment: [8]
vertex id: label
59: 0
60: 2
61: 7
62: 6
63: 2
64: 7
65: 6
66: 4
67: 1
68: 4
69: 8
70: 8
71: 2
72: 7
73: 6
74: 4
75: 8
76: 8
77: 3
78: 3
0: 10
1: 10
2: 10
3: 10
4: 10
5: 10
6: 10
7: 10
8: 10
9: 10
10: 10
11: 10
12: 10
13: 10
14: 10
15: 10
16: 10
17: 10
18: 10
19: 10
20: 10
21: 10
22: 10
23: 10
24: 10
25: 10
26: 10
27: 10
28: 10
29: 10
30: 10
31: 10
32: 10
33: 10
34: 10
35: 10
36: 10
37: 10
38: 10
39: 10
40: 10
41: 10
42: 10
43: 10
44: 10
45: 10
46: 10
47: 10
48: 10
49: 10
50: 10
51: 10
52: 10
53: 10
54: 10
55: 10
56: 10
57: 10
58: 10
edge from: to
59: 0
59: 1
60: 0
60: 3
61: 6
62: 6
62: 9
63: 16
63: 17
64: 1
64: 13
64: 17
65: 21
66: 24
66: 25
67: 25
67: 27
68: 28
68: 30
69: 31
69: 33
70: 32
70: 34
71: 34
72: 36
72: 38
73: 2
74: 43
74: 45
75: 46
75: 49
76: 33
76: 45
76: 48
77: 35
77: 51
78: 52
78: 55
2: 59
3: 59
4: 59
5: 60
6: 60
7: 61
8: 61
9: 61
10: 62
11: 62
12: 62
13: 62
14: 62
15: 62
16: 62
17: 62
18: 63
19: 63
20: 63
21: 64
22: 64
23: 65
24: 65
25: 65
26: 66
27: 66
28: 67
29: 67
30: 67
31: 68
32: 68
33: 68
34: 69
35: 70
36: 70
37: 71
38: 71
39: 72
40: 72
41: 73
42: 73
43: 73
44: 73
45: 73
46: 74
47: 74
48: 74
49: 74
50: 75
51: 75
52: 76
53: 76
54: 76
55: 77
56: 78
57: 78
58: 78
segment: [9]
vertex id: label
67: 0
68: 2
69: 7
70: 6
71: 0
72: 2
73: 7
74: 6
75: 2
76: 7
77: 6
78: 4
79: 8
80: 3
81: 3
82: 3
83: 3
84: 2
85: 1
86: 3
0: 10
1: 10
2: 10
3: 10
4: 10
5: 10
6: 10
7: 10
8: 10
9: 10
10: 10
11: 10
12: 10
13: 10
14: 10
15: 10
16: 10
17: 10
18: 10
19: 10
20: 10
21: 10
22: 10
23: 10
24: 10
25: 10
26: 10
27: 10
28: 10
29: 10
30: 10
31: 10
32: 10
33: 10
34: 10
35: 10
36: 10
37: 10
38: 10
39: 10
40: 10
41: 10
42: 10
43: 10
44: 10
45: 10
46: 10
47: 10
48: 10
49: 10
50: 10
51: 10
52: 10
53: 10
54: 10
55: 10
56: 10
57: 10
58: 10
59: 10
60: 10
61: 10
62: 10
63: 10
64: 10
65: 10
66: 10
edge from: to
67: 0
67: 1
67: 2
67: 3
67: 4
68: 0
68: 2
68: 7
68: 8
69: 7
69: 9
70: 6
70: 10
70: 11
71: 12
71: 13
72: 10
72: 14
73: 1
73: 13
74: 23
74: 24
74: 25
75: 25
75: 26
75: 27
75: 28
76: 28
77: 32
78: 2
78: 39
79: 40
80: 45
80: 48
81: 46
81: 47
81: 50
82: 49
83: 35
83: 51
84: 53
85: 57
85: 60
86: 60
86: 63
5: 67
6: 67
7: 67
8: 67
9: 68
10: 68
11: 69
12: 70
13: 70
14: 71
15: 71
16: 72
17: 72
18: 72
19: 72
20: 72
21: 73
22: 73
23: 73
24: 73
25: 73
26: 74
27: 74
28: 74
29: 75
30: 75
31: 76
32: 76
33: 76
34: 76
35: 77
36: 77
37: 77
38: 77
39: 77
40: 78
41: 78
42: 78
43: 79
44: 79
45: 79
46: 79
47: 79
48: 79
49: 80
50: 80
51: 81
52: 81
53: 82
54: 82
55: 83
56: 83
57: 84
58: 84
59: 84
60: 84
61: 85
62: 85
63: 85
64: 86
65: 86
66: 86
