segment: [0]
vertex id: label
60: 0
61: 17
62: 16
63: 11
64: 2
65: 18
66: 1
67: 10
68: 9
69: 11
70: 2
71: 2
72: 13
73: 15
74: 3
75: 13
76: 18
77: 1
78: 1
79: 1
0: 20
1: 20
2: 20
3: 20
4: 20
5: 20
6: 20
7: 20
8: 20
9: 20
10: 20
11: 20
12: 20
13: 20
14: 20
15: 20
16: 20
17: 20
18: 20
19: 20
20: 20
21: 20
22: 20
23: 20
24: 20
25: 20
26: 20
27: 20
28: 20
29: 20
30: 20
31: 20
32: 20
33: 20
34: 20
35: 20
36: 20
37: 20
38: 20
39: 20
40: 20
41: 20
42: 20
43: 20
44: 20
45: 20
46: 20
47: 20
48: 20
49: 20
50: 20
51: 20
52: 20
53: 20
54: 20
55: 20
56: 20
57: 20
58: 20
59: 20
edge from: to
60: 0
60: 1
61: 2
61: 3
61: 4
61: 5
62: 4
62: 5
62: 6
63: 6
63: 7
63: 8
64: 6
64: 8
64: 9
65: 8
65: 11
65: 12
66: 9
67: 6
67: 13
67: 18
67: 19
68: 16
68: 23
69: 16
69: 17
69: 24
69: 25
70: 18
70: 19
71: 28
71: 30
72: 22
72: 32
73: 24
73: 35
74: 37
75: 39
76: 41
76: 43
77: 51
78: 55
79: 56
2: 60
3: 60
4: 60
5: 60
6: 61
7: 62
8: 62
9: 63
10: 64
11: 64
12: 64
13: 65
14: 65
15: 66
16: 66
17: 66
18: 66
19: 66
20: 67
21: 67
22: 67
23: 67
24: 68
25: 68
26: 69
27: 69
28: 69
29: 70
30: 70
31: 71
32: 71
33: 72
34: 72
35: 72
36: 73
37: 73
38: 74
39: 74
40: 75
41: 75
42: 75
43: 75
44: 76
45: 76
46: 76
47: 76
48: 76
49: 76
50: 76
51: 76
52: 77
53: 77
54: 77
55: 77
56: 78
57: 79
58: 79
59: 79
segment: [1]
vertex id: label
63: 0
64: 13
65: 10
66: 8
67: 12
68: 17
69: 16
70: 11
71: 6
72: 11
73: 16
74: 11
75: 6
76: 19
77: 14
78: 19
79: 17
80: 16
81: 11
82: 6
0: 20
1: 20
2: 20
3: 20
4: 20
5: 20
6: 20
7: 20
8: 20
9: 20
10: 20
11: 20
12: 20
13: 20
14: 20
15: 20
16: 20
17: 20
18: 20
19: 20
20: 20
21: 20
22: 20
23: 20
24: 20
25: 20
26: 20
27: 20
28: 20
29: 20
30: 20
31: 20
32: 20
33: 20
34: 20
35: 20
36: 20
37: 20
38: 20
39: 20
40: 20
41: 20
42: 20
43: 20
44: 20
45: 20
46: 20
47: 20
48: 20
49: 20
50: 20
51: 20
52: 20
53: 20
54: 20
55: 20
56: 20
57: 20
58: 20
59: 20
60: 20
61: 20
62: 20
edge from: to
63: 0
63: 1
64: 2
65: 1
65: 2
65: 3
65: 4
66: 2
66: 4
66: 5
66: 6
67: 10
68: 9
68: 10
69: 1
69: 7
69: 9
69: 18
70: 14
70: 15
71: 23
71: 24
72: 27
73: 18
74: 30
75: 32
75: 33
75: 34
76: 35
76: 37
77: 38
77: 40
78: 46
79: 50
80: 51
81: 54
82: 56
82: 58
2: 63
3: 64
4: 64
5: 65
6: 65
7: 66
8: 66
9: 66
10: 66
11: 67
12: 67
13: 67
14: 67
15: 68
16: 68
17: 68
18: 68
19: 69
20: 69
21: 69
22: 69
23: 70
24: 70
25: 71
26: 71
27: 71
28: 72
29: 73
30: 73
31: 74
32: 74
33: 74
34: 74
35: 75
36: 75
37: 75
38: 76
39: 76
40: 76
41: 77
42: 77
43: 77
44: 77
45: 77
46: 77
47: 78
48: 78
49: 78
50: 78
51: 79
52: 80
53: 80
54: 80
55: 81
56: 81
57: 81
58: 81
59: 82
60: 82
61: 82
62: 82
segment: [2]
vertex id: label
46: 0
47: 13
48: 15
49: 11
50: 1
51: 10
52: 10
53: 9
54: 11
55: 6
56: 16
57: 11
58: 9
59: 5
60: 5
61: 6
62: 15
63: 3
64: 7
65: 4
0: 20
1: 20
2: 20
3: 20
4: 20
5: 20
6: 20
7: 20
8: 20
9: 20
10: 20
11: 20
12: 20
13: 20
14: 20
15: 20
16: 20
17: 20
18: 20
19: 20
20: 20
21: 20
22: 20
23: 20
24: 20
25: 20
26: 20
27: 20
28: 20
29: 20
30: 20
31: 20
32: 20
33: 20
34: 20
35: 20
36: 20
37: 20
38: 20
39: 20
40: 20
41: 20
42: 20
43: 20
44: 20
45: 20
edge from: to
46: 0
46: 1
47: 3
47: 4
48: 5
49: 10
50: 9
50: 13
51: 9
52: 16
53: 11
53: 12
54: 19
55: 13
55: 14
56: 14
56: 15
57: 24
58: 18
58: 26
59: 25
59: 26
59: 27
60: 28
60: 29
60: 30
61: 21
61: 33
62: 23
62: 36
63: 26
63: 38
64: 9
64: 37
64: 38
64: 39
65: 26
65: 28
2: 46
3: 46
4: 46
5: 47
6: 48
7: 48
8: 48
9: 48
10: 48
11: 49
12: 49
13: 49
14: 50
15: 51
16: 51
17: 52
18: 53
19: 53
20: 54
21: 55
22: 55
23: 56
24: 56
25: 57
26: 57
27: 58
28: 59
29: 59
30: 59
31: 60
32: 60
33: 60
34: 61
35: 61
36: 61
37: 62
38: 62
39: 63
40: 64
41: 64
42: 65
43: 65
44: 65
45: 65
segment: [3]
vertex id: label
59: 0
60: 14
61: 2
62: 0
63: 17
64: 16
65: 17
66: 16
67: 17
68: 16
69: 8
70: 0
71: 17
72: 16
73: 11
74: 6
75: 11
76: 9
77: 11
78: 5
0: 20
1: 20
2: 20
3: 20
4: 20
5: 20
6: 20
7: 20
8: 20
9: 20
10: 20
11: 20
12: 20
13: 20
14: 20
15: 20
16: 20
17: 20
18: 20
19: 20
20: 20
21: 20
22: 20
23: 20
24: 20
25: 20
26: 20
27: 20
28: 20
29: 20
30: 20
31: 20
32: 20
33: 20
34: 20
35: 20
36: 20
37: 20
38: 20
39: 20
40: 20
41: 20
42: 20
43: 20
44: 20
45: 20
46: 20
47: 20
48: 20
49: 20
50: 20
51: 20
52: 20
53: 20
54: 20
55: 20
56: 20
57: 20
58: 20
edge from: to
59: 0
59: 1
60: 3
60: 4
61: 5
61: 7
62: 7
62: 10
63: 7
64: 9
64: 10
64: 14
65: 11
65: 16
66: 1
66: 9
66: 18
67: 21
68: 7
68: 23
68: 24
69: 18
69: 26
70: 18
70: 19
71: 21
71: 22
71: 24
71: 25
71: 30
71: 31
71: 32
72: 21
72: 35
72: 37
73: 37
73: 39
74: 26
75: 45
76: 34
76: 50
77: 33
77: 52
78: 51
78: 52
78: 54
2: 59
3: 59
4: 59
5: 60
6: 60
7: 60
8: 61
9: 61
10: 61
11: 62
12: 63
13: 63
14: 63
15: 64
16: 64
17: 65
18: 65
19: 66
20: 66
21: 66
22: 67
23: 67
24: 67
25: 68
26: 68
27: 69
28: 69
29: 70
30: 70
31: 70
32: 70
33: 71
34: 71
35: 71
36: 71
37: 71
38: 72
39: 72
40: 73
41: 73
42: 74
43: 74
44: 74
45: 74
46: 75
47: 75
48: 75
49: 75
50: 75
51: 76
52: 76
53: 77
54: 77
55: 78
56: 78
57: 78
58: 78
segment: [4]
vertex id: label
57: 0
58: 17
59: 16
60: 11
61: 5
62: 6
63: 15
64: 0
65: 13
66: 7
67: 10
68: 5
69: 5
70: 2
71: 18
72: 11
73: 5
74: 6
75: 11
76: 6
0: 20
1: 20
2: 20
3: 20
4: 20
5: 20
6: 20
7: 20
8: 20
9: 20
10: 20
11: 20
12: 20
13: 20
14: 20
15: 20
16: 20
17: 20
18: 20
19: 20
20: 20
21: 20
22: 20
23: 20
24: 20
25: 20
26: 20
27: 20
28: 20
29: 20
30: 20
31: 20
32: 20
33: 20
34: 20
35: 20
36: 20
37: 20
38: 20
39: 20
40: 20
41: 20
42: 20
43: 20
44: 20
45: 20
46: 20
47: 20
48: 20
49: 20
50: 20
51: 20
52: 20
53: 20
54: 20
55: 20
56: 20
edge from: to
57: 0
58: 0
58: 2
59: 0
59: 1
59: 2
59: 3
59: 4
60: 6
60: 7
60: 8
61: 8
62: 14
62: 15
63: 11
63: 12
63: 16
64: 13
64: 19
65: 14
65: 15
66: 24
67: 16
67: 17
67: 25
68: 18
68: 26
69: 18
70: 22
70: 32
71: 34
72: 21
72: 35
72: 37
73: 42
74: 32
74: 47
75: 33
75: 51
75: 52
76: 55
1: 57
2: 57
3: 58
4: 58
5: 59
6: 59
7: 59
8: 59
9: 60
10: 60
11: 60
12: 60
13: 61
14: 61
15: 61
16: 62
17: 62
18: 63
19: 63
20: 64
21: 64
22: 64
23: 65
24: 65
25: 66
26: 67
27: 68
28: 68
29: 69
30: 69
31: 69
32: 69
33: 70
34: 70
35: 71
36: 71
37: 71
38: 72
39: 72
40: 72
41: 72
42: 72
43: 73
44: 73
45: 73
46: 73
47: 73
48: 74
49: 74
50: 74
51: 74
52: 74
53: 75
54: 75
55: 75
56: 76
segment: [5]
vertex id: label
71: 0
72: 13
73: 15
74: 1
75: 3
76: 7
77: 10
78: 9
79: 11
80: 1
81: 10
82: 9
83: 11
84: 5
85: 2
86: 2
87: 11
88: 9
89: 11
90: 18
0: 20
1: 20
2: 20
3: 20
4: 20
5: 20
6: 20
7: 20
8: 20
9: 20
10: 20
11: 20
12: 20
13: 20
14: 20
15: 20
16: 20
17: 20
18: 20
19: 20
20: 20
21: 20
22: 20
23: 20
24: 20
25: 20
26: 20
27: 20
28: 20
29: 20
30: 20
31: 20
32: 20
33: 20
34: 20
35: 20
36: 20
37: 20
38: 20
39: 20
40: 20
41: 20
42: 20
43: 20
44: 20
45: 20
46: 20
47: 20
48: 20
49: 20
50: 20
51: 20
52: 20
53: 20
54: 20
55: 20
56: 20
57: 20
58: 20
59: 20
60: 20
61: 20
62: 20
63: 20
64: 20
65: 20
66: 20
67: 20
68: 20
69: 20
70: 20
edge from: to
71: 0
72: 2
73: 5
73: 6
73: 7
74: 3
74: 7
74: 8
74: 10
74: 11
75: 9
76: 11
76: 16
77: 12
77: 20
77: 21
78: 23
79: 16
79: 17
80: 29
81: 29
81: 31
82: 2
82: 11
82: 24
82: 33
82: 35
83: 26
84: 42
85: 28
85: 30
85: 42
85: 44
86: 34
86: 50
87: 36
88: 62
89: 66
90: 43
90: 46
1: 71
2: 71
3: 71
4: 72
5: 72
6: 72
7: 72
8: 73
9: 73
10: 73
11: 73
12: 74
13: 74
14: 74
15: 75
16: 75
17: 76
18: 76
19: 76
20: 76
21: 76
22: 77
23: 77
24: 78
25: 78
26: 79
27: 79
28: 79
29: 79
30: 80
31: 80
32: 81
33: 81
34: 81
35: 81
36: 82
37: 82
38: 82
39: 82
40: 82
41: 82
42: 83
43: 84
44: 84
45: 85
46: 85
47: 85
48: 85
49: 85
50: 85
51: 86
52: 86
53: 86
54: 86
55: 86
56: 86
57: 86
58: 87
59: 87
60: 87
61: 87
62: 87
63: 88
64: 88
65: 88
66: 88
67: 89
68: 89
69: 90
70: 90
segment: [6]
vertex id: label
57: 0
58: 17
59: 16
60: 11
61: 5
62: 2
63: 18
64: 1
65: 10
66: 8
67: 12
68: 17
69: 16
70: 17
71: 16
72: 11
73: 5
74: 2
75: 13
76: 10
0: 20
1: 20
2: 20
3: 20
4: 20
5: 20
6: 20
7: 20
8: 20
9: 20
10: 20
11: 20
12: 20
13: 20
14: 20
15: 20
16: 20
17: 20
18: 20
19: 20
20: 20
21: 20
22: 20
23: 20
24: 20
25: 20
26: 20
27: 20
28: 20
29: 20
30: 20
31: 20
32: 20
33: 20
34: 20
35: 20
36: 20
37: 20
38: 20
39: 20
40: 20
41: 20
42: 20
43: 20
44: 20
45: 20
46: 20
47: 20
48: 20
49: 20
50: 20
51: 20
52: 20
53: 20
54: 20
55: 20
56: 20
edge from: to
57: 0
58: 1
59: 0
59: 1
59: 2
60: 4
61: 8
62: 7
62: 8
62: 10
63: 8
63: 12
64: 11
64: 15
64: 16
65: 13
65: 19
66: 14
67: 25
67: 26
67: 27
68: 22
68: 30
68: 32
69: 24
69: 35
70: 38
71: 37
71: 38
71: 39
72: 41
72: 42
73: 28
74: 32
74: 47
75: 48
76: 33
1: 57
2: 58
3: 59
4: 59
5: 59
6: 59
7: 60
8: 60
9: 61
10: 61
11: 61
12: 62
13: 63
14: 63
15: 63
16: 63
17: 64
18: 64
19: 64
20: 65
21: 65
22: 65
23: 66
24: 66
25: 66
26: 66
27: 66
28: 67
29: 67
30: 67
31: 67
32: 67
33: 68
34: 68
35: 68
36: 69
37: 69
38: 69
39: 70
40: 71
41: 71
42: 71
43: 72
44: 72
45: 73
46: 73
47: 73
48: 74
49: 75
50: 75
51: 75
52: 75
53: 76
54: 76
55: 76
56: 76
segment: [7]
vertex id: label
63: 0
64: 13
65: 18
66: 13
67: 15
68: 3
69: 4
70: 15
71: 11
72: 5
73: 6
74: 11
75: 5
76: 6
77: 11
78: 6
79: 11
80: 5
81: 13
82: 18
0: 20
1: 20
2: 20
3: 20
4: 20
5: 20
6: 20
7: 20
8: 20
9: 20
10: 20
11: 20
12: 20
13: 20
14: 20
15: 20
16: 20
17: 20
18: 20
19: 20
20: 20
21: 20
22: 20
23: 20
24: 20
25: 20
26: 20
27: 20
28: 20
29: 20
30: 20
31: 20
32: 20
33: 20
34: 20
35: 20
36: 20
37: 20
38: 20
39: 20
40: 20
41: 20
42: 20
43: 20
44: 20
45: 20
46: 20
47: 20
48: 20
49: 20
50: 20
51: 20
52: 20
53: 20
54: 20
55: 20
56: 20
57: 20
58: 20
59: 20
60: 20
61: 20
62: 20
edge from: to
63: 0
63: 1
64: 4
64: 5
65: 8
65: 12
66: 6
66: 14
66: 15
67: 1
67: 9
67: 18
68: 19
69: 16
69: 23
70: 27
71: 30
72: 32
72: 34
73: 21
73: 35
73: 37
74: 37
74: 38
74: 39
75: 26
76: 28
76: 30
76: 42
77: 45
78: 46
78: 48
79: 33
80: 38
80: 56
81: 36
81: 56
81: 57
82: 38
2: 63
3: 63
4: 63
5: 63
6: 64
7: 64
8: 64
9: 64
10: 64
11: 64
12: 64
13: 65
14: 65
15: 65
16: 66
17: 66
18: 66
19: 67
20: 68
21: 68
22: 68
23: 68
24: 69
25: 69
26: 69
27: 69
28: 70
29: 70
30: 70
31: 71
32: 71
33: 71
34: 71
35: 72
36: 72
37: 72
38: 73
39: 73
40: 74
41: 74
42: 75
43: 75
44: 75
45: 76
46: 77
47: 77
48: 77
49: 78
50: 78
51: 78
52: 78
53: 79
54: 79
55: 79
56: 79
57: 80
58: 81
59: 81
60: 81
61: 82
62: 82
segment: [8]
vertex id: label
52: 0
53: 17
54: 16
55: 14
56: 7
57: 10
58: 9
59: 11
60: 5
61: 2
62: 2
63: 11
64: 9
65: 5
66: 6
67: 11
68: 2
69: 13
70: 18
71: 1
0: 20
1: 20
2: 20
3: 20
4: 20
5: 20
6: 20
7: 20
8: 20
9: 20
10: 20
11: 20
12: 20
13: 20
14: 20
15: 20
16: 20
17: 20
18: 20
19: 20
20: 20
21: 20
22: 20
23: 20
24: 20
25: 20
26: 20
27: 20
28: 20
29: 20
30: 20
31: 20
32: 20
33: 20
34: 20
35: 20
36: 20
37: 20
38: 20
39: 20
40: 20
41: 20
42: 20
43: 20
44: 20
45: 20
46: 20
47: 20
48: 20
49: 20
50: 20
51: 20
edge from: to
52: 0
53: 1
53: 2
53: 3
53: 4
54: 4
54: 5
55: 4
55: 6
55: 7
55: 8
56: 7
56: 8
56: 10
57: 13
58: 9
59: 1
59: 18
60: 16
60: 23
61: 16
61: 17
62: 27
63: 18
64: 29
64: 31
65: 32
66: 32
66: 34
67: 21
67: 35
67: 36
67: 37
68: 26
68: 28
68: 40
69: 41
69: 42
70: 45
70: 46
71: 45
71: 46
71: 48
1: 52
2: 52
3: 52
4: 52
5: 53
6: 53
7: 54
8: 54
9: 55
10: 55
11: 55
12: 56
13: 56
14: 57
15: 58
16: 58
17: 58
18: 58
19: 59
20: 59
21: 59
22: 59
23: 59
24: 60
25: 60
26: 61
27: 61
28: 62
29: 63
30: 63
31: 63
32: 64
33: 65
34: 65
35: 66
36: 66
37: 66
38: 67
39: 67
40: 67
41: 67
42: 68
43: 69
44: 69
45: 69
46: 69
47: 70
48: 70
49: 71
50: 71
51: 71
segment: [9]
vertex id: label
67: 0
68: 17
69: 16
70: 11
71: 5
72: 6
73: 2
74: 0
75: 12
76: 3
77: 7
78: 10
79: 9
80: 13
81: 18
82: 1
83: 17
84: 16
85: 11
86: 9
0: 20
1: 20
2: 20
3: 20
4: 20
5: 20
6: 20
7: 20
8: 20
9: 20
10: 20
11: 20
12: 20
13: 20
14: 20
15: 20
16: 20
17: 20
18: 20
19: 20
20: 20
21: 20
22: 20
23: 20
24: 20
25: 20
26: 20
27: 20
28: 20
29: 20
30: 20
31: 20
32: 20
33: 20
34: 20
35: 20
36: 20
37: 20
38: 20
39: 20
40: 20
41: 20
42: 20
43: 20
44: 20
45: 20
46: 20
47: 20
48: 20
49: 20
50: 20
51: 20
52: 20
53: 20
54: 20
55: 20
56: 20
57: 20
58: 20
59: 20
60: 20
61: 20
62: 20
63: 20
64: 20
65: 20
66: 20
edge from: to
67: 0
68: 0
68: 2
69: 5
70: 6
70: 8
71: 7
72: 13
73: 13
73: 14
73: 19
74: 16
74: 17
74: 25
75: 18
76: 9
76: 32
76: 33
76: 34
77: 23
77: 36
78: 37
78: 39
79: 41
79: 42
80: 28
80: 30
81: 47
82: 31
82: 49
83: 33
83: 52
84: 36
84: 57
85: 61
86: 41
86: 44
1: 67
2: 67
3: 68
4: 68
5: 68
6: 69
7: 69
8: 69
9: 70
10: 70
11: 70
12: 71
13: 71
14: 72
15: 72
16: 72
17: 72
18: 72
19: 72
20: 72
21: 73
22: 73
23: 73
24: 73
25: 73
26: 74
27: 74
28: 74
29: 75
30: 75
31: 75
32: 75
33: 75
34: 75
35: 76
36: 76
37: 77
38: 77
39: 77
40: 78
41: 78
42: 78
43: 79
44: 79
45: 80
46: 80
47: 80
48: 81
49: 81
50: 82
51: 82
52: 82
53: 83
54: 83
55: 83
56: 83
57: 83
58: 84
59: 84
60: 84
61: 84
62: 85
63: 85
64: 85
65: 85
66: 86
