segment: [0]
vertex id: label
67: 0
68: 3
69: 3
70: 3
71: 3
72: 3
73: 3
74: 3
75: 3
76: 3
77: 3
78: 3
79: 3
80: 3
81: 3
82: 3
83: 3
84: 3
85: 3
86: 3
0: 5
1: 5
2: 5
3: 5
4: 5
5: 5
6: 5
7: 5
8: 5
9: 5
10: 5
11: 5
12: 5
13: 5
14: 5
15: 5
16: 5
17: 5
18: 5
19: 5
20: 5
21: 5
22: 5
23: 5
24: 5
25: 5
26: 5
27: 5
28: 5
29: 5
30: 5
31: 5
32: 5
33: 5
34: 5
35: 5
36: 5
37: 5
38: 5
39: 5
40: 5
41: 5
42: 5
43: 5
44: 5
45: 5
46: 5
47: 5
48: 5
49: 5
50: 5
51: 5
52: 5
53: 5
54: 5
55: 5
56: 5
57: 5
58: 5
59: 5
60: 5
61: 5
62: 5
63: 5
64: 5
65: 5
66: 5
edge from: to
67: 0
67: 1
68: 4
69: 3
69: 4
69: 5
70: 5
70: 6
71: 6
71: 9
72: 13
72: 14
72: 16
73: 14
73: 16
73: 18
74: 13
74: 20
75: 23
75: 26
76: 26
77: 24
77: 30
77: 34
78: 33
78: 37
79: 34
79: 39
80: 36
81: 39
81: 44
82: 41
82: 47
83: 48
83: 55
84: 34
84: 52
85: 25
85: 57
85: 61
86: 55
2: 67
3: 67
4: 67
5: 68
6: 69
7: 70
8: 70
9: 70
10: 70
11: 71
12: 71
13: 71
14: 71
15: 71
16: 71
17: 72
18: 72
19: 73
20: 73
21: 73
22: 73
23: 74
24: 74
25: 74
26: 74
27: 75
28: 75
29: 75
30: 75
31: 76
32: 76
33: 76
34: 76
35: 77
36: 77
37: 77
38: 78
39: 78
40: 79
41: 79
42: 80
43: 80
44: 80
45: 81
46: 81
47: 81
48: 82
49: 82
50: 82
51: 82
52: 82
53: 82
54: 82
55: 82
56: 83
57: 83
58: 83
59: 83
60: 84
61: 84
62: 85
63: 85
64: 86
65: 86
66: 86
segment: [1]
vertex id: label
70: 0
71: 3
72: 3
73: 3
74: 3
75: 3
76: 3
77: 3
78: 3
79: 3
80: 3
81: 3
82: 3
83: 3
84: 3
85: 3
86: 3
87: 3
88: 3
89: 3
0: 5
1: 5
2: 5
3: 5
4: 5
5: 5
6: 5
7: 5
8: 5
9: 5
10: 5
11: 5
12: 5
13: 5
14: 5
15: 5
16: 5
17: 5
18: 5
19: 5
20: 5
21: 5
22: 5
23: 5
24: 5
25: 5
26: 5
27: 5
28: 5
29: 5
30: 5
31: 5
32: 5
33: 5
34: 5
35: 5
36: 5
37: 5
38: 5
39: 5
40: 5
41: 5
42: 5
43: 5
44: 5
45: 5
46: 5
47: 5
48: 5
49: 5
50: 5
51: 5
52: 5
53: 5
54: 5
55: 5
56: 5
57: 5
58: 5
59: 5
60: 5
61: 5
62: 5
63: 5
64: 5
65: 5
66: 5
67: 5
68: 5
69: 5
edge from: to
70: 0
70: 1
71: 6
72: 10
73: 15
74: 15
74: 19
74: 21
75: 22
75: 25
76: 25
76: 28
77: 27
78: 25
78: 28
78: 32
79: 30
80: 21
80: 28
80: 32
81: 22
81: 30
81: 33
82: 37
82: 42
83: 43
83: 49
84: 30
84: 46
85: 47
85: 54
86: 23
86: 49
86: 56
87: 45
87: 51
87: 53
87: 54
87: 55
87: 58
88: 54
89: 38
89: 58
2: 70
3: 70
4: 70
5: 70
6: 70
7: 71
8: 71
9: 71
10: 71
11: 71
12: 72
13: 72
14: 72
15: 72
16: 72
17: 72
18: 73
19: 73
20: 73
21: 73
22: 74
23: 74
24: 74
25: 74
26: 75
27: 75
28: 75
29: 76
30: 76
31: 76
32: 77
33: 78
34: 78
35: 79
36: 79
37: 80
38: 80
39: 81
40: 81
41: 81
42: 81
43: 82
44: 82
45: 82
46: 82
47: 82
48: 82
49: 82
50: 83
51: 83
52: 83
53: 84
54: 84
55: 85
56: 85
57: 86
58: 86
59: 87
60: 87
61: 87
62: 87
63: 88
64: 88
65: 88
66: 88
67: 89
68: 89
69: 89
segment: [2]
vertex id: label
67: 0
68: 4
69: 3
70: 3
71: 3
72: 3
73: 3
74: 3
75: 3
76: 3
77: 3
78: 3
79: 3
80: 3
81: 3
82: 3
83: 3
84: 3
85: 3
86: 3
0: 5
1: 5
2: 5
3: 5
4: 5
5: 5
6: 5
7: 5
8: 5
9: 5
10: 5
11: 5
12: 5
13: 5
14: 5
15: 5
16: 5
17: 5
18: 5
19: 5
20: 5
21: 5
22: 5
23: 5
24: 5
25: 5
26: 5
27: 5
28: 5
29: 5
30: 5
31: 5
32: 5
33: 5
34: 5
35: 5
36: 5
37: 5
38: 5
39: 5
40: 5
41: 5
42: 5
43: 5
44: 5
45: 5
46: 5
47: 5
48: 5
49: 5
50: 5
51: 5
52: 5
53: 5
54: 5
55: 5
56: 5
57: 5
58: 5
59: 5
60: 5
61: 5
62: 5
63: 5
64: 5
65: 5
66: 5
edge from: to
67: 0
67: 1
67: 2
68: 3
68: 5
69: 3
69: 5
69: 6
69: 7
70: 8
71: 10
71: 12
71: 13
72: 8
72: 13
72: 14
72: 16
73: 10
73: 15
74: 15
74: 19
74: 21
75: 20
76: 24
76: 27
77: 28
77: 32
78: 21
78: 32
79: 36
79: 41
80: 25
80: 38
80: 43
81: 26
81: 35
81: 40
81: 45
82: 42
82: 48
83: 40
83: 45
83: 51
84: 47
84: 53
85: 43
85: 48
85: 55
86: 54
86: 62
3: 67
4: 67
5: 67
6: 68
7: 68
8: 69
9: 69
10: 70
11: 70
12: 70
13: 70
14: 71
15: 71
16: 71
17: 72
18: 73
19: 73
20: 73
21: 73
22: 74
23: 74
24: 75
25: 75
26: 75
27: 75
28: 76
29: 76
30: 76
31: 76
32: 76
33: 77
34: 77
35: 77
36: 77
37: 78
38: 78
39: 78
40: 78
41: 78
42: 79
43: 79
44: 80
45: 80
46: 81
47: 81
48: 81
49: 82
50: 82
51: 82
52: 83
53: 83
54: 84
55: 84
56: 85
57: 85
58: 85
59: 85
60: 85
61: 85
62: 85
63: 86
64: 86
65: 86
66: 86
segment: [3]
vertex id: label
65: 0
66: 3
67: 3
68: 3
69: 3
70: 3
71: 3
72: 3
73: 3
74: 3
75: 3
76: 3
77: 3
78: 3
79: 3
80: 3
81: 3
82: 3
83: 3
84: 3
0: 5
1: 5
2: 5
3: 5
4: 5
5: 5
6: 5
7: 5
8: 5
9: 5
10: 5
11: 5
12: 5
13: 5
14: 5
15: 5
16: 5
17: 5
18: 5
19: 5
20: 5
21: 5
22: 5
23: 5
24: 5
25: 5
26: 5
27: 5
28: 5
29: 5
30: 5
31: 5
32: 5
33: 5
34: 5
35: 5
36: 5
37: 5
38: 5
39: 5
40: 5
41: 5
42: 5
43: 5
44: 5
45: 5
46: 5
47: 5
48: 5
49: 5
50: 5
51: 5
52: 5
53: 5
54: 5
55: 5
56: 5
57: 5
58: 5
59: 5
60: 5
61: 5
62: 5
63: 5
64: 5
edge from: to
65: 0
66: 0
66: 1
66: 2
67: 2
67: 5
67: 6
68: 8
69: 6
69: 8
69: 9
70: 12
70: 13
71: 15
72: 19
72: 21
73: 20
74: 21
74: 24
74: 27
75: 27
76: 29
76: 33
77: 30
77: 34
78: 22
78: 33
79: 36
80: 31
80: 39
80: 41
80: 44
81: 43
82: 47
82: 53
83: 49
83: 56
84: 34
84: 46
84: 52
1: 65
2: 65
3: 66
4: 66
5: 66
6: 66
7: 67
8: 67
9: 67
10: 68
11: 69
12: 69
13: 69
14: 70
15: 70
16: 70
17: 70
18: 71
19: 71
20: 71
21: 71
22: 72
23: 72
24: 73
25: 73
26: 73
27: 73
28: 74
29: 74
30: 74
31: 74
32: 75
33: 75
34: 76
35: 77
36: 77
37: 77
38: 77
39: 78
40: 78
41: 78
42: 79
43: 79
44: 79
45: 80
46: 80
47: 80
48: 80
49: 80
50: 81
51: 81
52: 81
53: 81
54: 82
55: 82
56: 82
57: 83
58: 83
59: 83
60: 84
61: 84
62: 84
63: 84
64: 84
segment: [4]
vertex id: label
69: 0
70: 4
71: 2
72: 0
73: 4
74: 2
75: 0
76: 0
77: 4
78: 3
79: 3
80: 3
81: 3
82: 3
83: 3
84: 3
85: 3
86: 3
87: 3
88: 3
0: 5
1: 5
2: 5
3: 5
4: 5
5: 5
6: 5
7: 5
8: 5
9: 5
10: 5
11: 5
12: 5
13: 5
14: 5
15: 5
16: 5
17: 5
18: 5
19: 5
20: 5
21: 5
22: 5
23: 5
24: 5
25: 5
26: 5
27: 5
28: 5
29: 5
30: 5
31: 5
32: 5
33: 5
34: 5
35: 5
36: 5
37: 5
38: 5
39: 5
40: 5
41: 5
42: 5
43: 5
44: 5
45: 5
46: 5
47: 5
48: 5
49: 5
50: 5
51: 5
52: 5
53: 5
54: 5
55: 5
56: 5
57: 5
58: 5
59: 5
60: 5
61: 5
62: 5
63: 5
64: 5
65: 5
66: 5
67: 5
68: 5
edge from: to
69: 0
69: 1
70: 3
70: 5
71: 7
72: 9
73: 10
74: 13
75: 10
75: 12
75: 15
75: 17
76: 18
77: 8
77: 11
77: 13
77: 15
77: 16
77: 19
77: 20
77: 21
78: 26
79: 25
79: 28
79: 32
80: 30
81: 33
82: 35
83: 38
84: 26
84: 40
85: 40
85: 45
85: 51
86: 49
87: 52
88: 55
2: 69
3: 69
4: 69
5: 69
6: 70
7: 70
8: 70
9: 71
10: 71
11: 72
12: 73
13: 73
14: 73
15: 74
16: 74
17: 74
18: 75
19: 75
20: 75
21: 76
22: 77
23: 77
24: 77
25: 77
26: 77
27: 77
28: 77
29: 77
30: 78
31: 78
32: 78
33: 79
34: 79
35: 80
36: 80
37: 80
38: 80
39: 81
40: 81
41: 82
42: 82
43: 82
44: 83
45: 83
46: 84
47: 84
48: 84
49: 84
50: 84
51: 84
52: 85
53: 85
54: 85
55: 85
56: 85
57: 86
58: 86
59: 86
60: 87
61: 87
62: 87
63: 87
64: 88
65: 88
66: 88
67: 88
68: 88
segment: [5]
vertex id: label
54: 0
55: 3
56: 3
57: 3
58: 3
59: 3
60: 3
61: 3
62: 3
63: 3
64: 3
65: 3
66: 3
67: 3
68: 3
69: 3
70: 3
71: 3
72: 3
73: 3
0: 5
1: 5
2: 5
3: 5
4: 5
5: 5
6: 5
7: 5
8: 5
9: 5
10: 5
11: 5
12: 5
13: 5
14: 5
15: 5
16: 5
17: 5
18: 5
19: 5
20: 5
21: 5
22: 5
23: 5
24: 5
25: 5
26: 5
27: 5
28: 5
29: 5
30: 5
31: 5
32: 5
33: 5
34: 5
35: 5
36: 5
37: 5
38: 5
39: 5
40: 5
41: 5
42: 5
43: 5
44: 5
45: 5
46: 5
47: 5
48: 5
49: 5
50: 5
51: 5
52: 5
53: 5
edge from: to
54: 0
54: 1
54: 2
55: 3
55: 4
55: 5
56: 2
56: 4
56: 5
56: 6
57: 5
57: 6
57: 7
57: 8
58: 9
58: 10
58: 11
59: 12
59: 13
60: 9
60: 13
61: 14
61: 16
61: 18
62: 18
62: 20
63: 13
63: 20
64: 21
65: 17
65: 26
66: 21
66: 26
66: 29
66: 33
67: 33
68: 32
68: 36
68: 41
69: 37
70: 36
70: 40
70: 46
71: 43
72: 29
72: 39
72: 44
73: 30
73: 46
73: 52
3: 54
4: 54
5: 54
6: 55
7: 56
8: 56
9: 57
10: 57
11: 57
12: 58
13: 58
14: 59
15: 59
16: 60
17: 60
18: 60
19: 61
20: 61
21: 62
22: 62
23: 63
24: 63
25: 64
26: 64
27: 64
28: 64
29: 64
30: 65
31: 65
32: 65
33: 65
34: 66
35: 66
36: 66
37: 66
38: 67
39: 67
40: 67
41: 67
42: 68
43: 69
44: 69
45: 69
46: 69
47: 70
48: 70
49: 70
50: 71
51: 72
52: 72
53: 73
segment: [6]
vertex id: label
61: 0
62: 4
63: 2
64: 0
65: 0
66: 4
67: 3
68: 3
69: 3
70: 3
71: 3
72: 3
73: 3
74: 3
75: 3
76: 3
77: 3
78: 3
79: 3
80: 3
0: 5
1: 5
2: 5
3: 5
4: 5
5: 5
6: 5
7: 5
8: 5
9: 5
10: 5
11: 5
12: 5
13: 5
14: 5
15: 5
16: 5
17: 5
18: 5
19: 5
20: 5
21: 5
22: 5
23: 5
24: 5
25: 5
26: 5
27: 5
28: 5
29: 5
30: 5
31: 5
32: 5
33: 5
34: 5
35: 5
36: 5
37: 5
38: 5
39: 5
40: 5
41: 5
42: 5
43: 5
44: 5
45: 5
46: 5
47: 5
48: 5
49: 5
50: 5
51: 5
52: 5
53: 5
54: 5
55: 5
56: 5
57: 5
58: 5
59: 5
60: 5
edge from: to
61: 0
62: 2
62: 3
63: 5
63: 6
64: 9
65: 13
66: 14
66: 16
67: 10
67: 12
67: 15
67: 17
68: 18
69: 20
70: 25
71: 17
71: 26
72: 30
73: 28
73: 31
73: 35
73: 40
74: 38
75: 26
75: 35
75: 40
75: 45
76: 42
77: 44
78: 46
79: 47
79: 54
80: 33
80: 50
1: 61
2: 61
3: 61
4: 62
5: 62
6: 62
7: 63
8: 63
9: 63
10: 63
11: 64
12: 64
13: 64
14: 64
15: 65
16: 65
17: 66
18: 67
19: 67
20: 67
21: 68
22: 68
23: 69
24: 69
25: 69
26: 69
27: 69
28: 69
29: 70
30: 71
31: 71
32: 71
33: 71
34: 71
35: 72
36: 72
37: 72
38: 72
39: 72
40: 72
41: 73
42: 73
43: 73
44: 74
45: 74
46: 75
47: 75
48: 75
49: 76
50: 76
51: 77
52: 77
53: 78
54: 78
55: 79
56: 79
57: 79
58: 80
59: 80
60: 80
segment: [7]
vertex id: label
53: 0
54: 3
55: 3
56: 3
57: 3
58: 3
59: 3
60: 3
61: 3
62: 3
63: 3
64: 3
65: 3
66: 3
67: 3
68: 3
69: 3
70: 3
71: 3
72: 3
0: 5
1: 5
2: 5
3: 5
4: 5
5: 5
6: 5
7: 5
8: 5
9: 5
10: 5
11: 5
12: 5
13: 5
14: 5
15: 5
16: 5
17: 5
18: 5
19: 5
20: 5
21: 5
22: 5
23: 5
24: 5
25: 5
26: 5
27: 5
28: 5
29: 5
30: 5
31: 5
32: 5
33: 5
34: 5
35: 5
36: 5
37: 5
38: 5
39: 5
40: 5
41: 5
42: 5
43: 5
44: 5
45: 5
46: 5
47: 5
48: 5
49: 5
50: 5
51: 5
52: 5
edge from: to
53: 0
53: 1
54: 2
54: 3
55: 5
56: 7
56: 10
56: 12
56: 13
57: 13
57: 14
58: 15
59: 16
59: 18
59: 20
60: 19
61: 21
62: 23
63: 17
63: 26
64: 27
65: 31
65: 35
66: 22
66: 33
67: 37
67: 42
68: 38
69: 39
70: 40
71: 19
71: 36
71: 40
71: 46
72: 41
2: 53
3: 53
4: 54
5: 54
6: 55
7: 55
8: 55
9: 55
10: 55
11: 55
12: 55
13: 55
14: 56
15: 57
16: 57
17: 57
18: 58
19: 58
20: 58
21: 59
22: 60
23: 60
24: 60
25: 61
26: 61
27: 62
28: 62
29: 62
30: 63
31: 63
32: 64
33: 64
34: 64
35: 64
36: 65
37: 65
38: 65
39: 66
40: 66
41: 66
42: 66
43: 67
44: 68
45: 69
46: 70
47: 71
48: 72
49: 72
50: 72
51: 72
52: 72
segment: [8]
vertex id: label
67: 0
68: 0
69: 0
70: 3
71: 3
72: 3
73: 3
74: 3
75: 3
76: 3
77: 3
78: 3
79: 3
80: 3
81: 3
82: 3
83: 3
84: 3
85: 3
86: 3
0: 5
1: 5
2: 5
3: 5
4: 5
5: 5
6: 5
7: 5
8: 5
9: 5
10: 5
11: 5
12: 5
13: 5
14: 5
15: 5
16: 5
17: 5
18: 5
19: 5
20: 5
21: 5
22: 5
23: 5
24: 5
25: 5
26: 5
27: 5
28: 5
29: 5
30: 5
31: 5
32: 5
33: 5
34: 5
35: 5
36: 5
37: 5
38: 5
39: 5
40: 5
41: 5
42: 5
43: 5
44: 5
45: 5
46: 5
47: 5
48: 5
49: 5
50: 5
51: 5
52: 5
53: 5
54: 5
55: 5
56: 5
57: 5
58: 5
59: 5
60: 5
61: 5
62: 5
63: 5
64: 5
65: 5
66: 5
edge from: to
67: 0
68: 3
68: 4
69: 5
69: 7
70: 7
70: 11
71: 10
71: 15
71: 17
72: 8
72: 15
72: 17
72: 19
73: 13
73: 20
74: 21
75: 20
75: 22
75: 25
75: 28
76: 26
76: 30
77: 29
77: 33
78: 31
79: 33
80: 37
81: 38
82: 41
82: 47
83: 47
84: 49
85: 34
85: 46
85: 52
86: 25
86: 61
1: 67
2: 67
3: 67
4: 67
5: 68
6: 68
7: 68
8: 68
9: 69
10: 69
11: 69
12: 69
13: 70
14: 70
15: 70
16: 70
17: 70
18: 71
19: 71
20: 72
21: 72
22: 72
23: 73
24: 73
25: 74
26: 74
27: 74
28: 74
29: 75
30: 75
31: 76
32: 76
33: 76
34: 77
35: 77
36: 78
37: 78
38: 79
39: 79
40: 79
41: 79
42: 79
43: 80
44: 81
45: 81
46: 81
47: 81
48: 82
49: 82
50: 82
51: 82
52: 82
53: 82
54: 82
55: 83
56: 83
57: 84
58: 84
59: 84
60: 85
61: 85
62: 86
63: 86
64: 86
65: 86
66: 86
segment: [9]
vertex id: label
71: 0
72: 4
73: 3
74: 3
75: 3
76: 3
77: 3
78: 3
79: 3
80: 3
81: 3
82: 3
83: 3
84: 3
85: 3
86: 3
87: 3
88: 3
89: 3
90: 3
0: 5
1: 5
2: 5
3: 5
4: 5
5: 5
6: 5
7: 5
8: 5
9: 5
10: 5
11: 5
12: 5
13: 5
14: 5
15: 5
16: 5
17: 5
18: 5
19: 5
20: 5
21: 5
22: 5
23: 5
24: 5
25: 5
26: 5
27: 5
28: 5
29: 5
30: 5
31: 5
32: 5
33: 5
34: 5
35: 5
36: 5
37: 5
38: 5
39: 5
40: 5
41: 5
42: 5
43: 5
44: 5
45: 5
46: 5
47: 5
48: 5
49: 5
50: 5
51: 5
52: 5
53: 5
54: 5
55: 5
56: 5
57: 5
58: 5
59: 5
60: 5
61: 5
62: 5
63: 5
64: 5
65: 5
66: 5
67: 5
68: 5
69: 5
70: 5
edge from: to
71: 0
71: 1
72: 2
72: 4
72: 5
72: 6
73: 11
74: 9
74: 12
74: 13
75: 17
76: 20
77: 22
77: 25
78: 17
78: 23
78: 26
78: 29
79: 27
80: 21
80: 26
80: 29
80: 33
81: 34
82: 37
83: 40
84: 29
84: 39
84: 44
85: 45
86: 49
86: 56
87: 61
88: 54
88: 62
89: 55
90: 38
90: 58
2: 71
3: 71
4: 71
5: 71
6: 71
7: 72
8: 72
9: 72
10: 72
11: 72
12: 72
13: 73
14: 73
15: 73
16: 74
17: 74
18: 74
19: 74
20: 75
21: 75
22: 75
23: 76
24: 76
25: 76
26: 77
27: 77
28: 77
29: 77
30: 78
31: 78
32: 79
33: 79
34: 80
35: 80
36: 80
37: 80
38: 80
39: 80
40: 81
41: 81
42: 81
43: 82
44: 82
45: 82
46: 82
47: 83
48: 83
49: 83
50: 83
51: 84
52: 85
53: 85
54: 85
55: 85
56: 85
57: 86
58: 86
59: 86
60: 86
61: 86
62: 87
63: 88
64: 89
65: 89
66: 89
67: 90
68: 90
69: 90
70: 90
