segment: [0]
vertex id: label
51: 0
52: 1
53: 22
54: 0
55: 13
56: 18
57: 24
58: 11
59: 15
60: 17
61: 8
62: 6
63: 0
64: 13
65: 13
66: 10
67: 23
68: 20
69: 21
70: 9
0: 25
1: 25
2: 25
3: 25
4: 25
5: 25
6: 25
7: 25
8: 25
9: 25
10: 25
11: 25
12: 25
13: 25
14: 25
15: 25
16: 25
17: 25
18: 25
19: 25
20: 25
21: 25
22: 25
23: 25
24: 25
25: 25
26: 25
27: 25
28: 25
29: 25
30: 25
31: 25
32: 25
33: 25
34: 25
35: 25
36: 25
37: 25
38: 25
39: 25
40: 25
41: 25
42: 25
43: 25
44: 25
45: 25
46: 25
47: 25
48: 25
49: 25
50: 25
edge from: to
51: 0
51: 1
52: 0
52: 1
52: 2
53: 2
53: 4
53: 5
54: 8
54: 10
55: 12
55: 13
56: 11
56: 14
56: 15
57: 17
58: 21
59: 18
59: 24
59: 25
60: 26
60: 27
61: 27
61: 28
62: 21
62: 29
63: 30
63: 31
64: 24
64: 33
65: 38
66: 37
66: 38
66: 39
67: 1
67: 37
67: 40
67: 41
67: 42
68: 31
68: 43
69: 46
70: 46
70: 48
70: 49
2: 51
3: 52
4: 52
5: 52
6: 53
7: 53
8: 53
9: 53
10: 53
11: 54
12: 54
13: 54
14: 55
15: 55
16: 56
17: 56
18: 57
19: 57
20: 57
21: 57
22: 58
23: 58
24: 58
25: 58
26: 59
27: 59
28: 60
29: 61
30: 62
31: 62
32: 63
33: 63
34: 64
35: 64
36: 64
37: 64
38: 64
39: 65
40: 66
41: 66
42: 66
43: 67
44: 68
45: 68
46: 68
47: 69
48: 69
49: 69
50: 70
segment: [1]
vertex id: label
63: 0
64: 13
65: 18
66: 5
67: 14
68: 22
69: 0
70: 13
71: 18
72: 6
73: 0
74: 13
75: 10
76: 3
77: 0
78: 13
79: 18
80: 24
81: 23
82: 4
0: 25
1: 25
2: 25
3: 25
4: 25
5: 25
6: 25
7: 25
8: 25
9: 25
10: 25
11: 25
12: 25
13: 25
14: 25
15: 25
16: 25
17: 25
18: 25
19: 25
20: 25
21: 25
22: 25
23: 25
24: 25
25: 25
26: 25
27: 25
28: 25
29: 25
30: 25
31: 25
32: 25
33: 25
34: 25
35: 25
36: 25
37: 25
38: 25
39: 25
40: 25
41: 25
42: 25
43: 25
44: 25
45: 25
46: 25
47: 25
48: 25
49: 25
50: 25
51: 25
52: 25
53: 25
54: 25
55: 25
56: 25
57: 25
58: 25
59: 25
60: 25
61: 25
62: 25
edge from: to
63: 0
63: 1
63: 2
64: 2
64: 6
65: 6
65: 8
66: 7
66: 8
66: 9
66: 10
67: 13
68: 17
69: 6
69: 14
69: 19
70: 17
70: 23
71: 25
72: 20
72: 22
72: 28
72: 29
72: 30
73: 33
73: 34
74: 26
74: 35
74: 36
75: 38
76: 39
76: 40
76: 41
77: 34
77: 47
78: 46
78: 48
78: 49
79: 50
79: 51
79: 52
79: 53
80: 55
81: 41
81: 56
81: 57
82: 58
82: 59
3: 63
4: 63
5: 63
6: 63
7: 64
8: 64
9: 65
10: 65
11: 66
12: 66
13: 66
14: 67
15: 67
16: 67
17: 67
18: 68
19: 68
20: 69
21: 69
22: 69
23: 69
24: 70
25: 70
26: 71
27: 71
28: 71
29: 71
30: 71
31: 72
32: 72
33: 72
34: 72
35: 73
36: 73
37: 74
38: 74
39: 75
40: 75
41: 75
42: 76
43: 76
44: 76
45: 76
46: 76
47: 76
48: 77
49: 77
50: 78
51: 78
52: 78
53: 78
54: 79
55: 79
56: 80
57: 80
58: 81
59: 81
60: 82
61: 82
62: 82
segment: [2]
vertex id: label
56: 0
57: 13
58: 10
59: 11
60: 23
61: 4
62: 20
63: 2
64: 20
65: 21
66: 4
67: 20
68: 2
69: 8
70: 9
71: 4
72: 20
73: 21
74: 3
75: 0
0: 25
1: 25
2: 25
3: 25
4: 25
5: 25
6: 25
7: 25
8: 25
9: 25
10: 25
11: 25
12: 25
13: 25
14: 25
15: 25
16: 25
17: 25
18: 25
19: 25
20: 25
21: 25
22: 25
23: 25
24: 25
25: 25
26: 25
27: 25
28: 25
29: 25
30: 25
31: 25
32: 25
33: 25
34: 25
35: 25
36: 25
37: 25
38: 25
39: 25
40: 25
41: 25
42: 25
43: 25
44: 25
45: 25
46: 25
47: 25
48: 25
49: 25
50: 25
51: 25
52: 25
53: 25
54: 25
55: 25
edge from: to
56: 0
57: 0
57: 1
57: 3
58: 4
58: 5
59: 2
59: 6
60: 2
60: 3
60: 5
60: 6
60: 7
61: 11
62: 4
62: 6
62: 13
62: 14
63: 13
63: 16
63: 17
64: 15
64: 20
65: 23
65: 24
66: 27
66: 28
67: 24
67: 29
67: 31
67: 32
67: 33
68: 34
69: 27
69: 37
70: 40
71: 31
71: 32
71: 42
71: 43
72: 44
72: 45
73: 15
74: 36
74: 49
74: 50
75: 51
75: 52
75: 53
1: 56
2: 56
3: 56
4: 57
5: 57
6: 58
7: 59
8: 60
9: 60
10: 60
11: 60
12: 61
13: 61
14: 61
15: 62
16: 62
17: 62
18: 63
19: 63
20: 63
21: 64
22: 64
23: 64
24: 64
25: 65
26: 65
27: 65
28: 65
29: 66
30: 66
31: 66
32: 66
33: 66
34: 67
35: 68
36: 68
37: 68
38: 69
39: 69
40: 69
41: 70
42: 70
43: 70
44: 71
45: 71
46: 72
47: 72
48: 72
49: 73
50: 73
51: 74
52: 74
53: 74
54: 75
55: 75
segment: [3]
vertex id: label
67: 0
68: 7
69: 6
70: 14
71: 15
72: 18
73: 13
74: 18
75: 12
76: 5
77: 6
78: 18
79: 9
80: 13
81: 10
82: 7
83: 22
84: 15
85: 15
86: 18
0: 25
1: 25
2: 25
3: 25
4: 25
5: 25
6: 25
7: 25
8: 25
9: 25
10: 25
11: 25
12: 25
13: 25
14: 25
15: 25
16: 25
17: 25
18: 25
19: 25
20: 25
21: 25
22: 25
23: 25
24: 25
25: 25
26: 25
27: 25
28: 25
29: 25
30: 25
31: 25
32: 25
33: 25
34: 25
35: 25
36: 25
37: 25
38: 25
39: 25
40: 25
41: 25
42: 25
43: 25
44: 25
45: 25
46: 25
47: 25
48: 25
49: 25
50: 25
51: 25
52: 25
53: 25
54: 25
55: 25
56: 25
57: 25
58: 25
59: 25
60: 25
61: 25
62: 25
63: 25
64: 25
65: 25
66: 25
edge from: to
67: 0
67: 1
68: 4
69: 5
69: 6
69: 7
70: 10
71: 8
71: 11
72: 11
72: 15
73: 18
74: 18
74: 25
75: 19
75: 26
76: 28
77: 23
77: 30
77: 31
78: 26
78: 27
78: 34
78: 35
78: 36
79: 37
80: 40
80: 41
81: 43
82: 34
82: 45
82: 46
83: 15
84: 51
84: 52
85: 58
86: 61
86: 62
2: 67
3: 67
4: 67
5: 68
6: 68
7: 68
8: 69
9: 69
10: 69
11: 70
12: 71
13: 71
14: 71
15: 71
16: 72
17: 72
18: 72
19: 73
20: 73
21: 73
22: 73
23: 73
24: 73
25: 73
26: 74
27: 75
28: 75
29: 76
30: 76
31: 76
32: 77
33: 77
34: 77
35: 77
36: 77
37: 78
38: 79
39: 79
40: 79
41: 79
42: 80
43: 80
44: 81
45: 81
46: 81
47: 82
48: 82
49: 83
50: 83
51: 83
52: 83
53: 84
54: 84
55: 84
56: 84
57: 84
58: 84
59: 85
60: 85
61: 85
62: 85
63: 86
64: 86
65: 86
66: 86
segment: [4]
vertex id: label
57: 0
58: 13
59: 18
60: 24
61: 17
62: 8
63: 6
64: 18
65: 13
66: 10
67: 7
68: 6
69: 18
70: 12
71: 7
72: 22
73: 0
74: 13
75: 10
76: 23
0: 25
1: 25
2: 25
3: 25
4: 25
5: 25
6: 25
7: 25
8: 25
9: 25
10: 25
11: 25
12: 25
13: 25
14: 25
15: 25
16: 25
17: 25
18: 25
19: 25
20: 25
21: 25
22: 25
23: 25
24: 25
25: 25
26: 25
27: 25
28: 25
29: 25
30: 25
31: 25
32: 25
33: 25
34: 25
35: 25
36: 25
37: 25
38: 25
39: 25
40: 25
41: 25
42: 25
43: 25
44: 25
45: 25
46: 25
47: 25
48: 25
49: 25
50: 25
51: 25
52: 25
53: 25
54: 25
55: 25
56: 25
edge from: to
57: 0
58: 0
58: 2
59: 1
59: 3
60: 6
60: 7
60: 8
61: 12
62: 13
62: 18
63: 15
63: 19
63: 20
64: 7
64: 16
65: 23
65: 24
66: 21
66: 29
67: 22
67: 29
67: 30
68: 31
69: 26
69: 35
69: 36
70: 37
70: 38
70: 39
71: 42
72: 45
72: 46
73: 49
74: 37
74: 51
75: 51
75: 52
76: 51
76: 52
76: 53
1: 57
2: 57
3: 58
4: 59
5: 59
6: 59
7: 59
8: 59
9: 60
10: 60
11: 60
12: 60
13: 61
14: 61
15: 61
16: 61
17: 61
18: 61
19: 62
20: 62
21: 63
22: 63
23: 64
24: 64
25: 65
26: 65
27: 65
28: 65
29: 65
30: 66
31: 67
32: 68
33: 68
34: 68
35: 68
36: 68
37: 69
38: 69
39: 69
40: 70
41: 70
42: 70
43: 71
44: 71
45: 71
46: 71
47: 72
48: 72
49: 72
50: 73
51: 73
52: 74
53: 75
54: 76
55: 76
56: 76
segment: [5]
vertex id: label
64: 0
65: 24
66: 6
67: 0
68: 1
69: 9
70: 4
71: 21
72: 3
73: 23
74: 19
75: 23
76: 19
77: 19
78: 19
79: 13
80: 10
81: 11
82: 12
83: 15
0: 25
1: 25
2: 25
3: 25
4: 25
5: 25
6: 25
7: 25
8: 25
9: 25
10: 25
11: 25
12: 25
13: 25
14: 25
15: 25
16: 25
17: 25
18: 25
19: 25
20: 25
21: 25
22: 25
23: 25
24: 25
25: 25
26: 25
27: 25
28: 25
29: 25
30: 25
31: 25
32: 25
33: 25
34: 25
35: 25
36: 25
37: 25
38: 25
39: 25
40: 25
41: 25
42: 25
43: 25
44: 25
45: 25
46: 25
47: 25
48: 25
49: 25
50: 25
51: 25
52: 25
53: 25
54: 25
55: 25
56: 25
57: 25
58: 25
59: 25
60: 25
61: 25
62: 25
63: 25
edge from: to
64: 0
64: 1
64: 2
64: 3
65: 2
66: 8
67: 3
68: 12
69: 4
69: 13
69: 14
70: 6
70: 14
71: 9
71: 17
71: 20
71: 22
71: 23
72: 19
72: 26
73: 26
73: 27
74: 29
75: 22
75: 30
76: 11
76: 35
77: 37
77: 38
78: 43
79: 45
80: 15
80: 23
80: 45
80: 47
80: 48
81: 36
81: 37
81: 49
81: 50
82: 55
82: 56
83: 58
83: 59
4: 64
5: 64
6: 64
7: 65
8: 65
9: 66
10: 67
11: 67
12: 67
13: 68
14: 68
15: 69
16: 69
17: 69
18: 69
19: 69
20: 70
21: 70
22: 70
23: 70
24: 71
25: 71
26: 71
27: 72
28: 73
29: 73
30: 74
31: 75
32: 75
33: 75
34: 75
35: 75
36: 76
37: 76
38: 76
39: 77
40: 77
41: 77
42: 77
43: 77
44: 78
45: 78
46: 79
47: 79
48: 79
49: 80
50: 80
51: 81
52: 81
53: 81
54: 81
55: 81
56: 81
57: 82
58: 82
59: 82
60: 83
61: 83
62: 83
63: 83
segment: [6]
vertex id: label
59: 0
60: 13
61: 18
62: 24
63: 5
64: 14
65: 22
66: 11
67: 10
68: 7
69: 22
70: 12
71: 22
72: 19
73: 13
74: 16
75: 21
76: 9
77: 18
78: 23
0: 25
1: 25
2: 25
3: 25
4: 25
5: 25
6: 25
7: 25
8: 25
9: 25
10: 25
11: 25
12: 25
13: 25
14: 25
15: 25
16: 25
17: 25
18: 25
19: 25
20: 25
21: 25
22: 25
23: 25
24: 25
25: 25
26: 25
27: 25
28: 25
29: 25
30: 25
31: 25
32: 25
33: 25
34: 25
35: 25
36: 25
37: 25
38: 25
39: 25
40: 25
41: 25
42: 25
43: 25
44: 25
45: 25
46: 25
47: 25
48: 25
49: 25
50: 25
51: 25
52: 25
53: 25
54: 25
55: 25
56: 25
57: 25
58: 25
edge from: to
59: 0
59: 1
60: 4
61: 6
61: 7
61: 8
62: 10
63: 11
63: 14
63: 15
64: 6
64: 14
65: 20
65: 21
66: 23
67: 23
67: 24
68: 21
68: 28
68: 29
69: 32
70: 11
70: 34
70: 35
71: 38
71: 39
72: 40
72: 41
73: 1
73: 10
73: 37
73: 40
73: 41
73: 42
74: 32
74: 44
75: 47
76: 48
76: 49
77: 52
77: 53
78: 55
2: 59
3: 59
4: 59
5: 60
6: 60
7: 60
8: 60
9: 61
10: 61
11: 62
12: 62
13: 62
14: 62
15: 62
16: 63
17: 63
18: 63
19: 63
20: 64
21: 64
22: 65
23: 65
24: 66
25: 67
26: 67
27: 67
28: 67
29: 67
30: 68
31: 68
32: 68
33: 69
34: 69
35: 69
36: 70
37: 70
38: 70
39: 70
40: 71
41: 71
42: 72
43: 73
44: 73
45: 74
46: 74
47: 74
48: 75
49: 75
50: 76
51: 76
52: 76
53: 76
54: 77
55: 77
56: 78
57: 78
58: 78
segment: [7]
vertex id: label
52: 0
53: 13
54: 18
55: 5
56: 22
57: 3
58: 22
59: 11
60: 10
61: 16
62: 4
63: 21
64: 3
65: 0
66: 13
67: 10
68: 3
69: 0
70: 13
71: 10
0: 25
1: 25
2: 25
3: 25
4: 25
5: 25
6: 25
7: 25
8: 25
9: 25
10: 25
11: 25
12: 25
13: 25
14: 25
15: 25
16: 25
17: 25
18: 25
19: 25
20: 25
21: 25
22: 25
23: 25
24: 25
25: 25
26: 25
27: 25
28: 25
29: 25
30: 25
31: 25
32: 25
33: 25
34: 25
35: 25
36: 25
37: 25
38: 25
39: 25
40: 25
41: 25
42: 25
43: 25
44: 25
45: 25
46: 25
47: 25
48: 25
49: 25
50: 25
51: 25
edge from: to
52: 0
52: 1
53: 1
54: 5
55: 10
56: 8
56: 10
56: 11
57: 13
58: 12
58: 14
58: 15
58: 16
59: 21
60: 18
60: 24
60: 25
61: 27
62: 27
62: 28
63: 30
63: 31
64: 24
64: 31
64: 32
65: 11
65: 34
65: 35
66: 27
66: 37
67: 40
68: 31
68: 43
69: 43
69: 44
69: 45
70: 34
70: 46
70: 47
71: 50
2: 52
3: 52
4: 53
5: 53
6: 54
7: 54
8: 54
9: 54
10: 54
11: 55
12: 56
13: 56
14: 57
15: 57
16: 57
17: 58
18: 58
19: 58
20: 58
21: 58
22: 59
23: 59
24: 59
25: 59
26: 60
27: 60
28: 61
29: 62
30: 62
31: 62
32: 63
33: 64
34: 64
35: 64
36: 65
37: 65
38: 66
39: 66
40: 66
41: 67
42: 67
43: 67
44: 68
45: 68
46: 69
47: 69
48: 70
49: 70
50: 70
51: 71
segment: [8]
vertex id: label
64: 0
65: 13
66: 18
67: 9
68: 2
69: 5
70: 3
71: 11
72: 15
73: 21
74: 3
75: 8
76: 18
77: 13
78: 16
79: 12
80: 5
81: 14
82: 15
83: 7
0: 25
1: 25
2: 25
3: 25
4: 25
5: 25
6: 25
7: 25
8: 25
9: 25
10: 25
11: 25
12: 25
13: 25
14: 25
15: 25
16: 25
17: 25
18: 25
19: 25
20: 25
21: 25
22: 25
23: 25
24: 25
25: 25
26: 25
27: 25
28: 25
29: 25
30: 25
31: 25
32: 25
33: 25
34: 25
35: 25
36: 25
37: 25
38: 25
39: 25
40: 25
41: 25
42: 25
43: 25
44: 25
45: 25
46: 25
47: 25
48: 25
49: 25
50: 25
51: 25
52: 25
53: 25
54: 25
55: 25
56: 25
57: 25
58: 25
59: 25
60: 25
61: 25
62: 25
63: 25
edge from: to
64: 0
65: 0
65: 2
66: 3
66: 7
67: 7
67: 8
67: 9
67: 10
68: 8
68: 11
69: 18
70: 7
70: 16
71: 23
72: 21
72: 28
72: 29
73: 26
73: 36
74: 38
74: 39
75: 39
75: 40
75: 41
76: 42
77: 31
77: 42
77: 43
78: 45
78: 46
79: 15
80: 51
81: 50
81: 51
81: 52
81: 53
82: 54
82: 55
83: 19
83: 44
83: 60
1: 64
2: 64
3: 65
4: 65
5: 65
6: 65
7: 65
8: 65
9: 65
10: 66
11: 67
12: 68
13: 68
14: 68
15: 68
16: 68
17: 68
18: 68
19: 69
20: 69
21: 69
22: 69
23: 70
24: 71
25: 71
26: 71
27: 71
28: 71
29: 71
30: 72
31: 72
32: 72
33: 72
34: 72
35: 72
36: 72
37: 73
38: 73
39: 73
40: 74
41: 74
42: 75
43: 76
44: 77
45: 77
46: 77
47: 78
48: 78
49: 79
50: 79
51: 79
52: 80
53: 80
54: 81
55: 81
56: 82
57: 82
58: 82
59: 82
60: 82
61: 82
62: 83
63: 83
segment: [9]
vertex id: label
55: 0
56: 13
57: 10
58: 3
59: 23
60: 19
61: 8
62: 18
63: 24
64: 23
65: 5
66: 22
67: 0
68: 13
69: 16
70: 3
71: 14
72: 22
73: 21
74: 9
0: 25
1: 25
2: 25
3: 25
4: 25
5: 25
6: 25
7: 25
8: 25
9: 25
10: 25
11: 25
12: 25
13: 25
14: 25
15: 25
16: 25
17: 25
18: 25
19: 25
20: 25
21: 25
22: 25
23: 25
24: 25
25: 25
26: 25
27: 25
28: 25
29: 25
30: 25
31: 25
32: 25
33: 25
34: 25
35: 25
36: 25
37: 25
38: 25
39: 25
40: 25
41: 25
42: 25
43: 25
44: 25
45: 25
46: 25
47: 25
48: 25
49: 25
50: 25
51: 25
52: 25
53: 25
54: 25
edge from: to
55: 0
56: 1
57: 0
57: 1
57: 2
57: 3
58: 5
59: 8
60: 11
61: 15
62: 17
63: 14
63: 16
63: 20
63: 21
64: 23
65: 24
66: 17
66: 19
66: 23
66: 24
66: 25
66: 26
67: 22
67: 28
67: 29
67: 30
68: 24
68: 32
68: 33
69: 11
70: 27
70: 37
71: 39
71: 40
71: 41
72: 32
72: 43
72: 44
73: 34
73: 47
74: 36
74: 37
74: 49
74: 50
1: 55
2: 56
4: 57
5: 57
6: 58
7: 58
8: 58
9: 59
10: 59
11: 59
12: 60
13: 60
14: 60
15: 60
16: 61
17: 61
18: 62
19: 62
20: 62
21: 62
22: 63
23: 63
24: 64
25: 65
26: 65
27: 66
28: 66
29: 66
30: 66
31: 67
32: 67
33: 67
34: 68
35: 68
36: 69
37: 69
38: 70
39: 70
40: 70
41: 70
42: 71
43: 71
44: 71
45: 72
46: 72
47: 72
48: 73
49: 73
50: 73
51: 74
52: 74
53: 74
54: 74
