segment: [0]
vertex id: label
61: 0
62: 2
63: 5
64: 21
65: 15
66: 15
67: 20
68: 14
69: 14
70: 5
71: 1
72: 18
73: 5
74: 23
75: 2
76: 10
77: 21
78: 0
79: 15
80: 20
0: 25
1: 25
2: 25
3: 25
4: 25
5: 25
6: 25
7: 25
8: 25
9: 25
10: 25
11: 25
12: 25
13: 25
14: 25
15: 25
16: 25
17: 25
18: 25
19: 25
20: 25
21: 25
22: 25
23: 25
24: 25
25: 25
26: 25
27: 25
28: 25
29: 25
30: 25
31: 25
32: 25
33: 25
34: 25
35: 25
36: 25
37: 25
38: 25
39: 25
40: 25
41: 25
42: 25
43: 25
44: 25
45: 25
46: 25
47: 25
48: 25
49: 25
50: 25
51: 25
52: 25
53: 25
54: 25
55: 25
56: 25
57: 25
58: 25
59: 25
60: 25
edge from: to
61: 0
61: 1
61: 2
62: 0
63: 0
64: 0
64: 5
65: 0
65: 8
66: 0
67: 0
67: 10
68: 0
69: 16
69: 17
70: 20
71: 21
71: 22
71: 24
72: 24
72: 26
73: 30
74: 34
75: 39
76: 43
77: 42
77: 45
78: 49
79: 50
80: 52
3: 61
4: 62
5: 63
6: 63
7: 64
8: 64
9: 64
10: 65
11: 66
12: 66
13: 67
14: 67
15: 68
16: 68
17: 68
18: 68
19: 68
20: 69
21: 69
22: 69
23: 70
24: 70
25: 71
26: 71
27: 71
28: 71
29: 72
30: 72
31: 72
32: 72
33: 72
34: 73
35: 73
36: 73
37: 73
38: 74
39: 74
40: 74
41: 74
42: 74
43: 74
44: 75
45: 75
46: 75
47: 75
48: 76
49: 76
50: 77
51: 77
52: 77
53: 77
54: 78
55: 78
56: 79
57: 79
58: 80
59: 80
60: 80
segment: [1]
vertex id: label
64: 0
65: 15
66: 20
67: 14
68: 14
69: 14
70: 14
71: 3
72: 10
73: 21
74: 15
75: 20
76: 14
77: 6
78: 3
79: 9
80: 14
81: 3
82: 9
83: 14
0: 25
1: 25
2: 25
3: 25
4: 25
5: 25
6: 25
7: 25
8: 25
9: 25
10: 25
11: 25
12: 25
13: 25
14: 25
15: 25
16: 25
17: 25
18: 25
19: 25
20: 25
21: 25
22: 25
23: 25
24: 25
25: 25
26: 25
27: 25
28: 25
29: 25
30: 25
31: 25
32: 25
33: 25
34: 25
35: 25
36: 25
37: 25
38: 25
39: 25
40: 25
41: 25
42: 25
43: 25
44: 25
45: 25
46: 25
47: 25
48: 25
49: 25
50: 25
51: 25
52: 25
53: 25
54: 25
55: 25
56: 25
57: 25
58: 25
59: 25
60: 25
61: 25
62: 25
63: 25
edge from: to
64: 0
65: 0
65: 2
66: 0
66: 1
66: 3
67: 0
67: 4
67: 5
68: 0
68: 8
68: 9
69: 0
69: 3
69: 11
70: 16
71: 18
72: 22
72: 24
73: 28
73: 30
74: 34
75: 33
75: 36
75: 38
76: 34
76: 35
76: 38
76: 40
77: 35
77: 36
77: 38
77: 41
78: 37
78: 39
79: 39
79: 42
80: 42
80: 45
81: 45
81: 49
82: 13
82: 49
82: 52
83: 52
83: 56
83: 60
1: 64
2: 64
3: 65
4: 66
5: 66
6: 67
7: 67
8: 67
9: 67
10: 68
11: 68
12: 68
13: 68
14: 69
15: 69
16: 69
17: 69
18: 70
19: 70
20: 70
21: 71
22: 71
23: 71
24: 71
25: 71
26: 71
27: 72
28: 72
29: 72
30: 72
31: 72
32: 72
33: 72
34: 73
35: 73
36: 73
37: 73
38: 74
39: 74
40: 75
41: 75
42: 76
43: 77
44: 78
45: 78
46: 78
47: 79
48: 79
49: 79
50: 80
51: 80
52: 80
53: 80
54: 81
55: 81
56: 81
57: 81
58: 82
59: 82
60: 82
61: 82
62: 83
63: 83
segment: [2]
vertex id: label
70: 0
71: 15
72: 2
73: 22
74: 2
75: 22
76: 23
77: 24
78: 10
79: 21
80: 15
81: 20
82: 24
83: 14
84: 3
85: 4
86: 7
87: 15
88: 20
89: 14
0: 25
1: 25
2: 25
3: 25
4: 25
5: 25
6: 25
7: 25
8: 25
9: 25
10: 25
11: 25
12: 25
13: 25
14: 25
15: 25
16: 25
17: 25
18: 25
19: 25
20: 25
21: 25
22: 25
23: 25
24: 25
25: 25
26: 25
27: 25
28: 25
29: 25
30: 25
31: 25
32: 25
33: 25
34: 25
35: 25
36: 25
37: 25
38: 25
39: 25
40: 25
41: 25
42: 25
43: 25
44: 25
45: 25
46: 25
47: 25
48: 25
49: 25
50: 25
51: 25
52: 25
53: 25
54: 25
55: 25
56: 25
57: 25
58: 25
59: 25
60: 25
61: 25
62: 25
63: 25
64: 25
65: 25
66: 25
67: 25
68: 25
69: 25
edge from: to
70: 0
70: 1
70: 2
70: 3
70: 4
71: 0
71: 6
71: 7
72: 0
73: 0
73: 8
73: 9
73: 10
74: 0
74: 10
75: 15
76: 16
76: 17
77: 23
78: 27
79: 30
80: 34
80: 37
81: 38
81: 40
82: 40
82: 43
82: 46
83: 44
84: 42
84: 45
85: 44
85: 48
86: 47
86: 50
87: 49
87: 52
88: 57
89: 15
89: 56
89: 61
5: 70
6: 70
7: 70
8: 71
9: 71
10: 72
11: 73
12: 74
13: 74
14: 74
15: 74
16: 74
17: 75
18: 75
19: 75
20: 76
21: 76
22: 76
23: 76
24: 76
25: 76
26: 77
27: 77
28: 77
29: 77
30: 77
31: 78
32: 78
33: 78
34: 79
35: 79
36: 79
37: 79
38: 79
39: 79
40: 79
41: 80
42: 80
43: 80
44: 80
45: 81
46: 81
47: 81
48: 82
49: 83
50: 84
51: 84
52: 84
53: 85
54: 85
55: 85
56: 86
57: 86
58: 87
59: 87
60: 87
61: 87
62: 87
63: 88
64: 88
65: 88
66: 88
67: 89
68: 89
69: 89
segment: [3]
vertex id: label
58: 0
59: 15
60: 3
61: 22
62: 2
63: 22
64: 24
65: 21
66: 15
67: 20
68: 6
69: 3
70: 9
71: 11
72: 19
73: 22
74: 2
75: 17
76: 3
77: 22
0: 25
1: 25
2: 25
3: 25
4: 25
5: 25
6: 25
7: 25
8: 25
9: 25
10: 25
11: 25
12: 25
13: 25
14: 25
15: 25
16: 25
17: 25
18: 25
19: 25
20: 25
21: 25
22: 25
23: 25
24: 25
25: 25
26: 25
27: 25
28: 25
29: 25
30: 25
31: 25
32: 25
33: 25
34: 25
35: 25
36: 25
37: 25
38: 25
39: 25
40: 25
41: 25
42: 25
43: 25
44: 25
45: 25
46: 25
47: 25
48: 25
49: 25
50: 25
51: 25
52: 25
53: 25
54: 25
55: 25
56: 25
57: 25
edge from: to
58: 0
58: 1
59: 0
59: 1
59: 3
60: 0
61: 0
61: 8
62: 0
63: 0
63: 10
64: 13
64: 14
64: 15
64: 16
65: 17
65: 18
65: 19
65: 20
66: 19
66: 20
67: 24
68: 25
68: 27
69: 26
69: 27
69: 28
69: 31
70: 31
70: 33
71: 35
71: 38
72: 35
72: 38
73: 37
73: 39
74: 41
74: 44
74: 45
75: 44
76: 44
76: 48
77: 47
77: 50
2: 58
3: 58
4: 59
5: 59
6: 59
7: 60
8: 60
9: 60
10: 61
11: 61
12: 62
13: 63
14: 63
15: 63
16: 63
17: 64
18: 64
19: 64
20: 64
21: 65
22: 65
23: 66
24: 66
25: 66
26: 66
27: 67
28: 67
29: 67
30: 68
31: 68
32: 69
33: 69
34: 69
35: 69
36: 69
37: 70
38: 70
39: 71
40: 71
41: 71
42: 72
43: 72
44: 73
45: 73
46: 74
47: 74
48: 74
49: 75
50: 75
51: 75
52: 75
53: 76
54: 76
55: 76
56: 77
57: 77
segment: [4]
vertex id: label
56: 0
57: 15
58: 3
59: 22
60: 2
61: 22
62: 8
63: 21
64: 15
65: 20
66: 19
67: 16
68: 0
69: 22
70: 0
71: 23
72: 1
73: 23
74: 15
75: 2
0: 25
1: 25
2: 25
3: 25
4: 25
5: 25
6: 25
7: 25
8: 25
9: 25
10: 25
11: 25
12: 25
13: 25
14: 25
15: 25
16: 25
17: 25
18: 25
19: 25
20: 25
21: 25
22: 25
23: 25
24: 25
25: 25
26: 25
27: 25
28: 25
29: 25
30: 25
31: 25
32: 25
33: 25
34: 25
35: 25
36: 25
37: 25
38: 25
39: 25
40: 25
41: 25
42: 25
43: 25
44: 25
45: 25
46: 25
47: 25
48: 25
49: 25
50: 25
51: 25
52: 25
53: 25
54: 25
55: 25
edge from: to
56: 0
56: 1
57: 0
57: 4
58: 0
58: 1
58: 5
58: 6
59: 0
60: 0
60: 3
60: 11
60: 13
61: 0
61: 12
62: 13
62: 14
63: 16
64: 16
64: 17
65: 20
66: 23
67: 26
68: 28
69: 28
69: 30
70: 31
70: 33
71: 36
72: 35
72: 38
72: 40
73: 37
73: 39
74: 41
74: 45
75: 43
75: 46
75: 49
2: 56
3: 56
4: 56
5: 57
6: 57
7: 58
8: 58
9: 58
10: 58
11: 58
12: 59
13: 59
14: 60
15: 61
16: 62
17: 62
18: 63
19: 64
20: 64
21: 64
22: 64
23: 65
24: 65
25: 65
26: 66
27: 66
28: 66
29: 67
30: 67
31: 67
32: 68
33: 68
34: 69
35: 69
36: 69
37: 70
38: 70
39: 70
40: 71
41: 71
42: 72
43: 72
44: 73
45: 73
46: 74
47: 74
48: 74
49: 74
50: 74
51: 75
52: 75
53: 75
54: 75
55: 75
segment: [5]
vertex id: label
54: 0
55: 15
56: 3
57: 7
58: 5
59: 21
60: 15
61: 2
62: 17
63: 3
64: 11
65: 10
66: 21
67: 15
68: 20
69: 14
70: 9
71: 24
72: 4
73: 5
0: 25
1: 25
2: 25
3: 25
4: 25
5: 25
6: 25
7: 25
8: 25
9: 25
10: 25
11: 25
12: 25
13: 25
14: 25
15: 25
16: 25
17: 25
18: 25
19: 25
20: 25
21: 25
22: 25
23: 25
24: 25
25: 25
26: 25
27: 25
28: 25
29: 25
30: 25
31: 25
32: 25
33: 25
34: 25
35: 25
36: 25
37: 25
38: 25
39: 25
40: 25
41: 25
42: 25
43: 25
44: 25
45: 25
46: 25
47: 25
48: 25
49: 25
50: 25
51: 25
52: 25
53: 25
edge from: to
54: 0
55: 0
56: 0
57: 0
58: 0
59: 0
59: 12
60: 15
60: 16
61: 18
62: 18
62: 19
62: 20
62: 22
63: 19
63: 20
63: 21
63: 23
64: 24
64: 26
64: 28
65: 27
66: 27
66: 29
67: 32
68: 34
68: 37
69: 38
70: 40
71: 43
72: 46
73: 47
1: 54
2: 54
3: 54
4: 54
5: 55
6: 56
7: 56
8: 56
9: 57
10: 57
11: 58
12: 58
13: 58
14: 58
15: 59
16: 59
17: 59
18: 60
19: 60
20: 60
21: 61
22: 61
23: 62
24: 63
25: 63
26: 63
27: 63
28: 63
29: 64
30: 64
31: 65
32: 65
33: 66
34: 66
35: 66
36: 67
37: 67
38: 67
39: 67
40: 67
41: 68
42: 68
43: 69
44: 69
45: 70
46: 70
47: 70
48: 71
49: 71
50: 71
51: 72
52: 73
53: 73
segment: [6]
vertex id: label
52: 0
53: 15
54: 20
55: 24
56: 21
57: 19
58: 22
59: 2
60: 7
61: 5
62: 23
63: 15
64: 20
65: 9
66: 0
67: 15
68: 0
69: 15
70: 20
71: 14
0: 25
1: 25
2: 25
3: 25
4: 25
5: 25
6: 25
7: 25
8: 25
9: 25
10: 25
11: 25
12: 25
13: 25
14: 25
15: 25
16: 25
17: 25
18: 25
19: 25
20: 25
21: 25
22: 25
23: 25
24: 25
25: 25
26: 25
27: 25
28: 25
29: 25
30: 25
31: 25
32: 25
33: 25
34: 25
35: 25
36: 25
37: 25
38: 25
39: 25
40: 25
41: 25
42: 25
43: 25
44: 25
45: 25
46: 25
47: 25
48: 25
49: 25
50: 25
51: 25
edge from: to
52: 0
53: 0
54: 0
55: 0
56: 0
56: 12
57: 13
57: 14
57: 15
58: 16
58: 17
59: 21
60: 22
60: 24
61: 24
61: 26
62: 27
62: 28
63: 27
63: 29
64: 31
65: 34
66: 36
67: 38
68: 37
68: 38
68: 40
68: 43
69: 39
69: 42
70: 41
70: 44
70: 47
71: 42
71: 45
1: 52
2: 52
3: 52
4: 53
5: 53
6: 53
7: 53
8: 53
9: 54
10: 54
11: 54
12: 55
13: 55
14: 55
15: 56
16: 57
17: 57
18: 57
19: 57
20: 58
21: 58
22: 58
23: 58
24: 59
25: 59
26: 59
27: 60
28: 60
29: 61
30: 61
31: 61
32: 62
33: 63
34: 63
35: 64
36: 64
37: 64
38: 65
39: 65
40: 66
41: 66
42: 67
43: 67
44: 67
45: 68
46: 68
47: 69
48: 69
49: 70
50: 71
51: 71
segment: [7]
vertex id: label
61: 0
62: 15
63: 2
64: 22
65: 2
66: 10
67: 6
68: 2
69: 22
70: 24
71: 12
72: 15
73: 2
74: 17
75: 1
76: 23
77: 2
78: 22
79: 23
80: 2
0: 25
1: 25
2: 25
3: 25
4: 25
5: 25
6: 25
7: 25
8: 25
9: 25
10: 25
11: 25
12: 25
13: 25
14: 25
15: 25
16: 25
17: 25
18: 25
19: 25
20: 25
21: 25
22: 25
23: 25
24: 25
25: 25
26: 25
27: 25
28: 25
29: 25
30: 25
31: 25
32: 25
33: 25
34: 25
35: 25
36: 25
37: 25
38: 25
39: 25
40: 25
41: 25
42: 25
43: 25
44: 25
45: 25
46: 25
47: 25
48: 25
49: 25
50: 25
51: 25
52: 25
53: 25
54: 25
55: 25
56: 25
57: 25
58: 25
59: 25
60: 25
edge from: to
61: 0
61: 1
62: 0
62: 3
63: 0
63: 6
64: 0
64: 4
64: 8
64: 9
64: 10
65: 13
65: 14
66: 18
66: 19
67: 20
67: 21
67: 22
67: 24
68: 24
69: 28
70: 29
71: 28
71: 30
71: 32
72: 33
73: 33
73: 36
73: 38
74: 38
75: 41
76: 42
77: 41
77: 44
78: 43
78: 46
79: 50
80: 51
2: 61
3: 61
4: 62
5: 62
6: 62
7: 62
8: 63
9: 63
10: 63
11: 64
12: 64
13: 64
14: 64
15: 64
16: 65
17: 65
18: 65
19: 65
20: 65
21: 65
22: 66
23: 66
24: 66
25: 67
26: 67
27: 68
28: 68
29: 68
30: 68
31: 68
32: 69
33: 70
34: 71
35: 71
36: 71
37: 72
38: 72
39: 72
40: 73
41: 73
42: 73
43: 74
44: 74
45: 74
46: 75
47: 76
48: 76
49: 77
50: 77
51: 78
52: 78
53: 78
54: 78
55: 78
56: 79
57: 80
58: 80
59: 80
60: 80
segment: [8]
vertex id: label
54: 0
55: 20
56: 14
57: 21
58: 15
59: 7
60: 20
61: 14
62: 6
63: 20
64: 19
65: 22
66: 2
67: 10
68: 21
69: 15
70: 20
71: 19
72: 16
73: 13
0: 25
1: 25
2: 25
3: 25
4: 25
5: 25
6: 25
7: 25
8: 25
9: 25
10: 25
11: 25
12: 25
13: 25
14: 25
15: 25
16: 25
17: 25
18: 25
19: 25
20: 25
21: 25
22: 25
23: 25
24: 25
25: 25
26: 25
27: 25
28: 25
29: 25
30: 25
31: 25
32: 25
33: 25
34: 25
35: 25
36: 25
37: 25
38: 25
39: 25
40: 25
41: 25
42: 25
43: 25
44: 25
45: 25
46: 25
47: 25
48: 25
49: 25
50: 25
51: 25
52: 25
53: 25
edge from: to
54: 0
54: 1
55: 0
55: 4
56: 0
57: 0
57: 9
57: 10
58: 0
59: 0
59: 12
59: 14
60: 16
61: 18
61: 19
62: 18
62: 19
62: 20
62: 21
62: 22
63: 22
63: 24
64: 26
65: 26
65: 27
65: 28
65: 31
66: 31
67: 30
67: 32
68: 36
69: 38
70: 40
71: 39
71: 42
72: 44
73: 43
73: 46
73: 49
2: 54
3: 54
4: 54
5: 55
6: 55
7: 55
8: 56
9: 56
10: 56
11: 57
12: 58
13: 58
14: 58
15: 59
16: 59
17: 59
18: 60
19: 60
20: 60
21: 60
22: 61
23: 62
24: 62
25: 62
26: 62
27: 63
28: 63
29: 64
30: 64
31: 64
32: 65
33: 65
34: 65
35: 66
36: 67
37: 67
38: 67
39: 67
40: 68
41: 68
42: 68
43: 69
44: 69
45: 70
46: 70
47: 71
48: 71
49: 72
50: 72
51: 73
52: 73
53: 73
segment: [9]
vertex id: label
62: 0
63: 15
64: 20
65: 9
66: 0
67: 15
68: 20
69: 24
70: 10
71: 21
72: 15
73: 20
74: 14
75: 14
76: 14
77: 3
78: 4
79: 5
80: 14
81: 14
0: 25
1: 25
2: 25
3: 25
4: 25
5: 25
6: 25
7: 25
8: 25
9: 25
10: 25
11: 25
12: 25
13: 25
14: 25
15: 25
16: 25
17: 25
18: 25
19: 25
20: 25
21: 25
22: 25
23: 25
24: 25
25: 25
26: 25
27: 25
28: 25
29: 25
30: 25
31: 25
32: 25
33: 25
34: 25
35: 25
36: 25
37: 25
38: 25
39: 25
40: 25
41: 25
42: 25
43: 25
44: 25
45: 25
46: 25
47: 25
48: 25
49: 25
50: 25
51: 25
52: 25
53: 25
54: 25
55: 25
56: 25
57: 25
58: 25
59: 25
60: 25
61: 25
edge from: to
62: 0
62: 1
63: 0
63: 1
63: 4
64: 0
65: 0
66: 13
66: 14
67: 16
67: 17
68: 19
69: 22
70: 22
70: 24
71: 25
71: 27
72: 27
72: 29
72: 32
73: 29
73: 31
74: 30
74: 32
75: 36
76: 35
76: 38
76: 40
77: 38
77: 40
78: 42
79: 43
79: 46
80: 50
81: 54
2: 62
3: 62
4: 62
5: 63
6: 63
7: 63
8: 63
9: 63
10: 63
11: 64
12: 64
13: 64
14: 65
15: 65
16: 66
17: 66
18: 66
19: 66
20: 67
21: 67
22: 68
23: 68
24: 68
25: 69
26: 69
27: 70
28: 70
29: 70
30: 71
31: 71
32: 71
33: 72
34: 72
35: 73
36: 74
37: 74
38: 74
39: 74
40: 75
41: 75
42: 76
43: 76
44: 76
45: 77
46: 77
47: 78
48: 78
49: 78
50: 78
51: 79
52: 79
53: 79
54: 79
55: 79
56: 80
57: 80
58: 80
59: 80
60: 81
61: 81
