segment: [0]
vertex id: label
69: 0
70: 9
71: 16
72: 16
73: 16
74: 16
75: 20
76: 14
77: 3
78: 5
79: 13
80: 9
81: 20
82: 14
83: 10
84: 10
85: 11
86: 24
87: 2
88: 19
0: 25
1: 25
2: 25
3: 25
4: 25
5: 25
6: 25
7: 25
8: 25
9: 25
10: 25
11: 25
12: 25
13: 25
14: 25
15: 25
16: 25
17: 25
18: 25
19: 25
20: 25
21: 25
22: 25
23: 25
24: 25
25: 25
26: 25
27: 25
28: 25
29: 25
30: 25
31: 25
32: 25
33: 25
34: 25
35: 25
36: 25
37: 25
38: 25
39: 25
40: 25
41: 25
42: 25
43: 25
44: 25
45: 25
46: 25
47: 25
48: 25
49: 25
50: 25
51: 25
52: 25
53: 25
54: 25
55: 25
56: 25
57: 25
58: 25
59: 25
60: 25
61: 25
62: 25
63: 25
64: 25
65: 25
66: 25
67: 25
68: 25
edge from: to
69: 0
69: 1
70: 7
70: 8
71: 1
71: 9
72: 10
72: 11
73: 13
73: 14
74: 16
75: 18
75: 19
76: 22
77: 23
77: 25
78: 26
78: 29
79: 31
80: 34
81: 4
82: 36
82: 39
82: 40
83: 31
83: 40
83: 43
84: 50
85: 48
85: 53
85: 54
86: 51
86: 55
86: 56
87: 59
87: 61
88: 57
88: 63
2: 69
3: 69
4: 69
5: 69
6: 69
7: 69
8: 69
9: 70
10: 70
11: 71
12: 72
13: 72
14: 72
15: 72
16: 73
17: 73
18: 74
19: 74
20: 74
21: 75
22: 75
23: 75
24: 76
25: 76
26: 76
27: 77
28: 77
29: 77
30: 77
31: 78
32: 78
33: 79
34: 79
35: 79
36: 80
37: 80
38: 80
39: 81
40: 81
41: 81
42: 82
43: 82
44: 82
45: 82
46: 83
47: 83
48: 83
49: 83
50: 83
51: 83
52: 83
53: 84
54: 84
55: 84
56: 85
57: 85
58: 85
59: 86
60: 86
61: 86
62: 87
63: 87
64: 87
65: 87
66: 88
67: 88
68: 88
segment: [1]
vertex id: label
69: 0
70: 6
71: 15
72: 1
73: 5
74: 9
75: 20
76: 21
77: 15
78: 19
79: 13
80: 9
81: 20
82: 14
83: 3
84: 17
85: 14
86: 0
87: 9
88: 20
0: 25
1: 25
2: 25
3: 25
4: 25
5: 25
6: 25
7: 25
8: 25
9: 25
10: 25
11: 25
12: 25
13: 25
14: 25
15: 25
16: 25
17: 25
18: 25
19: 25
20: 25
21: 25
22: 25
23: 25
24: 25
25: 25
26: 25
27: 25
28: 25
29: 25
30: 25
31: 25
32: 25
33: 25
34: 25
35: 25
36: 25
37: 25
38: 25
39: 25
40: 25
41: 25
42: 25
43: 25
44: 25
45: 25
46: 25
47: 25
48: 25
49: 25
50: 25
51: 25
52: 25
53: 25
54: 25
55: 25
56: 25
57: 25
58: 25
59: 25
60: 25
61: 25
62: 25
63: 25
64: 25
65: 25
66: 25
67: 25
68: 25
edge from: to
69: 0
70: 3
70: 4
71: 5
71: 6
72: 1
72: 9
72: 10
73: 13
74: 15
74: 16
75: 18
75: 19
76: 25
77: 26
77: 29
78: 31
78: 33
78: 34
79: 35
79: 39
80: 38
80: 41
81: 40
81: 44
82: 45
83: 5
83: 42
84: 43
84: 47
85: 46
85: 50
86: 49
86: 54
87: 58
88: 56
88: 62
1: 69
2: 69
3: 69
4: 69
5: 70
6: 70
7: 71
8: 71
9: 71
10: 71
11: 72
12: 72
13: 72
14: 72
15: 73
16: 73
17: 73
18: 74
19: 74
20: 74
21: 75
22: 75
23: 75
24: 75
25: 75
26: 75
27: 76
28: 76
29: 76
30: 76
31: 77
32: 77
33: 77
34: 77
35: 77
36: 78
37: 78
38: 78
39: 78
40: 78
41: 79
42: 79
43: 79
44: 80
45: 80
46: 80
47: 81
48: 82
49: 83
50: 84
51: 84
52: 84
53: 85
54: 85
55: 85
56: 85
57: 86
58: 86
59: 86
60: 86
61: 87
62: 87
63: 87
64: 87
65: 88
66: 88
67: 88
68: 88
segment: [2]
vertex id: label
56: 0
57: 2
58: 1
59: 2
60: 24
61: 2
62: 24
63: 2
64: 2
65: 1
66: 20
67: 14
68: 11
69: 12
70: 22
71: 2
72: 19
73: 11
74: 2
75: 19
0: 25
1: 25
2: 25
3: 25
4: 25
5: 25
6: 25
7: 25
8: 25
9: 25
10: 25
11: 25
12: 25
13: 25
14: 25
15: 25
16: 25
17: 25
18: 25
19: 25
20: 25
21: 25
22: 25
23: 25
24: 25
25: 25
26: 25
27: 25
28: 25
29: 25
30: 25
31: 25
32: 25
33: 25
34: 25
35: 25
36: 25
37: 25
38: 25
39: 25
40: 25
41: 25
42: 25
43: 25
44: 25
45: 25
46: 25
47: 25
48: 25
49: 25
50: 25
51: 25
52: 25
53: 25
54: 25
55: 25
edge from: to
56: 0
57: 0
57: 2
58: 6
58: 7
59: 1
59: 8
60: 10
60: 11
60: 12
61: 13
62: 2
62: 17
63: 20
63: 21
64: 17
64: 21
64: 23
64: 24
65: 25
66: 25
66: 27
67: 31
68: 32
69: 33
69: 35
69: 36
70: 4
70: 33
70: 36
71: 39
72: 37
72: 39
72: 42
72: 44
73: 41
73: 45
74: 5
75: 46
75: 50
1: 56
2: 56
3: 57
4: 57
5: 57
6: 57
7: 57
8: 58
9: 58
10: 59
11: 59
12: 59
13: 60
14: 60
15: 61
16: 61
17: 61
18: 61
19: 61
20: 62
21: 62
22: 62
23: 63
24: 63
25: 64
26: 64
27: 65
28: 65
29: 66
30: 66
31: 66
32: 66
33: 67
34: 68
35: 68
36: 68
37: 68
38: 69
39: 70
40: 70
41: 70
42: 71
43: 71
44: 71
45: 72
46: 72
47: 72
48: 73
49: 74
50: 74
51: 74
52: 74
53: 75
54: 75
55: 75
segment: [3]
vertex id: label
52: 0
53: 1
54: 2
55: 19
56: 13
57: 1
58: 20
59: 14
60: 15
61: 22
62: 21
63: 24
64: 10
65: 10
66: 17
67: 23
68: 5
69: 22
70: 21
71: 14
0: 25
1: 25
2: 25
3: 25
4: 25
5: 25
6: 25
7: 25
8: 25
9: 25
10: 25
11: 25
12: 25
13: 25
14: 25
15: 25
16: 25
17: 25
18: 25
19: 25
20: 25
21: 25
22: 25
23: 25
24: 25
25: 25
26: 25
27: 25
28: 25
29: 25
30: 25
31: 25
32: 25
33: 25
34: 25
35: 25
36: 25
37: 25
38: 25
39: 25
40: 25
41: 25
42: 25
43: 25
44: 25
45: 25
46: 25
47: 25
48: 25
49: 25
50: 25
51: 25
edge from: to
52: 0
53: 3
53: 4
54: 7
55: 1
56: 9
56: 10
56: 11
56: 12
57: 13
58: 14
59: 18
59: 19
60: 20
61: 20
61: 21
61: 22
62: 23
62: 25
63: 25
63: 27
64: 21
64: 26
64: 28
64: 29
65: 28
65: 30
65: 31
65: 32
66: 32
66: 35
67: 38
68: 40
69: 43
70: 45
71: 34
71: 43
71: 47
1: 52
2: 52
3: 52
4: 52
5: 53
6: 53
7: 53
8: 54
9: 54
10: 55
11: 55
12: 55
13: 56
14: 57
15: 57
16: 58
17: 58
18: 58
19: 58
20: 58
21: 59
22: 60
23: 61
24: 61
25: 61
26: 61
27: 62
28: 62
29: 63
30: 63
31: 64
32: 64
33: 65
34: 65
35: 65
36: 65
37: 66
38: 66
39: 66
40: 67
41: 67
42: 67
43: 68
44: 68
45: 68
46: 69
47: 69
48: 70
49: 70
50: 71
51: 71
segment: [4]
vertex id: label
55: 0
56: 9
57: 16
58: 0
59: 9
60: 20
61: 21
62: 24
63: 2
64: 19
65: 11
66: 24
67: 2
68: 1
69: 12
70: 12
71: 11
72: 12
73: 22
74: 21
0: 25
1: 25
2: 25
3: 25
4: 25
5: 25
6: 25
7: 25
8: 25
9: 25
10: 25
11: 25
12: 25
13: 25
14: 25
15: 25
16: 25
17: 25
18: 25
19: 25
20: 25
21: 25
22: 25
23: 25
24: 25
25: 25
26: 25
27: 25
28: 25
29: 25
30: 25
31: 25
32: 25
33: 25
34: 25
35: 25
36: 25
37: 25
38: 25
39: 25
40: 25
41: 25
42: 25
43: 25
44: 25
45: 25
46: 25
47: 25
48: 25
49: 25
50: 25
51: 25
52: 25
53: 25
54: 25
edge from: to
55: 0
55: 1
56: 7
57: 1
58: 13
59: 13
59: 14
60: 15
61: 16
61: 17
61: 18
62: 2
62: 17
63: 20
64: 16
64: 20
64: 22
64: 23
65: 21
65: 23
66: 24
66: 26
67: 26
67: 27
67: 28
68: 28
68: 31
69: 33
70: 32
70: 35
71: 4
71: 33
71: 36
72: 37
72: 40
72: 41
73: 41
73: 45
74: 45
74: 49
2: 55
3: 55
4: 55
5: 55
6: 55
7: 55
8: 56
9: 56
10: 57
11: 57
12: 57
13: 57
14: 58
15: 59
16: 59
17: 60
18: 60
19: 61
20: 62
21: 62
22: 63
23: 63
24: 64
25: 65
26: 65
27: 65
28: 66
29: 66
30: 67
31: 67
32: 67
33: 68
34: 68
35: 69
36: 69
37: 70
38: 70
39: 71
40: 71
41: 71
42: 71
43: 72
44: 72
45: 72
46: 72
47: 72
48: 73
49: 73
50: 73
51: 73
52: 74
53: 74
54: 74
segment: [5]
vertex id: label
65: 0
66: 9
67: 5
68: 20
69: 1
70: 11
71: 19
72: 12
73: 12
74: 18
75: 9
76: 24
77: 2
78: 24
79: 2
80: 17
81: 14
82: 11
83: 12
84: 11
0: 25
1: 25
2: 25
3: 25
4: 25
5: 25
6: 25
7: 25
8: 25
9: 25
10: 25
11: 25
12: 25
13: 25
14: 25
15: 25
16: 25
17: 25
18: 25
19: 25
20: 25
21: 25
22: 25
23: 25
24: 25
25: 25
26: 25
27: 25
28: 25
29: 25
30: 25
31: 25
32: 25
33: 25
34: 25
35: 25
36: 25
37: 25
38: 25
39: 25
40: 25
41: 25
42: 25
43: 25
44: 25
45: 25
46: 25
47: 25
48: 25
49: 25
50: 25
51: 25
52: 25
53: 25
54: 25
55: 25
56: 25
57: 25
58: 25
59: 25
60: 25
61: 25
62: 25
63: 25
64: 25
edge from: to
65: 0
66: 3
66: 4
67: 5
67: 6
67: 7
68: 12
69: 13
70: 13
70: 14
71: 15
71: 16
72: 20
73: 20
73: 21
74: 24
74: 26
75: 29
76: 26
76: 27
76: 30
76: 31
77: 32
77: 35
78: 35
78: 39
79: 42
80: 40
80: 44
80: 45
81: 5
81: 42
82: 47
82: 51
83: 54
84: 59
1: 65
2: 65
3: 65
4: 65
5: 66
6: 66
7: 66
8: 67
9: 67
10: 67
11: 67
12: 67
13: 68
14: 68
15: 69
16: 70
17: 70
18: 71
19: 71
20: 71
21: 71
22: 72
23: 73
24: 73
25: 73
26: 73
27: 73
28: 74
29: 74
30: 74
31: 75
32: 76
33: 76
34: 76
35: 76
36: 76
37: 77
38: 77
39: 77
40: 77
41: 78
42: 78
43: 78
44: 78
45: 79
46: 79
47: 80
48: 80
49: 81
50: 81
51: 81
52: 81
53: 81
54: 82
55: 82
56: 82
57: 83
58: 83
59: 83
60: 83
61: 83
62: 84
63: 84
64: 84
segment: [6]
vertex id: label
61: 0
62: 4
63: 20
64: 1
65: 11
66: 2
67: 19
68: 12
69: 11
70: 6
71: 24
72: 10
73: 21
74: 24
75: 22
76: 21
77: 14
78: 10
79: 9
80: 20
0: 25
1: 25
2: 25
3: 25
4: 25
5: 25
6: 25
7: 25
8: 25
9: 25
10: 25
11: 25
12: 25
13: 25
14: 25
15: 25
16: 25
17: 25
18: 25
19: 25
20: 25
21: 25
22: 25
23: 25
24: 25
25: 25
26: 25
27: 25
28: 25
29: 25
30: 25
31: 25
32: 25
33: 25
34: 25
35: 25
36: 25
37: 25
38: 25
39: 25
40: 25
41: 25
42: 25
43: 25
44: 25
45: 25
46: 25
47: 25
48: 25
49: 25
50: 25
51: 25
52: 25
53: 25
54: 25
55: 25
56: 25
57: 25
58: 25
59: 25
60: 25
edge from: to
61: 0
61: 1
62: 0
62: 2
63: 4
64: 6
64: 7
64: 8
65: 6
65: 9
65: 10
65: 11
65: 12
66: 12
66: 13
67: 11
67: 13
67: 14
67: 15
68: 14
68: 15
68: 16
69: 12
69: 15
69: 16
70: 18
70: 19
71: 19
71: 20
71: 21
72: 24
72: 26
73: 32
74: 33
74: 35
74: 36
74: 37
75: 40
76: 43
77: 45
77: 49
78: 51
79: 49
79: 54
80: 51
80: 56
2: 61
3: 62
4: 62
5: 63
6: 63
7: 63
8: 63
9: 64
10: 64
11: 64
12: 64
13: 65
14: 66
15: 66
16: 67
17: 68
18: 69
19: 69
20: 69
21: 70
22: 71
23: 71
24: 71
25: 71
26: 71
27: 71
28: 72
29: 72
30: 72
31: 72
32: 72
33: 72
34: 73
35: 73
36: 73
37: 73
38: 74
39: 74
40: 74
41: 74
42: 74
43: 75
44: 75
45: 75
46: 76
47: 76
48: 76
49: 76
50: 76
51: 76
52: 77
53: 77
54: 78
55: 78
56: 78
57: 79
58: 79
59: 80
60: 80
segment: [7]
vertex id: label
71: 0
72: 17
73: 23
74: 14
75: 10
76: 4
77: 8
78: 10
79: 9
80: 5
81: 22
82: 17
83: 4
84: 23
85: 5
86: 22
87: 22
88: 21
89: 18
90: 9
0: 25
1: 25
2: 25
3: 25
4: 25
5: 25
6: 25
7: 25
8: 25
9: 25
10: 25
11: 25
12: 25
13: 25
14: 25
15: 25
16: 25
17: 25
18: 25
19: 25
20: 25
21: 25
22: 25
23: 25
24: 25
25: 25
26: 25
27: 25
28: 25
29: 25
30: 25
31: 25
32: 25
33: 25
34: 25
35: 25
36: 25
37: 25
38: 25
39: 25
40: 25
41: 25
42: 25
43: 25
44: 25
45: 25
46: 25
47: 25
48: 25
49: 25
50: 25
51: 25
52: 25
53: 25
54: 25
55: 25
56: 25
57: 25
58: 25
59: 25
60: 25
61: 25
62: 25
63: 25
64: 25
65: 25
66: 25
67: 25
68: 25
69: 25
70: 25
edge from: to
71: 0
71: 1
71: 2
72: 4
73: 7
74: 1
75: 9
75: 11
75: 12
75: 13
76: 16
76: 17
76: 18
77: 20
77: 22
78: 25
78: 26
78: 27
78: 28
79: 29
80: 31
81: 35
82: 35
82: 39
83: 33
83: 37
83: 39
83: 42
83: 44
84: 5
84: 42
85: 45
85: 49
85: 50
86: 47
86: 52
86: 53
86: 54
87: 55
88: 58
89: 55
89: 61
90: 58
90: 64
3: 71
4: 71
5: 72
6: 72
7: 72
8: 73
9: 73
10: 73
11: 74
12: 74
13: 74
14: 75
15: 75
16: 75
17: 75
18: 75
19: 76
20: 76
21: 76
22: 76
23: 76
24: 77
25: 77
26: 77
27: 77
28: 77
29: 78
30: 78
31: 79
32: 79
33: 80
34: 80
35: 80
36: 80
37: 81
38: 81
39: 81
40: 81
41: 82
42: 82
43: 82
44: 82
45: 83
46: 83
47: 83
48: 83
49: 84
50: 84
51: 84
52: 85
53: 85
54: 85
55: 86
56: 86
57: 86
58: 87
59: 87
60: 87
61: 88
62: 88
63: 88
64: 89
65: 89
66: 89
67: 90
68: 90
69: 90
70: 90
segment: [8]
vertex id: label
50: 0
51: 2
52: 19
53: 13
54: 9
55: 20
56: 12
57: 12
58: 6
59: 15
60: 19
61: 13
62: 9
63: 5
64: 13
65: 9
66: 20
67: 21
68: 14
69: 11
0: 25
1: 25
2: 25
3: 25
4: 25
5: 25
6: 25
7: 25
8: 25
9: 25
10: 25
11: 25
12: 25
13: 25
14: 25
15: 25
16: 25
17: 25
18: 25
19: 25
20: 25
21: 25
22: 25
23: 25
24: 25
25: 25
26: 25
27: 25
28: 25
29: 25
30: 25
31: 25
32: 25
33: 25
34: 25
35: 25
36: 25
37: 25
38: 25
39: 25
40: 25
41: 25
42: 25
43: 25
44: 25
45: 25
46: 25
47: 25
48: 25
49: 25
edge from: to
50: 0
50: 1
51: 0
52: 3
52: 4
53: 7
53: 8
54: 1
55: 1
55: 9
55: 10
56: 13
56: 14
57: 14
57: 15
57: 16
58: 16
58: 17
59: 19
60: 19
60: 20
60: 21
61: 21
61: 23
62: 25
63: 26
63: 28
64: 33
65: 35
66: 38
67: 40
68: 31
68: 40
68: 43
69: 40
69: 44
2: 50
3: 51
4: 51
5: 52
6: 52
7: 52
8: 52
9: 53
10: 54
11: 55
12: 55
13: 55
14: 55
15: 56
16: 56
17: 57
18: 57
19: 58
20: 58
21: 59
22: 60
23: 60
24: 60
25: 61
26: 61
27: 62
28: 62
29: 62
30: 63
31: 63
32: 63
33: 63
34: 63
35: 64
36: 64
37: 65
38: 65
39: 65
40: 66
41: 66
42: 66
43: 67
44: 67
45: 67
46: 68
47: 69
48: 69
49: 69
segment: [9]
vertex id: label
59: 0
60: 1
61: 6
62: 15
63: 22
64: 21
65: 18
66: 9
67: 20
68: 21
69: 16
70: 1
71: 8
72: 19
73: 12
74: 11
75: 12
76: 11
77: 24
78: 2
0: 25
1: 25
2: 25
3: 25
4: 25
5: 25
6: 25
7: 25
8: 25
9: 25
10: 25
11: 25
12: 25
13: 25
14: 25
15: 25
16: 25
17: 25
18: 25
19: 25
20: 25
21: 25
22: 25
23: 25
24: 25
25: 25
26: 25
27: 25
28: 25
29: 25
30: 25
31: 25
32: 25
33: 25
34: 25
35: 25
36: 25
37: 25
38: 25
39: 25
40: 25
41: 25
42: 25
43: 25
44: 25
45: 25
46: 25
47: 25
48: 25
49: 25
50: 25
51: 25
52: 25
53: 25
54: 25
55: 25
56: 25
57: 25
58: 25
edge from: to
59: 0
60: 2
60: 3
61: 5
62: 7
63: 1
64: 11
64: 12
65: 13
65: 14
65: 15
66: 2
67: 20
67: 22
68: 23
68: 25
69: 26
69: 28
70: 21
70: 26
70: 28
70: 29
71: 33
71: 35
72: 39
73: 36
73: 39
74: 41
75: 41
75: 45
76: 50
77: 47
77: 51
78: 55
1: 59
2: 59
3: 59
4: 60
5: 60
6: 61
7: 61
8: 62
9: 62
10: 63
11: 63
12: 63
13: 64
14: 64
15: 64
16: 65
17: 65
18: 65
19: 65
20: 66
21: 66
22: 66
23: 66
24: 67
25: 67
26: 67
27: 68
28: 68
29: 68
30: 69
31: 70
32: 70
33: 70
34: 70
35: 70
36: 70
37: 70
38: 71
39: 71
40: 71
41: 72
42: 73
43: 73
44: 74
45: 74
46: 74
47: 74
48: 75
49: 75
50: 75
51: 75
52: 75
53: 76
54: 77
55: 77
56: 77
57: 77
58: 78
