segment: [0]
vertex id: label
62: 0
63: 3
64: 0
65: 3
66: 2
67: 3
68: 0
69: 3
70: 0
71: 3
72: 0
73: 3
74: 0
75: 3
76: 0
77: 3
78: 0
79: 3
80: 0
81: 3
0: 5
1: 5
2: 5
3: 5
4: 5
5: 5
6: 5
7: 5
8: 5
9: 5
10: 5
11: 5
12: 5
13: 5
14: 5
15: 5
16: 5
17: 5
18: 5
19: 5
20: 5
21: 5
22: 5
23: 5
24: 5
25: 5
26: 5
27: 5
28: 5
29: 5
30: 5
31: 5
32: 5
33: 5
34: 5
35: 5
36: 5
37: 5
38: 5
39: 5
40: 5
41: 5
42: 5
43: 5
44: 5
45: 5
46: 5
47: 5
48: 5
49: 5
50: 5
51: 5
52: 5
53: 5
54: 5
55: 5
56: 5
57: 5
58: 5
59: 5
60: 5
61: 5
edge from: to
62: 0
62: 1
63: 2
63: 7
64: 9
64: 10
65: 5
65: 13
66: 16
67: 6
67: 16
68: 21
68: 22
69: 23
69: 24
70: 28
71: 30
72: 29
72: 31
73: 31
73: 33
74: 27
74: 34
74: 36
75: 13
76: 39
76: 40
76: 42
77: 15
77: 42
78: 45
79: 46
79: 48
80: 48
80: 50
81: 53
81: 55
2: 62
3: 62
4: 62
5: 62
6: 62
7: 62
8: 63
9: 63
10: 63
11: 64
12: 64
13: 64
14: 64
15: 65
16: 65
17: 66
18: 67
19: 67
20: 67
21: 67
22: 67
23: 68
24: 68
25: 69
26: 69
27: 69
28: 69
29: 70
30: 70
31: 71
32: 72
33: 72
34: 73
35: 73
36: 73
37: 74
38: 74
39: 75
40: 75
41: 75
42: 75
43: 76
44: 76
45: 77
46: 78
47: 78
48: 78
49: 79
50: 79
51: 80
52: 80
53: 80
54: 80
55: 80
56: 81
57: 81
58: 81
59: 81
60: 81
61: 81
segment: [1]
vertex id: label
48: 0
49: 3
50: 0
51: 3
52: 0
53: 3
54: 0
55: 3
56: 0
57: 3
58: 0
59: 3
60: 0
61: 3
62: 0
63: 3
64: 0
65: 3
66: 0
67: 3
0: 5
1: 5
2: 5
3: 5
4: 5
5: 5
6: 5
7: 5
8: 5
9: 5
10: 5
11: 5
12: 5
13: 5
14: 5
15: 5
16: 5
17: 5
18: 5
19: 5
20: 5
21: 5
22: 5
23: 5
24: 5
25: 5
26: 5
27: 5
28: 5
29: 5
30: 5
31: 5
32: 5
33: 5
34: 5
35: 5
36: 5
37: 5
38: 5
39: 5
40: 5
41: 5
42: 5
43: 5
44: 5
45: 5
46: 5
47: 5
edge from: to
48: 0
48: 1
48: 2
49: 0
49: 1
49: 3
49: 4
50: 2
50: 7
51: 9
52: 4
52: 10
53: 5
53: 13
54: 1
54: 15
54: 16
55: 18
56: 7
56: 19
57: 20
57: 21
58: 22
59: 19
59: 24
59: 25
60: 26
60: 27
60: 28
61: 31
62: 12
63: 36
64: 13
65: 40
66: 14
67: 43
3: 48
4: 48
5: 49
6: 49
7: 49
8: 50
9: 50
10: 51
11: 51
12: 52
13: 52
14: 52
15: 53
16: 53
17: 54
18: 54
19: 55
20: 55
21: 56
22: 57
23: 58
24: 58
25: 58
26: 59
27: 59
28: 59
29: 60
30: 60
31: 60
32: 61
33: 61
34: 61
35: 61
36: 62
37: 63
38: 63
39: 64
40: 64
41: 65
42: 66
43: 66
44: 67
45: 67
46: 67
47: 67
segment: [2]
vertex id: label
54: 0
55: 3
56: 0
57: 2
58: 3
59: 0
60: 3
61: 0
62: 3
63: 0
64: 3
65: 0
66: 3
67: 0
68: 3
69: 0
70: 3
71: 0
72: 3
73: 0
0: 5
1: 5
2: 5
3: 5
4: 5
5: 5
6: 5
7: 5
8: 5
9: 5
10: 5
11: 5
12: 5
13: 5
14: 5
15: 5
16: 5
17: 5
18: 5
19: 5
20: 5
21: 5
22: 5
23: 5
24: 5
25: 5
26: 5
27: 5
28: 5
29: 5
30: 5
31: 5
32: 5
33: 5
34: 5
35: 5
36: 5
37: 5
38: 5
39: 5
40: 5
41: 5
42: 5
43: 5
44: 5
45: 5
46: 5
47: 5
48: 5
49: 5
50: 5
51: 5
52: 5
53: 5
edge from: to
54: 0
54: 1
54: 2
55: 0
55: 4
56: 2
57: 3
57: 5
57: 6
57: 8
58: 12
59: 15
60: 15
60: 16
61: 6
61: 16
62: 19
63: 22
64: 24
64: 25
65: 25
65: 26
65: 27
66: 10
66: 27
66: 28
66: 29
67: 28
67: 29
67: 30
68: 29
68: 31
69: 31
69: 33
70: 12
71: 35
71: 37
72: 40
72: 42
73: 46
73: 47
73: 49
3: 54
4: 54
5: 55
6: 56
7: 56
8: 56
9: 57
10: 57
11: 57
12: 57
13: 58
14: 58
15: 58
16: 59
17: 60
18: 61
19: 61
20: 62
21: 62
22: 62
23: 63
24: 63
25: 63
26: 64
27: 64
28: 65
29: 65
30: 66
31: 67
32: 68
33: 68
34: 69
35: 69
36: 70
37: 70
38: 71
39: 71
40: 71
41: 71
42: 71
43: 72
44: 72
45: 72
46: 72
47: 72
48: 72
49: 72
50: 73
51: 73
52: 73
53: 73
segment: [3]
vertex id: label
58: 0
59: 3
60: 0
61: 2
62: 3
63: 0
64: 3
65: 0
66: 3
67: 2
68: 3
69: 0
70: 3
71: 0
72: 3
73: 0
74: 2
75: 3
76: 0
77: 3
0: 5
1: 5
2: 5
3: 5
4: 5
5: 5
6: 5
7: 5
8: 5
9: 5
10: 5
11: 5
12: 5
13: 5
14: 5
15: 5
16: 5
17: 5
18: 5
19: 5
20: 5
21: 5
22: 5
23: 5
24: 5
25: 5
26: 5
27: 5
28: 5
29: 5
30: 5
31: 5
32: 5
33: 5
34: 5
35: 5
36: 5
37: 5
38: 5
39: 5
40: 5
41: 5
42: 5
43: 5
44: 5
45: 5
46: 5
47: 5
48: 5
49: 5
50: 5
51: 5
52: 5
53: 5
54: 5
55: 5
56: 5
57: 5
edge from: to
58: 0
58: 1
58: 2
59: 4
59: 5
59: 6
60: 6
60: 9
61: 9
61: 10
62: 12
62: 13
62: 14
62: 15
63: 18
64: 18
64: 19
65: 22
66: 2
66: 9
67: 28
67: 29
67: 30
68: 29
68: 31
69: 27
69: 34
69: 36
70: 13
70: 36
71: 40
71: 42
72: 42
72: 43
72: 45
73: 16
74: 48
74: 50
75: 48
75: 49
75: 51
76: 51
76: 52
76: 54
77: 56
3: 58
4: 58
5: 58
6: 58
7: 59
8: 59
9: 59
10: 60
11: 61
12: 61
13: 61
14: 61
15: 61
16: 62
17: 62
18: 62
19: 63
20: 64
21: 64
22: 64
23: 65
24: 65
25: 65
26: 65
27: 66
28: 66
29: 66
30: 66
31: 67
32: 68
33: 68
34: 68
35: 68
36: 68
37: 69
38: 69
39: 70
40: 70
41: 70
42: 70
43: 71
44: 71
45: 71
46: 72
47: 72
48: 73
49: 73
50: 73
51: 74
52: 75
53: 75
54: 75
55: 76
56: 76
57: 77
segment: [4]
vertex id: label
55: 0
56: 3
57: 0
58: 2
59: 3
60: 0
61: 3
62: 0
63: 3
64: 0
65: 3
66: 0
67: 3
68: 0
69: 3
70: 0
71: 3
72: 0
73: 3
74: 0
0: 5
1: 5
2: 5
3: 5
4: 5
5: 5
6: 5
7: 5
8: 5
9: 5
10: 5
11: 5
12: 5
13: 5
14: 5
15: 5
16: 5
17: 5
18: 5
19: 5
20: 5
21: 5
22: 5
23: 5
24: 5
25: 5
26: 5
27: 5
28: 5
29: 5
30: 5
31: 5
32: 5
33: 5
34: 5
35: 5
36: 5
37: 5
38: 5
39: 5
40: 5
41: 5
42: 5
43: 5
44: 5
45: 5
46: 5
47: 5
48: 5
49: 5
50: 5
51: 5
52: 5
53: 5
54: 5
edge from: to
55: 0
56: 0
56: 4
57: 9
58: 12
59: 15
60: 7
60: 12
60: 15
60: 17
60: 18
60: 19
61: 7
61: 18
61: 19
62: 8
63: 24
63: 25
64: 27
65: 11
65: 30
66: 34
67: 34
67: 36
68: 13
68: 36
69: 38
69: 40
70: 43
71: 15
71: 42
72: 46
72: 48
73: 51
74: 51
74: 53
1: 55
2: 55
3: 55
4: 55
5: 56
6: 56
7: 56
8: 56
9: 56
10: 57
11: 57
12: 57
13: 58
14: 58
15: 58
16: 59
17: 59
18: 59
19: 59
20: 60
21: 61
22: 61
23: 61
24: 62
25: 62
26: 63
27: 63
28: 64
29: 64
30: 64
31: 64
32: 64
33: 65
34: 65
35: 66
36: 66
37: 67
38: 67
39: 68
40: 68
41: 69
42: 69
43: 69
44: 70
45: 71
46: 71
47: 71
48: 71
49: 72
50: 72
51: 72
52: 73
53: 73
54: 74
segment: [5]
vertex id: label
66: 0
67: 3
68: 0
69: 3
70: 0
71: 3
72: 0
73: 3
74: 0
75: 3
76: 0
77: 3
78: 0
79: 3
80: 0
81: 3
82: 0
83: 3
84: 0
85: 3
0: 5
1: 5
2: 5
3: 5
4: 5
5: 5
6: 5
7: 5
8: 5
9: 5
10: 5
11: 5
12: 5
13: 5
14: 5
15: 5
16: 5
17: 5
18: 5
19: 5
20: 5
21: 5
22: 5
23: 5
24: 5
25: 5
26: 5
27: 5
28: 5
29: 5
30: 5
31: 5
32: 5
33: 5
34: 5
35: 5
36: 5
37: 5
38: 5
39: 5
40: 5
41: 5
42: 5
43: 5
44: 5
45: 5
46: 5
47: 5
48: 5
49: 5
50: 5
51: 5
52: 5
53: 5
54: 5
55: 5
56: 5
57: 5
58: 5
59: 5
60: 5
61: 5
62: 5
63: 5
64: 5
65: 5
edge from: to
66: 0
66: 1
67: 4
67: 6
68: 4
68: 7
68: 10
68: 11
69: 5
70: 16
71: 17
71: 18
72: 21
72: 22
73: 10
74: 11
75: 27
75: 34
75: 36
76: 3
76: 36
76: 39
77: 42
78: 43
79: 35
79: 42
79: 43
79: 45
80: 2
80: 16
80: 45
81: 49
81: 51
82: 53
83: 53
83: 55
84: 61
85: 23
85: 59
85: 60
85: 63
2: 66
3: 66
4: 66
5: 66
6: 66
7: 67
8: 67
9: 67
10: 67
11: 67
12: 68
13: 68
14: 68
15: 69
16: 69
17: 70
18: 70
19: 71
20: 71
21: 71
22: 71
23: 72
24: 72
25: 72
26: 72
27: 72
28: 72
29: 72
30: 73
31: 73
32: 73
33: 74
34: 74
35: 74
36: 74
37: 75
38: 75
39: 75
40: 76
41: 76
42: 76
43: 77
44: 78
45: 78
46: 79
47: 79
48: 80
49: 80
50: 80
51: 80
52: 81
53: 81
54: 82
55: 82
56: 83
57: 83
58: 83
59: 83
60: 83
61: 83
62: 84
63: 84
64: 85
65: 85
segment: [6]
vertex id: label
65: 0
66: 3
67: 0
68: 3
69: 0
70: 3
71: 0
72: 3
73: 0
74: 2
75: 3
76: 0
77: 3
78: 0
79: 3
80: 0
81: 3
82: 0
83: 3
84: 0
0: 5
1: 5
2: 5
3: 5
4: 5
5: 5
6: 5
7: 5
8: 5
9: 5
10: 5
11: 5
12: 5
13: 5
14: 5
15: 5
16: 5
17: 5
18: 5
19: 5
20: 5
21: 5
22: 5
23: 5
24: 5
25: 5
26: 5
27: 5
28: 5
29: 5
30: 5
31: 5
32: 5
33: 5
34: 5
35: 5
36: 5
37: 5
38: 5
39: 5
40: 5
41: 5
42: 5
43: 5
44: 5
45: 5
46: 5
47: 5
48: 5
49: 5
50: 5
51: 5
52: 5
53: 5
54: 5
55: 5
56: 5
57: 5
58: 5
59: 5
60: 5
61: 5
62: 5
63: 5
64: 5
edge from: to
65: 0
66: 1
67: 6
68: 9
69: 4
69: 10
70: 14
70: 15
71: 7
71: 18
71: 19
72: 25
73: 10
73: 28
74: 29
74: 31
75: 11
75: 30
76: 27
76: 34
76: 36
77: 14
77: 39
78: 46
79: 2
79: 16
79: 45
80: 47
80: 49
81: 52
82: 55
83: 57
84: 37
84: 57
84: 59
84: 60
1: 65
2: 65
3: 65
4: 66
5: 66
6: 66
7: 67
8: 67
9: 67
10: 68
11: 68
12: 69
13: 69
14: 69
15: 69
16: 70
17: 70
18: 70
19: 70
20: 70
21: 71
22: 71
23: 71
24: 71
25: 71
26: 72
27: 72
28: 72
29: 72
30: 73
31: 73
32: 74
33: 75
34: 75
35: 75
36: 75
37: 76
38: 76
39: 76
40: 76
41: 76
42: 77
43: 77
44: 77
45: 77
46: 77
47: 78
48: 79
49: 79
50: 80
51: 80
52: 80
53: 81
54: 81
55: 81
56: 82
57: 82
58: 83
59: 83
60: 83
61: 84
62: 84
63: 84
64: 84
segment: [7]
vertex id: label
59: 0
60: 3
61: 0
62: 3
63: 0
64: 3
65: 2
66: 3
67: 2
68: 3
69: 0
70: 3
71: 0
72: 3
73: 0
74: 3
75: 2
76: 3
77: 0
78: 3
0: 5
1: 5
2: 5
3: 5
4: 5
5: 5
6: 5
7: 5
8: 5
9: 5
10: 5
11: 5
12: 5
13: 5
14: 5
15: 5
16: 5
17: 5
18: 5
19: 5
20: 5
21: 5
22: 5
23: 5
24: 5
25: 5
26: 5
27: 5
28: 5
29: 5
30: 5
31: 5
32: 5
33: 5
34: 5
35: 5
36: 5
37: 5
38: 5
39: 5
40: 5
41: 5
42: 5
43: 5
44: 5
45: 5
46: 5
47: 5
48: 5
49: 5
50: 5
51: 5
52: 5
53: 5
54: 5
55: 5
56: 5
57: 5
58: 5
edge from: to
59: 0
59: 1
59: 2
60: 0
60: 3
60: 4
61: 3
62: 8
62: 9
62: 10
63: 5
64: 18
65: 21
66: 25
67: 28
68: 10
69: 29
69: 31
70: 33
71: 36
72: 13
73: 40
74: 14
75: 43
76: 48
77: 49
77: 51
78: 52
78: 53
78: 55
3: 59
4: 59
5: 60
6: 60
7: 60
8: 60
9: 61
10: 61
11: 62
12: 62
13: 62
14: 62
15: 63
16: 63
17: 63
18: 63
19: 64
20: 64
21: 64
22: 65
23: 65
24: 65
25: 65
26: 66
27: 66
28: 66
29: 67
30: 68
31: 68
32: 69
33: 69
34: 70
35: 70
36: 70
37: 71
38: 71
39: 72
40: 72
41: 73
42: 74
43: 74
44: 75
45: 75
46: 75
47: 75
48: 75
49: 76
50: 76
51: 76
52: 77
53: 77
54: 77
55: 77
56: 78
57: 78
58: 78
segment: [8]
vertex id: label
66: 0
67: 2
68: 3
69: 0
70: 3
71: 2
72: 3
73: 0
74: 3
75: 0
76: 2
77: 3
78: 0
79: 3
80: 0
81: 3
82: 0
83: 3
84: 0
85: 3
0: 5
1: 5
2: 5
3: 5
4: 5
5: 5
6: 5
7: 5
8: 5
9: 5
10: 5
11: 5
12: 5
13: 5
14: 5
15: 5
16: 5
17: 5
18: 5
19: 5
20: 5
21: 5
22: 5
23: 5
24: 5
25: 5
26: 5
27: 5
28: 5
29: 5
30: 5
31: 5
32: 5
33: 5
34: 5
35: 5
36: 5
37: 5
38: 5
39: 5
40: 5
41: 5
42: 5
43: 5
44: 5
45: 5
46: 5
47: 5
48: 5
49: 5
50: 5
51: 5
52: 5
53: 5
54: 5
55: 5
56: 5
57: 5
58: 5
59: 5
60: 5
61: 5
62: 5
63: 5
64: 5
65: 5
edge from: to
66: 0
66: 1
66: 2
67: 0
67: 4
68: 4
68: 6
69: 6
69: 7
69: 9
70: 1
70: 5
70: 12
70: 13
71: 16
72: 5
72: 14
72: 17
72: 18
73: 7
73: 19
74: 25
75: 31
76: 37
77: 3
77: 36
77: 37
77: 39
78: 42
78: 43
78: 45
79: 16
80: 47
80: 49
81: 4
81: 52
82: 52
82: 53
82: 55
83: 57
84: 37
84: 57
84: 59
84: 60
85: 59
85: 62
3: 66
4: 66
5: 67
6: 67
7: 68
8: 68
9: 68
10: 69
11: 69
12: 69
13: 69
14: 70
15: 70
16: 70
17: 71
18: 71
19: 72
20: 72
21: 73
22: 73
23: 73
24: 73
25: 73
26: 74
27: 74
28: 74
29: 74
30: 74
31: 74
32: 75
33: 75
34: 75
35: 75
36: 75
37: 75
38: 76
39: 76
40: 77
41: 77
42: 77
43: 77
44: 77
45: 77
46: 78
47: 78
48: 79
49: 79
50: 80
51: 80
52: 80
53: 81
54: 81
55: 81
56: 82
57: 82
58: 83
59: 83
60: 83
61: 84
62: 84
63: 85
64: 85
65: 85
segment: [9]
vertex id: label
56: 0
57: 3
58: 0
59: 3
60: 0
61: 3
62: 0
63: 3
64: 0
65: 3
66: 0
67: 3
68: 0
69: 3
70: 0
71: 3
72: 0
73: 3
74: 0
75: 3
0: 5
1: 5
2: 5
3: 5
4: 5
5: 5
6: 5
7: 5
8: 5
9: 5
10: 5
11: 5
12: 5
13: 5
14: 5
15: 5
16: 5
17: 5
18: 5
19: 5
20: 5
21: 5
22: 5
23: 5
24: 5
25: 5
26: 5
27: 5
28: 5
29: 5
30: 5
31: 5
32: 5
33: 5
34: 5
35: 5
36: 5
37: 5
38: 5
39: 5
40: 5
41: 5
42: 5
43: 5
44: 5
45: 5
46: 5
47: 5
48: 5
49: 5
50: 5
51: 5
52: 5
53: 5
54: 5
55: 5
edge from: to
56: 0
57: 2
57: 5
58: 3
58: 8
59: 9
59: 10
60: 12
61: 14
61: 15
62: 18
63: 7
64: 19
64: 20
64: 21
65: 22
66: 24
66: 25
67: 30
68: 31
69: 32
69: 34
70: 37
71: 40
72: 46
73: 48
74: 47
74: 48
74: 49
74: 50
75: 51
75: 53
1: 56
2: 56
3: 56
4: 56
5: 56
6: 57
7: 57
8: 57
9: 58
10: 58
11: 59
12: 59
13: 60
14: 60
15: 60
16: 61
17: 61
18: 61
19: 62
20: 62
21: 63
22: 64
23: 65
24: 65
25: 65
26: 66
27: 66
28: 66
29: 66
30: 66
31: 67
32: 68
33: 68
34: 68
35: 69
36: 69
37: 69
38: 70
39: 70
40: 70
41: 71
42: 71
43: 71
44: 71
45: 71
46: 71
47: 72
48: 72
49: 73
50: 73
51: 74
52: 74
53: 74
54: 75
55: 75
