segment: [0]
vertex id: label
66: 0
67: 2
68: 4
69: 0
70: 2
71: 4
72: 1
73: 4
74: 0
75: 2
76: 4
77: 0
78: 1
79: 4
80: 0
81: 2
82: 4
83: 1
84: 4
85: 0
0: 5
1: 5
2: 5
3: 5
4: 5
5: 5
6: 5
7: 5
8: 5
9: 5
10: 5
11: 5
12: 5
13: 5
14: 5
15: 5
16: 5
17: 5
18: 5
19: 5
20: 5
21: 5
22: 5
23: 5
24: 5
25: 5
26: 5
27: 5
28: 5
29: 5
30: 5
31: 5
32: 5
33: 5
34: 5
35: 5
36: 5
37: 5
38: 5
39: 5
40: 5
41: 5
42: 5
43: 5
44: 5
45: 5
46: 5
47: 5
48: 5
49: 5
50: 5
51: 5
52: 5
53: 5
54: 5
55: 5
56: 5
57: 5
58: 5
59: 5
60: 5
61: 5
62: 5
63: 5
64: 5
65: 5
edge from: to
66: 0
66: 1
67: 0
67: 3
68: 0
68: 6
68: 7
69: 10
69: 11
70: 13
71: 16
71: 17
72: 17
72: 18
72: 19
73: 19
73: 20
74: 21
74: 22
75: 27
75: 28
76: 28
76: 30
76: 31
77: 32
78: 34
78: 35
78: 37
78: 38
79: 39
79: 41
80: 1
81: 49
81: 50
82: 50
82: 52
82: 54
83: 49
83: 50
83: 52
83: 54
83: 56
84: 59
85: 60
85: 62
85: 64
2: 66
3: 66
4: 67
5: 67
6: 67
7: 67
8: 68
9: 68
10: 68
11: 68
12: 69
13: 69
14: 69
15: 70
16: 70
17: 70
18: 71
19: 71
20: 72
21: 72
22: 73
23: 73
24: 74
25: 74
26: 74
27: 74
28: 74
29: 74
30: 75
31: 75
32: 76
33: 76
34: 76
35: 76
36: 77
37: 77
38: 77
39: 78
40: 78
41: 78
42: 78
43: 78
44: 79
45: 79
46: 79
47: 80
48: 80
49: 80
50: 80
51: 80
52: 80
53: 81
54: 81
55: 82
56: 82
57: 83
58: 83
59: 83
60: 83
61: 83
62: 83
63: 83
64: 84
65: 85
segment: [1]
vertex id: label
57: 0
58: 2
59: 1
60: 4
61: 0
62: 2
63: 4
64: 0
65: 2
66: 4
67: 0
68: 2
69: 4
70: 0
71: 2
72: 4
73: 0
74: 2
75: 4
76: 0
0: 5
1: 5
2: 5
3: 5
4: 5
5: 5
6: 5
7: 5
8: 5
9: 5
10: 5
11: 5
12: 5
13: 5
14: 5
15: 5
16: 5
17: 5
18: 5
19: 5
20: 5
21: 5
22: 5
23: 5
24: 5
25: 5
26: 5
27: 5
28: 5
29: 5
30: 5
31: 5
32: 5
33: 5
34: 5
35: 5
36: 5
37: 5
38: 5
39: 5
40: 5
41: 5
42: 5
43: 5
44: 5
45: 5
46: 5
47: 5
48: 5
49: 5
50: 5
51: 5
52: 5
53: 5
54: 5
55: 5
56: 5
edge from: to
57: 0
57: 1
57: 2
57: 3
58: 0
59: 1
59: 9
60: 11
60: 12
61: 9
61: 13
61: 14
62: 17
63: 18
63: 19
64: 20
65: 24
65: 25
65: 26
66: 27
67: 30
68: 31
68: 33
69: 33
69: 35
70: 35
70: 37
71: 37
72: 1
73: 1
73: 27
73: 44
74: 46
75: 47
76: 49
76: 50
4: 57
5: 57
6: 57
7: 58
8: 58
9: 58
10: 59
11: 59
12: 59
13: 60
14: 60
15: 60
16: 61
17: 61
18: 61
19: 62
20: 62
21: 63
22: 63
23: 64
24: 64
25: 64
26: 64
27: 65
28: 65
29: 65
30: 65
31: 66
32: 66
33: 66
34: 67
35: 68
36: 68
37: 69
38: 69
39: 70
40: 70
41: 71
42: 71
43: 71
44: 71
45: 71
46: 72
47: 73
48: 73
49: 73
50: 74
51: 75
52: 75
53: 76
54: 76
55: 76
56: 76
segment: [2]
vertex id: label
61: 0
62: 1
63: 4
64: 1
65: 4
66: 0
67: 2
68: 4
69: 0
70: 1
71: 4
72: 1
73: 4
74: 1
75: 4
76: 0
77: 1
78: 4
79: 2
80: 4
0: 5
1: 5
2: 5
3: 5
4: 5
5: 5
6: 5
7: 5
8: 5
9: 5
10: 5
11: 5
12: 5
13: 5
14: 5
15: 5
16: 5
17: 5
18: 5
19: 5
20: 5
21: 5
22: 5
23: 5
24: 5
25: 5
26: 5
27: 5
28: 5
29: 5
30: 5
31: 5
32: 5
33: 5
34: 5
35: 5
36: 5
37: 5
38: 5
39: 5
40: 5
41: 5
42: 5
43: 5
44: 5
45: 5
46: 5
47: 5
48: 5
49: 5
50: 5
51: 5
52: 5
53: 5
54: 5
55: 5
56: 5
57: 5
58: 5
59: 5
60: 5
edge from: to
61: 0
61: 1
62: 0
62: 2
63: 0
64: 0
65: 1
65: 9
66: 11
67: 14
68: 2
68: 16
68: 17
68: 18
69: 19
70: 20
71: 21
71: 22
72: 25
72: 26
72: 27
72: 28
73: 29
73: 31
74: 31
75: 37
75: 38
75: 39
75: 41
76: 1
77: 1
77: 27
77: 43
77: 44
78: 41
78: 44
78: 45
78: 47
79: 30
79: 48
79: 49
80: 49
80: 51
2: 61
3: 62
4: 63
5: 63
6: 63
7: 63
8: 64
9: 64
10: 65
11: 65
12: 65
13: 66
14: 66
15: 66
16: 67
17: 67
18: 67
19: 68
20: 68
21: 68
22: 69
23: 70
24: 71
25: 71
26: 71
27: 71
28: 71
29: 72
30: 72
31: 72
32: 72
33: 73
34: 73
35: 74
36: 74
37: 74
38: 74
39: 74
40: 74
41: 74
42: 75
43: 75
44: 75
45: 76
46: 76
47: 77
48: 78
49: 78
50: 78
51: 78
52: 79
53: 79
54: 80
55: 80
56: 80
57: 80
58: 80
59: 80
60: 80
segment: [3]
vertex id: label
66: 0
67: 1
68: 4
69: 0
70: 2
71: 4
72: 1
73: 4
74: 0
75: 2
76: 4
77: 0
78: 1
79: 4
80: 1
81: 4
82: 0
83: 2
84: 4
85: 0
0: 5
1: 5
2: 5
3: 5
4: 5
5: 5
6: 5
7: 5
8: 5
9: 5
10: 5
11: 5
12: 5
13: 5
14: 5
15: 5
16: 5
17: 5
18: 5
19: 5
20: 5
21: 5
22: 5
23: 5
24: 5
25: 5
26: 5
27: 5
28: 5
29: 5
30: 5
31: 5
32: 5
33: 5
34: 5
35: 5
36: 5
37: 5
38: 5
39: 5
40: 5
41: 5
42: 5
43: 5
44: 5
45: 5
46: 5
47: 5
48: 5
49: 5
50: 5
51: 5
52: 5
53: 5
54: 5
55: 5
56: 5
57: 5
58: 5
59: 5
60: 5
61: 5
62: 5
63: 5
64: 5
65: 5
edge from: to
66: 0
67: 0
67: 3
68: 5
68: 8
69: 9
70: 11
70: 12
71: 15
71: 16
72: 12
72: 18
72: 19
73: 19
73: 20
74: 22
74: 23
75: 27
75: 28
76: 32
76: 34
76: 35
77: 37
77: 39
78: 38
78: 40
79: 45
80: 30
80: 48
80: 49
81: 49
81: 51
82: 53
82: 55
82: 57
83: 56
83: 58
84: 57
85: 60
85: 62
1: 66
2: 66
3: 66
4: 67
5: 67
6: 67
7: 67
8: 67
9: 68
10: 68
11: 69
12: 69
13: 70
14: 70
15: 70
16: 70
17: 71
18: 71
19: 71
20: 71
21: 72
22: 73
23: 73
24: 73
25: 74
26: 74
27: 74
28: 74
29: 74
30: 75
31: 75
32: 75
33: 75
34: 75
35: 75
36: 76
37: 76
38: 76
39: 76
40: 76
41: 77
42: 77
43: 78
44: 78
45: 78
46: 78
47: 78
48: 78
49: 79
50: 79
51: 79
52: 80
53: 80
54: 81
55: 81
56: 81
57: 81
58: 82
59: 82
60: 82
61: 83
62: 84
63: 84
64: 84
65: 85
segment: [4]
vertex id: label
62: 0
63: 2
64: 4
65: 0
66: 2
67: 4
68: 0
69: 2
70: 4
71: 0
72: 2
73: 4
74: 0
75: 1
76: 4
77: 0
78: 1
79: 4
80: 1
81: 4
0: 5
1: 5
2: 5
3: 5
4: 5
5: 5
6: 5
7: 5
8: 5
9: 5
10: 5
11: 5
12: 5
13: 5
14: 5
15: 5
16: 5
17: 5
18: 5
19: 5
20: 5
21: 5
22: 5
23: 5
24: 5
25: 5
26: 5
27: 5
28: 5
29: 5
30: 5
31: 5
32: 5
33: 5
34: 5
35: 5
36: 5
37: 5
38: 5
39: 5
40: 5
41: 5
42: 5
43: 5
44: 5
45: 5
46: 5
47: 5
48: 5
49: 5
50: 5
51: 5
52: 5
53: 5
54: 5
55: 5
56: 5
57: 5
58: 5
59: 5
60: 5
61: 5
edge from: to
62: 0
63: 0
64: 0
64: 3
64: 4
65: 0
66: 10
67: 9
67: 14
68: 16
69: 18
70: 22
70: 23
71: 27
72: 32
72: 34
73: 33
74: 35
75: 38
76: 1
76: 44
77: 45
78: 50
78: 52
79: 53
80: 54
80: 56
81: 56
1: 62
2: 63
3: 63
4: 63
5: 64
6: 64
7: 64
8: 65
9: 65
10: 65
11: 65
12: 66
13: 66
14: 66
15: 66
16: 67
17: 67
18: 68
19: 68
20: 68
21: 69
22: 69
23: 69
24: 69
25: 70
26: 70
27: 70
28: 70
29: 70
30: 70
31: 71
32: 71
33: 71
34: 71
35: 71
36: 72
37: 73
38: 73
39: 74
40: 74
41: 74
42: 75
43: 75
44: 75
45: 75
46: 76
47: 76
48: 76
49: 77
50: 77
51: 77
52: 77
53: 77
54: 77
55: 78
56: 78
57: 78
58: 79
59: 80
60: 80
61: 81
segment: [5]
vertex id: label
69: 0
70: 1
71: 4
72: 0
73: 2
74: 4
75: 1
76: 4
77: 0
78: 2
79: 4
80: 0
81: 1
82: 4
83: 0
84: 2
85: 2
86: 4
87: 1
88: 4
0: 5
1: 5
2: 5
3: 5
4: 5
5: 5
6: 5
7: 5
8: 5
9: 5
10: 5
11: 5
12: 5
13: 5
14: 5
15: 5
16: 5
17: 5
18: 5
19: 5
20: 5
21: 5
22: 5
23: 5
24: 5
25: 5
26: 5
27: 5
28: 5
29: 5
30: 5
31: 5
32: 5
33: 5
34: 5
35: 5
36: 5
37: 5
38: 5
39: 5
40: 5
41: 5
42: 5
43: 5
44: 5
45: 5
46: 5
47: 5
48: 5
49: 5
50: 5
51: 5
52: 5
53: 5
54: 5
55: 5
56: 5
57: 5
58: 5
59: 5
60: 5
61: 5
62: 5
63: 5
64: 5
65: 5
66: 5
67: 5
68: 5
edge from: to
69: 0
69: 1
70: 0
71: 0
71: 7
72: 10
72: 11
73: 12
73: 13
74: 9
74: 14
75: 17
75: 18
76: 20
76: 21
77: 23
78: 3
78: 25
79: 27
80: 32
80: 34
81: 36
81: 38
82: 39
82: 41
82: 43
83: 44
83: 45
83: 47
84: 48
84: 49
85: 49
85: 51
86: 51
87: 55
88: 60
2: 69
3: 69
4: 70
5: 70
6: 70
7: 70
8: 71
9: 71
10: 71
11: 71
12: 72
13: 72
14: 73
15: 73
16: 74
17: 74
18: 74
19: 74
20: 75
21: 75
22: 75
23: 76
24: 76
25: 76
26: 77
27: 77
28: 78
29: 78
30: 79
31: 79
32: 79
33: 79
34: 79
35: 79
36: 80
37: 80
38: 80
39: 80
40: 81
41: 81
42: 81
43: 81
44: 82
45: 82
46: 82
47: 82
48: 83
49: 83
50: 83
51: 83
52: 84
53: 84
54: 85
55: 85
56: 86
57: 86
58: 86
59: 86
60: 87
61: 87
62: 87
63: 87
64: 87
65: 88
66: 88
67: 88
68: 88
segment: [6]
vertex id: label
61: 0
62: 3
63: 1
64: 4
65: 1
66: 4
67: 0
68: 1
69: 4
70: 0
71: 2
72: 4
73: 1
74: 4
75: 0
76: 1
77: 4
78: 0
79: 1
80: 4
0: 5
1: 5
2: 5
3: 5
4: 5
5: 5
6: 5
7: 5
8: 5
9: 5
10: 5
11: 5
12: 5
13: 5
14: 5
15: 5
16: 5
17: 5
18: 5
19: 5
20: 5
21: 5
22: 5
23: 5
24: 5
25: 5
26: 5
27: 5
28: 5
29: 5
30: 5
31: 5
32: 5
33: 5
34: 5
35: 5
36: 5
37: 5
38: 5
39: 5
40: 5
41: 5
42: 5
43: 5
44: 5
45: 5
46: 5
47: 5
48: 5
49: 5
50: 5
51: 5
52: 5
53: 5
54: 5
55: 5
56: 5
57: 5
58: 5
59: 5
60: 5
edge from: to
61: 0
62: 0
63: 0
64: 10
64: 11
65: 11
66: 9
66: 13
66: 14
66: 15
67: 19
68: 21
68: 22
69: 23
69: 24
70: 24
71: 26
72: 19
72: 29
72: 30
72: 31
73: 31
74: 33
75: 23
75: 36
75: 38
76: 38
76: 40
77: 1
78: 46
78: 47
78: 49
79: 31
79: 49
79: 51
80: 53
80: 55
80: 57
1: 61
2: 61
3: 61
4: 62
5: 62
6: 62
7: 62
8: 63
9: 63
10: 63
11: 63
12: 64
13: 65
14: 65
15: 65
16: 66
17: 66
18: 66
19: 66
20: 66
21: 66
22: 67
23: 67
24: 68
25: 68
26: 69
27: 70
28: 70
29: 71
30: 71
31: 71
32: 71
33: 72
34: 72
35: 73
36: 73
37: 74
38: 74
39: 74
40: 75
41: 75
42: 75
43: 76
44: 76
45: 76
46: 77
47: 77
48: 77
49: 77
50: 78
51: 78
52: 78
53: 78
54: 79
55: 79
56: 79
57: 79
58: 80
59: 80
60: 80
segment: [7]
vertex id: label
70: 0
71: 2
72: 4
73: 1
74: 4
75: 1
76: 4
77: 0
78: 2
79: 4
80: 1
81: 4
82: 1
83: 4
84: 1
85: 4
86: 0
87: 1
88: 4
89: 1
0: 5
1: 5
2: 5
3: 5
4: 5
5: 5
6: 5
7: 5
8: 5
9: 5
10: 5
11: 5
12: 5
13: 5
14: 5
15: 5
16: 5
17: 5
18: 5
19: 5
20: 5
21: 5
22: 5
23: 5
24: 5
25: 5
26: 5
27: 5
28: 5
29: 5
30: 5
31: 5
32: 5
33: 5
34: 5
35: 5
36: 5
37: 5
38: 5
39: 5
40: 5
41: 5
42: 5
43: 5
44: 5
45: 5
46: 5
47: 5
48: 5
49: 5
50: 5
51: 5
52: 5
53: 5
54: 5
55: 5
56: 5
57: 5
58: 5
59: 5
60: 5
61: 5
62: 5
63: 5
64: 5
65: 5
66: 5
67: 5
68: 5
69: 5
edge from: to
70: 0
70: 1
71: 0
71: 2
71: 3
72: 0
73: 10
73: 11
74: 13
75: 15
75: 16
75: 17
76: 22
76: 23
76: 24
77: 3
77: 25
78: 30
78: 32
79: 36
80: 38
81: 1
82: 44
83: 45
83: 46
83: 48
84: 47
84: 48
85: 50
85: 52
86: 53
86: 55
87: 55
87: 57
88: 59
89: 61
89: 63
2: 70
3: 70
4: 71
5: 71
6: 71
7: 71
8: 72
9: 72
10: 72
11: 72
12: 73
13: 73
14: 73
15: 74
16: 74
17: 74
18: 75
19: 75
20: 75
21: 75
22: 75
23: 75
24: 75
25: 76
26: 76
27: 76
28: 77
29: 77
30: 77
31: 77
32: 77
33: 77
34: 78
35: 78
36: 78
37: 78
38: 78
39: 78
40: 79
41: 79
42: 80
43: 80
44: 80
45: 80
46: 81
47: 81
48: 82
49: 83
50: 83
51: 84
52: 84
53: 84
54: 84
55: 85
56: 85
57: 85
58: 86
59: 86
60: 87
61: 87
62: 87
63: 87
64: 88
65: 88
66: 89
67: 89
68: 89
69: 89
segment: [8]
vertex id: label
56: 0
57: 2
58: 4
59: 1
60: 4
61: 0
62: 2
63: 4
64: 0
65: 1
66: 4
67: 0
68: 2
69: 4
70: 0
71: 2
72: 4
73: 0
74: 1
75: 4
0: 5
1: 5
2: 5
3: 5
4: 5
5: 5
6: 5
7: 5
8: 5
9: 5
10: 5
11: 5
12: 5
13: 5
14: 5
15: 5
16: 5
17: 5
18: 5
19: 5
20: 5
21: 5
22: 5
23: 5
24: 5
25: 5
26: 5
27: 5
28: 5
29: 5
30: 5
31: 5
32: 5
33: 5
34: 5
35: 5
36: 5
37: 5
38: 5
39: 5
40: 5
41: 5
42: 5
43: 5
44: 5
45: 5
46: 5
47: 5
48: 5
49: 5
50: 5
51: 5
52: 5
53: 5
54: 5
55: 5
edge from: to
56: 0
56: 1
56: 2
56: 3
57: 0
58: 0
58: 6
59: 10
60: 9
60: 12
60: 13
60: 14
60: 15
61: 15
61: 16
61: 17
62: 17
63: 22
63: 23
64: 26
64: 27
65: 28
65: 30
66: 31
66: 33
67: 33
68: 35
68: 37
69: 38
69: 39
70: 39
70: 41
70: 43
71: 1
71: 44
72: 44
72: 45
72: 47
73: 45
74: 47
74: 48
74: 50
75: 48
75: 49
4: 56
5: 56
6: 57
7: 58
8: 58
9: 58
10: 58
11: 58
12: 59
13: 59
14: 59
15: 59
16: 60
17: 60
18: 61
19: 62
20: 62
21: 62
22: 62
23: 62
24: 62
25: 63
26: 63
27: 63
28: 63
29: 64
30: 64
31: 64
32: 65
33: 65
34: 65
35: 66
36: 66
37: 67
38: 67
39: 68
40: 68
41: 68
42: 69
43: 69
44: 70
45: 70
46: 70
47: 71
48: 72
49: 73
50: 73
51: 74
52: 75
53: 75
54: 75
55: 75
segment: [9]
vertex id: label
59: 0
60: 1
61: 4
62: 0
63: 2
64: 4
65: 0
66: 2
67: 4
68: 1
69: 4
70: 1
71: 4
72: 1
73: 4
74: 1
75: 4
76: 1
77: 4
78: 0
0: 5
1: 5
2: 5
3: 5
4: 5
5: 5
6: 5
7: 5
8: 5
9: 5
10: 5
11: 5
12: 5
13: 5
14: 5
15: 5
16: 5
17: 5
18: 5
19: 5
20: 5
21: 5
22: 5
23: 5
24: 5
25: 5
26: 5
27: 5
28: 5
29: 5
30: 5
31: 5
32: 5
33: 5
34: 5
35: 5
36: 5
37: 5
38: 5
39: 5
40: 5
41: 5
42: 5
43: 5
44: 5
45: 5
46: 5
47: 5
48: 5
49: 5
50: 5
51: 5
52: 5
53: 5
54: 5
55: 5
56: 5
57: 5
58: 5
edge from: to
59: 0
59: 1
60: 0
61: 0
61: 4
62: 9
63: 11
64: 7
64: 10
64: 12
64: 13
64: 14
65: 16
65: 17
66: 13
66: 20
66: 21
67: 23
67: 24
68: 27
69: 30
69: 32
69: 33
70: 33
70: 35
71: 38
72: 1
72: 42
73: 1
73: 44
74: 44
74: 45
74: 47
75: 47
76: 48
77: 51
77: 53
78: 53
78: 55
2: 59
3: 60
4: 60
5: 61
6: 61
7: 61
8: 61
9: 61
10: 61
11: 62
12: 62
13: 63
14: 63
15: 64
16: 64
17: 64
18: 65
19: 65
20: 65
21: 65
22: 65
23: 66
24: 66
25: 66
26: 67
27: 67
28: 67
29: 67
30: 68
31: 68
32: 68
33: 68
34: 69
35: 69
36: 69
37: 70
38: 70
39: 70
40: 70
41: 70
42: 71
43: 71
44: 71
45: 72
46: 72
47: 73
48: 74
49: 74
50: 74
51: 75
52: 76
53: 76
54: 76
55: 76
56: 77
57: 77
58: 78
