segment: [0]
vertex id: label
61: 0
62: 0
63: 0
64: 2
65: 0
66: 2
67: 0
68: 2
69: 0
70: 2
71: 0
72: 2
73: 0
74: 2
75: 0
76: 2
77: 0
78: 2
79: 0
80: 2
0: 3
1: 3
2: 3
3: 3
4: 3
5: 3
6: 3
7: 3
8: 3
9: 3
10: 3
11: 3
12: 3
13: 3
14: 3
15: 3
16: 3
17: 3
18: 3
19: 3
20: 3
21: 3
22: 3
23: 3
24: 3
25: 3
26: 3
27: 3
28: 3
29: 3
30: 3
31: 3
32: 3
33: 3
34: 3
35: 3
36: 3
37: 3
38: 3
39: 3
40: 3
41: 3
42: 3
43: 3
44: 3
45: 3
46: 3
47: 3
48: 3
49: 3
50: 3
51: 3
52: 3
53: 3
54: 3
55: 3
56: 3
57: 3
58: 3
59: 3
60: 3
edge from: to
61: 0
61: 1
62: 2
62: 7
63: 4
64: 10
64: 13
65: 6
65: 13
65: 17
66: 6
66: 22
67: 7
67: 9
67: 12
67: 26
68: 27
69: 22
69: 30
69: 31
70: 28
70: 34
71: 12
71: 35
72: 13
72: 38
73: 39
74: 11
74: 14
74: 31
74: 41
75: 15
75: 33
76: 38
76: 44
76: 45
76: 46
77: 49
78: 50
78: 51
79: 54
80: 41
80: 55
2: 61
3: 61
4: 61
5: 61
6: 61
7: 61
8: 62
9: 62
10: 62
11: 62
12: 63
13: 63
14: 64
15: 64
16: 64
17: 64
18: 65
19: 65
20: 65
21: 65
22: 65
23: 66
24: 66
25: 66
26: 66
27: 67
28: 68
29: 68
30: 68
31: 68
32: 69
33: 69
34: 69
35: 70
36: 71
37: 71
38: 71
39: 72
40: 73
41: 73
42: 74
43: 74
44: 74
45: 75
46: 75
47: 76
48: 76
49: 76
50: 77
51: 77
52: 78
53: 78
54: 78
55: 79
56: 80
57: 80
58: 80
59: 80
60: 80
segment: [1]
vertex id: label
65: 0
66: 1
67: 1
68: 1
69: 2
70: 0
71: 2
72: 0
73: 1
74: 2
75: 0
76: 2
77: 0
78: 2
79: 0
80: 2
81: 0
82: 1
83: 2
84: 0
0: 3
1: 3
2: 3
3: 3
4: 3
5: 3
6: 3
7: 3
8: 3
9: 3
10: 3
11: 3
12: 3
13: 3
14: 3
15: 3
16: 3
17: 3
18: 3
19: 3
20: 3
21: 3
22: 3
23: 3
24: 3
25: 3
26: 3
27: 3
28: 3
29: 3
30: 3
31: 3
32: 3
33: 3
34: 3
35: 3
36: 3
37: 3
38: 3
39: 3
40: 3
41: 3
42: 3
43: 3
44: 3
45: 3
46: 3
47: 3
48: 3
49: 3
50: 3
51: 3
52: 3
53: 3
54: 3
55: 3
56: 3
57: 3
58: 3
59: 3
60: 3
61: 3
62: 3
63: 3
64: 3
edge from: to
65: 0
65: 1
66: 2
67: 5
67: 6
68: 3
69: 5
69: 7
69: 8
69: 10
70: 5
70: 11
71: 12
71: 16
72: 9
72: 19
73: 6
73: 22
74: 18
74: 24
75: 22
75: 25
75: 30
75: 31
76: 28
76: 34
77: 37
78: 11
78: 14
78: 31
79: 15
79: 33
80: 16
80: 47
81: 40
81: 48
81: 49
82: 39
82: 52
83: 57
84: 60
2: 65
3: 65
4: 65
5: 65
6: 66
7: 67
8: 67
9: 68
10: 68
11: 69
12: 69
13: 69
14: 69
15: 70
16: 70
17: 71
18: 71
19: 71
20: 72
21: 72
22: 72
23: 73
24: 73
25: 74
26: 74
27: 74
28: 74
29: 74
30: 74
31: 74
32: 75
33: 75
34: 75
35: 76
36: 76
37: 76
38: 77
39: 77
40: 77
41: 77
42: 78
43: 78
44: 78
45: 79
46: 79
47: 79
48: 80
49: 80
50: 81
51: 81
52: 81
53: 82
54: 82
55: 82
56: 82
57: 82
58: 83
59: 83
60: 83
61: 84
62: 84
63: 84
64: 84
segment: [2]
vertex id: label
53: 0
54: 0
55: 1
56: 2
57: 0
58: 0
59: 0
60: 2
61: 0
62: 2
63: 0
64: 2
65: 0
66: 2
67: 0
68: 2
69: 0
70: 2
71: 0
72: 2
0: 3
1: 3
2: 3
3: 3
4: 3
5: 3
6: 3
7: 3
8: 3
9: 3
10: 3
11: 3
12: 3
13: 3
14: 3
15: 3
16: 3
17: 3
18: 3
19: 3
20: 3
21: 3
22: 3
23: 3
24: 3
25: 3
26: 3
27: 3
28: 3
29: 3
30: 3
31: 3
32: 3
33: 3
34: 3
35: 3
36: 3
37: 3
38: 3
39: 3
40: 3
41: 3
42: 3
43: 3
44: 3
45: 3
46: 3
47: 3
48: 3
49: 3
50: 3
51: 3
52: 3
edge from: to
53: 0
54: 1
55: 1
55: 2
55: 3
56: 2
56: 3
56: 5
56: 6
57: 1
57: 7
57: 8
57: 9
58: 5
58: 11
59: 12
59: 16
60: 14
60: 18
61: 8
62: 16
62: 22
62: 26
62: 27
63: 10
63: 22
64: 31
65: 25
65: 27
65: 33
66: 34
67: 36
68: 30
68: 33
68: 40
69: 14
70: 38
70: 46
71: 22
71: 34
71: 36
71: 47
71: 48
72: 40
72: 48
72: 49
1: 53
2: 54
3: 54
4: 55
5: 55
6: 55
7: 56
8: 56
9: 56
10: 57
11: 57
12: 57
13: 57
14: 57
15: 58
16: 58
17: 59
18: 59
19: 60
20: 60
21: 60
22: 60
23: 60
24: 61
25: 61
26: 61
27: 61
28: 62
29: 62
30: 63
31: 63
32: 64
33: 64
34: 65
35: 66
36: 66
37: 67
38: 67
39: 67
40: 67
41: 68
42: 69
43: 69
44: 69
45: 69
46: 69
47: 70
48: 70
49: 71
50: 72
51: 72
52: 72
segment: [3]
vertex id: label
69: 0
70: 2
71: 0
72: 0
73: 2
74: 0
75: 1
76: 2
77: 0
78: 2
79: 0
80: 2
81: 0
82: 2
83: 0
84: 2
85: 0
86: 0
87: 2
88: 0
0: 3
1: 3
2: 3
3: 3
4: 3
5: 3
6: 3
7: 3
8: 3
9: 3
10: 3
11: 3
12: 3
13: 3
14: 3
15: 3
16: 3
17: 3
18: 3
19: 3
20: 3
21: 3
22: 3
23: 3
24: 3
25: 3
26: 3
27: 3
28: 3
29: 3
30: 3
31: 3
32: 3
33: 3
34: 3
35: 3
36: 3
37: 3
38: 3
39: 3
40: 3
41: 3
42: 3
43: 3
44: 3
45: 3
46: 3
47: 3
48: 3
49: 3
50: 3
51: 3
52: 3
53: 3
54: 3
55: 3
56: 3
57: 3
58: 3
59: 3
60: 3
61: 3
62: 3
63: 3
64: 3
65: 3
66: 3
67: 3
68: 3
edge from: to
69: 0
69: 1
69: 2
69: 3
70: 7
70: 9
71: 12
71: 16
72: 7
72: 15
72: 20
73: 16
73: 21
74: 24
75: 22
75: 27
76: 10
76: 22
76: 29
77: 11
78: 24
78: 28
78: 34
79: 12
79: 35
80: 18
80: 31
80: 32
80: 38
80: 39
81: 15
82: 38
82: 46
83: 17
83: 23
83: 49
83: 50
84: 53
84: 54
85: 55
86: 45
86: 60
87: 21
88: 48
88: 64
4: 69
5: 69
6: 69
7: 69
8: 69
9: 69
10: 70
11: 70
12: 70
13: 70
14: 70
15: 70
16: 70
17: 71
18: 71
19: 71
20: 71
21: 72
22: 73
23: 73
24: 73
25: 74
26: 74
27: 74
28: 75
29: 75
30: 76
31: 76
32: 76
33: 77
34: 77
35: 78
36: 79
37: 79
38: 79
39: 79
40: 80
41: 80
42: 80
43: 80
44: 80
45: 81
46: 81
47: 82
48: 82
49: 82
50: 82
51: 83
52: 83
53: 83
54: 83
55: 84
56: 85
57: 85
58: 85
59: 85
60: 85
61: 86
62: 86
63: 87
64: 87
65: 88
66: 88
67: 88
68: 88
segment: [4]
vertex id: label
65: 0
66: 0
67: 1
68: 2
69: 0
70: 2
71: 0
72: 0
73: 2
74: 0
75: 2
76: 0
77: 1
78: 2
79: 0
80: 1
81: 2
82: 0
83: 2
84: 0
0: 3
1: 3
2: 3
3: 3
4: 3
5: 3
6: 3
7: 3
8: 3
9: 3
10: 3
11: 3
12: 3
13: 3
14: 3
15: 3
16: 3
17: 3
18: 3
19: 3
20: 3
21: 3
22: 3
23: 3
24: 3
25: 3
26: 3
27: 3
28: 3
29: 3
30: 3
31: 3
32: 3
33: 3
34: 3
35: 3
36: 3
37: 3
38: 3
39: 3
40: 3
41: 3
42: 3
43: 3
44: 3
45: 3
46: 3
47: 3
48: 3
49: 3
50: 3
51: 3
52: 3
53: 3
54: 3
55: 3
56: 3
57: 3
58: 3
59: 3
60: 3
61: 3
62: 3
63: 3
64: 3
edge from: to
65: 0
65: 1
66: 3
66: 4
67: 3
67: 5
67: 6
68: 7
68: 9
69: 5
70: 6
71: 9
71: 19
72: 22
73: 8
74: 18
74: 24
75: 10
75: 22
75: 29
76: 24
76: 28
76: 34
77: 28
77: 37
78: 41
78: 42
79: 46
80: 17
80: 50
81: 53
81: 54
82: 19
82: 42
82: 55
83: 20
83: 27
83: 44
83: 58
84: 21
84: 62
2: 65
3: 65
4: 65
5: 66
6: 66
7: 67
8: 67
9: 67
10: 68
11: 68
12: 68
13: 68
14: 68
15: 69
16: 69
17: 69
18: 70
19: 70
20: 71
21: 71
22: 71
23: 72
24: 73
25: 74
26: 74
27: 74
28: 74
29: 74
30: 75
31: 75
32: 75
33: 75
34: 75
35: 76
36: 76
37: 76
38: 77
39: 77
40: 77
41: 77
42: 77
43: 78
44: 78
45: 78
46: 78
47: 79
48: 79
49: 79
50: 79
51: 80
52: 80
53: 80
54: 80
55: 81
56: 81
57: 82
58: 82
59: 82
60: 83
61: 83
62: 83
63: 84
64: 84
segment: [5]
vertex id: label
56: 0
57: 2
58: 0
59: 2
60: 0
61: 0
62: 1
63: 2
64: 0
65: 0
66: 1
67: 2
68: 0
69: 2
70: 0
71: 0
72: 0
73: 2
74: 0
75: 1
0: 3
1: 3
2: 3
3: 3
4: 3
5: 3
6: 3
7: 3
8: 3
9: 3
10: 3
11: 3
12: 3
13: 3
14: 3
15: 3
16: 3
17: 3
18: 3
19: 3
20: 3
21: 3
22: 3
23: 3
24: 3
25: 3
26: 3
27: 3
28: 3
29: 3
30: 3
31: 3
32: 3
33: 3
34: 3
35: 3
36: 3
37: 3
38: 3
39: 3
40: 3
41: 3
42: 3
43: 3
44: 3
45: 3
46: 3
47: 3
48: 3
49: 3
50: 3
51: 3
52: 3
53: 3
54: 3
55: 3
edge from: to
56: 0
57: 0
57: 1
57: 2
58: 3
58: 4
59: 2
59: 4
60: 7
60: 9
61: 5
62: 6
62: 13
63: 10
63: 15
63: 16
63: 17
63: 20
63: 21
64: 18
64: 24
65: 22
65: 27
66: 10
66: 22
67: 22
67: 31
68: 33
69: 4
69: 12
69: 25
69: 29
69: 35
70: 17
70: 28
70: 37
71: 13
71: 31
71: 38
72: 41
72: 42
73: 43
74: 16
74: 46
74: 47
75: 17
75: 49
75: 50
1: 56
3: 57
4: 57
5: 58
6: 59
7: 59
8: 59
9: 59
10: 60
11: 60
12: 60
13: 60
14: 60
15: 61
16: 61
17: 61
18: 62
19: 62
20: 62
21: 62
22: 63
23: 63
24: 63
25: 64
26: 64
27: 64
28: 65
29: 65
30: 66
31: 66
32: 67
33: 67
34: 68
35: 68
36: 69
37: 69
38: 70
39: 71
40: 71
41: 71
42: 71
43: 72
44: 73
45: 73
46: 73
47: 73
48: 74
49: 74
50: 74
51: 75
52: 75
53: 75
54: 75
55: 75
segment: [6]
vertex id: label
57: 0
58: 1
59: 1
60: 2
61: 0
62: 1
63: 2
64: 0
65: 2
66: 0
67: 0
68: 2
69: 0
70: 2
71: 0
72: 1
73: 2
74: 0
75: 0
76: 2
0: 3
1: 3
2: 3
3: 3
4: 3
5: 3
6: 3
7: 3
8: 3
9: 3
10: 3
11: 3
12: 3
13: 3
14: 3
15: 3
16: 3
17: 3
18: 3
19: 3
20: 3
21: 3
22: 3
23: 3
24: 3
25: 3
26: 3
27: 3
28: 3
29: 3
30: 3
31: 3
32: 3
33: 3
34: 3
35: 3
36: 3
37: 3
38: 3
39: 3
40: 3
41: 3
42: 3
43: 3
44: 3
45: 3
46: 3
47: 3
48: 3
49: 3
50: 3
51: 3
52: 3
53: 3
54: 3
55: 3
56: 3
edge from: to
57: 0
58: 2
59: 3
60: 7
60: 8
60: 9
61: 4
62: 7
62: 15
63: 14
63: 15
63: 18
64: 7
65: 10
65: 15
65: 16
65: 17
65: 21
66: 18
66: 20
66: 24
67: 7
67: 9
67: 26
68: 21
68: 28
69: 25
69: 27
69: 33
70: 13
70: 31
70: 38
71: 14
72: 41
72: 42
73: 12
73: 45
74: 16
75: 17
76: 44
76: 53
76: 54
1: 57
2: 57
3: 57
4: 57
5: 57
6: 58
7: 58
8: 58
9: 59
10: 60
11: 60
12: 61
13: 61
14: 61
15: 61
16: 62
17: 62
18: 62
19: 63
20: 63
21: 64
22: 65
23: 65
24: 65
25: 66
26: 66
27: 67
28: 67
29: 68
30: 68
31: 68
32: 68
33: 68
34: 69
35: 69
36: 69
37: 69
38: 69
39: 70
40: 70
41: 70
42: 71
43: 72
44: 72
45: 72
46: 73
47: 73
48: 74
49: 74
50: 74
51: 75
52: 75
53: 75
54: 75
55: 76
56: 76
segment: [7]
vertex id: label
66: 0
67: 0
68: 2
69: 0
70: 1
71: 2
72: 0
73: 1
74: 2
75: 0
76: 2
77: 0
78: 2
79: 0
80: 2
81: 0
82: 1
83: 2
84: 0
85: 2
0: 3
1: 3
2: 3
3: 3
4: 3
5: 3
6: 3
7: 3
8: 3
9: 3
10: 3
11: 3
12: 3
13: 3
14: 3
15: 3
16: 3
17: 3
18: 3
19: 3
20: 3
21: 3
22: 3
23: 3
24: 3
25: 3
26: 3
27: 3
28: 3
29: 3
30: 3
31: 3
32: 3
33: 3
34: 3
35: 3
36: 3
37: 3
38: 3
39: 3
40: 3
41: 3
42: 3
43: 3
44: 3
45: 3
46: 3
47: 3
48: 3
49: 3
50: 3
51: 3
52: 3
53: 3
54: 3
55: 3
56: 3
57: 3
58: 3
59: 3
60: 3
61: 3
62: 3
63: 3
64: 3
65: 3
edge from: to
66: 0
67: 2
67: 4
67: 5
68: 4
69: 10
69: 11
69: 13
70: 14
70: 18
71: 7
72: 18
72: 19
72: 21
72: 24
72: 25
73: 10
73: 22
73: 29
74: 14
74: 30
75: 22
75: 31
76: 34
77: 18
77: 32
77: 39
78: 12
78: 45
79: 36
79: 48
80: 49
81: 53
81: 54
82: 19
83: 41
83: 57
83: 58
84: 45
84: 49
84: 59
84: 60
85: 47
85: 63
1: 66
2: 66
3: 66
4: 66
5: 66
6: 67
7: 67
8: 67
9: 67
10: 67
11: 67
12: 68
13: 68
14: 69
15: 69
16: 69
17: 69
18: 69
19: 70
20: 70
21: 71
22: 71
23: 71
24: 71
25: 71
26: 72
27: 72
28: 72
29: 72
30: 73
31: 74
32: 75
33: 75
34: 75
35: 76
36: 76
37: 76
38: 76
39: 76
40: 77
41: 77
42: 77
43: 77
44: 77
45: 77
46: 78
47: 78
48: 78
49: 79
50: 80
51: 80
52: 80
53: 80
54: 80
55: 81
56: 81
57: 82
58: 82
59: 83
60: 83
61: 84
62: 84
63: 84
64: 85
65: 85
segment: [8]
vertex id: label
68: 0
69: 2
70: 0
71: 1
72: 2
73: 0
74: 2
75: 0
76: 2
77: 0
78: 2
79: 0
80: 2
81: 0
82: 1
83: 2
84: 0
85: 2
86: 0
87: 2
0: 3
1: 3
2: 3
3: 3
4: 3
5: 3
6: 3
7: 3
8: 3
9: 3
10: 3
11: 3
12: 3
13: 3
14: 3
15: 3
16: 3
17: 3
18: 3
19: 3
20: 3
21: 3
22: 3
23: 3
24: 3
25: 3
26: 3
27: 3
28: 3
29: 3
30: 3
31: 3
32: 3
33: 3
34: 3
35: 3
36: 3
37: 3
38: 3
39: 3
40: 3
41: 3
42: 3
43: 3
44: 3
45: 3
46: 3
47: 3
48: 3
49: 3
50: 3
51: 3
52: 3
53: 3
54: 3
55: 3
56: 3
57: 3
58: 3
59: 3
60: 3
61: 3
62: 3
63: 3
64: 3
65: 3
66: 3
67: 3
edge from: to
68: 0
68: 1
68: 2
69: 1
69: 2
69: 3
70: 7
71: 4
71: 11
72: 5
72: 11
73: 12
73: 16
74: 14
74: 18
75: 18
75: 24
76: 13
76: 21
76: 28
77: 30
78: 11
78: 24
78: 32
79: 24
79: 28
79: 34
80: 13
81: 35
81: 41
81: 42
81: 43
82: 50
82: 51
83: 55
84: 19
84: 42
85: 56
85: 57
86: 28
86: 60
86: 61
87: 48
87: 64
3: 68
4: 69
5: 69
6: 69
7: 69
8: 70
9: 70
10: 70
11: 70
12: 71
13: 71
14: 71
15: 72
16: 72
17: 73
18: 73
19: 74
20: 74
21: 74
22: 74
23: 74
24: 74
25: 75
26: 75
27: 75
28: 75
29: 76
30: 76
31: 77
32: 77
33: 78
34: 78
35: 79
36: 79
37: 79
38: 79
39: 80
40: 80
41: 80
42: 80
43: 80
44: 81
45: 81
46: 81
47: 81
48: 81
49: 81
50: 81
51: 81
52: 82
53: 82
54: 82
55: 82
56: 83
57: 84
58: 85
59: 85
60: 85
61: 85
62: 86
63: 86
64: 86
65: 87
66: 87
67: 87
segment: [9]
vertex id: label
62: 0
63: 2
64: 0
65: 1
66: 2
67: 0
68: 2
69: 0
70: 2
71: 0
72: 0
73: 0
74: 2
75: 0
76: 1
77: 2
78: 0
79: 2
80: 0
81: 0
0: 3
1: 3
2: 3
3: 3
4: 3
5: 3
6: 3
7: 3
8: 3
9: 3
10: 3
11: 3
12: 3
13: 3
14: 3
15: 3
16: 3
17: 3
18: 3
19: 3
20: 3
21: 3
22: 3
23: 3
24: 3
25: 3
26: 3
27: 3
28: 3
29: 3
30: 3
31: 3
32: 3
33: 3
34: 3
35: 3
36: 3
37: 3
38: 3
39: 3
40: 3
41: 3
42: 3
43: 3
44: 3
45: 3
46: 3
47: 3
48: 3
49: 3
50: 3
51: 3
52: 3
53: 3
54: 3
55: 3
56: 3
57: 3
58: 3
59: 3
60: 3
61: 3
edge from: to
62: 0
63: 7
64: 7
64: 8
64: 9
65: 4
65: 11
66: 10
66: 11
66: 13
67: 12
67: 13
67: 15
67: 16
68: 19
69: 6
69: 22
70: 18
70: 24
71: 27
72: 10
73: 27
73: 36
74: 30
74: 40
75: 15
75: 33
75: 36
75: 43
75: 44
76: 46
77: 48
78: 39
78: 52
79: 54
80: 19
81: 41
81: 57
81: 58
1: 62
2: 62
3: 62
4: 62
5: 62
6: 62
7: 62
8: 63
9: 63
10: 64
11: 64
12: 65
13: 65
14: 66
15: 66
16: 66
17: 67
18: 67
19: 67
20: 68
21: 68
22: 68
23: 69
24: 69
25: 70
26: 70
27: 70
28: 71
29: 71
30: 72
31: 72
32: 72
33: 72
34: 72
35: 72
36: 72
37: 73
38: 73
39: 73
40: 73
41: 74
42: 74
43: 74
44: 74
45: 75
46: 75
47: 76
48: 76
49: 77
50: 77
51: 77
52: 77
53: 78
54: 78
55: 79
56: 79
57: 80
58: 80
59: 81
60: 81
61: 81
