segment: [0]
vertex id: label
68: 0
69: 0
70: 0
71: 0
72: 0
73: 0
74: 0
75: 0
76: 0
77: 0
78: 0
79: 0
80: 0
81: 0
82: 0
83: 0
84: 0
85: 0
86: 0
87: 2
0: 3
1: 3
2: 3
3: 3
4: 3
5: 3
6: 3
7: 3
8: 3
9: 3
10: 3
11: 3
12: 3
13: 3
14: 3
15: 3
16: 3
17: 3
18: 3
19: 3
20: 3
21: 3
22: 3
23: 3
24: 3
25: 3
26: 3
27: 3
28: 3
29: 3
30: 3
31: 3
32: 3
33: 3
34: 3
35: 3
36: 3
37: 3
38: 3
39: 3
40: 3
41: 3
42: 3
43: 3
44: 3
45: 3
46: 3
47: 3
48: 3
49: 3
50: 3
51: 3
52: 3
53: 3
54: 3
55: 3
56: 3
57: 3
58: 3
59: 3
60: 3
61: 3
62: 3
63: 3
64: 3
65: 3
66: 3
67: 3
edge from: to
68: 0
68: 1
68: 2
69: 4
70: 4
70: 7
71: 6
71: 12
72: 12
73: 8
73: 16
74: 9
74: 18
75: 20
75: 21
75: 22
76: 23
76: 25
77: 10
77: 20
77: 21
77: 24
77: 25
77: 26
77: 27
78: 29
78: 30
78: 31
79: 32
79: 33
80: 37
80: 38
81: 37
81: 38
81: 40
82: 40
83: 45
83: 47
84: 47
84: 50
85: 51
85: 53
86: 57
86: 59
87: 57
3: 68
4: 68
5: 69
6: 69
7: 69
8: 69
9: 70
10: 70
11: 70
12: 70
13: 71
14: 72
15: 72
16: 72
17: 73
18: 73
19: 74
20: 74
21: 74
22: 74
23: 75
24: 75
25: 75
26: 76
27: 76
28: 77
29: 77
30: 77
31: 77
32: 78
33: 78
34: 79
35: 79
36: 79
37: 79
38: 79
39: 80
40: 80
41: 81
42: 81
43: 81
44: 82
45: 82
46: 82
47: 82
48: 83
49: 83
50: 83
51: 84
52: 84
53: 84
54: 85
55: 85
56: 85
57: 85
58: 85
59: 85
60: 86
61: 86
62: 87
63: 87
64: 87
65: 87
66: 87
67: 87
segment: [1]
vertex id: label
51: 0
52: 0
53: 0
54: 0
55: 0
56: 0
57: 0
58: 0
59: 0
60: 0
61: 0
62: 0
63: 0
64: 0
65: 0
66: 0
67: 0
68: 0
69: 0
70: 0
0: 3
1: 3
2: 3
3: 3
4: 3
5: 3
6: 3
7: 3
8: 3
9: 3
10: 3
11: 3
12: 3
13: 3
14: 3
15: 3
16: 3
17: 3
18: 3
19: 3
20: 3
21: 3
22: 3
23: 3
24: 3
25: 3
26: 3
27: 3
28: 3
29: 3
30: 3
31: 3
32: 3
33: 3
34: 3
35: 3
36: 3
37: 3
38: 3
39: 3
40: 3
41: 3
42: 3
43: 3
44: 3
45: 3
46: 3
47: 3
48: 3
49: 3
50: 3
edge from: to
51: 0
52: 0
52: 1
53: 4
53: 5
54: 4
54: 5
54: 6
54: 7
55: 7
56: 8
56: 9
57: 12
58: 14
59: 13
59: 15
60: 16
61: 10
61: 18
62: 21
63: 25
63: 26
64: 25
64: 27
64: 28
65: 32
66: 17
66: 33
66: 34
67: 37
67: 38
68: 39
68: 40
68: 42
69: 42
69: 43
69: 45
70: 47
70: 49
1: 51
2: 52
3: 52
4: 52
5: 52
6: 53
7: 53
8: 54
9: 55
10: 56
11: 56
12: 56
13: 56
14: 57
15: 58
16: 59
17: 60
18: 60
19: 60
20: 60
21: 61
22: 61
23: 61
24: 62
25: 62
26: 62
27: 63
28: 63
29: 64
30: 64
31: 64
32: 64
33: 64
34: 65
35: 65
36: 66
37: 66
38: 66
39: 67
40: 67
41: 67
42: 67
43: 68
44: 68
45: 68
46: 69
47: 69
48: 69
49: 69
50: 70
segment: [2]
vertex id: label
70: 0
71: 0
72: 0
73: 0
74: 0
75: 0
76: 0
77: 0
78: 0
79: 0
80: 2
81: 0
82: 0
83: 0
84: 0
85: 0
86: 0
87: 0
88: 0
89: 0
0: 3
1: 3
2: 3
3: 3
4: 3
5: 3
6: 3
7: 3
8: 3
9: 3
10: 3
11: 3
12: 3
13: 3
14: 3
15: 3
16: 3
17: 3
18: 3
19: 3
20: 3
21: 3
22: 3
23: 3
24: 3
25: 3
26: 3
27: 3
28: 3
29: 3
30: 3
31: 3
32: 3
33: 3
34: 3
35: 3
36: 3
37: 3
38: 3
39: 3
40: 3
41: 3
42: 3
43: 3
44: 3
45: 3
46: 3
47: 3
48: 3
49: 3
50: 3
51: 3
52: 3
53: 3
54: 3
55: 3
56: 3
57: 3
58: 3
59: 3
60: 3
61: 3
62: 3
63: 3
64: 3
65: 3
66: 3
67: 3
68: 3
69: 3
edge from: to
70: 0
70: 1
71: 6
72: 1
72: 5
72: 9
72: 10
73: 6
73: 12
74: 16
75: 10
75: 18
76: 2
76: 19
76: 20
76: 21
77: 27
78: 28
78: 30
79: 30
80: 32
80: 33
81: 34
82: 37
82: 38
83: 39
83: 40
83: 42
84: 42
84: 43
84: 45
85: 46
85: 48
86: 54
86: 56
87: 57
87: 59
88: 57
89: 4
89: 61
89: 63
89: 65
2: 70
3: 70
4: 70
5: 70
6: 70
7: 70
8: 71
9: 71
10: 71
11: 72
12: 72
13: 73
14: 73
15: 73
16: 73
17: 74
18: 74
19: 74
20: 74
21: 75
22: 76
23: 76
24: 76
25: 76
26: 76
27: 76
28: 76
29: 77
30: 77
31: 78
32: 79
33: 79
34: 80
35: 80
36: 81
37: 81
38: 81
39: 82
40: 82
41: 82
42: 82
43: 83
44: 83
45: 83
46: 84
47: 84
48: 84
49: 85
50: 85
51: 85
52: 85
53: 85
54: 85
55: 85
56: 85
57: 86
58: 86
59: 86
60: 87
61: 87
62: 88
63: 88
64: 88
65: 88
66: 89
67: 89
68: 89
69: 89
segment: [3]
vertex id: label
58: 0
59: 2
60: 0
61: 0
62: 0
63: 0
64: 0
65: 0
66: 0
67: 0
68: 0
69: 0
70: 0
71: 0
72: 0
73: 0
74: 0
75: 0
76: 0
77: 0
0: 3
1: 3
2: 3
3: 3
4: 3
5: 3
6: 3
7: 3
8: 3
9: 3
10: 3
11: 3
12: 3
13: 3
14: 3
15: 3
16: 3
17: 3
18: 3
19: 3
20: 3
21: 3
22: 3
23: 3
24: 3
25: 3
26: 3
27: 3
28: 3
29: 3
30: 3
31: 3
32: 3
33: 3
34: 3
35: 3
36: 3
37: 3
38: 3
39: 3
40: 3
41: 3
42: 3
43: 3
44: 3
45: 3
46: 3
47: 3
48: 3
49: 3
50: 3
51: 3
52: 3
53: 3
54: 3
55: 3
56: 3
57: 3
edge from: to
58: 0
59: 0
59: 1
59: 2
60: 7
61: 5
61: 9
61: 10
62: 12
62: 13
63: 8
63: 16
64: 10
64: 18
65: 21
65: 23
66: 23
66: 24
66: 25
67: 27
67: 29
68: 28
69: 31
69: 32
70: 2
70: 31
70: 32
70: 33
71: 18
71: 36
72: 19
72: 38
73: 37
73: 38
73: 40
74: 22
74: 36
74: 39
74: 40
74: 42
75: 41
75: 42
75: 44
76: 44
76: 46
77: 49
77: 51
77: 52
77: 54
1: 58
2: 58
3: 59
4: 59
5: 59
6: 59
7: 59
8: 59
9: 60
10: 60
11: 61
12: 61
13: 61
14: 62
15: 62
16: 62
17: 63
18: 63
19: 63
20: 63
21: 64
22: 64
23: 64
24: 65
25: 65
26: 66
27: 66
28: 66
29: 66
30: 67
31: 68
32: 68
33: 69
34: 70
35: 70
36: 70
37: 70
38: 71
39: 71
40: 72
41: 73
42: 73
43: 74
44: 74
45: 75
46: 75
47: 76
48: 76
49: 76
50: 76
51: 76
52: 76
53: 76
54: 76
55: 77
56: 77
57: 77
segment: [4]
vertex id: label
66: 0
67: 0
68: 0
69: 0
70: 0
71: 0
72: 0
73: 0
74: 0
75: 0
76: 0
77: 0
78: 0
79: 0
80: 0
81: 0
82: 0
83: 0
84: 2
85: 0
0: 3
1: 3
2: 3
3: 3
4: 3
5: 3
6: 3
7: 3
8: 3
9: 3
10: 3
11: 3
12: 3
13: 3
14: 3
15: 3
16: 3
17: 3
18: 3
19: 3
20: 3
21: 3
22: 3
23: 3
24: 3
25: 3
26: 3
27: 3
28: 3
29: 3
30: 3
31: 3
32: 3
33: 3
34: 3
35: 3
36: 3
37: 3
38: 3
39: 3
40: 3
41: 3
42: 3
43: 3
44: 3
45: 3
46: 3
47: 3
48: 3
49: 3
50: 3
51: 3
52: 3
53: 3
54: 3
55: 3
56: 3
57: 3
58: 3
59: 3
60: 3
61: 3
62: 3
63: 3
64: 3
65: 3
edge from: to
66: 0
66: 1
67: 3
67: 4
67: 5
68: 3
68: 6
69: 8
70: 5
70: 9
70: 10
71: 14
72: 1
72: 15
72: 17
73: 18
74: 21
75: 25
75: 26
76: 30
77: 34
78: 37
79: 39
79: 40
79: 42
80: 47
80: 49
81: 47
81: 50
82: 48
82: 49
82: 51
83: 47
83: 49
83: 51
83: 52
83: 54
84: 49
84: 53
84: 54
84: 55
84: 57
85: 57
85: 58
85: 59
85: 61
2: 66
3: 66
4: 66
5: 66
6: 67
7: 68
8: 68
9: 68
10: 69
11: 70
12: 70
13: 70
14: 70
15: 71
16: 71
17: 71
18: 72
19: 73
20: 73
21: 73
22: 73
23: 73
24: 74
25: 74
26: 74
27: 75
28: 75
29: 75
30: 75
31: 75
32: 76
33: 76
34: 76
35: 76
36: 77
37: 77
38: 77
39: 78
40: 78
41: 78
42: 78
43: 79
44: 79
45: 79
46: 79
47: 79
48: 79
49: 79
50: 80
51: 81
52: 82
53: 82
54: 82
55: 83
56: 83
57: 83
58: 84
59: 84
60: 84
61: 84
62: 85
63: 85
64: 85
65: 85
segment: [5]
vertex id: label
65: 0
66: 0
67: 0
68: 0
69: 0
70: 0
71: 0
72: 0
73: 0
74: 0
75: 0
76: 2
77: 0
78: 0
79: 0
80: 0
81: 0
82: 0
83: 0
84: 0
0: 3
1: 3
2: 3
3: 3
4: 3
5: 3
6: 3
7: 3
8: 3
9: 3
10: 3
11: 3
12: 3
13: 3
14: 3
15: 3
16: 3
17: 3
18: 3
19: 3
20: 3
21: 3
22: 3
23: 3
24: 3
25: 3
26: 3
27: 3
28: 3
29: 3
30: 3
31: 3
32: 3
33: 3
34: 3
35: 3
36: 3
37: 3
38: 3
39: 3
40: 3
41: 3
42: 3
43: 3
44: 3
45: 3
46: 3
47: 3
48: 3
49: 3
50: 3
51: 3
52: 3
53: 3
54: 3
55: 3
56: 3
57: 3
58: 3
59: 3
60: 3
61: 3
62: 3
63: 3
64: 3
edge from: to
65: 0
65: 1
65: 2
66: 3
66: 4
66: 5
67: 6
67: 7
68: 5
68: 10
69: 13
69: 15
70: 15
70: 17
71: 14
71: 18
71: 19
72: 23
73: 26
74: 27
74: 29
75: 31
75: 32
75: 33
76: 17
76: 33
76: 34
77: 19
77: 37
77: 38
78: 41
78: 44
79: 43
79: 44
79: 46
80: 49
81: 53
82: 56
83: 57
83: 58
83: 61
84: 60
3: 65
4: 65
5: 65
6: 66
7: 66
8: 67
9: 67
10: 67
11: 68
12: 68
13: 68
14: 68
15: 68
16: 69
17: 69
18: 70
19: 70
20: 71
21: 71
22: 71
23: 71
24: 71
25: 71
26: 72
27: 72
28: 73
29: 73
30: 74
31: 74
32: 74
33: 74
34: 75
35: 75
36: 76
37: 76
38: 76
39: 76
40: 77
41: 77
42: 77
43: 77
44: 77
45: 78
46: 78
47: 79
48: 79
49: 79
50: 79
51: 79
52: 79
53: 80
54: 80
55: 80
56: 81
57: 81
58: 81
59: 82
60: 82
61: 82
62: 83
63: 83
64: 84
segment: [6]
vertex id: label
57: 0
58: 0
59: 0
60: 0
61: 0
62: 0
63: 0
64: 0
65: 0
66: 0
67: 0
68: 0
69: 0
70: 0
71: 0
72: 0
73: 0
74: 0
75: 0
76: 0
0: 3
1: 3
2: 3
3: 3
4: 3
5: 3
6: 3
7: 3
8: 3
9: 3
10: 3
11: 3
12: 3
13: 3
14: 3
15: 3
16: 3
17: 3
18: 3
19: 3
20: 3
21: 3
22: 3
23: 3
24: 3
25: 3
26: 3
27: 3
28: 3
29: 3
30: 3
31: 3
32: 3
33: 3
34: 3
35: 3
36: 3
37: 3
38: 3
39: 3
40: 3
41: 3
42: 3
43: 3
44: 3
45: 3
46: 3
47: 3
48: 3
49: 3
50: 3
51: 3
52: 3
53: 3
54: 3
55: 3
56: 3
edge from: to
57: 0
58: 5
59: 6
60: 12
61: 13
61: 15
62: 15
62: 17
63: 14
63: 18
63: 19
64: 20
65: 25
65: 26
66: 29
66: 30
66: 31
67: 17
67: 33
67: 34
67: 35
68: 18
68: 35
68: 36
69: 22
69: 39
69: 40
69: 42
70: 40
70: 41
70: 43
71: 41
71: 44
72: 42
73: 45
73: 47
74: 45
74: 46
74: 48
75: 48
75: 49
75: 51
76: 49
1: 57
2: 57
3: 57
4: 57
5: 57
6: 58
7: 58
8: 59
9: 59
10: 59
11: 59
12: 59
13: 60
14: 60
15: 60
16: 61
17: 61
18: 62
19: 62
20: 63
21: 63
22: 63
23: 64
24: 64
25: 64
26: 64
27: 65
28: 65
29: 65
30: 65
31: 65
32: 66
33: 66
34: 66
35: 66
36: 67
37: 67
38: 68
39: 68
40: 68
41: 68
42: 68
43: 69
44: 70
45: 71
46: 72
47: 72
48: 73
49: 74
50: 74
51: 74
52: 75
53: 76
54: 76
55: 76
56: 76
segment: [7]
vertex id: label
55: 0
56: 0
57: 0
58: 0
59: 0
60: 0
61: 0
62: 0
63: 0
64: 0
65: 0
66: 0
67: 0
68: 0
69: 0
70: 0
71: 0
72: 0
73: 0
74: 0
0: 3
1: 3
2: 3
3: 3
4: 3
5: 3
6: 3
7: 3
8: 3
9: 3
10: 3
11: 3
12: 3
13: 3
14: 3
15: 3
16: 3
17: 3
18: 3
19: 3
20: 3
21: 3
22: 3
23: 3
24: 3
25: 3
26: 3
27: 3
28: 3
29: 3
30: 3
31: 3
32: 3
33: 3
34: 3
35: 3
36: 3
37: 3
38: 3
39: 3
40: 3
41: 3
42: 3
43: 3
44: 3
45: 3
46: 3
47: 3
48: 3
49: 3
50: 3
51: 3
52: 3
53: 3
54: 3
edge from: to
55: 0
56: 1
56: 2
57: 0
57: 3
58: 7
59: 8
60: 12
61: 15
61: 17
62: 10
62: 18
63: 20
63: 22
64: 25
64: 26
65: 27
66: 30
67: 32
67: 33
68: 17
68: 33
68: 34
68: 35
69: 18
69: 35
69: 36
70: 20
70: 37
70: 38
71: 44
71: 46
72: 46
73: 48
74: 51
74: 53
1: 55
2: 55
3: 56
4: 57
5: 57
6: 57
7: 57
8: 57
9: 58
10: 59
11: 59
12: 59
13: 60
14: 60
15: 60
16: 60
17: 60
18: 61
19: 61
20: 61
21: 62
22: 62
23: 63
24: 63
25: 63
26: 63
27: 64
28: 64
29: 64
30: 65
31: 65
32: 66
33: 66
34: 67
35: 67
36: 68
37: 68
38: 69
39: 69
40: 69
41: 69
42: 70
43: 70
44: 70
45: 70
46: 70
47: 71
48: 71
49: 72
50: 72
51: 72
52: 73
53: 73
54: 74
segment: [8]
vertex id: label
68: 0
69: 0
70: 0
71: 0
72: 0
73: 0
74: 0
75: 0
76: 0
77: 0
78: 0
79: 0
80: 0
81: 0
82: 0
83: 0
84: 0
85: 0
86: 0
87: 0
0: 3
1: 3
2: 3
3: 3
4: 3
5: 3
6: 3
7: 3
8: 3
9: 3
10: 3
11: 3
12: 3
13: 3
14: 3
15: 3
16: 3
17: 3
18: 3
19: 3
20: 3
21: 3
22: 3
23: 3
24: 3
25: 3
26: 3
27: 3
28: 3
29: 3
30: 3
31: 3
32: 3
33: 3
34: 3
35: 3
36: 3
37: 3
38: 3
39: 3
40: 3
41: 3
42: 3
43: 3
44: 3
45: 3
46: 3
47: 3
48: 3
49: 3
50: 3
51: 3
52: 3
53: 3
54: 3
55: 3
56: 3
57: 3
58: 3
59: 3
60: 3
61: 3
62: 3
63: 3
64: 3
65: 3
66: 3
67: 3
edge from: to
68: 0
69: 0
69: 1
69: 2
70: 1
70: 3
70: 4
70: 5
71: 8
72: 10
72: 11
73: 1
73: 8
73: 14
73: 15
73: 16
74: 10
74: 18
75: 25
75: 26
76: 28
76: 30
77: 32
78: 36
79: 37
79: 38
79: 40
80: 39
80: 42
81: 41
81: 42
81: 44
82: 44
82: 46
83: 47
83: 49
84: 49
84: 50
84: 52
85: 53
85: 55
85: 57
86: 57
86: 61
87: 60
1: 68
3: 69
4: 69
5: 69
6: 70
7: 70
8: 70
9: 70
10: 71
11: 71
12: 72
13: 72
14: 72
15: 72
16: 72
17: 73
18: 73
19: 73
20: 73
21: 74
22: 74
23: 74
24: 74
25: 74
26: 74
27: 75
28: 75
29: 75
30: 75
31: 76
32: 76
33: 76
34: 77
35: 77
36: 77
37: 77
38: 78
39: 78
40: 78
41: 79
42: 79
43: 80
44: 80
45: 81
46: 81
47: 82
48: 82
49: 82
50: 83
51: 83
52: 83
53: 84
54: 84
55: 84
56: 84
57: 84
58: 85
59: 85
60: 85
61: 85
62: 86
63: 86
64: 87
65: 87
66: 87
67: 87
segment: [9]
vertex id: label
59: 0
60: 0
61: 0
62: 0
63: 0
64: 0
65: 0
66: 0
67: 0
68: 2
69: 0
70: 0
71: 0
72: 0
73: 0
74: 0
75: 0
76: 0
77: 0
78: 0
0: 3
1: 3
2: 3
3: 3
4: 3
5: 3
6: 3
7: 3
8: 3
9: 3
10: 3
11: 3
12: 3
13: 3
14: 3
15: 3
16: 3
17: 3
18: 3
19: 3
20: 3
21: 3
22: 3
23: 3
24: 3
25: 3
26: 3
27: 3
28: 3
29: 3
30: 3
31: 3
32: 3
33: 3
34: 3
35: 3
36: 3
37: 3
38: 3
39: 3
40: 3
41: 3
42: 3
43: 3
44: 3
45: 3
46: 3
47: 3
48: 3
49: 3
50: 3
51: 3
52: 3
53: 3
54: 3
55: 3
56: 3
57: 3
58: 3
edge from: to
59: 0
59: 1
60: 1
60: 2
61: 4
61: 5
62: 3
62: 6
63: 6
63: 7
64: 8
65: 13
65: 15
66: 9
66: 16
66: 18
67: 18
68: 24
68: 25
68: 26
68: 27
69: 27
69: 28
70: 27
70: 29
71: 29
71: 30
71: 31
72: 17
72: 34
73: 35
73: 37
73: 38
74: 39
75: 44
76: 48
76: 51
77: 49
77: 52
77: 54
78: 51
78: 53
78: 55
2: 59
3: 60
4: 60
5: 60
6: 61
7: 62
8: 63
9: 63
10: 64
11: 64
12: 64
13: 64
14: 64
15: 64
16: 65
17: 65
18: 65
19: 66
20: 66
21: 67
22: 67
23: 67
24: 67
25: 67
26: 67
27: 67
28: 68
29: 69
30: 70
31: 70
32: 71
33: 71
34: 71
35: 71
36: 72
37: 72
38: 72
39: 73
40: 73
41: 73
42: 73
43: 74
44: 74
45: 74
46: 74
47: 75
48: 75
49: 75
50: 75
51: 75
52: 76
53: 76
54: 76
55: 77
56: 78
57: 78
58: 78
