segment: [0]
vertex id: label
52: 0
53: 24
54: 22
55: 18
56: 19
57: 2
58: 23
59: 11
60: 22
61: 22
62: 16
63: 21
64: 14
65: 9
66: 14
67: 0
68: 3
69: 9
70: 20
71: 1
0: 25
1: 25
2: 25
3: 25
4: 25
5: 25
6: 25
7: 25
8: 25
9: 25
10: 25
11: 25
12: 25
13: 25
14: 25
15: 25
16: 25
17: 25
18: 25
19: 25
20: 25
21: 25
22: 25
23: 25
24: 25
25: 25
26: 25
27: 25
28: 25
29: 25
30: 25
31: 25
32: 25
33: 25
34: 25
35: 25
36: 25
37: 25
38: 25
39: 25
40: 25
41: 25
42: 25
43: 25
44: 25
45: 25
46: 25
47: 25
48: 25
49: 25
50: 25
51: 25
edge from: to
52: 0
52: 1
52: 2
52: 3
53: 1
54: 2
54: 6
54: 7
55: 9
56: 10
57: 5
57: 13
57: 15
57: 16
58: 15
58: 18
59: 16
59: 20
60: 19
60: 21
60: 23
61: 21
61: 26
62: 23
62: 26
62: 28
63: 27
63: 33
64: 1
64: 35
65: 31
65: 38
66: 40
67: 38
67: 41
68: 35
68: 43
69: 36
69: 43
70: 38
70: 46
71: 39
71: 47
4: 52
5: 53
6: 53
7: 53
8: 54
9: 54
10: 55
11: 56
12: 56
13: 56
14: 56
15: 56
16: 56
17: 57
18: 57
19: 58
20: 58
21: 59
22: 59
23: 59
24: 60
25: 60
26: 60
27: 61
28: 61
29: 62
30: 62
31: 62
32: 62
33: 62
34: 63
35: 63
36: 64
37: 64
38: 64
39: 65
40: 65
41: 66
42: 67
43: 67
44: 68
45: 69
46: 69
47: 69
48: 70
49: 71
50: 71
51: 71
segment: [1]
vertex id: label
56: 0
57: 10
58: 11
59: 2
60: 23
61: 2
62: 21
63: 14
64: 9
65: 20
66: 0
67: 3
68: 16
69: 21
70: 14
71: 14
72: 6
73: 18
74: 7
75: 1
0: 25
1: 25
2: 25
3: 25
4: 25
5: 25
6: 25
7: 25
8: 25
9: 25
10: 25
11: 25
12: 25
13: 25
14: 25
15: 25
16: 25
17: 25
18: 25
19: 25
20: 25
21: 25
22: 25
23: 25
24: 25
25: 25
26: 25
27: 25
28: 25
29: 25
30: 25
31: 25
32: 25
33: 25
34: 25
35: 25
36: 25
37: 25
38: 25
39: 25
40: 25
41: 25
42: 25
43: 25
44: 25
45: 25
46: 25
47: 25
48: 25
49: 25
50: 25
51: 25
52: 25
53: 25
54: 25
55: 25
edge from: to
56: 0
56: 1
57: 4
57: 7
57: 8
58: 13
59: 4
59: 12
60: 14
60: 17
61: 18
62: 11
62: 17
62: 18
62: 19
62: 20
62: 21
63: 23
63: 25
64: 10
64: 21
64: 24
64: 26
65: 24
65: 29
66: 26
66: 32
67: 1
67: 31
67: 35
68: 29
68: 36
69: 32
69: 36
69: 38
69: 39
70: 42
71: 35
71: 43
72: 46
73: 39
73: 44
73: 45
73: 47
73: 48
74: 48
75: 42
75: 49
75: 51
2: 56
3: 56
4: 56
5: 56
6: 56
7: 56
8: 56
9: 57
10: 57
11: 57
12: 57
13: 57
14: 58
15: 58
16: 59
17: 59
18: 60
19: 61
20: 61
21: 61
22: 62
23: 62
24: 62
25: 62
26: 63
27: 64
28: 64
29: 64
30: 65
31: 65
32: 65
33: 66
34: 66
35: 66
36: 67
37: 68
38: 68
39: 68
40: 69
41: 69
42: 69
43: 70
44: 71
45: 71
46: 71
47: 71
48: 72
49: 73
50: 74
51: 74
52: 74
53: 75
54: 75
55: 75
segment: [2]
vertex id: label
58: 0
59: 22
60: 16
61: 14
62: 6
63: 5
64: 5
65: 17
66: 19
67: 22
68: 16
69: 16
70: 16
71: 21
72: 14
73: 14
74: 0
75: 3
76: 23
77: 2
0: 25
1: 25
2: 25
3: 25
4: 25
5: 25
6: 25
7: 25
8: 25
9: 25
10: 25
11: 25
12: 25
13: 25
14: 25
15: 25
16: 25
17: 25
18: 25
19: 25
20: 25
21: 25
22: 25
23: 25
24: 25
25: 25
26: 25
27: 25
28: 25
29: 25
30: 25
31: 25
32: 25
33: 25
34: 25
35: 25
36: 25
37: 25
38: 25
39: 25
40: 25
41: 25
42: 25
43: 25
44: 25
45: 25
46: 25
47: 25
48: 25
49: 25
50: 25
51: 25
52: 25
53: 25
54: 25
55: 25
56: 25
57: 25
edge from: to
58: 0
58: 1
59: 1
59: 4
60: 2
60: 6
61: 10
61: 12
62: 11
62: 13
63: 7
63: 9
63: 10
63: 15
63: 17
63: 18
64: 19
65: 21
66: 19
66: 21
66: 23
67: 22
67: 27
68: 8
68: 30
69: 9
69: 28
69: 31
70: 29
70: 36
71: 39
72: 16
72: 34
72: 39
72: 42
73: 44
74: 47
75: 42
75: 49
75: 51
76: 43
76: 49
76: 52
77: 44
77: 53
2: 58
3: 58
4: 58
5: 59
6: 59
7: 59
8: 60
9: 60
10: 60
11: 60
12: 60
13: 61
14: 62
15: 62
16: 62
17: 62
18: 62
19: 63
20: 64
21: 64
22: 65
23: 65
24: 66
25: 66
26: 66
27: 66
28: 67
29: 67
30: 67
31: 68
32: 68
33: 68
34: 68
35: 69
36: 69
37: 70
38: 70
39: 70
40: 71
41: 71
42: 71
43: 72
44: 72
45: 72
46: 73
47: 73
48: 73
49: 74
50: 74
51: 74
52: 74
53: 75
54: 76
55: 77
56: 77
57: 77
segment: [3]
vertex id: label
58: 0
59: 3
60: 16
61: 16
62: 9
63: 14
64: 9
65: 17
66: 15
67: 8
68: 3
69: 16
70: 14
71: 22
72: 18
73: 0
74: 10
75: 15
76: 15
77: 8
0: 25
1: 25
2: 25
3: 25
4: 25
5: 25
6: 25
7: 25
8: 25
9: 25
10: 25
11: 25
12: 25
13: 25
14: 25
15: 25
16: 25
17: 25
18: 25
19: 25
20: 25
21: 25
22: 25
23: 25
24: 25
25: 25
26: 25
27: 25
28: 25
29: 25
30: 25
31: 25
32: 25
33: 25
34: 25
35: 25
36: 25
37: 25
38: 25
39: 25
40: 25
41: 25
42: 25
43: 25
44: 25
45: 25
46: 25
47: 25
48: 25
49: 25
50: 25
51: 25
52: 25
53: 25
54: 25
55: 25
56: 25
57: 25
edge from: to
58: 0
58: 1
58: 2
58: 3
59: 5
60: 2
61: 3
61: 9
61: 10
62: 4
63: 15
63: 18
64: 25
65: 27
66: 8
66: 27
66: 30
67: 33
68: 1
68: 31
68: 34
68: 35
69: 38
70: 22
70: 35
70: 38
70: 40
70: 41
70: 42
70: 43
71: 43
72: 38
72: 46
73: 40
73: 48
74: 49
74: 50
75: 50
75: 51
76: 44
76: 53
77: 54
4: 58
5: 58
6: 59
7: 59
8: 60
9: 60
10: 60
11: 60
12: 61
13: 61
14: 61
15: 61
16: 62
17: 62
18: 62
19: 63
20: 63
21: 63
22: 63
23: 63
24: 63
25: 63
26: 64
27: 64
28: 65
29: 65
30: 65
31: 66
32: 66
33: 66
34: 67
35: 67
36: 68
37: 68
38: 68
39: 69
40: 69
41: 69
42: 69
43: 69
44: 70
45: 71
46: 71
47: 71
48: 72
49: 72
50: 73
51: 74
52: 75
53: 75
54: 75
55: 76
56: 77
57: 77
segment: [4]
vertex id: label
61: 0
62: 10
63: 12
64: 18
65: 19
66: 2
67: 21
68: 14
69: 11
70: 22
71: 16
72: 16
73: 17
74: 15
75: 8
76: 7
77: 1
78: 16
79: 16
80: 21
0: 25
1: 25
2: 25
3: 25
4: 25
5: 25
6: 25
7: 25
8: 25
9: 25
10: 25
11: 25
12: 25
13: 25
14: 25
15: 25
16: 25
17: 25
18: 25
19: 25
20: 25
21: 25
22: 25
23: 25
24: 25
25: 25
26: 25
27: 25
28: 25
29: 25
30: 25
31: 25
32: 25
33: 25
34: 25
35: 25
36: 25
37: 25
38: 25
39: 25
40: 25
41: 25
42: 25
43: 25
44: 25
45: 25
46: 25
47: 25
48: 25
49: 25
50: 25
51: 25
52: 25
53: 25
54: 25
55: 25
56: 25
57: 25
58: 25
59: 25
60: 25
edge from: to
61: 0
61: 1
61: 2
61: 3
62: 0
62: 2
62: 5
62: 6
63: 11
63: 13
64: 4
64: 12
65: 14
65: 16
65: 17
66: 16
66: 17
66: 19
67: 16
67: 20
68: 19
68: 23
69: 20
69: 24
70: 23
70: 28
71: 8
71: 30
72: 32
73: 9
73: 28
74: 36
75: 32
75: 39
76: 42
77: 40
77: 46
77: 48
78: 50
78: 51
79: 51
79: 54
79: 55
80: 15
4: 61
5: 61
6: 61
7: 62
8: 62
9: 62
10: 62
11: 62
12: 62
13: 62
14: 63
15: 63
16: 64
17: 64
18: 65
19: 65
20: 66
21: 67
22: 67
23: 67
24: 68
25: 69
26: 69
27: 69
28: 69
29: 70
30: 70
31: 71
32: 71
33: 72
34: 72
35: 73
36: 73
37: 74
38: 74
39: 74
40: 75
41: 75
42: 75
43: 76
44: 76
45: 76
46: 76
47: 76
48: 76
49: 76
50: 77
51: 77
52: 78
53: 78
54: 78
55: 78
56: 79
57: 79
58: 80
59: 80
60: 80
segment: [5]
vertex id: label
50: 0
51: 3
52: 9
53: 2
54: 23
55: 2
56: 18
57: 19
58: 2
59: 21
60: 14
61: 9
62: 17
63: 23
64: 2
65: 21
66: 14
67: 0
68: 10
69: 12
0: 25
1: 25
2: 25
3: 25
4: 25
5: 25
6: 25
7: 25
8: 25
9: 25
10: 25
11: 25
12: 25
13: 25
14: 25
15: 25
16: 25
17: 25
18: 25
19: 25
20: 25
21: 25
22: 25
23: 25
24: 25
25: 25
26: 25
27: 25
28: 25
29: 25
30: 25
31: 25
32: 25
33: 25
34: 25
35: 25
36: 25
37: 25
38: 25
39: 25
40: 25
41: 25
42: 25
43: 25
44: 25
45: 25
46: 25
47: 25
48: 25
49: 25
edge from: to
50: 0
51: 0
51: 1
51: 2
52: 2
52: 6
53: 8
53: 9
54: 10
54: 11
54: 12
55: 11
55: 13
56: 13
56: 16
57: 6
57: 16
57: 17
57: 19
58: 18
58: 22
59: 25
60: 27
61: 29
62: 25
62: 31
63: 32
64: 33
65: 1
65: 35
66: 31
66: 35
66: 36
66: 38
67: 34
67: 42
68: 46
69: 39
69: 47
1: 50
2: 50
3: 51
4: 51
5: 51
6: 51
7: 51
8: 52
9: 52
10: 53
11: 53
12: 53
13: 54
14: 55
15: 55
16: 55
17: 56
18: 56
19: 56
20: 57
21: 57
22: 57
23: 58
24: 58
25: 58
26: 59
27: 59
28: 60
29: 60
30: 61
31: 61
32: 62
33: 63
34: 64
35: 64
36: 65
37: 65
38: 65
39: 66
40: 66
41: 66
42: 66
43: 67
44: 67
45: 67
46: 67
47: 68
48: 68
49: 69
segment: [6]
vertex id: label
64: 0
65: 10
66: 14
67: 0
68: 22
69: 1
70: 16
71: 24
72: 22
73: 16
74: 21
75: 10
76: 14
77: 9
78: 14
79: 9
80: 20
81: 1
82: 7
83: 1
0: 25
1: 25
2: 25
3: 25
4: 25
5: 25
6: 25
7: 25
8: 25
9: 25
10: 25
11: 25
12: 25
13: 25
14: 25
15: 25
16: 25
17: 25
18: 25
19: 25
20: 25
21: 25
22: 25
23: 25
24: 25
25: 25
26: 25
27: 25
28: 25
29: 25
30: 25
31: 25
32: 25
33: 25
34: 25
35: 25
36: 25
37: 25
38: 25
39: 25
40: 25
41: 25
42: 25
43: 25
44: 25
45: 25
46: 25
47: 25
48: 25
49: 25
50: 25
51: 25
52: 25
53: 25
54: 25
55: 25
56: 25
57: 25
58: 25
59: 25
60: 25
61: 25
62: 25
63: 25
edge from: to
64: 0
64: 1
64: 2
64: 3
64: 4
65: 5
66: 2
67: 9
68: 10
68: 11
68: 12
69: 13
69: 16
70: 7
70: 15
70: 17
70: 18
71: 16
71: 18
71: 20
72: 20
72: 24
73: 21
73: 26
74: 8
74: 30
75: 32
76: 9
76: 28
77: 1
77: 30
77: 37
78: 41
79: 42
79: 43
79: 46
80: 40
80: 48
81: 54
81: 55
82: 57
83: 16
83: 61
5: 64
6: 65
7: 65
8: 66
9: 66
10: 67
11: 67
12: 67
13: 68
14: 68
15: 68
16: 68
17: 69
18: 69
19: 70
20: 70
21: 71
22: 71
23: 71
24: 71
25: 72
26: 72
27: 73
28: 73
29: 73
30: 73
31: 74
32: 74
33: 75
34: 75
35: 76
36: 76
37: 76
38: 77
39: 77
40: 77
41: 77
42: 78
43: 78
44: 78
45: 78
46: 78
47: 79
48: 79
49: 79
50: 80
51: 80
52: 80
53: 80
54: 80
55: 80
56: 81
57: 81
58: 81
59: 82
60: 82
61: 82
62: 83
63: 83
segment: [7]
vertex id: label
63: 0
64: 3
65: 16
66: 22
67: 16
68: 16
69: 14
70: 22
71: 16
72: 22
73: 10
74: 14
75: 22
76: 16
77: 21
78: 11
79: 12
80: 18
81: 10
82: 17
0: 25
1: 25
2: 25
3: 25
4: 25
5: 25
6: 25
7: 25
8: 25
9: 25
10: 25
11: 25
12: 25
13: 25
14: 25
15: 25
16: 25
17: 25
18: 25
19: 25
20: 25
21: 25
22: 25
23: 25
24: 25
25: 25
26: 25
27: 25
28: 25
29: 25
30: 25
31: 25
32: 25
33: 25
34: 25
35: 25
36: 25
37: 25
38: 25
39: 25
40: 25
41: 25
42: 25
43: 25
44: 25
45: 25
46: 25
47: 25
48: 25
49: 25
50: 25
51: 25
52: 25
53: 25
54: 25
55: 25
56: 25
57: 25
58: 25
59: 25
60: 25
61: 25
62: 25
edge from: to
63: 0
63: 1
63: 2
64: 0
64: 5
64: 6
65: 3
65: 8
65: 9
66: 12
66: 14
67: 4
68: 13
68: 16
69: 15
69: 18
70: 18
70: 22
71: 20
71: 22
71: 24
72: 23
72: 25
73: 23
73: 28
74: 9
74: 28
74: 31
75: 38
76: 35
76: 43
77: 44
77: 45
78: 40
78: 46
78: 48
79: 52
80: 54
81: 15
81: 46
82: 59
82: 60
3: 63
4: 63
5: 63
6: 63
7: 64
8: 64
9: 64
10: 65
11: 65
12: 65
13: 65
14: 65
15: 66
16: 67
17: 68
18: 68
19: 69
20: 69
21: 69
22: 69
23: 70
24: 70
25: 71
26: 72
27: 72
28: 72
29: 73
30: 73
31: 73
32: 73
33: 73
34: 73
35: 74
36: 74
37: 74
38: 74
39: 75
40: 75
41: 75
42: 75
43: 75
44: 76
45: 76
46: 77
47: 77
48: 77
49: 77
50: 78
51: 78
52: 78
53: 78
54: 79
55: 79
56: 80
57: 80
58: 81
59: 81
60: 81
61: 82
62: 82
segment: [8]
vertex id: label
57: 0
58: 3
59: 16
60: 22
61: 16
62: 21
63: 14
64: 9
65: 17
66: 23
67: 11
68: 2
69: 23
70: 2
71: 17
72: 23
73: 5
74: 4
75: 0
76: 3
0: 25
1: 25
2: 25
3: 25
4: 25
5: 25
6: 25
7: 25
8: 25
9: 25
10: 25
11: 25
12: 25
13: 25
14: 25
15: 25
16: 25
17: 25
18: 25
19: 25
20: 25
21: 25
22: 25
23: 25
24: 25
25: 25
26: 25
27: 25
28: 25
29: 25
30: 25
31: 25
32: 25
33: 25
34: 25
35: 25
36: 25
37: 25
38: 25
39: 25
40: 25
41: 25
42: 25
43: 25
44: 25
45: 25
46: 25
47: 25
48: 25
49: 25
50: 25
51: 25
52: 25
53: 25
54: 25
55: 25
56: 25
edge from: to
57: 0
57: 1
57: 2
58: 1
59: 2
60: 3
60: 9
61: 12
61: 13
61: 14
62: 14
62: 16
62: 17
63: 16
63: 18
63: 20
64: 20
64: 24
65: 28
66: 25
66: 27
66: 28
66: 31
67: 9
67: 28
68: 1
68: 35
69: 30
69: 37
70: 39
71: 42
72: 44
72: 45
73: 38
73: 46
74: 48
75: 50
75: 51
76: 54
76: 55
3: 57
4: 58
5: 58
6: 58
7: 58
8: 59
9: 59
10: 59
11: 59
12: 60
13: 60
14: 60
15: 61
16: 61
17: 61
18: 62
19: 62
20: 62
21: 63
22: 63
23: 63
24: 63
25: 64
26: 64
27: 64
28: 64
29: 65
30: 65
31: 65
32: 66
33: 66
34: 66
35: 67
36: 68
37: 68
38: 69
39: 69
40: 70
41: 70
42: 70
43: 71
44: 71
45: 71
46: 72
47: 72
48: 73
49: 73
50: 74
51: 74
52: 75
53: 75
54: 75
55: 75
56: 76
segment: [9]
vertex id: label
68: 0
69: 10
70: 11
71: 24
72: 4
73: 17
74: 3
75: 9
76: 20
77: 1
78: 20
79: 1
80: 22
81: 16
82: 14
83: 14
84: 0
85: 3
86: 9
87: 14
0: 25
1: 25
2: 25
3: 25
4: 25
5: 25
6: 25
7: 25
8: 25
9: 25
10: 25
11: 25
12: 25
13: 25
14: 25
15: 25
16: 25
17: 25
18: 25
19: 25
20: 25
21: 25
22: 25
23: 25
24: 25
25: 25
26: 25
27: 25
28: 25
29: 25
30: 25
31: 25
32: 25
33: 25
34: 25
35: 25
36: 25
37: 25
38: 25
39: 25
40: 25
41: 25
42: 25
43: 25
44: 25
45: 25
46: 25
47: 25
48: 25
49: 25
50: 25
51: 25
52: 25
53: 25
54: 25
55: 25
56: 25
57: 25
58: 25
59: 25
60: 25
61: 25
62: 25
63: 25
64: 25
65: 25
66: 25
67: 25
edge from: to
68: 0
68: 1
68: 2
69: 2
69: 6
69: 7
70: 9
70: 10
70: 11
70: 12
71: 15
71: 18
72: 17
72: 18
72: 19
72: 21
73: 24
74: 21
74: 24
74: 26
75: 23
75: 28
76: 31
77: 32
78: 35
79: 32
79: 39
80: 40
81: 35
81: 43
82: 38
82: 46
83: 49
84: 47
84: 48
84: 50
84: 51
85: 54
85: 55
86: 48
86: 55
86: 58
87: 63
3: 68
4: 68
5: 68
6: 68
7: 68
8: 69
9: 69
10: 69
11: 69
12: 69
13: 70
14: 70
15: 70
16: 70
17: 70
18: 70
19: 71
20: 71
21: 71
22: 72
23: 72
24: 72
25: 73
26: 73
27: 74
28: 74
29: 75
30: 75
31: 75
32: 76
33: 77
34: 77
35: 77
36: 78
37: 78
38: 78
39: 78
40: 79
41: 80
42: 80
43: 80
44: 81
45: 81
46: 81
47: 81
48: 82
49: 82
50: 82
51: 83
52: 84
53: 84
54: 84
55: 84
56: 85
57: 85
58: 85
59: 85
60: 86
61: 86
62: 86
63: 86
64: 86
65: 87
66: 87
67: 87
