segment: [0]
vertex id: label
59: 0
60: 2
61: 0
62: 2
63: 0
64: 0
65: 0
66: 0
67: 0
68: 0
69: 0
70: 0
71: 0
72: 0
73: 0
74: 0
75: 0
76: 0
77: 2
78: 0
0: 3
1: 3
2: 3
3: 3
4: 3
5: 3
6: 3
7: 3
8: 3
9: 3
10: 3
11: 3
12: 3
13: 3
14: 3
15: 3
16: 3
17: 3
18: 3
19: 3
20: 3
21: 3
22: 3
23: 3
24: 3
25: 3
26: 3
27: 3
28: 3
29: 3
30: 3
31: 3
32: 3
33: 3
34: 3
35: 3
36: 3
37: 3
38: 3
39: 3
40: 3
41: 3
42: 3
43: 3
44: 3
45: 3
46: 3
47: 3
48: 3
49: 3
50: 3
51: 3
52: 3
53: 3
54: 3
55: 3
56: 3
57: 3
58: 3
edge from: to
59: 0
60: 2
61: 4
61: 6
62: 11
63: 9
63: 13
64: 3
64: 14
65: 14
66: 19
66: 24
66: 26
67: 21
67: 29
68: 9
68: 30
68: 31
69: 22
70: 24
70: 35
70: 36
71: 38
72: 28
73: 45
74: 46
75: 10
75: 35
75: 48
76: 20
76: 33
77: 35
77: 53
78: 37
1: 59
2: 59
3: 59
4: 60
5: 60
6: 60
7: 61
8: 61
9: 61
10: 61
11: 61
12: 62
13: 62
14: 63
15: 64
16: 64
17: 64
18: 64
19: 64
20: 64
21: 64
22: 65
23: 65
24: 65
25: 65
26: 65
27: 66
28: 66
29: 66
30: 67
31: 67
32: 68
33: 68
34: 69
35: 69
36: 69
37: 70
38: 70
39: 71
40: 71
41: 71
42: 71
43: 72
44: 72
45: 72
46: 73
47: 74
48: 74
49: 75
50: 75
51: 76
52: 76
53: 76
54: 77
55: 77
56: 77
57: 78
58: 78
segment: [1]
vertex id: label
59: 0
60: 0
61: 0
62: 2
63: 0
64: 0
65: 0
66: 0
67: 0
68: 2
69: 0
70: 0
71: 2
72: 0
73: 0
74: 2
75: 0
76: 2
77: 0
78: 0
0: 3
1: 3
2: 3
3: 3
4: 3
5: 3
6: 3
7: 3
8: 3
9: 3
10: 3
11: 3
12: 3
13: 3
14: 3
15: 3
16: 3
17: 3
18: 3
19: 3
20: 3
21: 3
22: 3
23: 3
24: 3
25: 3
26: 3
27: 3
28: 3
29: 3
30: 3
31: 3
32: 3
33: 3
34: 3
35: 3
36: 3
37: 3
38: 3
39: 3
40: 3
41: 3
42: 3
43: 3
44: 3
45: 3
46: 3
47: 3
48: 3
49: 3
50: 3
51: 3
52: 3
53: 3
54: 3
55: 3
56: 3
57: 3
58: 3
edge from: to
59: 0
60: 2
61: 3
61: 5
61: 7
62: 3
62: 14
63: 11
63: 16
64: 17
65: 12
66: 13
66: 19
67: 9
67: 16
67: 22
68: 25
69: 26
69: 27
69: 28
70: 31
71: 22
72: 36
72: 37
73: 40
74: 43
75: 43
75: 44
76: 13
76: 31
76: 46
76: 47
77: 37
77: 47
77: 49
77: 50
77: 51
78: 35
78: 52
78: 53
1: 59
2: 59
3: 59
4: 60
5: 60
6: 60
7: 60
8: 61
9: 61
10: 61
11: 61
12: 61
13: 61
14: 61
15: 62
16: 62
17: 63
18: 64
19: 65
20: 66
21: 66
22: 66
23: 67
24: 67
25: 67
26: 68
27: 68
28: 68
29: 69
30: 69
31: 69
32: 70
33: 70
34: 71
35: 71
36: 71
37: 71
38: 72
39: 72
40: 72
41: 73
42: 73
43: 73
44: 74
45: 75
46: 75
47: 75
48: 76
49: 76
50: 76
51: 76
52: 77
53: 77
54: 78
55: 78
56: 78
57: 78
58: 78
segment: [2]
vertex id: label
66: 0
67: 2
68: 0
69: 0
70: 0
71: 0
72: 2
73: 0
74: 0
75: 0
76: 0
77: 0
78: 0
79: 0
80: 2
81: 0
82: 2
83: 0
84: 0
85: 0
0: 3
1: 3
2: 3
3: 3
4: 3
5: 3
6: 3
7: 3
8: 3
9: 3
10: 3
11: 3
12: 3
13: 3
14: 3
15: 3
16: 3
17: 3
18: 3
19: 3
20: 3
21: 3
22: 3
23: 3
24: 3
25: 3
26: 3
27: 3
28: 3
29: 3
30: 3
31: 3
32: 3
33: 3
34: 3
35: 3
36: 3
37: 3
38: 3
39: 3
40: 3
41: 3
42: 3
43: 3
44: 3
45: 3
46: 3
47: 3
48: 3
49: 3
50: 3
51: 3
52: 3
53: 3
54: 3
55: 3
56: 3
57: 3
58: 3
59: 3
60: 3
61: 3
62: 3
63: 3
64: 3
65: 3
edge from: to
66: 0
66: 1
67: 3
67: 4
68: 5
69: 2
69: 6
69: 7
69: 9
70: 5
70: 8
71: 9
71: 13
72: 10
73: 17
74: 7
74: 25
75: 28
76: 20
77: 22
78: 8
78: 11
78: 38
79: 30
79: 40
79: 41
80: 43
80: 44
81: 31
81: 46
81: 47
82: 51
83: 50
83: 53
83: 54
84: 16
84: 57
84: 58
85: 39
85: 59
2: 66
3: 66
4: 66
5: 67
6: 68
7: 68
8: 68
9: 68
10: 69
11: 69
12: 69
13: 70
14: 71
15: 71
16: 72
17: 72
18: 73
19: 73
20: 73
21: 73
22: 73
23: 73
24: 73
25: 73
26: 74
27: 74
28: 74
29: 75
30: 75
31: 76
32: 76
33: 76
34: 77
35: 77
36: 77
37: 77
38: 77
39: 78
40: 78
41: 78
42: 79
43: 79
44: 79
45: 80
46: 80
47: 80
48: 81
49: 81
50: 81
51: 81
52: 82
53: 82
54: 82
55: 83
56: 83
57: 83
58: 83
59: 84
60: 85
61: 85
62: 85
63: 85
64: 85
65: 85
segment: [3]
vertex id: label
69: 0
70: 0
71: 0
72: 0
73: 2
74: 0
75: 0
76: 0
77: 0
78: 0
79: 0
80: 0
81: 0
82: 0
83: 2
84: 0
85: 0
86: 0
87: 2
88: 0
0: 3
1: 3
2: 3
3: 3
4: 3
5: 3
6: 3
7: 3
8: 3
9: 3
10: 3
11: 3
12: 3
13: 3
14: 3
15: 3
16: 3
17: 3
18: 3
19: 3
20: 3
21: 3
22: 3
23: 3
24: 3
25: 3
26: 3
27: 3
28: 3
29: 3
30: 3
31: 3
32: 3
33: 3
34: 3
35: 3
36: 3
37: 3
38: 3
39: 3
40: 3
41: 3
42: 3
43: 3
44: 3
45: 3
46: 3
47: 3
48: 3
49: 3
50: 3
51: 3
52: 3
53: 3
54: 3
55: 3
56: 3
57: 3
58: 3
59: 3
60: 3
61: 3
62: 3
63: 3
64: 3
65: 3
66: 3
67: 3
68: 3
edge from: to
69: 0
69: 1
69: 2
69: 3
69: 4
70: 3
70: 5
71: 6
71: 8
71: 11
72: 3
72: 4
72: 14
73: 11
73: 16
74: 12
75: 9
75: 16
75: 22
76: 7
76: 23
76: 25
77: 18
77: 26
77: 27
78: 9
78: 30
78: 31
79: 34
80: 8
80: 11
80: 38
81: 41
82: 9
82: 43
83: 45
83: 46
84: 33
85: 35
85: 53
86: 53
86: 54
87: 60
88: 63
88: 64
5: 69
6: 69
7: 69
8: 70
9: 70
10: 70
11: 70
12: 71
13: 71
14: 71
15: 72
16: 72
17: 73
18: 73
19: 74
20: 74
21: 74
22: 74
23: 75
24: 75
25: 75
26: 76
27: 76
28: 77
29: 77
30: 77
31: 77
32: 78
33: 78
34: 78
35: 79
36: 79
37: 79
38: 79
39: 80
40: 80
41: 80
42: 81
43: 81
44: 82
45: 82
46: 82
47: 83
48: 83
49: 83
50: 83
51: 84
52: 84
53: 84
54: 85
55: 86
56: 86
57: 86
58: 86
59: 86
60: 86
61: 87
62: 87
63: 87
64: 87
65: 88
66: 88
67: 88
68: 88
segment: [4]
vertex id: label
71: 0
72: 0
73: 0
74: 0
75: 2
76: 0
77: 0
78: 0
79: 0
80: 0
81: 2
82: 0
83: 0
84: 2
85: 0
86: 0
87: 0
88: 0
89: 0
90: 0
0: 3
1: 3
2: 3
3: 3
4: 3
5: 3
6: 3
7: 3
8: 3
9: 3
10: 3
11: 3
12: 3
13: 3
14: 3
15: 3
16: 3
17: 3
18: 3
19: 3
20: 3
21: 3
22: 3
23: 3
24: 3
25: 3
26: 3
27: 3
28: 3
29: 3
30: 3
31: 3
32: 3
33: 3
34: 3
35: 3
36: 3
37: 3
38: 3
39: 3
40: 3
41: 3
42: 3
43: 3
44: 3
45: 3
46: 3
47: 3
48: 3
49: 3
50: 3
51: 3
52: 3
53: 3
54: 3
55: 3
56: 3
57: 3
58: 3
59: 3
60: 3
61: 3
62: 3
63: 3
64: 3
65: 3
66: 3
67: 3
68: 3
69: 3
70: 3
edge from: to
71: 0
72: 5
73: 6
73: 8
73: 11
74: 14
75: 11
75: 16
76: 12
76: 18
77: 15
77: 20
78: 25
79: 21
79: 29
80: 31
80: 32
81: 14
81: 35
82: 36
82: 37
83: 26
84: 28
85: 45
85: 46
86: 51
86: 52
87: 37
88: 58
89: 39
89: 58
89: 59
90: 41
1: 71
2: 71
3: 71
4: 71
5: 71
6: 72
7: 72
8: 72
9: 72
10: 72
11: 72
12: 73
13: 73
14: 73
15: 74
16: 74
17: 75
18: 75
19: 76
20: 76
21: 77
22: 77
23: 77
24: 77
25: 77
26: 78
27: 78
28: 78
29: 78
30: 79
31: 79
32: 79
33: 80
34: 80
35: 80
36: 81
37: 81
38: 82
39: 82
40: 83
41: 83
42: 83
43: 84
44: 84
45: 84
46: 84
47: 85
48: 85
49: 85
50: 85
51: 85
52: 85
53: 86
54: 86
55: 86
56: 86
57: 87
58: 87
59: 88
60: 89
61: 89
62: 89
63: 90
64: 90
65: 90
66: 90
67: 90
68: 90
69: 90
70: 90
segment: [5]
vertex id: label
61: 0
62: 0
63: 2
64: 0
65: 0
66: 0
67: 0
68: 2
69: 0
70: 0
71: 0
72: 0
73: 0
74: 0
75: 0
76: 0
77: 0
78: 0
79: 0
80: 0
0: 3
1: 3
2: 3
3: 3
4: 3
5: 3
6: 3
7: 3
8: 3
9: 3
10: 3
11: 3
12: 3
13: 3
14: 3
15: 3
16: 3
17: 3
18: 3
19: 3
20: 3
21: 3
22: 3
23: 3
24: 3
25: 3
26: 3
27: 3
28: 3
29: 3
30: 3
31: 3
32: 3
33: 3
34: 3
35: 3
36: 3
37: 3
38: 3
39: 3
40: 3
41: 3
42: 3
43: 3
44: 3
45: 3
46: 3
47: 3
48: 3
49: 3
50: 3
51: 3
52: 3
53: 3
54: 3
55: 3
56: 3
57: 3
58: 3
59: 3
60: 3
edge from: to
61: 0
61: 1
62: 1
62: 3
62: 4
63: 4
63: 6
64: 2
64: 6
64: 9
65: 8
66: 7
66: 17
67: 14
67: 21
68: 16
69: 18
70: 31
71: 22
71: 32
71: 33
72: 36
72: 37
73: 40
74: 28
75: 44
76: 31
76: 47
77: 49
78: 50
78: 51
79: 37
79: 56
80: 56
80: 57
2: 61
3: 61
4: 61
5: 62
6: 62
7: 63
8: 63
9: 63
10: 64
11: 64
12: 64
13: 65
14: 65
15: 65
16: 65
17: 65
18: 66
19: 66
20: 66
21: 66
22: 67
23: 67
24: 67
25: 68
26: 68
27: 68
28: 69
29: 69
30: 69
31: 69
32: 70
33: 70
34: 71
35: 71
36: 71
37: 71
38: 72
39: 72
40: 72
41: 73
42: 73
43: 74
44: 74
45: 75
46: 75
47: 75
48: 76
49: 76
50: 77
51: 77
52: 78
53: 78
54: 78
55: 78
56: 78
57: 79
58: 80
59: 80
60: 80
segment: [6]
vertex id: label
61: 0
62: 0
63: 0
64: 0
65: 0
66: 0
67: 0
68: 0
69: 0
70: 0
71: 0
72: 0
73: 0
74: 0
75: 0
76: 0
77: 0
78: 0
79: 0
80: 0
0: 3
1: 3
2: 3
3: 3
4: 3
5: 3
6: 3
7: 3
8: 3
9: 3
10: 3
11: 3
12: 3
13: 3
14: 3
15: 3
16: 3
17: 3
18: 3
19: 3
20: 3
21: 3
22: 3
23: 3
24: 3
25: 3
26: 3
27: 3
28: 3
29: 3
30: 3
31: 3
32: 3
33: 3
34: 3
35: 3
36: 3
37: 3
38: 3
39: 3
40: 3
41: 3
42: 3
43: 3
44: 3
45: 3
46: 3
47: 3
48: 3
49: 3
50: 3
51: 3
52: 3
53: 3
54: 3
55: 3
56: 3
57: 3
58: 3
59: 3
60: 3
edge from: to
61: 0
62: 3
62: 4
63: 5
64: 6
65: 5
65: 8
66: 11
67: 9
67: 22
68: 19
68: 26
69: 18
69: 27
70: 12
70: 20
71: 22
72: 33
72: 34
73: 24
73: 36
74: 41
75: 9
75: 43
76: 45
76: 46
77: 49
78: 54
79: 58
80: 39
80: 58
80: 59
1: 61
2: 61
3: 61
4: 61
5: 62
6: 63
7: 63
8: 63
9: 63
10: 64
11: 64
12: 64
13: 65
14: 65
15: 65
16: 65
17: 66
18: 66
19: 66
20: 66
21: 66
22: 66
23: 67
24: 67
25: 67
26: 67
27: 68
28: 69
29: 69
30: 69
31: 70
32: 70
33: 70
34: 71
35: 72
36: 72
37: 73
38: 73
39: 73
40: 73
41: 73
42: 74
43: 74
44: 75
45: 75
46: 75
47: 76
48: 76
49: 76
50: 77
51: 77
52: 77
53: 77
54: 77
55: 78
56: 78
57: 78
58: 78
59: 79
60: 80
segment: [7]
vertex id: label
57: 0
58: 0
59: 0
60: 0
61: 2
62: 0
63: 0
64: 0
65: 2
66: 0
67: 0
68: 0
69: 2
70: 0
71: 0
72: 0
73: 0
74: 0
75: 2
76: 0
0: 3
1: 3
2: 3
3: 3
4: 3
5: 3
6: 3
7: 3
8: 3
9: 3
10: 3
11: 3
12: 3
13: 3
14: 3
15: 3
16: 3
17: 3
18: 3
19: 3
20: 3
21: 3
22: 3
23: 3
24: 3
25: 3
26: 3
27: 3
28: 3
29: 3
30: 3
31: 3
32: 3
33: 3
34: 3
35: 3
36: 3
37: 3
38: 3
39: 3
40: 3
41: 3
42: 3
43: 3
44: 3
45: 3
46: 3
47: 3
48: 3
49: 3
50: 3
51: 3
52: 3
53: 3
54: 3
55: 3
56: 3
edge from: to
57: 0
58: 2
58: 3
59: 4
60: 8
61: 6
62: 6
62: 8
62: 11
63: 14
64: 11
65: 13
65: 19
66: 15
66: 20
67: 9
67: 16
67: 22
68: 19
68: 24
68: 26
69: 21
69: 29
70: 20
71: 29
71: 31
71: 32
72: 14
72: 34
72: 35
73: 40
73: 41
74: 45
74: 46
75: 20
75: 33
75: 49
76: 52
1: 57
2: 57
3: 57
4: 58
5: 58
6: 58
7: 59
8: 59
9: 60
10: 61
11: 61
12: 62
13: 62
14: 62
15: 63
16: 63
17: 64
18: 64
19: 64
20: 65
21: 66
22: 66
23: 67
24: 67
25: 67
26: 67
27: 68
28: 68
29: 68
30: 69
31: 70
32: 70
33: 71
34: 71
35: 71
36: 72
37: 72
38: 72
39: 72
40: 72
41: 72
42: 73
43: 73
44: 73
45: 73
46: 73
47: 74
48: 74
49: 74
50: 74
51: 75
52: 75
53: 76
54: 76
55: 76
56: 76
segment: [8]
vertex id: label
65: 0
66: 0
67: 0
68: 0
69: 0
70: 2
71: 0
72: 0
73: 0
74: 0
75: 2
76: 0
77: 2
78: 0
79: 0
80: 2
81: 0
82: 0
83: 0
84: 2
0: 3
1: 3
2: 3
3: 3
4: 3
5: 3
6: 3
7: 3
8: 3
9: 3
10: 3
11: 3
12: 3
13: 3
14: 3
15: 3
16: 3
17: 3
18: 3
19: 3
20: 3
21: 3
22: 3
23: 3
24: 3
25: 3
26: 3
27: 3
28: 3
29: 3
30: 3
31: 3
32: 3
33: 3
34: 3
35: 3
36: 3
37: 3
38: 3
39: 3
40: 3
41: 3
42: 3
43: 3
44: 3
45: 3
46: 3
47: 3
48: 3
49: 3
50: 3
51: 3
52: 3
53: 3
54: 3
55: 3
56: 3
57: 3
58: 3
59: 3
60: 3
61: 3
62: 3
63: 3
64: 3
edge from: to
65: 0
65: 1
66: 2
67: 4
68: 6
68: 9
69: 7
69: 10
70: 10
70: 11
70: 15
71: 20
72: 22
73: 7
73: 23
73: 25
74: 18
74: 26
74: 27
75: 22
75: 32
75: 33
76: 24
77: 40
78: 9
78: 39
78: 43
79: 46
80: 37
80: 45
80: 48
80: 49
81: 54
82: 37
82: 56
83: 16
83: 42
83: 57
83: 58
84: 60
2: 65
3: 65
4: 66
5: 66
6: 66
7: 67
8: 67
9: 67
10: 68
11: 69
12: 69
13: 69
14: 69
15: 69
16: 70
17: 70
18: 70
19: 70
20: 70
21: 71
22: 71
23: 72
24: 72
25: 72
26: 73
27: 73
28: 74
29: 74
30: 74
31: 74
32: 74
33: 74
34: 75
35: 75
36: 75
37: 76
38: 76
39: 76
40: 76
41: 77
42: 77
43: 77
44: 78
45: 78
46: 78
47: 79
48: 79
49: 79
50: 80
51: 80
52: 80
53: 80
54: 80
55: 81
56: 81
57: 82
58: 82
59: 83
60: 83
61: 84
62: 84
63: 84
64: 84
segment: [9]
vertex id: label
58: 0
59: 0
60: 0
61: 0
62: 0
63: 2
64: 0
65: 0
66: 0
67: 0
68: 0
69: 0
70: 0
71: 2
72: 0
73: 0
74: 2
75: 0
76: 0
77: 0
0: 3
1: 3
2: 3
3: 3
4: 3
5: 3
6: 3
7: 3
8: 3
9: 3
10: 3
11: 3
12: 3
13: 3
14: 3
15: 3
16: 3
17: 3
18: 3
19: 3
20: 3
21: 3
22: 3
23: 3
24: 3
25: 3
26: 3
27: 3
28: 3
29: 3
30: 3
31: 3
32: 3
33: 3
34: 3
35: 3
36: 3
37: 3
38: 3
39: 3
40: 3
41: 3
42: 3
43: 3
44: 3
45: 3
46: 3
47: 3
48: 3
49: 3
50: 3
51: 3
52: 3
53: 3
54: 3
55: 3
56: 3
57: 3
edge from: to
58: 0
59: 0
59: 1
59: 2
60: 3
60: 5
61: 7
61: 10
62: 3
62: 4
62: 14
63: 10
64: 12
64: 17
64: 18
65: 4
65: 13
65: 19
66: 14
67: 17
67: 23
68: 19
68: 26
69: 9
69: 30
69: 31
70: 25
70: 33
70: 34
71: 27
71: 36
71: 37
72: 26
72: 39
73: 40
73: 41
74: 44
75: 10
75: 48
76: 37
76: 50
76: 51
77: 54
1: 58
3: 59
4: 59
5: 59
6: 59
7: 59
8: 60
9: 60
10: 60
11: 61
12: 61
13: 61
14: 61
15: 62
16: 63
17: 63
18: 63
19: 64
20: 65
21: 65
22: 66
23: 66
24: 67
25: 67
26: 67
27: 68
28: 68
29: 68
30: 68
31: 68
32: 69
33: 69
34: 69
35: 70
36: 70
37: 70
38: 71
39: 71
40: 72
41: 72
42: 73
43: 73
44: 73
45: 74
46: 74
47: 74
48: 74
49: 75
50: 75
51: 75
52: 76
53: 76
54: 76
55: 77
56: 77
57: 77
