segment: [0]
vertex id: label
71: 0
72: 16
73: 22
74: 2
75: 5
76: 17
77: 6
78: 17
79: 1
80: 16
81: 10
82: 7
83: 14
84: 23
85: 4
86: 20
87: 18
88: 8
89: 24
90: 13
0: 25
1: 25
2: 25
3: 25
4: 25
5: 25
6: 25
7: 25
8: 25
9: 25
10: 25
11: 25
12: 25
13: 25
14: 25
15: 25
16: 25
17: 25
18: 25
19: 25
20: 25
21: 25
22: 25
23: 25
24: 25
25: 25
26: 25
27: 25
28: 25
29: 25
30: 25
31: 25
32: 25
33: 25
34: 25
35: 25
36: 25
37: 25
38: 25
39: 25
40: 25
41: 25
42: 25
43: 25
44: 25
45: 25
46: 25
47: 25
48: 25
49: 25
50: 25
51: 25
52: 25
53: 25
54: 25
55: 25
56: 25
57: 25
58: 25
59: 25
60: 25
61: 25
62: 25
63: 25
64: 25
65: 25
66: 25
67: 25
68: 25
69: 25
70: 25
edge from: to
71: 0
71: 1
71: 2
72: 1
72: 2
72: 4
73: 7
73: 8
74: 9
74: 10
75: 10
76: 11
76: 17
76: 19
77: 23
78: 24
78: 27
79: 26
79: 28
79: 30
80: 32
81: 33
82: 32
82: 34
83: 20
83: 33
84: 35
84: 36
84: 40
85: 38
85: 39
85: 42
86: 42
86: 45
87: 49
88: 51
88: 55
89: 63
90: 67
3: 71
4: 71
5: 72
6: 72
7: 72
8: 72
9: 73
10: 73
11: 74
12: 74
13: 74
14: 74
15: 74
16: 74
17: 74
18: 74
19: 75
20: 75
21: 76
22: 76
23: 76
24: 77
25: 77
26: 77
27: 77
28: 78
29: 78
30: 78
31: 79
32: 79
33: 80
34: 81
35: 82
36: 82
37: 82
38: 83
39: 83
40: 83
41: 84
42: 84
43: 85
44: 85
45: 85
46: 86
47: 86
48: 86
49: 86
50: 87
51: 87
52: 87
53: 87
54: 87
55: 87
56: 88
57: 88
58: 88
59: 88
60: 88
61: 88
62: 88
63: 88
64: 89
65: 89
66: 89
67: 89
68: 90
69: 90
70: 90
segment: [1]
vertex id: label
55: 0
56: 16
57: 22
58: 1
59: 5
60: 6
61: 4
62: 20
63: 18
64: 22
65: 17
66: 6
67: 21
68: 1
69: 7
70: 17
71: 21
72: 12
73: 15
74: 10
0: 25
1: 25
2: 25
3: 25
4: 25
5: 25
6: 25
7: 25
8: 25
9: 25
10: 25
11: 25
12: 25
13: 25
14: 25
15: 25
16: 25
17: 25
18: 25
19: 25
20: 25
21: 25
22: 25
23: 25
24: 25
25: 25
26: 25
27: 25
28: 25
29: 25
30: 25
31: 25
32: 25
33: 25
34: 25
35: 25
36: 25
37: 25
38: 25
39: 25
40: 25
41: 25
42: 25
43: 25
44: 25
45: 25
46: 25
47: 25
48: 25
49: 25
50: 25
51: 25
52: 25
53: 25
54: 25
edge from: to
55: 0
55: 1
56: 1
56: 2
56: 4
57: 4
57: 7
58: 10
59: 3
59: 10
59: 11
59: 12
60: 15
61: 15
61: 17
62: 18
62: 19
63: 22
63: 23
64: 22
64: 25
65: 27
66: 30
67: 29
67: 31
68: 27
68: 30
68: 31
68: 33
69: 32
69: 34
70: 21
70: 32
70: 34
70: 35
70: 39
71: 39
71: 42
72: 47
73: 50
74: 28
74: 43
74: 47
2: 55
3: 55
4: 55
5: 56
6: 56
7: 56
8: 57
9: 57
10: 57
11: 58
12: 58
13: 59
14: 59
15: 59
16: 60
17: 60
18: 61
19: 61
20: 62
21: 62
22: 62
23: 62
24: 63
25: 63
26: 64
27: 64
28: 65
29: 65
30: 65
31: 66
32: 67
33: 67
34: 68
35: 69
36: 69
37: 69
38: 69
39: 69
40: 70
41: 70
42: 70
43: 71
44: 71
45: 71
46: 71
47: 71
48: 72
49: 72
50: 72
51: 73
52: 73
53: 74
54: 74
segment: [2]
vertex id: label
62: 0
63: 6
64: 4
65: 20
66: 18
67: 17
68: 17
69: 6
70: 20
71: 16
72: 10
73: 7
74: 14
75: 24
76: 1
77: 5
78: 17
79: 21
80: 8
81: 0
0: 25
1: 25
2: 25
3: 25
4: 25
5: 25
6: 25
7: 25
8: 25
9: 25
10: 25
11: 25
12: 25
13: 25
14: 25
15: 25
16: 25
17: 25
18: 25
19: 25
20: 25
21: 25
22: 25
23: 25
24: 25
25: 25
26: 25
27: 25
28: 25
29: 25
30: 25
31: 25
32: 25
33: 25
34: 25
35: 25
36: 25
37: 25
38: 25
39: 25
40: 25
41: 25
42: 25
43: 25
44: 25
45: 25
46: 25
47: 25
48: 25
49: 25
50: 25
51: 25
52: 25
53: 25
54: 25
55: 25
56: 25
57: 25
58: 25
59: 25
60: 25
61: 25
edge from: to
62: 0
63: 2
64: 3
64: 5
65: 10
66: 13
67: 14
67: 15
67: 16
68: 10
68: 15
68: 16
68: 17
69: 21
70: 13
71: 23
71: 26
72: 29
73: 31
73: 33
74: 36
74: 40
75: 38
75: 39
75: 40
75: 42
75: 43
76: 42
76: 45
77: 45
77: 48
78: 41
78: 45
78: 50
79: 28
79: 43
79: 46
79: 47
79: 52
80: 45
80: 48
80: 50
80: 51
80: 55
81: 52
81: 53
81: 57
1: 62
2: 62
3: 62
4: 63
5: 63
6: 64
7: 64
8: 64
9: 64
10: 64
11: 65
12: 65
13: 65
14: 66
15: 66
16: 66
17: 67
18: 67
19: 68
20: 68
21: 68
22: 69
23: 69
24: 69
25: 70
26: 70
27: 71
28: 71
29: 71
30: 72
31: 72
32: 72
33: 72
34: 73
35: 73
36: 73
37: 73
38: 73
39: 73
40: 73
41: 74
42: 74
43: 74
44: 75
45: 75
46: 76
47: 76
48: 76
49: 77
50: 77
51: 78
52: 78
53: 79
54: 79
55: 79
56: 80
57: 80
58: 81
59: 81
60: 81
61: 81
segment: [3]
vertex id: label
60: 0
61: 13
62: 14
63: 23
64: 10
65: 6
66: 4
67: 20
68: 11
69: 0
70: 16
71: 22
72: 24
73: 22
74: 2
75: 5
76: 0
77: 13
78: 14
79: 3
0: 25
1: 25
2: 25
3: 25
4: 25
5: 25
6: 25
7: 25
8: 25
9: 25
10: 25
11: 25
12: 25
13: 25
14: 25
15: 25
16: 25
17: 25
18: 25
19: 25
20: 25
21: 25
22: 25
23: 25
24: 25
25: 25
26: 25
27: 25
28: 25
29: 25
30: 25
31: 25
32: 25
33: 25
34: 25
35: 25
36: 25
37: 25
38: 25
39: 25
40: 25
41: 25
42: 25
43: 25
44: 25
45: 25
46: 25
47: 25
48: 25
49: 25
50: 25
51: 25
52: 25
53: 25
54: 25
55: 25
56: 25
57: 25
58: 25
59: 25
edge from: to
60: 0
60: 1
60: 2
60: 3
61: 6
62: 5
62: 9
63: 13
64: 15
65: 15
65: 16
65: 17
66: 21
67: 21
67: 22
67: 23
68: 26
69: 29
70: 29
70: 31
71: 29
71: 30
71: 32
72: 34
73: 34
73: 35
73: 38
74: 36
74: 40
75: 39
75: 42
76: 40
76: 43
77: 44
77: 47
78: 46
78: 51
79: 29
79: 49
4: 60
5: 60
6: 60
7: 61
8: 61
9: 61
10: 62
11: 62
12: 62
13: 62
14: 63
15: 63
16: 64
17: 64
18: 65
19: 65
20: 65
21: 65
22: 66
23: 66
24: 67
25: 67
26: 67
27: 68
28: 68
29: 68
30: 69
31: 69
32: 70
33: 71
34: 71
35: 72
36: 72
37: 72
38: 72
39: 73
40: 73
41: 74
42: 74
43: 75
44: 76
45: 76
46: 76
47: 76
48: 77
49: 77
50: 77
51: 77
52: 78
53: 78
54: 78
55: 79
56: 79
57: 79
58: 79
59: 79
segment: [4]
vertex id: label
64: 0
65: 24
66: 3
67: 18
68: 2
69: 5
70: 0
71: 21
72: 13
73: 14
74: 23
75: 5
76: 11
77: 0
78: 16
79: 22
80: 1
81: 16
82: 10
83: 14
0: 25
1: 25
2: 25
3: 25
4: 25
5: 25
6: 25
7: 25
8: 25
9: 25
10: 25
11: 25
12: 25
13: 25
14: 25
15: 25
16: 25
17: 25
18: 25
19: 25
20: 25
21: 25
22: 25
23: 25
24: 25
25: 25
26: 25
27: 25
28: 25
29: 25
30: 25
31: 25
32: 25
33: 25
34: 25
35: 25
36: 25
37: 25
38: 25
39: 25
40: 25
41: 25
42: 25
43: 25
44: 25
45: 25
46: 25
47: 25
48: 25
49: 25
50: 25
51: 25
52: 25
53: 25
54: 25
55: 25
56: 25
57: 25
58: 25
59: 25
60: 25
61: 25
62: 25
63: 25
edge from: to
64: 0
64: 1
64: 2
65: 2
65: 3
65: 4
65: 5
66: 5
66: 9
67: 10
67: 11
67: 12
68: 16
69: 15
69: 16
69: 17
70: 10
70: 15
70: 16
70: 17
70: 18
71: 20
71: 21
72: 23
72: 24
72: 26
73: 28
74: 32
75: 19
75: 33
76: 32
76: 36
77: 40
78: 39
78: 42
79: 41
79: 44
80: 47
81: 50
82: 30
83: 55
83: 59
3: 64
4: 64
5: 64
6: 65
7: 65
8: 65
9: 65
10: 66
11: 66
12: 66
13: 67
14: 67
15: 67
16: 67
17: 68
18: 69
19: 70
20: 70
21: 70
22: 71
23: 71
24: 71
25: 71
26: 71
27: 72
28: 72
29: 73
30: 73
31: 73
32: 73
33: 74
34: 74
35: 74
36: 75
37: 76
38: 76
39: 76
40: 76
41: 77
42: 77
43: 78
44: 78
45: 79
46: 79
47: 79
48: 80
49: 80
50: 80
51: 81
52: 81
53: 81
54: 81
55: 81
56: 81
57: 82
58: 82
59: 82
60: 83
61: 83
62: 83
63: 83
segment: [5]
vertex id: label
64: 0
65: 16
66: 22
67: 1
68: 16
69: 10
70: 14
71: 23
72: 5
73: 2
74: 4
75: 20
76: 13
77: 14
78: 18
79: 20
80: 18
81: 8
82: 0
83: 16
0: 25
1: 25
2: 25
3: 25
4: 25
5: 25
6: 25
7: 25
8: 25
9: 25
10: 25
11: 25
12: 25
13: 25
14: 25
15: 25
16: 25
17: 25
18: 25
19: 25
20: 25
21: 25
22: 25
23: 25
24: 25
25: 25
26: 25
27: 25
28: 25
29: 25
30: 25
31: 25
32: 25
33: 25
34: 25
35: 25
36: 25
37: 25
38: 25
39: 25
40: 25
41: 25
42: 25
43: 25
44: 25
45: 25
46: 25
47: 25
48: 25
49: 25
50: 25
51: 25
52: 25
53: 25
54: 25
55: 25
56: 25
57: 25
58: 25
59: 25
60: 25
61: 25
62: 25
63: 25
edge from: to
64: 0
65: 1
65: 2
65: 4
66: 8
67: 5
67: 8
67: 9
68: 12
68: 14
69: 16
70: 15
70: 17
71: 11
71: 19
72: 13
72: 21
73: 24
73: 27
74: 28
74: 30
75: 32
75: 34
76: 20
77: 36
77: 40
78: 43
79: 44
79: 47
80: 44
80: 45
80: 48
81: 45
81: 50
82: 29
82: 49
82: 54
83: 56
83: 60
1: 64
2: 64
3: 64
4: 64
5: 65
6: 65
7: 65
8: 65
9: 66
10: 67
11: 67
12: 67
13: 67
14: 67
15: 68
16: 68
17: 69
18: 70
19: 70
20: 70
21: 71
22: 71
23: 71
24: 71
25: 72
26: 72
27: 72
28: 73
29: 73
30: 73
31: 74
32: 74
33: 74
34: 74
35: 75
36: 75
37: 75
38: 76
39: 76
40: 76
41: 77
42: 77
43: 77
44: 78
45: 78
46: 78
47: 78
48: 79
49: 80
50: 80
51: 81
52: 81
53: 81
54: 81
55: 82
56: 82
57: 82
58: 82
59: 82
60: 82
61: 83
62: 83
63: 83
segment: [6]
vertex id: label
55: 0
56: 20
57: 18
58: 2
59: 4
60: 16
61: 22
62: 1
63: 16
64: 10
65: 14
66: 23
67: 16
68: 22
69: 17
70: 6
71: 4
72: 20
73: 11
74: 0
0: 25
1: 25
2: 25
3: 25
4: 25
5: 25
6: 25
7: 25
8: 25
9: 25
10: 25
11: 25
12: 25
13: 25
14: 25
15: 25
16: 25
17: 25
18: 25
19: 25
20: 25
21: 25
22: 25
23: 25
24: 25
25: 25
26: 25
27: 25
28: 25
29: 25
30: 25
31: 25
32: 25
33: 25
34: 25
35: 25
36: 25
37: 25
38: 25
39: 25
40: 25
41: 25
42: 25
43: 25
44: 25
45: 25
46: 25
47: 25
48: 25
49: 25
50: 25
51: 25
52: 25
53: 25
54: 25
edge from: to
55: 0
55: 1
55: 2
55: 3
56: 3
57: 7
57: 8
58: 5
59: 9
59: 10
60: 14
61: 14
61: 15
61: 16
62: 17
63: 11
63: 19
64: 21
65: 23
66: 23
66: 26
67: 25
67: 28
68: 30
68: 31
68: 33
69: 38
70: 40
71: 42
71: 45
72: 42
72: 43
72: 46
73: 43
73: 44
73: 49
74: 51
4: 55
5: 55
6: 56
7: 56
8: 56
9: 57
10: 58
11: 59
12: 59
13: 59
14: 59
15: 60
16: 60
17: 61
18: 62
19: 62
20: 62
21: 63
22: 64
23: 64
24: 65
25: 65
26: 65
27: 66
28: 66
29: 67
30: 67
31: 67
32: 67
33: 67
34: 68
35: 68
36: 68
37: 68
38: 68
39: 69
40: 69
41: 70
42: 70
43: 70
44: 70
45: 70
46: 71
47: 72
48: 72
49: 72
50: 73
51: 73
52: 74
53: 74
54: 74
segment: [7]
vertex id: label
60: 0
61: 16
62: 22
63: 1
64: 5
65: 2
66: 0
67: 16
68: 22
69: 1
70: 5
71: 0
72: 6
73: 4
74: 20
75: 18
76: 2
77: 4
78: 20
79: 18
0: 25
1: 25
2: 25
3: 25
4: 25
5: 25
6: 25
7: 25
8: 25
9: 25
10: 25
11: 25
12: 25
13: 25
14: 25
15: 25
16: 25
17: 25
18: 25
19: 25
20: 25
21: 25
22: 25
23: 25
24: 25
25: 25
26: 25
27: 25
28: 25
29: 25
30: 25
31: 25
32: 25
33: 25
34: 25
35: 25
36: 25
37: 25
38: 25
39: 25
40: 25
41: 25
42: 25
43: 25
44: 25
45: 25
46: 25
47: 25
48: 25
49: 25
50: 25
51: 25
52: 25
53: 25
54: 25
55: 25
56: 25
57: 25
58: 25
59: 25
edge from: to
60: 0
60: 1
61: 4
61: 7
62: 10
63: 10
63: 12
64: 12
64: 14
65: 10
66: 12
67: 13
67: 21
67: 22
68: 24
68: 25
68: 27
69: 29
69: 31
70: 32
70: 34
71: 32
71: 33
71: 36
72: 36
72: 40
73: 37
73: 41
74: 40
74: 43
75: 42
75: 43
75: 46
76: 45
76: 50
77: 30
77: 51
77: 52
78: 57
79: 58
2: 60
3: 60
4: 60
5: 60
6: 60
7: 60
8: 61
9: 61
10: 61
11: 62
12: 62
13: 63
14: 63
15: 64
16: 64
17: 64
18: 64
19: 65
20: 65
21: 65
22: 65
23: 66
24: 66
25: 67
26: 67
27: 67
28: 68
29: 68
30: 68
31: 68
32: 69
33: 69
34: 69
35: 70
36: 70
37: 71
38: 71
39: 71
40: 71
41: 72
42: 73
43: 73
44: 74
45: 74
46: 74
47: 75
48: 75
49: 75
50: 75
51: 76
52: 76
53: 76
54: 76
55: 76
56: 76
57: 77
58: 78
59: 79
segment: [8]
vertex id: label
68: 0
69: 20
70: 18
71: 17
72: 6
73: 4
74: 20
75: 18
76: 9
77: 19
78: 9
79: 3
80: 20
81: 18
82: 8
83: 0
84: 16
85: 10
86: 7
87: 14
0: 25
1: 25
2: 25
3: 25
4: 25
5: 25
6: 25
7: 25
8: 25
9: 25
10: 25
11: 25
12: 25
13: 25
14: 25
15: 25
16: 25
17: 25
18: 25
19: 25
20: 25
21: 25
22: 25
23: 25
24: 25
25: 25
26: 25
27: 25
28: 25
29: 25
30: 25
31: 25
32: 25
33: 25
34: 25
35: 25
36: 25
37: 25
38: 25
39: 25
40: 25
41: 25
42: 25
43: 25
44: 25
45: 25
46: 25
47: 25
48: 25
49: 25
50: 25
51: 25
52: 25
53: 25
54: 25
55: 25
56: 25
57: 25
58: 25
59: 25
60: 25
61: 25
62: 25
63: 25
64: 25
65: 25
66: 25
67: 25
edge from: to
68: 0
68: 1
69: 7
69: 8
70: 10
71: 10
71: 12
72: 11
72: 12
72: 13
73: 14
73: 16
74: 11
75: 12
76: 22
76: 23
76: 25
77: 27
77: 29
77: 31
78: 19
79: 36
80: 41
81: 42
81: 45
82: 43
82: 46
83: 45
83: 50
84: 30
84: 52
85: 48
85: 53
85: 54
85: 58
86: 60
87: 57
87: 63
2: 68
3: 68
4: 68
5: 68
6: 68
7: 68
8: 68
9: 69
10: 69
11: 70
12: 70
13: 71
14: 72
15: 72
16: 72
17: 73
18: 73
19: 73
20: 73
21: 74
22: 74
23: 75
24: 75
25: 75
26: 76
27: 76
28: 76
29: 76
30: 76
31: 76
32: 77
33: 77
34: 77
35: 77
36: 78
37: 79
38: 79
39: 79
40: 79
41: 79
42: 80
43: 80
44: 80
45: 80
46: 81
47: 82
48: 82
49: 82
50: 82
51: 83
52: 83
53: 83
54: 83
55: 83
56: 83
57: 84
58: 84
59: 85
60: 85
61: 86
62: 86
63: 86
64: 87
65: 87
66: 87
67: 87
segment: [9]
vertex id: label
63: 0
64: 13
65: 14
66: 3
67: 20
68: 11
69: 2
70: 5
71: 3
72: 11
73: 0
74: 20
75: 13
76: 14
77: 3
78: 20
79: 13
80: 14
81: 23
82: 10
0: 25
1: 25
2: 25
3: 25
4: 25
5: 25
6: 25
7: 25
8: 25
9: 25
10: 25
11: 25
12: 25
13: 25
14: 25
15: 25
16: 25
17: 25
18: 25
19: 25
20: 25
21: 25
22: 25
23: 25
24: 25
25: 25
26: 25
27: 25
28: 25
29: 25
30: 25
31: 25
32: 25
33: 25
34: 25
35: 25
36: 25
37: 25
38: 25
39: 25
40: 25
41: 25
42: 25
43: 25
44: 25
45: 25
46: 25
47: 25
48: 25
49: 25
50: 25
51: 25
52: 25
53: 25
54: 25
55: 25
56: 25
57: 25
58: 25
59: 25
60: 25
61: 25
62: 25
edge from: to
63: 0
64: 1
64: 2
65: 3
65: 4
65: 5
66: 5
66: 6
67: 7
67: 8
68: 6
69: 13
70: 10
71: 12
71: 20
71: 21
72: 13
72: 21
73: 27
74: 27
74: 29
74: 31
75: 32
75: 34
76: 20
77: 40
78: 39
78: 42
79: 43
79: 46
80: 45
80: 48
81: 29
81: 49
81: 54
82: 57
1: 63
2: 63
3: 64
4: 64
5: 64
6: 65
7: 66
8: 66
9: 67
10: 67
11: 67
12: 68
13: 68
14: 69
15: 69
16: 69
17: 69
18: 69
19: 70
20: 70
21: 70
22: 70
23: 71
24: 71
25: 72
26: 72
27: 72
28: 73
29: 73
30: 73
31: 73
32: 74
33: 74
34: 74
35: 75
36: 75
37: 75
38: 76
39: 76
40: 76
41: 77
42: 77
43: 78
44: 78
45: 78
46: 78
47: 79
48: 79
49: 80
50: 80
51: 80
52: 80
53: 80
54: 80
55: 81
56: 81
57: 81
58: 82
59: 82
60: 82
61: 82
62: 82
