segment: [0]
vertex id: label
57: 0
58: 1
59: 2
60: 1
61: 2
62: 1
63: 2
64: 1
65: 2
66: 1
67: 2
68: 1
69: 2
70: 1
71: 2
72: 1
73: 2
74: 1
75: 2
76: 1
0: 3
1: 3
2: 3
3: 3
4: 3
5: 3
6: 3
7: 3
8: 3
9: 3
10: 3
11: 3
12: 3
13: 3
14: 3
15: 3
16: 3
17: 3
18: 3
19: 3
20: 3
21: 3
22: 3
23: 3
24: 3
25: 3
26: 3
27: 3
28: 3
29: 3
30: 3
31: 3
32: 3
33: 3
34: 3
35: 3
36: 3
37: 3
38: 3
39: 3
40: 3
41: 3
42: 3
43: 3
44: 3
45: 3
46: 3
47: 3
48: 3
49: 3
50: 3
51: 3
52: 3
53: 3
54: 3
55: 3
56: 3
edge from: to
57: 0
58: 0
58: 1
58: 2
59: 10
60: 4
60: 12
61: 15
61: 16
62: 14
62: 16
62: 17
63: 3
63: 17
63: 18
63: 19
63: 20
64: 22
65: 23
66: 8
66: 24
67: 24
67: 28
67: 29
68: 32
68: 33
69: 36
70: 39
71: 13
71: 40
72: 42
72: 43
73: 14
74: 44
74: 45
75: 48
76: 53
1: 57
2: 57
3: 58
4: 58
5: 58
6: 58
7: 58
8: 58
9: 58
10: 58
11: 59
12: 59
13: 60
14: 60
15: 60
16: 60
17: 61
18: 62
19: 62
20: 62
21: 63
22: 63
23: 64
24: 65
25: 65
26: 66
27: 66
28: 66
29: 66
30: 67
31: 67
32: 67
33: 67
34: 68
35: 68
36: 68
37: 69
38: 69
39: 69
40: 70
41: 70
42: 71
43: 71
44: 72
45: 73
46: 74
47: 74
48: 74
49: 75
50: 75
51: 75
52: 75
53: 75
54: 76
55: 76
56: 76
segment: [1]
vertex id: label
50: 0
51: 1
52: 2
53: 1
54: 2
55: 1
56: 2
57: 1
58: 2
59: 1
60: 2
61: 1
62: 2
63: 1
64: 2
65: 1
66: 2
67: 1
68: 2
69: 1
0: 3
1: 3
2: 3
3: 3
4: 3
5: 3
6: 3
7: 3
8: 3
9: 3
10: 3
11: 3
12: 3
13: 3
14: 3
15: 3
16: 3
17: 3
18: 3
19: 3
20: 3
21: 3
22: 3
23: 3
24: 3
25: 3
26: 3
27: 3
28: 3
29: 3
30: 3
31: 3
32: 3
33: 3
34: 3
35: 3
36: 3
37: 3
38: 3
39: 3
40: 3
41: 3
42: 3
43: 3
44: 3
45: 3
46: 3
47: 3
48: 3
49: 3
edge from: to
50: 0
51: 0
51: 4
52: 7
52: 8
53: 3
53: 9
54: 10
55: 4
55: 11
55: 12
56: 14
56: 15
57: 16
58: 3
58: 17
58: 19
58: 20
59: 17
59: 19
59: 21
59: 22
59: 23
60: 28
60: 29
61: 29
61: 30
62: 27
62: 32
62: 33
63: 34
64: 34
64: 35
65: 37
65: 38
66: 38
66: 39
67: 8
67: 41
67: 42
68: 14
69: 45
69: 46
1: 50
2: 50
3: 50
4: 50
5: 51
6: 51
7: 51
8: 51
9: 52
10: 53
11: 54
12: 54
13: 55
14: 55
15: 55
16: 56
17: 57
18: 57
19: 57
20: 57
21: 58
22: 58
23: 58
24: 59
25: 59
26: 59
27: 59
28: 59
29: 59
30: 60
31: 61
32: 61
33: 61
34: 62
35: 63
36: 64
37: 64
38: 64
39: 65
40: 66
41: 66
42: 66
43: 67
44: 67
45: 68
46: 68
47: 69
48: 69
49: 69
segment: [2]
vertex id: label
66: 0
67: 1
68: 2
69: 1
70: 2
71: 1
72: 2
73: 0
74: 1
75: 2
76: 1
77: 2
78: 1
79: 2
80: 1
81: 2
82: 1
83: 2
84: 1
85: 2
0: 3
1: 3
2: 3
3: 3
4: 3
5: 3
6: 3
7: 3
8: 3
9: 3
10: 3
11: 3
12: 3
13: 3
14: 3
15: 3
16: 3
17: 3
18: 3
19: 3
20: 3
21: 3
22: 3
23: 3
24: 3
25: 3
26: 3
27: 3
28: 3
29: 3
30: 3
31: 3
32: 3
33: 3
34: 3
35: 3
36: 3
37: 3
38: 3
39: 3
40: 3
41: 3
42: 3
43: 3
44: 3
45: 3
46: 3
47: 3
48: 3
49: 3
50: 3
51: 3
52: 3
53: 3
54: 3
55: 3
56: 3
57: 3
58: 3
59: 3
60: 3
61: 3
62: 3
63: 3
64: 3
65: 3
edge from: to
66: 0
67: 0
67: 1
67: 3
68: 1
68: 2
69: 3
70: 14
70: 15
71: 16
71: 17
72: 19
73: 18
73: 21
73: 22
74: 20
74: 23
74: 24
75: 25
75: 26
76: 9
76: 27
77: 28
77: 29
78: 32
78: 33
79: 35
79: 36
80: 42
81: 14
81: 43
82: 38
82: 44
82: 45
82: 46
83: 49
84: 57
84: 58
85: 19
85: 58
1: 66
2: 66
3: 66
4: 67
5: 67
6: 67
7: 68
8: 68
9: 68
10: 69
11: 69
12: 69
13: 69
14: 69
15: 69
16: 70
17: 70
18: 71
19: 71
20: 72
21: 72
22: 72
23: 73
24: 73
25: 74
26: 74
27: 75
28: 75
29: 76
30: 77
31: 77
32: 77
33: 77
34: 78
35: 78
36: 78
37: 79
38: 79
39: 79
40: 79
41: 79
42: 79
43: 80
44: 80
45: 81
46: 81
47: 82
48: 82
49: 82
50: 83
51: 83
52: 83
53: 83
54: 83
55: 83
56: 83
57: 83
58: 83
59: 84
60: 84
61: 85
62: 85
63: 85
64: 85
65: 85
segment: [3]
vertex id: label
51: 0
52: 1
53: 2
54: 1
55: 2
56: 1
57: 2
58: 1
59: 2
60: 0
61: 1
62: 2
63: 0
64: 1
65: 2
66: 1
67: 2
68: 1
69: 2
70: 1
0: 3
1: 3
2: 3
3: 3
4: 3
5: 3
6: 3
7: 3
8: 3
9: 3
10: 3
11: 3
12: 3
13: 3
14: 3
15: 3
16: 3
17: 3
18: 3
19: 3
20: 3
21: 3
22: 3
23: 3
24: 3
25: 3
26: 3
27: 3
28: 3
29: 3
30: 3
31: 3
32: 3
33: 3
34: 3
35: 3
36: 3
37: 3
38: 3
39: 3
40: 3
41: 3
42: 3
43: 3
44: 3
45: 3
46: 3
47: 3
48: 3
49: 3
50: 3
edge from: to
51: 0
51: 1
52: 0
52: 1
52: 2
53: 1
53: 2
54: 7
55: 3
55: 8
55: 9
56: 4
56: 11
56: 12
57: 2
57: 13
58: 12
58: 14
59: 3
59: 19
59: 20
60: 23
60: 24
61: 29
62: 25
62: 29
62: 30
63: 30
63: 31
64: 23
64: 30
64: 31
64: 32
65: 35
65: 36
66: 38
66: 39
67: 6
67: 40
68: 41
68: 42
69: 44
69: 45
70: 48
2: 51
3: 52
4: 52
5: 52
6: 52
7: 53
8: 54
9: 54
10: 55
11: 55
12: 55
13: 56
14: 57
15: 58
16: 58
17: 58
18: 58
19: 58
20: 58
21: 59
22: 59
23: 59
24: 59
25: 60
26: 60
27: 60
28: 60
29: 60
30: 61
31: 62
32: 63
33: 64
34: 64
35: 64
36: 64
37: 65
38: 65
39: 65
40: 66
41: 67
42: 67
43: 68
44: 68
45: 68
46: 69
47: 69
48: 69
49: 70
50: 70
segment: [4]
vertex id: label
52: 0
53: 1
54: 2
55: 1
56: 2
57: 1
58: 2
59: 1
60: 2
61: 1
62: 2
63: 1
64: 2
65: 1
66: 2
67: 1
68: 2
69: 1
70: 2
71: 1
0: 3
1: 3
2: 3
3: 3
4: 3
5: 3
6: 3
7: 3
8: 3
9: 3
10: 3
11: 3
12: 3
13: 3
14: 3
15: 3
16: 3
17: 3
18: 3
19: 3
20: 3
21: 3
22: 3
23: 3
24: 3
25: 3
26: 3
27: 3
28: 3
29: 3
30: 3
31: 3
32: 3
33: 3
34: 3
35: 3
36: 3
37: 3
38: 3
39: 3
40: 3
41: 3
42: 3
43: 3
44: 3
45: 3
46: 3
47: 3
48: 3
49: 3
50: 3
51: 3
edge from: to
52: 0
52: 1
53: 0
53: 1
53: 3
54: 1
54: 4
54: 5
55: 2
56: 2
56: 10
57: 4
57: 12
58: 14
59: 18
60: 4
60: 20
60: 21
61: 8
61: 21
61: 24
61: 25
62: 25
62: 28
62: 29
62: 30
63: 30
63: 31
63: 32
64: 28
64: 33
64: 34
65: 37
65: 38
66: 40
67: 42
68: 42
68: 43
69: 44
69: 45
70: 7
70: 47
71: 47
71: 48
71: 49
2: 52
3: 52
4: 53
5: 53
6: 54
7: 55
8: 55
9: 55
10: 55
11: 56
12: 56
13: 57
14: 57
15: 58
16: 58
17: 58
18: 58
19: 59
20: 59
21: 59
22: 60
23: 60
24: 60
25: 60
26: 61
27: 61
28: 61
29: 61
30: 61
31: 62
32: 62
33: 63
34: 63
35: 64
36: 64
37: 64
38: 64
39: 65
40: 65
41: 66
42: 66
43: 67
44: 68
45: 68
46: 69
47: 69
48: 70
49: 70
50: 71
51: 71
segment: [5]
vertex id: label
58: 0
59: 1
60: 2
61: 1
62: 2
63: 1
64: 2
65: 1
66: 2
67: 1
68: 2
69: 1
70: 2
71: 1
72: 2
73: 1
74: 2
75: 1
76: 2
77: 1
0: 3
1: 3
2: 3
3: 3
4: 3
5: 3
6: 3
7: 3
8: 3
9: 3
10: 3
11: 3
12: 3
13: 3
14: 3
15: 3
16: 3
17: 3
18: 3
19: 3
20: 3
21: 3
22: 3
23: 3
24: 3
25: 3
26: 3
27: 3
28: 3
29: 3
30: 3
31: 3
32: 3
33: 3
34: 3
35: 3
36: 3
37: 3
38: 3
39: 3
40: 3
41: 3
42: 3
43: 3
44: 3
45: 3
46: 3
47: 3
48: 3
49: 3
50: 3
51: 3
52: 3
53: 3
54: 3
55: 3
56: 3
57: 3
edge from: to
58: 0
59: 1
60: 1
61: 7
62: 7
62: 8
63: 12
63: 14
64: 14
64: 16
64: 17
65: 20
66: 19
66: 22
66: 23
67: 20
67: 23
67: 24
68: 26
68: 27
69: 29
70: 32
70: 33
71: 34
71: 35
72: 37
73: 13
74: 41
74: 42
75: 47
75: 48
76: 53
77: 54
77: 55
77: 56
1: 58
2: 59
3: 59
4: 60
5: 60
6: 60
7: 60
8: 61
9: 62
10: 62
11: 62
12: 62
13: 62
14: 62
15: 63
16: 63
17: 63
18: 64
19: 64
20: 64
21: 65
22: 65
23: 65
24: 66
25: 67
26: 67
27: 67
28: 68
29: 68
30: 69
31: 69
32: 69
33: 69
34: 70
35: 70
36: 71
37: 71
38: 72
39: 72
40: 72
41: 72
42: 73
43: 74
44: 74
45: 74
46: 74
47: 74
48: 74
49: 75
50: 75
51: 75
52: 75
53: 75
54: 76
55: 76
56: 76
57: 77
segment: [6]
vertex id: label
63: 0
64: 1
65: 2
66: 1
67: 2
68: 1
69: 2
70: 1
71: 2
72: 1
73: 2
74: 1
75: 2
76: 1
77: 2
78: 1
79: 2
80: 1
81: 2
82: 1
0: 3
1: 3
2: 3
3: 3
4: 3
5: 3
6: 3
7: 3
8: 3
9: 3
10: 3
11: 3
12: 3
13: 3
14: 3
15: 3
16: 3
17: 3
18: 3
19: 3
20: 3
21: 3
22: 3
23: 3
24: 3
25: 3
26: 3
27: 3
28: 3
29: 3
30: 3
31: 3
32: 3
33: 3
34: 3
35: 3
36: 3
37: 3
38: 3
39: 3
40: 3
41: 3
42: 3
43: 3
44: 3
45: 3
46: 3
47: 3
48: 3
49: 3
50: 3
51: 3
52: 3
53: 3
54: 3
55: 3
56: 3
57: 3
58: 3
59: 3
60: 3
61: 3
62: 3
edge from: to
63: 0
64: 0
64: 1
64: 4
64: 5
65: 7
66: 2
66: 8
66: 9
66: 10
67: 2
67: 13
68: 12
68: 14
69: 16
69: 17
70: 20
71: 21
72: 24
73: 8
74: 9
74: 27
75: 29
75: 30
76: 33
77: 34
77: 35
78: 39
79: 43
79: 44
79: 45
80: 49
81: 52
81: 53
81: 54
82: 57
82: 59
1: 63
2: 63
3: 63
4: 63
5: 63
6: 64
7: 64
8: 65
9: 65
10: 65
11: 66
12: 66
13: 66
14: 67
15: 68
16: 68
17: 68
18: 69
19: 69
20: 69
21: 70
22: 71
23: 71
24: 71
25: 72
26: 73
27: 73
28: 73
29: 74
30: 74
31: 75
32: 75
33: 75
34: 76
35: 76
36: 77
37: 77
38: 77
39: 77
40: 78
41: 78
42: 78
43: 78
44: 78
45: 78
46: 79
47: 79
48: 79
49: 79
50: 80
51: 80
52: 80
53: 80
54: 80
55: 81
56: 81
57: 81
58: 81
59: 81
60: 82
61: 82
62: 82
segment: [7]
vertex id: label
68: 0
69: 1
70: 2
71: 1
72: 2
73: 1
74: 2
75: 1
76: 2
77: 1
78: 2
79: 1
80: 2
81: 1
82: 2
83: 1
84: 2
85: 1
86: 2
87: 1
0: 3
1: 3
2: 3
3: 3
4: 3
5: 3
6: 3
7: 3
8: 3
9: 3
10: 3
11: 3
12: 3
13: 3
14: 3
15: 3
16: 3
17: 3
18: 3
19: 3
20: 3
21: 3
22: 3
23: 3
24: 3
25: 3
26: 3
27: 3
28: 3
29: 3
30: 3
31: 3
32: 3
33: 3
34: 3
35: 3
36: 3
37: 3
38: 3
39: 3
40: 3
41: 3
42: 3
43: 3
44: 3
45: 3
46: 3
47: 3
48: 3
49: 3
50: 3
51: 3
52: 3
53: 3
54: 3
55: 3
56: 3
57: 3
58: 3
59: 3
60: 3
61: 3
62: 3
63: 3
64: 3
65: 3
66: 3
67: 3
edge from: to
68: 0
69: 4
70: 1
70: 2
70: 3
70: 5
70: 6
71: 6
71: 7
71: 8
72: 10
73: 14
73: 15
74: 20
74: 21
75: 8
76: 29
77: 27
77: 31
77: 32
77: 33
78: 33
78: 34
79: 38
80: 42
81: 45
81: 46
82: 49
82: 50
83: 51
83: 52
83: 53
84: 55
84: 56
85: 59
86: 60
86: 61
87: 65
1: 68
2: 68
3: 68
4: 68
5: 69
6: 69
7: 70
8: 70
9: 71
10: 71
11: 72
12: 72
13: 72
14: 72
15: 72
16: 73
17: 73
18: 73
19: 73
20: 73
21: 73
22: 74
23: 74
24: 74
25: 74
26: 75
27: 75
28: 75
29: 75
30: 76
31: 76
32: 76
33: 76
34: 77
35: 78
36: 78
37: 78
38: 78
39: 79
40: 79
41: 79
42: 79
43: 80
44: 80
45: 80
46: 80
47: 81
48: 81
49: 81
50: 81
51: 82
52: 82
53: 82
54: 83
55: 83
56: 83
57: 84
58: 84
59: 84
60: 85
61: 85
62: 86
63: 86
64: 86
65: 86
66: 87
67: 87
segment: [8]
vertex id: label
58: 0
59: 1
60: 2
61: 1
62: 2
63: 1
64: 2
65: 1
66: 2
67: 1
68: 2
69: 0
70: 1
71: 2
72: 1
73: 2
74: 1
75: 2
76: 0
77: 1
0: 3
1: 3
2: 3
3: 3
4: 3
5: 3
6: 3
7: 3
8: 3
9: 3
10: 3
11: 3
12: 3
13: 3
14: 3
15: 3
16: 3
17: 3
18: 3
19: 3
20: 3
21: 3
22: 3
23: 3
24: 3
25: 3
26: 3
27: 3
28: 3
29: 3
30: 3
31: 3
32: 3
33: 3
34: 3
35: 3
36: 3
37: 3
38: 3
39: 3
40: 3
41: 3
42: 3
43: 3
44: 3
45: 3
46: 3
47: 3
48: 3
49: 3
50: 3
51: 3
52: 3
53: 3
54: 3
55: 3
56: 3
57: 3
edge from: to
58: 0
58: 1
58: 2
59: 0
59: 4
60: 1
60: 7
61: 2
61: 8
61: 10
62: 15
63: 17
63: 18
64: 20
65: 18
65: 20
65: 21
65: 22
66: 8
66: 24
67: 1
67: 22
67: 26
67: 27
68: 29
68: 30
69: 31
69: 32
70: 35
71: 31
71: 35
71: 36
71: 37
72: 6
72: 40
73: 43
74: 45
75: 49
76: 50
77: 54
3: 58
4: 58
5: 59
6: 59
7: 59
8: 60
9: 60
10: 60
11: 61
12: 61
13: 61
14: 61
15: 61
16: 62
17: 62
18: 62
19: 63
20: 63
21: 64
22: 64
23: 65
24: 65
25: 65
26: 66
27: 66
28: 67
29: 67
30: 67
31: 68
32: 68
33: 69
34: 69
35: 69
36: 70
37: 70
38: 71
39: 71
40: 71
41: 72
42: 72
43: 72
44: 73
45: 73
46: 74
47: 74
48: 74
49: 74
50: 75
51: 76
52: 76
53: 76
54: 76
55: 77
56: 77
57: 77
segment: [9]
vertex id: label
66: 0
67: 1
68: 2
69: 1
70: 2
71: 1
72: 2
73: 1
74: 2
75: 1
76: 2
77: 1
78: 2
79: 1
80: 2
81: 1
82: 2
83: 1
84: 2
85: 0
0: 3
1: 3
2: 3
3: 3
4: 3
5: 3
6: 3
7: 3
8: 3
9: 3
10: 3
11: 3
12: 3
13: 3
14: 3
15: 3
16: 3
17: 3
18: 3
19: 3
20: 3
21: 3
22: 3
23: 3
24: 3
25: 3
26: 3
27: 3
28: 3
29: 3
30: 3
31: 3
32: 3
33: 3
34: 3
35: 3
36: 3
37: 3
38: 3
39: 3
40: 3
41: 3
42: 3
43: 3
44: 3
45: 3
46: 3
47: 3
48: 3
49: 3
50: 3
51: 3
52: 3
53: 3
54: 3
55: 3
56: 3
57: 3
58: 3
59: 3
60: 3
61: 3
62: 3
63: 3
64: 3
65: 3
edge from: to
66: 0
67: 4
68: 2
69: 1
69: 7
70: 2
70: 10
71: 14
72: 15
72: 16
73: 16
73: 18
73: 19
74: 20
74: 21
75: 24
76: 26
76: 30
76: 31
77: 34
77: 35
78: 32
78: 38
78: 39
79: 40
80: 46
80: 47
80: 48
81: 49
81: 50
82: 54
82: 55
83: 57
83: 59
84: 19
84: 58
85: 61
85: 62
1: 66
2: 66
3: 66
4: 66
5: 67
6: 67
7: 68
8: 69
9: 69
10: 69
11: 70
12: 70
13: 70
14: 70
15: 71
16: 71
17: 72
18: 72
19: 72
20: 73
21: 73
22: 74
23: 74
24: 74
25: 75
26: 75
27: 75
28: 75
29: 75
30: 75
31: 75
32: 76
33: 76
34: 76
35: 76
36: 77
37: 77
38: 77
39: 77
40: 78
41: 79
42: 79
43: 79
44: 79
45: 79
46: 79
47: 79
48: 79
49: 80
50: 80
51: 81
52: 81
53: 81
54: 81
55: 81
56: 82
57: 82
58: 82
59: 82
60: 83
61: 84
62: 84
63: 85
64: 85
65: 85
