segment: [0]
vertex id: label
49: 0
50: 10
51: 11
52: 12
53: 16
54: 6
55: 3
56: 7
57: 2
58: 12
59: 15
60: 12
61: 16
62: 13
63: 1
64: 0
65: 17
66: 5
67: 6
68: 18
0: 20
1: 20
2: 20
3: 20
4: 20
5: 20
6: 20
7: 20
8: 20
9: 20
10: 20
11: 20
12: 20
13: 20
14: 20
15: 20
16: 20
17: 20
18: 20
19: 20
20: 20
21: 20
22: 20
23: 20
24: 20
25: 20
26: 20
27: 20
28: 20
29: 20
30: 20
31: 20
32: 20
33: 20
34: 20
35: 20
36: 20
37: 20
38: 20
39: 20
40: 20
41: 20
42: 20
43: 20
44: 20
45: 20
46: 20
47: 20
48: 20
edge from: to
49: 0
49: 1
50: 5
50: 6
51: 6
51: 8
52: 8
52: 9
52: 10
53: 10
53: 11
53: 13
54: 12
54: 16
55: 13
55: 17
56: 18
57: 1
58: 18
58: 24
59: 26
59: 28
60: 22
60: 30
60: 32
61: 32
61: 34
62: 24
62: 27
62: 33
63: 34
64: 35
64: 37
65: 26
65: 36
66: 37
67: 40
68: 42
2: 49
3: 49
4: 49
5: 49
6: 49
7: 50
8: 50
9: 51
10: 51
11: 51
12: 52
13: 52
14: 52
15: 53
16: 53
17: 53
18: 54
19: 54
20: 55
21: 56
22: 56
23: 56
24: 56
25: 57
26: 57
27: 58
28: 58
29: 59
30: 59
31: 59
32: 59
33: 60
34: 60
35: 61
36: 62
37: 63
38: 64
39: 65
40: 65
41: 66
42: 66
43: 66
44: 67
45: 67
46: 68
47: 68
48: 68
segment: [1]
vertex id: label
50: 0
51: 15
52: 12
53: 3
54: 5
55: 6
56: 3
57: 14
58: 17
59: 11
60: 2
61: 14
62: 17
63: 5
64: 7
65: 11
66: 12
67: 16
68: 3
69: 14
0: 20
1: 20
2: 20
3: 20
4: 20
5: 20
6: 20
7: 20
8: 20
9: 20
10: 20
11: 20
12: 20
13: 20
14: 20
15: 20
16: 20
17: 20
18: 20
19: 20
20: 20
21: 20
22: 20
23: 20
24: 20
25: 20
26: 20
27: 20
28: 20
29: 20
30: 20
31: 20
32: 20
33: 20
34: 20
35: 20
36: 20
37: 20
38: 20
39: 20
40: 20
41: 20
42: 20
43: 20
44: 20
45: 20
46: 20
47: 20
48: 20
49: 20
edge from: to
50: 0
51: 0
51: 1
51: 2
52: 0
53: 0
53: 3
54: 10
55: 13
56: 11
56: 13
56: 15
56: 16
57: 17
58: 11
58: 13
58: 15
58: 17
58: 19
59: 14
59: 18
60: 1
60: 19
60: 20
60: 21
60: 24
61: 24
62: 26
62: 28
63: 22
63: 30
63: 32
64: 33
65: 35
65: 37
66: 39
66: 42
67: 42
68: 2
69: 33
69: 45
1: 50
2: 50
3: 51
4: 52
5: 53
6: 53
7: 53
8: 53
9: 53
10: 53
11: 53
12: 54
13: 54
14: 54
15: 55
16: 55
17: 56
18: 56
19: 57
20: 58
21: 59
22: 59
23: 59
24: 59
25: 60
26: 60
27: 61
28: 61
29: 62
30: 62
31: 62
32: 62
33: 63
34: 63
35: 63
36: 64
37: 64
38: 65
39: 65
40: 65
41: 65
42: 65
43: 66
44: 66
45: 66
46: 67
47: 67
48: 68
49: 69
segment: [2]
vertex id: label
64: 0
65: 10
66: 6
67: 3
68: 5
69: 1
70: 4
71: 1
72: 0
73: 10
74: 2
75: 7
76: 2
77: 12
78: 15
79: 14
80: 17
81: 5
82: 7
83: 2
0: 20
1: 20
2: 20
3: 20
4: 20
5: 20
6: 20
7: 20
8: 20
9: 20
10: 20
11: 20
12: 20
13: 20
14: 20
15: 20
16: 20
17: 20
18: 20
19: 20
20: 20
21: 20
22: 20
23: 20
24: 20
25: 20
26: 20
27: 20
28: 20
29: 20
30: 20
31: 20
32: 20
33: 20
34: 20
35: 20
36: 20
37: 20
38: 20
39: 20
40: 20
41: 20
42: 20
43: 20
44: 20
45: 20
46: 20
47: 20
48: 20
49: 20
50: 20
51: 20
52: 20
53: 20
54: 20
55: 20
56: 20
57: 20
58: 20
59: 20
60: 20
61: 20
62: 20
63: 20
edge from: to
64: 0
64: 1
65: 0
66: 5
67: 9
68: 8
68: 10
69: 9
69: 12
70: 14
71: 13
71: 15
71: 17
72: 1
72: 16
73: 18
73: 24
74: 28
75: 32
76: 36
77: 38
78: 40
79: 2
79: 36
79: 47
80: 35
80: 39
80: 48
81: 52
82: 56
83: 53
83: 58
83: 61
2: 64
3: 64
4: 65
5: 65
6: 66
7: 66
8: 66
9: 66
10: 67
11: 67
12: 68
13: 68
14: 69
15: 69
16: 70
17: 70
18: 70
19: 70
20: 71
21: 71
22: 71
23: 71
24: 72
25: 72
26: 72
27: 73
28: 73
29: 73
30: 73
31: 74
32: 74
33: 74
34: 74
35: 75
36: 75
37: 75
38: 75
39: 76
40: 76
41: 76
42: 77
43: 77
44: 78
45: 78
46: 78
47: 78
48: 79
49: 79
50: 79
51: 79
52: 80
53: 80
54: 80
55: 80
56: 81
57: 81
58: 81
59: 81
60: 82
61: 82
62: 83
63: 83
segment: [3]
vertex id: label
63: 0
64: 10
65: 18
66: 4
67: 4
68: 17
69: 11
70: 12
71: 3
72: 14
73: 17
74: 5
75: 1
76: 4
77: 4
78: 1
79: 4
80: 4
81: 1
82: 0
0: 20
1: 20
2: 20
3: 20
4: 20
5: 20
6: 20
7: 20
8: 20
9: 20
10: 20
11: 20
12: 20
13: 20
14: 20
15: 20
16: 20
17: 20
18: 20
19: 20
20: 20
21: 20
22: 20
23: 20
24: 20
25: 20
26: 20
27: 20
28: 20
29: 20
30: 20
31: 20
32: 20
33: 20
34: 20
35: 20
36: 20
37: 20
38: 20
39: 20
40: 20
41: 20
42: 20
43: 20
44: 20
45: 20
46: 20
47: 20
48: 20
49: 20
50: 20
51: 20
52: 20
53: 20
54: 20
55: 20
56: 20
57: 20
58: 20
59: 20
60: 20
61: 20
62: 20
edge from: to
63: 0
63: 1
63: 2
64: 7
65: 7
65: 9
66: 9
66: 12
67: 14
67: 15
68: 11
68: 15
68: 16
69: 20
69: 22
70: 1
70: 16
71: 18
71: 20
71: 24
71: 26
72: 28
72: 30
73: 26
73: 31
73: 33
74: 32
74: 34
75: 29
75: 35
75: 37
76: 36
77: 31
77: 35
77: 37
77: 40
78: 40
79: 2
79: 47
80: 48
81: 53
81: 56
82: 55
3: 63
4: 63
5: 63
6: 63
7: 63
8: 64
9: 64
10: 64
11: 65
12: 65
13: 65
14: 66
15: 66
16: 67
17: 68
18: 68
19: 68
20: 68
21: 68
22: 68
23: 69
24: 70
25: 70
26: 70
27: 71
28: 71
29: 71
30: 71
31: 72
32: 72
33: 72
34: 73
35: 74
36: 74
37: 74
38: 75
39: 75
40: 76
41: 77
42: 77
43: 77
44: 78
45: 78
46: 78
47: 78
48: 79
49: 79
50: 79
51: 79
52: 80
53: 80
54: 80
55: 80
56: 80
57: 81
58: 81
59: 82
60: 82
61: 82
62: 82
segment: [4]
vertex id: label
58: 0
59: 9
60: 6
61: 3
62: 5
63: 1
64: 0
65: 10
66: 19
67: 11
68: 12
69: 16
70: 6
71: 3
72: 5
73: 1
74: 4
75: 1
76: 4
77: 1
0: 20
1: 20
2: 20
3: 20
4: 20
5: 20
6: 20
7: 20
8: 20
9: 20
10: 20
11: 20
12: 20
13: 20
14: 20
15: 20
16: 20
17: 20
18: 20
19: 20
20: 20
21: 20
22: 20
23: 20
24: 20
25: 20
26: 20
27: 20
28: 20
29: 20
30: 20
31: 20
32: 20
33: 20
34: 20
35: 20
36: 20
37: 20
38: 20
39: 20
40: 20
41: 20
42: 20
43: 20
44: 20
45: 20
46: 20
47: 20
48: 20
49: 20
50: 20
51: 20
52: 20
53: 20
54: 20
55: 20
56: 20
57: 20
edge from: to
58: 0
58: 1
58: 2
58: 3
59: 4
59: 5
60: 7
60: 9
61: 9
61: 10
61: 12
62: 11
62: 15
63: 17
64: 16
64: 19
64: 21
65: 24
66: 21
66: 25
66: 27
67: 20
67: 27
67: 29
68: 28
69: 29
70: 32
71: 36
72: 39
72: 42
73: 41
73: 44
74: 2
74: 46
75: 2
75: 47
76: 46
77: 46
77: 50
77: 53
4: 58
5: 58
6: 59
7: 59
8: 59
9: 59
10: 60
11: 60
12: 60
13: 60
14: 61
15: 61
16: 61
17: 62
18: 62
19: 62
20: 63
21: 63
22: 64
23: 64
24: 64
25: 64
26: 65
27: 65
28: 66
29: 66
30: 67
31: 68
32: 69
33: 69
34: 69
35: 70
36: 70
37: 70
38: 70
39: 70
40: 71
41: 71
42: 71
43: 72
44: 72
45: 73
46: 73
47: 74
48: 75
49: 75
50: 76
51: 76
52: 76
53: 76
54: 77
55: 77
56: 77
57: 77
segment: [5]
vertex id: label
63: 0
64: 10
65: 2
66: 6
67: 3
68: 14
69: 17
70: 9
71: 6
72: 8
73: 8
74: 9
75: 6
76: 8
77: 8
78: 9
79: 6
80: 3
81: 14
82: 17
0: 20
1: 20
2: 20
3: 20
4: 20
5: 20
6: 20
7: 20
8: 20
9: 20
10: 20
11: 20
12: 20
13: 20
14: 20
15: 20
16: 20
17: 20
18: 20
19: 20
20: 20
21: 20
22: 20
23: 20
24: 20
25: 20
26: 20
27: 20
28: 20
29: 20
30: 20
31: 20
32: 20
33: 20
34: 20
35: 20
36: 20
37: 20
38: 20
39: 20
40: 20
41: 20
42: 20
43: 20
44: 20
45: 20
46: 20
47: 20
48: 20
49: 20
50: 20
51: 20
52: 20
53: 20
54: 20
55: 20
56: 20
57: 20
58: 20
59: 20
60: 20
61: 20
62: 20
edge from: to
63: 0
63: 1
63: 2
64: 0
64: 2
64: 3
65: 0
65: 2
65: 4
65: 5
65: 6
66: 8
67: 11
67: 12
68: 9
68: 12
69: 15
70: 13
70: 15
70: 17
71: 18
72: 1
72: 19
72: 24
73: 27
74: 23
74: 28
74: 30
75: 32
76: 35
77: 28
77: 38
78: 2
78: 36
78: 46
79: 47
79: 50
80: 53
80: 56
81: 56
81: 59
82: 41
82: 46
82: 57
3: 63
4: 64
5: 64
6: 64
7: 65
8: 65
9: 66
10: 66
11: 66
12: 66
13: 67
14: 68
15: 68
16: 68
17: 69
18: 69
19: 69
20: 70
21: 71
22: 71
23: 71
24: 71
25: 72
26: 72
27: 72
28: 72
29: 72
30: 73
31: 74
32: 74
33: 74
34: 74
35: 75
36: 75
37: 75
38: 76
39: 76
40: 76
41: 76
42: 77
43: 77
44: 77
45: 77
46: 77
47: 78
48: 78
49: 78
50: 78
51: 79
52: 79
53: 79
54: 79
55: 79
56: 79
57: 80
58: 80
59: 80
60: 81
61: 82
62: 82
segment: [6]
vertex id: label
55: 0
56: 10
57: 19
58: 11
59: 12
60: 16
61: 9
62: 6
63: 8
64: 9
65: 0
66: 10
67: 2
68: 9
69: 6
70: 3
71: 5
72: 1
73: 0
74: 9
0: 20
1: 20
2: 20
3: 20
4: 20
5: 20
6: 20
7: 20
8: 20
9: 20
10: 20
11: 20
12: 20
13: 20
14: 20
15: 20
16: 20
17: 20
18: 20
19: 20
20: 20
21: 20
22: 20
23: 20
24: 20
25: 20
26: 20
27: 20
28: 20
29: 20
30: 20
31: 20
32: 20
33: 20
34: 20
35: 20
36: 20
37: 20
38: 20
39: 20
40: 20
41: 20
42: 20
43: 20
44: 20
45: 20
46: 20
47: 20
48: 20
49: 20
50: 20
51: 20
52: 20
53: 20
54: 20
edge from: to
55: 0
55: 1
55: 2
56: 4
56: 5
57: 9
58: 9
58: 12
59: 10
59: 11
59: 13
60: 12
60: 13
60: 16
61: 17
62: 1
62: 24
63: 24
64: 20
64: 27
64: 29
65: 24
65: 26
65: 27
65: 29
65: 31
66: 22
66: 30
67: 32
68: 34
68: 36
69: 36
70: 40
70: 43
71: 2
72: 47
72: 50
73: 35
73: 48
74: 50
74: 53
3: 55
4: 55
5: 55
6: 56
7: 56
8: 56
9: 56
10: 57
11: 57
12: 57
13: 57
14: 58
15: 59
16: 59
17: 59
18: 60
19: 60
20: 61
21: 61
22: 61
23: 61
24: 61
25: 62
26: 62
27: 63
28: 63
29: 63
30: 64
31: 64
32: 65
33: 66
34: 66
35: 67
36: 67
37: 68
38: 68
39: 68
40: 69
41: 69
42: 69
43: 69
44: 70
45: 70
46: 70
47: 70
48: 71
49: 71
50: 71
51: 72
52: 73
53: 73
54: 74
segment: [7]
vertex id: label
68: 0
69: 9
70: 10
71: 18
72: 6
73: 3
74: 14
75: 17
76: 11
77: 2
78: 12
79: 3
80: 14
81: 17
82: 11
83: 12
84: 16
85: 19
86: 11
87: 12
0: 20
1: 20
2: 20
3: 20
4: 20
5: 20
6: 20
7: 20
8: 20
9: 20
10: 20
11: 20
12: 20
13: 20
14: 20
15: 20
16: 20
17: 20
18: 20
19: 20
20: 20
21: 20
22: 20
23: 20
24: 20
25: 20
26: 20
27: 20
28: 20
29: 20
30: 20
31: 20
32: 20
33: 20
34: 20
35: 20
36: 20
37: 20
38: 20
39: 20
40: 20
41: 20
42: 20
43: 20
44: 20
45: 20
46: 20
47: 20
48: 20
49: 20
50: 20
51: 20
52: 20
53: 20
54: 20
55: 20
56: 20
57: 20
58: 20
59: 20
60: 20
61: 20
62: 20
63: 20
64: 20
65: 20
66: 20
67: 20
edge from: to
68: 0
68: 1
69: 0
70: 7
71: 10
72: 10
72: 13
73: 11
73: 15
74: 17
74: 18
75: 20
75: 22
76: 25
77: 27
78: 31
78: 33
79: 21
79: 29
79: 35
79: 37
80: 34
80: 41
80: 44
81: 33
81: 45
82: 35
82: 48
83: 52
83: 55
84: 54
85: 45
85: 56
85: 59
86: 58
86: 61
87: 59
2: 68
3: 68
4: 68
5: 69
6: 69
7: 69
8: 70
9: 70
10: 70
11: 70
12: 71
13: 71
14: 71
15: 72
16: 72
17: 73
18: 73
19: 74
20: 74
21: 74
22: 74
23: 75
24: 75
25: 75
26: 75
27: 75
28: 76
29: 76
30: 77
31: 77
32: 77
33: 77
34: 78
35: 78
36: 78
37: 78
38: 79
39: 79
40: 79
41: 79
42: 79
43: 79
44: 79
45: 80
46: 80
47: 80
48: 80
49: 81
50: 81
51: 81
52: 82
53: 82
54: 82
55: 82
56: 83
57: 83
58: 84
59: 84
60: 85
61: 85
62: 86
63: 86
64: 87
65: 87
66: 87
67: 87
segment: [8]
vertex id: label
83: 0
84: 10
85: 8
86: 8
87: 9
88: 6
89: 8
90: 9
91: 6
92: 3
93: 14
94: 17
95: 11
96: 12
97: 3
98: 7
99: 2
100: 9
101: 6
102: 3
0: 20
1: 20
2: 20
3: 20
4: 20
5: 20
6: 20
7: 20
8: 20
9: 20
10: 20
11: 20
12: 20
13: 20
14: 20
15: 20
16: 20
17: 20
18: 20
19: 20
20: 20
21: 20
22: 20
23: 20
24: 20
25: 20
26: 20
27: 20
28: 20
29: 20
30: 20
31: 20
32: 20
33: 20
34: 20
35: 20
36: 20
37: 20
38: 20
39: 20
40: 20
41: 20
42: 20
43: 20
44: 20
45: 20
46: 20
47: 20
48: 20
49: 20
50: 20
51: 20
52: 20
53: 20
54: 20
55: 20
56: 20
57: 20
58: 20
59: 20
60: 20
61: 20
62: 20
63: 20
64: 20
65: 20
66: 20
67: 20
68: 20
69: 20
70: 20
71: 20
72: 20
73: 20
74: 20
75: 20
76: 20
77: 20
78: 20
79: 20
80: 20
81: 20
82: 20
edge from: to
83: 0
83: 1
84: 8
85: 8
85: 9
85: 10
86: 16
87: 12
87: 16
87: 19
87: 21
88: 25
89: 30
90: 33
91: 35
91: 37
92: 40
92: 43
93: 31
93: 42
94: 47
94: 50
95: 50
96: 51
97: 54
98: 58
98: 61
99: 61
99: 65
100: 3
101: 69
101: 73
102: 51
102: 71
2: 83
3: 83
4: 83
5: 83
6: 83
7: 83
8: 83
9: 84
10: 84
11: 84
12: 85
13: 85
14: 85
15: 85
16: 85
17: 85
18: 86
19: 86
20: 86
21: 86
22: 87
23: 87
24: 87
25: 87
26: 87
27: 87
28: 88
29: 88
30: 88
31: 88
32: 88
33: 89
34: 89
35: 89
36: 90
37: 90
38: 91
39: 91
40: 91
41: 91
42: 91
43: 91
44: 92
45: 92
46: 93
47: 93
48: 93
49: 93
50: 93
51: 94
52: 94
53: 94
54: 95
55: 96
56: 96
57: 96
58: 97
59: 97
60: 97
61: 97
62: 98
63: 98
64: 98
65: 98
66: 99
67: 99
68: 99
69: 99
70: 99
71: 100
72: 100
73: 100
74: 101
75: 101
76: 102
77: 102
78: 102
79: 102
80: 102
81: 102
82: 102
segment: [9]
vertex id: label
64: 0
65: 10
66: 7
67: 2
68: 12
69: 15
70: 12
71: 16
72: 19
73: 11
74: 12
75: 15
76: 12
77: 15
78: 12
79: 19
80: 11
81: 12
82: 16
83: 6
0: 20
1: 20
2: 20
3: 20
4: 20
5: 20
6: 20
7: 20
8: 20
9: 20
10: 20
11: 20
12: 20
13: 20
14: 20
15: 20
16: 20
17: 20
18: 20
19: 20
20: 20
21: 20
22: 20
23: 20
24: 20
25: 20
26: 20
27: 20
28: 20
29: 20
30: 20
31: 20
32: 20
33: 20
34: 20
35: 20
36: 20
37: 20
38: 20
39: 20
40: 20
41: 20
42: 20
43: 20
44: 20
45: 20
46: 20
47: 20
48: 20
49: 20
50: 20
51: 20
52: 20
53: 20
54: 20
55: 20
56: 20
57: 20
58: 20
59: 20
60: 20
61: 20
62: 20
63: 20
edge from: to
64: 0
65: 0
65: 1
65: 2
66: 4
66: 5
67: 9
68: 10
68: 13
69: 11
69: 13
69: 15
69: 16
69: 17
69: 19
70: 19
70: 21
71: 1
72: 20
72: 24
72: 25
73: 27
74: 33
75: 34
76: 27
76: 30
76: 36
76: 39
77: 39
77: 42
78: 31
78: 42
78: 45
79: 35
79: 48
80: 44
80: 46
80: 50
80: 52
80: 53
81: 52
81: 55
82: 55
82: 58
83: 53
83: 58
83: 61
1: 64
3: 65
4: 65
5: 65
6: 66
7: 66
8: 66
9: 66
10: 67
11: 67
12: 67
13: 67
14: 67
15: 68
16: 68
17: 68
18: 68
19: 68
20: 69
21: 69
22: 70
23: 70
24: 71
25: 71
26: 72
27: 72
28: 72
29: 72
30: 73
31: 73
32: 73
33: 73
34: 73
35: 73
36: 74
37: 75
38: 75
39: 75
40: 76
41: 76
42: 76
43: 77
44: 77
45: 77
46: 78
47: 78
48: 78
49: 78
50: 78
51: 78
52: 79
53: 79
54: 80
55: 80
56: 81
57: 81
58: 81
59: 82
60: 82
61: 82
62: 83
63: 83
