segment: [0]
vertex id: label
64: 0
65: 1
66: 4
67: 4
68: 0
69: 3
70: 3
71: 0
72: 0
73: 2
74: 4
75: 4
76: 4
77: 0
78: 0
79: 1
80: 0
81: 0
82: 0
83: 0
0: 5
1: 5
2: 5
3: 5
4: 5
5: 5
6: 5
7: 5
8: 5
9: 5
10: 5
11: 5
12: 5
13: 5
14: 5
15: 5
16: 5
17: 5
18: 5
19: 5
20: 5
21: 5
22: 5
23: 5
24: 5
25: 5
26: 5
27: 5
28: 5
29: 5
30: 5
31: 5
32: 5
33: 5
34: 5
35: 5
36: 5
37: 5
38: 5
39: 5
40: 5
41: 5
42: 5
43: 5
44: 5
45: 5
46: 5
47: 5
48: 5
49: 5
50: 5
51: 5
52: 5
53: 5
54: 5
55: 5
56: 5
57: 5
58: 5
59: 5
60: 5
61: 5
62: 5
63: 5
edge from: to
64: 0
64: 1
65: 5
66: 6
67: 9
67: 13
67: 14
68: 17
69: 14
70: 16
70: 23
71: 25
71: 26
72: 18
72: 26
73: 20
73: 29
74: 21
74: 22
74: 32
75: 35
75: 37
76: 37
76: 38
77: 39
77: 40
78: 46
79: 49
80: 50
80: 52
81: 53
81: 55
82: 57
83: 60
2: 64
3: 64
4: 64
5: 64
6: 65
7: 65
8: 65
9: 65
10: 66
11: 66
12: 66
13: 66
14: 66
15: 67
16: 67
17: 67
18: 68
19: 68
20: 68
21: 68
22: 69
23: 69
24: 69
25: 70
26: 70
27: 71
28: 72
29: 72
30: 72
31: 73
32: 73
33: 73
34: 74
35: 74
36: 74
37: 74
38: 75
39: 76
40: 76
41: 77
42: 77
43: 77
44: 77
45: 77
46: 77
47: 78
48: 78
49: 78
50: 79
51: 79
52: 79
53: 80
54: 80
55: 80
56: 81
57: 81
58: 82
59: 82
60: 82
61: 83
62: 83
63: 83
segment: [1]
vertex id: label
63: 0
64: 3
65: 3
66: 3
67: 3
68: 3
69: 2
70: 4
71: 0
72: 0
73: 3
74: 3
75: 3
76: 3
77: 3
78: 3
79: 3
80: 3
81: 3
82: 3
0: 5
1: 5
2: 5
3: 5
4: 5
5: 5
6: 5
7: 5
8: 5
9: 5
10: 5
11: 5
12: 5
13: 5
14: 5
15: 5
16: 5
17: 5
18: 5
19: 5
20: 5
21: 5
22: 5
23: 5
24: 5
25: 5
26: 5
27: 5
28: 5
29: 5
30: 5
31: 5
32: 5
33: 5
34: 5
35: 5
36: 5
37: 5
38: 5
39: 5
40: 5
41: 5
42: 5
43: 5
44: 5
45: 5
46: 5
47: 5
48: 5
49: 5
50: 5
51: 5
52: 5
53: 5
54: 5
55: 5
56: 5
57: 5
58: 5
59: 5
60: 5
61: 5
62: 5
edge from: to
63: 0
63: 1
64: 3
65: 3
65: 7
65: 8
66: 7
66: 11
67: 10
67: 14
68: 2
68: 13
68: 16
68: 18
68: 19
69: 14
70: 22
70: 23
71: 16
71: 23
72: 28
72: 29
73: 21
73: 22
73: 32
73: 33
74: 35
74: 37
75: 40
76: 42
77: 29
77: 42
78: 49
79: 33
80: 35
81: 55
81: 57
82: 50
82: 58
82: 60
2: 63
3: 63
4: 63
5: 64
6: 64
7: 64
8: 64
9: 65
10: 65
11: 65
12: 66
13: 66
14: 66
15: 66
16: 67
17: 67
18: 67
19: 67
20: 68
21: 68
22: 69
23: 69
24: 70
25: 71
26: 71
27: 71
28: 71
29: 71
30: 72
31: 72
32: 72
33: 72
34: 73
35: 73
36: 73
37: 73
38: 74
39: 74
40: 74
41: 75
42: 75
43: 76
44: 76
45: 77
46: 77
47: 77
48: 77
49: 77
50: 78
51: 79
52: 79
53: 79
54: 80
55: 80
56: 80
57: 80
58: 81
59: 81
60: 81
61: 82
62: 82
segment: [2]
vertex id: label
59: 0
60: 1
61: 1
62: 1
63: 1
64: 1
65: 1
66: 1
67: 1
68: 1
69: 0
70: 0
71: 1
72: 4
73: 0
74: 0
75: 1
76: 1
77: 1
78: 1
0: 5
1: 5
2: 5
3: 5
4: 5
5: 5
6: 5
7: 5
8: 5
9: 5
10: 5
11: 5
12: 5
13: 5
14: 5
15: 5
16: 5
17: 5
18: 5
19: 5
20: 5
21: 5
22: 5
23: 5
24: 5
25: 5
26: 5
27: 5
28: 5
29: 5
30: 5
31: 5
32: 5
33: 5
34: 5
35: 5
36: 5
37: 5
38: 5
39: 5
40: 5
41: 5
42: 5
43: 5
44: 5
45: 5
46: 5
47: 5
48: 5
49: 5
50: 5
51: 5
52: 5
53: 5
54: 5
55: 5
56: 5
57: 5
58: 5
edge from: to
59: 0
60: 4
60: 5
61: 7
61: 9
61: 11
62: 10
62: 14
63: 12
64: 22
65: 19
65: 22
65: 23
66: 4
66: 22
66: 25
66: 26
67: 28
67: 29
68: 32
69: 34
70: 37
71: 26
72: 41
72: 43
73: 29
74: 43
74: 45
75: 31
76: 31
76: 41
76: 47
76: 49
77: 43
77: 50
77: 52
78: 55
78: 57
1: 59
2: 59
3: 59
4: 59
5: 59
6: 60
7: 60
8: 60
9: 60
10: 60
11: 60
12: 61
13: 61
14: 61
15: 61
16: 62
17: 62
18: 62
19: 63
20: 63
21: 63
22: 63
23: 64
24: 65
25: 65
26: 65
27: 66
28: 66
29: 66
30: 67
31: 67
32: 67
33: 68
34: 68
35: 69
36: 69
37: 69
38: 70
39: 70
40: 71
41: 71
42: 71
43: 71
44: 72
45: 73
46: 74
47: 74
48: 75
49: 75
50: 76
51: 76
52: 76
53: 77
54: 77
55: 77
56: 77
57: 77
58: 78
segment: [3]
vertex id: label
67: 0
68: 3
69: 3
70: 3
71: 2
72: 2
73: 2
74: 4
75: 4
76: 4
77: 0
78: 0
79: 0
80: 1
81: 1
82: 1
83: 1
84: 1
85: 1
86: 4
0: 5
1: 5
2: 5
3: 5
4: 5
5: 5
6: 5
7: 5
8: 5
9: 5
10: 5
11: 5
12: 5
13: 5
14: 5
15: 5
16: 5
17: 5
18: 5
19: 5
20: 5
21: 5
22: 5
23: 5
24: 5
25: 5
26: 5
27: 5
28: 5
29: 5
30: 5
31: 5
32: 5
33: 5
34: 5
35: 5
36: 5
37: 5
38: 5
39: 5
40: 5
41: 5
42: 5
43: 5
44: 5
45: 5
46: 5
47: 5
48: 5
49: 5
50: 5
51: 5
52: 5
53: 5
54: 5
55: 5
56: 5
57: 5
58: 5
59: 5
60: 5
61: 5
62: 5
63: 5
64: 5
65: 5
66: 5
edge from: to
67: 0
67: 1
67: 2
67: 3
67: 4
68: 1
68: 6
68: 8
69: 8
70: 9
70: 13
71: 11
71: 13
71: 15
71: 16
72: 14
72: 20
73: 16
73: 24
73: 25
74: 3
74: 18
74: 28
75: 22
76: 35
76: 37
77: 39
77: 40
78: 29
78: 36
78: 41
78: 43
79: 29
79: 42
79: 44
80: 31
81: 33
81: 48
82: 52
83: 39
83: 57
84: 60
85: 39
85: 41
85: 60
86: 63
5: 67
6: 67
7: 67
8: 67
9: 67
10: 68
11: 68
12: 68
13: 69
14: 70
15: 70
16: 70
17: 71
18: 71
19: 71
20: 71
21: 71
22: 72
23: 72
24: 72
25: 72
26: 73
27: 73
28: 73
29: 74
30: 74
31: 74
32: 74
33: 74
34: 75
35: 75
36: 75
37: 75
38: 76
39: 76
40: 76
41: 77
42: 77
43: 77
44: 78
45: 79
46: 79
47: 79
48: 80
49: 80
50: 80
51: 81
52: 81
53: 82
54: 82
55: 82
56: 82
57: 82
58: 82
59: 82
60: 83
61: 84
62: 84
63: 85
64: 86
65: 86
66: 86
segment: [4]
vertex id: label
80: 0
81: 1
82: 1
83: 1
84: 1
85: 3
86: 3
87: 3
88: 3
89: 3
90: 2
91: 2
92: 2
93: 2
94: 2
95: 4
96: 0
97: 1
98: 1
99: 4
0: 5
1: 5
2: 5
3: 5
4: 5
5: 5
6: 5
7: 5
8: 5
9: 5
10: 5
11: 5
12: 5
13: 5
14: 5
15: 5
16: 5
17: 5
18: 5
19: 5
20: 5
21: 5
22: 5
23: 5
24: 5
25: 5
26: 5
27: 5
28: 5
29: 5
30: 5
31: 5
32: 5
33: 5
34: 5
35: 5
36: 5
37: 5
38: 5
39: 5
40: 5
41: 5
42: 5
43: 5
44: 5
45: 5
46: 5
47: 5
48: 5
49: 5
50: 5
51: 5
52: 5
53: 5
54: 5
55: 5
56: 5
57: 5
58: 5
59: 5
60: 5
61: 5
62: 5
63: 5
64: 5
65: 5
66: 5
67: 5
68: 5
69: 5
70: 5
71: 5
72: 5
73: 5
74: 5
75: 5
76: 5
77: 5
78: 5
79: 5
edge from: to
80: 0
80: 1
81: 4
82: 1
82: 5
82: 6
82: 8
83: 7
83: 11
84: 9
84: 13
85: 13
86: 16
87: 20
87: 29
88: 31
88: 32
89: 24
89: 35
89: 36
90: 39
90: 40
91: 29
91: 42
92: 5
92: 31
92: 47
93: 51
94: 52
94: 54
95: 55
95: 57
96: 41
96: 60
97: 64
98: 38
98: 57
98: 67
98: 69
99: 70
99: 72
99: 73
99: 74
2: 80
3: 80
4: 80
5: 80
6: 80
7: 81
8: 81
9: 81
10: 82
11: 82
12: 83
13: 83
14: 84
15: 84
16: 84
17: 84
18: 84
19: 84
20: 85
21: 85
22: 85
23: 85
24: 85
25: 86
26: 86
27: 86
28: 86
29: 86
30: 86
31: 87
32: 87
33: 88
34: 88
35: 88
36: 88
37: 89
38: 89
39: 89
40: 89
41: 90
42: 90
43: 90
44: 90
45: 91
46: 91
47: 91
48: 92
49: 92
50: 92
51: 92
52: 93
53: 93
54: 93
55: 94
56: 94
57: 94
58: 95
59: 95
60: 95
61: 95
62: 95
63: 96
64: 96
65: 97
66: 97
67: 97
68: 97
69: 97
70: 98
71: 98
72: 98
73: 98
74: 98
75: 99
76: 99
77: 99
78: 99
79: 99
segment: [5]
vertex id: label
56: 0
57: 0
58: 0
59: 0
60: 1
61: 1
62: 4
63: 0
64: 0
65: 3
66: 3
67: 2
68: 2
69: 4
70: 0
71: 3
72: 3
73: 3
74: 3
75: 0
0: 5
1: 5
2: 5
3: 5
4: 5
5: 5
6: 5
7: 5
8: 5
9: 5
10: 5
11: 5
12: 5
13: 5
14: 5
15: 5
16: 5
17: 5
18: 5
19: 5
20: 5
21: 5
22: 5
23: 5
24: 5
25: 5
26: 5
27: 5
28: 5
29: 5
30: 5
31: 5
32: 5
33: 5
34: 5
35: 5
36: 5
37: 5
38: 5
39: 5
40: 5
41: 5
42: 5
43: 5
44: 5
45: 5
46: 5
47: 5
48: 5
49: 5
50: 5
51: 5
52: 5
53: 5
54: 5
55: 5
edge from: to
56: 0
57: 1
57: 2
57: 3
58: 4
58: 5
58: 6
59: 9
59: 13
60: 11
60: 15
61: 17
62: 6
62: 13
62: 17
62: 19
62: 20
63: 14
63: 20
64: 25
65: 28
65: 29
66: 30
66: 31
67: 21
67: 22
67: 32
68: 24
69: 37
69: 38
70: 40
71: 40
71: 42
72: 43
72: 45
73: 44
73: 46
74: 46
74: 48
75: 49
75: 51
1: 56
2: 56
3: 56
4: 57
5: 57
6: 57
7: 58
8: 58
9: 58
10: 58
11: 58
12: 58
13: 58
14: 59
15: 59
16: 59
17: 60
18: 61
19: 61
20: 61
21: 62
22: 63
23: 63
24: 63
25: 63
26: 64
27: 64
28: 64
29: 64
30: 65
31: 65
32: 66
33: 66
34: 67
35: 67
36: 67
37: 68
38: 68
39: 69
40: 69
41: 70
42: 70
43: 71
44: 71
45: 71
46: 72
47: 73
48: 73
49: 74
50: 74
51: 74
52: 75
53: 75
54: 75
55: 75
segment: [6]
vertex id: label
61: 0
62: 0
63: 1
64: 4
65: 0
66: 1
67: 4
68: 0
69: 1
70: 1
71: 1
72: 1
73: 1
74: 1
75: 0
76: 3
77: 3
78: 2
79: 4
80: 4
0: 5
1: 5
2: 5
3: 5
4: 5
5: 5
6: 5
7: 5
8: 5
9: 5
10: 5
11: 5
12: 5
13: 5
14: 5
15: 5
16: 5
17: 5
18: 5
19: 5
20: 5
21: 5
22: 5
23: 5
24: 5
25: 5
26: 5
27: 5
28: 5
29: 5
30: 5
31: 5
32: 5
33: 5
34: 5
35: 5
36: 5
37: 5
38: 5
39: 5
40: 5
41: 5
42: 5
43: 5
44: 5
45: 5
46: 5
47: 5
48: 5
49: 5
50: 5
51: 5
52: 5
53: 5
54: 5
55: 5
56: 5
57: 5
58: 5
59: 5
60: 5
edge from: to
61: 0
62: 0
62: 1
62: 2
63: 3
64: 5
64: 7
65: 1
65: 3
65: 7
65: 8
66: 7
67: 11
68: 5
68: 9
68: 11
68: 13
69: 11
69: 15
69: 16
70: 14
70: 20
71: 19
71: 22
71: 23
72: 25
72: 26
73: 32
74: 29
74: 34
74: 35
75: 42
76: 29
76: 44
76: 46
77: 22
77: 49
77: 50
77: 51
78: 52
78: 54
79: 53
79: 55
80: 48
80: 56
80: 58
1: 61
3: 62
4: 62
5: 63
6: 63
7: 63
8: 64
9: 65
10: 65
11: 66
12: 67
13: 67
14: 68
15: 68
16: 68
17: 69
18: 69
19: 69
20: 69
21: 69
22: 70
23: 70
24: 71
25: 71
26: 71
27: 72
28: 72
29: 72
30: 72
31: 72
32: 72
33: 73
34: 73
35: 73
36: 74
37: 74
38: 74
39: 74
40: 74
41: 74
42: 74
43: 75
44: 75
45: 75
46: 75
47: 76
48: 76
49: 76
50: 76
51: 76
52: 77
53: 77
54: 77
55: 78
56: 79
57: 79
58: 79
59: 80
60: 80
segment: [7]
vertex id: label
57: 0
58: 1
59: 1
60: 1
61: 1
62: 1
63: 1
64: 1
65: 1
66: 1
67: 1
68: 1
69: 4
70: 0
71: 1
72: 1
73: 1
74: 4
75: 2
76: 2
0: 5
1: 5
2: 5
3: 5
4: 5
5: 5
6: 5
7: 5
8: 5
9: 5
10: 5
11: 5
12: 5
13: 5
14: 5
15: 5
16: 5
17: 5
18: 5
19: 5
20: 5
21: 5
22: 5
23: 5
24: 5
25: 5
26: 5
27: 5
28: 5
29: 5
30: 5
31: 5
32: 5
33: 5
34: 5
35: 5
36: 5
37: 5
38: 5
39: 5
40: 5
41: 5
42: 5
43: 5
44: 5
45: 5
46: 5
47: 5
48: 5
49: 5
50: 5
51: 5
52: 5
53: 5
54: 5
55: 5
56: 5
edge from: to
57: 0
57: 1
57: 2
58: 4
58: 5
59: 5
59: 6
59: 7
60: 1
60: 4
60: 7
60: 8
60: 9
60: 10
61: 8
62: 13
62: 14
63: 11
64: 12
64: 15
64: 17
64: 18
65: 14
66: 22
66: 23
67: 4
67: 22
67: 25
67: 26
68: 3
68: 28
69: 34
69: 35
70: 25
70: 31
70: 35
70: 36
70: 37
71: 41
72: 29
72: 42
73: 43
73: 45
74: 40
74: 46
74: 48
75: 50
75: 52
76: 35
3: 57
4: 57
5: 57
6: 58
7: 58
8: 59
9: 59
10: 59
11: 60
12: 60
13: 61
14: 61
15: 62
16: 62
17: 63
18: 63
19: 64
20: 64
21: 64
22: 65
23: 65
24: 66
25: 66
26: 66
27: 67
28: 67
29: 68
30: 68
31: 68
32: 68
33: 68
34: 68
35: 68
36: 69
37: 69
38: 70
39: 70
40: 70
41: 70
42: 71
43: 71
44: 71
45: 72
46: 73
47: 73
48: 73
49: 74
50: 74
51: 74
52: 74
53: 75
54: 76
55: 76
56: 76
segment: [8]
vertex id: label
73: 0
74: 0
75: 0
76: 1
77: 1
78: 4
79: 0
80: 2
81: 4
82: 0
83: 1
84: 1
85: 1
86: 1
87: 1
88: 1
89: 1
90: 1
91: 0
92: 0
0: 5
1: 5
2: 5
3: 5
4: 5
5: 5
6: 5
7: 5
8: 5
9: 5
10: 5
11: 5
12: 5
13: 5
14: 5
15: 5
16: 5
17: 5
18: 5
19: 5
20: 5
21: 5
22: 5
23: 5
24: 5
25: 5
26: 5
27: 5
28: 5
29: 5
30: 5
31: 5
32: 5
33: 5
34: 5
35: 5
36: 5
37: 5
38: 5
39: 5
40: 5
41: 5
42: 5
43: 5
44: 5
45: 5
46: 5
47: 5
48: 5
49: 5
50: 5
51: 5
52: 5
53: 5
54: 5
55: 5
56: 5
57: 5
58: 5
59: 5
60: 5
61: 5
62: 5
63: 5
64: 5
65: 5
66: 5
67: 5
68: 5
69: 5
70: 5
71: 5
72: 5
edge from: to
73: 0
74: 4
74: 5
75: 1
75: 7
75: 10
76: 11
76: 15
77: 17
78: 21
78: 22
79: 16
79: 23
80: 26
81: 29
82: 28
82: 33
82: 34
83: 31
83: 35
83: 37
84: 45
85: 47
85: 49
86: 50
86: 52
87: 34
87: 52
87: 54
88: 58
89: 58
89: 60
90: 61
91: 54
91: 63
91: 65
92: 66
92: 67
92: 68
1: 73
2: 73
3: 73
4: 73
5: 73
6: 74
7: 74
8: 74
9: 74
10: 74
11: 75
12: 75
13: 75
14: 75
15: 75
16: 75
17: 76
18: 77
19: 77
20: 77
21: 77
22: 77
23: 78
24: 78
25: 79
26: 79
27: 80
28: 80
29: 80
30: 81
31: 81
32: 81
33: 81
34: 81
35: 82
36: 82
37: 82
38: 83
39: 83
40: 83
41: 83
42: 83
43: 83
44: 83
45: 83
46: 84
47: 84
48: 84
49: 84
50: 85
51: 85
52: 85
53: 86
54: 86
55: 87
56: 87
57: 87
58: 87
59: 88
60: 88
61: 89
62: 90
63: 90
64: 90
65: 90
66: 91
67: 91
68: 91
69: 92
70: 92
71: 92
72: 92
segment: [9]
vertex id: label
66: 0
67: 0
68: 1
69: 1
70: 1
71: 1
72: 1
73: 0
74: 0
75: 3
76: 3
77: 3
78: 3
79: 3
80: 3
81: 0
82: 1
83: 1
84: 1
85: 1
0: 5
1: 5
2: 5
3: 5
4: 5
5: 5
6: 5
7: 5
8: 5
9: 5
10: 5
11: 5
12: 5
13: 5
14: 5
15: 5
16: 5
17: 5
18: 5
19: 5
20: 5
21: 5
22: 5
23: 5
24: 5
25: 5
26: 5
27: 5
28: 5
29: 5
30: 5
31: 5
32: 5
33: 5
34: 5
35: 5
36: 5
37: 5
38: 5
39: 5
40: 5
41: 5
42: 5
43: 5
44: 5
45: 5
46: 5
47: 5
48: 5
49: 5
50: 5
51: 5
52: 5
53: 5
54: 5
55: 5
56: 5
57: 5
58: 5
59: 5
60: 5
61: 5
62: 5
63: 5
64: 5
65: 5
edge from: to
66: 0
66: 1
67: 0
67: 2
68: 4
69: 5
69: 7
70: 1
70: 7
71: 8
72: 9
72: 11
72: 13
72: 15
72: 16
73: 2
73: 13
73: 19
74: 14
74: 20
74: 21
75: 3
75: 28
76: 26
76: 30
76: 31
77: 35
78: 24
78: 37
78: 38
79: 40
79: 42
80: 43
80: 45
81: 46
81: 48
82: 52
83: 53
83: 55
84: 39
84: 49
84: 57
84: 59
85: 61
2: 66
3: 67
4: 67
5: 67
6: 67
7: 68
8: 69
9: 69
10: 69
11: 70
12: 70
13: 71
14: 71
15: 71
16: 71
17: 72
18: 72
19: 72
20: 73
21: 73
22: 74
23: 74
24: 74
25: 74
26: 74
27: 74
28: 74
29: 75
30: 75
31: 75
32: 76
33: 76
34: 76
35: 76
36: 77
37: 77
38: 77
39: 78
40: 78
41: 78
42: 78
43: 79
44: 79
45: 79
46: 80
47: 80
48: 80
49: 81
50: 81
51: 81
52: 81
53: 82
54: 82
55: 82
56: 83
57: 83
58: 83
59: 83
60: 84
61: 84
62: 85
63: 85
64: 85
65: 85
segment: [10]
vertex id: label
50: 0
51: 0
52: 0
53: 1
54: 1
55: 1
56: 1
57: 0
58: 3
59: 3
60: 3
61: 3
62: 0
63: 1
64: 1
65: 1
66: 1
67: 1
68: 1
69: 1
0: 5
1: 5
2: 5
3: 5
4: 5
5: 5
6: 5
7: 5
8: 5
9: 5
10: 5
11: 5
12: 5
13: 5
14: 5
15: 5
16: 5
17: 5
18: 5
19: 5
20: 5
21: 5
22: 5
23: 5
24: 5
25: 5
26: 5
27: 5
28: 5
29: 5
30: 5
31: 5
32: 5
33: 5
34: 5
35: 5
36: 5
37: 5
38: 5
39: 5
40: 5
41: 5
42: 5
43: 5
44: 5
45: 5
46: 5
47: 5
48: 5
49: 5
edge from: to
50: 0
50: 1
51: 7
51: 8
52: 1
52: 6
52: 8
53: 8
53: 10
53: 12
54: 9
54: 11
54: 13
55: 10
55: 14
55: 15
56: 12
56: 17
57: 21
57: 22
58: 16
59: 25
59: 26
60: 3
60: 28
61: 29
62: 32
63: 34
64: 35
65: 24
65: 35
65: 36
66: 38
67: 6
67: 26
67: 30
67: 38
67: 39
68: 41
69: 29
2: 50
3: 50
4: 50
5: 50
6: 50
7: 50
8: 50
9: 51
10: 52
11: 52
12: 52
13: 53
14: 54
15: 54
16: 55
17: 55
18: 55
19: 56
20: 56
21: 56
22: 56
23: 57
24: 57
25: 58
26: 58
27: 59
28: 59
29: 60
30: 61
31: 61
32: 61
33: 62
34: 62
35: 63
36: 64
37: 65
38: 65
39: 66
40: 67
41: 67
42: 68
43: 68
44: 68
45: 69
46: 69
47: 69
48: 69
49: 69
segment: [11]
vertex id: label
62: 0
63: 2
64: 4
65: 0
66: 1
67: 1
68: 1
69: 1
70: 1
71: 3
72: 3
73: 0
74: 1
75: 0
76: 0
77: 0
78: 1
79: 1
80: 4
81: 0
0: 5
1: 5
2: 5
3: 5
4: 5
5: 5
6: 5
7: 5
8: 5
9: 5
10: 5
11: 5
12: 5
13: 5
14: 5
15: 5
16: 5
17: 5
18: 5
19: 5
20: 5
21: 5
22: 5
23: 5
24: 5
25: 5
26: 5
27: 5
28: 5
29: 5
30: 5
31: 5
32: 5
33: 5
34: 5
35: 5
36: 5
37: 5
38: 5
39: 5
40: 5
41: 5
42: 5
43: 5
44: 5
45: 5
46: 5
47: 5
48: 5
49: 5
50: 5
51: 5
52: 5
53: 5
54: 5
55: 5
56: 5
57: 5
58: 5
59: 5
60: 5
61: 5
edge from: to
62: 0
62: 1
63: 2
64: 3
64: 4
65: 5
65: 6
65: 7
66: 3
66: 7
66: 8
67: 8
68: 9
69: 16
69: 17
70: 12
71: 22
71: 23
72: 28
72: 29
73: 31
73: 32
74: 35
75: 37
75: 38
76: 41
77: 46
78: 51
79: 50
79: 52
80: 37
80: 54
80: 55
80: 56
81: 56
81: 58
2: 62
3: 62
4: 63
5: 64
6: 64
7: 64
8: 65
9: 66
10: 66
11: 66
12: 66
13: 67
14: 68
15: 68
16: 68
17: 68
18: 69
19: 70
20: 70
21: 70
22: 70
23: 70
24: 71
25: 71
26: 71
27: 71
28: 71
29: 71
30: 72
31: 72
32: 72
33: 73
34: 73
35: 73
36: 74
37: 74
38: 74
39: 75
40: 75
41: 75
42: 76
43: 76
44: 76
45: 76
46: 76
47: 77
48: 77
49: 77
50: 77
51: 77
52: 78
53: 79
54: 79
55: 79
56: 79
57: 80
58: 80
59: 81
60: 81
61: 81
segment: [12]
vertex id: label
60: 0
61: 0
62: 3
63: 3
64: 0
65: 1
66: 4
67: 0
68: 0
69: 3
70: 3
71: 3
72: 0
73: 1
74: 1
75: 0
76: 0
77: 2
78: 4
79: 0
0: 5
1: 5
2: 5
3: 5
4: 5
5: 5
6: 5
7: 5
8: 5
9: 5
10: 5
11: 5
12: 5
13: 5
14: 5
15: 5
16: 5
17: 5
18: 5
19: 5
20: 5
21: 5
22: 5
23: 5
24: 5
25: 5
26: 5
27: 5
28: 5
29: 5
30: 5
31: 5
32: 5
33: 5
34: 5
35: 5
36: 5
37: 5
38: 5
39: 5
40: 5
41: 5
42: 5
43: 5
44: 5
45: 5
46: 5
47: 5
48: 5
49: 5
50: 5
51: 5
52: 5
53: 5
54: 5
55: 5
56: 5
57: 5
58: 5
59: 5
edge from: to
60: 0
60: 1
61: 5
62: 1
62: 5
62: 6
62: 8
63: 13
63: 14
64: 10
64: 14
65: 17
66: 14
66: 20
67: 13
67: 19
67: 22
67: 23
68: 18
69: 31
70: 35
71: 24
71: 35
72: 38
73: 26
73: 38
74: 26
74: 39
74: 41
75: 41
75: 43
76: 42
76: 43
76: 44
76: 45
77: 5
77: 31
77: 47
78: 33
79: 55
2: 60
3: 60
4: 60
5: 60
6: 60
7: 60
8: 61
9: 61
10: 62
11: 62
12: 62
13: 62
14: 62
15: 63
16: 64
17: 64
18: 65
19: 65
20: 65
21: 65
22: 66
23: 66
24: 67
25: 67
26: 67
27: 67
28: 68
29: 68
30: 68
31: 68
32: 69
33: 69
34: 69
35: 69
36: 70
37: 71
38: 71
39: 72
40: 73
41: 73
42: 74
43: 74
44: 75
45: 75
46: 76
47: 76
48: 77
49: 77
50: 77
51: 78
52: 78
53: 78
54: 78
55: 78
56: 79
57: 79
58: 79
59: 79
segment: [13]
vertex id: label
69: 0
70: 1
71: 4
72: 4
73: 0
74: 2
75: 2
76: 4
77: 4
78: 0
79: 0
80: 0
81: 1
82: 1
83: 1
84: 0
85: 1
86: 1
87: 1
88: 1
0: 5
1: 5
2: 5
3: 5
4: 5
5: 5
6: 5
7: 5
8: 5
9: 5
10: 5
11: 5
12: 5
13: 5
14: 5
15: 5
16: 5
17: 5
18: 5
19: 5
20: 5
21: 5
22: 5
23: 5
24: 5
25: 5
26: 5
27: 5
28: 5
29: 5
30: 5
31: 5
32: 5
33: 5
34: 5
35: 5
36: 5
37: 5
38: 5
39: 5
40: 5
41: 5
42: 5
43: 5
44: 5
45: 5
46: 5
47: 5
48: 5
49: 5
50: 5
51: 5
52: 5
53: 5
54: 5
55: 5
56: 5
57: 5
58: 5
59: 5
60: 5
61: 5
62: 5
63: 5
64: 5
65: 5
66: 5
67: 5
68: 5
edge from: to
69: 0
70: 3
70: 4
71: 4
71: 6
72: 11
73: 9
74: 12
74: 15
74: 17
74: 18
75: 21
75: 22
76: 16
76: 24
76: 25
77: 3
77: 28
78: 31
78: 32
79: 35
80: 35
80: 37
81: 42
82: 5
82: 31
82: 47
83: 33
83: 48
84: 34
84: 45
84: 52
84: 54
85: 37
86: 56
86: 58
87: 51
87: 59
87: 61
88: 65
1: 69
2: 69
3: 69
4: 69
5: 70
6: 70
7: 71
8: 71
9: 71
10: 71
11: 71
12: 72
13: 72
14: 73
15: 73
16: 73
17: 73
18: 73
19: 74
20: 74
21: 74
22: 74
23: 75
24: 75
25: 75
26: 76
27: 76
28: 76
29: 77
30: 77
31: 77
32: 77
33: 78
34: 78
35: 78
36: 79
37: 79
38: 80
39: 80
40: 80
41: 80
42: 80
43: 81
44: 81
45: 81
46: 81
47: 81
48: 82
49: 82
50: 82
51: 83
52: 83
53: 83
54: 83
55: 84
56: 84
57: 85
58: 85
59: 86
60: 86
61: 86
62: 87
63: 87
64: 87
65: 87
66: 88
67: 88
68: 88
segment: [14]
vertex id: label
71: 0
72: 2
73: 4
74: 0
75: 1
76: 1
77: 1
78: 4
79: 0
80: 1
81: 1
82: 1
83: 4
84: 0
85: 0
86: 1
87: 1
88: 3
89: 3
90: 3
0: 5
1: 5
2: 5
3: 5
4: 5
5: 5
6: 5
7: 5
8: 5
9: 5
10: 5
11: 5
12: 5
13: 5
14: 5
15: 5
16: 5
17: 5
18: 5
19: 5
20: 5
21: 5
22: 5
23: 5
24: 5
25: 5
26: 5
27: 5
28: 5
29: 5
30: 5
31: 5
32: 5
33: 5
34: 5
35: 5
36: 5
37: 5
38: 5
39: 5
40: 5
41: 5
42: 5
43: 5
44: 5
45: 5
46: 5
47: 5
48: 5
49: 5
50: 5
51: 5
52: 5
53: 5
54: 5
55: 5
56: 5
57: 5
58: 5
59: 5
60: 5
61: 5
62: 5
63: 5
64: 5
65: 5
66: 5
67: 5
68: 5
69: 5
70: 5
edge from: to
71: 0
71: 1
72: 3
72: 4
73: 1
73: 4
73: 5
73: 6
74: 7
74: 11
75: 13
75: 14
76: 16
76: 17
77: 14
77: 20
77: 21
78: 25
79: 28
80: 27
80: 31
80: 32
81: 24
81: 37
81: 38
82: 40
82: 42
83: 43
83: 45
84: 46
84: 48
85: 52
86: 37
86: 54
86: 56
87: 41
87: 51
87: 59
87: 61
88: 59
88: 61
88: 62
88: 63
89: 63
89: 65
90: 67
2: 71
3: 71
4: 71
5: 72
6: 72
7: 73
8: 73
9: 73
10: 73
11: 73
12: 74
13: 74
14: 74
15: 75
16: 75
17: 75
18: 76
19: 76
20: 76
21: 76
22: 77
23: 77
24: 77
25: 77
26: 78
27: 78
28: 78
29: 79
30: 79
31: 79
32: 79
33: 80
34: 80
35: 80
36: 80
37: 80
38: 80
39: 81
40: 81
41: 81
42: 81
43: 82
44: 82
45: 82
46: 83
47: 83
48: 83
49: 84
50: 84
51: 84
52: 84
53: 85
54: 85
55: 85
56: 85
57: 86
58: 86
59: 86
60: 86
61: 86
62: 87
63: 87
64: 88
65: 88
66: 89
67: 89
68: 90
69: 90
70: 90
segment: [15]
vertex id: label
53: 0
54: 3
55: 3
56: 3
57: 2
58: 2
59: 4
60: 0
61: 0
62: 0
63: 0
64: 3
65: 3
66: 2
67: 2
68: 4
69: 0
70: 1
71: 0
72: 0
0: 5
1: 5
2: 5
3: 5
4: 5
5: 5
6: 5
7: 5
8: 5
9: 5
10: 5
11: 5
12: 5
13: 5
14: 5
15: 5
16: 5
17: 5
18: 5
19: 5
20: 5
21: 5
22: 5
23: 5
24: 5
25: 5
26: 5
27: 5
28: 5
29: 5
30: 5
31: 5
32: 5
33: 5
34: 5
35: 5
36: 5
37: 5
38: 5
39: 5
40: 5
41: 5
42: 5
43: 5
44: 5
45: 5
46: 5
47: 5
48: 5
49: 5
50: 5
51: 5
52: 5
edge from: to
53: 0
53: 1
53: 2
54: 4
54: 5
55: 4
56: 7
56: 8
57: 7
58: 9
58: 13
59: 10
60: 11
60: 15
61: 13
62: 16
63: 18
63: 26
64: 20
65: 31
66: 22
67: 24
67: 37
67: 38
68: 26
69: 40
70: 46
71: 31
71: 47
71: 49
72: 33
72: 48
72: 49
72: 50
3: 53
4: 53
5: 53
6: 54
7: 55
8: 55
9: 56
10: 56
11: 57
12: 57
13: 57
14: 58
15: 58
16: 59
17: 60
18: 60
19: 60
20: 61
21: 61
22: 61
23: 61
24: 61
25: 62
26: 62
27: 62
28: 63
29: 63
30: 63
31: 64
32: 65
33: 65
34: 66
35: 66
36: 66
37: 66
38: 66
39: 67
40: 68
41: 69
42: 69
43: 69
44: 69
45: 69
46: 69
47: 70
48: 70
49: 70
50: 71
51: 72
52: 72
segment: [16]
vertex id: label
52: 0
53: 0
54: 0
55: 0
56: 0
57: 1
58: 1
59: 1
60: 1
61: 1
62: 4
63: 0
64: 1
65: 4
66: 0
67: 1
68: 1
69: 1
70: 1
71: 1
0: 5
1: 5
2: 5
3: 5
4: 5
5: 5
6: 5
7: 5
8: 5
9: 5
10: 5
11: 5
12: 5
13: 5
14: 5
15: 5
16: 5
17: 5
18: 5
19: 5
20: 5
21: 5
22: 5
23: 5
24: 5
25: 5
26: 5
27: 5
28: 5
29: 5
30: 5
31: 5
32: 5
33: 5
34: 5
35: 5
36: 5
37: 5
38: 5
39: 5
40: 5
41: 5
42: 5
43: 5
44: 5
45: 5
46: 5
47: 5
48: 5
49: 5
50: 5
51: 5
edge from: to
52: 0
53: 1
54: 3
54: 4
55: 5
56: 1
56: 7
57: 8
57: 12
58: 10
58: 14
58: 15
59: 12
60: 2
60: 13
60: 19
61: 20
62: 23
63: 25
64: 3
64: 28
65: 20
66: 26
66: 30
66: 31
67: 22
68: 35
68: 37
69: 40
69: 42
70: 46
71: 40
71: 46
71: 48
1: 52
2: 53
3: 53
4: 53
5: 54
6: 54
7: 54
8: 55
9: 55
10: 55
11: 56
12: 56
13: 57
14: 57
15: 57
16: 58
17: 58
18: 58
19: 59
20: 60
21: 61
22: 61
23: 61
24: 62
25: 62
26: 63
27: 63
28: 63
29: 64
30: 64
31: 65
32: 66
33: 66
34: 67
35: 67
36: 67
37: 67
38: 68
39: 68
40: 68
41: 68
42: 68
43: 69
44: 69
45: 69
46: 69
47: 70
48: 70
49: 71
50: 71
51: 71
segment: [17]
vertex id: label
55: 0
56: 0
57: 1
58: 1
59: 1
60: 1
61: 3
62: 2
63: 2
64: 4
65: 0
66: 0
67: 0
68: 1
69: 0
70: 0
71: 0
72: 0
73: 1
74: 1
0: 5
1: 5
2: 5
3: 5
4: 5
5: 5
6: 5
7: 5
8: 5
9: 5
10: 5
11: 5
12: 5
13: 5
14: 5
15: 5
16: 5
17: 5
18: 5
19: 5
20: 5
21: 5
22: 5
23: 5
24: 5
25: 5
26: 5
27: 5
28: 5
29: 5
30: 5
31: 5
32: 5
33: 5
34: 5
35: 5
36: 5
37: 5
38: 5
39: 5
40: 5
41: 5
42: 5
43: 5
44: 5
45: 5
46: 5
47: 5
48: 5
49: 5
50: 5
51: 5
52: 5
53: 5
54: 5
edge from: to
55: 0
55: 1
56: 4
56: 5
57: 4
57: 5
57: 6
57: 7
58: 6
59: 9
60: 13
60: 14
61: 13
62: 23
63: 16
64: 18
64: 26
65: 12
65: 27
65: 31
65: 32
66: 28
66: 33
66: 34
67: 35
67: 37
68: 40
69: 40
69: 42
70: 29
70: 42
71: 43
71: 45
72: 5
72: 31
73: 48
74: 49
74: 50
74: 51
2: 55
3: 55
4: 55
5: 55
6: 56
7: 56
8: 57
9: 57
10: 58
11: 58
12: 58
13: 58
14: 59
15: 60
16: 60
17: 60
18: 60
19: 60
20: 61
21: 61
22: 61
23: 61
24: 62
25: 63
26: 63
27: 63
28: 64
29: 64
30: 64
31: 64
32: 64
33: 65
34: 65
35: 66
36: 66
37: 66
38: 67
39: 67
40: 67
41: 68
42: 68
43: 69
44: 69
45: 70
46: 71
47: 71
48: 72
49: 73
50: 73
51: 73
52: 74
53: 74
54: 74
segment: [18]
vertex id: label
66: 0
67: 1
68: 1
69: 1
70: 1
71: 1
72: 1
73: 1
74: 1
75: 4
76: 0
77: 0
78: 0
79: 0
80: 0
81: 0
82: 1
83: 3
84: 3
85: 3
0: 5
1: 5
2: 5
3: 5
4: 5
5: 5
6: 5
7: 5
8: 5
9: 5
10: 5
11: 5
12: 5
13: 5
14: 5
15: 5
16: 5
17: 5
18: 5
19: 5
20: 5
21: 5
22: 5
23: 5
24: 5
25: 5
26: 5
27: 5
28: 5
29: 5
30: 5
31: 5
32: 5
33: 5
34: 5
35: 5
36: 5
37: 5
38: 5
39: 5
40: 5
41: 5
42: 5
43: 5
44: 5
45: 5
46: 5
47: 5
48: 5
49: 5
50: 5
51: 5
52: 5
53: 5
54: 5
55: 5
56: 5
57: 5
58: 5
59: 5
60: 5
61: 5
62: 5
63: 5
64: 5
65: 5
edge from: to
66: 0
67: 5
68: 1
68: 6
69: 13
69: 14
70: 12
70: 17
70: 18
71: 19
71: 20
72: 4
72: 13
72: 19
72: 22
72: 23
73: 25
73: 26
74: 28
75: 28
75: 29
76: 19
76: 20
76: 29
77: 31
77: 32
78: 24
79: 37
79: 38
80: 42
81: 44
81: 46
82: 18
82: 40
82: 46
82: 47
82: 48
83: 53
83: 55
84: 39
85: 63
1: 66
2: 66
3: 66
4: 66
5: 66
6: 67
7: 67
8: 67
9: 67
10: 68
11: 68
12: 68
13: 68
14: 68
15: 69
16: 69
17: 69
18: 69
19: 70
20: 70
21: 71
22: 71
23: 71
24: 72
25: 72
26: 72
27: 73
28: 73
29: 74
30: 75
31: 76
32: 76
33: 77
34: 77
35: 77
36: 77
37: 78
38: 78
39: 79
40: 79
41: 79
42: 79
43: 80
44: 80
45: 80
46: 80
47: 81
48: 81
49: 82
50: 82
51: 82
52: 82
53: 82
54: 82
55: 82
56: 83
57: 83
58: 83
59: 83
60: 84
61: 84
62: 84
63: 84
64: 85
65: 85
segment: [19]
vertex id: label
48: 0
49: 0
50: 1
51: 1
52: 1
53: 1
54: 4
55: 0
56: 1
57: 1
58: 0
59: 0
60: 3
61: 3
62: 3
63: 3
64: 3
65: 3
66: 2
67: 4
0: 5
1: 5
2: 5
3: 5
4: 5
5: 5
6: 5
7: 5
8: 5
9: 5
10: 5
11: 5
12: 5
13: 5
14: 5
15: 5
16: 5
17: 5
18: 5
19: 5
20: 5
21: 5
22: 5
23: 5
24: 5
25: 5
26: 5
27: 5
28: 5
29: 5
30: 5
31: 5
32: 5
33: 5
34: 5
35: 5
36: 5
37: 5
38: 5
39: 5
40: 5
41: 5
42: 5
43: 5
44: 5
45: 5
46: 5
47: 5
edge from: to
48: 0
48: 1
49: 4
49: 5
50: 8
51: 1
51: 6
52: 7
52: 9
52: 11
53: 8
53: 12
54: 14
55: 11
55: 15
55: 16
56: 14
56: 20
57: 21
57: 22
58: 25
59: 3
59: 28
60: 24
60: 28
60: 29
61: 26
61: 30
61: 31
62: 21
62: 22
62: 32
63: 24
63: 35
64: 35
64: 37
65: 41
66: 41
66: 43
67: 42
67: 43
67: 44
67: 45
2: 48
3: 48
4: 48
5: 48
6: 49
7: 49
8: 49
9: 50
10: 51
11: 51
12: 52
13: 53
14: 53
15: 54
16: 54
17: 55
18: 55
19: 55
20: 55
21: 55
22: 56
23: 57
24: 57
25: 57
26: 58
27: 58
28: 58
29: 59
30: 60
31: 60
32: 61
33: 61
34: 62
35: 62
36: 62
37: 63
38: 64
39: 64
40: 64
41: 64
42: 65
43: 65
44: 66
45: 66
46: 67
47: 67
segment: [20]
vertex id: label
70: 0
71: 0
72: 0
73: 2
74: 2
75: 4
76: 0
77: 3
78: 3
79: 3
80: 3
81: 3
82: 3
83: 0
84: 1
85: 1
86: 1
87: 1
88: 1
89: 1
0: 5
1: 5
2: 5
3: 5
4: 5
5: 5
6: 5
7: 5
8: 5
9: 5
10: 5
11: 5
12: 5
13: 5
14: 5
15: 5
16: 5
17: 5
18: 5
19: 5
20: 5
21: 5
22: 5
23: 5
24: 5
25: 5
26: 5
27: 5
28: 5
29: 5
30: 5
31: 5
32: 5
33: 5
34: 5
35: 5
36: 5
37: 5
38: 5
39: 5
40: 5
41: 5
42: 5
43: 5
44: 5
45: 5
46: 5
47: 5
48: 5
49: 5
50: 5
51: 5
52: 5
53: 5
54: 5
55: 5
56: 5
57: 5
58: 5
59: 5
60: 5
61: 5
62: 5
63: 5
64: 5
65: 5
66: 5
67: 5
68: 5
69: 5
edge from: to
70: 0
70: 1
71: 3
71: 4
72: 7
72: 8
73: 6
74: 7
74: 11
75: 11
75: 15
75: 16
76: 16
76: 17
77: 24
77: 25
78: 25
78: 26
79: 29
80: 21
80: 22
80: 32
81: 26
82: 39
82: 41
83: 41
83: 43
84: 43
84: 44
84: 45
85: 5
85: 26
85: 31
85: 39
85: 47
86: 33
86: 48
87: 35
87: 51
88: 36
88: 55
88: 57
89: 53
89: 62
89: 64
2: 70
3: 70
4: 70
5: 71
6: 71
7: 71
8: 71
9: 72
10: 73
11: 73
12: 74
13: 74
14: 74
15: 74
16: 74
17: 75
18: 76
19: 76
20: 76
21: 76
22: 76
23: 76
24: 76
25: 76
26: 77
27: 78
28: 78
29: 78
30: 79
31: 79
32: 79
33: 79
34: 80
35: 80
36: 80
37: 80
38: 80
39: 80
40: 81
41: 81
42: 82
43: 82
44: 83
45: 83
46: 84
47: 84
48: 85
49: 85
50: 85
51: 86
52: 86
53: 86
54: 87
55: 87
56: 87
57: 87
58: 88
59: 88
60: 88
61: 88
62: 88
63: 88
64: 88
65: 89
66: 89
67: 89
68: 89
69: 89
segment: [21]
vertex id: label
68: 0
69: 1
70: 0
71: 0
72: 0
73: 0
74: 0
75: 1
76: 0
77: 0
78: 1
79: 1
80: 0
81: 0
82: 0
83: 3
84: 2
85: 4
86: 0
87: 1
0: 5
1: 5
2: 5
3: 5
4: 5
5: 5
6: 5
7: 5
8: 5
9: 5
10: 5
11: 5
12: 5
13: 5
14: 5
15: 5
16: 5
17: 5
18: 5
19: 5
20: 5
21: 5
22: 5
23: 5
24: 5
25: 5
26: 5
27: 5
28: 5
29: 5
30: 5
31: 5
32: 5
33: 5
34: 5
35: 5
36: 5
37: 5
38: 5
39: 5
40: 5
41: 5
42: 5
43: 5
44: 5
45: 5
46: 5
47: 5
48: 5
49: 5
50: 5
51: 5
52: 5
53: 5
54: 5
55: 5
56: 5
57: 5
58: 5
59: 5
60: 5
61: 5
62: 5
63: 5
64: 5
65: 5
66: 5
67: 5
edge from: to
68: 0
68: 1
68: 2
69: 5
70: 9
71: 10
72: 17
73: 2
73: 13
74: 22
75: 22
75: 23
76: 26
77: 28
78: 19
78: 20
78: 25
78: 29
79: 31
80: 38
81: 40
81: 42
82: 31
83: 35
84: 55
85: 37
85: 43
85: 54
85: 55
85: 56
86: 58
87: 41
3: 68
4: 68
5: 68
6: 68
7: 68
8: 69
9: 69
10: 69
11: 69
12: 69
13: 69
14: 70
15: 70
16: 71
17: 71
18: 72
19: 72
20: 73
21: 73
22: 73
23: 74
24: 75
25: 75
26: 75
27: 76
28: 76
29: 77
30: 77
31: 78
32: 79
33: 79
34: 79
35: 79
36: 79
37: 79
38: 79
39: 80
40: 80
41: 80
42: 80
43: 81
44: 81
45: 81
46: 81
47: 81
48: 82
49: 82
50: 82
51: 82
52: 82
53: 82
54: 83
55: 83
56: 84
57: 85
58: 85
59: 86
60: 86
61: 86
62: 86
63: 87
64: 87
65: 87
66: 87
67: 87
segment: [22]
vertex id: label
73: 0
74: 1
75: 1
76: 4
77: 0
78: 1
79: 1
80: 0
81: 0
82: 0
83: 2
84: 4
85: 0
86: 1
87: 1
88: 1
89: 1
90: 1
91: 1
92: 1
0: 5
1: 5
2: 5
3: 5
4: 5
5: 5
6: 5
7: 5
8: 5
9: 5
10: 5
11: 5
12: 5
13: 5
14: 5
15: 5
16: 5
17: 5
18: 5
19: 5
20: 5
21: 5
22: 5
23: 5
24: 5
25: 5
26: 5
27: 5
28: 5
29: 5
30: 5
31: 5
32: 5
33: 5
34: 5
35: 5
36: 5
37: 5
38: 5
39: 5
40: 5
41: 5
42: 5
43: 5
44: 5
45: 5
46: 5
47: 5
48: 5
49: 5
50: 5
51: 5
52: 5
53: 5
54: 5
55: 5
56: 5
57: 5
58: 5
59: 5
60: 5
61: 5
62: 5
63: 5
64: 5
65: 5
66: 5
67: 5
68: 5
69: 5
70: 5
71: 5
72: 5
edge from: to
73: 0
73: 1
74: 4
74: 5
75: 1
75: 6
76: 11
77: 9
78: 11
79: 19
79: 20
80: 16
81: 20
81: 29
82: 26
82: 30
82: 31
83: 35
83: 37
84: 39
84: 41
85: 29
85: 42
86: 44
86: 46
87: 48
88: 34
88: 52
88: 54
89: 32
89: 48
89: 56
89: 58
90: 39
90: 41
90: 60
91: 11
91: 54
91: 63
91: 65
92: 67
92: 69
2: 73
3: 73
4: 73
5: 73
6: 74
7: 74
8: 74
9: 74
10: 75
11: 75
12: 76
13: 76
14: 77
15: 77
16: 77
17: 78
18: 78
19: 78
20: 78
21: 79
22: 79
23: 79
24: 79
25: 80
26: 80
27: 80
28: 80
29: 80
30: 80
31: 81
32: 82
33: 82
34: 82
35: 82
36: 82
37: 82
38: 83
39: 83
40: 83
41: 83
42: 84
43: 84
44: 84
45: 85
46: 85
47: 86
48: 86
49: 87
50: 87
51: 87
52: 87
53: 87
54: 87
55: 88
56: 88
57: 88
58: 88
59: 89
60: 89
61: 89
62: 89
63: 90
64: 90
65: 90
66: 91
67: 91
68: 91
69: 91
70: 92
71: 92
72: 92
segment: [23]
vertex id: label
69: 0
70: 3
71: 0
72: 0
73: 1
74: 1
75: 4
76: 0
77: 3
78: 3
79: 3
80: 3
81: 3
82: 3
83: 2
84: 4
85: 4
86: 0
87: 0
88: 3
0: 5
1: 5
2: 5
3: 5
4: 5
5: 5
6: 5
7: 5
8: 5
9: 5
10: 5
11: 5
12: 5
13: 5
14: 5
15: 5
16: 5
17: 5
18: 5
19: 5
20: 5
21: 5
22: 5
23: 5
24: 5
25: 5
26: 5
27: 5
28: 5
29: 5
30: 5
31: 5
32: 5
33: 5
34: 5
35: 5
36: 5
37: 5
38: 5
39: 5
40: 5
41: 5
42: 5
43: 5
44: 5
45: 5
46: 5
47: 5
48: 5
49: 5
50: 5
51: 5
52: 5
53: 5
54: 5
55: 5
56: 5
57: 5
58: 5
59: 5
60: 5
61: 5
62: 5
63: 5
64: 5
65: 5
66: 5
67: 5
68: 5
edge from: to
69: 0
69: 1
70: 6
71: 8
72: 11
72: 15
73: 14
74: 16
75: 3
75: 18
75: 28
76: 21
76: 22
76: 32
77: 33
77: 34
78: 37
78: 38
79: 26
79: 34
79: 39
79: 41
80: 41
80: 43
81: 43
81: 45
82: 48
83: 43
83: 50
83: 52
84: 54
85: 56
85: 58
86: 39
86: 57
87: 64
88: 7
88: 55
88: 66
2: 69
3: 69
4: 69
5: 69
6: 69
7: 69
8: 69
9: 69
10: 70
11: 70
12: 70
13: 71
14: 71
15: 71
16: 71
17: 72
18: 72
19: 72
20: 72
21: 72
22: 73
23: 73
24: 73
25: 74
26: 74
27: 74
28: 74
29: 75
30: 75
31: 75
32: 75
33: 75
34: 76
35: 77
36: 77
37: 77
38: 77
39: 78
40: 78
41: 78
42: 79
43: 79
44: 80
45: 80
46: 81
47: 81
48: 81
49: 82
50: 82
51: 82
52: 82
53: 83
54: 83
55: 84
56: 84
57: 84
58: 84
59: 85
60: 86
61: 86
62: 86
63: 86
64: 86
65: 87
66: 87
67: 88
68: 88
segment: [24]
vertex id: label
55: 0
56: 1
57: 1
58: 1
59: 1
60: 0
61: 0
62: 0
63: 1
64: 1
65: 1
66: 1
67: 1
68: 1
69: 1
70: 1
71: 1
72: 1
73: 1
74: 0
0: 5
1: 5
2: 5
3: 5
4: 5
5: 5
6: 5
7: 5
8: 5
9: 5
10: 5
11: 5
12: 5
13: 5
14: 5
15: 5
16: 5
17: 5
18: 5
19: 5
20: 5
21: 5
22: 5
23: 5
24: 5
25: 5
26: 5
27: 5
28: 5
29: 5
30: 5
31: 5
32: 5
33: 5
34: 5
35: 5
36: 5
37: 5
38: 5
39: 5
40: 5
41: 5
42: 5
43: 5
44: 5
45: 5
46: 5
47: 5
48: 5
49: 5
50: 5
51: 5
52: 5
53: 5
54: 5
edge from: to
55: 0
55: 1
56: 3
56: 4
56: 5
57: 6
58: 8
58: 10
58: 12
59: 9
60: 17
61: 12
62: 22
63: 22
63: 25
63: 26
64: 28
64: 29
65: 19
65: 20
65: 25
65: 29
66: 34
67: 24
67: 30
67: 35
67: 36
68: 24
68: 37
68: 38
69: 40
70: 29
70: 42
70: 44
71: 43
71: 44
71: 45
72: 27
72: 31
72: 33
72: 41
72: 47
72: 49
73: 50
73: 52
74: 35
2: 55
3: 55
4: 55
5: 55
6: 56
7: 56
8: 56
9: 56
10: 57
11: 57
12: 57
13: 58
14: 59
15: 59
16: 59
17: 59
18: 60
19: 61
20: 61
21: 61
22: 61
23: 62
24: 62
25: 62
26: 62
27: 63
28: 63
29: 63
30: 64
31: 65
32: 65
33: 65
34: 65
35: 66
36: 66
37: 67
38: 67
39: 68
40: 68
41: 69
42: 69
43: 69
44: 69
45: 70
46: 71
47: 71
48: 71
49: 71
50: 72
51: 72
52: 72
53: 73
54: 74
segment: [25]
vertex id: label
53: 0
54: 1
55: 1
56: 4
57: 4
58: 4
59: 0
60: 1
61: 1
62: 4
63: 4
64: 0
65: 0
66: 0
67: 3
68: 3
69: 3
70: 3
71: 3
72: 3
0: 5
1: 5
2: 5
3: 5
4: 5
5: 5
6: 5
7: 5
8: 5
9: 5
10: 5
11: 5
12: 5
13: 5
14: 5
15: 5
16: 5
17: 5
18: 5
19: 5
20: 5
21: 5
22: 5
23: 5
24: 5
25: 5
26: 5
27: 5
28: 5
29: 5
30: 5
31: 5
32: 5
33: 5
34: 5
35: 5
36: 5
37: 5
38: 5
39: 5
40: 5
41: 5
42: 5
43: 5
44: 5
45: 5
46: 5
47: 5
48: 5
49: 5
50: 5
51: 5
52: 5
edge from: to
53: 0
54: 0
54: 1
54: 2
55: 4
56: 8
57: 7
58: 8
59: 10
59: 14
59: 15
60: 11
61: 12
62: 14
62: 20
63: 18
64: 3
64: 28
65: 28
65: 29
66: 21
66: 22
66: 30
66: 32
66: 33
67: 35
67: 37
68: 26
68: 38
68: 39
69: 40
70: 43
71: 43
71: 45
72: 47
72: 49
1: 53
3: 54
4: 54
5: 54
6: 54
7: 55
8: 55
9: 56
10: 56
11: 57
12: 57
13: 58
14: 58
15: 58
16: 59
17: 60
18: 60
19: 61
20: 61
21: 61
22: 62
23: 62
24: 62
25: 62
26: 62
27: 62
28: 63
29: 64
30: 65
31: 65
32: 65
33: 65
34: 66
35: 66
36: 66
37: 66
38: 67
39: 67
40: 68
41: 69
42: 69
43: 69
44: 70
45: 70
46: 71
47: 71
48: 71
49: 71
50: 72
51: 72
52: 72
segment: [26]
vertex id: label
68: 0
69: 1
70: 1
71: 1
72: 1
73: 1
74: 1
75: 1
76: 1
77: 1
78: 1
79: 1
80: 1
81: 4
82: 0
83: 2
84: 2
85: 4
86: 4
87: 0
0: 5
1: 5
2: 5
3: 5
4: 5
5: 5
6: 5
7: 5
8: 5
9: 5
10: 5
11: 5
12: 5
13: 5
14: 5
15: 5
16: 5
17: 5
18: 5
19: 5
20: 5
21: 5
22: 5
23: 5
24: 5
25: 5
26: 5
27: 5
28: 5
29: 5
30: 5
31: 5
32: 5
33: 5
34: 5
35: 5
36: 5
37: 5
38: 5
39: 5
40: 5
41: 5
42: 5
43: 5
44: 5
45: 5
46: 5
47: 5
48: 5
49: 5
50: 5
51: 5
52: 5
53: 5
54: 5
55: 5
56: 5
57: 5
58: 5
59: 5
60: 5
61: 5
62: 5
63: 5
64: 5
65: 5
66: 5
67: 5
edge from: to
68: 0
68: 1
69: 4
70: 1
70: 6
71: 8
71: 12
72: 9
72: 13
72: 14
73: 12
73: 17
74: 14
74: 20
75: 22
75: 23
76: 18
76: 26
77: 31
78: 35
79: 25
79: 31
79: 35
79: 37
80: 39
80: 41
81: 29
82: 40
82: 46
82: 48
83: 33
83: 48
84: 52
84: 54
85: 37
86: 41
86: 60
87: 65
2: 68
3: 68
4: 68
5: 68
6: 68
7: 69
8: 69
9: 69
10: 70
11: 70
12: 70
13: 71
14: 71
15: 72
16: 72
17: 72
18: 72
19: 73
20: 73
21: 73
22: 74
23: 74
24: 75
25: 75
26: 75
27: 75
28: 76
29: 76
30: 76
31: 76
32: 77
33: 77
34: 77
35: 77
36: 78
37: 78
38: 79
39: 79
40: 79
41: 79
42: 80
43: 80
44: 80
45: 81
46: 81
47: 81
48: 81
49: 82
50: 82
51: 83
52: 83
53: 83
54: 83
55: 84
56: 84
57: 85
58: 85
59: 85
60: 85
61: 85
62: 85
63: 86
64: 86
65: 86
66: 87
67: 87
segment: [27]
vertex id: label
57: 0
58: 0
59: 0
60: 1
61: 1
62: 1
63: 1
64: 1
65: 1
66: 1
67: 1
68: 1
69: 1
70: 1
71: 1
72: 1
73: 1
74: 4
75: 0
76: 1
0: 5
1: 5
2: 5
3: 5
4: 5
5: 5
6: 5
7: 5
8: 5
9: 5
10: 5
11: 5
12: 5
13: 5
14: 5
15: 5
16: 5
17: 5
18: 5
19: 5
20: 5
21: 5
22: 5
23: 5
24: 5
25: 5
26: 5
27: 5
28: 5
29: 5
30: 5
31: 5
32: 5
33: 5
34: 5
35: 5
36: 5
37: 5
38: 5
39: 5
40: 5
41: 5
42: 5
43: 5
44: 5
45: 5
46: 5
47: 5
48: 5
49: 5
50: 5
51: 5
52: 5
53: 5
54: 5
55: 5
56: 5
edge from: to
57: 0
57: 1
58: 3
59: 4
59: 6
60: 7
60: 9
60: 11
61: 10
62: 12
62: 15
62: 17
62: 18
63: 13
63: 17
63: 19
63: 20
64: 16
65: 3
65: 28
66: 24
66: 28
66: 29
67: 22
67: 32
68: 34
68: 35
69: 24
70: 26
70: 38
71: 35
71: 40
71: 42
72: 29
72: 36
72: 41
72: 43
73: 45
74: 5
74: 31
74: 47
75: 33
75: 48
76: 34
76: 52
76: 54
2: 57
3: 57
4: 57
5: 58
6: 58
7: 59
8: 59
9: 59
10: 59
11: 59
12: 60
13: 60
14: 60
15: 60
16: 61
17: 61
18: 61
19: 62
20: 62
21: 63
22: 63
23: 63
24: 63
25: 64
26: 64
27: 64
28: 64
29: 65
30: 66
31: 66
32: 66
33: 66
34: 67
35: 67
36: 68
37: 69
38: 69
39: 69
40: 70
41: 70
42: 70
43: 71
44: 72
45: 72
46: 73
47: 73
48: 74
49: 74
50: 74
51: 75
52: 75
53: 75
54: 75
55: 76
56: 76
segment: [28]
vertex id: label
61: 0
62: 1
63: 0
64: 1
65: 1
66: 1
67: 0
68: 0
69: 0
70: 1
71: 4
72: 4
73: 0
74: 0
75: 1
76: 4
77: 0
78: 0
79: 0
80: 0
0: 5
1: 5
2: 5
3: 5
4: 5
5: 5
6: 5
7: 5
8: 5
9: 5
10: 5
11: 5
12: 5
13: 5
14: 5
15: 5
16: 5
17: 5
18: 5
19: 5
20: 5
21: 5
22: 5
23: 5
24: 5
25: 5
26: 5
27: 5
28: 5
29: 5
30: 5
31: 5
32: 5
33: 5
34: 5
35: 5
36: 5
37: 5
38: 5
39: 5
40: 5
41: 5
42: 5
43: 5
44: 5
45: 5
46: 5
47: 5
48: 5
49: 5
50: 5
51: 5
52: 5
53: 5
54: 5
55: 5
56: 5
57: 5
58: 5
59: 5
60: 5
edge from: to
61: 0
62: 1
63: 1
63: 2
63: 3
64: 5
64: 7
65: 1
65: 6
66: 11
67: 13
67: 14
68: 13
69: 21
69: 22
70: 18
70: 26
70: 27
71: 29
72: 31
72: 32
73: 34
73: 35
74: 31
74: 35
74: 37
75: 38
76: 40
76: 42
77: 43
77: 44
77: 45
78: 31
79: 35
79: 43
79: 50
79: 52
80: 48
80: 56
80: 58
1: 61
2: 62
3: 62
4: 63
5: 63
6: 63
7: 63
8: 64
9: 64
10: 65
11: 65
12: 66
13: 66
14: 66
15: 67
16: 67
17: 67
18: 67
19: 67
20: 68
21: 68
22: 68
23: 69
24: 69
25: 69
26: 69
27: 69
28: 70
29: 70
30: 71
31: 71
32: 71
33: 72
34: 72
35: 72
36: 73
37: 73
38: 74
39: 75
40: 75
41: 75
42: 75
43: 76
44: 76
45: 76
46: 77
47: 77
48: 78
49: 78
50: 78
51: 78
52: 78
53: 79
54: 79
55: 79
56: 79
57: 79
58: 79
59: 80
60: 80
segment: [29]
vertex id: label
72: 0
73: 3
74: 3
75: 2
76: 4
77: 0
78: 0
79: 1
80: 1
81: 1
82: 1
83: 0
84: 0
85: 1
86: 1
87: 1
88: 1
89: 1
90: 1
91: 1
0: 5
1: 5
2: 5
3: 5
4: 5
5: 5
6: 5
7: 5
8: 5
9: 5
10: 5
11: 5
12: 5
13: 5
14: 5
15: 5
16: 5
17: 5
18: 5
19: 5
20: 5
21: 5
22: 5
23: 5
24: 5
25: 5
26: 5
27: 5
28: 5
29: 5
30: 5
31: 5
32: 5
33: 5
34: 5
35: 5
36: 5
37: 5
38: 5
39: 5
40: 5
41: 5
42: 5
43: 5
44: 5
45: 5
46: 5
47: 5
48: 5
49: 5
50: 5
51: 5
52: 5
53: 5
54: 5
55: 5
56: 5
57: 5
58: 5
59: 5
60: 5
61: 5
62: 5
63: 5
64: 5
65: 5
66: 5
67: 5
68: 5
69: 5
70: 5
71: 5
edge from: to
72: 0
72: 1
73: 5
74: 1
74: 2
74: 4
74: 5
74: 6
75: 7
75: 8
76: 8
77: 16
77: 17
78: 22
79: 18
79: 26
80: 26
80: 30
80: 31
81: 22
81: 32
82: 31
82: 35
82: 37
83: 40
84: 42
85: 29
86: 49
87: 52
88: 37
88: 54
88: 55
88: 56
89: 58
89: 60
90: 61
90: 62
90: 63
91: 25
91: 45
91: 65
91: 67
2: 72
3: 72
4: 72
5: 72
6: 73
7: 74
8: 74
9: 75
10: 75
11: 75
12: 75
13: 76
14: 76
15: 76
16: 76
17: 76
18: 77
19: 77
20: 77
21: 77
22: 77
23: 78
24: 78
25: 78
26: 78
27: 78
28: 79
29: 79
30: 79
31: 79
32: 80
33: 80
34: 81
35: 81
36: 81
37: 81
38: 82
39: 82
40: 82
41: 83
42: 83
43: 84
44: 84
45: 85
46: 85
47: 85
48: 85
49: 85
50: 86
51: 86
52: 86
53: 87
54: 87
55: 87
56: 87
57: 88
58: 88
59: 88
60: 88
61: 89
62: 89
63: 89
64: 90
65: 90
66: 90
67: 90
68: 91
69: 91
70: 91
71: 91
