segment: [0]
vertex id: label
62: 0
63: 1
64: 2
65: 2
66: 3
67: 1
68: 3
69: 1
70: 3
71: 1
72: 3
73: 4
74: 4
75: 1
76: 3
77: 1
78: 3
79: 1
80: 0
81: 1
0: 5
1: 5
2: 5
3: 5
4: 5
5: 5
6: 5
7: 5
8: 5
9: 5
10: 5
11: 5
12: 5
13: 5
14: 5
15: 5
16: 5
17: 5
18: 5
19: 5
20: 5
21: 5
22: 5
23: 5
24: 5
25: 5
26: 5
27: 5
28: 5
29: 5
30: 5
31: 5
32: 5
33: 5
34: 5
35: 5
36: 5
37: 5
38: 5
39: 5
40: 5
41: 5
42: 5
43: 5
44: 5
45: 5
46: 5
47: 5
48: 5
49: 5
50: 5
51: 5
52: 5
53: 5
54: 5
55: 5
56: 5
57: 5
58: 5
59: 5
60: 5
61: 5
edge from: to
62: 0
62: 1
63: 4
63: 5
64: 1
64: 13
65: 1
65: 10
66: 8
66: 14
66: 15
67: 13
67: 17
68: 15
68: 19
68: 20
68: 21
69: 24
69: 25
70: 2
70: 19
71: 28
71: 29
72: 30
72: 32
73: 35
74: 39
75: 43
75: 45
76: 46
76: 48
77: 49
78: 46
78: 50
78: 51
78: 52
79: 37
79: 50
80: 39
80: 54
81: 55
2: 62
3: 62
4: 62
5: 62
6: 63
7: 63
8: 63
9: 63
10: 63
11: 63
12: 63
13: 63
14: 64
15: 65
16: 66
17: 66
18: 66
19: 67
20: 67
21: 67
22: 68
23: 68
24: 68
25: 68
26: 69
27: 69
28: 70
29: 70
30: 71
31: 71
32: 71
33: 72
34: 72
35: 72
36: 72
37: 72
38: 73
39: 73
40: 73
41: 73
42: 74
43: 74
44: 74
45: 74
46: 75
47: 75
48: 75
49: 76
50: 76
51: 76
52: 77
53: 78
54: 79
55: 79
56: 79
57: 80
58: 81
59: 81
60: 81
61: 81
segment: [1]
vertex id: label
59: 0
60: 3
61: 1
62: 3
63: 1
64: 3
65: 1
66: 3
67: 1
68: 0
69: 3
70: 1
71: 3
72: 1
73: 3
74: 1
75: 3
76: 4
77: 4
78: 1
0: 5
1: 5
2: 5
3: 5
4: 5
5: 5
6: 5
7: 5
8: 5
9: 5
10: 5
11: 5
12: 5
13: 5
14: 5
15: 5
16: 5
17: 5
18: 5
19: 5
20: 5
21: 5
22: 5
23: 5
24: 5
25: 5
26: 5
27: 5
28: 5
29: 5
30: 5
31: 5
32: 5
33: 5
34: 5
35: 5
36: 5
37: 5
38: 5
39: 5
40: 5
41: 5
42: 5
43: 5
44: 5
45: 5
46: 5
47: 5
48: 5
49: 5
50: 5
51: 5
52: 5
53: 5
54: 5
55: 5
56: 5
57: 5
58: 5
edge from: to
59: 0
60: 4
61: 5
61: 7
62: 7
62: 9
63: 10
64: 14
64: 15
65: 12
65: 16
66: 17
66: 18
66: 19
67: 20
67: 21
67: 22
68: 22
68: 24
68: 25
69: 24
70: 30
70: 32
71: 33
72: 35
73: 36
73: 38
74: 3
74: 19
74: 21
74: 28
74: 36
74: 40
75: 31
75: 40
75: 43
75: 44
75: 45
76: 46
76: 48
77: 45
77: 49
77: 51
78: 4
78: 54
1: 59
2: 59
3: 59
4: 59
5: 60
6: 60
7: 60
8: 61
9: 61
10: 61
11: 62
12: 63
13: 63
14: 63
15: 63
16: 64
17: 64
18: 65
19: 65
20: 66
21: 66
22: 66
23: 67
24: 67
25: 67
26: 68
27: 69
28: 69
29: 69
30: 69
31: 69
32: 69
33: 70
34: 70
35: 70
36: 71
37: 71
38: 72
39: 73
40: 73
41: 74
42: 74
43: 74
44: 74
45: 74
46: 75
47: 75
48: 75
49: 76
50: 76
51: 76
52: 77
53: 77
54: 77
55: 78
56: 78
57: 78
58: 78
segment: [2]
vertex id: label
57: 0
58: 1
59: 3
60: 1
61: 2
62: 2
63: 4
64: 4
65: 4
66: 1
67: 3
68: 1
69: 2
70: 2
71: 3
72: 1
73: 3
74: 4
75: 4
76: 4
0: 5
1: 5
2: 5
3: 5
4: 5
5: 5
6: 5
7: 5
8: 5
9: 5
10: 5
11: 5
12: 5
13: 5
14: 5
15: 5
16: 5
17: 5
18: 5
19: 5
20: 5
21: 5
22: 5
23: 5
24: 5
25: 5
26: 5
27: 5
28: 5
29: 5
30: 5
31: 5
32: 5
33: 5
34: 5
35: 5
36: 5
37: 5
38: 5
39: 5
40: 5
41: 5
42: 5
43: 5
44: 5
45: 5
46: 5
47: 5
48: 5
49: 5
50: 5
51: 5
52: 5
53: 5
54: 5
55: 5
56: 5
edge from: to
57: 0
57: 1
58: 5
59: 9
60: 11
60: 12
61: 1
61: 10
62: 15
62: 16
63: 19
64: 17
64: 23
64: 24
65: 24
66: 24
67: 27
67: 28
68: 28
68: 29
68: 30
68: 31
69: 26
69: 35
70: 36
71: 39
72: 22
72: 37
72: 40
72: 42
73: 43
74: 45
74: 47
75: 45
75: 49
75: 51
76: 53
76: 55
2: 57
3: 57
4: 57
5: 57
6: 58
7: 58
8: 58
9: 58
10: 58
11: 59
12: 59
13: 60
14: 60
15: 61
16: 61
17: 62
18: 62
19: 62
20: 62
21: 63
22: 63
23: 63
24: 63
25: 64
26: 65
27: 66
28: 66
29: 67
30: 67
31: 67
32: 68
33: 68
34: 68
35: 68
36: 68
37: 68
38: 69
39: 70
40: 70
41: 70
42: 71
43: 72
44: 72
45: 72
46: 73
47: 73
48: 74
49: 74
50: 74
51: 74
52: 75
53: 75
54: 75
55: 75
56: 76
segment: [3]
vertex id: label
69: 0
70: 3
71: 1
72: 3
73: 1
74: 0
75: 3
76: 1
77: 3
78: 1
79: 2
80: 2
81: 4
82: 4
83: 4
84: 1
85: 2
86: 3
87: 1
88: 3
0: 5
1: 5
2: 5
3: 5
4: 5
5: 5
6: 5
7: 5
8: 5
9: 5
10: 5
11: 5
12: 5
13: 5
14: 5
15: 5
16: 5
17: 5
18: 5
19: 5
20: 5
21: 5
22: 5
23: 5
24: 5
25: 5
26: 5
27: 5
28: 5
29: 5
30: 5
31: 5
32: 5
33: 5
34: 5
35: 5
36: 5
37: 5
38: 5
39: 5
40: 5
41: 5
42: 5
43: 5
44: 5
45: 5
46: 5
47: 5
48: 5
49: 5
50: 5
51: 5
52: 5
53: 5
54: 5
55: 5
56: 5
57: 5
58: 5
59: 5
60: 5
61: 5
62: 5
63: 5
64: 5
65: 5
66: 5
67: 5
68: 5
edge from: to
69: 0
69: 1
70: 3
70: 4
71: 5
72: 9
73: 8
73: 14
73: 15
74: 17
75: 20
75: 21
75: 22
76: 6
76: 17
76: 22
76: 23
76: 24
77: 27
77: 28
78: 28
79: 24
79: 32
80: 26
80: 35
80: 37
81: 40
82: 43
83: 46
84: 4
85: 56
85: 58
86: 41
86: 57
86: 59
87: 54
87: 58
87: 61
88: 63
2: 69
3: 69
4: 69
5: 70
6: 71
7: 71
8: 71
9: 71
10: 71
11: 72
12: 72
13: 72
14: 72
15: 72
16: 73
17: 73
18: 73
19: 74
20: 74
21: 74
22: 74
23: 75
24: 75
25: 76
26: 76
27: 76
28: 76
29: 77
30: 78
31: 78
32: 78
33: 78
34: 78
35: 79
36: 79
37: 79
38: 80
39: 80
40: 80
41: 80
42: 80
43: 81
44: 81
45: 81
46: 82
47: 82
48: 82
49: 83
50: 83
51: 83
52: 83
53: 83
54: 83
55: 84
56: 84
57: 84
58: 84
59: 85
60: 86
61: 86
62: 87
63: 87
64: 87
65: 87
66: 87
67: 88
68: 88
segment: [4]
vertex id: label
58: 0
59: 1
60: 2
61: 2
62: 2
63: 4
64: 1
65: 3
66: 1
67: 3
68: 1
69: 3
70: 1
71: 3
72: 1
73: 0
74: 1
75: 3
76: 1
77: 2
0: 5
1: 5
2: 5
3: 5
4: 5
5: 5
6: 5
7: 5
8: 5
9: 5
10: 5
11: 5
12: 5
13: 5
14: 5
15: 5
16: 5
17: 5
18: 5
19: 5
20: 5
21: 5
22: 5
23: 5
24: 5
25: 5
26: 5
27: 5
28: 5
29: 5
30: 5
31: 5
32: 5
33: 5
34: 5
35: 5
36: 5
37: 5
38: 5
39: 5
40: 5
41: 5
42: 5
43: 5
44: 5
45: 5
46: 5
47: 5
48: 5
49: 5
50: 5
51: 5
52: 5
53: 5
54: 5
55: 5
56: 5
57: 5
edge from: to
58: 0
58: 1
59: 0
59: 1
59: 2
59: 3
59: 4
59: 5
60: 5
60: 7
61: 4
61: 9
62: 1
63: 15
63: 16
64: 17
65: 15
65: 20
66: 17
66: 23
66: 24
67: 28
68: 31
69: 34
69: 36
70: 26
70: 35
71: 35
71: 37
71: 39
72: 40
73: 42
74: 46
74: 48
75: 45
75: 49
75: 51
76: 4
76: 37
76: 48
76: 53
76: 54
77: 39
77: 54
2: 58
3: 58
6: 59
7: 59
8: 60
9: 60
10: 61
11: 61
12: 61
13: 61
14: 62
15: 62
16: 62
17: 63
18: 63
19: 64
20: 64
21: 64
22: 65
23: 65
24: 65
25: 66
26: 66
27: 66
28: 66
29: 66
30: 67
31: 67
32: 67
33: 67
34: 68
35: 68
36: 68
37: 69
38: 70
39: 70
40: 71
41: 71
42: 71
43: 72
44: 72
45: 73
46: 73
47: 73
48: 73
49: 74
50: 74
51: 74
52: 75
53: 75
54: 75
55: 76
56: 76
57: 77
segment: [5]
vertex id: label
76: 0
77: 3
78: 1
79: 2
80: 2
81: 3
82: 1
83: 2
84: 2
85: 2
86: 3
87: 1
88: 3
89: 1
90: 2
91: 2
92: 3
93: 1
94: 0
95: 3
0: 5
1: 5
2: 5
3: 5
4: 5
5: 5
6: 5
7: 5
8: 5
9: 5
10: 5
11: 5
12: 5
13: 5
14: 5
15: 5
16: 5
17: 5
18: 5
19: 5
20: 5
21: 5
22: 5
23: 5
24: 5
25: 5
26: 5
27: 5
28: 5
29: 5
30: 5
31: 5
32: 5
33: 5
34: 5
35: 5
36: 5
37: 5
38: 5
39: 5
40: 5
41: 5
42: 5
43: 5
44: 5
45: 5
46: 5
47: 5
48: 5
49: 5
50: 5
51: 5
52: 5
53: 5
54: 5
55: 5
56: 5
57: 5
58: 5
59: 5
60: 5
61: 5
62: 5
63: 5
64: 5
65: 5
66: 5
67: 5
68: 5
69: 5
70: 5
71: 5
72: 5
73: 5
74: 5
75: 5
edge from: to
76: 0
76: 1
76: 2
77: 4
77: 5
78: 8
78: 10
79: 1
80: 13
80: 17
81: 14
81: 19
82: 24
83: 2
84: 21
84: 29
85: 29
85: 31
86: 3
86: 28
87: 40
87: 42
88: 40
88: 43
88: 45
89: 21
89: 46
89: 48
90: 49
90: 51
91: 4
92: 56
93: 61
94: 5
94: 68
95: 66
95: 71
95: 74
3: 76
4: 76
5: 76
6: 77
7: 77
8: 77
9: 77
10: 77
11: 77
12: 78
13: 78
14: 78
15: 79
16: 79
17: 79
18: 79
19: 80
20: 80
21: 81
22: 81
23: 81
24: 81
25: 81
26: 82
27: 82
28: 83
29: 83
30: 83
31: 84
32: 85
33: 85
34: 85
35: 85
36: 85
37: 85
38: 85
39: 85
40: 85
41: 86
42: 86
43: 87
44: 87
45: 87
46: 88
47: 88
48: 88
49: 89
50: 89
51: 89
52: 90
53: 90
54: 90
55: 91
56: 91
57: 91
58: 91
59: 92
60: 92
61: 92
62: 92
63: 92
64: 92
65: 93
66: 93
67: 93
68: 93
69: 94
70: 94
71: 94
72: 94
73: 94
74: 94
75: 95
segment: [6]
vertex id: label
64: 0
65: 3
66: 1
67: 3
68: 1
69: 3
70: 1
71: 3
72: 1
73: 3
74: 1
75: 3
76: 1
77: 2
78: 4
79: 1
80: 3
81: 1
82: 0
83: 1
0: 5
1: 5
2: 5
3: 5
4: 5
5: 5
6: 5
7: 5
8: 5
9: 5
10: 5
11: 5
12: 5
13: 5
14: 5
15: 5
16: 5
17: 5
18: 5
19: 5
20: 5
21: 5
22: 5
23: 5
24: 5
25: 5
26: 5
27: 5
28: 5
29: 5
30: 5
31: 5
32: 5
33: 5
34: 5
35: 5
36: 5
37: 5
38: 5
39: 5
40: 5
41: 5
42: 5
43: 5
44: 5
45: 5
46: 5
47: 5
48: 5
49: 5
50: 5
51: 5
52: 5
53: 5
54: 5
55: 5
56: 5
57: 5
58: 5
59: 5
60: 5
61: 5
62: 5
63: 5
edge from: to
64: 0
64: 1
64: 2
65: 0
66: 6
66: 8
67: 5
67: 7
67: 9
67: 10
68: 1
69: 15
69: 16
70: 20
71: 24
72: 2
72: 12
72: 19
72: 24
73: 28
74: 32
75: 37
76: 23
76: 39
76: 42
76: 44
77: 46
77: 48
78: 47
79: 37
79: 50
80: 53
80: 55
81: 55
81: 57
82: 41
82: 57
83: 54
83: 58
83: 61
3: 64
4: 65
5: 65
6: 65
7: 65
8: 65
9: 66
10: 66
11: 67
12: 67
13: 67
14: 67
15: 68
16: 68
17: 69
18: 69
19: 69
20: 69
21: 69
22: 70
23: 70
24: 70
25: 70
26: 70
27: 71
28: 72
29: 72
30: 73
31: 73
32: 73
33: 73
34: 73
35: 74
36: 74
37: 74
38: 74
39: 74
40: 75
41: 75
42: 75
43: 75
44: 75
45: 76
46: 76
47: 76
48: 76
49: 77
50: 78
51: 78
52: 78
53: 78
54: 79
55: 79
56: 80
57: 80
58: 81
59: 81
60: 82
61: 82
62: 83
63: 83
segment: [7]
vertex id: label
58: 0
59: 1
60: 2
61: 2
62: 4
63: 1
64: 3
65: 1
66: 3
67: 1
68: 2
69: 2
70: 4
71: 1
72: 3
73: 1
74: 3
75: 1
76: 2
77: 3
0: 5
1: 5
2: 5
3: 5
4: 5
5: 5
6: 5
7: 5
8: 5
9: 5
10: 5
11: 5
12: 5
13: 5
14: 5
15: 5
16: 5
17: 5
18: 5
19: 5
20: 5
21: 5
22: 5
23: 5
24: 5
25: 5
26: 5
27: 5
28: 5
29: 5
30: 5
31: 5
32: 5
33: 5
34: 5
35: 5
36: 5
37: 5
38: 5
39: 5
40: 5
41: 5
42: 5
43: 5
44: 5
45: 5
46: 5
47: 5
48: 5
49: 5
50: 5
51: 5
52: 5
53: 5
54: 5
55: 5
56: 5
57: 5
edge from: to
58: 0
58: 1
59: 1
59: 3
59: 4
59: 5
60: 1
60: 4
60: 5
60: 7
61: 5
61: 8
61: 10
62: 11
63: 14
64: 12
64: 16
64: 17
65: 17
65: 18
65: 19
66: 20
67: 12
67: 22
67: 24
67: 25
68: 2
68: 19
69: 29
69: 30
69: 32
70: 15
70: 24
70: 32
71: 35
72: 30
72: 41
73: 42
74: 43
74: 45
75: 46
75: 48
76: 35
76: 48
77: 50
77: 52
2: 58
3: 58
4: 58
5: 58
6: 59
7: 59
8: 60
9: 60
10: 60
11: 60
12: 61
13: 62
14: 62
15: 62
16: 63
17: 63
18: 64
19: 64
20: 65
21: 65
22: 66
23: 66
24: 66
25: 66
26: 67
27: 67
28: 68
29: 68
30: 68
31: 68
32: 68
33: 69
34: 69
35: 70
36: 70
37: 70
38: 71
39: 71
40: 71
41: 71
42: 71
43: 71
44: 72
45: 73
46: 74
47: 74
48: 74
49: 75
50: 75
51: 76
52: 76
53: 77
54: 77
55: 77
56: 77
57: 77
segment: [8]
vertex id: label
62: 0
63: 1
64: 3
65: 1
66: 3
67: 1
68: 3
69: 1
70: 0
71: 1
72: 3
73: 4
74: 1
75: 3
76: 1
77: 3
78: 1
79: 0
80: 1
81: 2
0: 5
1: 5
2: 5
3: 5
4: 5
5: 5
6: 5
7: 5
8: 5
9: 5
10: 5
11: 5
12: 5
13: 5
14: 5
15: 5
16: 5
17: 5
18: 5
19: 5
20: 5
21: 5
22: 5
23: 5
24: 5
25: 5
26: 5
27: 5
28: 5
29: 5
30: 5
31: 5
32: 5
33: 5
34: 5
35: 5
36: 5
37: 5
38: 5
39: 5
40: 5
41: 5
42: 5
43: 5
44: 5
45: 5
46: 5
47: 5
48: 5
49: 5
50: 5
51: 5
52: 5
53: 5
54: 5
55: 5
56: 5
57: 5
58: 5
59: 5
60: 5
61: 5
edge from: to
62: 0
62: 1
63: 0
63: 2
64: 0
64: 1
64: 2
64: 3
64: 4
65: 6
65: 8
66: 11
66: 12
67: 14
68: 12
68: 16
69: 3
69: 20
69: 21
69: 22
70: 24
70: 26
71: 27
72: 28
72: 29
73: 32
74: 26
74: 35
74: 37
75: 3
75: 28
75: 40
76: 30
76: 41
77: 44
78: 49
79: 4
79: 54
80: 55
80: 57
81: 57
2: 62
3: 63
4: 63
5: 64
6: 64
7: 64
8: 64
9: 65
10: 65
11: 65
12: 65
13: 66
14: 66
15: 66
16: 67
17: 67
18: 68
19: 68
20: 68
21: 68
22: 68
23: 69
24: 69
25: 69
26: 69
27: 70
28: 70
29: 71
30: 72
31: 72
32: 72
33: 72
34: 72
35: 73
36: 73
37: 73
38: 74
39: 74
40: 74
41: 75
42: 75
43: 75
44: 76
45: 76
46: 76
47: 77
48: 77
49: 77
50: 77
51: 77
52: 78
53: 78
54: 78
55: 79
56: 79
57: 79
58: 80
59: 80
60: 81
61: 81
segment: [9]
vertex id: label
56: 0
57: 4
58: 1
59: 3
60: 1
61: 0
62: 1
63: 3
64: 1
65: 3
66: 1
67: 3
68: 1
69: 3
70: 1
71: 3
72: 2
73: 4
74: 1
75: 0
0: 5
1: 5
2: 5
3: 5
4: 5
5: 5
6: 5
7: 5
8: 5
9: 5
10: 5
11: 5
12: 5
13: 5
14: 5
15: 5
16: 5
17: 5
18: 5
19: 5
20: 5
21: 5
22: 5
23: 5
24: 5
25: 5
26: 5
27: 5
28: 5
29: 5
30: 5
31: 5
32: 5
33: 5
34: 5
35: 5
36: 5
37: 5
38: 5
39: 5
40: 5
41: 5
42: 5
43: 5
44: 5
45: 5
46: 5
47: 5
48: 5
49: 5
50: 5
51: 5
52: 5
53: 5
54: 5
55: 5
edge from: to
56: 0
56: 1
57: 3
57: 4
57: 5
58: 4
58: 9
59: 7
59: 9
60: 1
61: 17
62: 21
62: 22
63: 17
63: 23
64: 27
65: 29
66: 30
66: 32
67: 33
68: 34
69: 37
69: 39
70: 42
70: 44
71: 44
72: 46
72: 48
73: 47
74: 46
74: 50
74: 51
74: 52
75: 37
75: 50
2: 56
3: 56
4: 56
5: 56
6: 57
7: 57
8: 57
9: 57
10: 58
11: 59
12: 59
13: 59
14: 60
15: 60
16: 60
17: 60
18: 60
19: 61
20: 61
21: 61
22: 61
23: 62
24: 62
25: 63
26: 63
27: 63
28: 63
29: 64
30: 64
31: 65
32: 65
33: 66
34: 66
35: 66
36: 67
37: 68
38: 68
39: 68
40: 69
41: 69
42: 69
43: 69
44: 69
45: 70
46: 70
47: 71
48: 71
49: 72
50: 73
51: 73
52: 73
53: 74
54: 75
55: 75
segment: [10]
vertex id: label
68: 0
69: 1
70: 3
71: 1
72: 3
73: 4
74: 1
75: 3
76: 4
77: 1
78: 3
79: 4
80: 1
81: 2
82: 4
83: 4
84: 4
85: 1
86: 3
87: 1
0: 5
1: 5
2: 5
3: 5
4: 5
5: 5
6: 5
7: 5
8: 5
9: 5
10: 5
11: 5
12: 5
13: 5
14: 5
15: 5
16: 5
17: 5
18: 5
19: 5
20: 5
21: 5
22: 5
23: 5
24: 5
25: 5
26: 5
27: 5
28: 5
29: 5
30: 5
31: 5
32: 5
33: 5
34: 5
35: 5
36: 5
37: 5
38: 5
39: 5
40: 5
41: 5
42: 5
43: 5
44: 5
45: 5
46: 5
47: 5
48: 5
49: 5
50: 5
51: 5
52: 5
53: 5
54: 5
55: 5
56: 5
57: 5
58: 5
59: 5
60: 5
61: 5
62: 5
63: 5
64: 5
65: 5
66: 5
67: 5
edge from: to
68: 0
68: 1
69: 6
69: 8
70: 1
70: 13
71: 14
71: 15
72: 12
72: 16
72: 17
73: 20
74: 21
74: 22
75: 24
76: 29
77: 35
78: 3
78: 28
78: 40
79: 39
79: 41
80: 30
80: 41
81: 39
81: 42
81: 44
82: 32
82: 44
83: 47
83: 49
84: 45
84: 49
84: 51
85: 37
85: 50
85: 53
86: 49
86: 53
86: 55
87: 54
87: 58
87: 61
2: 68
3: 68
4: 68
5: 68
6: 68
7: 68
8: 68
9: 69
10: 69
11: 69
12: 69
13: 69
14: 70
15: 70
16: 71
17: 71
18: 72
19: 72
20: 72
21: 72
22: 73
23: 74
24: 74
25: 74
26: 74
27: 75
28: 75
29: 75
30: 75
31: 76
32: 76
33: 76
34: 76
35: 76
36: 76
37: 76
38: 77
39: 77
40: 77
41: 78
42: 79
43: 79
44: 80
45: 81
46: 81
47: 82
48: 82
49: 82
50: 83
51: 83
52: 84
53: 84
54: 85
55: 85
56: 86
57: 86
58: 86
59: 86
60: 86
61: 86
62: 87
63: 87
64: 87
65: 87
66: 87
67: 87
segment: [11]
vertex id: label
60: 0
61: 1
62: 3
63: 1
64: 2
65: 4
66: 1
67: 3
68: 1
69: 0
70: 1
71: 3
72: 1
73: 3
74: 1
75: 3
76: 4
77: 1
78: 0
79: 1
0: 5
1: 5
2: 5
3: 5
4: 5
5: 5
6: 5
7: 5
8: 5
9: 5
10: 5
11: 5
12: 5
13: 5
14: 5
15: 5
16: 5
17: 5
18: 5
19: 5
20: 5
21: 5
22: 5
23: 5
24: 5
25: 5
26: 5
27: 5
28: 5
29: 5
30: 5
31: 5
32: 5
33: 5
34: 5
35: 5
36: 5
37: 5
38: 5
39: 5
40: 5
41: 5
42: 5
43: 5
44: 5
45: 5
46: 5
47: 5
48: 5
49: 5
50: 5
51: 5
52: 5
53: 5
54: 5
55: 5
56: 5
57: 5
58: 5
59: 5
edge from: to
60: 0
61: 4
62: 4
62: 6
62: 7
62: 8
63: 5
63: 6
63: 8
63: 10
64: 1
65: 14
65: 19
66: 17
66: 22
66: 23
66: 24
67: 24
67: 25
68: 27
69: 28
69: 29
69: 31
70: 23
70: 28
70: 31
70: 33
71: 34
71: 36
72: 36
72: 38
73: 40
73: 42
74: 41
75: 43
76: 48
77: 37
77: 50
78: 54
79: 56
1: 60
2: 60
3: 60
4: 60
5: 61
6: 61
7: 61
8: 61
9: 62
10: 62
11: 62
12: 63
13: 63
14: 63
15: 64
16: 64
17: 64
18: 64
19: 64
20: 64
21: 65
22: 65
23: 65
24: 65
25: 66
26: 67
27: 67
28: 67
29: 68
30: 68
31: 68
32: 69
33: 69
34: 70
35: 70
36: 70
37: 71
38: 71
39: 72
40: 72
41: 72
42: 72
43: 73
44: 74
45: 74
46: 75
47: 75
48: 75
49: 75
50: 75
51: 76
52: 76
53: 76
54: 77
55: 77
56: 77
57: 78
58: 78
59: 79
segment: [12]
vertex id: label
56: 0
57: 1
58: 2
59: 2
60: 2
61: 4
62: 1
63: 3
64: 1
65: 3
66: 1
67: 3
68: 4
69: 1
70: 3
71: 1
72: 3
73: 1
74: 3
75: 1
0: 5
1: 5
2: 5
3: 5
4: 5
5: 5
6: 5
7: 5
8: 5
9: 5
10: 5
11: 5
12: 5
13: 5
14: 5
15: 5
16: 5
17: 5
18: 5
19: 5
20: 5
21: 5
22: 5
23: 5
24: 5
25: 5
26: 5
27: 5
28: 5
29: 5
30: 5
31: 5
32: 5
33: 5
34: 5
35: 5
36: 5
37: 5
38: 5
39: 5
40: 5
41: 5
42: 5
43: 5
44: 5
45: 5
46: 5
47: 5
48: 5
49: 5
50: 5
51: 5
52: 5
53: 5
54: 5
55: 5
edge from: to
56: 0
56: 1
57: 0
58: 4
58: 5
59: 8
60: 9
61: 14
61: 15
62: 18
63: 15
63: 20
64: 21
65: 22
66: 23
66: 24
66: 25
66: 26
67: 21
67: 29
67: 30
68: 32
69: 35
70: 3
70: 28
71: 40
71: 42
72: 43
72: 45
73: 47
73: 49
74: 49
75: 4
75: 48
75: 54
2: 56
3: 56
4: 57
5: 57
6: 58
7: 58
8: 58
9: 59
10: 59
11: 60
12: 60
13: 60
14: 60
15: 60
16: 61
17: 61
18: 61
19: 61
20: 62
21: 62
22: 63
23: 64
24: 65
25: 65
26: 65
27: 66
28: 66
29: 66
30: 66
31: 67
32: 67
33: 67
34: 67
35: 68
36: 68
37: 68
38: 69
39: 69
40: 69
41: 70
42: 70
43: 71
44: 71
45: 71
46: 72
47: 72
48: 72
49: 72
50: 73
51: 73
52: 74
53: 74
54: 74
55: 75
segment: [13]
vertex id: label
55: 0
56: 1
57: 3
58: 2
59: 2
60: 4
61: 4
62: 4
63: 1
64: 3
65: 1
66: 3
67: 1
68: 2
69: 2
70: 4
71: 1
72: 3
73: 1
74: 2
0: 5
1: 5
2: 5
3: 5
4: 5
5: 5
6: 5
7: 5
8: 5
9: 5
10: 5
11: 5
12: 5
13: 5
14: 5
15: 5
16: 5
17: 5
18: 5
19: 5
20: 5
21: 5
22: 5
23: 5
24: 5
25: 5
26: 5
27: 5
28: 5
29: 5
30: 5
31: 5
32: 5
33: 5
34: 5
35: 5
36: 5
37: 5
38: 5
39: 5
40: 5
41: 5
42: 5
43: 5
44: 5
45: 5
46: 5
47: 5
48: 5
49: 5
50: 5
51: 5
52: 5
53: 5
54: 5
edge from: to
55: 0
55: 1
55: 2
56: 7
57: 8
58: 9
59: 5
59: 7
59: 9
59: 10
60: 14
60: 15
61: 18
62: 22
63: 28
64: 29
65: 30
66: 32
67: 34
67: 36
67: 38
68: 3
68: 28
68: 40
69: 39
70: 30
70: 41
70: 43
71: 43
71: 45
72: 45
73: 44
73: 47
73: 48
73: 49
74: 49
3: 55
4: 55
5: 55
6: 55
7: 55
8: 56
9: 57
10: 58
11: 59
12: 59
13: 59
14: 59
15: 59
16: 60
17: 60
18: 60
19: 60
20: 61
21: 61
22: 61
23: 61
24: 62
25: 62
26: 62
27: 62
28: 62
29: 62
30: 63
31: 63
32: 64
33: 65
34: 65
35: 66
36: 66
37: 66
38: 66
39: 67
40: 67
41: 68
42: 69
43: 69
44: 70
45: 70
46: 71
47: 71
48: 72
49: 72
50: 73
51: 73
52: 74
53: 74
54: 74
segment: [14]
vertex id: label
48: 0
49: 1
50: 3
51: 1
52: 3
53: 1
54: 3
55: 1
56: 3
57: 1
58: 3
59: 1
60: 3
61: 1
62: 3
63: 1
64: 3
65: 2
66: 2
67: 4
0: 5
1: 5
2: 5
3: 5
4: 5
5: 5
6: 5
7: 5
8: 5
9: 5
10: 5
11: 5
12: 5
13: 5
14: 5
15: 5
16: 5
17: 5
18: 5
19: 5
20: 5
21: 5
22: 5
23: 5
24: 5
25: 5
26: 5
27: 5
28: 5
29: 5
30: 5
31: 5
32: 5
33: 5
34: 5
35: 5
36: 5
37: 5
38: 5
39: 5
40: 5
41: 5
42: 5
43: 5
44: 5
45: 5
46: 5
47: 5
edge from: to
48: 0
49: 0
50: 0
50: 2
51: 1
51: 2
51: 3
51: 4
51: 5
52: 5
52: 7
53: 5
53: 8
53: 10
54: 11
55: 12
55: 15
55: 16
55: 17
56: 18
57: 20
58: 22
58: 23
59: 27
60: 28
61: 29
62: 33
62: 35
63: 36
63: 38
64: 3
65: 41
66: 42
67: 43
1: 48
2: 49
3: 50
4: 50
5: 50
6: 51
7: 51
8: 52
9: 52
10: 52
11: 52
12: 53
13: 54
14: 54
15: 54
16: 54
17: 54
18: 55
19: 55
20: 56
21: 56
22: 57
23: 57
24: 58
25: 58
26: 58
27: 58
28: 58
29: 59
30: 60
31: 61
32: 61
33: 61
34: 61
35: 61
36: 62
37: 62
38: 62
39: 63
40: 63
41: 64
42: 64
43: 64
44: 65
45: 66
46: 67
47: 67
segment: [15]
vertex id: label
75: 0
76: 1
77: 3
78: 1
79: 2
80: 3
81: 1
82: 3
83: 1
84: 0
85: 1
86: 2
87: 2
88: 2
89: 4
90: 1
91: 2
92: 4
93: 1
94: 0
0: 5
1: 5
2: 5
3: 5
4: 5
5: 5
6: 5
7: 5
8: 5
9: 5
10: 5
11: 5
12: 5
13: 5
14: 5
15: 5
16: 5
17: 5
18: 5
19: 5
20: 5
21: 5
22: 5
23: 5
24: 5
25: 5
26: 5
27: 5
28: 5
29: 5
30: 5
31: 5
32: 5
33: 5
34: 5
35: 5
36: 5
37: 5
38: 5
39: 5
40: 5
41: 5
42: 5
43: 5
44: 5
45: 5
46: 5
47: 5
48: 5
49: 5
50: 5
51: 5
52: 5
53: 5
54: 5
55: 5
56: 5
57: 5
58: 5
59: 5
60: 5
61: 5
62: 5
63: 5
64: 5
65: 5
66: 5
67: 5
68: 5
69: 5
70: 5
71: 5
72: 5
73: 5
74: 5
edge from: to
75: 0
76: 0
77: 6
78: 10
79: 1
79: 10
80: 16
81: 18
82: 20
83: 24
83: 26
84: 26
84: 28
84: 29
85: 31
86: 31
86: 33
86: 35
87: 35
87: 37
87: 39
88: 41
89: 45
89: 47
90: 53
90: 55
91: 55
92: 60
93: 48
93: 66
93: 69
94: 50
94: 69
1: 75
2: 75
3: 75
4: 76
5: 76
6: 76
7: 77
8: 77
9: 77
10: 77
11: 77
12: 78
13: 78
14: 78
15: 79
16: 79
17: 79
18: 80
19: 80
20: 81
21: 81
22: 82
23: 82
24: 82
25: 82
26: 82
27: 83
28: 83
29: 83
30: 84
31: 84
32: 84
33: 84
34: 85
35: 85
36: 86
37: 86
38: 86
39: 86
40: 87
41: 87
42: 87
43: 87
44: 88
45: 88
46: 88
47: 88
48: 89
49: 89
50: 89
51: 89
52: 89
53: 89
54: 89
55: 89
56: 90
57: 90
58: 91
59: 91
60: 91
61: 91
62: 91
63: 91
64: 92
65: 92
66: 92
67: 92
68: 92
69: 92
70: 93
71: 93
72: 93
73: 94
74: 94
segment: [16]
vertex id: label
64: 0
65: 3
66: 1
67: 3
68: 1
69: 3
70: 1
71: 3
72: 4
73: 1
74: 3
75: 1
76: 0
77: 1
78: 3
79: 4
80: 4
81: 4
82: 1
83: 2
0: 5
1: 5
2: 5
3: 5
4: 5
5: 5
6: 5
7: 5
8: 5
9: 5
10: 5
11: 5
12: 5
13: 5
14: 5
15: 5
16: 5
17: 5
18: 5
19: 5
20: 5
21: 5
22: 5
23: 5
24: 5
25: 5
26: 5
27: 5
28: 5
29: 5
30: 5
31: 5
32: 5
33: 5
34: 5
35: 5
36: 5
37: 5
38: 5
39: 5
40: 5
41: 5
42: 5
43: 5
44: 5
45: 5
46: 5
47: 5
48: 5
49: 5
50: 5
51: 5
52: 5
53: 5
54: 5
55: 5
56: 5
57: 5
58: 5
59: 5
60: 5
61: 5
62: 5
63: 5
edge from: to
64: 0
65: 0
66: 4
66: 5
67: 7
67: 9
68: 1
68: 10
69: 18
70: 15
70: 20
70: 21
71: 23
72: 24
72: 26
73: 29
74: 32
75: 26
75: 35
75: 37
76: 3
77: 43
77: 45
78: 47
79: 35
79: 48
80: 49
80: 51
81: 39
81: 54
81: 56
82: 57
83: 57
83: 60
1: 64
2: 64
3: 64
4: 65
5: 65
6: 66
7: 66
8: 66
9: 66
10: 66
11: 67
12: 67
13: 67
14: 67
15: 68
16: 68
17: 68
18: 68
19: 68
20: 69
21: 69
22: 70
23: 70
24: 70
25: 71
26: 71
27: 72
28: 72
29: 72
30: 72
31: 72
32: 73
33: 73
34: 73
35: 74
36: 74
37: 74
38: 75
39: 75
40: 75
41: 76
42: 76
43: 76
44: 76
45: 76
46: 77
47: 77
48: 77
49: 77
50: 78
51: 79
52: 80
53: 80
54: 80
55: 80
56: 80
57: 81
58: 81
59: 81
60: 82
61: 83
62: 83
63: 83
segment: [17]
vertex id: label
52: 0
53: 1
54: 0
55: 1
56: 3
57: 1
58: 3
59: 1
60: 0
61: 1
62: 0
63: 1
64: 3
65: 1
66: 0
67: 1
68: 2
69: 3
70: 1
71: 4
0: 5
1: 5
2: 5
3: 5
4: 5
5: 5
6: 5
7: 5
8: 5
9: 5
10: 5
11: 5
12: 5
13: 5
14: 5
15: 5
16: 5
17: 5
18: 5
19: 5
20: 5
21: 5
22: 5
23: 5
24: 5
25: 5
26: 5
27: 5
28: 5
29: 5
30: 5
31: 5
32: 5
33: 5
34: 5
35: 5
36: 5
37: 5
38: 5
39: 5
40: 5
41: 5
42: 5
43: 5
44: 5
45: 5
46: 5
47: 5
48: 5
49: 5
50: 5
51: 5
edge from: to
52: 0
52: 1
53: 0
54: 0
54: 2
54: 3
55: 5
55: 7
56: 8
57: 9
58: 14
59: 15
60: 19
61: 22
62: 24
62: 25
63: 29
64: 28
64: 29
64: 30
64: 31
65: 33
65: 35
66: 34
67: 34
67: 36
67: 38
68: 40
68: 42
69: 43
69: 45
70: 44
71: 46
71: 48
2: 52
3: 53
4: 54
5: 54
6: 54
7: 54
8: 55
9: 56
10: 56
11: 57
12: 57
13: 57
14: 57
15: 57
16: 58
17: 59
18: 59
19: 59
20: 59
21: 60
22: 60
23: 60
24: 61
25: 61
26: 62
27: 62
28: 62
29: 62
30: 62
31: 63
32: 64
33: 64
34: 64
35: 64
36: 65
37: 66
38: 66
39: 67
40: 67
41: 67
42: 67
43: 68
44: 68
45: 68
46: 69
47: 70
48: 70
49: 71
50: 71
51: 71
segment: [18]
vertex id: label
58: 0
59: 1
60: 3
61: 1
62: 3
63: 1
64: 3
65: 1
66: 3
67: 4
68: 1
69: 3
70: 1
71: 3
72: 1
73: 3
74: 1
75: 3
76: 1
77: 1
0: 5
1: 5
2: 5
3: 5
4: 5
5: 5
6: 5
7: 5
8: 5
9: 5
10: 5
11: 5
12: 5
13: 5
14: 5
15: 5
16: 5
17: 5
18: 5
19: 5
20: 5
21: 5
22: 5
23: 5
24: 5
25: 5
26: 5
27: 5
28: 5
29: 5
30: 5
31: 5
32: 5
33: 5
34: 5
35: 5
36: 5
37: 5
38: 5
39: 5
40: 5
41: 5
42: 5
43: 5
44: 5
45: 5
46: 5
47: 5
48: 5
49: 5
50: 5
51: 5
52: 5
53: 5
54: 5
55: 5
56: 5
57: 5
edge from: to
58: 0
58: 1
59: 4
60: 5
60: 7
61: 9
62: 10
63: 1
63: 13
64: 17
65: 22
66: 2
66: 12
66: 19
67: 28
68: 29
69: 23
69: 28
69: 31
69: 32
69: 33
70: 36
71: 3
71: 28
71: 40
72: 30
72: 41
73: 44
74: 21
74: 46
74: 48
75: 35
75: 44
75: 48
75: 50
76: 37
76: 50
77: 4
77: 54
2: 58
3: 58
4: 58
5: 59
6: 59
7: 59
8: 60
9: 60
10: 61
11: 61
12: 62
13: 62
14: 63
15: 63
16: 63
17: 63
18: 63
19: 64
20: 64
21: 64
22: 64
23: 64
24: 65
25: 65
26: 65
27: 65
28: 66
29: 66
30: 67
31: 67
32: 68
33: 68
34: 69
35: 69
36: 69
37: 69
38: 69
39: 70
40: 70
41: 71
42: 71
43: 71
44: 72
45: 72
46: 72
47: 73
48: 73
49: 74
50: 74
51: 75
52: 75
53: 75
54: 76
55: 77
56: 77
57: 77
segment: [19]
vertex id: label
65: 0
66: 3
67: 1
68: 3
69: 1
70: 0
71: 1
72: 0
73: 3
74: 1
75: 3
76: 1
77: 3
78: 1
79: 3
80: 1
81: 3
82: 1
83: 3
84: 1
0: 5
1: 5
2: 5
3: 5
4: 5
5: 5
6: 5
7: 5
8: 5
9: 5
10: 5
11: 5
12: 5
13: 5
14: 5
15: 5
16: 5
17: 5
18: 5
19: 5
20: 5
21: 5
22: 5
23: 5
24: 5
25: 5
26: 5
27: 5
28: 5
29: 5
30: 5
31: 5
32: 5
33: 5
34: 5
35: 5
36: 5
37: 5
38: 5
39: 5
40: 5
41: 5
42: 5
43: 5
44: 5
45: 5
46: 5
47: 5
48: 5
49: 5
50: 5
51: 5
52: 5
53: 5
54: 5
55: 5
56: 5
57: 5
58: 5
59: 5
60: 5
61: 5
62: 5
63: 5
64: 5
edge from: to
65: 0
65: 1
66: 4
67: 10
68: 8
68: 14
68: 15
69: 16
70: 20
71: 17
71: 22
71: 23
71: 24
72: 2
73: 28
73: 29
73: 31
74: 29
74: 30
74: 32
75: 32
76: 35
76: 37
76: 39
77: 42
78: 32
78: 41
78: 44
78: 46
79: 45
80: 35
80: 48
81: 45
81: 49
81: 51
82: 50
83: 39
83: 54
83: 56
84: 57
2: 65
3: 65
4: 65
5: 66
6: 66
7: 66
8: 66
9: 66
10: 66
11: 66
12: 67
13: 67
14: 67
15: 67
16: 68
17: 68
18: 69
19: 69
20: 69
21: 69
22: 70
23: 70
24: 70
25: 71
26: 71
27: 71
28: 72
29: 72
30: 72
31: 72
32: 73
33: 74
34: 74
35: 75
36: 75
37: 75
38: 75
39: 75
40: 76
41: 76
42: 76
43: 76
44: 76
45: 77
46: 77
47: 78
48: 79
49: 79
50: 79
51: 80
52: 81
53: 81
54: 82
55: 82
56: 82
57: 83
58: 83
59: 83
60: 83
61: 84
62: 84
63: 84
64: 84
