segment: [0]
vertex id: label
66: 0
67: 2
68: 2
69: 2
70: 4
71: 2
72: 3
73: 1
74: 3
75: 2
76: 4
77: 2
78: 2
79: 3
80: 4
81: 2
82: 2
83: 2
84: 4
85: 2
0: 5
1: 5
2: 5
3: 5
4: 5
5: 5
6: 5
7: 5
8: 5
9: 5
10: 5
11: 5
12: 5
13: 5
14: 5
15: 5
16: 5
17: 5
18: 5
19: 5
20: 5
21: 5
22: 5
23: 5
24: 5
25: 5
26: 5
27: 5
28: 5
29: 5
30: 5
31: 5
32: 5
33: 5
34: 5
35: 5
36: 5
37: 5
38: 5
39: 5
40: 5
41: 5
42: 5
43: 5
44: 5
45: 5
46: 5
47: 5
48: 5
49: 5
50: 5
51: 5
52: 5
53: 5
54: 5
55: 5
56: 5
57: 5
58: 5
59: 5
60: 5
61: 5
62: 5
63: 5
64: 5
65: 5
edge from: to
66: 0
66: 1
67: 5
67: 6
68: 2
68: 8
68: 9
69: 4
69: 6
69: 8
69: 10
69: 11
69: 12
70: 12
70: 14
71: 11
71: 19
71: 21
71: 22
72: 5
73: 28
74: 27
74: 31
75: 30
75: 34
75: 35
76: 38
77: 36
77: 41
78: 38
78: 44
79: 47
80: 10
80: 51
81: 46
81: 53
82: 57
82: 58
83: 50
83: 58
84: 51
84: 59
84: 60
85: 11
85: 63
85: 64
2: 66
3: 66
4: 66
5: 66
6: 66
7: 67
8: 67
9: 67
10: 68
11: 68
12: 68
13: 69
14: 69
15: 70
16: 70
17: 70
18: 70
19: 70
20: 70
21: 70
22: 70
23: 71
24: 71
25: 71
26: 72
27: 72
28: 72
29: 72
30: 73
31: 73
32: 73
33: 74
34: 74
35: 74
36: 75
37: 75
38: 75
39: 75
40: 76
41: 76
42: 76
43: 77
44: 77
45: 77
46: 78
47: 78
48: 78
49: 79
50: 79
51: 79
52: 80
53: 80
54: 80
55: 81
56: 81
57: 81
58: 81
59: 82
60: 83
61: 84
62: 84
63: 84
64: 84
65: 85
segment: [1]
vertex id: label
60: 0
61: 3
62: 2
63: 3
64: 3
65: 2
66: 3
67: 2
68: 2
69: 3
70: 2
71: 3
72: 4
73: 2
74: 2
75: 3
76: 2
77: 2
78: 3
79: 1
0: 5
1: 5
2: 5
3: 5
4: 5
5: 5
6: 5
7: 5
8: 5
9: 5
10: 5
11: 5
12: 5
13: 5
14: 5
15: 5
16: 5
17: 5
18: 5
19: 5
20: 5
21: 5
22: 5
23: 5
24: 5
25: 5
26: 5
27: 5
28: 5
29: 5
30: 5
31: 5
32: 5
33: 5
34: 5
35: 5
36: 5
37: 5
38: 5
39: 5
40: 5
41: 5
42: 5
43: 5
44: 5
45: 5
46: 5
47: 5
48: 5
49: 5
50: 5
51: 5
52: 5
53: 5
54: 5
55: 5
56: 5
57: 5
58: 5
59: 5
edge from: to
60: 0
61: 0
61: 1
61: 2
61: 3
61: 4
62: 1
63: 6
63: 7
64: 2
65: 3
65: 13
66: 4
66: 6
66: 17
67: 18
67: 21
68: 10
68: 22
68: 26
69: 27
70: 27
70: 31
71: 31
71: 35
72: 37
73: 12
73: 35
73: 40
74: 43
74: 44
75: 44
76: 41
76: 47
77: 43
77: 49
78: 46
78: 53
78: 54
79: 56
79: 57
1: 60
5: 61
6: 62
7: 62
8: 63
9: 63
10: 63
11: 64
12: 64
13: 64
14: 64
15: 64
16: 65
17: 65
18: 65
19: 65
20: 65
21: 66
22: 67
23: 67
24: 67
25: 67
26: 67
27: 68
28: 68
29: 69
30: 69
31: 69
32: 69
33: 70
34: 70
35: 70
36: 70
37: 71
38: 71
39: 72
40: 72
41: 72
42: 73
43: 73
44: 73
45: 74
46: 75
47: 75
48: 75
49: 76
50: 76
51: 77
52: 77
53: 77
54: 77
55: 78
56: 78
57: 78
58: 79
59: 79
segment: [2]
vertex id: label
54: 0
55: 3
56: 4
57: 2
58: 2
59: 4
60: 2
61: 3
62: 3
63: 2
64: 4
65: 2
66: 2
67: 2
68: 2
69: 3
70: 1
71: 0
72: 3
73: 4
0: 5
1: 5
2: 5
3: 5
4: 5
5: 5
6: 5
7: 5
8: 5
9: 5
10: 5
11: 5
12: 5
13: 5
14: 5
15: 5
16: 5
17: 5
18: 5
19: 5
20: 5
21: 5
22: 5
23: 5
24: 5
25: 5
26: 5
27: 5
28: 5
29: 5
30: 5
31: 5
32: 5
33: 5
34: 5
35: 5
36: 5
37: 5
38: 5
39: 5
40: 5
41: 5
42: 5
43: 5
44: 5
45: 5
46: 5
47: 5
48: 5
49: 5
50: 5
51: 5
52: 5
53: 5
edge from: to
54: 0
55: 2
56: 4
57: 5
57: 6
58: 2
58: 5
58: 8
58: 9
59: 12
60: 3
61: 4
61: 16
61: 18
62: 4
62: 6
62: 10
62: 17
62: 20
63: 19
63: 22
64: 12
64: 21
64: 23
64: 24
65: 24
65: 27
66: 30
67: 28
67: 29
67: 32
67: 33
68: 30
68: 34
69: 37
69: 38
70: 33
70: 38
70: 39
71: 43
71: 44
72: 14
72: 41
72: 47
73: 10
73: 11
73: 51
1: 54
2: 54
3: 55
4: 55
5: 56
6: 56
7: 57
8: 57
9: 57
10: 58
11: 58
12: 58
13: 59
14: 59
15: 59
16: 60
17: 60
18: 60
19: 61
20: 61
21: 62
22: 62
23: 63
24: 63
25: 64
26: 64
27: 64
28: 64
29: 65
30: 65
31: 65
32: 66
33: 66
34: 67
35: 67
36: 68
37: 68
38: 68
39: 69
40: 70
41: 70
42: 70
43: 70
44: 70
45: 71
46: 71
47: 71
48: 71
49: 72
50: 72
51: 72
52: 73
53: 73
segment: [3]
vertex id: label
54: 0
55: 2
56: 3
57: 1
58: 0
59: 3
60: 1
61: 3
62: 2
63: 2
64: 3
65: 4
66: 2
67: 4
68: 2
69: 4
70: 2
71: 3
72: 4
73: 2
0: 5
1: 5
2: 5
3: 5
4: 5
5: 5
6: 5
7: 5
8: 5
9: 5
10: 5
11: 5
12: 5
13: 5
14: 5
15: 5
16: 5
17: 5
18: 5
19: 5
20: 5
21: 5
22: 5
23: 5
24: 5
25: 5
26: 5
27: 5
28: 5
29: 5
30: 5
31: 5
32: 5
33: 5
34: 5
35: 5
36: 5
37: 5
38: 5
39: 5
40: 5
41: 5
42: 5
43: 5
44: 5
45: 5
46: 5
47: 5
48: 5
49: 5
50: 5
51: 5
52: 5
53: 5
edge from: to
54: 0
54: 1
55: 1
55: 2
55: 4
56: 1
56: 3
56: 5
57: 7
57: 8
58: 10
58: 11
59: 4
59: 5
59: 7
59: 11
59: 12
59: 13
60: 17
61: 4
61: 17
62: 21
63: 22
63: 26
64: 26
65: 6
66: 27
66: 30
67: 30
67: 34
68: 36
69: 39
70: 41
71: 45
72: 48
73: 49
2: 54
3: 54
4: 54
5: 55
6: 56
7: 56
8: 56
9: 57
10: 57
11: 57
12: 58
13: 58
14: 59
15: 59
16: 59
17: 59
18: 60
19: 60
20: 60
21: 61
22: 62
23: 62
24: 62
25: 62
26: 62
27: 63
28: 64
29: 64
30: 64
31: 65
32: 66
33: 66
34: 66
35: 66
36: 67
37: 67
38: 68
39: 68
40: 68
41: 69
42: 69
43: 70
44: 70
45: 70
46: 70
47: 71
48: 71
49: 71
50: 72
51: 73
52: 73
53: 73
segment: [4]
vertex id: label
65: 0
66: 3
67: 2
68: 3
69: 1
70: 3
71: 2
72: 2
73: 4
74: 2
75: 2
76: 4
77: 2
78: 3
79: 4
80: 2
81: 3
82: 2
83: 2
84: 3
0: 5
1: 5
2: 5
3: 5
4: 5
5: 5
6: 5
7: 5
8: 5
9: 5
10: 5
11: 5
12: 5
13: 5
14: 5
15: 5
16: 5
17: 5
18: 5
19: 5
20: 5
21: 5
22: 5
23: 5
24: 5
25: 5
26: 5
27: 5
28: 5
29: 5
30: 5
31: 5
32: 5
33: 5
34: 5
35: 5
36: 5
37: 5
38: 5
39: 5
40: 5
41: 5
42: 5
43: 5
44: 5
45: 5
46: 5
47: 5
48: 5
49: 5
50: 5
51: 5
52: 5
53: 5
54: 5
55: 5
56: 5
57: 5
58: 5
59: 5
60: 5
61: 5
62: 5
63: 5
64: 5
edge from: to
65: 0
66: 1
66: 2
66: 3
66: 5
67: 2
67: 5
67: 8
67: 9
68: 6
68: 10
68: 12
69: 12
69: 14
70: 4
70: 17
71: 19
71: 22
72: 5
73: 27
74: 6
75: 27
75: 31
76: 10
76: 29
76: 33
77: 35
78: 37
78: 38
79: 41
80: 42
80: 48
81: 49
82: 44
82: 51
82: 52
83: 54
84: 59
1: 65
2: 65
3: 65
4: 65
5: 65
6: 66
7: 66
8: 66
9: 66
10: 67
11: 67
12: 67
13: 68
14: 68
15: 69
16: 69
17: 69
18: 69
19: 69
20: 69
21: 70
22: 70
23: 71
24: 71
25: 71
26: 72
27: 72
28: 72
29: 73
30: 73
31: 74
32: 74
33: 75
34: 75
35: 76
36: 76
37: 77
38: 77
39: 78
40: 78
41: 78
42: 78
43: 79
44: 79
45: 79
46: 79
47: 79
48: 79
49: 79
50: 80
51: 81
52: 81
53: 82
54: 82
55: 82
56: 83
57: 83
58: 83
59: 83
60: 83
61: 84
62: 84
63: 84
64: 84
segment: [5]
vertex id: label
56: 0
57: 2
58: 4
59: 2
60: 2
61: 3
62: 2
63: 2
64: 4
65: 2
66: 2
67: 3
68: 2
69: 3
70: 1
71: 0
72: 3
73: 4
74: 2
75: 3
0: 5
1: 5
2: 5
3: 5
4: 5
5: 5
6: 5
7: 5
8: 5
9: 5
10: 5
11: 5
12: 5
13: 5
14: 5
15: 5
16: 5
17: 5
18: 5
19: 5
20: 5
21: 5
22: 5
23: 5
24: 5
25: 5
26: 5
27: 5
28: 5
29: 5
30: 5
31: 5
32: 5
33: 5
34: 5
35: 5
36: 5
37: 5
38: 5
39: 5
40: 5
41: 5
42: 5
43: 5
44: 5
45: 5
46: 5
47: 5
48: 5
49: 5
50: 5
51: 5
52: 5
53: 5
54: 5
55: 5
edge from: to
56: 0
56: 1
56: 2
57: 1
57: 4
58: 5
58: 6
59: 7
59: 8
60: 10
60: 11
61: 3
61: 13
62: 15
62: 17
63: 4
63: 17
64: 21
64: 23
65: 26
66: 30
67: 37
67: 38
68: 39
69: 40
70: 37
70: 42
70: 43
71: 40
71: 46
72: 47
73: 42
73: 44
73: 48
73: 49
74: 10
74: 51
75: 52
3: 56
4: 56
5: 57
6: 57
7: 58
8: 58
9: 59
10: 59
11: 59
12: 60
13: 60
14: 60
15: 60
16: 61
17: 61
18: 62
19: 62
20: 62
21: 63
22: 63
23: 63
24: 63
25: 64
26: 64
27: 64
28: 65
29: 65
30: 65
31: 65
32: 66
33: 66
34: 66
35: 66
36: 66
37: 66
38: 66
39: 67
40: 67
41: 68
42: 69
43: 69
44: 70
45: 70
46: 70
47: 70
48: 71
49: 72
50: 73
51: 73
52: 74
53: 74
54: 75
55: 75
segment: [6]
vertex id: label
60: 0
61: 3
62: 3
63: 1
64: 0
65: 3
66: 2
67: 3
68: 2
69: 3
70: 2
71: 3
72: 2
73: 2
74: 3
75: 2
76: 3
77: 2
78: 4
79: 2
0: 5
1: 5
2: 5
3: 5
4: 5
5: 5
6: 5
7: 5
8: 5
9: 5
10: 5
11: 5
12: 5
13: 5
14: 5
15: 5
16: 5
17: 5
18: 5
19: 5
20: 5
21: 5
22: 5
23: 5
24: 5
25: 5
26: 5
27: 5
28: 5
29: 5
30: 5
31: 5
32: 5
33: 5
34: 5
35: 5
36: 5
37: 5
38: 5
39: 5
40: 5
41: 5
42: 5
43: 5
44: 5
45: 5
46: 5
47: 5
48: 5
49: 5
50: 5
51: 5
52: 5
53: 5
54: 5
55: 5
56: 5
57: 5
58: 5
59: 5
edge from: to
60: 0
60: 1
60: 2
61: 6
61: 7
62: 7
62: 8
63: 9
64: 2
65: 13
66: 16
66: 18
67: 18
67: 21
68: 5
69: 26
70: 30
71: 30
71: 34
71: 35
72: 34
72: 37
72: 38
73: 33
73: 38
74: 41
75: 44
76: 46
77: 43
77: 49
78: 20
78: 45
78: 52
78: 53
79: 11
3: 60
4: 60
5: 60
6: 60
7: 60
8: 61
9: 62
10: 63
11: 64
12: 64
13: 64
14: 65
15: 65
16: 65
17: 65
18: 65
19: 66
20: 66
21: 66
22: 67
23: 67
24: 67
25: 67
26: 68
27: 69
28: 69
29: 69
30: 69
31: 69
32: 70
33: 70
34: 70
35: 70
36: 71
37: 71
38: 71
39: 72
40: 73
41: 73
42: 73
43: 74
44: 74
45: 74
46: 75
47: 75
48: 76
49: 76
50: 76
51: 77
52: 77
53: 77
54: 78
55: 78
56: 78
57: 79
58: 79
59: 79
segment: [7]
vertex id: label
63: 0
64: 3
65: 1
66: 3
67: 2
68: 3
69: 2
70: 3
71: 4
72: 2
73: 2
74: 3
75: 1
76: 0
77: 2
78: 3
79: 2
80: 2
81: 2
82: 2
0: 5
1: 5
2: 5
3: 5
4: 5
5: 5
6: 5
7: 5
8: 5
9: 5
10: 5
11: 5
12: 5
13: 5
14: 5
15: 5
16: 5
17: 5
18: 5
19: 5
20: 5
21: 5
22: 5
23: 5
24: 5
25: 5
26: 5
27: 5
28: 5
29: 5
30: 5
31: 5
32: 5
33: 5
34: 5
35: 5
36: 5
37: 5
38: 5
39: 5
40: 5
41: 5
42: 5
43: 5
44: 5
45: 5
46: 5
47: 5
48: 5
49: 5
50: 5
51: 5
52: 5
53: 5
54: 5
55: 5
56: 5
57: 5
58: 5
59: 5
60: 5
61: 5
62: 5
edge from: to
63: 0
64: 1
64: 3
65: 1
65: 3
65: 5
66: 6
66: 7
67: 10
67: 11
68: 12
69: 16
69: 18
70: 8
70: 18
70: 21
71: 5
71: 21
71: 22
71: 24
71: 25
72: 26
73: 27
74: 6
74: 26
75: 27
75: 31
76: 33
76: 38
77: 42
78: 18
78: 40
78: 46
78: 47
79: 49
80: 46
80: 53
80: 54
81: 57
81: 58
82: 59
1: 63
2: 63
3: 63
4: 64
5: 64
6: 65
7: 65
8: 66
9: 66
10: 66
11: 66
12: 67
13: 68
14: 68
15: 68
16: 68
17: 68
18: 68
19: 69
20: 69
21: 69
22: 70
23: 70
24: 70
25: 70
26: 71
27: 72
28: 72
29: 73
30: 73
31: 74
32: 74
33: 75
34: 75
35: 75
36: 75
37: 75
38: 75
39: 75
40: 76
41: 76
42: 76
43: 76
44: 77
45: 77
46: 77
47: 77
48: 78
49: 78
50: 78
51: 79
52: 79
53: 79
54: 79
55: 80
56: 80
57: 80
58: 80
59: 81
60: 81
61: 82
62: 82
segment: [8]
vertex id: label
58: 0
59: 3
60: 2
61: 3
62: 1
63: 0
64: 2
65: 3
66: 1
67: 3
68: 1
69: 0
70: 3
71: 2
72: 3
73: 4
74: 2
75: 3
76: 2
77: 2
0: 5
1: 5
2: 5
3: 5
4: 5
5: 5
6: 5
7: 5
8: 5
9: 5
10: 5
11: 5
12: 5
13: 5
14: 5
15: 5
16: 5
17: 5
18: 5
19: 5
20: 5
21: 5
22: 5
23: 5
24: 5
25: 5
26: 5
27: 5
28: 5
29: 5
30: 5
31: 5
32: 5
33: 5
34: 5
35: 5
36: 5
37: 5
38: 5
39: 5
40: 5
41: 5
42: 5
43: 5
44: 5
45: 5
46: 5
47: 5
48: 5
49: 5
50: 5
51: 5
52: 5
53: 5
54: 5
55: 5
56: 5
57: 5
edge from: to
58: 0
58: 1
59: 1
59: 2
60: 1
61: 6
61: 7
62: 8
63: 10
63: 12
64: 12
64: 14
65: 17
66: 4
66: 6
66: 10
66: 17
66: 19
66: 20
67: 23
67: 26
68: 24
68: 27
68: 28
69: 30
70: 29
70: 33
71: 34
71: 35
71: 36
71: 37
71: 38
72: 37
72: 42
73: 39
73: 45
74: 41
74: 47
75: 44
75: 51
76: 52
77: 16
77: 47
77: 54
2: 58
3: 59
4: 59
5: 59
6: 60
7: 60
8: 61
9: 62
10: 62
11: 62
12: 62
13: 63
14: 63
15: 64
16: 64
17: 64
18: 65
19: 65
20: 65
21: 66
22: 66
23: 66
24: 66
25: 66
26: 66
27: 66
28: 67
29: 68
30: 68
31: 68
32: 69
33: 69
34: 69
35: 70
36: 70
37: 70
38: 70
39: 71
40: 71
41: 71
42: 71
43: 71
44: 72
45: 72
46: 72
47: 73
48: 73
49: 74
50: 74
51: 74
52: 74
53: 75
54: 76
55: 76
56: 77
57: 77
segment: [9]
vertex id: label
64: 0
65: 3
66: 2
67: 3
68: 2
69: 3
70: 2
71: 2
72: 3
73: 2
74: 2
75: 2
76: 3
77: 4
78: 2
79: 2
80: 4
81: 2
82: 2
83: 3
0: 5
1: 5
2: 5
3: 5
4: 5
5: 5
6: 5
7: 5
8: 5
9: 5
10: 5
11: 5
12: 5
13: 5
14: 5
15: 5
16: 5
17: 5
18: 5
19: 5
20: 5
21: 5
22: 5
23: 5
24: 5
25: 5
26: 5
27: 5
28: 5
29: 5
30: 5
31: 5
32: 5
33: 5
34: 5
35: 5
36: 5
37: 5
38: 5
39: 5
40: 5
41: 5
42: 5
43: 5
44: 5
45: 5
46: 5
47: 5
48: 5
49: 5
50: 5
51: 5
52: 5
53: 5
54: 5
55: 5
56: 5
57: 5
58: 5
59: 5
60: 5
61: 5
62: 5
63: 5
edge from: to
64: 0
64: 1
64: 2
65: 4
66: 1
66: 3
66: 5
67: 9
68: 12
69: 14
70: 16
71: 4
71: 6
71: 17
71: 20
72: 22
73: 5
73: 9
73: 20
73: 23
74: 5
74: 21
75: 26
76: 11
76: 25
76: 28
76: 29
77: 31
77: 35
78: 34
78: 37
78: 38
79: 41
80: 18
80: 40
80: 46
80: 47
81: 46
81: 49
81: 53
81: 54
82: 57
82: 58
83: 12
83: 52
83: 60
3: 64
4: 64
5: 65
6: 66
7: 66
8: 66
9: 66
10: 67
11: 67
12: 67
13: 68
14: 68
15: 69
16: 69
17: 70
18: 70
19: 70
20: 70
21: 71
22: 71
23: 72
24: 73
25: 73
26: 74
27: 74
28: 75
29: 75
30: 76
31: 76
32: 76
33: 76
34: 76
35: 76
36: 76
37: 77
38: 77
39: 78
40: 78
41: 78
42: 78
43: 79
44: 79
45: 79
46: 79
47: 79
48: 80
49: 80
50: 80
51: 80
52: 80
53: 80
54: 80
55: 81
56: 81
57: 81
58: 81
59: 82
60: 82
61: 82
62: 83
63: 83
segment: [10]
vertex id: label
59: 0
60: 3
61: 2
62: 2
63: 3
64: 1
65: 3
66: 2
67: 3
68: 2
69: 3
70: 1
71: 0
72: 3
73: 4
74: 2
75: 2
76: 2
77: 3
78: 4
0: 5
1: 5
2: 5
3: 5
4: 5
5: 5
6: 5
7: 5
8: 5
9: 5
10: 5
11: 5
12: 5
13: 5
14: 5
15: 5
16: 5
17: 5
18: 5
19: 5
20: 5
21: 5
22: 5
23: 5
24: 5
25: 5
26: 5
27: 5
28: 5
29: 5
30: 5
31: 5
32: 5
33: 5
34: 5
35: 5
36: 5
37: 5
38: 5
39: 5
40: 5
41: 5
42: 5
43: 5
44: 5
45: 5
46: 5
47: 5
48: 5
49: 5
50: 5
51: 5
52: 5
53: 5
54: 5
55: 5
56: 5
57: 5
58: 5
edge from: to
59: 0
60: 3
61: 5
61: 6
62: 7
62: 8
63: 12
64: 16
65: 17
66: 18
67: 16
67: 19
68: 18
68: 21
69: 26
70: 6
70: 26
70: 30
71: 28
71: 32
71: 33
72: 36
73: 34
73: 39
74: 41
74: 43
74: 44
75: 17
75: 38
75: 44
75: 45
76: 45
77: 14
77: 41
77: 43
77: 47
77: 48
78: 43
78: 49
1: 59
2: 59
3: 59
4: 60
5: 60
6: 60
7: 61
8: 61
9: 62
10: 62
11: 62
12: 62
13: 63
14: 63
15: 63
16: 63
17: 64
18: 65
19: 66
20: 67
21: 67
22: 68
23: 68
24: 68
25: 68
26: 68
27: 68
28: 69
29: 69
30: 69
31: 70
32: 70
33: 70
34: 71
35: 71
36: 71
37: 71
38: 72
39: 72
40: 72
41: 73
42: 73
43: 73
44: 73
45: 74
46: 75
47: 76
48: 76
49: 77
50: 77
51: 78
52: 78
53: 78
54: 78
55: 78
56: 78
57: 78
58: 78
segment: [11]
vertex id: label
66: 0
67: 3
68: 2
69: 3
70: 2
71: 4
72: 2
73: 2
74: 3
75: 1
76: 3
77: 2
78: 4
79: 2
80: 3
81: 2
82: 3
83: 4
84: 2
85: 3
0: 5
1: 5
2: 5
3: 5
4: 5
5: 5
6: 5
7: 5
8: 5
9: 5
10: 5
11: 5
12: 5
13: 5
14: 5
15: 5
16: 5
17: 5
18: 5
19: 5
20: 5
21: 5
22: 5
23: 5
24: 5
25: 5
26: 5
27: 5
28: 5
29: 5
30: 5
31: 5
32: 5
33: 5
34: 5
35: 5
36: 5
37: 5
38: 5
39: 5
40: 5
41: 5
42: 5
43: 5
44: 5
45: 5
46: 5
47: 5
48: 5
49: 5
50: 5
51: 5
52: 5
53: 5
54: 5
55: 5
56: 5
57: 5
58: 5
59: 5
60: 5
61: 5
62: 5
63: 5
64: 5
65: 5
edge from: to
66: 0
66: 1
66: 2
66: 3
67: 8
68: 2
68: 9
69: 10
69: 12
70: 3
71: 18
72: 5
72: 20
72: 23
73: 26
74: 27
74: 30
75: 27
75: 31
75: 32
76: 10
76: 29
76: 33
77: 36
78: 40
79: 38
79: 44
80: 41
80: 47
81: 52
82: 11
83: 56
84: 31
84: 50
84: 58
84: 59
85: 53
85: 61
4: 66
5: 66
6: 66
7: 66
8: 66
9: 67
10: 67
11: 68
12: 68
13: 69
14: 69
15: 69
16: 70
17: 70
18: 70
19: 71
20: 71
21: 71
22: 71
23: 71
24: 72
25: 72
26: 72
27: 72
28: 73
29: 73
30: 73
31: 73
32: 74
33: 75
34: 75
35: 76
36: 76
37: 76
38: 77
39: 77
40: 77
41: 77
42: 78
43: 78
44: 78
45: 78
46: 79
47: 79
48: 79
49: 80
50: 80
51: 80
52: 80
53: 80
54: 81
55: 81
56: 81
57: 82
58: 83
59: 83
60: 84
61: 84
62: 84
63: 85
64: 85
65: 85
segment: [12]
vertex id: label
60: 0
61: 3
62: 1
63: 3
64: 2
65: 3
66: 2
67: 4
68: 2
69: 2
70: 3
71: 2
72: 3
73: 2
74: 3
75: 4
76: 2
77: 2
78: 3
79: 4
0: 5
1: 5
2: 5
3: 5
4: 5
5: 5
6: 5
7: 5
8: 5
9: 5
10: 5
11: 5
12: 5
13: 5
14: 5
15: 5
16: 5
17: 5
18: 5
19: 5
20: 5
21: 5
22: 5
23: 5
24: 5
25: 5
26: 5
27: 5
28: 5
29: 5
30: 5
31: 5
32: 5
33: 5
34: 5
35: 5
36: 5
37: 5
38: 5
39: 5
40: 5
41: 5
42: 5
43: 5
44: 5
45: 5
46: 5
47: 5
48: 5
49: 5
50: 5
51: 5
52: 5
53: 5
54: 5
55: 5
56: 5
57: 5
58: 5
59: 5
edge from: to
60: 0
61: 3
62: 2
62: 5
62: 6
63: 2
63: 9
64: 12
65: 4
65: 11
65: 13
66: 15
66: 17
67: 21
67: 23
68: 5
69: 8
69: 23
69: 24
69: 26
69: 27
70: 25
70: 28
71: 27
71: 31
71: 32
72: 10
72: 18
72: 29
72: 33
73: 37
73: 38
74: 41
75: 41
75: 43
75: 44
76: 41
76: 47
77: 49
78: 52
79: 54
1: 60
2: 60
3: 60
4: 61
5: 61
6: 61
7: 62
8: 62
9: 62
10: 62
11: 63
12: 63
13: 64
14: 65
15: 65
16: 65
17: 65
18: 66
19: 66
20: 66
21: 66
22: 66
23: 66
24: 66
25: 67
26: 68
27: 68
28: 69
29: 69
30: 70
31: 70
32: 70
33: 71
34: 71
35: 72
36: 72
37: 72
38: 72
39: 73
40: 73
41: 73
42: 73
43: 74
44: 74
45: 75
46: 75
47: 75
48: 75
49: 76
50: 76
51: 77
52: 77
53: 77
54: 78
55: 78
56: 79
57: 79
58: 79
59: 79
segment: [13]
vertex id: label
53: 0
54: 3
55: 2
56: 3
57: 2
58: 3
59: 2
60: 3
61: 1
62: 0
63: 3
64: 2
65: 3
66: 4
67: 2
68: 3
69: 2
70: 3
71: 2
72: 2
0: 5
1: 5
2: 5
3: 5
4: 5
5: 5
6: 5
7: 5
8: 5
9: 5
10: 5
11: 5
12: 5
13: 5
14: 5
15: 5
16: 5
17: 5
18: 5
19: 5
20: 5
21: 5
22: 5
23: 5
24: 5
25: 5
26: 5
27: 5
28: 5
29: 5
30: 5
31: 5
32: 5
33: 5
34: 5
35: 5
36: 5
37: 5
38: 5
39: 5
40: 5
41: 5
42: 5
43: 5
44: 5
45: 5
46: 5
47: 5
48: 5
49: 5
50: 5
51: 5
52: 5
edge from: to
53: 0
54: 1
54: 2
55: 1
55: 5
56: 7
56: 8
57: 2
57: 8
57: 9
58: 12
59: 12
59: 14
60: 16
60: 18
61: 4
61: 6
61: 17
62: 22
63: 23
64: 26
65: 25
65: 28
66: 30
67: 31
68: 31
68: 35
69: 34
69: 36
69: 38
69: 39
69: 40
70: 37
70: 42
71: 46
72: 42
72: 44
72: 48
72: 49
1: 53
2: 53
3: 54
4: 54
5: 54
6: 55
7: 55
8: 55
9: 56
10: 57
11: 57
12: 57
13: 58
14: 58
15: 59
16: 59
17: 59
18: 59
19: 60
20: 60
21: 61
22: 61
23: 62
24: 63
25: 63
26: 63
27: 64
28: 64
29: 64
30: 65
31: 65
32: 66
33: 67
34: 67
35: 67
36: 67
37: 68
38: 68
39: 68
40: 68
41: 69
42: 69
43: 69
44: 70
45: 70
46: 70
47: 70
48: 71
49: 71
50: 72
51: 72
52: 72
segment: [14]
vertex id: label
72: 0
73: 3
74: 2
75: 3
76: 1
77: 3
78: 4
79: 2
80: 2
81: 3
82: 2
83: 3
84: 2
85: 4
86: 2
87: 3
88: 2
89: 3
90: 1
91: 0
0: 5
1: 5
2: 5
3: 5
4: 5
5: 5
6: 5
7: 5
8: 5
9: 5
10: 5
11: 5
12: 5
13: 5
14: 5
15: 5
16: 5
17: 5
18: 5
19: 5
20: 5
21: 5
22: 5
23: 5
24: 5
25: 5
26: 5
27: 5
28: 5
29: 5
30: 5
31: 5
32: 5
33: 5
34: 5
35: 5
36: 5
37: 5
38: 5
39: 5
40: 5
41: 5
42: 5
43: 5
44: 5
45: 5
46: 5
47: 5
48: 5
49: 5
50: 5
51: 5
52: 5
53: 5
54: 5
55: 5
56: 5
57: 5
58: 5
59: 5
60: 5
61: 5
62: 5
63: 5
64: 5
65: 5
66: 5
67: 5
68: 5
69: 5
70: 5
71: 5
edge from: to
72: 0
72: 1
73: 0
73: 1
73: 2
73: 3
74: 8
74: 9
75: 10
75: 11
76: 7
76: 12
76: 14
77: 16
78: 16
78: 19
79: 5
79: 21
79: 25
80: 28
81: 34
82: 34
82: 39
83: 37
83: 40
83: 42
83: 43
84: 39
84: 45
85: 47
86: 51
87: 11
87: 48
88: 51
88: 59
88: 60
89: 64
90: 66
91: 68
2: 72
4: 73
5: 73
6: 73
7: 73
8: 73
9: 73
10: 74
11: 74
12: 75
13: 75
14: 75
15: 76
16: 76
17: 77
18: 77
19: 77
20: 78
21: 78
22: 78
23: 78
24: 78
25: 78
26: 79
27: 79
28: 79
29: 79
30: 80
31: 80
32: 80
33: 80
34: 80
35: 80
36: 81
37: 81
38: 81
39: 81
40: 81
41: 82
42: 82
43: 82
44: 83
45: 83
46: 83
47: 84
48: 84
49: 85
50: 85
51: 85
52: 85
53: 86
54: 86
55: 86
56: 86
57: 87
58: 87
59: 87
60: 87
61: 88
62: 88
63: 88
64: 88
65: 88
66: 89
67: 89
68: 90
69: 90
70: 91
71: 91
segment: [15]
vertex id: label
56: 0
57: 2
58: 4
59: 2
60: 3
61: 2
62: 3
63: 4
64: 2
65: 3
66: 2
67: 3
68: 2
69: 4
70: 2
71: 3
72: 2
73: 2
74: 3
75: 2
0: 5
1: 5
2: 5
3: 5
4: 5
5: 5
6: 5
7: 5
8: 5
9: 5
10: 5
11: 5
12: 5
13: 5
14: 5
15: 5
16: 5
17: 5
18: 5
19: 5
20: 5
21: 5
22: 5
23: 5
24: 5
25: 5
26: 5
27: 5
28: 5
29: 5
30: 5
31: 5
32: 5
33: 5
34: 5
35: 5
36: 5
37: 5
38: 5
39: 5
40: 5
41: 5
42: 5
43: 5
44: 5
45: 5
46: 5
47: 5
48: 5
49: 5
50: 5
51: 5
52: 5
53: 5
54: 5
55: 5
edge from: to
56: 0
56: 1
57: 3
58: 4
59: 7
59: 8
60: 6
60: 10
60: 11
61: 12
62: 16
63: 16
63: 18
64: 11
64: 19
64: 22
65: 23
66: 14
66: 15
66: 24
66: 27
66: 28
67: 6
68: 30
68: 34
69: 19
69: 31
69: 35
69: 36
70: 12
70: 35
70: 40
71: 42
72: 46
73: 42
73: 44
73: 48
73: 49
74: 10
74: 11
74: 51
75: 45
75: 52
75: 53
2: 56
3: 56
4: 57
5: 58
6: 58
7: 58
8: 58
9: 59
10: 59
11: 59
12: 60
13: 61
14: 61
15: 61
16: 61
17: 62
18: 62
19: 63
20: 63
21: 63
22: 63
23: 64
24: 65
25: 65
26: 65
27: 65
28: 65
29: 66
30: 66
31: 67
32: 67
33: 67
34: 67
35: 67
36: 68
37: 69
38: 69
39: 69
40: 69
41: 69
42: 70
43: 70
44: 71
45: 71
46: 71
47: 71
48: 72
49: 72
50: 73
51: 73
52: 74
53: 74
54: 75
55: 75
segment: [16]
vertex id: label
60: 0
61: 3
62: 3
63: 2
64: 3
65: 2
66: 3
67: 4
68: 2
69: 3
70: 1
71: 0
72: 3
73: 1
74: 3
75: 2
76: 4
77: 2
78: 4
79: 2
0: 5
1: 5
2: 5
3: 5
4: 5
5: 5
6: 5
7: 5
8: 5
9: 5
10: 5
11: 5
12: 5
13: 5
14: 5
15: 5
16: 5
17: 5
18: 5
19: 5
20: 5
21: 5
22: 5
23: 5
24: 5
25: 5
26: 5
27: 5
28: 5
29: 5
30: 5
31: 5
32: 5
33: 5
34: 5
35: 5
36: 5
37: 5
38: 5
39: 5
40: 5
41: 5
42: 5
43: 5
44: 5
45: 5
46: 5
47: 5
48: 5
49: 5
50: 5
51: 5
52: 5
53: 5
54: 5
55: 5
56: 5
57: 5
58: 5
59: 5
edge from: to
60: 0
60: 1
61: 1
62: 6
62: 7
63: 2
63: 8
63: 9
64: 11
64: 13
65: 18
66: 18
66: 21
67: 8
67: 23
67: 26
68: 27
69: 6
69: 26
70: 27
70: 31
70: 32
71: 29
71: 33
72: 31
72: 35
72: 36
73: 42
74: 43
75: 44
76: 14
76: 41
76: 47
77: 10
77: 11
77: 51
78: 45
78: 52
79: 11
79: 48
79: 56
2: 60
3: 60
4: 60
5: 60
6: 61
7: 61
8: 62
9: 62
10: 63
11: 63
12: 63
13: 63
14: 64
15: 64
16: 64
17: 64
18: 64
19: 65
20: 65
21: 65
22: 66
23: 66
24: 66
25: 66
26: 66
27: 66
28: 67
29: 68
30: 68
31: 69
32: 69
33: 70
34: 70
35: 71
36: 71
37: 72
38: 72
39: 72
40: 72
41: 72
42: 72
43: 72
44: 73
45: 74
46: 75
47: 75
48: 75
49: 76
50: 76
51: 76
52: 77
53: 77
54: 78
55: 78
56: 78
57: 79
58: 79
59: 79
segment: [17]
vertex id: label
56: 0
57: 3
58: 1
59: 0
60: 3
61: 1
62: 3
63: 2
64: 2
65: 2
66: 3
67: 2
68: 2
69: 3
70: 1
71: 3
72: 4
73: 2
74: 4
75: 2
0: 5
1: 5
2: 5
3: 5
4: 5
5: 5
6: 5
7: 5
8: 5
9: 5
10: 5
11: 5
12: 5
13: 5
14: 5
15: 5
16: 5
17: 5
18: 5
19: 5
20: 5
21: 5
22: 5
23: 5
24: 5
25: 5
26: 5
27: 5
28: 5
29: 5
30: 5
31: 5
32: 5
33: 5
34: 5
35: 5
36: 5
37: 5
38: 5
39: 5
40: 5
41: 5
42: 5
43: 5
44: 5
45: 5
46: 5
47: 5
48: 5
49: 5
50: 5
51: 5
52: 5
53: 5
54: 5
55: 5
edge from: to
56: 0
56: 1
57: 3
58: 7
59: 2
59: 9
60: 11
61: 4
61: 11
61: 13
62: 19
63: 5
64: 25
64: 28
65: 7
65: 27
65: 31
65: 32
66: 32
67: 32
67: 36
68: 33
68: 38
68: 39
69: 35
69: 40
70: 41
71: 43
72: 39
72: 45
73: 14
73: 41
73: 47
73: 48
74: 44
74: 51
74: 52
75: 53
2: 56
3: 56
4: 57
5: 57
6: 57
7: 57
8: 58
9: 58
10: 58
11: 59
12: 60
13: 60
14: 61
15: 61
16: 61
17: 61
18: 61
19: 61
20: 62
21: 62
22: 62
23: 62
24: 62
25: 62
26: 63
27: 63
28: 63
29: 63
30: 64
31: 64
32: 64
33: 65
34: 66
35: 66
36: 66
37: 66
38: 67
39: 67
40: 68
41: 68
42: 69
43: 70
44: 70
45: 71
46: 71
47: 72
48: 72
49: 73
50: 73
51: 73
52: 73
53: 74
54: 74
55: 75
segment: [18]
vertex id: label
64: 0
65: 3
66: 2
67: 4
68: 2
69: 2
70: 3
71: 4
72: 2
73: 3
74: 2
75: 4
76: 2
77: 3
78: 4
79: 2
80: 4
81: 2
82: 3
83: 4
0: 5
1: 5
2: 5
3: 5
4: 5
5: 5
6: 5
7: 5
8: 5
9: 5
10: 5
11: 5
12: 5
13: 5
14: 5
15: 5
16: 5
17: 5
18: 5
19: 5
20: 5
21: 5
22: 5
23: 5
24: 5
25: 5
26: 5
27: 5
28: 5
29: 5
30: 5
31: 5
32: 5
33: 5
34: 5
35: 5
36: 5
37: 5
38: 5
39: 5
40: 5
41: 5
42: 5
43: 5
44: 5
45: 5
46: 5
47: 5
48: 5
49: 5
50: 5
51: 5
52: 5
53: 5
54: 5
55: 5
56: 5
57: 5
58: 5
59: 5
60: 5
61: 5
62: 5
63: 5
edge from: to
64: 0
64: 1
64: 2
65: 1
65: 2
65: 4
66: 2
66: 9
67: 6
67: 10
67: 12
68: 14
68: 16
69: 19
70: 21
70: 23
71: 5
72: 24
72: 27
72: 28
73: 6
73: 26
74: 30
74: 34
75: 37
76: 34
76: 39
77: 41
78: 39
78: 45
79: 42
79: 48
80: 43
80: 49
81: 53
82: 50
82: 58
82: 59
83: 51
83: 54
83: 59
83: 60
3: 64
4: 64
5: 65
6: 65
7: 65
8: 65
9: 65
10: 65
11: 66
12: 66
13: 67
14: 67
15: 67
16: 67
17: 68
18: 68
19: 68
20: 69
21: 69
22: 69
23: 69
24: 69
25: 70
26: 71
27: 71
28: 71
29: 72
30: 72
31: 73
32: 73
33: 73
34: 73
35: 73
36: 74
37: 74
38: 74
39: 75
40: 75
41: 76
42: 76
43: 77
44: 77
45: 77
46: 77
47: 78
48: 78
49: 78
50: 79
51: 80
52: 80
53: 80
54: 80
55: 81
56: 81
57: 81
58: 81
59: 81
60: 82
61: 83
62: 83
63: 83
segment: [19]
vertex id: label
57: 0
58: 3
59: 1
60: 0
61: 3
62: 2
63: 3
64: 2
65: 3
66: 2
67: 3
68: 2
69: 2
70: 2
71: 3
72: 2
73: 3
74: 2
75: 3
76: 4
0: 5
1: 5
2: 5
3: 5
4: 5
5: 5
6: 5
7: 5
8: 5
9: 5
10: 5
11: 5
12: 5
13: 5
14: 5
15: 5
16: 5
17: 5
18: 5
19: 5
20: 5
21: 5
22: 5
23: 5
24: 5
25: 5
26: 5
27: 5
28: 5
29: 5
30: 5
31: 5
32: 5
33: 5
34: 5
35: 5
36: 5
37: 5
38: 5
39: 5
40: 5
41: 5
42: 5
43: 5
44: 5
45: 5
46: 5
47: 5
48: 5
49: 5
50: 5
51: 5
52: 5
53: 5
54: 5
55: 5
56: 5
edge from: to
57: 0
57: 1
58: 0
58: 1
58: 2
59: 1
59: 2
59: 4
60: 8
60: 9
61: 11
61: 13
62: 14
62: 16
63: 15
63: 17
64: 19
65: 4
65: 17
66: 5
66: 9
66: 20
66: 23
67: 5
67: 21
68: 26
69: 15
69: 24
69: 27
69: 28
70: 6
70: 26
71: 31
72: 32
73: 37
73: 38
74: 40
75: 43
75: 44
76: 42
76: 48
76: 49
2: 57
3: 58
4: 58
5: 59
6: 59
7: 59
8: 59
9: 59
10: 60
11: 60
12: 60
13: 60
14: 61
15: 61
16: 61
17: 62
18: 63
19: 63
20: 64
21: 65
22: 65
23: 65
24: 66
25: 66
26: 67
27: 67
28: 68
29: 69
30: 69
31: 70
32: 70
33: 71
34: 72
35: 72
36: 72
37: 72
38: 72
39: 73
40: 73
41: 73
42: 74
43: 74
44: 74
45: 75
46: 75
47: 75
48: 75
49: 75
50: 76
51: 76
52: 76
53: 76
54: 76
55: 76
56: 76
