segment: [0]
vertex id: label
62: 0
63: 4
64: 4
65: 4
66: 4
67: 4
68: 4
69: 4
70: 4
71: 4
72: 4
73: 4
74: 4
75: 4
76: 4
77: 4
78: 4
79: 4
80: 4
81: 4
0: 5
1: 5
2: 5
3: 5
4: 5
5: 5
6: 5
7: 5
8: 5
9: 5
10: 5
11: 5
12: 5
13: 5
14: 5
15: 5
16: 5
17: 5
18: 5
19: 5
20: 5
21: 5
22: 5
23: 5
24: 5
25: 5
26: 5
27: 5
28: 5
29: 5
30: 5
31: 5
32: 5
33: 5
34: 5
35: 5
36: 5
37: 5
38: 5
39: 5
40: 5
41: 5
42: 5
43: 5
44: 5
45: 5
46: 5
47: 5
48: 5
49: 5
50: 5
51: 5
52: 5
53: 5
54: 5
55: 5
56: 5
57: 5
58: 5
59: 5
60: 5
61: 5
edge from: to
62: 0
62: 1
62: 2
63: 5
64: 7
65: 7
65: 9
65: 10
66: 7
66: 9
66: 11
66: 12
66: 13
67: 14
68: 19
69: 18
69: 20
70: 19
70: 21
71: 26
71: 27
72: 29
73: 33
74: 35
74: 40
75: 42
76: 34
76: 40
76: 46
77: 46
78: 43
78: 48
79: 52
79: 55
80: 47
80: 54
80: 57
81: 48
81: 54
3: 62
4: 62
5: 62
6: 63
7: 63
8: 63
9: 64
10: 64
11: 65
12: 65
13: 65
14: 66
15: 66
16: 66
17: 67
18: 67
19: 67
20: 67
21: 68
22: 68
23: 69
24: 70
25: 70
26: 70
27: 70
28: 71
29: 71
30: 71
31: 72
32: 72
33: 72
34: 72
35: 72
36: 72
37: 73
38: 73
39: 73
40: 73
41: 73
42: 73
43: 74
44: 74
45: 74
46: 75
47: 75
48: 75
49: 76
50: 76
51: 77
52: 77
53: 78
54: 78
55: 78
56: 79
57: 79
58: 80
59: 81
60: 81
61: 81
segment: [1]
vertex id: label
54: 0
55: 4
56: 4
57: 4
58: 4
59: 4
60: 4
61: 4
62: 4
63: 4
64: 4
65: 4
66: 4
67: 4
68: 4
69: 4
70: 4
71: 4
72: 4
73: 4
0: 5
1: 5
2: 5
3: 5
4: 5
5: 5
6: 5
7: 5
8: 5
9: 5
10: 5
11: 5
12: 5
13: 5
14: 5
15: 5
16: 5
17: 5
18: 5
19: 5
20: 5
21: 5
22: 5
23: 5
24: 5
25: 5
26: 5
27: 5
28: 5
29: 5
30: 5
31: 5
32: 5
33: 5
34: 5
35: 5
36: 5
37: 5
38: 5
39: 5
40: 5
41: 5
42: 5
43: 5
44: 5
45: 5
46: 5
47: 5
48: 5
49: 5
50: 5
51: 5
52: 5
53: 5
edge from: to
54: 0
54: 1
55: 3
56: 3
56: 4
57: 7
58: 6
58: 7
58: 8
59: 11
60: 10
60: 12
60: 14
61: 15
62: 17
62: 19
63: 18
63: 20
64: 17
64: 20
64: 22
65: 18
65: 21
65: 23
66: 23
66: 27
67: 24
67: 28
68: 37
68: 39
69: 39
70: 36
70: 41
71: 39
71: 45
72: 41
72: 47
73: 46
73: 49
73: 50
2: 54
3: 54
4: 55
5: 56
6: 56
7: 56
8: 57
9: 58
10: 58
11: 58
12: 59
13: 59
14: 59
15: 60
16: 60
17: 60
18: 61
19: 61
20: 61
21: 62
22: 62
23: 63
24: 63
25: 64
26: 65
27: 65
28: 65
29: 66
30: 67
31: 67
32: 67
33: 67
34: 67
35: 67
36: 67
37: 67
38: 67
39: 67
40: 68
41: 68
42: 69
43: 69
44: 70
45: 70
46: 70
47: 70
48: 71
49: 71
50: 72
51: 73
52: 73
53: 73
segment: [2]
vertex id: label
64: 0
65: 4
66: 4
67: 4
68: 4
69: 4
70: 4
71: 4
72: 4
73: 4
74: 4
75: 4
76: 0
77: 0
78: 0
79: 4
80: 4
81: 4
82: 4
83: 4
0: 5
1: 5
2: 5
3: 5
4: 5
5: 5
6: 5
7: 5
8: 5
9: 5
10: 5
11: 5
12: 5
13: 5
14: 5
15: 5
16: 5
17: 5
18: 5
19: 5
20: 5
21: 5
22: 5
23: 5
24: 5
25: 5
26: 5
27: 5
28: 5
29: 5
30: 5
31: 5
32: 5
33: 5
34: 5
35: 5
36: 5
37: 5
38: 5
39: 5
40: 5
41: 5
42: 5
43: 5
44: 5
45: 5
46: 5
47: 5
48: 5
49: 5
50: 5
51: 5
52: 5
53: 5
54: 5
55: 5
56: 5
57: 5
58: 5
59: 5
60: 5
61: 5
62: 5
63: 5
edge from: to
64: 0
65: 4
65: 5
66: 7
67: 7
68: 8
68: 9
69: 10
69: 12
69: 14
70: 15
71: 16
72: 22
73: 26
73: 27
74: 28
75: 31
76: 31
76: 34
77: 34
77: 39
78: 42
79: 39
79: 45
80: 42
80: 47
81: 50
82: 52
83: 54
1: 64
2: 64
3: 64
4: 64
5: 64
6: 65
7: 65
8: 66
9: 67
10: 68
11: 68
12: 68
13: 68
14: 68
15: 69
16: 70
17: 70
18: 70
19: 71
20: 71
21: 71
22: 71
23: 71
24: 71
25: 72
26: 72
27: 72
28: 73
29: 73
30: 74
31: 74
32: 74
33: 74
34: 74
35: 75
36: 75
37: 75
38: 76
39: 76
40: 76
41: 76
42: 77
43: 77
44: 77
45: 77
46: 78
47: 78
48: 79
49: 79
50: 79
51: 79
52: 80
53: 80
54: 81
55: 81
56: 82
57: 82
58: 83
59: 83
60: 83
61: 83
62: 83
63: 83
segment: [3]
vertex id: label
72: 0
73: 4
74: 4
75: 0
76: 0
77: 4
78: 4
79: 4
80: 4
81: 4
82: 3
83: 2
84: 3
85: 2
86: 3
87: 2
88: 3
89: 2
90: 3
91: 2
0: 5
1: 5
2: 5
3: 5
4: 5
5: 5
6: 5
7: 5
8: 5
9: 5
10: 5
11: 5
12: 5
13: 5
14: 5
15: 5
16: 5
17: 5
18: 5
19: 5
20: 5
21: 5
22: 5
23: 5
24: 5
25: 5
26: 5
27: 5
28: 5
29: 5
30: 5
31: 5
32: 5
33: 5
34: 5
35: 5
36: 5
37: 5
38: 5
39: 5
40: 5
41: 5
42: 5
43: 5
44: 5
45: 5
46: 5
47: 5
48: 5
49: 5
50: 5
51: 5
52: 5
53: 5
54: 5
55: 5
56: 5
57: 5
58: 5
59: 5
60: 5
61: 5
62: 5
63: 5
64: 5
65: 5
66: 5
67: 5
68: 5
69: 5
70: 5
71: 5
edge from: to
72: 0
72: 1
72: 2
72: 3
72: 4
73: 7
74: 8
74: 9
74: 11
75: 13
75: 14
75: 15
75: 16
76: 16
77: 18
77: 20
78: 22
79: 24
79: 28
79: 29
80: 27
80: 30
80: 33
81: 33
82: 31
82: 34
83: 38
84: 34
84: 39
85: 42
85: 44
86: 46
87: 42
87: 47
88: 52
89: 49
89: 55
90: 62
90: 67
91: 65
5: 72
6: 72
7: 72
8: 73
9: 73
10: 73
11: 73
12: 74
13: 74
14: 74
15: 74
16: 74
17: 75
18: 75
19: 76
20: 76
21: 76
22: 77
23: 77
24: 77
25: 78
26: 78
27: 78
28: 78
29: 78
30: 79
31: 79
32: 79
33: 79
34: 80
35: 80
36: 80
37: 81
38: 82
39: 82
40: 82
41: 83
42: 84
43: 84
44: 84
45: 85
46: 85
47: 85
48: 85
49: 86
50: 86
51: 86
52: 87
53: 87
54: 87
55: 87
56: 88
57: 88
58: 88
59: 88
60: 89
61: 89
62: 89
63: 89
64: 89
65: 89
66: 89
67: 89
68: 90
69: 90
70: 91
71: 91
segment: [4]
vertex id: label
68: 0
69: 4
70: 4
71: 4
72: 4
73: 4
74: 4
75: 4
76: 4
77: 1
78: 3
79: 2
80: 3
81: 2
82: 3
83: 2
84: 3
85: 2
86: 3
87: 2
0: 5
1: 5
2: 5
3: 5
4: 5
5: 5
6: 5
7: 5
8: 5
9: 5
10: 5
11: 5
12: 5
13: 5
14: 5
15: 5
16: 5
17: 5
18: 5
19: 5
20: 5
21: 5
22: 5
23: 5
24: 5
25: 5
26: 5
27: 5
28: 5
29: 5
30: 5
31: 5
32: 5
33: 5
34: 5
35: 5
36: 5
37: 5
38: 5
39: 5
40: 5
41: 5
42: 5
43: 5
44: 5
45: 5
46: 5
47: 5
48: 5
49: 5
50: 5
51: 5
52: 5
53: 5
54: 5
55: 5
56: 5
57: 5
58: 5
59: 5
60: 5
61: 5
62: 5
63: 5
64: 5
65: 5
66: 5
67: 5
edge from: to
68: 0
68: 1
69: 3
69: 4
70: 3
70: 4
70: 5
70: 6
70: 7
70: 8
71: 14
72: 16
72: 17
72: 18
72: 19
73: 15
73: 18
73: 20
73: 21
74: 20
74: 22
75: 18
75: 21
75: 23
76: 26
76: 30
77: 31
78: 34
79: 38
80: 36
80: 41
80: 42
80: 44
81: 39
81: 45
82: 43
82: 48
83: 45
83: 51
83: 54
84: 53
85: 43
85: 57
85: 61
86: 58
87: 61
2: 68
3: 68
4: 68
5: 69
6: 69
7: 69
8: 69
9: 70
10: 70
11: 70
12: 70
13: 70
14: 70
15: 70
16: 70
17: 71
18: 71
19: 71
20: 72
21: 72
22: 73
23: 73
24: 73
25: 74
26: 75
27: 75
28: 75
29: 75
30: 75
31: 75
32: 76
33: 76
34: 76
35: 77
36: 77
37: 77
38: 78
39: 78
40: 78
41: 79
42: 79
43: 79
44: 79
45: 80
46: 80
47: 80
48: 81
49: 81
50: 81
51: 81
52: 81
53: 82
54: 82
55: 83
56: 83
57: 84
58: 84
59: 84
60: 84
61: 84
62: 85
63: 86
64: 86
65: 87
66: 87
67: 87
segment: [5]
vertex id: label
57: 0
58: 4
59: 4
60: 0
61: 0
62: 4
63: 4
64: 4
65: 4
66: 4
67: 4
68: 4
69: 4
70: 4
71: 4
72: 4
73: 4
74: 4
75: 4
76: 4
0: 5
1: 5
2: 5
3: 5
4: 5
5: 5
6: 5
7: 5
8: 5
9: 5
10: 5
11: 5
12: 5
13: 5
14: 5
15: 5
16: 5
17: 5
18: 5
19: 5
20: 5
21: 5
22: 5
23: 5
24: 5
25: 5
26: 5
27: 5
28: 5
29: 5
30: 5
31: 5
32: 5
33: 5
34: 5
35: 5
36: 5
37: 5
38: 5
39: 5
40: 5
41: 5
42: 5
43: 5
44: 5
45: 5
46: 5
47: 5
48: 5
49: 5
50: 5
51: 5
52: 5
53: 5
54: 5
55: 5
56: 5
edge from: to
57: 0
57: 1
57: 2
58: 0
58: 3
58: 4
59: 6
60: 8
61: 13
62: 11
62: 13
62: 15
63: 16
63: 18
64: 18
64: 20
65: 23
66: 23
66: 27
67: 25
67: 29
68: 31
69: 31
69: 34
70: 37
70: 39
71: 36
71: 41
72: 42
72: 44
73: 32
73: 42
73: 45
74: 40
74: 46
75: 46
75: 50
76: 50
3: 57
4: 57
5: 58
6: 58
7: 59
8: 59
9: 59
10: 60
11: 60
12: 60
13: 60
14: 61
15: 61
16: 62
17: 62
18: 62
19: 62
20: 63
21: 63
22: 64
23: 64
24: 64
25: 64
26: 65
27: 65
28: 65
29: 66
30: 66
31: 67
32: 67
33: 67
34: 67
35: 68
36: 68
37: 68
38: 69
39: 69
40: 70
41: 70
42: 70
43: 70
44: 71
45: 72
46: 73
47: 73
48: 73
49: 74
50: 74
51: 75
52: 75
53: 75
54: 76
55: 76
56: 76
segment: [6]
vertex id: label
63: 0
64: 0
65: 0
66: 4
67: 4
68: 4
69: 4
70: 4
71: 4
72: 4
73: 4
74: 4
75: 4
76: 4
77: 4
78: 4
79: 4
80: 4
81: 4
82: 4
0: 5
1: 5
2: 5
3: 5
4: 5
5: 5
6: 5
7: 5
8: 5
9: 5
10: 5
11: 5
12: 5
13: 5
14: 5
15: 5
16: 5
17: 5
18: 5
19: 5
20: 5
21: 5
22: 5
23: 5
24: 5
25: 5
26: 5
27: 5
28: 5
29: 5
30: 5
31: 5
32: 5
33: 5
34: 5
35: 5
36: 5
37: 5
38: 5
39: 5
40: 5
41: 5
42: 5
43: 5
44: 5
45: 5
46: 5
47: 5
48: 5
49: 5
50: 5
51: 5
52: 5
53: 5
54: 5
55: 5
56: 5
57: 5
58: 5
59: 5
60: 5
61: 5
62: 5
edge from: to
63: 0
63: 1
64: 3
64: 4
65: 10
66: 13
67: 13
67: 14
68: 13
68: 15
68: 16
69: 17
69: 19
70: 21
71: 25
72: 27
73: 28
73: 31
74: 31
74: 34
75: 38
76: 35
76: 40
76: 41
76: 42
77: 38
77: 44
77: 46
78: 41
78: 47
79: 48
80: 51
81: 48
81: 54
82: 56
2: 63
3: 63
4: 63
5: 64
6: 64
7: 64
8: 64
9: 64
10: 64
11: 65
12: 65
13: 65
14: 66
15: 66
16: 66
17: 67
18: 67
19: 68
20: 68
21: 69
22: 69
23: 69
24: 70
25: 70
26: 70
27: 71
28: 71
29: 72
30: 72
31: 72
32: 72
33: 72
34: 72
35: 73
36: 73
37: 73
38: 74
39: 74
40: 74
41: 75
42: 75
43: 76
44: 76
45: 76
46: 76
47: 77
48: 77
49: 77
50: 78
51: 78
52: 78
53: 79
54: 79
55: 80
56: 80
57: 80
58: 80
59: 81
60: 81
61: 82
62: 82
segment: [7]
vertex id: label
63: 0
64: 0
65: 0
66: 4
67: 4
68: 4
69: 4
70: 4
71: 4
72: 4
73: 4
74: 4
75: 4
76: 4
77: 0
78: 4
79: 4
80: 4
81: 4
82: 4
0: 5
1: 5
2: 5
3: 5
4: 5
5: 5
6: 5
7: 5
8: 5
9: 5
10: 5
11: 5
12: 5
13: 5
14: 5
15: 5
16: 5
17: 5
18: 5
19: 5
20: 5
21: 5
22: 5
23: 5
24: 5
25: 5
26: 5
27: 5
28: 5
29: 5
30: 5
31: 5
32: 5
33: 5
34: 5
35: 5
36: 5
37: 5
38: 5
39: 5
40: 5
41: 5
42: 5
43: 5
44: 5
45: 5
46: 5
47: 5
48: 5
49: 5
50: 5
51: 5
52: 5
53: 5
54: 5
55: 5
56: 5
57: 5
58: 5
59: 5
60: 5
61: 5
62: 5
edge from: to
63: 0
63: 1
64: 7
65: 11
65: 13
66: 13
66: 14
67: 15
67: 16
68: 16
68: 17
68: 18
68: 19
69: 15
69: 18
69: 20
70: 20
70: 22
71: 26
72: 30
73: 30
73: 33
74: 32
75: 35
76: 37
76: 39
77: 36
77: 41
78: 44
79: 46
80: 47
80: 54
81: 49
81: 55
82: 57
2: 63
3: 63
4: 63
5: 63
6: 63
7: 63
8: 64
9: 64
10: 64
11: 64
12: 64
13: 64
14: 65
15: 65
16: 65
17: 66
18: 66
19: 67
20: 68
21: 68
22: 69
23: 69
24: 69
25: 70
26: 70
27: 70
28: 71
29: 71
30: 71
31: 71
32: 72
33: 72
34: 73
35: 73
36: 74
37: 74
38: 74
39: 75
40: 76
41: 76
42: 76
43: 76
44: 77
45: 77
46: 77
47: 78
48: 78
49: 78
50: 78
51: 79
52: 79
53: 79
54: 79
55: 79
56: 79
57: 79
58: 80
59: 80
60: 81
61: 81
62: 82
segment: [8]
vertex id: label
65: 0
66: 4
67: 4
68: 4
69: 4
70: 4
71: 4
72: 4
73: 4
74: 4
75: 4
76: 4
77: 4
78: 4
79: 4
80: 4
81: 4
82: 4
83: 4
84: 4
0: 5
1: 5
2: 5
3: 5
4: 5
5: 5
6: 5
7: 5
8: 5
9: 5
10: 5
11: 5
12: 5
13: 5
14: 5
15: 5
16: 5
17: 5
18: 5
19: 5
20: 5
21: 5
22: 5
23: 5
24: 5
25: 5
26: 5
27: 5
28: 5
29: 5
30: 5
31: 5
32: 5
33: 5
34: 5
35: 5
36: 5
37: 5
38: 5
39: 5
40: 5
41: 5
42: 5
43: 5
44: 5
45: 5
46: 5
47: 5
48: 5
49: 5
50: 5
51: 5
52: 5
53: 5
54: 5
55: 5
56: 5
57: 5
58: 5
59: 5
60: 5
61: 5
62: 5
63: 5
64: 5
edge from: to
65: 0
66: 4
66: 5
67: 4
67: 5
67: 6
67: 7
68: 5
68: 8
68: 9
69: 11
69: 13
70: 14
71: 18
72: 12
72: 16
72: 18
72: 20
72: 21
73: 23
74: 25
74: 29
74: 30
75: 28
75: 31
76: 27
76: 32
76: 35
77: 41
78: 39
78: 45
79: 42
79: 47
80: 43
80: 48
81: 51
82: 47
82: 54
83: 55
84: 58
1: 65
2: 65
3: 65
4: 65
5: 65
6: 66
7: 66
8: 67
9: 67
10: 68
11: 68
12: 68
13: 68
14: 69
15: 70
16: 70
17: 70
18: 70
19: 70
20: 71
21: 71
22: 71
23: 72
24: 72
25: 72
26: 73
27: 73
28: 73
29: 73
30: 73
31: 74
32: 74
33: 74
34: 74
35: 75
36: 75
37: 75
38: 75
39: 76
40: 76
41: 76
42: 76
43: 76
44: 77
45: 77
46: 77
47: 77
48: 78
49: 78
50: 78
51: 78
52: 79
53: 80
54: 80
55: 81
56: 81
57: 81
58: 82
59: 82
60: 83
61: 83
62: 83
63: 84
64: 84
segment: [9]
vertex id: label
61: 0
62: 4
63: 4
64: 4
65: 4
66: 4
67: 4
68: 4
69: 4
70: 4
71: 4
72: 4
73: 4
74: 4
75: 4
76: 4
77: 4
78: 4
79: 4
80: 4
0: 5
1: 5
2: 5
3: 5
4: 5
5: 5
6: 5
7: 5
8: 5
9: 5
10: 5
11: 5
12: 5
13: 5
14: 5
15: 5
16: 5
17: 5
18: 5
19: 5
20: 5
21: 5
22: 5
23: 5
24: 5
25: 5
26: 5
27: 5
28: 5
29: 5
30: 5
31: 5
32: 5
33: 5
34: 5
35: 5
36: 5
37: 5
38: 5
39: 5
40: 5
41: 5
42: 5
43: 5
44: 5
45: 5
46: 5
47: 5
48: 5
49: 5
50: 5
51: 5
52: 5
53: 5
54: 5
55: 5
56: 5
57: 5
58: 5
59: 5
60: 5
edge from: to
61: 0
61: 1
61: 2
61: 3
62: 4
62: 5
62: 6
63: 6
63: 7
64: 9
64: 11
65: 11
65: 13
66: 13
66: 14
67: 20
68: 22
69: 26
70: 28
71: 30
72: 32
73: 31
73: 34
73: 36
73: 37
74: 32
74: 35
75: 23
75: 36
75: 41
75: 43
76: 44
77: 46
78: 43
78: 48
79: 44
79: 50
80: 54
4: 61
5: 61
6: 61
7: 62
8: 62
9: 63
10: 63
11: 63
12: 64
13: 64
14: 65
15: 65
16: 65
17: 66
18: 66
19: 66
20: 66
21: 66
22: 67
23: 67
24: 67
25: 68
26: 68
27: 68
28: 69
29: 69
30: 70
31: 70
32: 71
33: 71
34: 71
35: 71
36: 72
37: 72
38: 73
39: 74
40: 74
41: 74
42: 74
43: 74
44: 75
45: 75
46: 75
47: 76
48: 76
49: 77
50: 77
51: 77
52: 77
53: 78
54: 79
55: 79
56: 79
57: 79
58: 79
59: 80
60: 80
segment: [10]
vertex id: label
63: 0
64: 0
65: 0
66: 4
67: 4
68: 4
69: 4
70: 4
71: 4
72: 4
73: 4
74: 4
75: 4
76: 4
77: 4
78: 4
79: 4
80: 4
81: 4
82: 4
0: 5
1: 5
2: 5
3: 5
4: 5
5: 5
6: 5
7: 5
8: 5
9: 5
10: 5
11: 5
12: 5
13: 5
14: 5
15: 5
16: 5
17: 5
18: 5
19: 5
20: 5
21: 5
22: 5
23: 5
24: 5
25: 5
26: 5
27: 5
28: 5
29: 5
30: 5
31: 5
32: 5
33: 5
34: 5
35: 5
36: 5
37: 5
38: 5
39: 5
40: 5
41: 5
42: 5
43: 5
44: 5
45: 5
46: 5
47: 5
48: 5
49: 5
50: 5
51: 5
52: 5
53: 5
54: 5
55: 5
56: 5
57: 5
58: 5
59: 5
60: 5
61: 5
62: 5
edge from: to
63: 0
63: 1
63: 2
63: 3
64: 4
64: 5
64: 6
65: 6
65: 7
66: 11
67: 12
67: 14
68: 16
68: 18
68: 19
69: 20
70: 13
70: 17
70: 20
70: 22
70: 24
71: 23
71: 27
72: 24
72: 28
72: 29
73: 31
74: 31
74: 34
75: 37
75: 39
76: 33
76: 38
77: 36
77: 41
78: 39
78: 45
79: 41
79: 47
80: 36
80: 42
80: 47
81: 52
81: 55
82: 54
4: 63
5: 63
6: 63
7: 64
8: 64
9: 65
10: 65
11: 65
12: 66
13: 66
14: 66
15: 67
16: 67
17: 67
18: 67
19: 67
20: 68
21: 68
22: 69
23: 69
24: 69
25: 70
26: 70
27: 70
28: 70
29: 71
30: 72
31: 72
32: 72
33: 73
34: 73
35: 73
36: 73
37: 73
38: 74
39: 74
40: 75
41: 76
42: 76
43: 76
44: 77
45: 77
46: 77
47: 77
48: 78
49: 78
50: 79
51: 79
52: 80
53: 80
54: 80
55: 80
56: 81
57: 81
58: 81
59: 82
60: 82
61: 82
62: 82
segment: [11]
vertex id: label
75: 0
76: 4
77: 4
78: 4
79: 4
80: 4
81: 4
82: 4
83: 4
84: 1
85: 0
86: 0
87: 0
88: 0
89: 0
90: 0
91: 4
92: 4
93: 4
94: 4
0: 5
1: 5
2: 5
3: 5
4: 5
5: 5
6: 5
7: 5
8: 5
9: 5
10: 5
11: 5
12: 5
13: 5
14: 5
15: 5
16: 5
17: 5
18: 5
19: 5
20: 5
21: 5
22: 5
23: 5
24: 5
25: 5
26: 5
27: 5
28: 5
29: 5
30: 5
31: 5
32: 5
33: 5
34: 5
35: 5
36: 5
37: 5
38: 5
39: 5
40: 5
41: 5
42: 5
43: 5
44: 5
45: 5
46: 5
47: 5
48: 5
49: 5
50: 5
51: 5
52: 5
53: 5
54: 5
55: 5
56: 5
57: 5
58: 5
59: 5
60: 5
61: 5
62: 5
63: 5
64: 5
65: 5
66: 5
67: 5
68: 5
69: 5
70: 5
71: 5
72: 5
73: 5
74: 5
edge from: to
75: 0
75: 1
76: 6
77: 9
77: 10
77: 12
78: 12
78: 14
79: 14
79: 15
80: 20
81: 25
82: 20
82: 23
82: 27
83: 25
83: 29
83: 30
84: 30
84: 33
85: 25
85: 29
85: 32
86: 31
86: 34
87: 38
88: 42
89: 41
89: 47
90: 45
90: 51
90: 54
91: 54
92: 58
92: 62
93: 35
93: 63
93: 66
94: 57
94: 65
2: 75
3: 75
4: 75
5: 75
6: 75
7: 76
8: 76
9: 76
10: 76
11: 76
12: 76
13: 77
14: 77
15: 78
16: 78
17: 78
18: 79
19: 79
20: 79
21: 79
22: 80
23: 80
24: 80
25: 80
26: 80
27: 81
28: 81
29: 82
30: 82
31: 83
32: 83
33: 83
34: 84
35: 84
36: 85
37: 85
38: 86
39: 86
40: 86
41: 87
42: 87
43: 87
44: 87
45: 88
46: 88
47: 88
48: 88
49: 88
50: 89
51: 89
52: 89
53: 89
54: 89
55: 90
56: 90
57: 90
58: 91
59: 91
60: 91
61: 91
62: 91
63: 92
64: 92
65: 92
66: 92
67: 93
68: 93
69: 93
70: 94
71: 94
72: 94
73: 94
74: 94
segment: [12]
vertex id: label
62: 0
63: 4
64: 4
65: 4
66: 4
67: 4
68: 4
69: 0
70: 4
71: 4
72: 4
73: 4
74: 4
75: 4
76: 4
77: 4
78: 0
79: 3
80: 2
81: 3
0: 5
1: 5
2: 5
3: 5
4: 5
5: 5
6: 5
7: 5
8: 5
9: 5
10: 5
11: 5
12: 5
13: 5
14: 5
15: 5
16: 5
17: 5
18: 5
19: 5
20: 5
21: 5
22: 5
23: 5
24: 5
25: 5
26: 5
27: 5
28: 5
29: 5
30: 5
31: 5
32: 5
33: 5
34: 5
35: 5
36: 5
37: 5
38: 5
39: 5
40: 5
41: 5
42: 5
43: 5
44: 5
45: 5
46: 5
47: 5
48: 5
49: 5
50: 5
51: 5
52: 5
53: 5
54: 5
55: 5
56: 5
57: 5
58: 5
59: 5
60: 5
61: 5
edge from: to
62: 0
63: 3
64: 5
65: 6
65: 7
66: 11
67: 13
67: 15
68: 15
69: 18
70: 15
70: 18
70: 20
71: 13
71: 17
71: 20
71: 22
72: 22
72: 25
72: 26
73: 27
74: 24
74: 28
75: 28
75: 31
76: 31
76: 34
76: 37
77: 35
77: 40
78: 32
78: 42
78: 45
79: 34
79: 40
79: 46
80: 48
81: 53
1: 62
2: 62
3: 62
4: 63
5: 63
6: 64
7: 64
8: 65
9: 65
10: 65
11: 65
12: 66
13: 66
14: 66
15: 66
16: 67
17: 67
18: 68
19: 68
20: 69
21: 69
22: 70
23: 70
24: 70
25: 71
26: 71
27: 72
28: 72
29: 73
30: 74
31: 74
32: 74
33: 74
34: 74
35: 75
36: 75
37: 75
38: 76
39: 76
40: 76
41: 76
42: 76
43: 77
44: 77
45: 77
46: 78
47: 78
48: 78
49: 79
50: 79
51: 79
52: 79
53: 80
54: 80
55: 80
56: 80
57: 81
58: 81
59: 81
60: 81
61: 81
segment: [13]
vertex id: label
69: 0
70: 3
71: 4
72: 4
73: 4
74: 4
75: 4
76: 4
77: 4
78: 4
79: 4
80: 4
81: 4
82: 4
83: 4
84: 4
85: 4
86: 4
87: 4
88: 0
0: 5
1: 5
2: 5
3: 5
4: 5
5: 5
6: 5
7: 5
8: 5
9: 5
10: 5
11: 5
12: 5
13: 5
14: 5
15: 5
16: 5
17: 5
18: 5
19: 5
20: 5
21: 5
22: 5
23: 5
24: 5
25: 5
26: 5
27: 5
28: 5
29: 5
30: 5
31: 5
32: 5
33: 5
34: 5
35: 5
36: 5
37: 5
38: 5
39: 5
40: 5
41: 5
42: 5
43: 5
44: 5
45: 5
46: 5
47: 5
48: 5
49: 5
50: 5
51: 5
52: 5
53: 5
54: 5
55: 5
56: 5
57: 5
58: 5
59: 5
60: 5
61: 5
62: 5
63: 5
64: 5
65: 5
66: 5
67: 5
68: 5
edge from: to
69: 0
69: 1
69: 2
69: 3
69: 4
70: 6
71: 10
72: 4
72: 10
72: 12
72: 14
73: 14
73: 15
74: 18
74: 20
75: 22
76: 22
76: 25
76: 26
77: 32
78: 27
78: 32
78: 35
79: 33
79: 38
80: 35
80: 40
80: 42
81: 42
81: 45
82: 38
82: 44
83: 41
83: 47
84: 44
84: 50
84: 53
85: 41
85: 48
85: 54
86: 58
87: 52
87: 60
88: 62
5: 69
6: 69
7: 70
8: 70
9: 70
10: 70
11: 71
12: 71
13: 71
14: 71
15: 72
16: 72
17: 72
18: 73
19: 73
20: 73
21: 73
22: 74
23: 74
24: 74
25: 75
26: 75
27: 76
28: 76
29: 76
30: 76
31: 76
32: 76
33: 76
34: 76
35: 76
36: 77
37: 77
38: 77
39: 78
40: 78
41: 79
42: 79
43: 80
44: 80
45: 80
46: 81
47: 82
48: 82
49: 82
50: 83
51: 83
52: 83
53: 83
54: 84
55: 84
56: 84
57: 84
58: 84
59: 85
60: 85
61: 85
62: 85
63: 86
64: 87
65: 87
66: 88
67: 88
68: 88
segment: [14]
vertex id: label
61: 0
62: 4
63: 4
64: 4
65: 4
66: 4
67: 4
68: 4
69: 4
70: 4
71: 4
72: 4
73: 4
74: 4
75: 4
76: 4
77: 4
78: 4
79: 4
80: 0
0: 5
1: 5
2: 5
3: 5
4: 5
5: 5
6: 5
7: 5
8: 5
9: 5
10: 5
11: 5
12: 5
13: 5
14: 5
15: 5
16: 5
17: 5
18: 5
19: 5
20: 5
21: 5
22: 5
23: 5
24: 5
25: 5
26: 5
27: 5
28: 5
29: 5
30: 5
31: 5
32: 5
33: 5
34: 5
35: 5
36: 5
37: 5
38: 5
39: 5
40: 5
41: 5
42: 5
43: 5
44: 5
45: 5
46: 5
47: 5
48: 5
49: 5
50: 5
51: 5
52: 5
53: 5
54: 5
55: 5
56: 5
57: 5
58: 5
59: 5
60: 5
edge from: to
61: 0
61: 1
62: 1
62: 2
63: 4
64: 6
65: 7
65: 8
65: 9
65: 10
66: 11
66: 13
67: 15
67: 16
68: 17
68: 19
69: 19
69: 21
69: 23
70: 23
71: 26
72: 25
72: 29
73: 31
74: 31
74: 34
75: 37
76: 39
77: 42
78: 41
78: 47
79: 44
79: 50
79: 53
80: 54
2: 61
3: 62
4: 62
5: 63
6: 63
7: 64
8: 64
9: 64
10: 64
11: 65
12: 65
13: 65
14: 66
15: 66
16: 66
17: 66
18: 66
19: 67
20: 67
21: 68
22: 68
23: 68
24: 69
25: 69
26: 70
27: 70
28: 71
29: 71
30: 71
31: 72
32: 72
33: 72
34: 72
35: 73
36: 73
37: 73
38: 74
39: 74
40: 75
41: 75
42: 76
43: 76
44: 76
45: 76
46: 77
47: 77
48: 77
49: 77
50: 78
51: 78
52: 78
53: 78
54: 79
55: 79
56: 79
57: 79
58: 79
59: 80
60: 80
segment: [15]
vertex id: label
57: 0
58: 4
59: 4
60: 4
61: 4
62: 4
63: 4
64: 4
65: 4
66: 4
67: 4
68: 4
69: 4
70: 4
71: 4
72: 4
73: 4
74: 4
75: 4
76: 4
0: 5
1: 5
2: 5
3: 5
4: 5
5: 5
6: 5
7: 5
8: 5
9: 5
10: 5
11: 5
12: 5
13: 5
14: 5
15: 5
16: 5
17: 5
18: 5
19: 5
20: 5
21: 5
22: 5
23: 5
24: 5
25: 5
26: 5
27: 5
28: 5
29: 5
30: 5
31: 5
32: 5
33: 5
34: 5
35: 5
36: 5
37: 5
38: 5
39: 5
40: 5
41: 5
42: 5
43: 5
44: 5
45: 5
46: 5
47: 5
48: 5
49: 5
50: 5
51: 5
52: 5
53: 5
54: 5
55: 5
56: 5
edge from: to
57: 0
57: 1
58: 1
58: 2
59: 3
59: 4
60: 7
60: 9
60: 10
61: 14
62: 13
62: 14
63: 16
64: 20
65: 22
65: 25
65: 26
66: 24
66: 28
67: 22
67: 26
67: 30
68: 29
68: 32
69: 30
69: 33
69: 36
70: 27
70: 32
70: 35
71: 38
72: 36
72: 41
73: 42
74: 47
75: 42
75: 47
76: 45
76: 51
2: 57
3: 58
4: 58
5: 59
6: 59
7: 59
8: 59
9: 59
10: 59
11: 60
12: 60
13: 60
14: 60
15: 61
16: 61
17: 62
18: 62
19: 63
20: 63
21: 63
22: 64
23: 64
24: 64
25: 64
26: 64
27: 65
28: 65
29: 65
30: 66
31: 66
32: 67
33: 67
34: 67
35: 67
36: 68
37: 69
38: 69
39: 70
40: 70
41: 71
42: 71
43: 71
44: 72
45: 72
46: 73
47: 73
48: 73
49: 73
50: 74
51: 74
52: 75
53: 75
54: 75
55: 76
56: 76
segment: [16]
vertex id: label
62: 0
63: 4
64: 4
65: 4
66: 4
67: 4
68: 4
69: 4
70: 4
71: 4
72: 4
73: 4
74: 4
75: 4
76: 4
77: 4
78: 4
79: 4
80: 4
81: 4
0: 5
1: 5
2: 5
3: 5
4: 5
5: 5
6: 5
7: 5
8: 5
9: 5
10: 5
11: 5
12: 5
13: 5
14: 5
15: 5
16: 5
17: 5
18: 5
19: 5
20: 5
21: 5
22: 5
23: 5
24: 5
25: 5
26: 5
27: 5
28: 5
29: 5
30: 5
31: 5
32: 5
33: 5
34: 5
35: 5
36: 5
37: 5
38: 5
39: 5
40: 5
41: 5
42: 5
43: 5
44: 5
45: 5
46: 5
47: 5
48: 5
49: 5
50: 5
51: 5
52: 5
53: 5
54: 5
55: 5
56: 5
57: 5
58: 5
59: 5
60: 5
61: 5
edge from: to
62: 0
63: 3
63: 4
64: 2
64: 4
64: 5
64: 6
65: 8
66: 13
67: 16
68: 19
68: 21
69: 17
69: 20
69: 22
70: 1
70: 26
70: 27
71: 26
71: 30
72: 28
72: 31
73: 31
73: 34
74: 33
74: 38
74: 40
75: 29
75: 34
75: 39
76: 36
76: 41
77: 44
78: 46
79: 43
79: 48
80: 39
80: 52
80: 55
81: 41
81: 48
81: 54
1: 62
2: 62
3: 62
4: 62
5: 63
6: 63
7: 64
8: 64
9: 64
10: 65
11: 65
12: 65
13: 65
14: 66
15: 66
16: 66
17: 66
18: 66
19: 67
20: 67
21: 67
22: 67
23: 67
24: 68
25: 69
26: 69
27: 69
28: 70
29: 70
30: 70
31: 70
32: 71
33: 71
34: 71
35: 72
36: 72
37: 72
38: 73
39: 73
40: 73
41: 74
42: 75
43: 75
44: 76
45: 76
46: 76
47: 77
48: 77
49: 77
50: 77
51: 78
52: 78
53: 79
54: 79
55: 79
56: 80
57: 80
58: 80
59: 81
60: 81
61: 81
segment: [17]
vertex id: label
55: 0
56: 0
57: 0
58: 0
59: 0
60: 4
61: 4
62: 4
63: 4
64: 4
65: 4
66: 0
67: 0
68: 4
69: 4
70: 4
71: 4
72: 0
73: 4
74: 4
0: 5
1: 5
2: 5
3: 5
4: 5
5: 5
6: 5
7: 5
8: 5
9: 5
10: 5
11: 5
12: 5
13: 5
14: 5
15: 5
16: 5
17: 5
18: 5
19: 5
20: 5
21: 5
22: 5
23: 5
24: 5
25: 5
26: 5
27: 5
28: 5
29: 5
30: 5
31: 5
32: 5
33: 5
34: 5
35: 5
36: 5
37: 5
38: 5
39: 5
40: 5
41: 5
42: 5
43: 5
44: 5
45: 5
46: 5
47: 5
48: 5
49: 5
50: 5
51: 5
52: 5
53: 5
54: 5
edge from: to
55: 0
55: 1
55: 2
56: 6
57: 6
57: 7
58: 7
58: 8
58: 9
58: 10
59: 10
59: 12
60: 12
60: 14
61: 13
61: 14
62: 16
62: 18
63: 17
63: 20
63: 22
64: 26
64: 27
65: 24
65: 28
65: 29
66: 16
66: 25
66: 29
66: 30
67: 30
67: 33
68: 32
68: 35
69: 38
70: 35
70: 40
71: 42
72: 46
73: 46
73: 50
74: 43
74: 48
74: 52
3: 55
4: 55
5: 55
6: 55
7: 56
8: 57
9: 57
10: 57
11: 58
12: 58
13: 59
14: 59
15: 60
16: 60
17: 61
18: 61
19: 61
20: 62
21: 62
22: 62
23: 62
24: 62
25: 63
26: 63
27: 63
28: 64
29: 64
30: 65
31: 66
32: 66
33: 66
34: 66
35: 66
36: 66
37: 67
38: 67
39: 68
40: 68
41: 69
42: 69
43: 70
44: 70
45: 71
46: 71
47: 71
48: 71
49: 72
50: 72
51: 73
52: 73
53: 74
54: 74
segment: [18]
vertex id: label
53: 0
54: 4
55: 4
56: 4
57: 4
58: 4
59: 4
60: 4
61: 4
62: 4
63: 4
64: 4
65: 0
66: 0
67: 4
68: 4
69: 4
70: 4
71: 4
72: 4
0: 5
1: 5
2: 5
3: 5
4: 5
5: 5
6: 5
7: 5
8: 5
9: 5
10: 5
11: 5
12: 5
13: 5
14: 5
15: 5
16: 5
17: 5
18: 5
19: 5
20: 5
21: 5
22: 5
23: 5
24: 5
25: 5
26: 5
27: 5
28: 5
29: 5
30: 5
31: 5
32: 5
33: 5
34: 5
35: 5
36: 5
37: 5
38: 5
39: 5
40: 5
41: 5
42: 5
43: 5
44: 5
45: 5
46: 5
47: 5
48: 5
49: 5
50: 5
51: 5
52: 5
edge from: to
53: 0
54: 1
54: 2
55: 0
55: 3
55: 4
56: 5
56: 6
57: 5
57: 8
57: 9
58: 10
59: 10
59: 12
60: 12
60: 14
61: 14
61: 15
62: 16
62: 18
62: 19
63: 20
64: 21
64: 23
65: 27
66: 30
67: 25
67: 29
67: 32
68: 31
68: 34
69: 33
69: 37
69: 38
69: 40
70: 35
70: 40
70: 42
71: 38
71: 44
71: 46
72: 47
1: 53
2: 53
3: 54
4: 54
5: 55
6: 55
7: 56
8: 56
9: 56
10: 57
11: 58
12: 58
13: 59
14: 59
15: 60
16: 60
17: 60
18: 61
19: 61
20: 62
21: 62
22: 63
23: 63
24: 63
25: 63
26: 64
27: 64
28: 64
29: 65
30: 65
31: 65
32: 65
33: 65
34: 66
35: 66
36: 67
37: 67
38: 68
39: 68
40: 68
41: 69
42: 69
43: 70
44: 70
45: 70
46: 70
47: 71
48: 71
49: 71
50: 72
51: 72
52: 72
segment: [19]
vertex id: label
69: 0
70: 0
71: 0
72: 0
73: 0
74: 4
75: 4
76: 4
77: 4
78: 4
79: 4
80: 4
81: 4
82: 4
83: 4
84: 4
85: 4
86: 4
87: 4
88: 4
0: 5
1: 5
2: 5
3: 5
4: 5
5: 5
6: 5
7: 5
8: 5
9: 5
10: 5
11: 5
12: 5
13: 5
14: 5
15: 5
16: 5
17: 5
18: 5
19: 5
20: 5
21: 5
22: 5
23: 5
24: 5
25: 5
26: 5
27: 5
28: 5
29: 5
30: 5
31: 5
32: 5
33: 5
34: 5
35: 5
36: 5
37: 5
38: 5
39: 5
40: 5
41: 5
42: 5
43: 5
44: 5
45: 5
46: 5
47: 5
48: 5
49: 5
50: 5
51: 5
52: 5
53: 5
54: 5
55: 5
56: 5
57: 5
58: 5
59: 5
60: 5
61: 5
62: 5
63: 5
64: 5
65: 5
66: 5
67: 5
68: 5
edge from: to
69: 0
69: 1
70: 2
70: 3
71: 4
71: 5
71: 6
72: 5
72: 6
72: 7
73: 12
73: 14
74: 14
74: 15
75: 16
76: 18
76: 20
77: 21
78: 25
78: 29
78: 30
79: 31
80: 35
80: 40
80: 41
80: 42
81: 36
81: 37
81: 41
81: 42
81: 44
82: 42
83: 46
84: 36
84: 42
84: 47
85: 45
85: 51
86: 54
87: 52
87: 60
88: 63
88: 66
2: 69
3: 69
4: 70
5: 70
6: 70
7: 71
8: 72
9: 72
10: 72
11: 72
12: 72
13: 72
14: 72
15: 73
16: 73
17: 73
18: 74
19: 75
20: 75
21: 75
22: 76
23: 76
24: 77
25: 77
26: 77
27: 77
28: 77
29: 77
30: 77
31: 78
32: 78
33: 78
34: 78
35: 79
36: 79
37: 79
38: 79
39: 79
40: 79
41: 79
42: 79
43: 80
44: 80
45: 81
46: 82
47: 82
48: 82
49: 83
50: 83
51: 83
52: 84
53: 84
54: 84
55: 85
56: 85
57: 85
58: 86
59: 86
60: 86
61: 86
62: 86
63: 86
64: 87
65: 87
66: 87
67: 88
68: 88
segment: [20]
vertex id: label
61: 0
62: 0
63: 0
64: 4
65: 4
66: 0
67: 0
68: 4
69: 4
70: 0
71: 4
72: 4
73: 4
74: 0
75: 0
76: 0
77: 4
78: 4
79: 4
80: 0
0: 5
1: 5
2: 5
3: 5
4: 5
5: 5
6: 5
7: 5
8: 5
9: 5
10: 5
11: 5
12: 5
13: 5
14: 5
15: 5
16: 5
17: 5
18: 5
19: 5
20: 5
21: 5
22: 5
23: 5
24: 5
25: 5
26: 5
27: 5
28: 5
29: 5
30: 5
31: 5
32: 5
33: 5
34: 5
35: 5
36: 5
37: 5
38: 5
39: 5
40: 5
41: 5
42: 5
43: 5
44: 5
45: 5
46: 5
47: 5
48: 5
49: 5
50: 5
51: 5
52: 5
53: 5
54: 5
55: 5
56: 5
57: 5
58: 5
59: 5
60: 5
edge from: to
61: 0
62: 0
62: 1
63: 1
63: 2
63: 3
64: 7
65: 11
66: 12
66: 14
67: 12
67: 14
67: 15
67: 16
67: 17
68: 13
68: 15
68: 16
69: 18
69: 20
70: 16
70: 18
70: 20
71: 20
71: 22
72: 23
73: 16
73: 25
73: 29
73: 30
74: 31
74: 34
75: 32
75: 35
76: 39
77: 38
77: 44
78: 46
79: 48
80: 47
80: 54
1: 61
2: 62
3: 62
4: 63
5: 63
6: 63
7: 63
8: 63
9: 64
10: 64
11: 64
12: 65
13: 65
14: 65
15: 66
16: 66
17: 66
18: 67
19: 68
20: 68
21: 68
22: 69
23: 70
24: 70
25: 71
26: 72
27: 72
28: 72
29: 72
30: 72
31: 73
32: 73
33: 73
34: 73
35: 73
36: 73
37: 73
38: 74
39: 75
40: 75
41: 75
42: 76
43: 76
44: 76
45: 76
46: 76
47: 77
48: 77
49: 78
50: 78
51: 78
52: 78
53: 79
54: 79
55: 79
56: 79
57: 79
58: 80
59: 80
60: 80
segment: [21]
vertex id: label
47: 0
48: 0
49: 0
50: 4
51: 4
52: 4
53: 4
54: 4
55: 4
56: 4
57: 0
58: 0
59: 4
60: 4
61: 4
62: 4
63: 4
64: 4
65: 4
66: 4
0: 5
1: 5
2: 5
3: 5
4: 5
5: 5
6: 5
7: 5
8: 5
9: 5
10: 5
11: 5
12: 5
13: 5
14: 5
15: 5
16: 5
17: 5
18: 5
19: 5
20: 5
21: 5
22: 5
23: 5
24: 5
25: 5
26: 5
27: 5
28: 5
29: 5
30: 5
31: 5
32: 5
33: 5
34: 5
35: 5
36: 5
37: 5
38: 5
39: 5
40: 5
41: 5
42: 5
43: 5
44: 5
45: 5
46: 5
edge from: to
47: 0
48: 0
48: 3
48: 4
49: 4
49: 5
49: 6
50: 6
50: 7
50: 8
51: 10
51: 12
52: 7
52: 11
52: 12
52: 13
53: 14
54: 15
55: 13
55: 15
55: 16
55: 18
56: 17
56: 19
57: 15
57: 18
57: 20
58: 19
58: 21
59: 22
59: 25
60: 24
60: 28
61: 29
62: 23
62: 27
62: 31
63: 32
64: 32
64: 35
65: 29
65: 34
65: 39
65: 41
66: 42
1: 47
2: 47
3: 47
4: 47
5: 48
6: 48
7: 49
8: 49
9: 50
10: 50
11: 50
12: 50
13: 51
14: 52
15: 52
16: 52
17: 53
18: 54
19: 55
20: 55
21: 56
22: 57
23: 57
24: 58
25: 58
26: 58
27: 59
28: 59
29: 59
30: 60
31: 61
32: 61
33: 62
34: 62
35: 62
36: 63
37: 63
38: 63
39: 64
40: 64
41: 64
42: 65
43: 65
44: 65
45: 65
46: 66
segment: [22]
vertex id: label
64: 0
65: 0
66: 4
67: 4
68: 4
69: 4
70: 4
71: 4
72: 4
73: 4
74: 4
75: 4
76: 4
77: 4
78: 4
79: 4
80: 4
81: 4
82: 4
83: 4
0: 5
1: 5
2: 5
3: 5
4: 5
5: 5
6: 5
7: 5
8: 5
9: 5
10: 5
11: 5
12: 5
13: 5
14: 5
15: 5
16: 5
17: 5
18: 5
19: 5
20: 5
21: 5
22: 5
23: 5
24: 5
25: 5
26: 5
27: 5
28: 5
29: 5
30: 5
31: 5
32: 5
33: 5
34: 5
35: 5
36: 5
37: 5
38: 5
39: 5
40: 5
41: 5
42: 5
43: 5
44: 5
45: 5
46: 5
47: 5
48: 5
49: 5
50: 5
51: 5
52: 5
53: 5
54: 5
55: 5
56: 5
57: 5
58: 5
59: 5
60: 5
61: 5
62: 5
63: 5
edge from: to
64: 0
64: 1
64: 2
65: 5
66: 6
67: 6
67: 8
67: 9
67: 11
68: 11
68: 13
69: 13
69: 14
70: 19
71: 19
71: 21
71: 23
72: 22
72: 25
73: 20
73: 23
73: 27
74: 26
74: 30
75: 27
75: 30
75: 33
76: 30
76: 33
77: 42
77: 44
78: 39
78: 45
78: 47
79: 40
79: 46
80: 44
80: 50
80: 53
81: 39
81: 52
81: 55
82: 48
82: 54
83: 57
83: 61
3: 64
4: 64
5: 64
6: 65
7: 66
8: 66
9: 66
10: 66
11: 66
12: 67
13: 67
14: 68
15: 68
16: 68
17: 69
18: 69
19: 69
20: 69
21: 70
22: 70
23: 70
24: 71
25: 71
26: 71
27: 72
28: 72
29: 73
30: 73
31: 73
32: 74
33: 74
34: 75
35: 75
36: 75
37: 76
38: 76
39: 76
40: 76
41: 76
42: 76
43: 76
44: 76
45: 77
46: 77
47: 77
48: 78
49: 79
50: 79
51: 79
52: 79
53: 79
54: 80
55: 80
56: 81
57: 81
58: 81
59: 82
60: 82
61: 82
62: 83
63: 83
segment: [23]
vertex id: label
62: 0
63: 0
64: 0
65: 0
66: 0
67: 0
68: 0
69: 3
70: 2
71: 3
72: 2
73: 3
74: 4
75: 4
76: 4
77: 4
78: 4
79: 4
80: 4
81: 4
0: 5
1: 5
2: 5
3: 5
4: 5
5: 5
6: 5
7: 5
8: 5
9: 5
10: 5
11: 5
12: 5
13: 5
14: 5
15: 5
16: 5
17: 5
18: 5
19: 5
20: 5
21: 5
22: 5
23: 5
24: 5
25: 5
26: 5
27: 5
28: 5
29: 5
30: 5
31: 5
32: 5
33: 5
34: 5
35: 5
36: 5
37: 5
38: 5
39: 5
40: 5
41: 5
42: 5
43: 5
44: 5
45: 5
46: 5
47: 5
48: 5
49: 5
50: 5
51: 5
52: 5
53: 5
54: 5
55: 5
56: 5
57: 5
58: 5
59: 5
60: 5
61: 5
edge from: to
62: 0
62: 1
62: 2
63: 4
64: 10
65: 10
65: 12
66: 13
67: 15
68: 17
68: 19
68: 20
69: 22
70: 25
70: 29
71: 31
72: 31
73: 35
74: 33
74: 38
74: 40
75: 35
75: 40
76: 42
77: 40
77: 46
78: 41
78: 47
78: 49
79: 47
80: 41
80: 48
80: 54
81: 50
81: 56
3: 62
4: 62
5: 63
6: 63
7: 63
8: 63
9: 63
10: 63
11: 64
12: 64
13: 65
14: 66
15: 66
16: 66
17: 66
18: 67
19: 67
20: 67
21: 68
22: 68
23: 68
24: 68
25: 69
26: 69
27: 69
28: 69
29: 69
30: 69
31: 70
32: 70
33: 71
34: 71
35: 72
36: 72
37: 72
38: 72
39: 73
40: 73
41: 74
42: 74
43: 75
44: 75
45: 75
46: 76
47: 76
48: 76
49: 77
50: 78
51: 78
52: 79
53: 79
54: 79
55: 79
56: 79
57: 79
58: 79
59: 80
60: 80
61: 81
segment: [24]
vertex id: label
61: 0
62: 0
63: 0
64: 4
65: 4
66: 4
67: 4
68: 4
69: 4
70: 4
71: 4
72: 4
73: 4
74: 4
75: 4
76: 4
77: 4
78: 4
79: 4
80: 4
0: 5
1: 5
2: 5
3: 5
4: 5
5: 5
6: 5
7: 5
8: 5
9: 5
10: 5
11: 5
12: 5
13: 5
14: 5
15: 5
16: 5
17: 5
18: 5
19: 5
20: 5
21: 5
22: 5
23: 5
24: 5
25: 5
26: 5
27: 5
28: 5
29: 5
30: 5
31: 5
32: 5
33: 5
34: 5
35: 5
36: 5
37: 5
38: 5
39: 5
40: 5
41: 5
42: 5
43: 5
44: 5
45: 5
46: 5
47: 5
48: 5
49: 5
50: 5
51: 5
52: 5
53: 5
54: 5
55: 5
56: 5
57: 5
58: 5
59: 5
60: 5
edge from: to
61: 0
61: 1
62: 2
63: 3
63: 4
64: 6
64: 7
65: 9
65: 11
66: 11
66: 13
67: 12
67: 14
67: 15
68: 20
69: 20
70: 22
70: 25
71: 28
72: 27
72: 31
73: 24
73: 28
73: 31
73: 34
74: 29
74: 34
74: 39
75: 41
76: 32
76: 42
76: 45
77: 41
77: 47
78: 46
79: 50
80: 54
2: 61
3: 62
4: 62
5: 63
6: 63
7: 63
8: 64
9: 64
10: 64
11: 64
12: 65
13: 65
14: 66
15: 66
16: 66
17: 66
18: 67
19: 67
20: 67
21: 67
22: 68
23: 69
24: 69
25: 69
26: 69
27: 70
28: 70
29: 70
30: 71
31: 71
32: 71
33: 72
34: 72
35: 73
36: 73
37: 73
38: 73
39: 73
40: 73
41: 73
42: 74
43: 74
44: 75
45: 75
46: 76
47: 76
48: 76
49: 76
50: 77
51: 78
52: 78
53: 78
54: 79
55: 79
56: 79
57: 79
58: 80
59: 80
60: 80
segment: [25]
vertex id: label
63: 0
64: 0
65: 4
66: 4
67: 4
68: 4
69: 4
70: 4
71: 4
72: 4
73: 4
74: 4
75: 4
76: 4
77: 4
78: 4
79: 4
80: 4
81: 4
82: 4
0: 5
1: 5
2: 5
3: 5
4: 5
5: 5
6: 5
7: 5
8: 5
9: 5
10: 5
11: 5
12: 5
13: 5
14: 5
15: 5
16: 5
17: 5
18: 5
19: 5
20: 5
21: 5
22: 5
23: 5
24: 5
25: 5
26: 5
27: 5
28: 5
29: 5
30: 5
31: 5
32: 5
33: 5
34: 5
35: 5
36: 5
37: 5
38: 5
39: 5
40: 5
41: 5
42: 5
43: 5
44: 5
45: 5
46: 5
47: 5
48: 5
49: 5
50: 5
51: 5
52: 5
53: 5
54: 5
55: 5
56: 5
57: 5
58: 5
59: 5
60: 5
61: 5
62: 5
edge from: to
63: 0
63: 1
63: 2
64: 6
65: 7
66: 7
66: 11
66: 12
66: 13
67: 13
67: 14
68: 17
68: 19
68: 20
69: 19
69: 21
70: 22
70: 25
71: 26
72: 27
73: 26
73: 30
74: 27
74: 31
75: 32
76: 27
76: 32
76: 35
77: 38
78: 38
78: 44
79: 46
80: 51
81: 52
82: 56
3: 63
4: 63
5: 63
6: 63
7: 64
8: 64
9: 65
10: 65
11: 65
12: 65
13: 65
14: 66
15: 66
16: 66
17: 67
18: 67
19: 67
20: 67
21: 68
22: 68
23: 68
24: 69
25: 69
26: 69
27: 70
28: 71
29: 72
30: 72
31: 72
32: 73
33: 74
34: 74
35: 74
36: 75
37: 75
38: 75
39: 76
40: 76
41: 77
42: 77
43: 77
44: 77
45: 77
46: 77
47: 78
48: 78
49: 79
50: 79
51: 79
52: 79
53: 79
54: 79
55: 80
56: 81
57: 81
58: 81
59: 81
60: 81
61: 82
62: 82
segment: [26]
vertex id: label
76: 0
77: 0
78: 4
79: 4
80: 4
81: 4
82: 4
83: 4
84: 4
85: 4
86: 4
87: 4
88: 4
89: 4
90: 4
91: 4
92: 4
93: 4
94: 4
95: 4
0: 5
1: 5
2: 5
3: 5
4: 5
5: 5
6: 5
7: 5
8: 5
9: 5
10: 5
11: 5
12: 5
13: 5
14: 5
15: 5
16: 5
17: 5
18: 5
19: 5
20: 5
21: 5
22: 5
23: 5
24: 5
25: 5
26: 5
27: 5
28: 5
29: 5
30: 5
31: 5
32: 5
33: 5
34: 5
35: 5
36: 5
37: 5
38: 5
39: 5
40: 5
41: 5
42: 5
43: 5
44: 5
45: 5
46: 5
47: 5
48: 5
49: 5
50: 5
51: 5
52: 5
53: 5
54: 5
55: 5
56: 5
57: 5
58: 5
59: 5
60: 5
61: 5
62: 5
63: 5
64: 5
65: 5
66: 5
67: 5
68: 5
69: 5
70: 5
71: 5
72: 5
73: 5
74: 5
75: 5
edge from: to
76: 0
76: 1
77: 0
77: 3
77: 4
78: 12
79: 13
79: 15
80: 13
80: 14
80: 16
81: 16
81: 18
82: 6
82: 15
82: 18
82: 20
82: 21
83: 22
84: 15
84: 20
84: 23
84: 27
84: 28
85: 31
86: 32
86: 35
87: 34
87: 39
88: 42
89: 45
90: 46
91: 45
91: 51
92: 48
92: 54
93: 49
93: 55
93: 59
94: 54
94: 62
95: 50
95: 59
95: 67
95: 71
2: 76
3: 76
4: 76
5: 77
6: 77
7: 77
8: 77
9: 77
10: 77
11: 77
12: 77
13: 78
14: 78
15: 78
16: 79
17: 80
18: 80
19: 80
20: 81
21: 81
22: 82
23: 82
24: 82
25: 83
26: 83
27: 83
28: 83
29: 84
30: 84
31: 84
32: 84
33: 85
34: 85
35: 85
36: 85
37: 85
38: 85
39: 86
40: 86
41: 86
42: 87
43: 87
44: 87
45: 87
46: 88
47: 88
48: 89
49: 89
50: 89
51: 90
52: 90
53: 90
54: 90
55: 91
56: 91
57: 91
58: 91
59: 92
60: 93
61: 93
62: 93
63: 93
64: 93
65: 93
66: 94
67: 94
68: 94
69: 94
70: 94
71: 94
72: 95
73: 95
74: 95
75: 95
segment: [27]
vertex id: label
61: 0
62: 3
63: 2
64: 3
65: 2
66: 3
67: 2
68: 3
69: 2
70: 3
71: 2
72: 3
73: 3
74: 2
75: 3
76: 2
77: 3
78: 2
79: 3
80: 2
0: 5
1: 5
2: 5
3: 5
4: 5
5: 5
6: 5
7: 5
8: 5
9: 5
10: 5
11: 5
12: 5
13: 5
14: 5
15: 5
16: 5
17: 5
18: 5
19: 5
20: 5
21: 5
22: 5
23: 5
24: 5
25: 5
26: 5
27: 5
28: 5
29: 5
30: 5
31: 5
32: 5
33: 5
34: 5
35: 5
36: 5
37: 5
38: 5
39: 5
40: 5
41: 5
42: 5
43: 5
44: 5
45: 5
46: 5
47: 5
48: 5
49: 5
50: 5
51: 5
52: 5
53: 5
54: 5
55: 5
56: 5
57: 5
58: 5
59: 5
60: 5
edge from: to
61: 0
62: 0
62: 1
62: 2
62: 3
63: 6
64: 5
64: 6
64: 7
65: 12
66: 11
66: 13
66: 15
67: 18
68: 20
69: 26
70: 28
71: 28
71: 31
72: 33
73: 34
74: 33
74: 38
74: 40
75: 35
75: 40
75: 42
76: 45
77: 46
77: 49
77: 50
78: 47
79: 54
80: 49
80: 55
1: 61
2: 61
4: 62
5: 62
6: 62
7: 63
8: 64
9: 64
10: 64
11: 64
12: 64
13: 65
14: 65
15: 65
16: 66
17: 66
18: 66
19: 66
20: 67
21: 67
22: 67
23: 68
24: 68
25: 68
26: 68
27: 68
28: 69
29: 69
30: 70
31: 70
32: 70
33: 70
34: 70
35: 71
36: 71
37: 72
38: 73
39: 73
40: 73
41: 74
42: 74
43: 75
44: 75
45: 75
46: 75
47: 75
48: 76
49: 76
50: 76
51: 77
52: 78
53: 78
54: 78
55: 78
56: 78
57: 78
58: 79
59: 79
60: 80
segment: [28]
vertex id: label
64: 0
65: 0
66: 0
67: 0
68: 0
69: 0
70: 0
71: 0
72: 0
73: 4
74: 4
75: 4
76: 4
77: 4
78: 4
79: 4
80: 4
81: 4
82: 4
83: 0
0: 5
1: 5
2: 5
3: 5
4: 5
5: 5
6: 5
7: 5
8: 5
9: 5
10: 5
11: 5
12: 5
13: 5
14: 5
15: 5
16: 5
17: 5
18: 5
19: 5
20: 5
21: 5
22: 5
23: 5
24: 5
25: 5
26: 5
27: 5
28: 5
29: 5
30: 5
31: 5
32: 5
33: 5
34: 5
35: 5
36: 5
37: 5
38: 5
39: 5
40: 5
41: 5
42: 5
43: 5
44: 5
45: 5
46: 5
47: 5
48: 5
49: 5
50: 5
51: 5
52: 5
53: 5
54: 5
55: 5
56: 5
57: 5
58: 5
59: 5
60: 5
61: 5
62: 5
63: 5
edge from: to
64: 0
65: 4
66: 6
66: 7
67: 11
68: 10
68: 12
69: 13
70: 13
70: 15
70: 16
71: 21
72: 22
73: 18
73: 21
73: 23
74: 26
74: 27
75: 22
75: 26
75: 30
75: 31
76: 29
76: 32
77: 33
77: 38
78: 42
79: 46
79: 50
80: 43
80: 48
81: 52
82: 47
82: 54
83: 57
1: 64
2: 64
3: 64
4: 64
5: 65
6: 65
7: 65
8: 66
9: 66
10: 66
11: 66
12: 67
13: 68
14: 69
15: 69
16: 69
17: 69
18: 69
19: 70
20: 70
21: 70
22: 70
23: 70
24: 71
25: 72
26: 73
27: 73
28: 74
29: 74
30: 74
31: 74
32: 75
33: 75
34: 75
35: 75
36: 76
37: 76
38: 76
39: 76
40: 76
41: 77
42: 77
43: 77
44: 77
45: 78
46: 78
47: 78
48: 78
49: 78
50: 78
51: 79
52: 79
53: 80
54: 80
55: 80
56: 81
57: 81
58: 82
59: 82
60: 82
61: 82
62: 83
63: 83
segment: [29]
vertex id: label
65: 0
66: 4
67: 4
68: 4
69: 4
70: 4
71: 4
72: 4
73: 4
74: 4
75: 4
76: 4
77: 4
78: 4
79: 4
80: 4
81: 4
82: 4
83: 4
84: 4
0: 5
1: 5
2: 5
3: 5
4: 5
5: 5
6: 5
7: 5
8: 5
9: 5
10: 5
11: 5
12: 5
13: 5
14: 5
15: 5
16: 5
17: 5
18: 5
19: 5
20: 5
21: 5
22: 5
23: 5
24: 5
25: 5
26: 5
27: 5
28: 5
29: 5
30: 5
31: 5
32: 5
33: 5
34: 5
35: 5
36: 5
37: 5
38: 5
39: 5
40: 5
41: 5
42: 5
43: 5
44: 5
45: 5
46: 5
47: 5
48: 5
49: 5
50: 5
51: 5
52: 5
53: 5
54: 5
55: 5
56: 5
57: 5
58: 5
59: 5
60: 5
61: 5
62: 5
63: 5
64: 5
edge from: to
65: 0
66: 3
66: 4
66: 5
67: 7
68: 8
68: 9
68: 11
69: 12
69: 14
70: 13
70: 15
70: 16
71: 13
71: 17
71: 20
71: 22
72: 26
73: 24
73: 28
74: 27
74: 31
75: 30
76: 31
76: 34
76: 37
77: 32
77: 35
78: 37
78: 39
79: 41
80: 42
80: 44
81: 40
81: 46
82: 47
83: 45
83: 51
84: 54
1: 65
2: 65
3: 65
4: 65
5: 65
6: 66
7: 66
8: 67
9: 67
10: 67
11: 67
12: 68
13: 68
14: 68
15: 69
16: 69
17: 69
18: 69
19: 70
20: 70
21: 70
22: 70
23: 70
24: 70
25: 71
26: 71
27: 71
28: 72
29: 72
30: 73
31: 73
32: 73
33: 74
34: 75
35: 75
36: 75
37: 75
38: 76
39: 77
40: 78
41: 78
42: 78
43: 78
44: 79
45: 80
46: 80
47: 80
48: 80
49: 81
50: 81
51: 81
52: 82
53: 82
54: 82
55: 83
56: 83
57: 83
58: 84
59: 84
60: 84
61: 84
62: 84
63: 84
64: 84
