segment: [0]
vertex id: label
57: 0
58: 3
59: 0
60: 3
61: 0
62: 3
63: 0
64: 3
65: 0
66: 3
67: 0
68: 2
69: 3
70: 0
71: 3
72: 3
73: 0
74: 3
75: 0
76: 4
0: 5
1: 5
2: 5
3: 5
4: 5
5: 5
6: 5
7: 5
8: 5
9: 5
10: 5
11: 5
12: 5
13: 5
14: 5
15: 5
16: 5
17: 5
18: 5
19: 5
20: 5
21: 5
22: 5
23: 5
24: 5
25: 5
26: 5
27: 5
28: 5
29: 5
30: 5
31: 5
32: 5
33: 5
34: 5
35: 5
36: 5
37: 5
38: 5
39: 5
40: 5
41: 5
42: 5
43: 5
44: 5
45: 5
46: 5
47: 5
48: 5
49: 5
50: 5
51: 5
52: 5
53: 5
54: 5
55: 5
56: 5
edge from: to
57: 0
58: 3
59: 7
60: 9
61: 2
61: 10
62: 3
62: 10
62: 12
62: 14
63: 4
63: 15
63: 17
64: 20
65: 22
65: 23
66: 25
67: 19
67: 25
67: 27
67: 28
68: 6
68: 28
68: 29
69: 31
69: 33
70: 35
71: 9
71: 37
71: 38
72: 42
72: 45
73: 45
73: 48
74: 49
75: 48
75: 51
75: 52
76: 10
76: 46
76: 50
76: 52
76: 53
1: 57
2: 57
3: 57
4: 58
5: 58
6: 58
7: 58
8: 59
9: 59
10: 60
11: 61
12: 61
13: 61
14: 61
15: 62
16: 62
17: 62
18: 63
19: 63
20: 63
21: 64
22: 64
23: 64
24: 65
25: 65
26: 66
27: 66
28: 66
29: 67
30: 68
31: 68
32: 68
33: 68
34: 68
35: 69
36: 69
37: 70
38: 70
39: 70
40: 71
41: 71
42: 71
43: 71
44: 71
45: 71
46: 71
47: 72
48: 72
49: 72
50: 73
51: 74
52: 74
53: 75
54: 76
55: 76
56: 76
segment: [1]
vertex id: label
60: 0
61: 3
62: 0
63: 2
64: 2
65: 0
66: 3
67: 0
68: 3
69: 0
70: 4
71: 0
72: 3
73: 0
74: 4
75: 1
76: 4
77: 0
78: 4
79: 2
0: 5
1: 5
2: 5
3: 5
4: 5
5: 5
6: 5
7: 5
8: 5
9: 5
10: 5
11: 5
12: 5
13: 5
14: 5
15: 5
16: 5
17: 5
18: 5
19: 5
20: 5
21: 5
22: 5
23: 5
24: 5
25: 5
26: 5
27: 5
28: 5
29: 5
30: 5
31: 5
32: 5
33: 5
34: 5
35: 5
36: 5
37: 5
38: 5
39: 5
40: 5
41: 5
42: 5
43: 5
44: 5
45: 5
46: 5
47: 5
48: 5
49: 5
50: 5
51: 5
52: 5
53: 5
54: 5
55: 5
56: 5
57: 5
58: 5
59: 5
edge from: to
60: 0
61: 1
61: 3
62: 1
63: 1
63: 2
63: 4
63: 5
63: 6
64: 9
65: 16
65: 17
65: 18
66: 4
66: 7
66: 20
66: 21
67: 23
68: 24
68: 25
69: 19
69: 27
69: 28
70: 28
70: 29
71: 31
71: 32
71: 34
71: 35
72: 12
72: 34
72: 36
73: 40
74: 42
74: 45
75: 11
76: 49
77: 47
77: 50
78: 53
78: 55
79: 55
79: 57
1: 60
2: 60
3: 60
4: 61
5: 62
6: 62
7: 63
8: 63
9: 63
10: 64
11: 64
12: 64
13: 64
14: 64
15: 64
16: 64
17: 64
18: 64
19: 65
20: 65
21: 65
22: 66
23: 66
24: 67
25: 67
26: 68
27: 68
28: 68
29: 69
30: 69
31: 70
32: 70
33: 70
34: 70
35: 70
36: 71
37: 71
38: 72
39: 72
40: 72
41: 72
42: 73
43: 73
44: 73
45: 73
46: 73
47: 74
48: 74
49: 75
50: 75
51: 76
52: 77
53: 77
54: 77
55: 77
56: 77
57: 78
58: 78
59: 79
segment: [2]
vertex id: label
53: 0
54: 4
55: 4
56: 4
57: 4
58: 0
59: 4
60: 2
61: 3
62: 0
63: 3
64: 0
65: 4
66: 2
67: 0
68: 2
69: 2
70: 3
71: 0
72: 3
0: 5
1: 5
2: 5
3: 5
4: 5
5: 5
6: 5
7: 5
8: 5
9: 5
10: 5
11: 5
12: 5
13: 5
14: 5
15: 5
16: 5
17: 5
18: 5
19: 5
20: 5
21: 5
22: 5
23: 5
24: 5
25: 5
26: 5
27: 5
28: 5
29: 5
30: 5
31: 5
32: 5
33: 5
34: 5
35: 5
36: 5
37: 5
38: 5
39: 5
40: 5
41: 5
42: 5
43: 5
44: 5
45: 5
46: 5
47: 5
48: 5
49: 5
50: 5
51: 5
52: 5
edge from: to
53: 0
54: 0
54: 1
55: 5
56: 2
57: 10
58: 4
58: 12
59: 13
59: 15
60: 19
61: 22
61: 23
62: 25
63: 4
63: 27
64: 6
64: 28
64: 29
65: 30
65: 31
66: 34
66: 35
67: 37
68: 39
68: 40
69: 41
69: 44
69: 45
70: 46
71: 45
71: 48
71: 49
72: 46
72: 49
72: 50
1: 53
2: 54
3: 54
4: 54
5: 54
6: 55
7: 55
8: 55
9: 56
10: 56
11: 57
12: 57
13: 58
14: 58
15: 58
16: 59
17: 59
18: 59
19: 59
20: 60
21: 60
22: 60
23: 60
24: 61
25: 61
26: 62
27: 62
28: 63
29: 63
30: 64
31: 64
32: 65
33: 65
34: 65
35: 65
36: 66
37: 66
38: 66
39: 67
40: 67
41: 67
42: 68
43: 68
44: 68
45: 68
46: 69
47: 69
48: 70
49: 70
50: 71
51: 72
52: 72
segment: [3]
vertex id: label
57: 0
58: 4
59: 4
60: 0
61: 4
62: 2
63: 3
64: 0
65: 3
66: 0
67: 3
68: 0
69: 4
70: 2
71: 3
72: 0
73: 3
74: 0
75: 3
76: 0
0: 5
1: 5
2: 5
3: 5
4: 5
5: 5
6: 5
7: 5
8: 5
9: 5
10: 5
11: 5
12: 5
13: 5
14: 5
15: 5
16: 5
17: 5
18: 5
19: 5
20: 5
21: 5
22: 5
23: 5
24: 5
25: 5
26: 5
27: 5
28: 5
29: 5
30: 5
31: 5
32: 5
33: 5
34: 5
35: 5
36: 5
37: 5
38: 5
39: 5
40: 5
41: 5
42: 5
43: 5
44: 5
45: 5
46: 5
47: 5
48: 5
49: 5
50: 5
51: 5
52: 5
53: 5
54: 5
55: 5
56: 5
edge from: to
57: 0
58: 3
59: 6
60: 2
60: 8
61: 10
62: 3
63: 16
64: 4
65: 20
66: 22
66: 23
67: 23
67: 24
67: 25
68: 6
68: 25
69: 6
69: 25
69: 28
69: 29
70: 30
70: 32
71: 31
71: 32
71: 34
71: 35
72: 35
72: 37
73: 14
73: 29
73: 41
73: 42
74: 39
74: 41
74: 44
74: 45
75: 46
75: 49
76: 51
1: 57
2: 57
3: 57
4: 58
5: 58
6: 58
7: 59
8: 59
9: 60
10: 60
11: 61
12: 61
13: 61
14: 62
15: 62
16: 62
17: 63
18: 64
19: 64
20: 64
21: 65
22: 65
23: 65
24: 66
25: 66
26: 67
27: 68
28: 68
29: 68
30: 69
31: 69
32: 69
33: 69
34: 70
35: 70
36: 71
37: 71
38: 71
39: 72
40: 72
41: 72
42: 72
43: 72
44: 73
45: 73
46: 74
47: 74
48: 74
49: 74
50: 74
51: 75
52: 75
53: 76
54: 76
55: 76
56: 76
segment: [4]
vertex id: label
58: 0
59: 4
60: 0
61: 3
62: 0
63: 3
64: 0
65: 3
66: 0
67: 4
68: 2
69: 3
70: 0
71: 3
72: 0
73: 3
74: 0
75: 3
76: 4
77: 2
0: 5
1: 5
2: 5
3: 5
4: 5
5: 5
6: 5
7: 5
8: 5
9: 5
10: 5
11: 5
12: 5
13: 5
14: 5
15: 5
16: 5
17: 5
18: 5
19: 5
20: 5
21: 5
22: 5
23: 5
24: 5
25: 5
26: 5
27: 5
28: 5
29: 5
30: 5
31: 5
32: 5
33: 5
34: 5
35: 5
36: 5
37: 5
38: 5
39: 5
40: 5
41: 5
42: 5
43: 5
44: 5
45: 5
46: 5
47: 5
48: 5
49: 5
50: 5
51: 5
52: 5
53: 5
54: 5
55: 5
56: 5
57: 5
edge from: to
58: 0
59: 5
60: 2
60: 8
61: 11
62: 3
62: 10
62: 12
62: 14
63: 1
63: 4
63: 12
63: 15
63: 17
64: 20
65: 15
65: 19
65: 21
65: 22
66: 4
66: 24
66: 26
66: 27
67: 29
68: 32
69: 35
70: 12
70: 34
70: 36
71: 9
72: 38
72: 39
73: 42
73: 43
74: 39
74: 41
74: 44
74: 45
75: 10
75: 45
75: 48
75: 49
76: 50
76: 52
77: 8
77: 53
1: 58
2: 58
3: 58
4: 58
5: 58
6: 59
7: 59
8: 59
9: 60
10: 60
11: 60
12: 61
13: 61
14: 61
15: 62
16: 62
17: 62
18: 63
19: 63
20: 63
21: 64
22: 64
23: 65
24: 65
25: 65
26: 65
27: 65
28: 66
29: 66
30: 67
31: 67
32: 67
33: 67
34: 68
35: 68
36: 69
37: 69
38: 70
39: 70
40: 71
41: 72
42: 72
43: 72
44: 72
45: 73
46: 74
47: 74
48: 74
49: 74
50: 75
51: 75
52: 75
53: 75
54: 76
55: 77
56: 77
57: 77
segment: [5]
vertex id: label
65: 0
66: 3
67: 0
68: 4
69: 2
70: 3
71: 0
72: 3
73: 4
74: 4
75: 0
76: 4
77: 4
78: 2
79: 0
80: 2
81: 3
82: 0
83: 2
84: 3
0: 5
1: 5
2: 5
3: 5
4: 5
5: 5
6: 5
7: 5
8: 5
9: 5
10: 5
11: 5
12: 5
13: 5
14: 5
15: 5
16: 5
17: 5
18: 5
19: 5
20: 5
21: 5
22: 5
23: 5
24: 5
25: 5
26: 5
27: 5
28: 5
29: 5
30: 5
31: 5
32: 5
33: 5
34: 5
35: 5
36: 5
37: 5
38: 5
39: 5
40: 5
41: 5
42: 5
43: 5
44: 5
45: 5
46: 5
47: 5
48: 5
49: 5
50: 5
51: 5
52: 5
53: 5
54: 5
55: 5
56: 5
57: 5
58: 5
59: 5
60: 5
61: 5
62: 5
63: 5
64: 5
edge from: to
65: 0
66: 1
66: 4
67: 2
67: 8
68: 10
69: 2
69: 3
70: 14
70: 16
71: 4
71: 13
71: 17
71: 18
71: 19
72: 20
72: 21
73: 4
73: 27
74: 28
75: 28
75: 29
76: 30
76: 31
77: 33
78: 12
78: 34
78: 36
79: 40
79: 41
80: 41
80: 44
81: 7
81: 46
82: 46
82: 49
82: 50
83: 50
83: 52
84: 57
1: 65
2: 65
3: 65
4: 65
5: 66
6: 66
7: 66
8: 66
9: 67
10: 67
11: 68
12: 68
13: 68
14: 69
15: 69
16: 69
17: 70
18: 70
19: 70
20: 71
21: 71
22: 72
23: 72
24: 72
25: 72
26: 72
27: 72
28: 73
29: 74
30: 75
31: 75
32: 76
33: 76
34: 76
35: 77
36: 77
37: 77
38: 78
39: 78
40: 78
41: 78
42: 78
43: 79
44: 79
45: 79
46: 80
47: 80
48: 81
49: 81
50: 81
51: 82
52: 82
53: 82
54: 83
55: 83
56: 83
57: 83
58: 83
59: 84
60: 84
61: 84
62: 84
63: 84
64: 84
segment: [6]
vertex id: label
53: 0
54: 4
55: 2
56: 3
57: 0
58: 4
59: 4
60: 4
61: 2
62: 3
63: 0
64: 3
65: 0
66: 4
67: 0
68: 2
69: 3
70: 4
71: 2
72: 3
0: 5
1: 5
2: 5
3: 5
4: 5
5: 5
6: 5
7: 5
8: 5
9: 5
10: 5
11: 5
12: 5
13: 5
14: 5
15: 5
16: 5
17: 5
18: 5
19: 5
20: 5
21: 5
22: 5
23: 5
24: 5
25: 5
26: 5
27: 5
28: 5
29: 5
30: 5
31: 5
32: 5
33: 5
34: 5
35: 5
36: 5
37: 5
38: 5
39: 5
40: 5
41: 5
42: 5
43: 5
44: 5
45: 5
46: 5
47: 5
48: 5
49: 5
50: 5
51: 5
52: 5
edge from: to
53: 0
53: 1
53: 2
54: 1
54: 6
55: 9
56: 2
56: 10
57: 11
58: 3
59: 18
59: 19
60: 21
61: 6
61: 25
61: 26
62: 28
63: 31
64: 31
64: 32
65: 35
66: 33
66: 35
66: 37
66: 38
67: 9
67: 38
68: 43
69: 39
69: 41
69: 44
69: 45
70: 45
71: 7
71: 41
71: 43
71: 46
71: 47
72: 45
72: 48
72: 49
3: 53
4: 53
5: 53
6: 53
7: 54
8: 54
9: 54
10: 55
11: 56
12: 57
13: 57
14: 58
15: 58
16: 58
17: 58
18: 58
19: 58
20: 59
21: 59
22: 60
23: 60
24: 60
25: 60
26: 60
27: 61
28: 61
29: 62
30: 62
31: 62
32: 63
33: 64
34: 64
35: 64
36: 65
37: 65
38: 65
39: 66
40: 67
41: 67
42: 67
43: 67
44: 67
45: 68
46: 69
47: 70
48: 71
49: 71
50: 72
51: 72
52: 72
segment: [7]
vertex id: label
61: 0
62: 3
63: 0
64: 3
65: 0
66: 3
67: 0
68: 1
69: 4
70: 4
71: 0
72: 2
73: 2
74: 3
75: 0
76: 3
77: 0
78: 3
79: 0
80: 3
0: 5
1: 5
2: 5
3: 5
4: 5
5: 5
6: 5
7: 5
8: 5
9: 5
10: 5
11: 5
12: 5
13: 5
14: 5
15: 5
16: 5
17: 5
18: 5
19: 5
20: 5
21: 5
22: 5
23: 5
24: 5
25: 5
26: 5
27: 5
28: 5
29: 5
30: 5
31: 5
32: 5
33: 5
34: 5
35: 5
36: 5
37: 5
38: 5
39: 5
40: 5
41: 5
42: 5
43: 5
44: 5
45: 5
46: 5
47: 5
48: 5
49: 5
50: 5
51: 5
52: 5
53: 5
54: 5
55: 5
56: 5
57: 5
58: 5
59: 5
60: 5
edge from: to
61: 0
61: 1
61: 2
61: 3
62: 1
62: 2
62: 6
63: 2
63: 8
64: 10
65: 10
65: 11
66: 15
67: 18
68: 20
69: 23
69: 24
70: 6
70: 25
71: 29
72: 32
73: 35
74: 34
74: 36
75: 38
75: 39
76: 14
76: 41
76: 42
77: 7
77: 46
78: 11
78: 44
78: 47
79: 45
79: 48
80: 52
80: 54
4: 61
5: 61
6: 61
7: 62
8: 62
9: 63
10: 63
11: 64
12: 65
13: 65
14: 65
15: 65
16: 66
17: 66
18: 66
19: 67
20: 67
21: 68
22: 68
23: 68
24: 68
25: 69
26: 69
27: 70
28: 70
29: 70
30: 71
31: 71
32: 71
33: 71
34: 72
35: 72
36: 72
37: 73
38: 74
39: 74
40: 74
41: 75
42: 75
43: 75
44: 76
45: 76
46: 76
47: 76
48: 77
49: 78
50: 79
51: 79
52: 79
53: 79
54: 79
55: 79
56: 80
57: 80
58: 80
59: 80
60: 80
segment: [8]
vertex id: label
61: 0
62: 4
63: 4
64: 4
65: 2
66: 2
67: 3
68: 0
69: 4
70: 4
71: 0
72: 3
73: 0
74: 2
75: 2
76: 2
77: 2
78: 3
79: 0
80: 3
0: 5
1: 5
2: 5
3: 5
4: 5
5: 5
6: 5
7: 5
8: 5
9: 5
10: 5
11: 5
12: 5
13: 5
14: 5
15: 5
16: 5
17: 5
18: 5
19: 5
20: 5
21: 5
22: 5
23: 5
24: 5
25: 5
26: 5
27: 5
28: 5
29: 5
30: 5
31: 5
32: 5
33: 5
34: 5
35: 5
36: 5
37: 5
38: 5
39: 5
40: 5
41: 5
42: 5
43: 5
44: 5
45: 5
46: 5
47: 5
48: 5
49: 5
50: 5
51: 5
52: 5
53: 5
54: 5
55: 5
56: 5
57: 5
58: 5
59: 5
60: 5
edge from: to
61: 0
61: 1
61: 2
62: 1
62: 3
63: 1
64: 1
64: 5
64: 7
65: 8
65: 9
66: 10
67: 13
67: 15
68: 19
69: 25
70: 28
71: 22
71: 29
71: 30
71: 32
71: 33
72: 35
73: 9
73: 37
73: 38
74: 40
75: 41
75: 42
76: 42
76: 45
76: 46
77: 11
77: 47
78: 45
78: 48
79: 8
79: 53
80: 39
80: 51
80: 55
80: 57
80: 58
3: 61
4: 62
5: 63
6: 63
7: 63
8: 64
9: 64
10: 65
11: 66
12: 66
13: 66
14: 66
15: 66
16: 67
17: 67
18: 67
19: 67
20: 68
21: 68
22: 68
23: 68
24: 68
25: 68
26: 69
27: 69
28: 69
29: 70
30: 70
31: 70
32: 70
33: 70
34: 71
35: 71
36: 71
37: 72
38: 72
39: 72
40: 73
41: 73
42: 74
43: 74
44: 75
45: 75
46: 75
47: 76
48: 76
49: 77
50: 78
51: 78
52: 78
53: 78
54: 78
55: 79
56: 79
57: 79
58: 79
59: 80
60: 80
segment: [9]
vertex id: label
58: 0
59: 4
60: 4
61: 4
62: 0
63: 3
64: 4
65: 0
66: 4
67: 4
68: 4
69: 4
70: 4
71: 2
72: 3
73: 0
74: 3
75: 0
76: 3
77: 0
0: 5
1: 5
2: 5
3: 5
4: 5
5: 5
6: 5
7: 5
8: 5
9: 5
10: 5
11: 5
12: 5
13: 5
14: 5
15: 5
16: 5
17: 5
18: 5
19: 5
20: 5
21: 5
22: 5
23: 5
24: 5
25: 5
26: 5
27: 5
28: 5
29: 5
30: 5
31: 5
32: 5
33: 5
34: 5
35: 5
36: 5
37: 5
38: 5
39: 5
40: 5
41: 5
42: 5
43: 5
44: 5
45: 5
46: 5
47: 5
48: 5
49: 5
50: 5
51: 5
52: 5
53: 5
54: 5
55: 5
56: 5
57: 5
edge from: to
58: 0
59: 6
60: 8
60: 9
61: 14
62: 14
62: 16
63: 4
63: 15
63: 17
64: 21
65: 6
66: 19
66: 27
66: 28
67: 28
67: 29
68: 29
68: 30
68: 31
69: 32
70: 30
70: 32
71: 34
71: 35
72: 12
72: 34
72: 36
73: 39
74: 41
74: 44
75: 11
75: 47
76: 36
76: 44
76: 47
76: 50
76: 51
77: 8
77: 51
77: 53
1: 58
2: 58
3: 58
4: 58
5: 58
6: 58
7: 59
8: 59
9: 59
10: 60
11: 60
12: 60
13: 60
14: 60
15: 61
16: 61
17: 62
18: 63
19: 63
20: 63
21: 63
22: 64
23: 64
24: 64
25: 64
26: 64
27: 65
28: 65
29: 66
30: 67
31: 67
32: 68
33: 69
34: 70
35: 70
36: 71
37: 71
38: 72
39: 72
40: 72
41: 73
42: 73
43: 73
44: 73
45: 73
46: 74
47: 74
48: 74
49: 75
50: 75
51: 75
52: 76
53: 76
54: 76
55: 77
56: 77
57: 77
