segment: [0]
vertex id: label
56: 0
57: 2
58: 1
59: 1
60: 1
61: 1
62: 1
63: 1
64: 1
65: 1
66: 0
67: 2
68: 1
69: 1
70: 1
71: 1
72: 1
73: 1
74: 1
75: 1
0: 5
1: 5
2: 5
3: 5
4: 5
5: 5
6: 5
7: 5
8: 5
9: 5
10: 5
11: 5
12: 5
13: 5
14: 5
15: 5
16: 5
17: 5
18: 5
19: 5
20: 5
21: 5
22: 5
23: 5
24: 5
25: 5
26: 5
27: 5
28: 5
29: 5
30: 5
31: 5
32: 5
33: 5
34: 5
35: 5
36: 5
37: 5
38: 5
39: 5
40: 5
41: 5
42: 5
43: 5
44: 5
45: 5
46: 5
47: 5
48: 5
49: 5
50: 5
51: 5
52: 5
53: 5
54: 5
55: 5
edge from: to
56: 0
56: 1
57: 5
57: 7
58: 2
58: 9
58: 11
59: 17
60: 17
60: 18
60: 20
61: 20
61: 21
62: 24
62: 25
63: 27
64: 18
64: 31
65: 13
65: 34
65: 35
66: 30
66: 36
66: 37
67: 38
68: 12
69: 27
69: 40
69: 41
70: 43
71: 44
71: 45
72: 8
72: 40
72: 46
73: 49
74: 52
75: 54
2: 56
3: 56
4: 56
5: 56
6: 56
7: 56
8: 57
9: 57
10: 57
11: 57
12: 58
13: 58
14: 58
15: 58
16: 58
17: 58
18: 59
19: 59
20: 59
21: 60
22: 61
23: 61
24: 61
25: 61
26: 62
27: 62
28: 63
29: 63
30: 63
31: 63
32: 64
33: 64
34: 64
35: 64
36: 65
37: 65
38: 66
39: 67
40: 67
41: 68
42: 69
43: 69
44: 70
45: 70
46: 71
47: 72
48: 72
49: 72
50: 73
51: 73
52: 73
53: 74
54: 74
55: 75
segment: [1]
vertex id: label
58: 0
59: 2
60: 1
61: 1
62: 0
63: 2
64: 1
65: 1
66: 1
67: 1
68: 1
69: 1
70: 1
71: 0
72: 2
73: 1
74: 1
75: 1
76: 1
77: 1
0: 5
1: 5
2: 5
3: 5
4: 5
5: 5
6: 5
7: 5
8: 5
9: 5
10: 5
11: 5
12: 5
13: 5
14: 5
15: 5
16: 5
17: 5
18: 5
19: 5
20: 5
21: 5
22: 5
23: 5
24: 5
25: 5
26: 5
27: 5
28: 5
29: 5
30: 5
31: 5
32: 5
33: 5
34: 5
35: 5
36: 5
37: 5
38: 5
39: 5
40: 5
41: 5
42: 5
43: 5
44: 5
45: 5
46: 5
47: 5
48: 5
49: 5
50: 5
51: 5
52: 5
53: 5
54: 5
55: 5
56: 5
57: 5
edge from: to
58: 0
59: 4
60: 2
60: 6
61: 5
61: 8
62: 11
63: 14
64: 7
64: 18
65: 19
66: 20
66: 21
67: 4
67: 7
67: 23
68: 26
69: 27
69: 28
70: 18
70: 30
70: 31
71: 22
71: 32
71: 33
72: 34
72: 35
73: 38
74: 43
75: 8
75: 40
75: 46
76: 51
77: 53
77: 54
1: 58
2: 58
3: 58
4: 58
5: 59
6: 59
7: 60
8: 60
9: 61
10: 61
11: 61
12: 62
13: 62
14: 62
15: 63
16: 63
17: 63
18: 63
19: 64
20: 65
21: 65
22: 66
23: 66
24: 67
25: 67
26: 67
27: 68
28: 68
29: 69
30: 69
31: 69
32: 70
33: 70
34: 71
35: 71
36: 72
37: 72
38: 72
39: 73
40: 73
41: 73
42: 73
43: 73
44: 74
45: 74
46: 74
47: 75
48: 75
49: 75
50: 75
51: 75
52: 76
53: 76
54: 76
55: 77
56: 77
57: 77
segment: [2]
vertex id: label
63: 0
64: 2
65: 1
66: 1
67: 1
68: 1
69: 1
70: 1
71: 1
72: 1
73: 1
74: 1
75: 1
76: 1
77: 1
78: 1
79: 1
80: 0
81: 2
82: 2
0: 5
1: 5
2: 5
3: 5
4: 5
5: 5
6: 5
7: 5
8: 5
9: 5
10: 5
11: 5
12: 5
13: 5
14: 5
15: 5
16: 5
17: 5
18: 5
19: 5
20: 5
21: 5
22: 5
23: 5
24: 5
25: 5
26: 5
27: 5
28: 5
29: 5
30: 5
31: 5
32: 5
33: 5
34: 5
35: 5
36: 5
37: 5
38: 5
39: 5
40: 5
41: 5
42: 5
43: 5
44: 5
45: 5
46: 5
47: 5
48: 5
49: 5
50: 5
51: 5
52: 5
53: 5
54: 5
55: 5
56: 5
57: 5
58: 5
59: 5
60: 5
61: 5
62: 5
edge from: to
63: 0
64: 2
64: 5
65: 4
65: 6
65: 9
66: 12
67: 6
67: 14
68: 11
68: 16
69: 0
69: 16
69: 17
69: 19
70: 20
71: 13
71: 22
72: 24
72: 25
73: 9
73: 30
74: 32
75: 32
75: 33
76: 36
77: 38
77: 39
78: 16
78: 41
78: 42
79: 44
79: 45
80: 47
80: 48
81: 44
81: 53
81: 54
82: 47
82: 57
82: 58
1: 63
2: 63
3: 63
4: 63
5: 63
6: 64
7: 64
8: 64
9: 64
10: 65
11: 65
12: 65
13: 66
14: 66
15: 67
16: 67
17: 68
18: 68
19: 68
20: 69
21: 70
22: 70
23: 71
24: 71
25: 71
26: 72
27: 72
28: 72
29: 72
30: 72
31: 73
32: 73
33: 74
34: 75
35: 75
36: 75
37: 76
38: 76
39: 76
40: 77
41: 77
42: 77
43: 78
44: 78
45: 78
46: 79
47: 79
48: 79
49: 80
50: 80
51: 80
52: 80
53: 80
54: 80
55: 81
56: 81
57: 81
58: 81
59: 82
60: 82
61: 82
62: 82
segment: [3]
vertex id: label
64: 0
65: 2
66: 1
67: 1
68: 1
69: 1
70: 1
71: 1
72: 1
73: 1
74: 0
75: 2
76: 1
77: 1
78: 1
79: 1
80: 1
81: 1
82: 1
83: 1
0: 5
1: 5
2: 5
3: 5
4: 5
5: 5
6: 5
7: 5
8: 5
9: 5
10: 5
11: 5
12: 5
13: 5
14: 5
15: 5
16: 5
17: 5
18: 5
19: 5
20: 5
21: 5
22: 5
23: 5
24: 5
25: 5
26: 5
27: 5
28: 5
29: 5
30: 5
31: 5
32: 5
33: 5
34: 5
35: 5
36: 5
37: 5
38: 5
39: 5
40: 5
41: 5
42: 5
43: 5
44: 5
45: 5
46: 5
47: 5
48: 5
49: 5
50: 5
51: 5
52: 5
53: 5
54: 5
55: 5
56: 5
57: 5
58: 5
59: 5
60: 5
61: 5
62: 5
63: 5
edge from: to
64: 0
64: 1
65: 5
66: 7
67: 4
67: 6
67: 9
68: 2
68: 9
68: 10
68: 11
69: 4
69: 5
69: 13
70: 17
71: 18
71: 20
72: 14
72: 20
72: 21
73: 25
74: 27
74: 28
75: 18
75: 31
76: 37
76: 38
77: 7
77: 12
77: 40
78: 29
78: 43
78: 44
79: 46
79: 47
80: 50
80: 51
81: 20
81: 53
82: 45
82: 47
82: 48
82: 54
82: 55
83: 59
2: 64
3: 64
4: 64
5: 64
6: 65
7: 65
8: 66
9: 66
10: 67
11: 67
12: 68
13: 68
14: 69
15: 69
16: 69
17: 69
18: 70
19: 70
20: 70
21: 71
22: 72
23: 72
24: 72
25: 72
26: 73
27: 73
28: 73
29: 74
30: 74
31: 74
32: 75
33: 75
34: 75
35: 75
36: 75
37: 75
38: 75
39: 76
40: 76
41: 77
42: 77
43: 77
44: 77
45: 78
46: 78
47: 78
48: 79
49: 79
50: 79
51: 79
52: 80
53: 80
54: 81
55: 81
56: 82
57: 82
58: 82
59: 82
60: 83
61: 83
62: 83
63: 83
segment: [4]
vertex id: label
65: 0
66: 2
67: 1
68: 1
69: 1
70: 1
71: 1
72: 1
73: 1
74: 1
75: 1
76: 1
77: 1
78: 1
79: 1
80: 1
81: 1
82: 1
83: 0
84: 2
0: 5
1: 5
2: 5
3: 5
4: 5
5: 5
6: 5
7: 5
8: 5
9: 5
10: 5
11: 5
12: 5
13: 5
14: 5
15: 5
16: 5
17: 5
18: 5
19: 5
20: 5
21: 5
22: 5
23: 5
24: 5
25: 5
26: 5
27: 5
28: 5
29: 5
30: 5
31: 5
32: 5
33: 5
34: 5
35: 5
36: 5
37: 5
38: 5
39: 5
40: 5
41: 5
42: 5
43: 5
44: 5
45: 5
46: 5
47: 5
48: 5
49: 5
50: 5
51: 5
52: 5
53: 5
54: 5
55: 5
56: 5
57: 5
58: 5
59: 5
60: 5
61: 5
62: 5
63: 5
64: 5
edge from: to
65: 0
65: 1
65: 2
66: 3
66: 5
66: 7
66: 8
67: 14
68: 11
68: 16
69: 16
69: 19
70: 13
70: 21
70: 22
71: 28
72: 17
72: 28
72: 29
73: 32
74: 21
74: 24
74: 35
74: 36
75: 32
75: 38
75: 39
76: 16
76: 41
76: 42
77: 25
77: 42
77: 43
78: 46
79: 39
79: 47
79: 48
80: 29
80: 49
80: 50
81: 53
81: 54
82: 55
83: 59
84: 59
3: 65
4: 65
5: 65
6: 65
7: 65
8: 65
9: 66
10: 66
11: 66
12: 66
13: 66
14: 66
15: 67
16: 67
17: 68
18: 68
19: 68
20: 69
21: 69
22: 69
23: 70
24: 70
25: 70
26: 70
27: 70
28: 70
29: 71
30: 72
31: 72
32: 72
33: 73
34: 73
35: 73
36: 73
37: 74
38: 74
39: 74
40: 75
41: 75
42: 75
43: 76
44: 77
45: 77
46: 77
47: 78
48: 78
49: 79
50: 79
51: 80
52: 80
53: 80
54: 80
55: 81
56: 82
57: 82
58: 82
59: 82
60: 83
61: 84
62: 84
63: 84
64: 84
segment: [5]
vertex id: label
63: 0
64: 2
65: 1
66: 1
67: 1
68: 1
69: 1
70: 1
71: 1
72: 1
73: 1
74: 1
75: 1
76: 1
77: 1
78: 1
79: 1
80: 1
81: 1
82: 1
0: 5
1: 5
2: 5
3: 5
4: 5
5: 5
6: 5
7: 5
8: 5
9: 5
10: 5
11: 5
12: 5
13: 5
14: 5
15: 5
16: 5
17: 5
18: 5
19: 5
20: 5
21: 5
22: 5
23: 5
24: 5
25: 5
26: 5
27: 5
28: 5
29: 5
30: 5
31: 5
32: 5
33: 5
34: 5
35: 5
36: 5
37: 5
38: 5
39: 5
40: 5
41: 5
42: 5
43: 5
44: 5
45: 5
46: 5
47: 5
48: 5
49: 5
50: 5
51: 5
52: 5
53: 5
54: 5
55: 5
56: 5
57: 5
58: 5
59: 5
60: 5
61: 5
62: 5
edge from: to
63: 0
63: 1
63: 2
64: 2
65: 3
66: 12
67: 9
67: 10
67: 15
68: 21
69: 4
69: 7
69: 23
70: 10
70: 26
71: 17
71: 28
71: 29
72: 31
72: 32
73: 21
73: 35
73: 36
74: 37
74: 38
75: 16
75: 42
76: 25
76: 42
76: 43
77: 46
78: 46
78: 47
79: 48
79: 49
80: 51
81: 54
82: 57
82: 58
3: 63
4: 63
5: 63
6: 63
7: 64
8: 64
9: 64
10: 64
11: 65
12: 65
13: 66
14: 66
15: 66
16: 67
17: 67
18: 67
19: 67
20: 67
21: 67
22: 68
23: 68
24: 69
25: 69
26: 69
27: 70
28: 70
29: 70
30: 71
31: 71
32: 71
33: 72
34: 72
35: 72
36: 72
37: 73
38: 73
39: 74
40: 74
41: 74
42: 74
43: 75
44: 76
45: 76
46: 76
47: 77
48: 78
49: 78
50: 79
51: 79
52: 80
53: 80
54: 80
55: 81
56: 81
57: 81
58: 81
59: 82
60: 82
61: 82
62: 82
segment: [6]
vertex id: label
63: 0
64: 2
65: 1
66: 1
67: 1
68: 1
69: 1
70: 1
71: 1
72: 1
73: 1
74: 1
75: 1
76: 1
77: 1
78: 1
79: 1
80: 1
81: 1
82: 1
0: 5
1: 5
2: 5
3: 5
4: 5
5: 5
6: 5
7: 5
8: 5
9: 5
10: 5
11: 5
12: 5
13: 5
14: 5
15: 5
16: 5
17: 5
18: 5
19: 5
20: 5
21: 5
22: 5
23: 5
24: 5
25: 5
26: 5
27: 5
28: 5
29: 5
30: 5
31: 5
32: 5
33: 5
34: 5
35: 5
36: 5
37: 5
38: 5
39: 5
40: 5
41: 5
42: 5
43: 5
44: 5
45: 5
46: 5
47: 5
48: 5
49: 5
50: 5
51: 5
52: 5
53: 5
54: 5
55: 5
56: 5
57: 5
58: 5
59: 5
60: 5
61: 5
62: 5
edge from: to
63: 0
63: 1
63: 2
64: 7
65: 3
65: 4
65: 6
66: 7
66: 12
67: 7
67: 11
67: 13
67: 16
68: 16
68: 17
68: 19
69: 13
69: 21
69: 22
70: 27
71: 27
71: 28
72: 17
72: 29
73: 31
74: 37
75: 27
75: 40
75: 41
76: 42
77: 43
77: 44
78: 19
78: 44
78: 45
79: 48
80: 51
81: 17
81: 33
81: 57
82: 59
3: 63
4: 63
5: 63
6: 63
7: 63
8: 64
9: 64
10: 64
11: 65
12: 65
13: 66
14: 66
15: 66
16: 66
17: 67
18: 67
19: 67
20: 68
21: 68
22: 68
23: 69
24: 69
25: 69
26: 69
27: 69
28: 70
29: 71
30: 72
31: 72
32: 73
33: 73
34: 73
35: 73
36: 73
37: 73
38: 74
39: 74
40: 74
41: 74
42: 75
43: 76
44: 76
45: 77
46: 78
47: 78
48: 78
49: 79
50: 79
51: 79
52: 80
53: 80
54: 80
55: 80
56: 80
57: 80
58: 81
59: 81
60: 81
61: 82
62: 82
segment: [7]
vertex id: label
61: 0
62: 2
63: 1
64: 1
65: 0
66: 2
67: 1
68: 1
69: 1
70: 1
71: 1
72: 1
73: 1
74: 1
75: 1
76: 1
77: 1
78: 1
79: 1
80: 1
0: 5
1: 5
2: 5
3: 5
4: 5
5: 5
6: 5
7: 5
8: 5
9: 5
10: 5
11: 5
12: 5
13: 5
14: 5
15: 5
16: 5
17: 5
18: 5
19: 5
20: 5
21: 5
22: 5
23: 5
24: 5
25: 5
26: 5
27: 5
28: 5
29: 5
30: 5
31: 5
32: 5
33: 5
34: 5
35: 5
36: 5
37: 5
38: 5
39: 5
40: 5
41: 5
42: 5
43: 5
44: 5
45: 5
46: 5
47: 5
48: 5
49: 5
50: 5
51: 5
52: 5
53: 5
54: 5
55: 5
56: 5
57: 5
58: 5
59: 5
60: 5
edge from: to
61: 0
62: 1
62: 2
63: 2
64: 6
64: 9
65: 14
66: 10
66: 17
67: 19
68: 13
68: 18
68: 21
68: 22
69: 25
70: 26
71: 17
71: 29
72: 9
72: 30
73: 34
74: 37
74: 38
75: 41
76: 25
76: 43
77: 45
78: 47
78: 48
79: 50
80: 20
80: 52
80: 53
1: 61
2: 61
3: 62
4: 62
5: 62
6: 62
7: 63
8: 63
9: 63
10: 64
11: 64
12: 64
13: 64
14: 64
15: 65
16: 65
17: 65
18: 66
19: 66
20: 67
21: 67
22: 67
23: 68
24: 68
25: 68
26: 69
27: 70
28: 70
29: 70
30: 71
31: 72
32: 72
33: 72
34: 72
35: 73
36: 73
37: 73
38: 73
39: 74
40: 74
41: 74
42: 75
43: 75
44: 76
45: 76
46: 77
47: 77
48: 77
49: 78
50: 78
51: 79
52: 79
53: 79
54: 80
55: 80
56: 80
57: 80
58: 80
59: 80
60: 80
segment: [8]
vertex id: label
65: 0
66: 2
67: 1
68: 1
69: 1
70: 1
71: 1
72: 1
73: 1
74: 1
75: 1
76: 1
77: 1
78: 1
79: 1
80: 1
81: 1
82: 0
83: 2
84: 2
0: 5
1: 5
2: 5
3: 5
4: 5
5: 5
6: 5
7: 5
8: 5
9: 5
10: 5
11: 5
12: 5
13: 5
14: 5
15: 5
16: 5
17: 5
18: 5
19: 5
20: 5
21: 5
22: 5
23: 5
24: 5
25: 5
26: 5
27: 5
28: 5
29: 5
30: 5
31: 5
32: 5
33: 5
34: 5
35: 5
36: 5
37: 5
38: 5
39: 5
40: 5
41: 5
42: 5
43: 5
44: 5
45: 5
46: 5
47: 5
48: 5
49: 5
50: 5
51: 5
52: 5
53: 5
54: 5
55: 5
56: 5
57: 5
58: 5
59: 5
60: 5
61: 5
62: 5
63: 5
64: 5
edge from: to
65: 0
65: 1
65: 2
66: 1
66: 2
66: 4
66: 5
66: 6
67: 4
67: 5
68: 16
69: 17
70: 19
71: 4
71: 7
71: 23
72: 22
72: 24
72: 25
73: 10
73: 25
73: 26
74: 9
74: 20
74: 26
74: 29
74: 30
75: 34
76: 34
76: 35
77: 12
77: 40
78: 42
79: 45
80: 31
80: 46
80: 47
81: 40
81: 42
81: 48
81: 49
82: 51
83: 54
83: 55
84: 48
84: 58
84: 59
3: 65
4: 65
5: 65
6: 65
7: 66
8: 66
9: 66
10: 66
11: 66
12: 66
13: 66
14: 67
15: 67
16: 67
17: 68
18: 69
19: 69
20: 70
21: 70
22: 70
23: 70
24: 71
25: 71
26: 72
27: 73
28: 73
29: 73
30: 73
31: 74
32: 74
33: 74
34: 74
35: 75
36: 76
37: 76
38: 76
39: 76
40: 76
41: 77
42: 77
43: 78
44: 78
45: 78
46: 79
47: 79
48: 80
49: 80
50: 81
51: 81
52: 82
53: 82
54: 82
55: 82
56: 83
57: 83
58: 83
59: 83
60: 84
61: 84
62: 84
63: 84
64: 84
segment: [9]
vertex id: label
59: 0
60: 2
61: 1
62: 1
63: 1
64: 1
65: 1
66: 1
67: 1
68: 1
69: 1
70: 1
71: 1
72: 1
73: 1
74: 1
75: 0
76: 2
77: 1
78: 1
0: 5
1: 5
2: 5
3: 5
4: 5
5: 5
6: 5
7: 5
8: 5
9: 5
10: 5
11: 5
12: 5
13: 5
14: 5
15: 5
16: 5
17: 5
18: 5
19: 5
20: 5
21: 5
22: 5
23: 5
24: 5
25: 5
26: 5
27: 5
28: 5
29: 5
30: 5
31: 5
32: 5
33: 5
34: 5
35: 5
36: 5
37: 5
38: 5
39: 5
40: 5
41: 5
42: 5
43: 5
44: 5
45: 5
46: 5
47: 5
48: 5
49: 5
50: 5
51: 5
52: 5
53: 5
54: 5
55: 5
56: 5
57: 5
58: 5
edge from: to
59: 0
59: 1
59: 2
60: 1
60: 2
60: 3
61: 5
62: 5
62: 8
63: 3
63: 4
64: 4
64: 5
65: 16
66: 7
66: 18
67: 0
67: 17
67: 18
67: 20
68: 7
68: 23
69: 27
69: 28
70: 9
71: 31
71: 32
72: 13
72: 34
73: 37
74: 16
74: 42
75: 29
75: 43
75: 44
76: 8
76: 46
77: 50
78: 45
78: 54
78: 55
3: 59
4: 60
5: 60
6: 61
7: 61
8: 61
9: 62
10: 62
11: 63
12: 63
13: 63
14: 64
15: 64
16: 64
17: 65
18: 65
19: 66
20: 66
21: 67
22: 67
23: 67
24: 68
25: 68
26: 68
27: 68
28: 68
29: 69
30: 69
31: 70
32: 70
33: 71
34: 71
35: 72
36: 72
37: 72
38: 73
39: 73
40: 73
41: 73
42: 73
43: 74
44: 74
45: 75
46: 75
47: 76
48: 76
49: 76
50: 76
51: 77
52: 77
53: 77
54: 77
55: 77
56: 78
57: 78
58: 78
segment: [10]
vertex id: label
66: 0
67: 2
68: 1
69: 1
70: 1
71: 1
72: 1
73: 1
74: 1
75: 1
76: 1
77: 1
78: 1
79: 1
80: 1
81: 1
82: 0
83: 2
84: 1
85: 1
0: 5
1: 5
2: 5
3: 5
4: 5
5: 5
6: 5
7: 5
8: 5
9: 5
10: 5
11: 5
12: 5
13: 5
14: 5
15: 5
16: 5
17: 5
18: 5
19: 5
20: 5
21: 5
22: 5
23: 5
24: 5
25: 5
26: 5
27: 5
28: 5
29: 5
30: 5
31: 5
32: 5
33: 5
34: 5
35: 5
36: 5
37: 5
38: 5
39: 5
40: 5
41: 5
42: 5
43: 5
44: 5
45: 5
46: 5
47: 5
48: 5
49: 5
50: 5
51: 5
52: 5
53: 5
54: 5
55: 5
56: 5
57: 5
58: 5
59: 5
60: 5
61: 5
62: 5
63: 5
64: 5
65: 5
edge from: to
66: 0
67: 0
67: 1
67: 2
68: 8
69: 11
70: 12
71: 15
72: 20
73: 13
73: 21
73: 22
74: 25
75: 28
76: 33
77: 0
77: 13
77: 23
77: 30
77: 34
77: 35
78: 41
79: 45
80: 49
81: 52
82: 54
83: 56
84: 58
85: 23
85: 61
1: 66
2: 66
3: 67
4: 67
5: 67
6: 67
7: 67
8: 67
9: 68
10: 68
11: 68
12: 69
13: 70
14: 70
15: 70
16: 71
17: 71
18: 71
19: 71
20: 71
21: 72
22: 72
23: 73
24: 73
25: 73
26: 74
27: 74
28: 74
29: 75
30: 75
31: 75
32: 75
33: 75
34: 76
35: 76
36: 77
37: 77
38: 77
39: 77
40: 77
41: 77
42: 78
43: 78
44: 78
45: 78
46: 79
47: 79
48: 79
49: 79
50: 80
51: 80
52: 80
53: 81
54: 81
55: 82
56: 82
57: 83
58: 83
59: 84
60: 84
61: 84
62: 85
63: 85
64: 85
65: 85
segment: [11]
vertex id: label
68: 0
69: 2
70: 1
71: 1
72: 1
73: 1
74: 1
75: 0
76: 2
77: 1
78: 1
79: 1
80: 1
81: 1
82: 1
83: 1
84: 1
85: 1
86: 1
87: 1
0: 5
1: 5
2: 5
3: 5
4: 5
5: 5
6: 5
7: 5
8: 5
9: 5
10: 5
11: 5
12: 5
13: 5
14: 5
15: 5
16: 5
17: 5
18: 5
19: 5
20: 5
21: 5
22: 5
23: 5
24: 5
25: 5
26: 5
27: 5
28: 5
29: 5
30: 5
31: 5
32: 5
33: 5
34: 5
35: 5
36: 5
37: 5
38: 5
39: 5
40: 5
41: 5
42: 5
43: 5
44: 5
45: 5
46: 5
47: 5
48: 5
49: 5
50: 5
51: 5
52: 5
53: 5
54: 5
55: 5
56: 5
57: 5
58: 5
59: 5
60: 5
61: 5
62: 5
63: 5
64: 5
65: 5
66: 5
67: 5
edge from: to
68: 0
68: 1
69: 3
69: 4
70: 5
70: 7
71: 11
72: 6
72: 14
73: 3
73: 10
73: 14
73: 17
74: 14
74: 20
74: 21
75: 24
76: 26
77: 18
77: 26
77: 27
78: 31
79: 35
80: 38
81: 12
81: 40
82: 19
82: 44
82: 45
83: 48
83: 49
84: 55
85: 57
85: 58
86: 59
86: 60
87: 62
87: 63
2: 68
3: 68
4: 68
5: 69
6: 69
7: 69
8: 70
9: 70
10: 70
11: 70
12: 71
13: 71
14: 71
15: 72
16: 72
17: 72
18: 73
19: 73
20: 73
21: 73
22: 74
23: 74
24: 74
25: 75
26: 75
27: 76
28: 77
29: 77
30: 77
31: 77
32: 78
33: 78
34: 78
35: 78
36: 79
37: 79
38: 79
39: 80
40: 80
41: 81
42: 81
43: 81
44: 81
45: 81
46: 82
47: 82
48: 82
49: 82
50: 83
51: 83
52: 83
53: 83
54: 83
55: 83
56: 84
57: 84
58: 84
59: 85
60: 85
61: 86
62: 86
63: 86
64: 87
65: 87
66: 87
67: 87
segment: [12]
vertex id: label
66: 0
67: 2
68: 1
69: 1
70: 1
71: 1
72: 1
73: 1
74: 1
75: 1
76: 1
77: 1
78: 1
79: 1
80: 1
81: 1
82: 1
83: 1
84: 0
85: 2
0: 5
1: 5
2: 5
3: 5
4: 5
5: 5
6: 5
7: 5
8: 5
9: 5
10: 5
11: 5
12: 5
13: 5
14: 5
15: 5
16: 5
17: 5
18: 5
19: 5
20: 5
21: 5
22: 5
23: 5
24: 5
25: 5
26: 5
27: 5
28: 5
29: 5
30: 5
31: 5
32: 5
33: 5
34: 5
35: 5
36: 5
37: 5
38: 5
39: 5
40: 5
41: 5
42: 5
43: 5
44: 5
45: 5
46: 5
47: 5
48: 5
49: 5
50: 5
51: 5
52: 5
53: 5
54: 5
55: 5
56: 5
57: 5
58: 5
59: 5
60: 5
61: 5
62: 5
63: 5
64: 5
65: 5
edge from: to
66: 0
67: 0
67: 1
68: 4
69: 7
70: 6
70: 9
71: 4
71: 5
71: 13
72: 17
73: 22
74: 10
74: 26
75: 17
75: 29
76: 31
76: 32
77: 34
77: 35
78: 37
78: 38
79: 25
79: 42
79: 43
80: 47
81: 49
82: 52
83: 20
83: 53
84: 17
85: 23
85: 61
1: 66
2: 67
3: 67
4: 67
5: 68
6: 68
7: 68
8: 69
9: 69
10: 70
11: 70
12: 70
13: 70
14: 71
15: 71
16: 71
17: 71
18: 72
19: 72
20: 72
21: 72
22: 72
23: 73
24: 73
25: 73
26: 73
27: 74
28: 74
29: 74
30: 75
31: 75
32: 75
33: 76
34: 76
35: 76
36: 77
37: 77
38: 77
39: 78
40: 78
41: 78
42: 78
43: 78
44: 79
45: 79
46: 79
47: 79
48: 80
49: 80
50: 81
51: 81
52: 81
53: 82
54: 83
55: 83
56: 83
57: 83
58: 84
59: 84
60: 84
61: 84
62: 85
63: 85
64: 85
65: 85
segment: [13]
vertex id: label
67: 0
68: 2
69: 2
70: 1
71: 1
72: 1
73: 1
74: 1
75: 1
76: 1
77: 1
78: 1
79: 1
80: 1
81: 1
82: 1
83: 1
84: 1
85: 1
86: 1
0: 5
1: 5
2: 5
3: 5
4: 5
5: 5
6: 5
7: 5
8: 5
9: 5
10: 5
11: 5
12: 5
13: 5
14: 5
15: 5
16: 5
17: 5
18: 5
19: 5
20: 5
21: 5
22: 5
23: 5
24: 5
25: 5
26: 5
27: 5
28: 5
29: 5
30: 5
31: 5
32: 5
33: 5
34: 5
35: 5
36: 5
37: 5
38: 5
39: 5
40: 5
41: 5
42: 5
43: 5
44: 5
45: 5
46: 5
47: 5
48: 5
49: 5
50: 5
51: 5
52: 5
53: 5
54: 5
55: 5
56: 5
57: 5
58: 5
59: 5
60: 5
61: 5
62: 5
63: 5
64: 5
65: 5
66: 5
edge from: to
67: 0
67: 1
67: 2
68: 7
69: 5
69: 7
69: 8
70: 7
70: 12
71: 9
71: 15
72: 18
73: 4
73: 7
73: 23
74: 10
74: 25
74: 26
75: 17
75: 29
76: 32
77: 35
78: 30
78: 36
78: 37
79: 29
79: 43
79: 44
80: 8
80: 40
80: 46
81: 47
82: 49
83: 53
84: 47
84: 50
84: 57
84: 58
85: 59
86: 61
3: 67
4: 67
5: 67
6: 67
7: 67
8: 68
9: 69
10: 69
11: 69
12: 69
13: 70
14: 70
15: 70
16: 71
17: 71
18: 71
19: 72
20: 72
21: 72
22: 72
23: 72
24: 73
25: 73
26: 73
27: 74
28: 74
29: 74
30: 75
31: 75
32: 75
33: 76
34: 76
35: 76
36: 77
37: 77
38: 78
39: 78
40: 78
41: 78
42: 78
43: 78
44: 78
45: 79
46: 79
47: 80
48: 81
49: 81
50: 82
51: 82
52: 82
53: 82
54: 83
55: 83
56: 83
57: 83
58: 83
59: 84
60: 84
61: 85
62: 85
63: 86
64: 86
65: 86
66: 86
segment: [14]
vertex id: label
60: 0
61: 2
62: 1
63: 1
64: 1
65: 1
66: 1
67: 1
68: 1
69: 1
70: 1
71: 1
72: 1
73: 0
74: 2
75: 1
76: 0
77: 2
78: 1
79: 1
0: 5
1: 5
2: 5
3: 5
4: 5
5: 5
6: 5
7: 5
8: 5
9: 5
10: 5
11: 5
12: 5
13: 5
14: 5
15: 5
16: 5
17: 5
18: 5
19: 5
20: 5
21: 5
22: 5
23: 5
24: 5
25: 5
26: 5
27: 5
28: 5
29: 5
30: 5
31: 5
32: 5
33: 5
34: 5
35: 5
36: 5
37: 5
38: 5
39: 5
40: 5
41: 5
42: 5
43: 5
44: 5
45: 5
46: 5
47: 5
48: 5
49: 5
50: 5
51: 5
52: 5
53: 5
54: 5
55: 5
56: 5
57: 5
58: 5
59: 5
edge from: to
60: 0
61: 0
61: 2
61: 3
61: 4
62: 5
62: 7
63: 5
63: 8
64: 7
64: 12
65: 10
65: 17
66: 7
66: 23
67: 14
67: 24
68: 10
68: 26
69: 17
69: 28
69: 29
70: 9
71: 33
72: 34
72: 35
73: 12
73: 40
74: 43
75: 47
76: 50
77: 54
78: 37
78: 55
78: 56
79: 58
1: 60
2: 60
3: 60
4: 60
5: 61
6: 61
7: 61
8: 62
9: 63
10: 63
11: 63
12: 63
13: 64
14: 64
15: 64
16: 64
17: 64
18: 65
19: 65
20: 65
21: 65
22: 65
23: 65
24: 66
25: 67
26: 67
27: 68
28: 68
29: 68
30: 69
31: 70
32: 70
33: 70
34: 71
35: 71
36: 72
37: 72
38: 72
39: 72
40: 72
41: 73
42: 73
43: 73
44: 74
45: 74
46: 74
47: 74
48: 75
49: 75
50: 75
51: 76
52: 76
53: 76
54: 76
55: 77
56: 77
57: 78
58: 78
59: 79
segment: [15]
vertex id: label
63: 0
64: 2
65: 1
66: 1
67: 1
68: 1
69: 1
70: 1
71: 1
72: 1
73: 1
74: 1
75: 1
76: 1
77: 1
78: 3
79: 4
80: 1
81: 1
82: 1
0: 5
1: 5
2: 5
3: 5
4: 5
5: 5
6: 5
7: 5
8: 5
9: 5
10: 5
11: 5
12: 5
13: 5
14: 5
15: 5
16: 5
17: 5
18: 5
19: 5
20: 5
21: 5
22: 5
23: 5
24: 5
25: 5
26: 5
27: 5
28: 5
29: 5
30: 5
31: 5
32: 5
33: 5
34: 5
35: 5
36: 5
37: 5
38: 5
39: 5
40: 5
41: 5
42: 5
43: 5
44: 5
45: 5
46: 5
47: 5
48: 5
49: 5
50: 5
51: 5
52: 5
53: 5
54: 5
55: 5
56: 5
57: 5
58: 5
59: 5
60: 5
61: 5
62: 5
edge from: to
63: 0
63: 1
63: 2
64: 1
65: 3
66: 12
67: 15
68: 3
68: 10
68: 14
68: 17
69: 7
69: 23
70: 10
70: 26
71: 17
71: 29
72: 31
73: 13
73: 34
74: 30
74: 32
74: 36
74: 37
75: 7
75: 12
75: 35
75: 40
76: 41
77: 8
77: 46
78: 31
78: 38
78: 46
78: 47
79: 50
80: 20
80: 53
81: 17
81: 57
82: 58
3: 63
4: 64
5: 64
6: 64
7: 64
8: 64
9: 64
10: 64
11: 65
12: 65
13: 66
14: 66
15: 66
16: 67
17: 67
18: 68
19: 68
20: 68
21: 68
22: 68
23: 68
24: 69
25: 69
26: 69
27: 70
28: 70
29: 70
30: 71
31: 71
32: 72
33: 72
34: 72
35: 73
36: 73
37: 73
38: 74
39: 74
40: 74
41: 75
42: 76
43: 76
44: 76
45: 76
46: 76
47: 77
48: 78
49: 78
50: 78
51: 79
52: 79
53: 79
54: 80
55: 80
56: 80
57: 80
58: 81
59: 82
60: 82
61: 82
62: 82
segment: [16]
vertex id: label
79: 0
80: 2
81: 2
82: 1
83: 1
84: 0
85: 2
86: 1
87: 1
88: 1
89: 1
90: 1
91: 1
92: 1
93: 1
94: 1
95: 1
96: 1
97: 1
98: 1
0: 5
1: 5
2: 5
3: 5
4: 5
5: 5
6: 5
7: 5
8: 5
9: 5
10: 5
11: 5
12: 5
13: 5
14: 5
15: 5
16: 5
17: 5
18: 5
19: 5
20: 5
21: 5
22: 5
23: 5
24: 5
25: 5
26: 5
27: 5
28: 5
29: 5
30: 5
31: 5
32: 5
33: 5
34: 5
35: 5
36: 5
37: 5
38: 5
39: 5
40: 5
41: 5
42: 5
43: 5
44: 5
45: 5
46: 5
47: 5
48: 5
49: 5
50: 5
51: 5
52: 5
53: 5
54: 5
55: 5
56: 5
57: 5
58: 5
59: 5
60: 5
61: 5
62: 5
63: 5
64: 5
65: 5
66: 5
67: 5
68: 5
69: 5
70: 5
71: 5
72: 5
73: 5
74: 5
75: 5
76: 5
77: 5
78: 5
edge from: to
79: 0
79: 1
80: 3
80: 5
80: 7
81: 3
82: 6
82: 12
82: 14
83: 17
83: 18
83: 20
84: 13
84: 22
85: 7
86: 10
86: 26
87: 29
88: 32
88: 33
89: 16
89: 37
89: 38
90: 43
91: 8
91: 46
92: 48
93: 51
94: 44
94: 53
94: 54
95: 17
96: 23
96: 61
97: 26
97: 68
97: 69
98: 72
98: 73
2: 79
3: 79
4: 79
5: 79
6: 79
7: 79
8: 80
9: 80
10: 80
11: 81
12: 81
13: 81
14: 81
15: 82
16: 82
17: 82
18: 82
19: 82
20: 82
21: 83
22: 83
23: 84
24: 85
25: 85
26: 85
27: 86
28: 86
29: 86
30: 87
31: 87
32: 87
33: 87
34: 88
35: 88
36: 88
37: 88
38: 88
39: 89
40: 89
41: 89
42: 89
43: 89
44: 90
45: 90
46: 90
47: 91
48: 91
49: 92
50: 92
51: 92
52: 93
53: 93
54: 93
55: 94
56: 94
57: 94
58: 95
59: 95
60: 95
61: 95
62: 96
63: 96
64: 96
65: 96
66: 96
67: 96
68: 96
69: 96
70: 97
71: 97
72: 97
73: 97
74: 98
75: 98
76: 98
77: 98
78: 98
segment: [17]
vertex id: label
47: 0
48: 2
49: 1
50: 1
51: 1
52: 1
53: 1
54: 1
55: 1
56: 1
57: 1
58: 1
59: 1
60: 1
61: 1
62: 1
63: 0
64: 2
65: 1
66: 1
0: 5
1: 5
2: 5
3: 5
4: 5
5: 5
6: 5
7: 5
8: 5
9: 5
10: 5
11: 5
12: 5
13: 5
14: 5
15: 5
16: 5
17: 5
18: 5
19: 5
20: 5
21: 5
22: 5
23: 5
24: 5
25: 5
26: 5
27: 5
28: 5
29: 5
30: 5
31: 5
32: 5
33: 5
34: 5
35: 5
36: 5
37: 5
38: 5
39: 5
40: 5
41: 5
42: 5
43: 5
44: 5
45: 5
46: 5
edge from: to
47: 0
47: 1
48: 1
48: 2
49: 4
50: 1
50: 2
50: 4
50: 6
51: 7
52: 2
52: 9
52: 11
53: 9
53: 15
54: 10
54: 17
55: 7
55: 18
56: 20
56: 21
57: 4
57: 7
57: 23
58: 26
59: 27
59: 28
60: 29
61: 33
62: 13
62: 34
63: 34
63: 35
64: 38
65: 12
66: 29
66: 43
66: 44
2: 47
3: 48
4: 48
5: 49
6: 49
7: 50
8: 51
9: 51
10: 51
11: 51
12: 52
13: 52
14: 52
15: 52
16: 53
17: 53
18: 54
19: 55
20: 55
21: 55
22: 56
23: 56
24: 57
25: 57
26: 57
27: 58
28: 58
29: 59
30: 60
31: 60
32: 60
33: 60
34: 61
35: 62
36: 63
37: 63
38: 63
39: 64
40: 64
41: 65
42: 65
43: 65
44: 65
45: 66
46: 66
segment: [18]
vertex id: label
64: 0
65: 2
66: 2
67: 1
68: 1
69: 0
70: 2
71: 2
72: 2
73: 2
74: 1
75: 1
76: 1
77: 1
78: 1
79: 1
80: 1
81: 1
82: 1
83: 1
0: 5
1: 5
2: 5
3: 5
4: 5
5: 5
6: 5
7: 5
8: 5
9: 5
10: 5
11: 5
12: 5
13: 5
14: 5
15: 5
16: 5
17: 5
18: 5
19: 5
20: 5
21: 5
22: 5
23: 5
24: 5
25: 5
26: 5
27: 5
28: 5
29: 5
30: 5
31: 5
32: 5
33: 5
34: 5
35: 5
36: 5
37: 5
38: 5
39: 5
40: 5
41: 5
42: 5
43: 5
44: 5
45: 5
46: 5
47: 5
48: 5
49: 5
50: 5
51: 5
52: 5
53: 5
54: 5
55: 5
56: 5
57: 5
58: 5
59: 5
60: 5
61: 5
62: 5
63: 5
edge from: to
64: 0
65: 1
65: 2
66: 3
66: 4
67: 8
68: 4
68: 6
68: 9
69: 7
69: 8
69: 12
70: 9
70: 15
71: 3
71: 10
71: 17
72: 9
72: 14
72: 17
72: 20
72: 21
73: 14
73: 23
73: 24
74: 17
74: 29
75: 13
75: 33
75: 34
76: 37
76: 38
77: 12
77: 40
78: 43
79: 8
79: 46
80: 20
80: 53
81: 54
82: 58
83: 59
83: 60
1: 64
2: 64
3: 65
4: 65
5: 66
6: 66
7: 66
8: 66
9: 67
10: 68
11: 68
12: 68
13: 69
14: 69
15: 69
16: 70
17: 70
18: 71
19: 71
20: 71
21: 71
22: 72
23: 72
24: 72
25: 73
26: 73
27: 73
28: 73
29: 73
30: 74
31: 74
32: 74
33: 74
34: 74
35: 75
36: 75
37: 75
38: 75
39: 76
40: 76
41: 77
42: 77
43: 77
44: 78
45: 78
46: 78
47: 79
48: 79
49: 79
50: 79
51: 79
52: 79
53: 79
54: 80
55: 81
56: 81
57: 81
58: 81
59: 82
60: 82
61: 83
62: 83
63: 83
segment: [19]
vertex id: label
54: 0
55: 2
56: 1
57: 1
58: 1
59: 1
60: 0
61: 2
62: 1
63: 1
64: 1
65: 1
66: 1
67: 1
68: 1
69: 1
70: 1
71: 1
72: 1
73: 1
0: 5
1: 5
2: 5
3: 5
4: 5
5: 5
6: 5
7: 5
8: 5
9: 5
10: 5
11: 5
12: 5
13: 5
14: 5
15: 5
16: 5
17: 5
18: 5
19: 5
20: 5
21: 5
22: 5
23: 5
24: 5
25: 5
26: 5
27: 5
28: 5
29: 5
30: 5
31: 5
32: 5
33: 5
34: 5
35: 5
36: 5
37: 5
38: 5
39: 5
40: 5
41: 5
42: 5
43: 5
44: 5
45: 5
46: 5
47: 5
48: 5
49: 5
50: 5
51: 5
52: 5
53: 5
edge from: to
54: 0
55: 4
56: 6
56: 9
57: 2
57: 11
58: 4
59: 9
59: 15
60: 3
60: 10
60: 14
60: 17
61: 18
61: 20
62: 24
62: 25
63: 18
63: 22
63: 26
63: 27
64: 17
64: 29
65: 34
66: 16
66: 37
66: 38
67: 12
67: 40
68: 16
68: 42
69: 29
69: 36
69: 43
69: 44
70: 8
70: 46
71: 48
71: 49
72: 29
72: 50
73: 51
1: 54
2: 54
3: 54
4: 54
5: 55
6: 55
7: 55
8: 55
9: 55
10: 56
11: 56
12: 57
13: 57
14: 58
15: 58
16: 59
17: 59
18: 60
19: 60
20: 60
21: 61
22: 61
23: 61
24: 61
25: 61
26: 62
27: 62
28: 63
29: 63
30: 64
31: 64
32: 64
33: 64
34: 64
35: 65
36: 65
37: 65
38: 65
39: 66
40: 66
41: 67
42: 67
43: 68
44: 68
45: 69
46: 69
47: 70
48: 70
49: 70
50: 71
51: 72
52: 73
53: 73
