segment: [0]
vertex id: label
65: 0
66: 4
67: 1
68: 3
69: 4
70: 1
71: 3
72: 4
73: 4
74: 4
75: 1
76: 3
77: 4
78: 4
79: 1
80: 3
81: 4
82: 1
83: 3
84: 4
0: 5
1: 5
2: 5
3: 5
4: 5
5: 5
6: 5
7: 5
8: 5
9: 5
10: 5
11: 5
12: 5
13: 5
14: 5
15: 5
16: 5
17: 5
18: 5
19: 5
20: 5
21: 5
22: 5
23: 5
24: 5
25: 5
26: 5
27: 5
28: 5
29: 5
30: 5
31: 5
32: 5
33: 5
34: 5
35: 5
36: 5
37: 5
38: 5
39: 5
40: 5
41: 5
42: 5
43: 5
44: 5
45: 5
46: 5
47: 5
48: 5
49: 5
50: 5
51: 5
52: 5
53: 5
54: 5
55: 5
56: 5
57: 5
58: 5
59: 5
60: 5
61: 5
62: 5
63: 5
64: 5
edge from: to
65: 0
65: 1
65: 2
66: 4
67: 7
68: 6
68: 7
68: 8
68: 9
69: 14
70: 7
70: 16
70: 17
71: 19
71: 20
72: 9
72: 21
72: 22
73: 18
73: 23
73: 24
74: 27
74: 28
75: 30
75: 31
76: 34
76: 35
77: 35
78: 37
79: 41
80: 19
80: 45
80: 46
81: 50
81: 51
82: 54
83: 55
83: 56
84: 58
84: 59
84: 60
3: 65
4: 65
5: 66
6: 66
7: 66
8: 67
9: 67
10: 68
11: 68
12: 68
13: 68
14: 68
15: 69
16: 69
17: 69
18: 70
19: 70
20: 70
21: 71
22: 71
23: 72
24: 72
25: 73
26: 73
27: 73
28: 73
29: 74
30: 74
31: 74
32: 75
33: 75
34: 75
35: 75
36: 76
37: 77
38: 77
39: 78
40: 78
41: 78
42: 78
43: 79
44: 79
45: 79
46: 79
47: 79
48: 80
49: 80
50: 80
51: 80
52: 81
53: 81
54: 81
55: 81
56: 82
57: 83
58: 83
59: 83
60: 83
61: 84
62: 84
63: 84
64: 84
segment: [1]
vertex id: label
68: 0
69: 4
70: 1
71: 3
72: 3
73: 4
74: 4
75: 1
76: 3
77: 4
78: 1
79: 3
80: 4
81: 1
82: 3
83: 4
84: 1
85: 3
86: 4
87: 1
0: 5
1: 5
2: 5
3: 5
4: 5
5: 5
6: 5
7: 5
8: 5
9: 5
10: 5
11: 5
12: 5
13: 5
14: 5
15: 5
16: 5
17: 5
18: 5
19: 5
20: 5
21: 5
22: 5
23: 5
24: 5
25: 5
26: 5
27: 5
28: 5
29: 5
30: 5
31: 5
32: 5
33: 5
34: 5
35: 5
36: 5
37: 5
38: 5
39: 5
40: 5
41: 5
42: 5
43: 5
44: 5
45: 5
46: 5
47: 5
48: 5
49: 5
50: 5
51: 5
52: 5
53: 5
54: 5
55: 5
56: 5
57: 5
58: 5
59: 5
60: 5
61: 5
62: 5
63: 5
64: 5
65: 5
66: 5
67: 5
edge from: to
68: 0
68: 1
68: 2
69: 2
69: 5
70: 8
70: 9
71: 13
71: 14
72: 19
73: 19
73: 20
74: 17
74: 22
74: 23
75: 24
75: 25
76: 27
76: 28
76: 29
77: 34
77: 35
78: 37
79: 40
79: 41
80: 44
80: 45
81: 50
82: 53
82: 54
83: 56
84: 59
85: 62
85: 63
86: 64
87: 11
87: 66
3: 68
4: 68
5: 68
6: 69
7: 69
8: 69
9: 69
10: 70
11: 70
12: 70
13: 70
14: 70
15: 71
16: 71
17: 71
18: 71
19: 71
20: 72
21: 73
22: 73
23: 73
24: 74
25: 74
26: 75
27: 75
28: 75
29: 75
30: 76
31: 76
32: 76
33: 76
34: 76
35: 76
36: 77
37: 77
38: 77
39: 78
40: 78
41: 78
42: 79
43: 79
44: 79
45: 79
46: 80
47: 80
48: 80
49: 80
50: 80
51: 80
52: 81
53: 81
54: 81
55: 82
56: 82
57: 82
58: 83
59: 83
60: 83
61: 84
62: 84
63: 84
64: 85
65: 85
66: 86
67: 87
segment: [2]
vertex id: label
51: 0
52: 4
53: 4
54: 1
55: 3
56: 4
57: 1
58: 3
59: 4
60: 4
61: 1
62: 3
63: 4
64: 1
65: 3
66: 4
67: 1
68: 3
69: 4
70: 4
0: 5
1: 5
2: 5
3: 5
4: 5
5: 5
6: 5
7: 5
8: 5
9: 5
10: 5
11: 5
12: 5
13: 5
14: 5
15: 5
16: 5
17: 5
18: 5
19: 5
20: 5
21: 5
22: 5
23: 5
24: 5
25: 5
26: 5
27: 5
28: 5
29: 5
30: 5
31: 5
32: 5
33: 5
34: 5
35: 5
36: 5
37: 5
38: 5
39: 5
40: 5
41: 5
42: 5
43: 5
44: 5
45: 5
46: 5
47: 5
48: 5
49: 5
50: 5
edge from: to
51: 0
52: 0
52: 1
52: 2
53: 1
54: 7
55: 9
55: 10
56: 13
57: 14
58: 17
59: 15
59: 19
59: 20
60: 21
61: 11
61: 26
62: 31
63: 33
64: 34
65: 36
66: 32
66: 36
66: 37
66: 38
66: 39
67: 17
67: 40
67: 41
67: 42
68: 44
69: 19
69: 46
70: 47
1: 51
2: 51
3: 52
4: 52
5: 52
6: 52
7: 53
8: 54
9: 54
10: 54
11: 55
12: 55
13: 55
14: 56
15: 57
16: 57
17: 57
18: 58
19: 58
20: 58
21: 59
22: 59
23: 60
24: 60
25: 60
26: 60
27: 60
28: 61
29: 61
30: 61
31: 61
32: 61
33: 62
34: 62
35: 63
36: 64
37: 64
38: 65
39: 65
40: 66
41: 66
42: 66
43: 67
44: 67
45: 67
46: 68
47: 68
48: 69
49: 70
50: 70
segment: [3]
vertex id: label
66: 0
67: 2
68: 1
69: 3
70: 4
71: 1
72: 3
73: 4
74: 1
75: 2
76: 4
77: 1
78: 3
79: 4
80: 4
81: 1
82: 3
83: 4
84: 1
85: 3
0: 5
1: 5
2: 5
3: 5
4: 5
5: 5
6: 5
7: 5
8: 5
9: 5
10: 5
11: 5
12: 5
13: 5
14: 5
15: 5
16: 5
17: 5
18: 5
19: 5
20: 5
21: 5
22: 5
23: 5
24: 5
25: 5
26: 5
27: 5
28: 5
29: 5
30: 5
31: 5
32: 5
33: 5
34: 5
35: 5
36: 5
37: 5
38: 5
39: 5
40: 5
41: 5
42: 5
43: 5
44: 5
45: 5
46: 5
47: 5
48: 5
49: 5
50: 5
51: 5
52: 5
53: 5
54: 5
55: 5
56: 5
57: 5
58: 5
59: 5
60: 5
61: 5
62: 5
63: 5
64: 5
65: 5
edge from: to
66: 0
66: 1
66: 2
66: 3
66: 4
67: 2
67: 5
68: 7
69: 13
70: 20
71: 21
72: 7
72: 23
72: 24
72: 25
73: 26
74: 31
75: 32
75: 33
76: 15
76: 36
76: 37
77: 38
77: 39
78: 39
78: 40
78: 41
79: 42
79: 43
79: 44
80: 19
80: 46
81: 50
82: 21
82: 50
82: 51
83: 54
84: 23
84: 55
84: 56
85: 25
85: 60
85: 61
5: 66
6: 67
7: 67
8: 68
9: 68
10: 68
11: 68
12: 68
13: 68
14: 69
15: 69
16: 69
17: 69
18: 69
19: 69
20: 69
21: 70
22: 70
23: 71
24: 71
25: 71
26: 72
27: 72
28: 73
29: 73
30: 73
31: 73
32: 73
33: 74
34: 75
35: 75
36: 75
37: 75
38: 76
39: 76
40: 77
41: 77
42: 78
43: 78
44: 78
45: 79
46: 79
47: 79
48: 80
49: 80
50: 80
51: 80
52: 81
53: 82
54: 82
55: 82
56: 83
57: 83
58: 84
59: 84
60: 84
61: 84
62: 84
63: 85
64: 85
65: 85
segment: [4]
vertex id: label
59: 0
60: 4
61: 1
62: 3
63: 4
64: 1
65: 3
66: 4
67: 3
68: 4
69: 1
70: 3
71: 4
72: 1
73: 3
74: 4
75: 1
76: 3
77: 4
78: 3
0: 5
1: 5
2: 5
3: 5
4: 5
5: 5
6: 5
7: 5
8: 5
9: 5
10: 5
11: 5
12: 5
13: 5
14: 5
15: 5
16: 5
17: 5
18: 5
19: 5
20: 5
21: 5
22: 5
23: 5
24: 5
25: 5
26: 5
27: 5
28: 5
29: 5
30: 5
31: 5
32: 5
33: 5
34: 5
35: 5
36: 5
37: 5
38: 5
39: 5
40: 5
41: 5
42: 5
43: 5
44: 5
45: 5
46: 5
47: 5
48: 5
49: 5
50: 5
51: 5
52: 5
53: 5
54: 5
55: 5
56: 5
57: 5
58: 5
edge from: to
59: 0
59: 1
59: 2
60: 2
60: 5
61: 7
61: 8
61: 9
62: 2
63: 15
64: 17
64: 18
65: 9
65: 21
66: 24
66: 25
67: 26
67: 27
67: 28
68: 28
68: 29
68: 30
69: 2
69: 32
69: 33
70: 33
70: 34
71: 37
72: 38
72: 39
73: 42
74: 44
74: 45
74: 46
75: 47
75: 48
76: 49
76: 50
76: 51
77: 53
78: 55
78: 56
3: 59
4: 59
5: 59
6: 60
7: 60
8: 60
9: 60
10: 61
11: 61
12: 61
13: 62
14: 62
15: 62
16: 63
17: 63
18: 63
19: 64
20: 64
21: 64
22: 64
23: 65
24: 65
25: 65
26: 66
27: 66
28: 66
29: 67
30: 67
31: 68
32: 68
33: 68
34: 69
35: 70
36: 70
37: 70
38: 70
39: 71
40: 72
41: 72
42: 72
43: 72
44: 73
45: 73
46: 73
47: 74
48: 74
49: 75
50: 75
51: 75
52: 76
53: 76
54: 76
55: 77
56: 77
57: 78
58: 78
segment: [5]
vertex id: label
71: 0
72: 4
73: 1
74: 3
75: 4
76: 1
77: 3
78: 4
79: 4
80: 4
81: 4
82: 4
83: 1
84: 3
85: 4
86: 1
87: 3
88: 4
89: 1
90: 3
0: 5
1: 5
2: 5
3: 5
4: 5
5: 5
6: 5
7: 5
8: 5
9: 5
10: 5
11: 5
12: 5
13: 5
14: 5
15: 5
16: 5
17: 5
18: 5
19: 5
20: 5
21: 5
22: 5
23: 5
24: 5
25: 5
26: 5
27: 5
28: 5
29: 5
30: 5
31: 5
32: 5
33: 5
34: 5
35: 5
36: 5
37: 5
38: 5
39: 5
40: 5
41: 5
42: 5
43: 5
44: 5
45: 5
46: 5
47: 5
48: 5
49: 5
50: 5
51: 5
52: 5
53: 5
54: 5
55: 5
56: 5
57: 5
58: 5
59: 5
60: 5
61: 5
62: 5
63: 5
64: 5
65: 5
66: 5
67: 5
68: 5
69: 5
70: 5
edge from: to
71: 0
71: 1
72: 4
73: 3
73: 5
73: 6
73: 7
74: 7
74: 8
74: 9
75: 2
75: 5
76: 18
77: 22
78: 19
78: 24
78: 25
78: 26
79: 27
80: 30
81: 34
81: 35
82: 40
83: 33
83: 43
83: 44
83: 45
84: 35
84: 44
84: 45
84: 46
84: 47
84: 48
85: 50
85: 51
86: 53
87: 54
88: 58
88: 59
89: 25
89: 60
89: 61
90: 63
90: 64
2: 71
3: 71
4: 71
5: 72
6: 72
7: 72
8: 73
9: 73
10: 74
11: 74
12: 74
13: 75
14: 75
15: 75
16: 75
17: 75
18: 75
19: 76
20: 76
21: 76
22: 76
23: 76
24: 77
25: 77
26: 77
27: 78
28: 78
29: 79
30: 79
31: 79
32: 80
33: 80
34: 80
35: 80
36: 81
37: 81
38: 81
39: 81
40: 81
41: 81
42: 82
43: 82
44: 82
45: 82
46: 83
47: 83
48: 83
49: 84
50: 84
51: 84
52: 85
53: 85
54: 85
55: 86
56: 87
57: 87
58: 87
59: 87
60: 88
61: 88
62: 88
63: 89
64: 89
65: 90
66: 90
67: 90
68: 90
69: 90
70: 90
segment: [6]
vertex id: label
58: 0
59: 2
60: 1
61: 3
62: 4
63: 3
64: 4
65: 1
66: 3
67: 4
68: 4
69: 1
70: 3
71: 4
72: 1
73: 3
74: 4
75: 3
76: 4
77: 3
0: 5
1: 5
2: 5
3: 5
4: 5
5: 5
6: 5
7: 5
8: 5
9: 5
10: 5
11: 5
12: 5
13: 5
14: 5
15: 5
16: 5
17: 5
18: 5
19: 5
20: 5
21: 5
22: 5
23: 5
24: 5
25: 5
26: 5
27: 5
28: 5
29: 5
30: 5
31: 5
32: 5
33: 5
34: 5
35: 5
36: 5
37: 5
38: 5
39: 5
40: 5
41: 5
42: 5
43: 5
44: 5
45: 5
46: 5
47: 5
48: 5
49: 5
50: 5
51: 5
52: 5
53: 5
54: 5
55: 5
56: 5
57: 5
edge from: to
58: 0
58: 1
59: 3
60: 4
61: 1
62: 6
62: 7
62: 8
63: 10
63: 11
64: 12
64: 13
65: 18
66: 22
66: 23
67: 24
67: 25
68: 27
68: 28
68: 29
69: 30
70: 32
70: 33
71: 13
71: 22
71: 32
71: 33
71: 34
71: 35
72: 15
72: 36
72: 37
73: 40
73: 41
74: 43
75: 48
75: 49
76: 21
76: 51
77: 54
2: 58
3: 58
4: 59
5: 60
6: 60
7: 61
8: 61
9: 62
10: 62
11: 62
12: 63
13: 63
14: 64
15: 64
16: 64
17: 64
18: 64
19: 65
20: 65
21: 65
22: 65
23: 65
24: 66
25: 66
26: 67
27: 67
28: 67
29: 67
30: 68
31: 68
32: 69
33: 69
34: 70
35: 70
36: 71
37: 71
38: 72
39: 72
40: 72
41: 72
42: 73
43: 73
44: 73
45: 74
46: 74
47: 74
48: 74
49: 74
50: 75
51: 75
52: 75
53: 76
54: 76
55: 76
56: 77
57: 77
segment: [7]
vertex id: label
58: 0
59: 3
60: 4
61: 1
62: 3
63: 4
64: 1
65: 3
66: 4
67: 1
68: 3
69: 4
70: 4
71: 3
72: 4
73: 1
74: 3
75: 4
76: 4
77: 4
0: 5
1: 5
2: 5
3: 5
4: 5
5: 5
6: 5
7: 5
8: 5
9: 5
10: 5
11: 5
12: 5
13: 5
14: 5
15: 5
16: 5
17: 5
18: 5
19: 5
20: 5
21: 5
22: 5
23: 5
24: 5
25: 5
26: 5
27: 5
28: 5
29: 5
30: 5
31: 5
32: 5
33: 5
34: 5
35: 5
36: 5
37: 5
38: 5
39: 5
40: 5
41: 5
42: 5
43: 5
44: 5
45: 5
46: 5
47: 5
48: 5
49: 5
50: 5
51: 5
52: 5
53: 5
54: 5
55: 5
56: 5
57: 5
edge from: to
58: 0
58: 1
59: 1
59: 2
60: 4
61: 1
62: 3
62: 7
63: 2
63: 5
64: 14
65: 1
65: 15
65: 16
66: 14
66: 17
66: 18
66: 19
67: 21
68: 23
69: 27
69: 28
70: 32
71: 37
72: 40
72: 41
73: 42
74: 43
75: 44
75: 45
75: 46
76: 47
76: 48
76: 49
77: 51
2: 58
3: 59
4: 59
5: 60
6: 60
7: 61
8: 62
9: 62
10: 62
11: 62
12: 62
13: 63
14: 63
15: 64
16: 64
17: 65
18: 65
19: 65
20: 66
21: 66
22: 66
23: 67
24: 67
25: 68
26: 68
27: 68
28: 68
29: 69
30: 69
31: 69
32: 69
33: 69
34: 70
35: 70
36: 70
37: 70
38: 70
39: 71
40: 71
41: 71
42: 72
43: 72
44: 73
45: 74
46: 74
47: 75
48: 75
49: 75
50: 76
51: 76
52: 76
53: 77
54: 77
55: 77
56: 77
57: 77
segment: [8]
vertex id: label
58: 0
59: 4
60: 1
61: 3
62: 4
63: 1
64: 3
65: 4
66: 1
67: 3
68: 4
69: 4
70: 1
71: 3
72: 4
73: 1
74: 3
75: 4
76: 1
77: 3
0: 5
1: 5
2: 5
3: 5
4: 5
5: 5
6: 5
7: 5
8: 5
9: 5
10: 5
11: 5
12: 5
13: 5
14: 5
15: 5
16: 5
17: 5
18: 5
19: 5
20: 5
21: 5
22: 5
23: 5
24: 5
25: 5
26: 5
27: 5
28: 5
29: 5
30: 5
31: 5
32: 5
33: 5
34: 5
35: 5
36: 5
37: 5
38: 5
39: 5
40: 5
41: 5
42: 5
43: 5
44: 5
45: 5
46: 5
47: 5
48: 5
49: 5
50: 5
51: 5
52: 5
53: 5
54: 5
55: 5
56: 5
57: 5
edge from: to
58: 0
59: 3
60: 3
60: 6
60: 7
61: 8
62: 2
62: 10
62: 11
63: 16
64: 17
64: 18
65: 20
65: 21
66: 22
67: 11
67: 26
67: 27
68: 29
69: 30
69: 31
70: 33
70: 34
71: 15
71: 36
71: 37
72: 40
72: 41
73: 41
73: 42
73: 43
74: 44
74: 45
74: 46
75: 47
76: 52
77: 53
1: 58
2: 58
3: 58
4: 59
5: 59
6: 59
7: 59
8: 60
9: 61
10: 61
11: 61
12: 62
13: 62
14: 62
15: 62
16: 62
17: 63
18: 63
19: 64
20: 64
21: 64
22: 65
23: 65
24: 66
25: 66
26: 66
27: 66
28: 67
29: 67
30: 67
31: 68
32: 69
33: 69
34: 69
35: 70
36: 70
37: 70
38: 71
39: 71
40: 71
41: 71
42: 72
43: 72
44: 73
45: 73
46: 73
47: 74
48: 74
49: 75
50: 75
51: 75
52: 75
53: 75
54: 76
55: 77
56: 77
57: 77
segment: [9]
vertex id: label
64: 0
65: 2
66: 4
67: 1
68: 3
69: 4
70: 3
71: 4
72: 4
73: 4
74: 1
75: 3
76: 4
77: 4
78: 3
79: 4
80: 1
81: 3
82: 3
83: 4
0: 5
1: 5
2: 5
3: 5
4: 5
5: 5
6: 5
7: 5
8: 5
9: 5
10: 5
11: 5
12: 5
13: 5
14: 5
15: 5
16: 5
17: 5
18: 5
19: 5
20: 5
21: 5
22: 5
23: 5
24: 5
25: 5
26: 5
27: 5
28: 5
29: 5
30: 5
31: 5
32: 5
33: 5
34: 5
35: 5
36: 5
37: 5
38: 5
39: 5
40: 5
41: 5
42: 5
43: 5
44: 5
45: 5
46: 5
47: 5
48: 5
49: 5
50: 5
51: 5
52: 5
53: 5
54: 5
55: 5
56: 5
57: 5
58: 5
59: 5
60: 5
61: 5
62: 5
63: 5
edge from: to
64: 0
65: 3
65: 4
66: 7
66: 8
67: 4
67: 6
67: 9
67: 10
68: 4
68: 13
68: 14
69: 16
70: 14
70: 17
70: 18
70: 19
71: 22
71: 23
72: 27
73: 32
74: 33
74: 34
74: 35
75: 40
76: 42
76: 43
77: 19
77: 45
77: 46
78: 46
78: 47
78: 48
79: 21
79: 51
80: 52
80: 53
81: 54
82: 54
82: 55
82: 56
83: 58
1: 64
2: 64
3: 64
4: 64
5: 65
6: 65
7: 65
8: 65
9: 66
10: 66
11: 67
12: 67
13: 67
14: 67
15: 68
16: 68
17: 69
18: 69
19: 69
20: 70
21: 70
22: 70
23: 70
24: 71
25: 71
26: 71
27: 71
28: 71
29: 72
30: 72
31: 72
32: 72
33: 72
34: 73
35: 73
36: 74
37: 74
38: 74
39: 74
40: 74
41: 74
42: 75
43: 75
44: 76
45: 76
46: 76
47: 76
48: 77
49: 78
50: 78
51: 78
52: 78
53: 79
54: 80
55: 80
56: 81
57: 82
58: 82
59: 82
60: 83
61: 83
62: 83
63: 83
