segment: [0]
vertex id: label
65: 0
66: 4
67: 2
68: 1
69: 0
70: 4
71: 4
72: 1
73: 4
74: 1
75: 0
76: 4
77: 1
78: 0
79: 4
80: 1
81: 0
82: 4
83: 1
84: 0
0: 5
1: 5
2: 5
3: 5
4: 5
5: 5
6: 5
7: 5
8: 5
9: 5
10: 5
11: 5
12: 5
13: 5
14: 5
15: 5
16: 5
17: 5
18: 5
19: 5
20: 5
21: 5
22: 5
23: 5
24: 5
25: 5
26: 5
27: 5
28: 5
29: 5
30: 5
31: 5
32: 5
33: 5
34: 5
35: 5
36: 5
37: 5
38: 5
39: 5
40: 5
41: 5
42: 5
43: 5
44: 5
45: 5
46: 5
47: 5
48: 5
49: 5
50: 5
51: 5
52: 5
53: 5
54: 5
55: 5
56: 5
57: 5
58: 5
59: 5
60: 5
61: 5
62: 5
63: 5
64: 5
edge from: to
65: 0
65: 1
66: 2
67: 0
67: 7
68: 0
68: 10
69: 5
70: 15
71: 8
72: 0
72: 7
72: 19
73: 20
74: 0
74: 11
74: 25
75: 29
76: 0
76: 32
77: 35
78: 9
78: 16
78: 33
78: 34
78: 37
79: 15
79: 36
79: 38
79: 41
80: 42
80: 46
81: 48
82: 50
83: 52
83: 57
84: 56
84: 61
2: 65
3: 65
4: 65
5: 66
6: 66
7: 66
8: 67
9: 67
10: 67
11: 68
12: 69
13: 69
14: 69
15: 69
16: 70
17: 70
18: 70
19: 71
20: 72
21: 73
22: 73
23: 73
24: 73
25: 73
26: 74
27: 74
28: 74
29: 74
30: 75
31: 75
32: 75
33: 76
34: 76
35: 76
36: 77
37: 77
38: 78
39: 78
40: 78
41: 78
42: 79
43: 79
44: 79
45: 79
46: 79
47: 80
48: 80
49: 81
50: 81
51: 82
52: 82
53: 82
54: 82
55: 82
56: 82
57: 82
58: 83
59: 83
60: 83
61: 83
62: 84
63: 84
64: 84
segment: [1]
vertex id: label
64: 0
65: 4
66: 4
67: 1
68: 0
69: 4
70: 1
71: 0
72: 4
73: 4
74: 1
75: 0
76: 4
77: 1
78: 0
79: 4
80: 1
81: 0
82: 4
83: 1
0: 5
1: 5
2: 5
3: 5
4: 5
5: 5
6: 5
7: 5
8: 5
9: 5
10: 5
11: 5
12: 5
13: 5
14: 5
15: 5
16: 5
17: 5
18: 5
19: 5
20: 5
21: 5
22: 5
23: 5
24: 5
25: 5
26: 5
27: 5
28: 5
29: 5
30: 5
31: 5
32: 5
33: 5
34: 5
35: 5
36: 5
37: 5
38: 5
39: 5
40: 5
41: 5
42: 5
43: 5
44: 5
45: 5
46: 5
47: 5
48: 5
49: 5
50: 5
51: 5
52: 5
53: 5
54: 5
55: 5
56: 5
57: 5
58: 5
59: 5
60: 5
61: 5
62: 5
63: 5
edge from: to
64: 0
64: 1
64: 2
65: 5
66: 15
67: 21
68: 10
68: 23
69: 26
70: 28
71: 0
71: 14
71: 31
72: 31
72: 32
72: 35
73: 36
74: 14
74: 17
74: 38
75: 36
75: 39
76: 39
76: 43
77: 36
77: 40
77: 41
77: 45
78: 21
78: 34
78: 43
78: 47
79: 12
79: 36
79: 44
79: 46
79: 50
80: 52
81: 24
81: 54
82: 55
82: 60
83: 61
3: 64
4: 64
5: 64
6: 64
7: 64
8: 64
9: 64
10: 64
11: 64
12: 65
13: 65
14: 65
15: 65
16: 66
17: 66
18: 66
19: 66
20: 66
21: 66
22: 67
23: 67
24: 68
25: 68
26: 68
27: 69
28: 69
29: 70
30: 70
31: 70
32: 71
33: 71
34: 71
35: 71
36: 72
37: 73
38: 73
39: 74
40: 75
41: 75
42: 75
43: 75
44: 76
45: 76
46: 77
47: 77
48: 78
49: 78
50: 78
51: 79
52: 79
53: 80
54: 80
55: 81
56: 81
57: 81
58: 81
59: 81
60: 81
61: 82
62: 83
63: 83
segment: [2]
vertex id: label
66: 0
67: 4
68: 4
69: 4
70: 4
71: 1
72: 0
73: 4
74: 1
75: 4
76: 4
77: 1
78: 0
79: 4
80: 1
81: 0
82: 4
83: 1
84: 0
85: 4
0: 5
1: 5
2: 5
3: 5
4: 5
5: 5
6: 5
7: 5
8: 5
9: 5
10: 5
11: 5
12: 5
13: 5
14: 5
15: 5
16: 5
17: 5
18: 5
19: 5
20: 5
21: 5
22: 5
23: 5
24: 5
25: 5
26: 5
27: 5
28: 5
29: 5
30: 5
31: 5
32: 5
33: 5
34: 5
35: 5
36: 5
37: 5
38: 5
39: 5
40: 5
41: 5
42: 5
43: 5
44: 5
45: 5
46: 5
47: 5
48: 5
49: 5
50: 5
51: 5
52: 5
53: 5
54: 5
55: 5
56: 5
57: 5
58: 5
59: 5
60: 5
61: 5
62: 5
63: 5
64: 5
65: 5
edge from: to
66: 0
67: 0
67: 2
67: 4
68: 0
68: 4
68: 7
68: 9
69: 12
70: 13
71: 0
71: 17
72: 19
73: 0
73: 10
73: 22
74: 0
74: 28
75: 31
76: 14
76: 17
76: 35
76: 38
77: 15
77: 41
78: 19
78: 44
79: 21
79: 47
80: 22
80: 51
81: 53
82: 48
82: 50
82: 54
82: 55
83: 56
84: 55
84: 60
85: 57
85: 62
1: 66
2: 66
3: 66
4: 66
5: 67
6: 67
7: 67
8: 67
9: 67
10: 68
11: 68
12: 68
13: 69
14: 70
15: 70
16: 70
17: 70
18: 71
19: 71
20: 72
21: 72
22: 72
23: 73
24: 73
25: 73
26: 73
27: 73
28: 73
29: 74
30: 74
31: 74
32: 75
33: 75
34: 75
35: 75
36: 75
37: 75
38: 75
39: 76
40: 76
41: 76
42: 77
43: 77
44: 77
45: 78
46: 78
47: 78
48: 79
49: 79
50: 79
51: 79
52: 80
53: 80
54: 81
55: 81
56: 82
57: 83
58: 83
59: 83
60: 83
61: 84
62: 84
63: 85
64: 85
65: 85
segment: [3]
vertex id: label
63: 0
64: 4
65: 4
66: 1
67: 0
68: 4
69: 1
70: 0
71: 4
72: 1
73: 0
74: 4
75: 4
76: 1
77: 0
78: 4
79: 1
80: 0
81: 4
82: 1
0: 5
1: 5
2: 5
3: 5
4: 5
5: 5
6: 5
7: 5
8: 5
9: 5
10: 5
11: 5
12: 5
13: 5
14: 5
15: 5
16: 5
17: 5
18: 5
19: 5
20: 5
21: 5
22: 5
23: 5
24: 5
25: 5
26: 5
27: 5
28: 5
29: 5
30: 5
31: 5
32: 5
33: 5
34: 5
35: 5
36: 5
37: 5
38: 5
39: 5
40: 5
41: 5
42: 5
43: 5
44: 5
45: 5
46: 5
47: 5
48: 5
49: 5
50: 5
51: 5
52: 5
53: 5
54: 5
55: 5
56: 5
57: 5
58: 5
59: 5
60: 5
61: 5
62: 5
edge from: to
63: 0
64: 3
64: 6
65: 8
66: 14
67: 7
68: 7
68: 19
69: 22
70: 10
70: 23
71: 28
72: 13
73: 0
73: 30
73: 34
74: 14
74: 38
75: 41
76: 19
76: 40
76: 44
77: 42
77: 46
78: 43
78: 45
78: 49
79: 22
79: 47
79: 51
80: 50
80: 55
81: 41
81: 52
81: 57
82: 56
82: 61
1: 63
2: 63
3: 63
4: 63
5: 63
6: 63
7: 64
8: 64
9: 65
10: 65
11: 65
12: 65
13: 65
14: 65
15: 66
16: 66
17: 67
18: 67
19: 67
20: 68
21: 68
22: 68
23: 69
24: 70
25: 70
26: 70
27: 70
28: 70
29: 71
30: 71
31: 72
32: 72
33: 72
34: 72
35: 73
36: 73
37: 73
38: 73
39: 74
40: 74
41: 74
42: 75
43: 75
44: 75
45: 76
46: 76
47: 77
48: 77
49: 77
50: 78
51: 78
52: 79
53: 79
54: 79
55: 79
56: 80
57: 80
58: 81
59: 81
60: 81
61: 81
62: 82
segment: [4]
vertex id: label
52: 0
53: 4
54: 1
55: 0
56: 4
57: 1
58: 0
59: 4
60: 1
61: 0
62: 4
63: 1
64: 0
65: 4
66: 4
67: 1
68: 0
69: 4
70: 4
71: 1
0: 5
1: 5
2: 5
3: 5
4: 5
5: 5
6: 5
7: 5
8: 5
9: 5
10: 5
11: 5
12: 5
13: 5
14: 5
15: 5
16: 5
17: 5
18: 5
19: 5
20: 5
21: 5
22: 5
23: 5
24: 5
25: 5
26: 5
27: 5
28: 5
29: 5
30: 5
31: 5
32: 5
33: 5
34: 5
35: 5
36: 5
37: 5
38: 5
39: 5
40: 5
41: 5
42: 5
43: 5
44: 5
45: 5
46: 5
47: 5
48: 5
49: 5
50: 5
51: 5
edge from: to
52: 0
52: 1
52: 2
53: 2
53: 5
54: 7
55: 0
55: 9
55: 10
56: 12
57: 15
58: 7
59: 9
59: 20
60: 21
61: 11
62: 0
62: 26
63: 29
64: 31
65: 0
65: 33
66: 26
66: 33
66: 36
67: 40
68: 41
69: 39
69: 43
70: 19
70: 44
71: 44
71: 48
3: 52
4: 52
5: 52
6: 53
7: 53
8: 54
9: 54
10: 54
11: 55
12: 55
13: 56
14: 56
15: 56
16: 57
17: 58
18: 58
19: 58
20: 58
21: 59
22: 60
23: 60
24: 60
25: 60
26: 61
27: 62
28: 62
29: 62
30: 63
31: 63
32: 64
33: 64
34: 65
35: 65
36: 65
37: 66
38: 66
39: 66
40: 66
41: 67
42: 68
43: 68
44: 69
45: 70
46: 70
47: 70
48: 70
49: 71
50: 71
51: 71
segment: [5]
vertex id: label
64: 0
65: 4
66: 1
67: 0
68: 4
69: 4
70: 4
71: 1
72: 4
73: 4
74: 1
75: 4
76: 4
77: 4
78: 4
79: 1
80: 0
81: 4
82: 4
83: 1
0: 5
1: 5
2: 5
3: 5
4: 5
5: 5
6: 5
7: 5
8: 5
9: 5
10: 5
11: 5
12: 5
13: 5
14: 5
15: 5
16: 5
17: 5
18: 5
19: 5
20: 5
21: 5
22: 5
23: 5
24: 5
25: 5
26: 5
27: 5
28: 5
29: 5
30: 5
31: 5
32: 5
33: 5
34: 5
35: 5
36: 5
37: 5
38: 5
39: 5
40: 5
41: 5
42: 5
43: 5
44: 5
45: 5
46: 5
47: 5
48: 5
49: 5
50: 5
51: 5
52: 5
53: 5
54: 5
55: 5
56: 5
57: 5
58: 5
59: 5
60: 5
61: 5
62: 5
63: 5
edge from: to
64: 0
65: 0
65: 1
65: 2
66: 0
66: 2
66: 3
66: 4
67: 0
67: 3
67: 6
67: 8
68: 0
68: 9
68: 10
69: 0
69: 9
69: 11
69: 12
70: 0
70: 14
71: 0
71: 8
71: 18
72: 9
72: 20
73: 21
74: 0
74: 11
74: 25
75: 27
76: 0
76: 34
77: 38
78: 15
78: 38
78: 41
79: 46
80: 44
80: 48
81: 22
81: 51
82: 24
82: 54
83: 59
1: 64
2: 64
3: 65
4: 65
5: 66
6: 66
7: 66
8: 66
9: 67
10: 67
11: 68
12: 68
13: 69
14: 69
15: 70
16: 70
17: 70
18: 70
19: 71
20: 71
21: 72
22: 73
23: 73
24: 73
25: 73
26: 74
27: 74
28: 75
29: 75
30: 75
31: 75
32: 75
33: 75
34: 75
35: 76
36: 76
37: 76
38: 76
39: 77
40: 77
41: 77
42: 78
43: 78
44: 78
45: 78
46: 78
47: 79
48: 79
49: 80
50: 80
51: 80
52: 81
53: 81
54: 81
55: 82
56: 82
57: 82
58: 82
59: 82
60: 83
61: 83
62: 83
63: 83
segment: [6]
vertex id: label
66: 0
67: 4
68: 1
69: 0
70: 4
71: 4
72: 1
73: 0
74: 4
75: 1
76: 0
77: 4
78: 1
79: 0
80: 4
81: 4
82: 4
83: 1
84: 0
85: 4
0: 5
1: 5
2: 5
3: 5
4: 5
5: 5
6: 5
7: 5
8: 5
9: 5
10: 5
11: 5
12: 5
13: 5
14: 5
15: 5
16: 5
17: 5
18: 5
19: 5
20: 5
21: 5
22: 5
23: 5
24: 5
25: 5
26: 5
27: 5
28: 5
29: 5
30: 5
31: 5
32: 5
33: 5
34: 5
35: 5
36: 5
37: 5
38: 5
39: 5
40: 5
41: 5
42: 5
43: 5
44: 5
45: 5
46: 5
47: 5
48: 5
49: 5
50: 5
51: 5
52: 5
53: 5
54: 5
55: 5
56: 5
57: 5
58: 5
59: 5
60: 5
61: 5
62: 5
63: 5
64: 5
65: 5
edge from: to
66: 0
67: 0
67: 1
67: 2
68: 3
68: 8
69: 5
69: 11
70: 0
70: 14
71: 0
71: 15
71: 17
72: 8
72: 18
73: 19
74: 10
75: 0
75: 26
76: 13
77: 0
77: 24
77: 33
78: 16
79: 40
80: 15
80: 38
80: 41
81: 37
81: 38
81: 42
82: 19
82: 40
82: 44
83: 33
83: 42
83: 46
84: 51
84: 56
85: 63
1: 66
3: 67
4: 67
5: 67
6: 67
7: 67
8: 67
9: 68
10: 68
11: 68
12: 69
13: 69
14: 69
15: 70
16: 70
17: 70
18: 71
19: 72
20: 73
21: 73
22: 73
23: 73
24: 74
25: 74
26: 74
27: 75
28: 75
29: 75
30: 75
31: 76
32: 76
33: 76
34: 77
35: 77
36: 77
37: 77
38: 78
39: 78
40: 78
41: 79
42: 80
43: 81
44: 81
45: 82
46: 82
47: 83
48: 83
49: 83
50: 83
51: 83
52: 83
53: 83
54: 83
55: 83
56: 83
57: 84
58: 84
59: 84
60: 84
61: 84
62: 84
63: 84
64: 85
65: 85
segment: [7]
vertex id: label
73: 0
74: 4
75: 1
76: 4
77: 1
78: 0
79: 4
80: 4
81: 1
82: 0
83: 4
84: 4
85: 1
86: 0
87: 4
88: 4
89: 1
90: 0
91: 4
92: 4
0: 5
1: 5
2: 5
3: 5
4: 5
5: 5
6: 5
7: 5
8: 5
9: 5
10: 5
11: 5
12: 5
13: 5
14: 5
15: 5
16: 5
17: 5
18: 5
19: 5
20: 5
21: 5
22: 5
23: 5
24: 5
25: 5
26: 5
27: 5
28: 5
29: 5
30: 5
31: 5
32: 5
33: 5
34: 5
35: 5
36: 5
37: 5
38: 5
39: 5
40: 5
41: 5
42: 5
43: 5
44: 5
45: 5
46: 5
47: 5
48: 5
49: 5
50: 5
51: 5
52: 5
53: 5
54: 5
55: 5
56: 5
57: 5
58: 5
59: 5
60: 5
61: 5
62: 5
63: 5
64: 5
65: 5
66: 5
67: 5
68: 5
69: 5
70: 5
71: 5
72: 5
edge from: to
73: 0
73: 1
73: 2
74: 3
74: 6
75: 4
75: 9
76: 13
77: 0
77: 14
78: 7
78: 15
79: 9
79: 20
80: 22
81: 0
81: 26
82: 13
82: 29
83: 0
83: 30
83: 34
84: 33
84: 36
85: 43
86: 33
86: 41
86: 42
86: 45
86: 46
87: 36
87: 46
87: 50
88: 52
89: 54
90: 57
91: 23
91: 63
92: 61
92: 66
3: 73
4: 73
5: 73
6: 73
7: 74
8: 74
9: 74
10: 75
11: 75
12: 75
13: 75
14: 76
15: 77
16: 78
17: 78
18: 78
19: 78
20: 78
21: 79
22: 79
23: 80
24: 80
25: 80
26: 80
27: 81
28: 81
29: 81
30: 82
31: 82
32: 82
33: 82
34: 82
35: 83
36: 83
37: 84
38: 84
39: 84
40: 84
41: 84
42: 84
43: 84
44: 85
45: 85
46: 85
47: 86
48: 86
49: 86
50: 86
51: 87
52: 87
53: 88
54: 88
55: 89
56: 89
57: 89
58: 90
59: 90
60: 90
61: 90
62: 90
63: 90
64: 91
65: 91
66: 91
67: 92
68: 92
69: 92
70: 92
71: 92
72: 92
segment: [8]
vertex id: label
54: 0
55: 4
56: 4
57: 4
58: 1
59: 0
60: 4
61: 4
62: 4
63: 1
64: 0
65: 4
66: 4
67: 2
68: 1
69: 0
70: 4
71: 4
72: 4
73: 4
0: 5
1: 5
2: 5
3: 5
4: 5
5: 5
6: 5
7: 5
8: 5
9: 5
10: 5
11: 5
12: 5
13: 5
14: 5
15: 5
16: 5
17: 5
18: 5
19: 5
20: 5
21: 5
22: 5
23: 5
24: 5
25: 5
26: 5
27: 5
28: 5
29: 5
30: 5
31: 5
32: 5
33: 5
34: 5
35: 5
36: 5
37: 5
38: 5
39: 5
40: 5
41: 5
42: 5
43: 5
44: 5
45: 5
46: 5
47: 5
48: 5
49: 5
50: 5
51: 5
52: 5
53: 5
edge from: to
54: 0
54: 1
54: 2
55: 0
55: 2
55: 4
56: 5
57: 7
58: 0
58: 10
59: 12
60: 14
61: 0
61: 15
61: 17
62: 9
62: 20
63: 10
63: 22
64: 10
64: 27
65: 13
65: 30
66: 0
66: 32
67: 33
68: 39
69: 15
69: 41
70: 45
71: 46
72: 44
72: 48
73: 19
73: 48
73: 52
3: 54
4: 54
5: 55
6: 56
7: 56
8: 57
9: 57
10: 57
11: 58
12: 58
13: 59
14: 59
15: 60
16: 60
17: 60
18: 61
19: 61
20: 61
21: 62
22: 62
23: 63
24: 63
25: 63
26: 63
27: 63
28: 64
29: 64
30: 64
31: 65
32: 65
33: 66
34: 67
35: 67
36: 67
37: 67
38: 67
39: 67
40: 68
41: 68
42: 69
43: 69
44: 69
45: 69
46: 70
47: 71
48: 71
49: 72
50: 72
51: 72
52: 72
53: 73
segment: [9]
vertex id: label
67: 0
68: 4
69: 4
70: 4
71: 1
72: 0
73: 4
74: 4
75: 1
76: 4
77: 1
78: 0
79: 4
80: 1
81: 0
82: 4
83: 1
84: 0
85: 4
86: 1
0: 5
1: 5
2: 5
3: 5
4: 5
5: 5
6: 5
7: 5
8: 5
9: 5
10: 5
11: 5
12: 5
13: 5
14: 5
15: 5
16: 5
17: 5
18: 5
19: 5
20: 5
21: 5
22: 5
23: 5
24: 5
25: 5
26: 5
27: 5
28: 5
29: 5
30: 5
31: 5
32: 5
33: 5
34: 5
35: 5
36: 5
37: 5
38: 5
39: 5
40: 5
41: 5
42: 5
43: 5
44: 5
45: 5
46: 5
47: 5
48: 5
49: 5
50: 5
51: 5
52: 5
53: 5
54: 5
55: 5
56: 5
57: 5
58: 5
59: 5
60: 5
61: 5
62: 5
63: 5
64: 5
65: 5
66: 5
edge from: to
67: 0
68: 1
68: 3
69: 0
69: 5
69: 7
70: 0
70: 10
71: 15
72: 8
73: 9
73: 20
74: 10
74: 23
75: 24
76: 0
76: 28
77: 31
78: 33
79: 16
79: 37
80: 37
80: 40
81: 46
82: 45
82: 49
83: 49
83: 53
84: 55
85: 25
85: 46
85: 51
85: 53
85: 58
86: 55
86: 57
86: 62
1: 67
2: 67
3: 67
4: 68
5: 68
6: 68
7: 68
8: 69
9: 69
10: 69
11: 70
12: 70
13: 70
14: 70
15: 70
16: 71
17: 71
18: 71
19: 72
20: 72
21: 73
22: 73
23: 73
24: 74
25: 75
26: 75
27: 75
28: 75
29: 76
30: 76
31: 76
32: 77
33: 77
34: 78
35: 78
36: 78
37: 78
38: 79
39: 79
40: 79
41: 80
42: 80
43: 80
44: 80
45: 80
46: 80
47: 81
48: 81
49: 81
50: 82
51: 82
52: 82
53: 82
54: 83
55: 83
56: 84
57: 84
58: 84
59: 85
60: 85
61: 85
62: 85
63: 86
64: 86
65: 86
66: 86
