segment: [0]
vertex id: label
72: 0
73: 1
74: 1
75: 1
76: 1
77: 3
78: 3
79: 3
80: 3
81: 3
82: 3
83: 3
84: 3
85: 3
86: 4
87: 2
88: 0
89: 1
90: 1
91: 1
0: 5
1: 5
2: 5
3: 5
4: 5
5: 5
6: 5
7: 5
8: 5
9: 5
10: 5
11: 5
12: 5
13: 5
14: 5
15: 5
16: 5
17: 5
18: 5
19: 5
20: 5
21: 5
22: 5
23: 5
24: 5
25: 5
26: 5
27: 5
28: 5
29: 5
30: 5
31: 5
32: 5
33: 5
34: 5
35: 5
36: 5
37: 5
38: 5
39: 5
40: 5
41: 5
42: 5
43: 5
44: 5
45: 5
46: 5
47: 5
48: 5
49: 5
50: 5
51: 5
52: 5
53: 5
54: 5
55: 5
56: 5
57: 5
58: 5
59: 5
60: 5
61: 5
62: 5
63: 5
64: 5
65: 5
66: 5
67: 5
68: 5
69: 5
70: 5
71: 5
edge from: to
72: 0
72: 1
72: 2
72: 3
72: 4
73: 4
73: 6
74: 9
74: 10
75: 12
76: 9
77: 7
77: 14
77: 15
77: 17
77: 18
78: 14
78: 22
79: 23
79: 27
80: 21
80: 33
81: 25
81: 28
81: 34
82: 35
83: 43
84: 46
85: 49
86: 44
86: 53
87: 40
87: 46
87: 52
87: 53
87: 54
87: 55
88: 49
88: 59
89: 32
89: 59
89: 60
89: 62
90: 63
91: 34
91: 66
5: 72
6: 72
7: 73
8: 73
9: 73
10: 73
11: 74
12: 74
13: 75
14: 75
15: 75
16: 75
17: 75
18: 76
19: 77
20: 77
21: 77
22: 77
23: 78
24: 78
25: 78
26: 78
27: 78
28: 79
29: 79
30: 79
31: 79
32: 79
33: 79
34: 80
35: 81
36: 82
37: 82
38: 82
39: 82
40: 82
41: 82
42: 82
43: 82
44: 83
45: 83
46: 83
47: 84
48: 84
49: 84
50: 85
51: 85
52: 85
53: 85
54: 86
55: 86
56: 87
57: 87
58: 87
59: 87
60: 88
61: 88
62: 88
63: 89
64: 90
65: 90
66: 90
67: 91
68: 91
69: 91
70: 91
71: 91
segment: [1]
vertex id: label
71: 0
72: 1
73: 3
74: 3
75: 3
76: 0
77: 1
78: 1
79: 3
80: 3
81: 3
82: 3
83: 3
84: 3
85: 1
86: 1
87: 2
88: 2
89: 0
90: 1
0: 5
1: 5
2: 5
3: 5
4: 5
5: 5
6: 5
7: 5
8: 5
9: 5
10: 5
11: 5
12: 5
13: 5
14: 5
15: 5
16: 5
17: 5
18: 5
19: 5
20: 5
21: 5
22: 5
23: 5
24: 5
25: 5
26: 5
27: 5
28: 5
29: 5
30: 5
31: 5
32: 5
33: 5
34: 5
35: 5
36: 5
37: 5
38: 5
39: 5
40: 5
41: 5
42: 5
43: 5
44: 5
45: 5
46: 5
47: 5
48: 5
49: 5
50: 5
51: 5
52: 5
53: 5
54: 5
55: 5
56: 5
57: 5
58: 5
59: 5
60: 5
61: 5
62: 5
63: 5
64: 5
65: 5
66: 5
67: 5
68: 5
69: 5
70: 5
edge from: to
71: 0
71: 1
71: 2
71: 3
71: 4
71: 5
71: 6
72: 12
73: 9
73: 14
74: 13
74: 16
75: 15
75: 18
76: 11
77: 22
77: 26
78: 19
78: 30
79: 26
79: 31
80: 35
81: 33
81: 38
81: 40
82: 35
82: 42
83: 28
83: 37
83: 44
84: 33
84: 45
85: 48
86: 50
87: 53
88: 29
88: 41
88: 53
88: 54
88: 56
89: 51
89: 61
90: 33
90: 64
7: 71
8: 71
9: 71
10: 71
11: 71
12: 71
13: 72
14: 72
15: 73
16: 73
17: 74
18: 74
19: 75
20: 75
21: 75
22: 76
23: 76
24: 76
25: 76
26: 76
27: 77
28: 77
29: 77
30: 77
31: 78
32: 79
33: 79
34: 79
35: 79
36: 80
37: 80
38: 80
39: 80
40: 80
41: 81
42: 81
43: 82
44: 82
45: 83
46: 84
47: 84
48: 84
49: 85
50: 85
51: 86
52: 86
53: 86
54: 87
55: 87
56: 87
57: 88
58: 88
59: 88
60: 88
61: 88
62: 89
63: 89
64: 89
65: 90
66: 90
67: 90
68: 90
69: 90
70: 90
segment: [2]
vertex id: label
57: 0
58: 1
59: 1
60: 1
61: 3
62: 3
63: 4
64: 2
65: 0
66: 1
67: 2
68: 0
69: 1
70: 2
71: 0
72: 1
73: 2
74: 0
75: 1
76: 1
0: 5
1: 5
2: 5
3: 5
4: 5
5: 5
6: 5
7: 5
8: 5
9: 5
10: 5
11: 5
12: 5
13: 5
14: 5
15: 5
16: 5
17: 5
18: 5
19: 5
20: 5
21: 5
22: 5
23: 5
24: 5
25: 5
26: 5
27: 5
28: 5
29: 5
30: 5
31: 5
32: 5
33: 5
34: 5
35: 5
36: 5
37: 5
38: 5
39: 5
40: 5
41: 5
42: 5
43: 5
44: 5
45: 5
46: 5
47: 5
48: 5
49: 5
50: 5
51: 5
52: 5
53: 5
54: 5
55: 5
56: 5
edge from: to
57: 0
57: 1
58: 2
58: 3
59: 4
59: 6
60: 4
60: 6
60: 7
61: 5
62: 6
62: 7
62: 9
63: 7
63: 13
64: 13
64: 16
65: 13
65: 20
66: 22
67: 26
68: 23
68: 27
69: 29
70: 2
70: 17
70: 27
70: 32
71: 31
71: 37
72: 35
72: 42
73: 28
73: 44
74: 38
74: 46
75: 35
75: 40
75: 48
76: 44
76: 50
76: 53
2: 57
3: 57
4: 57
5: 58
6: 58
7: 59
8: 60
9: 60
10: 61
11: 61
12: 62
13: 62
14: 63
15: 63
16: 63
17: 64
18: 64
19: 64
20: 64
21: 65
22: 65
23: 66
24: 66
25: 66
26: 66
27: 67
28: 68
29: 68
30: 69
31: 69
32: 69
33: 70
34: 70
35: 70
36: 70
37: 70
38: 71
39: 71
40: 71
41: 71
42: 71
43: 72
44: 72
45: 73
46: 73
47: 74
48: 74
49: 75
50: 75
51: 75
52: 75
53: 75
54: 76
55: 76
56: 76
segment: [3]
vertex id: label
57: 0
58: 1
59: 1
60: 1
61: 3
62: 3
63: 3
64: 3
65: 3
66: 3
67: 3
68: 3
69: 3
70: 3
71: 3
72: 3
73: 3
74: 3
75: 3
76: 3
0: 5
1: 5
2: 5
3: 5
4: 5
5: 5
6: 5
7: 5
8: 5
9: 5
10: 5
11: 5
12: 5
13: 5
14: 5
15: 5
16: 5
17: 5
18: 5
19: 5
20: 5
21: 5
22: 5
23: 5
24: 5
25: 5
26: 5
27: 5
28: 5
29: 5
30: 5
31: 5
32: 5
33: 5
34: 5
35: 5
36: 5
37: 5
38: 5
39: 5
40: 5
41: 5
42: 5
43: 5
44: 5
45: 5
46: 5
47: 5
48: 5
49: 5
50: 5
51: 5
52: 5
53: 5
54: 5
55: 5
56: 5
edge from: to
57: 0
57: 1
58: 2
59: 6
59: 7
59: 8
60: 9
60: 10
61: 8
61: 10
61: 12
62: 8
62: 15
63: 10
64: 14
64: 18
64: 22
65: 18
65: 20
65: 24
66: 19
66: 22
66: 24
66: 25
66: 26
67: 20
67: 23
67: 27
68: 19
68: 30
69: 21
69: 33
70: 34
71: 37
72: 40
73: 35
73: 42
74: 45
75: 51
76: 44
76: 53
2: 57
3: 57
4: 58
5: 58
6: 58
7: 58
8: 58
9: 59
10: 59
11: 60
12: 60
13: 61
14: 61
15: 61
16: 62
17: 62
18: 62
19: 62
20: 63
21: 63
22: 63
23: 64
24: 64
25: 65
26: 65
27: 66
28: 67
29: 67
30: 67
31: 68
32: 68
33: 68
34: 69
35: 70
36: 70
37: 70
38: 71
39: 71
40: 71
41: 72
42: 72
43: 73
44: 73
45: 73
46: 74
47: 74
48: 74
49: 74
50: 74
51: 74
52: 75
53: 75
54: 76
55: 76
56: 76
segment: [4]
vertex id: label
61: 0
62: 1
63: 1
64: 3
65: 3
66: 3
67: 3
68: 3
69: 3
70: 3
71: 3
72: 1
73: 1
74: 1
75: 1
76: 1
77: 1
78: 1
79: 1
80: 3
0: 5
1: 5
2: 5
3: 5
4: 5
5: 5
6: 5
7: 5
8: 5
9: 5
10: 5
11: 5
12: 5
13: 5
14: 5
15: 5
16: 5
17: 5
18: 5
19: 5
20: 5
21: 5
22: 5
23: 5
24: 5
25: 5
26: 5
27: 5
28: 5
29: 5
30: 5
31: 5
32: 5
33: 5
34: 5
35: 5
36: 5
37: 5
38: 5
39: 5
40: 5
41: 5
42: 5
43: 5
44: 5
45: 5
46: 5
47: 5
48: 5
49: 5
50: 5
51: 5
52: 5
53: 5
54: 5
55: 5
56: 5
57: 5
58: 5
59: 5
60: 5
edge from: to
61: 0
61: 1
62: 2
62: 3
63: 5
64: 6
64: 7
65: 7
66: 9
66: 11
66: 14
67: 13
67: 17
67: 20
68: 24
69: 13
69: 16
70: 18
70: 23
70: 28
71: 24
71: 29
72: 2
72: 21
72: 25
72: 32
72: 33
73: 19
73: 23
73: 30
73: 36
74: 20
74: 28
74: 32
74: 38
75: 26
75: 41
76: 43
77: 38
77: 46
78: 49
78: 50
78: 51
79: 45
79: 51
79: 54
80: 57
2: 61
3: 61
4: 61
5: 62
6: 62
7: 62
8: 62
9: 62
10: 63
11: 63
12: 64
13: 64
14: 65
15: 65
16: 65
17: 65
18: 66
19: 66
20: 66
21: 67
22: 67
23: 67
24: 67
25: 68
26: 69
27: 69
28: 69
29: 70
30: 71
31: 71
32: 71
33: 71
34: 72
35: 72
36: 72
37: 73
38: 73
39: 74
40: 74
41: 74
42: 75
43: 75
44: 76
45: 76
46: 76
47: 77
48: 77
49: 77
50: 77
51: 77
52: 78
53: 78
54: 78
55: 79
56: 79
57: 79
58: 80
59: 80
60: 80
segment: [5]
vertex id: label
63: 0
64: 1
65: 1
66: 3
67: 4
68: 2
69: 0
70: 1
71: 1
72: 3
73: 3
74: 3
75: 3
76: 3
77: 3
78: 3
79: 3
80: 3
81: 3
82: 3
0: 5
1: 5
2: 5
3: 5
4: 5
5: 5
6: 5
7: 5
8: 5
9: 5
10: 5
11: 5
12: 5
13: 5
14: 5
15: 5
16: 5
17: 5
18: 5
19: 5
20: 5
21: 5
22: 5
23: 5
24: 5
25: 5
26: 5
27: 5
28: 5
29: 5
30: 5
31: 5
32: 5
33: 5
34: 5
35: 5
36: 5
37: 5
38: 5
39: 5
40: 5
41: 5
42: 5
43: 5
44: 5
45: 5
46: 5
47: 5
48: 5
49: 5
50: 5
51: 5
52: 5
53: 5
54: 5
55: 5
56: 5
57: 5
58: 5
59: 5
60: 5
61: 5
62: 5
edge from: to
63: 0
64: 2
64: 3
65: 3
65: 4
65: 5
66: 6
67: 7
68: 8
68: 15
69: 9
69: 11
70: 20
71: 20
71: 24
72: 13
72: 16
73: 30
74: 21
74: 33
75: 29
75: 35
76: 26
76: 34
76: 41
77: 45
78: 39
78: 44
78: 45
78: 47
79: 49
79: 50
79: 51
80: 40
80: 46
80: 52
80: 55
81: 30
81: 36
81: 57
82: 31
1: 63
2: 63
3: 63
4: 64
5: 64
6: 65
7: 65
8: 65
9: 65
10: 65
11: 65
12: 66
13: 66
14: 67
15: 67
16: 68
17: 68
18: 69
19: 69
20: 69
21: 70
22: 70
23: 70
24: 70
25: 71
26: 72
27: 72
28: 72
29: 72
30: 72
31: 73
32: 73
33: 73
34: 74
35: 74
36: 75
37: 75
38: 75
39: 75
40: 75
41: 75
42: 76
43: 76
44: 76
45: 76
46: 77
47: 77
48: 78
49: 78
50: 78
51: 78
52: 79
53: 79
54: 79
55: 79
56: 80
57: 80
58: 81
59: 81
60: 81
61: 82
62: 82
segment: [6]
vertex id: label
58: 0
59: 1
60: 1
61: 1
62: 1
63: 2
64: 2
65: 0
66: 1
67: 1
68: 1
69: 1
70: 3
71: 3
72: 3
73: 3
74: 3
75: 4
76: 2
77: 2
0: 5
1: 5
2: 5
3: 5
4: 5
5: 5
6: 5
7: 5
8: 5
9: 5
10: 5
11: 5
12: 5
13: 5
14: 5
15: 5
16: 5
17: 5
18: 5
19: 5
20: 5
21: 5
22: 5
23: 5
24: 5
25: 5
26: 5
27: 5
28: 5
29: 5
30: 5
31: 5
32: 5
33: 5
34: 5
35: 5
36: 5
37: 5
38: 5
39: 5
40: 5
41: 5
42: 5
43: 5
44: 5
45: 5
46: 5
47: 5
48: 5
49: 5
50: 5
51: 5
52: 5
53: 5
54: 5
55: 5
56: 5
57: 5
edge from: to
58: 0
58: 1
59: 1
60: 2
60: 3
61: 3
61: 5
62: 2
62: 3
62: 4
62: 5
62: 6
63: 5
64: 6
64: 7
64: 9
65: 8
65: 15
66: 15
66: 18
67: 11
67: 21
68: 13
68: 16
69: 24
69: 29
70: 26
70: 31
71: 2
71: 21
71: 33
72: 36
73: 28
73: 32
73: 38
74: 32
74: 35
74: 40
74: 41
74: 42
75: 33
75: 45
76: 49
76: 51
77: 45
77: 54
2: 58
3: 59
4: 60
5: 60
6: 61
7: 62
8: 62
9: 62
10: 63
11: 63
12: 64
13: 64
14: 64
15: 64
16: 65
17: 65
18: 65
19: 66
20: 66
21: 66
22: 67
23: 67
24: 67
25: 67
26: 68
27: 68
28: 68
29: 68
30: 69
31: 69
32: 70
33: 70
34: 71
35: 71
36: 71
37: 72
38: 72
39: 73
40: 73
41: 73
42: 73
43: 74
44: 74
45: 74
46: 75
47: 75
48: 75
49: 75
50: 75
51: 75
52: 76
53: 76
54: 76
55: 77
56: 77
57: 77
segment: [7]
vertex id: label
62: 0
63: 1
64: 1
65: 1
66: 1
67: 1
68: 1
69: 2
70: 3
71: 3
72: 3
73: 3
74: 3
75: 3
76: 3
77: 3
78: 4
79: 3
80: 3
81: 4
0: 5
1: 5
2: 5
3: 5
4: 5
5: 5
6: 5
7: 5
8: 5
9: 5
10: 5
11: 5
12: 5
13: 5
14: 5
15: 5
16: 5
17: 5
18: 5
19: 5
20: 5
21: 5
22: 5
23: 5
24: 5
25: 5
26: 5
27: 5
28: 5
29: 5
30: 5
31: 5
32: 5
33: 5
34: 5
35: 5
36: 5
37: 5
38: 5
39: 5
40: 5
41: 5
42: 5
43: 5
44: 5
45: 5
46: 5
47: 5
48: 5
49: 5
50: 5
51: 5
52: 5
53: 5
54: 5
55: 5
56: 5
57: 5
58: 5
59: 5
60: 5
61: 5
edge from: to
62: 0
63: 4
63: 6
63: 7
64: 14
65: 12
65: 13
65: 16
66: 10
66: 19
67: 22
68: 20
68: 24
69: 23
69: 27
70: 21
70: 33
71: 35
72: 37
72: 38
72: 39
73: 40
74: 36
74: 43
75: 28
75: 44
76: 39
76: 47
77: 31
77: 49
78: 49
78: 51
79: 53
80: 29
81: 49
81: 59
1: 62
2: 62
3: 62
4: 62
5: 62
6: 62
7: 62
8: 63
9: 63
10: 63
11: 63
12: 63
13: 63
14: 63
15: 64
16: 64
17: 65
18: 65
19: 65
20: 66
21: 66
22: 66
23: 67
24: 67
25: 68
26: 68
27: 68
28: 69
29: 69
30: 69
31: 69
32: 69
33: 69
34: 70
35: 70
36: 71
37: 71
38: 71
39: 71
40: 72
41: 73
42: 73
43: 73
44: 74
45: 75
46: 75
47: 75
48: 76
49: 76
50: 77
51: 77
52: 78
53: 78
54: 79
55: 79
56: 79
57: 80
58: 80
59: 80
60: 81
61: 81
segment: [8]
vertex id: label
65: 0
66: 1
67: 3
68: 3
69: 1
70: 2
71: 2
72: 0
73: 1
74: 1
75: 1
76: 1
77: 1
78: 2
79: 3
80: 3
81: 3
82: 3
83: 3
84: 3
0: 5
1: 5
2: 5
3: 5
4: 5
5: 5
6: 5
7: 5
8: 5
9: 5
10: 5
11: 5
12: 5
13: 5
14: 5
15: 5
16: 5
17: 5
18: 5
19: 5
20: 5
21: 5
22: 5
23: 5
24: 5
25: 5
26: 5
27: 5
28: 5
29: 5
30: 5
31: 5
32: 5
33: 5
34: 5
35: 5
36: 5
37: 5
38: 5
39: 5
40: 5
41: 5
42: 5
43: 5
44: 5
45: 5
46: 5
47: 5
48: 5
49: 5
50: 5
51: 5
52: 5
53: 5
54: 5
55: 5
56: 5
57: 5
58: 5
59: 5
60: 5
61: 5
62: 5
63: 5
64: 5
edge from: to
65: 0
65: 1
66: 2
66: 3
67: 8
68: 8
68: 12
69: 13
69: 16
70: 13
70: 20
71: 13
71: 16
72: 18
72: 28
73: 27
73: 32
74: 33
75: 25
75: 28
75: 34
76: 31
76: 37
77: 38
78: 41
79: 33
79: 45
80: 31
80: 41
80: 49
81: 44
81: 53
82: 54
83: 29
83: 56
84: 31
2: 65
3: 65
4: 65
5: 66
6: 66
7: 66
8: 66
9: 67
10: 67
11: 67
12: 67
13: 68
14: 68
15: 68
16: 68
17: 69
18: 69
19: 69
20: 69
21: 70
22: 70
23: 70
24: 70
25: 70
26: 71
27: 71
28: 71
29: 72
30: 72
31: 72
32: 72
33: 73
34: 74
35: 75
36: 75
37: 75
38: 76
39: 77
40: 77
41: 77
42: 78
43: 78
44: 78
45: 78
46: 79
47: 79
48: 79
49: 79
50: 80
51: 80
52: 80
53: 80
54: 81
55: 82
56: 82
57: 83
58: 83
59: 83
60: 83
61: 84
62: 84
63: 84
64: 84
segment: [9]
vertex id: label
58: 0
59: 1
60: 1
61: 2
62: 3
63: 4
64: 2
65: 0
66: 1
67: 3
68: 3
69: 3
70: 3
71: 3
72: 3
73: 3
74: 3
75: 3
76: 3
77: 3
0: 5
1: 5
2: 5
3: 5
4: 5
5: 5
6: 5
7: 5
8: 5
9: 5
10: 5
11: 5
12: 5
13: 5
14: 5
15: 5
16: 5
17: 5
18: 5
19: 5
20: 5
21: 5
22: 5
23: 5
24: 5
25: 5
26: 5
27: 5
28: 5
29: 5
30: 5
31: 5
32: 5
33: 5
34: 5
35: 5
36: 5
37: 5
38: 5
39: 5
40: 5
41: 5
42: 5
43: 5
44: 5
45: 5
46: 5
47: 5
48: 5
49: 5
50: 5
51: 5
52: 5
53: 5
54: 5
55: 5
56: 5
57: 5
edge from: to
58: 0
58: 1
58: 2
58: 3
58: 4
58: 5
59: 4
59: 5
59: 6
59: 7
60: 7
60: 8
61: 9
61: 10
62: 6
63: 7
64: 14
65: 8
65: 15
66: 9
67: 14
67: 18
67: 22
68: 12
68: 23
69: 22
69: 26
70: 24
70: 27
70: 29
71: 32
72: 28
72: 34
73: 32
73: 38
74: 35
74: 40
74: 42
75: 28
75: 37
75: 44
76: 48
76: 50
77: 45
77: 54
6: 58
7: 58
8: 59
9: 60
10: 60
11: 61
12: 62
13: 62
14: 63
15: 64
16: 65
17: 65
18: 66
19: 66
20: 66
21: 66
22: 66
23: 67
24: 68
25: 68
26: 68
27: 69
28: 69
29: 69
30: 70
31: 70
32: 70
33: 71
34: 71
35: 72
36: 72
37: 72
38: 72
39: 73
40: 73
41: 73
42: 73
43: 74
44: 74
45: 75
46: 75
47: 75
48: 75
49: 75
50: 75
51: 76
52: 76
53: 76
54: 76
55: 77
56: 77
57: 77
