segment: [0]
vertex id: label
68: 0
69: 3
70: 3
71: 3
72: 2
73: 4
74: 2
75: 2
76: 2
77: 0
78: 0
79: 4
80: 1
81: 3
82: 2
83: 2
84: 4
85: 2
86: 2
87: 2
0: 5
1: 5
2: 5
3: 5
4: 5
5: 5
6: 5
7: 5
8: 5
9: 5
10: 5
11: 5
12: 5
13: 5
14: 5
15: 5
16: 5
17: 5
18: 5
19: 5
20: 5
21: 5
22: 5
23: 5
24: 5
25: 5
26: 5
27: 5
28: 5
29: 5
30: 5
31: 5
32: 5
33: 5
34: 5
35: 5
36: 5
37: 5
38: 5
39: 5
40: 5
41: 5
42: 5
43: 5
44: 5
45: 5
46: 5
47: 5
48: 5
49: 5
50: 5
51: 5
52: 5
53: 5
54: 5
55: 5
56: 5
57: 5
58: 5
59: 5
60: 5
61: 5
62: 5
63: 5
64: 5
65: 5
66: 5
67: 5
edge from: to
68: 0
68: 1
69: 1
69: 2
70: 1
70: 2
70: 3
70: 5
71: 5
71: 8
72: 14
73: 18
74: 14
75: 8
75: 25
76: 28
76: 30
77: 31
77: 32
78: 34
79: 39
79: 41
79: 42
80: 38
80: 40
80: 42
80: 43
81: 26
82: 48
83: 47
83: 50
84: 51
84: 53
85: 55
85: 57
86: 63
87: 57
87: 58
87: 62
87: 64
87: 65
87: 66
2: 68
3: 69
4: 69
5: 69
6: 70
7: 70
8: 70
9: 71
10: 71
11: 71
12: 71
13: 71
14: 71
15: 72
16: 72
17: 72
18: 72
19: 73
20: 73
21: 73
22: 73
23: 73
24: 73
25: 74
26: 75
27: 75
28: 75
29: 75
30: 75
31: 76
32: 76
33: 77
34: 77
35: 78
36: 78
37: 78
38: 78
39: 78
40: 78
41: 78
42: 78
43: 79
44: 80
45: 80
46: 81
47: 81
48: 81
49: 82
50: 82
51: 83
52: 83
53: 83
54: 84
55: 84
56: 84
57: 84
58: 85
59: 85
60: 85
61: 85
62: 85
63: 85
64: 86
65: 86
66: 86
67: 87
segment: [1]
vertex id: label
57: 0
58: 4
59: 1
60: 0
61: 0
62: 4
63: 2
64: 2
65: 4
66: 2
67: 2
68: 2
69: 2
70: 2
71: 2
72: 2
73: 2
74: 2
75: 2
76: 2
0: 5
1: 5
2: 5
3: 5
4: 5
5: 5
6: 5
7: 5
8: 5
9: 5
10: 5
11: 5
12: 5
13: 5
14: 5
15: 5
16: 5
17: 5
18: 5
19: 5
20: 5
21: 5
22: 5
23: 5
24: 5
25: 5
26: 5
27: 5
28: 5
29: 5
30: 5
31: 5
32: 5
33: 5
34: 5
35: 5
36: 5
37: 5
38: 5
39: 5
40: 5
41: 5
42: 5
43: 5
44: 5
45: 5
46: 5
47: 5
48: 5
49: 5
50: 5
51: 5
52: 5
53: 5
54: 5
55: 5
56: 5
edge from: to
57: 0
57: 1
57: 2
57: 3
57: 4
58: 6
58: 7
59: 9
60: 7
61: 13
61: 14
62: 16
63: 6
63: 11
63: 19
64: 18
64: 20
65: 23
66: 15
66: 23
66: 25
66: 26
67: 28
67: 29
67: 30
68: 30
68: 33
68: 34
69: 36
70: 22
71: 41
72: 40
72: 42
72: 43
73: 26
74: 47
74: 48
74: 49
75: 16
75: 51
76: 51
76: 53
5: 57
6: 57
7: 57
8: 58
9: 58
10: 59
11: 59
12: 59
13: 60
14: 60
15: 61
16: 61
17: 62
18: 62
19: 62
20: 63
21: 64
22: 64
23: 64
24: 65
25: 65
26: 65
27: 66
28: 66
29: 66
30: 66
31: 67
32: 67
33: 67
34: 67
35: 68
36: 68
37: 69
38: 69
39: 70
40: 70
41: 70
42: 71
43: 71
44: 72
45: 72
46: 73
47: 73
48: 73
49: 73
50: 74
51: 74
52: 75
53: 75
54: 76
55: 76
56: 76
segment: [2]
vertex id: label
69: 0
70: 4
71: 2
72: 2
73: 2
74: 4
75: 2
76: 2
77: 2
78: 0
79: 0
80: 4
81: 2
82: 4
83: 2
84: 2
85: 2
86: 0
87: 3
88: 3
0: 5
1: 5
2: 5
3: 5
4: 5
5: 5
6: 5
7: 5
8: 5
9: 5
10: 5
11: 5
12: 5
13: 5
14: 5
15: 5
16: 5
17: 5
18: 5
19: 5
20: 5
21: 5
22: 5
23: 5
24: 5
25: 5
26: 5
27: 5
28: 5
29: 5
30: 5
31: 5
32: 5
33: 5
34: 5
35: 5
36: 5
37: 5
38: 5
39: 5
40: 5
41: 5
42: 5
43: 5
44: 5
45: 5
46: 5
47: 5
48: 5
49: 5
50: 5
51: 5
52: 5
53: 5
54: 5
55: 5
56: 5
57: 5
58: 5
59: 5
60: 5
61: 5
62: 5
63: 5
64: 5
65: 5
66: 5
67: 5
68: 5
edge from: to
69: 0
69: 1
70: 3
71: 5
71: 7
71: 8
72: 0
72: 6
72: 9
72: 10
73: 4
73: 7
73: 8
73: 9
73: 11
73: 12
74: 10
74: 15
74: 17
75: 11
76: 19
76: 20
76: 21
77: 14
77: 22
77: 24
78: 24
78: 26
78: 27
79: 19
79: 32
79: 33
80: 34
80: 35
80: 36
81: 39
81: 41
81: 42
82: 44
82: 46
83: 51
84: 53
84: 54
84: 55
85: 56
86: 52
86: 56
86: 58
86: 59
87: 56
87: 60
87: 61
87: 62
87: 63
88: 14
88: 57
88: 61
88: 65
2: 69
3: 69
4: 69
5: 69
6: 70
7: 70
8: 70
9: 71
10: 71
11: 72
12: 72
13: 73
14: 73
15: 73
16: 73
17: 73
18: 74
19: 74
20: 75
21: 75
22: 76
23: 76
24: 76
25: 77
26: 77
27: 77
28: 78
29: 78
30: 78
31: 78
32: 78
33: 78
34: 79
35: 79
36: 79
37: 80
38: 80
39: 80
40: 80
41: 80
42: 80
43: 81
44: 81
45: 81
46: 81
47: 82
48: 82
49: 82
50: 82
51: 82
52: 83
53: 83
54: 83
55: 83
56: 84
57: 85
58: 85
59: 85
60: 86
61: 86
62: 86
63: 86
64: 87
65: 87
66: 88
67: 88
68: 88
segment: [3]
vertex id: label
51: 0
52: 3
53: 3
54: 3
55: 4
56: 1
57: 0
58: 0
59: 4
60: 2
61: 2
62: 2
63: 2
64: 2
65: 2
66: 2
67: 2
68: 2
69: 4
70: 2
0: 5
1: 5
2: 5
3: 5
4: 5
5: 5
6: 5
7: 5
8: 5
9: 5
10: 5
11: 5
12: 5
13: 5
14: 5
15: 5
16: 5
17: 5
18: 5
19: 5
20: 5
21: 5
22: 5
23: 5
24: 5
25: 5
26: 5
27: 5
28: 5
29: 5
30: 5
31: 5
32: 5
33: 5
34: 5
35: 5
36: 5
37: 5
38: 5
39: 5
40: 5
41: 5
42: 5
43: 5
44: 5
45: 5
46: 5
47: 5
48: 5
49: 5
50: 5
edge from: to
51: 0
51: 1
51: 2
52: 2
53: 1
53: 2
53: 3
53: 5
54: 6
54: 7
55: 3
55: 8
55: 9
56: 4
56: 8
56: 10
56: 11
57: 16
58: 4
58: 16
58: 18
59: 18
59: 20
60: 23
61: 25
62: 25
62: 26
62: 28
63: 18
64: 34
64: 35
64: 36
65: 39
66: 42
67: 40
67: 43
68: 26
68: 45
69: 27
70: 48
3: 51
4: 52
5: 52
6: 53
7: 53
8: 54
9: 54
10: 55
11: 55
12: 56
13: 56
14: 56
15: 56
16: 56
17: 57
18: 57
19: 58
20: 58
21: 59
22: 59
23: 59
24: 60
25: 60
26: 61
27: 61
28: 61
29: 62
30: 62
31: 62
32: 63
33: 63
34: 63
35: 63
36: 63
37: 64
38: 64
39: 64
40: 65
41: 65
42: 65
43: 66
44: 67
45: 67
46: 68
47: 68
48: 69
49: 70
50: 70
segment: [4]
vertex id: label
54: 0
55: 4
56: 1
57: 3
58: 3
59: 4
60: 1
61: 0
62: 4
63: 2
64: 4
65: 2
66: 2
67: 4
68: 1
69: 3
70: 3
71: 4
72: 2
73: 4
0: 5
1: 5
2: 5
3: 5
4: 5
5: 5
6: 5
7: 5
8: 5
9: 5
10: 5
11: 5
12: 5
13: 5
14: 5
15: 5
16: 5
17: 5
18: 5
19: 5
20: 5
21: 5
22: 5
23: 5
24: 5
25: 5
26: 5
27: 5
28: 5
29: 5
30: 5
31: 5
32: 5
33: 5
34: 5
35: 5
36: 5
37: 5
38: 5
39: 5
40: 5
41: 5
42: 5
43: 5
44: 5
45: 5
46: 5
47: 5
48: 5
49: 5
50: 5
51: 5
52: 5
53: 5
edge from: to
54: 0
55: 3
55: 5
56: 5
57: 6
57: 10
58: 4
58: 7
58: 12
59: 14
60: 16
61: 10
62: 7
62: 13
63: 23
64: 15
65: 26
65: 28
66: 18
67: 33
67: 34
68: 23
68: 40
69: 41
70: 38
70: 40
70: 41
70: 42
70: 43
71: 46
72: 48
73: 16
73: 48
73: 51
1: 54
2: 54
3: 54
4: 54
5: 54
6: 55
7: 55
8: 55
9: 56
10: 56
11: 57
12: 57
13: 58
14: 58
15: 59
16: 59
17: 60
18: 61
19: 61
20: 61
21: 61
22: 61
23: 62
24: 63
25: 63
26: 63
27: 64
28: 64
29: 65
30: 65
31: 65
32: 66
33: 66
34: 66
35: 67
36: 67
37: 67
38: 67
39: 67
40: 67
41: 68
42: 69
43: 69
44: 70
45: 70
46: 70
47: 71
48: 71
49: 72
50: 72
51: 72
52: 73
53: 73
