segment: [0]
vertex id: label
62: 0
63: 2
64: 1
65: 2
66: 1
67: 2
68: 1
69: 2
70: 1
71: 2
72: 1
73: 2
74: 1
75: 2
76: 1
77: 2
78: 1
79: 2
80: 1
81: 2
0: 5
1: 5
2: 5
3: 5
4: 5
5: 5
6: 5
7: 5
8: 5
9: 5
10: 5
11: 5
12: 5
13: 5
14: 5
15: 5
16: 5
17: 5
18: 5
19: 5
20: 5
21: 5
22: 5
23: 5
24: 5
25: 5
26: 5
27: 5
28: 5
29: 5
30: 5
31: 5
32: 5
33: 5
34: 5
35: 5
36: 5
37: 5
38: 5
39: 5
40: 5
41: 5
42: 5
43: 5
44: 5
45: 5
46: 5
47: 5
48: 5
49: 5
50: 5
51: 5
52: 5
53: 5
54: 5
55: 5
56: 5
57: 5
58: 5
59: 5
60: 5
61: 5
edge from: to
62: 0
62: 1
62: 2
63: 4
63: 6
64: 7
64: 10
65: 13
66: 15
66: 17
67: 14
68: 17
68: 20
68: 21
68: 22
69: 16
69: 23
69: 24
70: 24
70: 25
71: 25
71: 28
72: 2
72: 19
72: 26
72: 29
73: 31
73: 33
74: 25
74: 38
75: 41
75: 42
76: 44
76: 45
76: 46
76: 47
77: 47
77: 48
78: 32
78: 46
78: 48
78: 49
79: 51
80: 54
80: 55
81: 57
81: 58
3: 62
4: 62
5: 62
6: 62
7: 63
8: 63
9: 63
10: 63
11: 64
12: 64
13: 64
14: 65
15: 65
16: 65
17: 65
18: 66
19: 66
20: 66
21: 66
22: 67
23: 68
24: 68
25: 69
26: 70
27: 70
28: 70
29: 71
30: 72
31: 72
32: 72
33: 72
34: 73
35: 73
36: 73
37: 73
38: 73
39: 74
40: 74
41: 74
42: 74
43: 75
44: 75
45: 75
46: 75
47: 75
48: 76
49: 77
50: 78
51: 78
52: 79
53: 79
54: 79
55: 79
56: 80
57: 80
58: 80
59: 81
60: 81
61: 81
segment: [1]
vertex id: label
57: 0
58: 4
59: 0
60: 2
61: 1
62: 2
63: 1
64: 2
65: 1
66: 2
67: 1
68: 2
69: 1
70: 2
71: 1
72: 2
73: 1
74: 2
75: 1
76: 2
0: 5
1: 5
2: 5
3: 5
4: 5
5: 5
6: 5
7: 5
8: 5
9: 5
10: 5
11: 5
12: 5
13: 5
14: 5
15: 5
16: 5
17: 5
18: 5
19: 5
20: 5
21: 5
22: 5
23: 5
24: 5
25: 5
26: 5
27: 5
28: 5
29: 5
30: 5
31: 5
32: 5
33: 5
34: 5
35: 5
36: 5
37: 5
38: 5
39: 5
40: 5
41: 5
42: 5
43: 5
44: 5
45: 5
46: 5
47: 5
48: 5
49: 5
50: 5
51: 5
52: 5
53: 5
54: 5
55: 5
56: 5
edge from: to
57: 0
57: 1
57: 2
57: 3
58: 5
59: 3
59: 8
60: 8
60: 9
60: 11
60: 12
61: 1
61: 11
61: 12
61: 14
62: 6
62: 14
62: 16
63: 20
64: 16
64: 24
65: 19
65: 24
65: 25
66: 24
66: 27
67: 31
68: 21
68: 30
68: 32
69: 33
70: 33
70: 34
70: 36
71: 39
72: 44
73: 46
73: 47
74: 47
74: 48
75: 50
75: 51
76: 20
76: 49
76: 53
76: 54
4: 57
5: 57
6: 58
7: 58
8: 58
9: 59
10: 59
11: 59
12: 59
13: 60
14: 60
15: 61
16: 61
17: 62
18: 62
19: 62
20: 62
21: 63
22: 63
23: 63
24: 63
25: 64
26: 65
27: 65
28: 66
29: 66
30: 66
31: 66
32: 67
33: 68
34: 69
35: 69
36: 69
37: 70
38: 70
39: 70
40: 71
41: 71
42: 71
43: 71
44: 71
45: 72
46: 72
47: 72
48: 73
49: 74
50: 74
51: 74
52: 75
53: 75
54: 75
55: 76
56: 76
segment: [2]
vertex id: label
61: 0
62: 2
63: 1
64: 2
65: 1
66: 2
67: 1
68: 2
69: 1
70: 2
71: 1
72: 2
73: 1
74: 2
75: 1
76: 2
77: 1
78: 2
79: 1
80: 2
0: 5
1: 5
2: 5
3: 5
4: 5
5: 5
6: 5
7: 5
8: 5
9: 5
10: 5
11: 5
12: 5
13: 5
14: 5
15: 5
16: 5
17: 5
18: 5
19: 5
20: 5
21: 5
22: 5
23: 5
24: 5
25: 5
26: 5
27: 5
28: 5
29: 5
30: 5
31: 5
32: 5
33: 5
34: 5
35: 5
36: 5
37: 5
38: 5
39: 5
40: 5
41: 5
42: 5
43: 5
44: 5
45: 5
46: 5
47: 5
48: 5
49: 5
50: 5
51: 5
52: 5
53: 5
54: 5
55: 5
56: 5
57: 5
58: 5
59: 5
60: 5
edge from: to
61: 0
62: 2
62: 3
63: 4
63: 6
64: 6
64: 9
65: 5
65: 11
65: 13
66: 10
66: 15
67: 12
67: 18
68: 21
68: 22
69: 17
69: 26
70: 28
70: 30
71: 29
71: 31
72: 34
73: 35
73: 37
74: 37
74: 41
75: 44
76: 45
76: 47
76: 48
77: 51
78: 52
78: 53
79: 56
80: 59
1: 61
2: 61
3: 61
4: 62
5: 62
6: 62
7: 63
8: 63
9: 63
10: 64
11: 64
12: 64
13: 64
14: 65
15: 65
16: 66
17: 66
18: 66
19: 67
20: 67
21: 67
22: 67
23: 68
24: 68
25: 68
26: 68
27: 69
28: 69
29: 69
30: 69
31: 70
32: 71
33: 71
34: 71
35: 72
36: 72
37: 72
38: 73
39: 73
40: 73
41: 73
42: 74
43: 74
44: 74
45: 75
46: 75
47: 75
48: 75
49: 76
50: 76
51: 76
52: 77
53: 77
54: 78
55: 78
56: 78
57: 79
58: 79
59: 79
60: 80
segment: [3]
vertex id: label
57: 0
58: 2
59: 1
60: 2
61: 1
62: 2
63: 1
64: 2
65: 1
66: 2
67: 1
68: 2
69: 1
70: 2
71: 1
72: 2
73: 1
74: 2
75: 1
76: 2
0: 5
1: 5
2: 5
3: 5
4: 5
5: 5
6: 5
7: 5
8: 5
9: 5
10: 5
11: 5
12: 5
13: 5
14: 5
15: 5
16: 5
17: 5
18: 5
19: 5
20: 5
21: 5
22: 5
23: 5
24: 5
25: 5
26: 5
27: 5
28: 5
29: 5
30: 5
31: 5
32: 5
33: 5
34: 5
35: 5
36: 5
37: 5
38: 5
39: 5
40: 5
41: 5
42: 5
43: 5
44: 5
45: 5
46: 5
47: 5
48: 5
49: 5
50: 5
51: 5
52: 5
53: 5
54: 5
55: 5
56: 5
edge from: to
57: 0
58: 2
59: 5
60: 4
61: 3
61: 8
62: 6
63: 3
63: 9
63: 10
63: 11
64: 14
64: 16
65: 14
65: 20
65: 21
66: 15
66: 22
66: 23
67: 27
68: 19
69: 30
70: 30
70: 31
70: 33
71: 32
71: 34
72: 35
72: 37
73: 28
74: 30
74: 45
75: 50
76: 53
76: 54
1: 57
2: 57
3: 58
4: 58
5: 58
6: 59
7: 60
8: 60
9: 61
10: 62
11: 62
12: 63
13: 63
14: 63
15: 63
16: 63
17: 64
18: 64
19: 64
20: 64
21: 64
22: 65
23: 65
24: 66
25: 66
26: 66
27: 66
28: 67
29: 67
30: 68
31: 69
32: 69
33: 69
34: 70
35: 71
36: 71
37: 71
38: 72
39: 72
40: 72
41: 72
42: 72
43: 72
44: 73
45: 73
46: 73
47: 74
48: 74
49: 74
50: 74
51: 75
52: 75
53: 75
54: 75
55: 76
56: 76
segment: [4]
vertex id: label
60: 0
61: 4
62: 0
63: 4
64: 0
65: 2
66: 1
67: 2
68: 1
69: 2
70: 1
71: 2
72: 1
73: 2
74: 1
75: 2
76: 1
77: 2
78: 1
79: 2
0: 5
1: 5
2: 5
3: 5
4: 5
5: 5
6: 5
7: 5
8: 5
9: 5
10: 5
11: 5
12: 5
13: 5
14: 5
15: 5
16: 5
17: 5
18: 5
19: 5
20: 5
21: 5
22: 5
23: 5
24: 5
25: 5
26: 5
27: 5
28: 5
29: 5
30: 5
31: 5
32: 5
33: 5
34: 5
35: 5
36: 5
37: 5
38: 5
39: 5
40: 5
41: 5
42: 5
43: 5
44: 5
45: 5
46: 5
47: 5
48: 5
49: 5
50: 5
51: 5
52: 5
53: 5
54: 5
55: 5
56: 5
57: 5
58: 5
59: 5
edge from: to
60: 0
61: 0
61: 1
61: 2
61: 3
62: 4
62: 5
62: 6
63: 6
63: 9
64: 9
64: 10
64: 11
65: 1
65: 11
65: 12
65: 13
65: 14
66: 17
67: 19
67: 20
68: 15
69: 17
69: 26
70: 19
70: 29
71: 23
71: 33
71: 35
72: 35
72: 37
73: 25
73: 38
74: 41
75: 44
76: 44
76: 46
76: 47
77: 34
77: 51
78: 51
78: 52
78: 54
78: 55
79: 57
79: 58
1: 60
2: 60
3: 60
4: 61
5: 61
6: 61
7: 62
8: 62
9: 62
10: 63
11: 63
12: 64
13: 64
14: 64
15: 65
16: 65
17: 65
18: 66
19: 66
20: 66
21: 67
22: 67
23: 67
24: 68
25: 68
26: 68
27: 69
28: 69
29: 69
30: 70
31: 70
32: 70
33: 70
34: 70
35: 70
36: 71
37: 71
38: 72
39: 73
40: 73
41: 73
42: 74
43: 74
44: 74
45: 75
46: 75
47: 75
48: 76
49: 76
50: 76
51: 76
52: 76
53: 77
54: 77
55: 77
56: 78
57: 78
58: 78
59: 79
segment: [5]
vertex id: label
65: 0
66: 2
67: 1
68: 2
69: 1
70: 2
71: 1
72: 2
73: 1
74: 2
75: 1
76: 2
77: 1
78: 2
79: 1
80: 2
81: 1
82: 2
83: 1
84: 2
0: 5
1: 5
2: 5
3: 5
4: 5
5: 5
6: 5
7: 5
8: 5
9: 5
10: 5
11: 5
12: 5
13: 5
14: 5
15: 5
16: 5
17: 5
18: 5
19: 5
20: 5
21: 5
22: 5
23: 5
24: 5
25: 5
26: 5
27: 5
28: 5
29: 5
30: 5
31: 5
32: 5
33: 5
34: 5
35: 5
36: 5
37: 5
38: 5
39: 5
40: 5
41: 5
42: 5
43: 5
44: 5
45: 5
46: 5
47: 5
48: 5
49: 5
50: 5
51: 5
52: 5
53: 5
54: 5
55: 5
56: 5
57: 5
58: 5
59: 5
60: 5
61: 5
62: 5
63: 5
64: 5
edge from: to
65: 0
65: 1
66: 1
66: 3
67: 4
67: 5
67: 6
68: 3
68: 8
69: 11
69: 13
70: 12
71: 19
72: 15
72: 23
73: 17
73: 26
74: 24
74: 25
74: 26
74: 28
75: 34
76: 23
76: 35
77: 25
78: 26
78: 38
78: 40
79: 44
80: 44
80: 46
80: 47
81: 50
81: 51
82: 54
83: 56
84: 39
84: 59
2: 65
3: 65
4: 65
5: 66
6: 66
7: 67
8: 67
9: 68
10: 68
11: 68
12: 68
13: 68
14: 69
15: 69
16: 69
17: 69
18: 69
19: 70
20: 71
21: 71
22: 71
23: 71
24: 72
25: 72
26: 72
27: 73
28: 73
29: 74
30: 74
31: 74
32: 74
33: 74
34: 74
35: 75
36: 76
37: 76
38: 76
39: 77
40: 77
41: 78
42: 78
43: 78
44: 78
45: 79
46: 79
47: 79
48: 80
49: 80
50: 80
51: 80
52: 81
53: 81
54: 81
55: 82
56: 82
57: 83
58: 83
59: 83
60: 83
61: 84
62: 84
63: 84
64: 84
segment: [6]
vertex id: label
65: 0
66: 2
67: 1
68: 2
69: 1
70: 2
71: 1
72: 2
73: 1
74: 2
75: 1
76: 2
77: 1
78: 2
79: 1
80: 2
81: 1
82: 2
83: 1
84: 2
0: 5
1: 5
2: 5
3: 5
4: 5
5: 5
6: 5
7: 5
8: 5
9: 5
10: 5
11: 5
12: 5
13: 5
14: 5
15: 5
16: 5
17: 5
18: 5
19: 5
20: 5
21: 5
22: 5
23: 5
24: 5
25: 5
26: 5
27: 5
28: 5
29: 5
30: 5
31: 5
32: 5
33: 5
34: 5
35: 5
36: 5
37: 5
38: 5
39: 5
40: 5
41: 5
42: 5
43: 5
44: 5
45: 5
46: 5
47: 5
48: 5
49: 5
50: 5
51: 5
52: 5
53: 5
54: 5
55: 5
56: 5
57: 5
58: 5
59: 5
60: 5
61: 5
62: 5
63: 5
64: 5
edge from: to
65: 0
65: 1
65: 2
65: 3
66: 5
67: 3
67: 9
67: 10
67: 11
68: 12
68: 14
69: 15
69: 17
70: 20
71: 16
72: 28
73: 21
73: 32
74: 34
75: 39
76: 41
77: 28
78: 43
78: 44
79: 47
79: 48
80: 50
80: 51
81: 52
81: 53
82: 55
83: 52
83: 53
83: 55
83: 56
84: 61
4: 65
5: 65
6: 65
7: 65
8: 66
9: 66
10: 66
11: 66
12: 67
13: 67
14: 67
15: 68
16: 68
17: 68
18: 69
19: 69
20: 69
21: 70
22: 70
23: 70
24: 70
25: 71
26: 71
27: 71
28: 71
29: 72
30: 72
31: 72
32: 72
33: 73
34: 73
35: 74
36: 74
37: 74
38: 74
39: 74
40: 75
41: 75
42: 76
43: 76
44: 77
45: 78
46: 78
47: 78
48: 78
49: 79
50: 79
51: 79
52: 80
53: 80
54: 81
55: 81
56: 82
57: 83
58: 83
59: 83
60: 83
61: 83
62: 84
63: 84
64: 84
segment: [7]
vertex id: label
64: 0
65: 2
66: 1
67: 2
68: 1
69: 2
70: 1
71: 2
72: 1
73: 2
74: 1
75: 2
76: 1
77: 2
78: 1
79: 2
80: 1
81: 2
82: 1
83: 2
0: 5
1: 5
2: 5
3: 5
4: 5
5: 5
6: 5
7: 5
8: 5
9: 5
10: 5
11: 5
12: 5
13: 5
14: 5
15: 5
16: 5
17: 5
18: 5
19: 5
20: 5
21: 5
22: 5
23: 5
24: 5
25: 5
26: 5
27: 5
28: 5
29: 5
30: 5
31: 5
32: 5
33: 5
34: 5
35: 5
36: 5
37: 5
38: 5
39: 5
40: 5
41: 5
42: 5
43: 5
44: 5
45: 5
46: 5
47: 5
48: 5
49: 5
50: 5
51: 5
52: 5
53: 5
54: 5
55: 5
56: 5
57: 5
58: 5
59: 5
60: 5
61: 5
62: 5
63: 5
edge from: to
64: 0
65: 2
65: 5
66: 8
67: 14
68: 10
68: 15
69: 14
70: 15
70: 23
71: 17
71: 25
71: 26
72: 24
72: 27
73: 30
74: 24
74: 28
74: 29
74: 31
75: 34
75: 36
76: 37
77: 37
77: 39
77: 41
78: 47
79: 32
79: 46
79: 48
79: 49
80: 34
80: 49
80: 51
81: 53
82: 37
83: 58
83: 59
1: 64
2: 64
3: 64
4: 64
5: 64
6: 65
7: 65
8: 65
9: 66
10: 66
11: 66
12: 66
13: 66
14: 66
15: 67
16: 68
17: 68
18: 68
19: 68
20: 68
21: 68
22: 69
23: 69
24: 70
25: 70
26: 70
27: 71
28: 72
29: 72
30: 72
31: 73
32: 74
33: 74
34: 74
35: 74
36: 74
37: 75
38: 76
39: 76
40: 76
41: 76
42: 77
43: 77
44: 77
45: 77
46: 77
47: 77
48: 78
49: 78
50: 79
51: 79
52: 79
53: 80
54: 81
55: 81
56: 81
57: 81
58: 82
59: 82
60: 83
61: 83
62: 83
63: 83
segment: [8]
vertex id: label
50: 0
51: 2
52: 1
53: 2
54: 1
55: 2
56: 1
57: 2
58: 1
59: 2
60: 1
61: 2
62: 1
63: 2
64: 1
65: 2
66: 1
67: 2
68: 1
69: 2
0: 5
1: 5
2: 5
3: 5
4: 5
5: 5
6: 5
7: 5
8: 5
9: 5
10: 5
11: 5
12: 5
13: 5
14: 5
15: 5
16: 5
17: 5
18: 5
19: 5
20: 5
21: 5
22: 5
23: 5
24: 5
25: 5
26: 5
27: 5
28: 5
29: 5
30: 5
31: 5
32: 5
33: 5
34: 5
35: 5
36: 5
37: 5
38: 5
39: 5
40: 5
41: 5
42: 5
43: 5
44: 5
45: 5
46: 5
47: 5
48: 5
49: 5
edge from: to
50: 0
50: 1
51: 2
52: 1
52: 3
53: 3
53: 4
53: 5
53: 6
54: 5
55: 8
56: 4
56: 7
56: 10
57: 8
58: 17
59: 19
60: 14
60: 21
61: 17
61: 26
62: 21
63: 32
63: 34
64: 23
64: 35
65: 25
65: 38
66: 26
66: 38
66: 40
67: 41
68: 28
68: 42
69: 45
2: 50
3: 51
4: 51
5: 52
6: 52
7: 53
8: 54
9: 55
10: 55
11: 56
12: 56
13: 57
14: 57
15: 57
16: 57
17: 57
18: 58
19: 58
20: 59
21: 59
22: 60
23: 60
24: 60
25: 60
26: 60
27: 61
28: 61
29: 61
30: 61
31: 61
32: 61
33: 62
34: 62
35: 63
36: 64
37: 64
38: 64
39: 65
40: 65
41: 66
42: 67
43: 67
44: 68
45: 68
46: 69
47: 69
48: 69
49: 69
segment: [9]
vertex id: label
62: 0
63: 4
64: 0
65: 2
66: 1
67: 2
68: 1
69: 2
70: 1
71: 2
72: 1
73: 2
74: 1
75: 2
76: 1
77: 2
78: 1
79: 2
80: 1
81: 2
0: 5
1: 5
2: 5
3: 5
4: 5
5: 5
6: 5
7: 5
8: 5
9: 5
10: 5
11: 5
12: 5
13: 5
14: 5
15: 5
16: 5
17: 5
18: 5
19: 5
20: 5
21: 5
22: 5
23: 5
24: 5
25: 5
26: 5
27: 5
28: 5
29: 5
30: 5
31: 5
32: 5
33: 5
34: 5
35: 5
36: 5
37: 5
38: 5
39: 5
40: 5
41: 5
42: 5
43: 5
44: 5
45: 5
46: 5
47: 5
48: 5
49: 5
50: 5
51: 5
52: 5
53: 5
54: 5
55: 5
56: 5
57: 5
58: 5
59: 5
60: 5
61: 5
edge from: to
62: 0
62: 1
63: 1
63: 3
64: 6
65: 11
65: 13
66: 6
66: 14
66: 16
67: 12
68: 19
68: 20
69: 21
69: 22
70: 17
70: 26
71: 30
72: 32
72: 34
73: 25
73: 38
74: 41
74: 42
75: 47
76: 49
76: 50
77: 34
78: 53
78: 54
79: 55
79: 56
80: 37
80: 56
81: 39
2: 62
3: 62
4: 62
5: 63
6: 63
7: 63
8: 63
9: 63
10: 64
11: 64
12: 64
13: 64
14: 65
15: 65
16: 65
17: 66
18: 66
19: 67
20: 67
21: 68
22: 68
23: 69
24: 69
25: 69
26: 69
27: 70
28: 70
29: 70
30: 70
31: 71
32: 71
33: 71
34: 71
35: 72
36: 72
37: 72
38: 72
39: 73
40: 73
41: 73
42: 73
43: 74
44: 74
45: 74
46: 74
47: 74
48: 75
49: 75
50: 75
51: 76
52: 76
53: 77
54: 77
55: 78
56: 78
57: 79
58: 80
59: 80
60: 80
61: 81
segment: [10]
vertex id: label
62: 0
63: 2
64: 1
65: 2
66: 1
67: 2
68: 1
69: 2
70: 1
71: 2
72: 1
73: 2
74: 1
75: 2
76: 1
77: 2
78: 1
79: 2
80: 1
81: 2
0: 5
1: 5
2: 5
3: 5
4: 5
5: 5
6: 5
7: 5
8: 5
9: 5
10: 5
11: 5
12: 5
13: 5
14: 5
15: 5
16: 5
17: 5
18: 5
19: 5
20: 5
21: 5
22: 5
23: 5
24: 5
25: 5
26: 5
27: 5
28: 5
29: 5
30: 5
31: 5
32: 5
33: 5
34: 5
35: 5
36: 5
37: 5
38: 5
39: 5
40: 5
41: 5
42: 5
43: 5
44: 5
45: 5
46: 5
47: 5
48: 5
49: 5
50: 5
51: 5
52: 5
53: 5
54: 5
55: 5
56: 5
57: 5
58: 5
59: 5
60: 5
61: 5
edge from: to
62: 0
62: 1
63: 3
64: 4
65: 6
65: 9
66: 11
67: 12
67: 14
68: 15
68: 17
69: 20
70: 15
71: 17
71: 26
72: 19
73: 21
74: 34
74: 36
75: 25
76: 37
76: 39
76: 41
77: 44
78: 47
78: 48
79: 34
80: 56
81: 54
81: 55
81: 57
81: 58
2: 62
3: 62
4: 62
5: 63
6: 63
7: 64
8: 64
9: 64
10: 65
11: 65
12: 66
13: 66
14: 66
15: 67
16: 67
17: 67
18: 68
19: 68
20: 68
21: 69
22: 69
23: 69
24: 70
25: 70
26: 70
27: 71
28: 71
29: 71
30: 72
31: 72
32: 72
33: 73
34: 73
35: 73
36: 73
37: 74
38: 74
39: 75
40: 75
41: 75
42: 76
43: 76
44: 76
45: 77
46: 77
47: 77
48: 77
49: 78
50: 78
51: 78
52: 78
53: 79
54: 79
55: 79
56: 79
57: 80
58: 80
59: 81
60: 81
61: 81
segment: [11]
vertex id: label
64: 0
65: 4
66: 0
67: 2
68: 1
69: 2
70: 1
71: 2
72: 1
73: 2
74: 1
75: 2
76: 1
77: 2
78: 1
79: 2
80: 1
81: 2
82: 1
83: 2
0: 5
1: 5
2: 5
3: 5
4: 5
5: 5
6: 5
7: 5
8: 5
9: 5
10: 5
11: 5
12: 5
13: 5
14: 5
15: 5
16: 5
17: 5
18: 5
19: 5
20: 5
21: 5
22: 5
23: 5
24: 5
25: 5
26: 5
27: 5
28: 5
29: 5
30: 5
31: 5
32: 5
33: 5
34: 5
35: 5
36: 5
37: 5
38: 5
39: 5
40: 5
41: 5
42: 5
43: 5
44: 5
45: 5
46: 5
47: 5
48: 5
49: 5
50: 5
51: 5
52: 5
53: 5
54: 5
55: 5
56: 5
57: 5
58: 5
59: 5
60: 5
61: 5
62: 5
63: 5
edge from: to
64: 0
65: 0
65: 1
65: 2
66: 5
67: 6
67: 8
67: 9
68: 8
68: 11
68: 12
69: 10
69: 15
70: 17
71: 14
72: 21
72: 22
73: 24
73: 25
74: 19
74: 26
74: 29
75: 21
75: 32
76: 26
76: 31
76: 32
76: 34
77: 36
78: 39
79: 44
80: 32
81: 53
81: 54
82: 58
83: 39
83: 56
83: 59
1: 64
2: 64
3: 65
4: 65
5: 65
6: 65
7: 65
8: 66
9: 66
10: 67
11: 67
12: 67
13: 68
14: 68
15: 68
16: 69
17: 69
18: 70
19: 70
20: 70
21: 70
22: 71
23: 72
24: 72
25: 72
26: 73
27: 73
28: 73
29: 73
30: 74
31: 74
32: 74
33: 75
34: 75
35: 76
36: 76
37: 77
38: 77
39: 77
40: 78
41: 78
42: 78
43: 78
44: 78
45: 79
46: 79
47: 79
48: 79
49: 79
50: 80
51: 80
52: 80
53: 80
54: 80
55: 81
56: 81
57: 81
58: 81
59: 82
60: 82
61: 83
62: 83
63: 83
segment: [12]
vertex id: label
67: 0
68: 2
69: 1
70: 2
71: 1
72: 2
73: 1
74: 2
75: 1
76: 2
77: 1
78: 2
79: 1
80: 2
81: 1
82: 2
83: 1
84: 2
85: 1
86: 2
0: 5
1: 5
2: 5
3: 5
4: 5
5: 5
6: 5
7: 5
8: 5
9: 5
10: 5
11: 5
12: 5
13: 5
14: 5
15: 5
16: 5
17: 5
18: 5
19: 5
20: 5
21: 5
22: 5
23: 5
24: 5
25: 5
26: 5
27: 5
28: 5
29: 5
30: 5
31: 5
32: 5
33: 5
34: 5
35: 5
36: 5
37: 5
38: 5
39: 5
40: 5
41: 5
42: 5
43: 5
44: 5
45: 5
46: 5
47: 5
48: 5
49: 5
50: 5
51: 5
52: 5
53: 5
54: 5
55: 5
56: 5
57: 5
58: 5
59: 5
60: 5
61: 5
62: 5
63: 5
64: 5
65: 5
66: 5
edge from: to
67: 0
67: 1
67: 2
67: 3
68: 2
68: 4
68: 5
69: 8
70: 13
71: 10
71: 15
72: 15
72: 16
72: 18
72: 19
73: 14
74: 22
75: 19
75: 23
75: 24
75: 25
76: 19
76: 29
77: 32
77: 34
78: 25
79: 37
79: 39
79: 41
80: 28
80: 40
80: 42
81: 47
82: 50
83: 52
83: 53
84: 4
84: 45
84: 55
84: 58
84: 59
85: 57
85: 58
85: 60
85: 61
86: 63
86: 64
4: 67
5: 67
6: 68
7: 68
8: 68
9: 69
10: 69
11: 69
12: 69
13: 69
14: 70
15: 70
16: 71
17: 71
18: 71
19: 71
20: 72
21: 72
22: 73
23: 74
24: 74
25: 74
26: 75
27: 75
28: 75
29: 75
30: 76
31: 76
32: 76
33: 76
34: 76
35: 77
36: 77
37: 77
38: 77
39: 78
40: 78
41: 78
42: 79
43: 79
44: 80
45: 80
46: 80
47: 80
48: 81
49: 81
50: 81
51: 82
52: 82
53: 82
54: 83
55: 83
56: 83
57: 83
58: 83
59: 83
60: 84
61: 84
62: 85
63: 85
64: 85
65: 86
66: 86
segment: [13]
vertex id: label
67: 0
68: 2
69: 1
70: 2
71: 1
72: 2
73: 1
74: 2
75: 1
76: 2
77: 1
78: 2
79: 1
80: 2
81: 1
82: 2
83: 1
84: 2
85: 1
86: 2
0: 5
1: 5
2: 5
3: 5
4: 5
5: 5
6: 5
7: 5
8: 5
9: 5
10: 5
11: 5
12: 5
13: 5
14: 5
15: 5
16: 5
17: 5
18: 5
19: 5
20: 5
21: 5
22: 5
23: 5
24: 5
25: 5
26: 5
27: 5
28: 5
29: 5
30: 5
31: 5
32: 5
33: 5
34: 5
35: 5
36: 5
37: 5
38: 5
39: 5
40: 5
41: 5
42: 5
43: 5
44: 5
45: 5
46: 5
47: 5
48: 5
49: 5
50: 5
51: 5
52: 5
53: 5
54: 5
55: 5
56: 5
57: 5
58: 5
59: 5
60: 5
61: 5
62: 5
63: 5
64: 5
65: 5
66: 5
edge from: to
67: 0
68: 5
68: 7
69: 5
69: 11
69: 13
70: 1
70: 11
70: 12
70: 14
71: 19
72: 16
73: 17
73: 25
73: 26
74: 25
74: 26
74: 28
75: 21
76: 23
76: 33
76: 35
77: 39
78: 39
78: 41
78: 42
79: 42
79: 43
79: 44
79: 45
80: 32
81: 53
82: 56
83: 37
83: 56
84: 39
84: 56
84: 59
85: 41
85: 62
86: 24
86: 59
86: 61
86: 62
86: 64
86: 65
1: 67
2: 67
3: 67
4: 67
5: 67
6: 67
7: 67
8: 68
9: 68
10: 68
11: 68
12: 68
13: 68
14: 69
15: 70
16: 70
17: 70
18: 70
19: 70
20: 71
21: 71
22: 71
23: 71
24: 71
25: 72
26: 72
27: 73
28: 73
29: 74
30: 74
31: 74
32: 74
33: 75
34: 75
35: 75
36: 76
37: 76
38: 76
39: 76
40: 77
41: 77
42: 77
43: 78
44: 78
45: 78
46: 79
47: 79
48: 79
49: 79
50: 80
51: 80
52: 80
53: 80
54: 81
55: 81
56: 81
57: 82
58: 83
59: 83
60: 83
61: 84
62: 84
63: 84
64: 85
65: 85
66: 86
segment: [14]
vertex id: label
71: 0
72: 2
73: 1
74: 2
75: 1
76: 2
77: 1
78: 2
79: 1
80: 2
81: 1
82: 2
83: 1
84: 2
85: 1
86: 2
87: 1
88: 2
89: 1
90: 2
0: 5
1: 5
2: 5
3: 5
4: 5
5: 5
6: 5
7: 5
8: 5
9: 5
10: 5
11: 5
12: 5
13: 5
14: 5
15: 5
16: 5
17: 5
18: 5
19: 5
20: 5
21: 5
22: 5
23: 5
24: 5
25: 5
26: 5
27: 5
28: 5
29: 5
30: 5
31: 5
32: 5
33: 5
34: 5
35: 5
36: 5
37: 5
38: 5
39: 5
40: 5
41: 5
42: 5
43: 5
44: 5
45: 5
46: 5
47: 5
48: 5
49: 5
50: 5
51: 5
52: 5
53: 5
54: 5
55: 5
56: 5
57: 5
58: 5
59: 5
60: 5
61: 5
62: 5
63: 5
64: 5
65: 5
66: 5
67: 5
68: 5
69: 5
70: 5
edge from: to
71: 0
72: 2
73: 10
73: 11
74: 5
74: 11
74: 13
75: 6
75: 14
75: 15
75: 16
76: 15
76: 17
77: 14
77: 21
78: 19
78: 24
78: 25
79: 19
80: 23
80: 35
81: 39
82: 26
82: 40
83: 45
84: 47
84: 48
85: 47
85: 48
85: 49
85: 50
86: 34
87: 56
88: 57
88: 58
89: 61
90: 63
90: 64
1: 71
2: 71
3: 71
4: 72
5: 72
6: 72
7: 72
8: 72
9: 72
10: 72
11: 72
12: 73
13: 73
14: 74
15: 74
16: 74
17: 75
18: 76
19: 76
20: 76
21: 76
22: 77
23: 77
24: 77
25: 77
26: 78
27: 78
28: 78
29: 78
30: 79
31: 79
32: 79
33: 79
34: 79
35: 79
36: 80
37: 80
38: 80
39: 80
40: 81
41: 82
42: 82
43: 82
44: 82
45: 82
46: 83
47: 83
48: 83
49: 84
50: 84
51: 85
52: 85
53: 86
54: 86
55: 86
56: 86
57: 87
58: 87
59: 88
60: 88
61: 88
62: 89
63: 89
64: 89
65: 90
66: 90
67: 90
68: 90
69: 90
70: 90
segment: [15]
vertex id: label
60: 0
61: 2
62: 1
63: 2
64: 1
65: 2
66: 1
67: 2
68: 1
69: 2
70: 1
71: 2
72: 1
73: 2
74: 1
75: 2
76: 1
77: 2
78: 1
79: 2
0: 5
1: 5
2: 5
3: 5
4: 5
5: 5
6: 5
7: 5
8: 5
9: 5
10: 5
11: 5
12: 5
13: 5
14: 5
15: 5
16: 5
17: 5
18: 5
19: 5
20: 5
21: 5
22: 5
23: 5
24: 5
25: 5
26: 5
27: 5
28: 5
29: 5
30: 5
31: 5
32: 5
33: 5
34: 5
35: 5
36: 5
37: 5
38: 5
39: 5
40: 5
41: 5
42: 5
43: 5
44: 5
45: 5
46: 5
47: 5
48: 5
49: 5
50: 5
51: 5
52: 5
53: 5
54: 5
55: 5
56: 5
57: 5
58: 5
59: 5
edge from: to
60: 0
60: 1
61: 2
62: 3
62: 4
62: 5
62: 6
63: 9
63: 10
63: 11
64: 10
64: 15
65: 12
66: 20
67: 15
67: 23
68: 25
69: 27
70: 25
70: 28
71: 21
71: 30
71: 32
72: 32
72: 34
73: 35
73: 37
74: 25
74: 38
75: 41
75: 43
75: 44
76: 47
76: 48
77: 50
77: 51
78: 34
79: 51
79: 52
79: 54
79: 55
2: 60
3: 60
4: 61
5: 61
6: 61
7: 62
8: 62
9: 62
10: 62
11: 62
12: 63
13: 63
14: 63
15: 63
16: 64
17: 64
18: 64
19: 65
20: 65
21: 66
22: 66
23: 66
24: 67
25: 67
26: 68
27: 68
28: 69
29: 70
30: 70
31: 70
32: 70
33: 71
34: 71
35: 72
36: 72
37: 72
38: 73
39: 74
40: 74
41: 74
42: 74
43: 74
44: 74
45: 75
46: 75
47: 75
48: 75
49: 76
50: 76
51: 76
52: 77
53: 78
54: 78
55: 78
56: 79
57: 79
58: 79
59: 79
segment: [16]
vertex id: label
51: 0
52: 2
53: 1
54: 2
55: 1
56: 2
57: 1
58: 2
59: 1
60: 2
61: 1
62: 2
63: 1
64: 2
65: 1
66: 2
67: 1
68: 2
69: 1
70: 2
0: 5
1: 5
2: 5
3: 5
4: 5
5: 5
6: 5
7: 5
8: 5
9: 5
10: 5
11: 5
12: 5
13: 5
14: 5
15: 5
16: 5
17: 5
18: 5
19: 5
20: 5
21: 5
22: 5
23: 5
24: 5
25: 5
26: 5
27: 5
28: 5
29: 5
30: 5
31: 5
32: 5
33: 5
34: 5
35: 5
36: 5
37: 5
38: 5
39: 5
40: 5
41: 5
42: 5
43: 5
44: 5
45: 5
46: 5
47: 5
48: 5
49: 5
50: 5
edge from: to
51: 0
51: 1
52: 2
52: 4
52: 5
53: 3
53: 8
54: 11
55: 14
56: 6
56: 14
56: 15
56: 16
57: 17
58: 12
59: 14
60: 22
61: 19
61: 24
61: 25
62: 21
62: 24
62: 25
62: 27
63: 2
63: 23
63: 28
63: 30
64: 29
64: 31
65: 33
66: 23
66: 33
66: 35
67: 39
68: 26
68: 40
69: 28
69: 42
70: 30
70: 45
2: 51
3: 51
4: 51
5: 51
6: 52
7: 52
8: 52
9: 53
10: 53
11: 53
12: 54
13: 54
14: 54
15: 55
16: 55
17: 56
18: 57
19: 58
20: 58
21: 58
22: 59
23: 60
24: 60
25: 60
26: 61
27: 61
28: 62
29: 62
30: 62
31: 63
32: 64
33: 64
34: 65
35: 65
36: 66
37: 66
38: 66
39: 66
40: 67
41: 68
42: 68
43: 68
44: 69
45: 69
46: 69
47: 70
48: 70
49: 70
50: 70
segment: [17]
vertex id: label
60: 0
61: 2
62: 1
63: 2
64: 1
65: 2
66: 1
67: 2
68: 1
69: 2
70: 1
71: 2
72: 1
73: 2
74: 1
75: 2
76: 1
77: 2
78: 1
79: 2
0: 5
1: 5
2: 5
3: 5
4: 5
5: 5
6: 5
7: 5
8: 5
9: 5
10: 5
11: 5
12: 5
13: 5
14: 5
15: 5
16: 5
17: 5
18: 5
19: 5
20: 5
21: 5
22: 5
23: 5
24: 5
25: 5
26: 5
27: 5
28: 5
29: 5
30: 5
31: 5
32: 5
33: 5
34: 5
35: 5
36: 5
37: 5
38: 5
39: 5
40: 5
41: 5
42: 5
43: 5
44: 5
45: 5
46: 5
47: 5
48: 5
49: 5
50: 5
51: 5
52: 5
53: 5
54: 5
55: 5
56: 5
57: 5
58: 5
59: 5
edge from: to
60: 0
60: 1
61: 4
62: 8
63: 7
64: 15
64: 17
65: 14
65: 21
66: 15
67: 17
67: 26
68: 2
68: 28
68: 30
69: 31
69: 33
70: 36
71: 26
71: 40
72: 28
72: 40
72: 42
73: 42
73: 44
73: 45
74: 46
74: 47
75: 32
75: 46
75: 48
76: 51
77: 53
78: 56
79: 37
79: 50
79: 53
79: 54
79: 55
79: 56
79: 57
2: 60
3: 60
4: 60
5: 60
6: 60
7: 61
8: 61
9: 62
10: 62
11: 63
12: 63
13: 63
14: 63
15: 63
16: 63
17: 63
18: 64
19: 64
20: 64
21: 64
22: 65
23: 65
24: 66
25: 66
26: 66
27: 67
28: 67
29: 67
30: 67
31: 68
32: 68
33: 68
34: 69
35: 69
36: 69
37: 70
38: 70
39: 70
40: 70
41: 71
42: 71
43: 71
44: 72
45: 72
46: 73
47: 73
48: 74
49: 74
50: 75
51: 75
52: 76
53: 76
54: 77
55: 77
56: 77
57: 78
58: 79
59: 79
segment: [18]
vertex id: label
69: 0
70: 2
71: 1
72: 2
73: 1
74: 2
75: 1
76: 2
77: 1
78: 2
79: 1
80: 2
81: 1
82: 2
83: 1
84: 2
85: 1
86: 2
87: 1
88: 2
0: 5
1: 5
2: 5
3: 5
4: 5
5: 5
6: 5
7: 5
8: 5
9: 5
10: 5
11: 5
12: 5
13: 5
14: 5
15: 5
16: 5
17: 5
18: 5
19: 5
20: 5
21: 5
22: 5
23: 5
24: 5
25: 5
26: 5
27: 5
28: 5
29: 5
30: 5
31: 5
32: 5
33: 5
34: 5
35: 5
36: 5
37: 5
38: 5
39: 5
40: 5
41: 5
42: 5
43: 5
44: 5
45: 5
46: 5
47: 5
48: 5
49: 5
50: 5
51: 5
52: 5
53: 5
54: 5
55: 5
56: 5
57: 5
58: 5
59: 5
60: 5
61: 5
62: 5
63: 5
64: 5
65: 5
66: 5
67: 5
68: 5
edge from: to
69: 0
69: 1
70: 1
70: 2
70: 3
71: 5
72: 8
73: 12
73: 14
74: 10
74: 13
74: 15
75: 19
75: 20
76: 14
76: 21
77: 16
77: 24
78: 24
78: 27
79: 25
79: 28
80: 23
80: 33
80: 35
81: 38
81: 39
82: 28
82: 40
82: 42
83: 44
84: 30
84: 43
84: 45
85: 51
86: 57
86: 58
87: 61
87: 62
88: 65
88: 66
2: 69
3: 69
4: 70
5: 70
6: 70
7: 70
8: 71
9: 71
10: 71
11: 71
12: 71
13: 72
14: 72
15: 73
16: 74
17: 74
18: 74
19: 74
20: 74
21: 75
22: 76
23: 76
24: 76
25: 77
26: 77
27: 77
28: 78
29: 79
30: 79
31: 79
32: 79
33: 79
34: 79
35: 79
36: 80
37: 80
38: 80
39: 80
40: 81
41: 81
42: 81
43: 81
44: 82
45: 83
46: 83
47: 84
48: 84
49: 84
50: 84
51: 84
52: 85
53: 85
54: 85
55: 85
56: 85
57: 85
58: 85
59: 86
60: 86
61: 86
62: 86
63: 87
64: 87
65: 87
66: 87
67: 88
68: 88
segment: [19]
vertex id: label
58: 0
59: 2
60: 1
61: 2
62: 1
63: 2
64: 1
65: 2
66: 1
67: 2
68: 1
69: 2
70: 1
71: 2
72: 1
73: 2
74: 1
75: 2
76: 1
77: 2
0: 5
1: 5
2: 5
3: 5
4: 5
5: 5
6: 5
7: 5
8: 5
9: 5
10: 5
11: 5
12: 5
13: 5
14: 5
15: 5
16: 5
17: 5
18: 5
19: 5
20: 5
21: 5
22: 5
23: 5
24: 5
25: 5
26: 5
27: 5
28: 5
29: 5
30: 5
31: 5
32: 5
33: 5
34: 5
35: 5
36: 5
37: 5
38: 5
39: 5
40: 5
41: 5
42: 5
43: 5
44: 5
45: 5
46: 5
47: 5
48: 5
49: 5
50: 5
51: 5
52: 5
53: 5
54: 5
55: 5
56: 5
57: 5
edge from: to
58: 0
59: 1
59: 3
59: 4
60: 3
60: 8
61: 6
61: 8
61: 9
62: 11
62: 13
63: 16
64: 18
64: 19
65: 22
66: 16
66: 24
67: 17
67: 26
68: 27
69: 31
70: 34
71: 34
71: 36
72: 26
73: 42
74: 41
74: 43
74: 44
75: 46
75: 47
76: 50
76: 51
77: 54
77: 55
1: 58
2: 58
3: 58
4: 58
5: 59
6: 59
7: 59
8: 59
9: 60
10: 61
11: 61
12: 61
13: 61
14: 62
15: 62
16: 62
17: 63
18: 63
19: 63
20: 64
21: 64
22: 64
23: 65
24: 65
25: 66
26: 66
27: 67
28: 68
29: 68
30: 68
31: 68
32: 69
33: 69
34: 69
35: 70
36: 70
37: 71
38: 71
39: 71
40: 71
41: 72
42: 72
43: 73
44: 73
45: 74
46: 74
47: 74
48: 75
49: 75
50: 75
51: 75
52: 76
53: 76
54: 76
55: 76
56: 77
57: 77
segment: [20]
vertex id: label
61: 0
62: 2
63: 1
64: 2
65: 1
66: 2
67: 1
68: 2
69: 1
70: 2
71: 1
72: 2
73: 1
74: 2
75: 1
76: 2
77: 1
78: 2
79: 1
80: 2
0: 5
1: 5
2: 5
3: 5
4: 5
5: 5
6: 5
7: 5
8: 5
9: 5
10: 5
11: 5
12: 5
13: 5
14: 5
15: 5
16: 5
17: 5
18: 5
19: 5
20: 5
21: 5
22: 5
23: 5
24: 5
25: 5
26: 5
27: 5
28: 5
29: 5
30: 5
31: 5
32: 5
33: 5
34: 5
35: 5
36: 5
37: 5
38: 5
39: 5
40: 5
41: 5
42: 5
43: 5
44: 5
45: 5
46: 5
47: 5
48: 5
49: 5
50: 5
51: 5
52: 5
53: 5
54: 5
55: 5
56: 5
57: 5
58: 5
59: 5
60: 5
edge from: to
61: 0
61: 1
62: 1
62: 3
63: 5
64: 5
64: 6
64: 7
65: 3
65: 8
66: 8
67: 17
68: 19
69: 14
69: 20
69: 21
70: 15
70: 23
71: 27
72: 25
72: 26
72: 28
73: 30
74: 21
74: 32
75: 34
75: 35
75: 37
76: 26
76: 40
77: 30
77: 43
77: 45
78: 49
78: 50
79: 53
79: 54
80: 56
2: 61
3: 61
4: 61
5: 62
6: 63
7: 63
8: 64
9: 65
10: 65
11: 65
12: 65
13: 66
14: 66
15: 66
16: 66
17: 66
18: 67
19: 67
20: 68
21: 68
22: 69
23: 69
24: 70
25: 70
26: 70
27: 70
28: 71
29: 72
30: 72
31: 73
32: 73
33: 74
34: 74
35: 74
36: 74
37: 74
38: 75
39: 75
40: 75
41: 76
42: 76
43: 76
44: 76
45: 76
46: 76
47: 77
48: 77
49: 77
50: 77
51: 78
52: 78
53: 78
54: 78
55: 79
56: 79
57: 80
58: 80
59: 80
60: 80
segment: [21]
vertex id: label
57: 0
58: 2
59: 1
60: 2
61: 1
62: 2
63: 1
64: 2
65: 1
66: 2
67: 1
68: 2
69: 1
70: 2
71: 1
72: 2
73: 1
74: 2
75: 1
76: 2
0: 5
1: 5
2: 5
3: 5
4: 5
5: 5
6: 5
7: 5
8: 5
9: 5
10: 5
11: 5
12: 5
13: 5
14: 5
15: 5
16: 5
17: 5
18: 5
19: 5
20: 5
21: 5
22: 5
23: 5
24: 5
25: 5
26: 5
27: 5
28: 5
29: 5
30: 5
31: 5
32: 5
33: 5
34: 5
35: 5
36: 5
37: 5
38: 5
39: 5
40: 5
41: 5
42: 5
43: 5
44: 5
45: 5
46: 5
47: 5
48: 5
49: 5
50: 5
51: 5
52: 5
53: 5
54: 5
55: 5
56: 5
edge from: to
57: 0
58: 2
58: 3
59: 1
59: 2
59: 3
59: 4
60: 5
60: 7
61: 9
61: 10
61: 11
62: 1
62: 12
62: 14
63: 14
63: 16
64: 15
64: 17
65: 17
65: 21
65: 22
66: 16
67: 24
67: 27
68: 19
68: 29
69: 24
69: 29
69: 31
70: 34
71: 23
72: 34
72: 35
72: 37
73: 41
73: 42
74: 30
74: 43
74: 45
75: 47
75: 49
75: 50
76: 34
76: 51
1: 57
2: 57
3: 57
4: 58
5: 59
6: 59
7: 59
8: 60
9: 60
10: 60
11: 60
12: 61
13: 61
14: 61
15: 62
16: 62
17: 63
18: 64
19: 64
20: 64
21: 64
22: 64
23: 65
24: 65
25: 66
26: 66
27: 66
28: 67
29: 67
30: 68
31: 68
32: 69
33: 69
34: 69
35: 70
36: 71
37: 71
38: 72
39: 72
40: 72
41: 72
42: 72
43: 73
44: 73
45: 73
46: 73
47: 74
48: 74
49: 74
50: 74
51: 75
52: 75
53: 76
54: 76
55: 76
56: 76
segment: [22]
vertex id: label
47: 0
48: 2
49: 1
50: 2
51: 1
52: 2
53: 1
54: 2
55: 1
56: 2
57: 1
58: 2
59: 1
60: 2
61: 1
62: 2
63: 1
64: 2
65: 1
66: 2
0: 5
1: 5
2: 5
3: 5
4: 5
5: 5
6: 5
7: 5
8: 5
9: 5
10: 5
11: 5
12: 5
13: 5
14: 5
15: 5
16: 5
17: 5
18: 5
19: 5
20: 5
21: 5
22: 5
23: 5
24: 5
25: 5
26: 5
27: 5
28: 5
29: 5
30: 5
31: 5
32: 5
33: 5
34: 5
35: 5
36: 5
37: 5
38: 5
39: 5
40: 5
41: 5
42: 5
43: 5
44: 5
45: 5
46: 5
edge from: to
47: 0
47: 1
48: 1
48: 2
49: 1
49: 3
49: 4
50: 5
51: 5
51: 7
52: 6
53: 7
53: 10
54: 13
55: 14
56: 15
56: 17
57: 8
57: 14
57: 20
57: 21
58: 22
59: 17
60: 28
60: 30
61: 21
62: 23
62: 35
63: 35
63: 37
64: 25
64: 35
64: 38
65: 41
66: 41
66: 43
66: 44
2: 47
3: 48
4: 48
5: 49
6: 50
7: 50
8: 51
9: 51
10: 52
11: 53
12: 53
13: 53
14: 54
15: 55
16: 55
17: 55
18: 56
19: 56
20: 56
21: 56
22: 57
23: 58
24: 58
25: 58
26: 58
27: 59
28: 59
29: 59
30: 59
31: 60
32: 60
33: 61
34: 61
35: 61
36: 62
37: 62
38: 63
39: 64
40: 64
41: 64
42: 65
43: 65
44: 65
45: 66
46: 66
segment: [23]
vertex id: label
71: 0
72: 2
73: 1
74: 2
75: 1
76: 2
77: 1
78: 2
79: 1
80: 2
81: 1
82: 2
83: 1
84: 2
85: 1
86: 2
87: 1
88: 2
89: 1
90: 2
0: 5
1: 5
2: 5
3: 5
4: 5
5: 5
6: 5
7: 5
8: 5
9: 5
10: 5
11: 5
12: 5
13: 5
14: 5
15: 5
16: 5
17: 5
18: 5
19: 5
20: 5
21: 5
22: 5
23: 5
24: 5
25: 5
26: 5
27: 5
28: 5
29: 5
30: 5
31: 5
32: 5
33: 5
34: 5
35: 5
36: 5
37: 5
38: 5
39: 5
40: 5
41: 5
42: 5
43: 5
44: 5
45: 5
46: 5
47: 5
48: 5
49: 5
50: 5
51: 5
52: 5
53: 5
54: 5
55: 5
56: 5
57: 5
58: 5
59: 5
60: 5
61: 5
62: 5
63: 5
64: 5
65: 5
66: 5
67: 5
68: 5
69: 5
70: 5
edge from: to
71: 0
71: 1
72: 0
72: 1
72: 2
72: 3
72: 4
73: 6
73: 8
73: 9
74: 8
74: 11
74: 12
75: 10
76: 15
76: 16
76: 17
77: 20
78: 16
78: 24
79: 28
80: 2
80: 23
80: 28
80: 30
81: 33
81: 34
81: 35
81: 36
82: 37
82: 39
82: 41
83: 44
84: 32
84: 48
85: 48
85: 50
85: 51
86: 50
86: 52
86: 53
87: 52
87: 55
87: 56
88: 39
88: 59
89: 41
89: 62
90: 66
2: 71
5: 72
6: 72
7: 72
8: 72
9: 72
10: 73
11: 73
12: 73
13: 74
14: 74
15: 74
16: 75
17: 75
18: 76
19: 76
20: 76
21: 77
22: 77
23: 77
24: 77
25: 78
26: 78
27: 78
28: 78
29: 79
30: 79
31: 80
32: 80
33: 80
34: 80
35: 80
36: 80
37: 81
38: 81
39: 81
40: 81
41: 81
42: 82
43: 82
44: 82
45: 83
46: 83
47: 83
48: 83
49: 83
50: 84
51: 84
52: 85
53: 85
54: 86
55: 86
56: 86
57: 87
58: 87
59: 87
60: 87
61: 88
62: 88
63: 88
64: 89
65: 89
66: 89
67: 90
68: 90
69: 90
70: 90
segment: [24]
vertex id: label
61: 0
62: 4
63: 0
64: 2
65: 1
66: 2
67: 1
68: 2
69: 1
70: 2
71: 1
72: 2
73: 1
74: 2
75: 1
76: 2
77: 1
78: 2
79: 1
80: 2
0: 5
1: 5
2: 5
3: 5
4: 5
5: 5
6: 5
7: 5
8: 5
9: 5
10: 5
11: 5
12: 5
13: 5
14: 5
15: 5
16: 5
17: 5
18: 5
19: 5
20: 5
21: 5
22: 5
23: 5
24: 5
25: 5
26: 5
27: 5
28: 5
29: 5
30: 5
31: 5
32: 5
33: 5
34: 5
35: 5
36: 5
37: 5
38: 5
39: 5
40: 5
41: 5
42: 5
43: 5
44: 5
45: 5
46: 5
47: 5
48: 5
49: 5
50: 5
51: 5
52: 5
53: 5
54: 5
55: 5
56: 5
57: 5
58: 5
59: 5
60: 5
edge from: to
61: 0
61: 1
62: 0
62: 1
62: 2
63: 4
64: 6
64: 9
65: 10
65: 15
66: 15
66: 16
66: 17
67: 19
68: 15
68: 17
68: 19
68: 20
69: 25
70: 27
71: 19
71: 29
72: 24
72: 29
72: 31
73: 34
73: 36
74: 37
75: 42
76: 47
77: 32
78: 34
78: 51
79: 20
79: 49
79: 53
79: 54
80: 57
80: 58
2: 61
3: 62
4: 62
5: 62
6: 62
7: 63
8: 63
9: 63
10: 64
11: 64
12: 64
13: 64
14: 64
15: 64
16: 65
17: 65
18: 66
19: 66
20: 67
21: 68
22: 68
23: 68
24: 68
25: 68
26: 69
27: 69
28: 70
29: 70
30: 71
31: 71
32: 72
33: 72
34: 72
35: 72
36: 72
37: 73
38: 74
39: 74
40: 74
41: 74
42: 74
43: 75
44: 75
45: 75
46: 75
47: 75
48: 76
49: 76
50: 77
51: 77
52: 77
53: 78
54: 78
55: 79
56: 79
57: 79
58: 79
59: 80
60: 80
segment: [25]
vertex id: label
52: 0
53: 2
54: 1
55: 2
56: 1
57: 2
58: 1
59: 2
60: 1
61: 2
62: 1
63: 2
64: 1
65: 2
66: 1
67: 2
68: 1
69: 2
70: 1
71: 2
0: 5
1: 5
2: 5
3: 5
4: 5
5: 5
6: 5
7: 5
8: 5
9: 5
10: 5
11: 5
12: 5
13: 5
14: 5
15: 5
16: 5
17: 5
18: 5
19: 5
20: 5
21: 5
22: 5
23: 5
24: 5
25: 5
26: 5
27: 5
28: 5
29: 5
30: 5
31: 5
32: 5
33: 5
34: 5
35: 5
36: 5
37: 5
38: 5
39: 5
40: 5
41: 5
42: 5
43: 5
44: 5
45: 5
46: 5
47: 5
48: 5
49: 5
50: 5
51: 5
edge from: to
52: 0
52: 1
53: 4
54: 6
55: 4
55: 7
55: 10
56: 8
57: 16
58: 14
58: 21
59: 16
60: 24
60: 25
61: 24
61: 27
62: 25
62: 28
63: 29
63: 31
64: 21
65: 34
66: 23
66: 35
67: 26
68: 41
68: 42
69: 28
69: 42
70: 42
70: 44
70: 45
71: 32
2: 52
3: 52
4: 52
5: 52
6: 52
7: 53
8: 53
9: 53
10: 54
11: 55
12: 55
13: 56
14: 56
15: 56
16: 56
17: 57
18: 57
19: 57
20: 57
21: 57
22: 58
23: 58
24: 58
25: 59
26: 60
27: 60
28: 61
29: 62
30: 62
31: 62
32: 63
33: 64
34: 64
35: 65
36: 66
37: 66
38: 66
39: 66
40: 66
41: 67
42: 67
43: 68
44: 69
45: 69
46: 70
47: 70
48: 70
49: 70
50: 71
51: 71
segment: [26]
vertex id: label
62: 0
63: 4
64: 1
65: 2
66: 1
67: 2
68: 1
69: 2
70: 1
71: 2
72: 1
73: 2
74: 1
75: 2
76: 1
77: 2
78: 1
79: 2
80: 1
81: 2
0: 5
1: 5
2: 5
3: 5
4: 5
5: 5
6: 5
7: 5
8: 5
9: 5
10: 5
11: 5
12: 5
13: 5
14: 5
15: 5
16: 5
17: 5
18: 5
19: 5
20: 5
21: 5
22: 5
23: 5
24: 5
25: 5
26: 5
27: 5
28: 5
29: 5
30: 5
31: 5
32: 5
33: 5
34: 5
35: 5
36: 5
37: 5
38: 5
39: 5
40: 5
41: 5
42: 5
43: 5
44: 5
45: 5
46: 5
47: 5
48: 5
49: 5
50: 5
51: 5
52: 5
53: 5
54: 5
55: 5
56: 5
57: 5
58: 5
59: 5
60: 5
61: 5
edge from: to
62: 0
62: 1
62: 2
63: 4
63: 6
64: 7
64: 10
65: 9
65: 10
65: 11
66: 8
66: 9
66: 11
66: 12
67: 5
67: 11
67: 13
68: 12
68: 16
68: 18
69: 14
70: 15
71: 17
72: 19
73: 29
73: 31
74: 36
75: 25
76: 37
76: 41
77: 3
77: 41
77: 43
77: 44
78: 36
78: 43
78: 44
78: 45
78: 46
78: 47
79: 50
79: 51
80: 40
80: 48
80: 50
80: 52
80: 53
81: 58
3: 62
4: 62
5: 62
6: 62
7: 63
8: 63
9: 63
10: 63
11: 64
12: 65
13: 66
14: 67
15: 67
16: 67
17: 67
18: 67
19: 68
20: 68
21: 68
22: 69
23: 69
24: 70
25: 70
26: 70
27: 71
28: 71
29: 71
30: 72
31: 72
32: 73
33: 73
34: 73
35: 73
36: 73
37: 74
38: 74
39: 75
40: 75
41: 75
42: 76
43: 76
44: 76
45: 77
46: 77
47: 77
48: 78
49: 78
50: 78
51: 78
52: 79
53: 79
54: 80
55: 80
56: 80
57: 80
58: 80
59: 81
60: 81
61: 81
segment: [27]
vertex id: label
63: 0
64: 2
65: 1
66: 2
67: 1
68: 2
69: 1
70: 2
71: 1
72: 2
73: 1
74: 2
75: 1
76: 2
77: 1
78: 2
79: 1
80: 2
81: 1
82: 2
0: 5
1: 5
2: 5
3: 5
4: 5
5: 5
6: 5
7: 5
8: 5
9: 5
10: 5
11: 5
12: 5
13: 5
14: 5
15: 5
16: 5
17: 5
18: 5
19: 5
20: 5
21: 5
22: 5
23: 5
24: 5
25: 5
26: 5
27: 5
28: 5
29: 5
30: 5
31: 5
32: 5
33: 5
34: 5
35: 5
36: 5
37: 5
38: 5
39: 5
40: 5
41: 5
42: 5
43: 5
44: 5
45: 5
46: 5
47: 5
48: 5
49: 5
50: 5
51: 5
52: 5
53: 5
54: 5
55: 5
56: 5
57: 5
58: 5
59: 5
60: 5
61: 5
62: 5
edge from: to
63: 0
63: 1
63: 2
64: 2
64: 5
65: 8
66: 1
66: 12
66: 14
67: 14
67: 16
68: 15
68: 16
68: 17
69: 19
69: 20
70: 24
70: 25
71: 24
71: 27
72: 25
72: 28
73: 28
73: 30
74: 33
75: 34
75: 35
75: 37
76: 38
76: 39
77: 41
77: 42
78: 45
79: 45
79: 47
79: 48
80: 51
81: 53
81: 54
82: 59
3: 63
4: 63
5: 63
6: 64
7: 64
8: 64
9: 65
10: 65
11: 65
12: 65
13: 65
14: 65
15: 66
16: 66
17: 67
18: 68
19: 68
20: 68
21: 69
22: 69
23: 69
24: 69
25: 69
26: 70
27: 70
28: 71
29: 72
30: 72
31: 73
32: 73
33: 73
34: 74
35: 74
36: 74
37: 74
38: 75
39: 75
40: 76
41: 76
42: 76
43: 77
44: 77
45: 77
46: 78
47: 78
48: 78
49: 79
50: 79
51: 79
52: 80
53: 80
54: 80
55: 81
56: 81
57: 81
58: 81
59: 81
60: 82
61: 82
62: 82
segment: [28]
vertex id: label
61: 0
62: 2
63: 1
64: 2
65: 1
66: 2
67: 1
68: 2
69: 1
70: 2
71: 1
72: 2
73: 1
74: 2
75: 1
76: 2
77: 1
78: 2
79: 1
80: 2
0: 5
1: 5
2: 5
3: 5
4: 5
5: 5
6: 5
7: 5
8: 5
9: 5
10: 5
11: 5
12: 5
13: 5
14: 5
15: 5
16: 5
17: 5
18: 5
19: 5
20: 5
21: 5
22: 5
23: 5
24: 5
25: 5
26: 5
27: 5
28: 5
29: 5
30: 5
31: 5
32: 5
33: 5
34: 5
35: 5
36: 5
37: 5
38: 5
39: 5
40: 5
41: 5
42: 5
43: 5
44: 5
45: 5
46: 5
47: 5
48: 5
49: 5
50: 5
51: 5
52: 5
53: 5
54: 5
55: 5
56: 5
57: 5
58: 5
59: 5
60: 5
edge from: to
61: 0
61: 1
61: 2
61: 3
62: 5
62: 6
62: 7
63: 6
63: 9
64: 8
64: 9
64: 11
64: 12
65: 10
65: 15
66: 17
67: 20
68: 25
69: 17
70: 19
71: 28
71: 30
72: 26
72: 32
72: 34
73: 9
73: 33
73: 34
73: 35
73: 36
74: 37
75: 37
75: 39
75: 41
76: 32
77: 48
77: 49
77: 50
77: 51
78: 34
78: 49
78: 50
78: 51
78: 52
79: 37
79: 56
80: 58
4: 61
5: 61
6: 61
7: 61
8: 62
9: 62
10: 63
11: 63
12: 63
13: 64
14: 64
15: 64
16: 65
17: 65
18: 66
19: 66
20: 66
21: 67
22: 67
23: 67
24: 67
25: 67
26: 68
27: 69
28: 69
29: 69
30: 70
31: 71
32: 71
33: 71
34: 71
35: 72
36: 72
37: 73
38: 74
39: 74
40: 74
41: 74
42: 75
43: 75
44: 75
45: 75
46: 75
47: 75
48: 75
49: 75
50: 76
51: 76
52: 77
53: 78
54: 78
55: 78
56: 78
57: 78
58: 79
59: 80
60: 80
segment: [29]
vertex id: label
60: 0
61: 2
62: 1
63: 2
64: 1
65: 2
66: 1
67: 2
68: 1
69: 2
70: 1
71: 2
72: 1
73: 2
74: 1
75: 2
76: 1
77: 2
78: 1
79: 2
0: 5
1: 5
2: 5
3: 5
4: 5
5: 5
6: 5
7: 5
8: 5
9: 5
10: 5
11: 5
12: 5
13: 5
14: 5
15: 5
16: 5
17: 5
18: 5
19: 5
20: 5
21: 5
22: 5
23: 5
24: 5
25: 5
26: 5
27: 5
28: 5
29: 5
30: 5
31: 5
32: 5
33: 5
34: 5
35: 5
36: 5
37: 5
38: 5
39: 5
40: 5
41: 5
42: 5
43: 5
44: 5
45: 5
46: 5
47: 5
48: 5
49: 5
50: 5
51: 5
52: 5
53: 5
54: 5
55: 5
56: 5
57: 5
58: 5
59: 5
edge from: to
60: 0
61: 1
62: 4
63: 9
63: 10
63: 11
64: 10
65: 14
65: 16
66: 12
66: 16
66: 17
66: 18
67: 15
67: 22
67: 23
68: 19
68: 24
68: 25
69: 28
70: 29
70: 31
71: 23
72: 25
72: 29
72: 33
72: 35
72: 36
72: 38
73: 39
74: 16
74: 28
74: 40
74: 42
75: 46
75: 47
76: 49
76: 50
77: 53
78: 56
79: 37
79: 53
79: 56
1: 60
2: 61
3: 61
4: 61
5: 61
6: 61
7: 62
8: 62
9: 62
10: 62
11: 62
12: 63
13: 63
14: 63
15: 63
16: 64
17: 65
18: 65
19: 66
20: 66
21: 66
22: 66
23: 66
24: 67
25: 67
26: 68
27: 68
28: 68
29: 69
30: 69
31: 69
32: 70
33: 70
34: 70
35: 70
36: 71
37: 71
38: 71
39: 72
40: 73
41: 73
42: 73
43: 73
44: 74
45: 74
46: 74
47: 74
48: 75
49: 75
50: 75
51: 76
52: 76
53: 76
54: 77
55: 77
56: 77
57: 78
58: 79
59: 79
