segment: [0]
vertex id: label
47: 0
48: 0
49: 0
50: 0
51: 0
52: 0
53: 0
54: 0
55: 0
56: 0
57: 0
58: 0
59: 4
60: 1
61: 1
62: 2
63: 0
64: 0
65: 0
66: 0
0: 5
1: 5
2: 5
3: 5
4: 5
5: 5
6: 5
7: 5
8: 5
9: 5
10: 5
11: 5
12: 5
13: 5
14: 5
15: 5
16: 5
17: 5
18: 5
19: 5
20: 5
21: 5
22: 5
23: 5
24: 5
25: 5
26: 5
27: 5
28: 5
29: 5
30: 5
31: 5
32: 5
33: 5
34: 5
35: 5
36: 5
37: 5
38: 5
39: 5
40: 5
41: 5
42: 5
43: 5
44: 5
45: 5
46: 5
edge from: to
47: 0
48: 2
49: 0
49: 3
49: 4
50: 1
50: 2
50: 4
50: 5
50: 6
51: 7
52: 9
52: 11
52: 12
53: 15
54: 17
54: 18
55: 19
56: 1
56: 21
56: 22
57: 24
57: 25
58: 8
58: 25
58: 27
59: 29
59: 30
60: 30
60: 32
61: 31
62: 32
63: 36
64: 36
64: 37
64: 39
65: 38
65: 40
66: 40
66: 42
1: 47
2: 47
3: 48
4: 48
5: 49
6: 49
7: 50
8: 50
9: 51
10: 51
11: 51
12: 51
13: 52
14: 52
15: 52
16: 52
17: 53
18: 53
19: 54
20: 54
21: 55
22: 55
23: 56
24: 56
25: 56
26: 57
27: 57
28: 58
29: 58
30: 58
31: 58
32: 59
33: 60
34: 61
35: 62
36: 62
37: 62
38: 63
39: 63
40: 64
41: 64
42: 65
43: 65
44: 66
45: 66
46: 66
segment: [1]
vertex id: label
68: 0
69: 0
70: 0
71: 0
72: 0
73: 0
74: 0
75: 0
76: 0
77: 0
78: 0
79: 0
80: 0
81: 0
82: 0
83: 0
84: 4
85: 1
86: 2
87: 1
0: 5
1: 5
2: 5
3: 5
4: 5
5: 5
6: 5
7: 5
8: 5
9: 5
10: 5
11: 5
12: 5
13: 5
14: 5
15: 5
16: 5
17: 5
18: 5
19: 5
20: 5
21: 5
22: 5
23: 5
24: 5
25: 5
26: 5
27: 5
28: 5
29: 5
30: 5
31: 5
32: 5
33: 5
34: 5
35: 5
36: 5
37: 5
38: 5
39: 5
40: 5
41: 5
42: 5
43: 5
44: 5
45: 5
46: 5
47: 5
48: 5
49: 5
50: 5
51: 5
52: 5
53: 5
54: 5
55: 5
56: 5
57: 5
58: 5
59: 5
60: 5
61: 5
62: 5
63: 5
64: 5
65: 5
66: 5
67: 5
edge from: to
68: 0
68: 1
68: 2
68: 3
68: 4
69: 1
69: 6
69: 7
70: 6
70: 7
70: 8
71: 10
71: 11
72: 1
72: 4
72: 12
73: 5
73: 13
73: 16
73: 17
74: 22
75: 25
76: 24
76: 26
77: 27
78: 31
78: 33
79: 35
79: 36
79: 37
80: 12
80: 37
80: 38
80: 40
81: 2
81: 42
82: 43
82: 45
83: 49
84: 49
84: 51
85: 55
86: 57
87: 61
5: 68
6: 68
7: 68
8: 69
9: 70
10: 70
11: 70
12: 71
13: 71
14: 72
15: 72
16: 72
17: 72
18: 73
19: 73
20: 73
21: 73
22: 73
23: 74
24: 74
25: 74
26: 75
27: 76
28: 76
29: 76
30: 77
31: 77
32: 77
33: 77
34: 78
35: 78
36: 78
37: 78
38: 79
39: 79
40: 79
41: 80
42: 80
43: 80
44: 80
45: 81
46: 81
47: 82
48: 82
49: 82
50: 82
51: 83
52: 83
53: 84
54: 84
55: 84
56: 84
57: 85
58: 85
59: 85
60: 85
61: 86
62: 86
63: 86
64: 86
65: 87
66: 87
67: 87
segment: [2]
vertex id: label
63: 0
64: 0
65: 0
66: 4
67: 1
68: 2
69: 0
70: 0
71: 0
72: 0
73: 0
74: 0
75: 0
76: 0
77: 0
78: 0
79: 0
80: 0
81: 0
82: 0
0: 5
1: 5
2: 5
3: 5
4: 5
5: 5
6: 5
7: 5
8: 5
9: 5
10: 5
11: 5
12: 5
13: 5
14: 5
15: 5
16: 5
17: 5
18: 5
19: 5
20: 5
21: 5
22: 5
23: 5
24: 5
25: 5
26: 5
27: 5
28: 5
29: 5
30: 5
31: 5
32: 5
33: 5
34: 5
35: 5
36: 5
37: 5
38: 5
39: 5
40: 5
41: 5
42: 5
43: 5
44: 5
45: 5
46: 5
47: 5
48: 5
49: 5
50: 5
51: 5
52: 5
53: 5
54: 5
55: 5
56: 5
57: 5
58: 5
59: 5
60: 5
61: 5
62: 5
edge from: to
63: 0
63: 1
64: 3
65: 2
65: 3
65: 5
65: 7
65: 8
65: 9
66: 1
66: 4
66: 10
66: 12
67: 5
67: 16
68: 17
68: 18
69: 1
69: 21
69: 22
70: 23
71: 25
72: 27
72: 29
73: 30
73: 32
74: 32
75: 33
76: 37
77: 42
78: 47
79: 50
80: 51
80: 52
81: 53
81: 55
82: 57
2: 63
3: 63
4: 64
5: 64
6: 64
7: 64
8: 64
9: 64
10: 65
11: 65
12: 65
13: 65
14: 66
15: 66
16: 66
17: 66
18: 67
19: 68
20: 68
21: 68
22: 68
23: 69
24: 70
25: 70
26: 71
27: 71
28: 71
29: 71
30: 72
31: 72
32: 72
33: 73
34: 73
35: 74
36: 75
37: 75
38: 75
39: 75
40: 76
41: 76
42: 76
43: 76
44: 77
45: 77
46: 77
47: 77
48: 77
49: 77
50: 78
51: 78
52: 79
53: 79
54: 79
55: 80
56: 80
57: 81
58: 81
59: 81
60: 81
61: 82
62: 82
segment: [3]
vertex id: label
57: 0
58: 0
59: 0
60: 0
61: 0
62: 0
63: 0
64: 0
65: 0
66: 0
67: 0
68: 0
69: 0
70: 0
71: 0
72: 0
73: 0
74: 0
75: 0
76: 0
0: 5
1: 5
2: 5
3: 5
4: 5
5: 5
6: 5
7: 5
8: 5
9: 5
10: 5
11: 5
12: 5
13: 5
14: 5
15: 5
16: 5
17: 5
18: 5
19: 5
20: 5
21: 5
22: 5
23: 5
24: 5
25: 5
26: 5
27: 5
28: 5
29: 5
30: 5
31: 5
32: 5
33: 5
34: 5
35: 5
36: 5
37: 5
38: 5
39: 5
40: 5
41: 5
42: 5
43: 5
44: 5
45: 5
46: 5
47: 5
48: 5
49: 5
50: 5
51: 5
52: 5
53: 5
54: 5
55: 5
56: 5
edge from: to
57: 0
57: 1
58: 0
58: 4
59: 1
59: 6
59: 7
60: 10
61: 11
62: 15
63: 5
63: 15
63: 16
64: 19
64: 21
65: 1
65: 22
65: 23
66: 2
66: 26
66: 28
67: 23
67: 28
67: 29
67: 30
68: 30
69: 10
69: 25
69: 30
69: 31
69: 32
69: 33
70: 33
70: 35
71: 35
71: 36
72: 38
72: 40
73: 43
73: 45
74: 46
74: 47
75: 48
75: 50
76: 36
76: 47
76: 50
76: 52
76: 53
2: 57
3: 57
4: 57
5: 58
6: 58
7: 58
8: 59
9: 59
10: 59
11: 60
12: 60
13: 61
14: 61
15: 61
16: 62
17: 63
18: 63
19: 63
20: 63
21: 63
22: 64
23: 64
24: 65
25: 65
26: 65
27: 65
28: 65
29: 66
30: 66
31: 67
32: 67
33: 68
34: 69
35: 69
36: 70
37: 70
38: 71
39: 71
40: 71
41: 71
42: 72
43: 72
44: 72
45: 72
46: 72
47: 73
48: 73
49: 73
50: 74
51: 74
52: 75
53: 75
54: 76
55: 76
56: 76
segment: [4]
vertex id: label
61: 0
62: 0
63: 0
64: 0
65: 0
66: 0
67: 0
68: 4
69: 1
70: 2
71: 0
72: 0
73: 0
74: 0
75: 4
76: 1
77: 2
78: 1
79: 1
80: 1
0: 5
1: 5
2: 5
3: 5
4: 5
5: 5
6: 5
7: 5
8: 5
9: 5
10: 5
11: 5
12: 5
13: 5
14: 5
15: 5
16: 5
17: 5
18: 5
19: 5
20: 5
21: 5
22: 5
23: 5
24: 5
25: 5
26: 5
27: 5
28: 5
29: 5
30: 5
31: 5
32: 5
33: 5
34: 5
35: 5
36: 5
37: 5
38: 5
39: 5
40: 5
41: 5
42: 5
43: 5
44: 5
45: 5
46: 5
47: 5
48: 5
49: 5
50: 5
51: 5
52: 5
53: 5
54: 5
55: 5
56: 5
57: 5
58: 5
59: 5
60: 5
edge from: to
61: 0
61: 1
62: 2
62: 4
62: 5
63: 7
63: 8
63: 9
64: 12
65: 5
65: 16
65: 17
66: 19
67: 19
68: 24
68: 26
69: 2
69: 8
69: 25
69: 27
70: 28
71: 28
72: 10
72: 25
72: 31
72: 32
72: 33
73: 10
73: 32
73: 34
74: 34
75: 38
75: 40
76: 2
76: 42
77: 47
78: 52
79: 52
80: 54
80: 56
2: 61
3: 61
4: 61
5: 61
6: 62
7: 62
8: 62
9: 62
10: 63
11: 63
12: 63
13: 63
14: 64
15: 64
16: 64
17: 64
18: 65
19: 65
20: 66
21: 67
22: 67
23: 67
24: 67
25: 67
26: 67
27: 68
28: 69
29: 70
30: 70
31: 71
32: 71
33: 71
34: 72
35: 73
36: 73
37: 74
38: 74
39: 74
40: 74
41: 74
42: 75
43: 75
44: 75
45: 76
46: 76
47: 76
48: 76
49: 76
50: 77
51: 77
52: 77
53: 77
54: 78
55: 79
56: 79
57: 79
58: 80
59: 80
60: 80
segment: [5]
vertex id: label
68: 0
69: 0
70: 0
71: 0
72: 0
73: 0
74: 0
75: 0
76: 0
77: 0
78: 0
79: 0
80: 0
81: 0
82: 0
83: 0
84: 0
85: 0
86: 0
87: 0
0: 5
1: 5
2: 5
3: 5
4: 5
5: 5
6: 5
7: 5
8: 5
9: 5
10: 5
11: 5
12: 5
13: 5
14: 5
15: 5
16: 5
17: 5
18: 5
19: 5
20: 5
21: 5
22: 5
23: 5
24: 5
25: 5
26: 5
27: 5
28: 5
29: 5
30: 5
31: 5
32: 5
33: 5
34: 5
35: 5
36: 5
37: 5
38: 5
39: 5
40: 5
41: 5
42: 5
43: 5
44: 5
45: 5
46: 5
47: 5
48: 5
49: 5
50: 5
51: 5
52: 5
53: 5
54: 5
55: 5
56: 5
57: 5
58: 5
59: 5
60: 5
61: 5
62: 5
63: 5
64: 5
65: 5
66: 5
67: 5
edge from: to
68: 0
68: 1
69: 0
69: 3
69: 4
70: 5
70: 6
71: 7
71: 8
72: 10
73: 1
73: 13
73: 14
74: 5
74: 16
74: 17
75: 19
75: 20
75: 21
76: 24
76: 25
77: 24
77: 26
78: 28
78: 29
78: 30
79: 10
79: 31
79: 33
80: 36
80: 37
80: 39
81: 41
82: 42
83: 44
83: 46
84: 48
84: 50
85: 52
85: 54
86: 47
86: 59
86: 61
87: 64
2: 68
3: 68
4: 68
5: 69
6: 69
7: 70
8: 70
9: 71
10: 71
11: 72
12: 72
13: 72
14: 72
15: 73
16: 73
17: 73
18: 74
19: 74
20: 74
21: 74
22: 75
23: 75
24: 75
25: 75
26: 76
27: 77
28: 77
29: 77
30: 77
31: 78
32: 78
33: 78
34: 79
35: 79
36: 79
37: 79
38: 79
39: 79
40: 80
41: 80
42: 80
43: 81
44: 81
45: 82
46: 82
47: 82
48: 83
49: 83
50: 83
51: 83
52: 84
53: 84
54: 84
55: 84
56: 85
57: 85
58: 85
59: 85
60: 85
61: 85
62: 85
63: 86
64: 86
65: 86
66: 86
67: 87
segment: [6]
vertex id: label
66: 0
67: 0
68: 0
69: 0
70: 0
71: 4
72: 4
73: 1
74: 2
75: 1
76: 2
77: 1
78: 2
79: 2
80: 1
81: 2
82: 1
83: 2
84: 1
85: 2
0: 5
1: 5
2: 5
3: 5
4: 5
5: 5
6: 5
7: 5
8: 5
9: 5
10: 5
11: 5
12: 5
13: 5
14: 5
15: 5
16: 5
17: 5
18: 5
19: 5
20: 5
21: 5
22: 5
23: 5
24: 5
25: 5
26: 5
27: 5
28: 5
29: 5
30: 5
31: 5
32: 5
33: 5
34: 5
35: 5
36: 5
37: 5
38: 5
39: 5
40: 5
41: 5
42: 5
43: 5
44: 5
45: 5
46: 5
47: 5
48: 5
49: 5
50: 5
51: 5
52: 5
53: 5
54: 5
55: 5
56: 5
57: 5
58: 5
59: 5
60: 5
61: 5
62: 5
63: 5
64: 5
65: 5
edge from: to
66: 0
66: 1
66: 2
67: 1
67: 6
67: 7
68: 3
68: 9
68: 10
69: 11
70: 11
71: 14
72: 16
73: 18
73: 19
74: 24
75: 27
75: 29
76: 10
76: 32
77: 36
77: 38
78: 37
78: 38
79: 46
80: 47
80: 49
80: 50
81: 48
81: 50
81: 51
82: 52
83: 55
83: 57
84: 54
84: 58
84: 60
84: 61
85: 59
3: 66
4: 66
5: 66
6: 66
7: 66
8: 67
9: 67
10: 67
11: 68
12: 69
13: 70
14: 70
15: 71
16: 71
17: 71
18: 72
19: 72
20: 72
21: 73
22: 73
23: 73
24: 73
25: 74
26: 74
27: 74
28: 74
29: 74
30: 75
31: 75
32: 75
33: 75
34: 75
35: 76
36: 76
37: 76
38: 76
39: 77
40: 77
41: 78
42: 78
43: 78
44: 78
45: 78
46: 78
47: 78
48: 79
49: 79
50: 79
51: 80
52: 81
53: 81
54: 82
55: 82
56: 82
57: 82
58: 82
59: 83
60: 83
61: 83
62: 84
63: 85
64: 85
65: 85
segment: [7]
vertex id: label
64: 0
65: 4
66: 1
67: 2
68: 1
69: 1
70: 2
71: 1
72: 2
73: 1
74: 2
75: 1
76: 2
77: 1
78: 2
79: 0
80: 0
81: 0
82: 0
83: 0
0: 5
1: 5
2: 5
3: 5
4: 5
5: 5
6: 5
7: 5
8: 5
9: 5
10: 5
11: 5
12: 5
13: 5
14: 5
15: 5
16: 5
17: 5
18: 5
19: 5
20: 5
21: 5
22: 5
23: 5
24: 5
25: 5
26: 5
27: 5
28: 5
29: 5
30: 5
31: 5
32: 5
33: 5
34: 5
35: 5
36: 5
37: 5
38: 5
39: 5
40: 5
41: 5
42: 5
43: 5
44: 5
45: 5
46: 5
47: 5
48: 5
49: 5
50: 5
51: 5
52: 5
53: 5
54: 5
55: 5
56: 5
57: 5
58: 5
59: 5
60: 5
61: 5
62: 5
63: 5
edge from: to
64: 0
64: 1
65: 0
65: 3
65: 4
66: 5
66: 6
67: 6
67: 7
67: 8
68: 11
68: 12
69: 5
69: 12
69: 15
69: 16
70: 18
70: 19
71: 23
71: 24
72: 28
73: 29
73: 30
74: 33
74: 35
75: 36
76: 37
76: 38
77: 2
77: 42
78: 46
79: 49
80: 49
80: 51
81: 54
81: 55
81: 56
82: 55
83: 45
83: 56
83: 57
83: 59
2: 64
3: 64
4: 64
5: 65
6: 65
7: 66
8: 66
9: 67
10: 67
11: 67
12: 67
13: 68
14: 68
15: 68
16: 68
17: 69
18: 69
19: 69
20: 69
21: 70
22: 70
23: 70
24: 70
25: 71
26: 71
27: 71
28: 71
29: 72
30: 72
31: 72
32: 73
33: 73
34: 73
35: 73
36: 74
37: 74
38: 74
39: 75
40: 75
41: 76
42: 76
43: 76
44: 76
45: 77
46: 77
47: 77
48: 78
49: 78
50: 78
51: 79
52: 79
53: 80
54: 80
55: 80
56: 80
57: 80
58: 81
59: 82
60: 83
61: 83
62: 83
63: 83
segment: [8]
vertex id: label
65: 0
66: 0
67: 0
68: 0
69: 0
70: 0
71: 0
72: 0
73: 0
74: 0
75: 0
76: 0
77: 0
78: 0
79: 0
80: 0
81: 0
82: 0
83: 0
84: 0
0: 5
1: 5
2: 5
3: 5
4: 5
5: 5
6: 5
7: 5
8: 5
9: 5
10: 5
11: 5
12: 5
13: 5
14: 5
15: 5
16: 5
17: 5
18: 5
19: 5
20: 5
21: 5
22: 5
23: 5
24: 5
25: 5
26: 5
27: 5
28: 5
29: 5
30: 5
31: 5
32: 5
33: 5
34: 5
35: 5
36: 5
37: 5
38: 5
39: 5
40: 5
41: 5
42: 5
43: 5
44: 5
45: 5
46: 5
47: 5
48: 5
49: 5
50: 5
51: 5
52: 5
53: 5
54: 5
55: 5
56: 5
57: 5
58: 5
59: 5
60: 5
61: 5
62: 5
63: 5
64: 5
edge from: to
65: 0
65: 1
66: 5
67: 8
68: 4
68: 12
69: 5
69: 16
70: 19
71: 1
71: 23
72: 18
72: 22
72: 23
72: 24
73: 24
73: 25
74: 8
74: 25
74: 27
75: 30
76: 32
77: 36
78: 38
79: 42
80: 44
80: 46
80: 47
81: 46
81: 47
82: 49
82: 51
82: 52
83: 55
83: 57
84: 57
2: 65
3: 65
4: 65
5: 65
6: 66
7: 66
8: 66
9: 66
10: 67
11: 67
12: 67
13: 67
14: 68
15: 68
16: 68
17: 68
18: 69
19: 69
20: 69
21: 70
22: 70
23: 70
24: 71
25: 72
26: 73
27: 73
28: 74
29: 74
30: 74
31: 74
32: 75
33: 75
34: 75
35: 76
36: 76
37: 76
38: 77
39: 77
40: 77
41: 78
42: 78
43: 78
44: 79
45: 79
46: 79
47: 79
48: 80
49: 80
50: 81
51: 81
52: 81
53: 82
54: 82
55: 82
56: 82
57: 82
58: 82
59: 83
60: 83
61: 84
62: 84
63: 84
64: 84
segment: [9]
vertex id: label
65: 0
66: 0
67: 0
68: 0
69: 0
70: 0
71: 0
72: 0
73: 0
74: 0
75: 0
76: 0
77: 0
78: 0
79: 0
80: 0
81: 0
82: 0
83: 0
84: 0
0: 5
1: 5
2: 5
3: 5
4: 5
5: 5
6: 5
7: 5
8: 5
9: 5
10: 5
11: 5
12: 5
13: 5
14: 5
15: 5
16: 5
17: 5
18: 5
19: 5
20: 5
21: 5
22: 5
23: 5
24: 5
25: 5
26: 5
27: 5
28: 5
29: 5
30: 5
31: 5
32: 5
33: 5
34: 5
35: 5
36: 5
37: 5
38: 5
39: 5
40: 5
41: 5
42: 5
43: 5
44: 5
45: 5
46: 5
47: 5
48: 5
49: 5
50: 5
51: 5
52: 5
53: 5
54: 5
55: 5
56: 5
57: 5
58: 5
59: 5
60: 5
61: 5
62: 5
63: 5
64: 5
edge from: to
65: 0
65: 1
66: 5
66: 6
67: 8
67: 9
68: 14
68: 15
69: 18
70: 19
70: 20
70: 21
71: 5
71: 9
71: 18
71: 22
71: 23
71: 24
72: 24
72: 25
73: 28
74: 29
74: 30
74: 31
75: 32
76: 34
77: 36
77: 37
78: 40
78: 42
78: 43
79: 45
80: 48
80: 50
81: 49
81: 51
82: 52
82: 54
83: 56
84: 59
84: 60
84: 62
2: 65
3: 65
4: 65
5: 65
6: 65
7: 66
8: 66
9: 66
10: 67
11: 67
12: 67
13: 67
14: 67
15: 67
16: 68
17: 68
18: 68
19: 69
20: 69
21: 69
22: 70
23: 70
24: 70
25: 71
26: 72
27: 72
28: 72
29: 73
30: 73
31: 73
32: 74
33: 74
34: 74
35: 75
36: 75
37: 76
38: 76
39: 76
40: 77
41: 77
42: 77
43: 77
44: 78
45: 78
46: 78
47: 79
48: 79
49: 79
50: 79
51: 79
52: 80
53: 81
54: 81
55: 81
56: 82
57: 82
58: 83
59: 83
60: 83
61: 83
62: 83
63: 83
64: 84
segment: [10]
vertex id: label
60: 0
61: 0
62: 4
63: 1
64: 1
65: 2
66: 1
67: 2
68: 0
69: 0
70: 0
71: 0
72: 0
73: 0
74: 0
75: 0
76: 0
77: 0
78: 0
79: 0
0: 5
1: 5
2: 5
3: 5
4: 5
5: 5
6: 5
7: 5
8: 5
9: 5
10: 5
11: 5
12: 5
13: 5
14: 5
15: 5
16: 5
17: 5
18: 5
19: 5
20: 5
21: 5
22: 5
23: 5
24: 5
25: 5
26: 5
27: 5
28: 5
29: 5
30: 5
31: 5
32: 5
33: 5
34: 5
35: 5
36: 5
37: 5
38: 5
39: 5
40: 5
41: 5
42: 5
43: 5
44: 5
45: 5
46: 5
47: 5
48: 5
49: 5
50: 5
51: 5
52: 5
53: 5
54: 5
55: 5
56: 5
57: 5
58: 5
59: 5
edge from: to
60: 0
60: 1
61: 0
61: 2
62: 4
63: 7
63: 8
64: 11
65: 15
66: 5
66: 16
67: 18
67: 19
68: 24
68: 25
69: 28
69: 29
69: 30
70: 31
71: 36
72: 37
72: 38
73: 39
73: 40
73: 41
73: 42
74: 2
74: 42
75: 47
76: 48
76: 50
77: 51
78: 52
79: 56
2: 60
3: 61
4: 61
5: 62
6: 62
7: 62
8: 62
9: 63
10: 63
11: 63
12: 63
13: 64
14: 64
15: 64
16: 65
17: 65
18: 66
19: 66
20: 66
21: 67
22: 67
23: 67
24: 67
25: 67
26: 68
27: 68
28: 68
29: 68
30: 68
31: 69
32: 69
33: 69
34: 70
35: 70
36: 70
37: 70
38: 71
39: 71
40: 71
41: 72
42: 72
43: 73
44: 73
45: 74
46: 74
47: 74
48: 74
49: 75
50: 75
51: 75
52: 76
53: 77
54: 77
55: 78
56: 78
57: 78
58: 79
59: 79
segment: [11]
vertex id: label
68: 0
69: 0
70: 0
71: 0
72: 0
73: 0
74: 0
75: 0
76: 0
77: 0
78: 0
79: 0
80: 0
81: 0
82: 0
83: 0
84: 0
85: 0
86: 0
87: 0
0: 5
1: 5
2: 5
3: 5
4: 5
5: 5
6: 5
7: 5
8: 5
9: 5
10: 5
11: 5
12: 5
13: 5
14: 5
15: 5
16: 5
17: 5
18: 5
19: 5
20: 5
21: 5
22: 5
23: 5
24: 5
25: 5
26: 5
27: 5
28: 5
29: 5
30: 5
31: 5
32: 5
33: 5
34: 5
35: 5
36: 5
37: 5
38: 5
39: 5
40: 5
41: 5
42: 5
43: 5
44: 5
45: 5
46: 5
47: 5
48: 5
49: 5
50: 5
51: 5
52: 5
53: 5
54: 5
55: 5
56: 5
57: 5
58: 5
59: 5
60: 5
61: 5
62: 5
63: 5
64: 5
65: 5
66: 5
67: 5
edge from: to
68: 0
68: 1
68: 2
68: 3
69: 6
70: 10
71: 11
72: 14
72: 15
73: 17
73: 18
73: 19
74: 19
74: 21
75: 18
75: 22
75: 23
75: 24
76: 27
77: 30
77: 32
78: 34
78: 36
79: 37
79: 38
79: 40
80: 39
80: 41
81: 43
82: 46
82: 47
82: 49
83: 50
83: 52
84: 52
84: 54
85: 55
85: 57
86: 56
86: 57
86: 59
87: 59
87: 60
87: 62
4: 68
5: 68
6: 68
7: 68
8: 69
9: 69
10: 69
11: 70
12: 70
13: 71
14: 71
15: 71
16: 72
17: 72
18: 72
19: 72
20: 73
21: 73
22: 74
23: 74
24: 74
25: 75
26: 75
27: 75
28: 76
29: 76
30: 76
31: 76
32: 76
33: 77
34: 77
35: 77
36: 77
37: 78
38: 78
39: 78
40: 78
41: 79
42: 79
43: 80
44: 80
45: 80
46: 81
47: 81
48: 81
49: 81
50: 82
51: 82
52: 82
53: 82
54: 83
55: 83
56: 84
57: 84
58: 84
59: 85
60: 86
61: 86
62: 86
63: 86
64: 87
65: 87
66: 87
67: 87
segment: [12]
vertex id: label
55: 0
56: 0
57: 0
58: 0
59: 0
60: 0
61: 0
62: 0
63: 0
64: 0
65: 0
66: 0
67: 0
68: 0
69: 0
70: 0
71: 0
72: 4
73: 1
74: 2
0: 5
1: 5
2: 5
3: 5
4: 5
5: 5
6: 5
7: 5
8: 5
9: 5
10: 5
11: 5
12: 5
13: 5
14: 5
15: 5
16: 5
17: 5
18: 5
19: 5
20: 5
21: 5
22: 5
23: 5
24: 5
25: 5
26: 5
27: 5
28: 5
29: 5
30: 5
31: 5
32: 5
33: 5
34: 5
35: 5
36: 5
37: 5
38: 5
39: 5
40: 5
41: 5
42: 5
43: 5
44: 5
45: 5
46: 5
47: 5
48: 5
49: 5
50: 5
51: 5
52: 5
53: 5
54: 5
edge from: to
55: 0
55: 1
56: 0
56: 1
56: 3
56: 4
57: 2
57: 5
57: 6
58: 7
59: 9
59: 11
59: 12
60: 5
60: 12
60: 14
60: 15
61: 18
61: 19
62: 1
62: 22
63: 2
63: 8
63: 25
63: 27
64: 27
64: 29
65: 29
65: 30
66: 31
67: 10
67: 32
67: 34
68: 35
68: 36
69: 36
69: 37
69: 39
70: 37
70: 38
71: 42
72: 45
73: 50
74: 49
74: 51
74: 52
2: 55
3: 55
4: 55
5: 56
6: 56
7: 57
8: 57
9: 58
10: 58
11: 58
12: 58
13: 59
14: 59
15: 59
16: 60
17: 60
18: 60
19: 60
20: 60
21: 61
22: 61
23: 62
24: 62
25: 62
26: 62
27: 62
28: 63
29: 63
30: 64
31: 64
32: 65
33: 65
34: 66
35: 67
36: 67
37: 67
38: 68
39: 68
40: 69
41: 70
42: 70
43: 70
44: 71
45: 71
46: 71
47: 72
48: 72
49: 72
50: 72
51: 72
52: 73
53: 74
54: 74
segment: [13]
vertex id: label
66: 0
67: 0
68: 0
69: 0
70: 0
71: 0
72: 0
73: 0
74: 0
75: 0
76: 0
77: 0
78: 0
79: 0
80: 0
81: 0
82: 0
83: 0
84: 0
85: 0
0: 5
1: 5
2: 5
3: 5
4: 5
5: 5
6: 5
7: 5
8: 5
9: 5
10: 5
11: 5
12: 5
13: 5
14: 5
15: 5
16: 5
17: 5
18: 5
19: 5
20: 5
21: 5
22: 5
23: 5
24: 5
25: 5
26: 5
27: 5
28: 5
29: 5
30: 5
31: 5
32: 5
33: 5
34: 5
35: 5
36: 5
37: 5
38: 5
39: 5
40: 5
41: 5
42: 5
43: 5
44: 5
45: 5
46: 5
47: 5
48: 5
49: 5
50: 5
51: 5
52: 5
53: 5
54: 5
55: 5
56: 5
57: 5
58: 5
59: 5
60: 5
61: 5
62: 5
63: 5
64: 5
65: 5
edge from: to
66: 0
66: 1
67: 2
67: 4
67: 5
68: 10
69: 1
69: 4
69: 10
69: 12
70: 5
70: 15
70: 16
71: 6
71: 18
71: 19
72: 23
72: 24
73: 26
74: 28
74: 30
75: 30
75: 32
76: 10
76: 32
77: 35
77: 36
78: 38
79: 39
79: 41
79: 42
80: 44
80: 46
81: 48
81: 50
81: 51
82: 41
82: 51
82: 52
82: 54
83: 55
84: 55
84: 57
85: 60
2: 66
3: 66
4: 66
5: 66
6: 67
7: 67
8: 67
9: 67
10: 67
11: 68
12: 68
13: 68
14: 69
15: 69
16: 69
17: 70
18: 70
19: 70
20: 70
21: 71
22: 71
23: 71
24: 71
25: 72
26: 72
27: 73
28: 73
29: 73
30: 73
31: 74
32: 74
33: 75
34: 75
35: 76
36: 76
37: 76
38: 77
39: 77
40: 77
41: 78
42: 78
43: 79
44: 79
45: 79
46: 79
47: 79
48: 80
49: 80
50: 80
51: 80
52: 81
53: 81
54: 81
55: 82
56: 82
57: 83
58: 83
59: 84
60: 84
61: 84
62: 84
63: 84
64: 85
65: 85
segment: [14]
vertex id: label
65: 0
66: 0
67: 0
68: 0
69: 0
70: 0
71: 0
72: 0
73: 0
74: 0
75: 0
76: 0
77: 0
78: 0
79: 0
80: 0
81: 0
82: 0
83: 0
84: 0
0: 5
1: 5
2: 5
3: 5
4: 5
5: 5
6: 5
7: 5
8: 5
9: 5
10: 5
11: 5
12: 5
13: 5
14: 5
15: 5
16: 5
17: 5
18: 5
19: 5
20: 5
21: 5
22: 5
23: 5
24: 5
25: 5
26: 5
27: 5
28: 5
29: 5
30: 5
31: 5
32: 5
33: 5
34: 5
35: 5
36: 5
37: 5
38: 5
39: 5
40: 5
41: 5
42: 5
43: 5
44: 5
45: 5
46: 5
47: 5
48: 5
49: 5
50: 5
51: 5
52: 5
53: 5
54: 5
55: 5
56: 5
57: 5
58: 5
59: 5
60: 5
61: 5
62: 5
63: 5
64: 5
edge from: to
65: 0
65: 1
65: 2
66: 5
67: 8
68: 9
68: 10
69: 12
70: 16
71: 1
71: 22
72: 22
72: 23
72: 24
73: 20
73: 24
73: 26
74: 27
74: 28
74: 29
75: 29
75: 30
75: 31
76: 33
76: 35
77: 36
77: 38
78: 42
79: 2
79: 42
80: 47
80: 48
80: 49
80: 50
81: 49
81: 51
82: 54
82: 56
83: 55
84: 59
84: 60
3: 65
4: 65
5: 65
6: 65
7: 66
8: 66
9: 66
10: 67
11: 68
12: 68
13: 68
14: 69
15: 69
16: 69
17: 69
18: 70
19: 70
20: 70
21: 70
22: 70
23: 71
24: 71
25: 72
26: 72
27: 73
28: 73
29: 73
30: 74
31: 74
32: 75
33: 75
34: 75
35: 75
36: 76
37: 76
38: 76
39: 77
40: 77
41: 77
42: 77
43: 77
44: 78
45: 79
46: 79
47: 79
48: 79
49: 79
50: 79
51: 80
52: 80
53: 81
54: 81
55: 81
56: 81
57: 81
58: 82
59: 83
60: 83
61: 83
62: 83
63: 83
64: 84
segment: [15]
vertex id: label
48: 0
49: 0
50: 0
51: 0
52: 0
53: 0
54: 0
55: 0
56: 0
57: 0
58: 0
59: 0
60: 0
61: 0
62: 0
63: 0
64: 4
65: 4
66: 4
67: 1
0: 5
1: 5
2: 5
3: 5
4: 5
5: 5
6: 5
7: 5
8: 5
9: 5
10: 5
11: 5
12: 5
13: 5
14: 5
15: 5
16: 5
17: 5
18: 5
19: 5
20: 5
21: 5
22: 5
23: 5
24: 5
25: 5
26: 5
27: 5
28: 5
29: 5
30: 5
31: 5
32: 5
33: 5
34: 5
35: 5
36: 5
37: 5
38: 5
39: 5
40: 5
41: 5
42: 5
43: 5
44: 5
45: 5
46: 5
47: 5
edge from: to
48: 0
49: 0
49: 2
50: 4
50: 5
51: 5
52: 8
52: 9
53: 11
54: 4
54: 12
55: 3
55: 15
55: 17
55: 18
55: 19
56: 19
56: 21
57: 1
57: 22
57: 23
58: 23
58: 24
59: 24
59: 26
60: 28
61: 27
61: 28
61: 29
62: 31
63: 29
63: 36
63: 38
64: 36
64: 37
65: 41
66: 42
67: 43
67: 45
1: 48
2: 48
3: 49
4: 49
5: 49
6: 50
7: 51
8: 51
9: 51
10: 52
11: 52
12: 53
13: 53
14: 54
15: 54
16: 54
17: 54
18: 54
19: 54
20: 55
21: 55
22: 56
23: 56
24: 57
25: 58
26: 58
27: 59
28: 59
29: 60
30: 61
31: 61
32: 61
33: 61
34: 62
35: 62
36: 62
37: 62
38: 62
39: 63
40: 64
41: 64
42: 64
43: 65
44: 65
45: 66
46: 67
47: 67
segment: [16]
vertex id: label
70: 0
71: 0
72: 0
73: 0
74: 0
75: 0
76: 0
77: 0
78: 0
79: 0
80: 0
81: 0
82: 0
83: 0
84: 0
85: 0
86: 0
87: 0
88: 0
89: 0
0: 5
1: 5
2: 5
3: 5
4: 5
5: 5
6: 5
7: 5
8: 5
9: 5
10: 5
11: 5
12: 5
13: 5
14: 5
15: 5
16: 5
17: 5
18: 5
19: 5
20: 5
21: 5
22: 5
23: 5
24: 5
25: 5
26: 5
27: 5
28: 5
29: 5
30: 5
31: 5
32: 5
33: 5
34: 5
35: 5
36: 5
37: 5
38: 5
39: 5
40: 5
41: 5
42: 5
43: 5
44: 5
45: 5
46: 5
47: 5
48: 5
49: 5
50: 5
51: 5
52: 5
53: 5
54: 5
55: 5
56: 5
57: 5
58: 5
59: 5
60: 5
61: 5
62: 5
63: 5
64: 5
65: 5
66: 5
67: 5
68: 5
69: 5
edge from: to
70: 0
70: 1
70: 2
70: 3
71: 1
71: 2
71: 3
71: 4
71: 5
72: 7
73: 11
73: 12
74: 15
75: 18
75: 19
76: 22
77: 4
77: 20
77: 24
77: 26
78: 26
78: 28
79: 24
79: 28
79: 29
79: 30
79: 31
80: 33
80: 35
81: 37
81: 38
81: 40
82: 2
82: 42
82: 44
83: 46
84: 47
85: 51
85: 52
86: 55
86: 56
86: 57
87: 18
87: 57
87: 59
88: 60
88: 61
89: 3
89: 64
4: 70
5: 70
6: 71
7: 71
8: 71
9: 72
10: 72
11: 72
12: 72
13: 73
14: 73
15: 73
16: 74
17: 74
18: 74
19: 74
20: 74
21: 75
22: 75
23: 76
24: 76
25: 76
26: 76
27: 77
28: 77
29: 78
30: 78
31: 78
32: 79
33: 79
34: 79
35: 79
36: 80
37: 80
38: 80
39: 80
40: 80
41: 81
42: 81
43: 81
44: 81
45: 82
46: 82
47: 82
48: 83
49: 83
50: 84
51: 84
52: 84
53: 84
54: 84
55: 85
56: 85
57: 85
58: 85
59: 86
60: 86
61: 87
62: 87
63: 87
64: 87
65: 88
66: 88
67: 89
68: 89
69: 89
segment: [17]
vertex id: label
64: 0
65: 0
66: 0
67: 0
68: 0
69: 0
70: 0
71: 0
72: 0
73: 0
74: 0
75: 0
76: 0
77: 0
78: 0
79: 0
80: 0
81: 0
82: 0
83: 0
0: 5
1: 5
2: 5
3: 5
4: 5
5: 5
6: 5
7: 5
8: 5
9: 5
10: 5
11: 5
12: 5
13: 5
14: 5
15: 5
16: 5
17: 5
18: 5
19: 5
20: 5
21: 5
22: 5
23: 5
24: 5
25: 5
26: 5
27: 5
28: 5
29: 5
30: 5
31: 5
32: 5
33: 5
34: 5
35: 5
36: 5
37: 5
38: 5
39: 5
40: 5
41: 5
42: 5
43: 5
44: 5
45: 5
46: 5
47: 5
48: 5
49: 5
50: 5
51: 5
52: 5
53: 5
54: 5
55: 5
56: 5
57: 5
58: 5
59: 5
60: 5
61: 5
62: 5
63: 5
edge from: to
64: 0
64: 1
65: 5
66: 9
66: 10
67: 11
67: 12
68: 15
69: 15
69: 16
70: 6
70: 18
70: 19
71: 1
71: 23
72: 26
72: 28
73: 28
73: 30
74: 30
74: 32
75: 10
75: 25
75: 31
75: 33
76: 33
76: 35
77: 37
78: 41
79: 42
80: 43
80: 45
81: 49
82: 51
82: 52
83: 56
83: 59
2: 64
3: 64
4: 64
5: 64
6: 64
7: 65
8: 65
9: 65
10: 65
11: 66
12: 66
13: 67
14: 67
15: 67
16: 68
17: 69
18: 69
19: 69
20: 69
21: 70
22: 70
23: 70
24: 71
25: 71
26: 71
27: 71
28: 71
29: 72
30: 72
31: 73
32: 73
33: 74
34: 75
35: 75
36: 76
37: 76
38: 76
39: 76
40: 77
41: 77
42: 77
43: 78
44: 78
45: 79
46: 79
47: 80
48: 80
49: 80
50: 80
51: 81
52: 81
53: 81
54: 81
55: 82
56: 82
57: 82
58: 82
59: 82
60: 83
61: 83
62: 83
63: 83
segment: [18]
vertex id: label
57: 0
58: 0
59: 0
60: 0
61: 0
62: 0
63: 0
64: 0
65: 0
66: 0
67: 0
68: 0
69: 0
70: 0
71: 0
72: 0
73: 4
74: 1
75: 2
76: 1
0: 5
1: 5
2: 5
3: 5
4: 5
5: 5
6: 5
7: 5
8: 5
9: 5
10: 5
11: 5
12: 5
13: 5
14: 5
15: 5
16: 5
17: 5
18: 5
19: 5
20: 5
21: 5
22: 5
23: 5
24: 5
25: 5
26: 5
27: 5
28: 5
29: 5
30: 5
31: 5
32: 5
33: 5
34: 5
35: 5
36: 5
37: 5
38: 5
39: 5
40: 5
41: 5
42: 5
43: 5
44: 5
45: 5
46: 5
47: 5
48: 5
49: 5
50: 5
51: 5
52: 5
53: 5
54: 5
55: 5
56: 5
edge from: to
57: 0
57: 1
58: 4
59: 6
60: 9
60: 10
61: 10
61: 11
62: 12
63: 17
63: 18
64: 22
65: 25
65: 27
66: 29
66: 30
67: 10
67: 31
67: 33
68: 35
68: 36
68: 37
69: 37
69: 38
69: 40
70: 12
70: 38
70: 40
71: 42
72: 45
72: 47
73: 47
74: 50
75: 50
75: 52
76: 52
76: 54
76: 55
2: 57
3: 57
4: 57
5: 58
6: 58
7: 58
8: 59
9: 59
10: 59
11: 60
12: 61
13: 61
14: 62
15: 62
16: 62
17: 62
18: 62
19: 63
20: 63
21: 63
22: 63
23: 64
24: 64
25: 64
26: 64
27: 64
28: 65
29: 65
30: 65
31: 65
32: 66
33: 66
34: 67
35: 67
36: 67
37: 67
38: 68
39: 68
40: 68
41: 69
42: 70
43: 70
44: 70
45: 71
46: 71
47: 71
48: 71
49: 72
50: 73
51: 73
52: 74
53: 74
54: 75
55: 75
56: 76
segment: [19]
vertex id: label
65: 0
66: 0
67: 0
68: 0
69: 0
70: 0
71: 0
72: 0
73: 0
74: 0
75: 0
76: 0
77: 0
78: 0
79: 0
80: 0
81: 0
82: 0
83: 0
84: 0
0: 5
1: 5
2: 5
3: 5
4: 5
5: 5
6: 5
7: 5
8: 5
9: 5
10: 5
11: 5
12: 5
13: 5
14: 5
15: 5
16: 5
17: 5
18: 5
19: 5
20: 5
21: 5
22: 5
23: 5
24: 5
25: 5
26: 5
27: 5
28: 5
29: 5
30: 5
31: 5
32: 5
33: 5
34: 5
35: 5
36: 5
37: 5
38: 5
39: 5
40: 5
41: 5
42: 5
43: 5
44: 5
45: 5
46: 5
47: 5
48: 5
49: 5
50: 5
51: 5
52: 5
53: 5
54: 5
55: 5
56: 5
57: 5
58: 5
59: 5
60: 5
61: 5
62: 5
63: 5
64: 5
edge from: to
65: 0
65: 1
65: 2
66: 0
66: 1
66: 3
67: 6
67: 7
68: 3
68: 6
68: 7
68: 8
69: 3
69: 8
69: 9
69: 10
70: 14
71: 19
72: 23
72: 24
73: 2
73: 26
73: 27
73: 28
74: 30
74: 32
75: 10
75: 32
75: 34
76: 34
76: 35
76: 36
77: 38
77: 40
78: 42
79: 14
79: 45
79: 46
79: 47
80: 49
80: 51
81: 55
82: 56
82: 57
82: 59
83: 58
84: 59
84: 60
3: 65
4: 66
5: 66
6: 66
7: 66
8: 67
9: 68
10: 68
11: 69
12: 69
13: 69
14: 69
15: 70
16: 70
17: 70
18: 70
19: 70
20: 71
21: 71
22: 71
23: 71
24: 71
25: 72
26: 72
27: 72
28: 72
29: 73
30: 73
31: 73
32: 73
33: 74
34: 74
35: 75
36: 75
37: 76
38: 76
39: 76
40: 76
41: 76
42: 77
43: 77
44: 78
45: 78
46: 78
47: 78
48: 78
49: 79
50: 79
51: 79
52: 79
53: 80
54: 80
55: 80
56: 80
57: 81
58: 81
59: 81
60: 82
61: 82
62: 83
63: 83
64: 84
segment: [20]
vertex id: label
64: 0
65: 0
66: 0
67: 0
68: 0
69: 0
70: 0
71: 0
72: 0
73: 0
74: 0
75: 0
76: 0
77: 0
78: 0
79: 0
80: 0
81: 0
82: 0
83: 0
0: 5
1: 5
2: 5
3: 5
4: 5
5: 5
6: 5
7: 5
8: 5
9: 5
10: 5
11: 5
12: 5
13: 5
14: 5
15: 5
16: 5
17: 5
18: 5
19: 5
20: 5
21: 5
22: 5
23: 5
24: 5
25: 5
26: 5
27: 5
28: 5
29: 5
30: 5
31: 5
32: 5
33: 5
34: 5
35: 5
36: 5
37: 5
38: 5
39: 5
40: 5
41: 5
42: 5
43: 5
44: 5
45: 5
46: 5
47: 5
48: 5
49: 5
50: 5
51: 5
52: 5
53: 5
54: 5
55: 5
56: 5
57: 5
58: 5
59: 5
60: 5
61: 5
62: 5
63: 5
edge from: to
64: 0
64: 1
64: 2
65: 9
65: 10
66: 11
66: 12
67: 13
67: 14
68: 15
68: 16
69: 19
70: 18
70: 19
71: 25
72: 2
72: 26
72: 28
73: 10
73: 25
73: 31
73: 33
74: 34
75: 38
75: 40
76: 42
77: 45
78: 44
78: 46
79: 46
79: 47
80: 50
81: 52
82: 52
82: 54
82: 55
83: 57
83: 59
3: 64
4: 64
5: 64
6: 64
7: 64
8: 64
9: 64
10: 64
11: 65
12: 65
13: 66
14: 66
15: 67
16: 67
17: 68
18: 68
19: 68
20: 69
21: 70
22: 70
23: 70
24: 70
25: 70
26: 71
27: 71
28: 71
29: 72
30: 72
31: 72
32: 72
33: 72
34: 73
35: 73
36: 73
37: 74
38: 74
39: 74
40: 74
41: 74
42: 75
43: 75
44: 75
45: 76
46: 76
47: 77
48: 78
49: 78
50: 79
51: 79
52: 80
53: 80
54: 80
55: 81
56: 82
57: 82
58: 82
59: 82
60: 82
61: 83
62: 83
63: 83
segment: [21]
vertex id: label
62: 0
63: 0
64: 0
65: 0
66: 0
67: 0
68: 0
69: 0
70: 0
71: 0
72: 0
73: 0
74: 0
75: 0
76: 0
77: 0
78: 0
79: 0
80: 0
81: 0
0: 5
1: 5
2: 5
3: 5
4: 5
5: 5
6: 5
7: 5
8: 5
9: 5
10: 5
11: 5
12: 5
13: 5
14: 5
15: 5
16: 5
17: 5
18: 5
19: 5
20: 5
21: 5
22: 5
23: 5
24: 5
25: 5
26: 5
27: 5
28: 5
29: 5
30: 5
31: 5
32: 5
33: 5
34: 5
35: 5
36: 5
37: 5
38: 5
39: 5
40: 5
41: 5
42: 5
43: 5
44: 5
45: 5
46: 5
47: 5
48: 5
49: 5
50: 5
51: 5
52: 5
53: 5
54: 5
55: 5
56: 5
57: 5
58: 5
59: 5
60: 5
61: 5
edge from: to
62: 0
63: 0
63: 1
63: 3
64: 5
64: 6
65: 0
65: 1
65: 3
65: 6
65: 7
65: 8
66: 10
66: 11
67: 15
68: 14
68: 17
68: 18
69: 6
69: 18
69: 19
70: 24
71: 24
71: 26
72: 28
73: 30
73: 32
74: 32
75: 35
75: 36
76: 29
76: 36
76: 38
77: 32
77: 39
77: 40
77: 41
77: 42
78: 2
78: 42
79: 44
79: 45
79: 46
79: 47
80: 48
80: 49
80: 50
80: 51
81: 53
81: 55
81: 56
1: 62
2: 62
3: 62
4: 63
5: 63
6: 63
7: 64
8: 64
9: 65
10: 65
11: 65
12: 66
13: 66
14: 66
15: 66
16: 67
17: 67
18: 67
19: 68
20: 68
21: 69
22: 69
23: 69
24: 69
25: 70
26: 70
27: 71
28: 71
29: 71
30: 71
31: 72
32: 72
33: 73
34: 73
35: 74
36: 74
37: 74
38: 75
39: 76
40: 76
41: 76
42: 76
43: 77
44: 77
45: 78
46: 78
47: 78
48: 79
49: 79
50: 79
51: 79
52: 80
53: 80
54: 80
55: 80
56: 80
57: 81
58: 81
59: 81
60: 81
61: 81
segment: [22]
vertex id: label
78: 0
79: 0
80: 0
81: 0
82: 0
83: 0
84: 0
85: 0
86: 0
87: 0
88: 0
89: 0
90: 0
91: 0
92: 0
93: 0
94: 0
95: 0
96: 0
97: 0
0: 5
1: 5
2: 5
3: 5
4: 5
5: 5
6: 5
7: 5
8: 5
9: 5
10: 5
11: 5
12: 5
13: 5
14: 5
15: 5
16: 5
17: 5
18: 5
19: 5
20: 5
21: 5
22: 5
23: 5
24: 5
25: 5
26: 5
27: 5
28: 5
29: 5
30: 5
31: 5
32: 5
33: 5
34: 5
35: 5
36: 5
37: 5
38: 5
39: 5
40: 5
41: 5
42: 5
43: 5
44: 5
45: 5
46: 5
47: 5
48: 5
49: 5
50: 5
51: 5
52: 5
53: 5
54: 5
55: 5
56: 5
57: 5
58: 5
59: 5
60: 5
61: 5
62: 5
63: 5
64: 5
65: 5
66: 5
67: 5
68: 5
69: 5
70: 5
71: 5
72: 5
73: 5
74: 5
75: 5
76: 5
77: 5
edge from: to
78: 0
78: 1
79: 2
80: 0
80: 4
81: 7
81: 8
82: 6
82: 9
82: 10
82: 11
83: 5
83: 12
83: 14
83: 15
84: 19
85: 1
85: 22
85: 23
86: 27
87: 10
87: 32
88: 36
89: 36
90: 39
90: 41
90: 42
91: 43
91: 45
92: 48
92: 50
93: 52
93: 54
94: 56
95: 57
95: 59
96: 64
96: 65
97: 70
2: 78
3: 79
4: 79
5: 80
6: 80
7: 80
8: 80
9: 81
10: 81
11: 81
12: 82
13: 82
14: 82
15: 82
16: 83
17: 83
18: 83
19: 83
20: 83
21: 84
22: 84
23: 84
24: 85
25: 85
26: 85
27: 85
28: 85
29: 85
30: 86
31: 86
32: 86
33: 86
34: 86
35: 87
36: 87
37: 87
38: 88
39: 89
40: 89
41: 89
42: 89
43: 90
44: 90
45: 90
46: 91
47: 91
48: 91
49: 91
50: 91
51: 91
52: 92
53: 92
54: 92
55: 92
56: 93
57: 93
58: 94
59: 94
60: 94
61: 95
62: 95
63: 95
64: 95
65: 95
66: 95
67: 95
68: 96
69: 96
70: 96
71: 96
72: 96
73: 97
74: 97
75: 97
76: 97
77: 97
segment: [23]
vertex id: label
65: 0
66: 0
67: 0
68: 0
69: 0
70: 0
71: 0
72: 0
73: 0
74: 0
75: 0
76: 0
77: 0
78: 0
79: 0
80: 0
81: 0
82: 0
83: 0
84: 0
0: 5
1: 5
2: 5
3: 5
4: 5
5: 5
6: 5
7: 5
8: 5
9: 5
10: 5
11: 5
12: 5
13: 5
14: 5
15: 5
16: 5
17: 5
18: 5
19: 5
20: 5
21: 5
22: 5
23: 5
24: 5
25: 5
26: 5
27: 5
28: 5
29: 5
30: 5
31: 5
32: 5
33: 5
34: 5
35: 5
36: 5
37: 5
38: 5
39: 5
40: 5
41: 5
42: 5
43: 5
44: 5
45: 5
46: 5
47: 5
48: 5
49: 5
50: 5
51: 5
52: 5
53: 5
54: 5
55: 5
56: 5
57: 5
58: 5
59: 5
60: 5
61: 5
62: 5
63: 5
64: 5
edge from: to
65: 0
65: 1
66: 5
67: 3
67: 6
67: 7
67: 8
68: 10
69: 1
69: 4
69: 12
70: 12
70: 14
70: 15
71: 18
71: 19
72: 23
73: 26
74: 28
75: 10
75: 31
75: 33
76: 34
77: 37
78: 42
79: 43
79: 45
79: 46
80: 47
80: 49
80: 50
81: 49
81: 51
81: 52
82: 50
82: 52
83: 51
83: 54
83: 55
83: 56
83: 57
84: 56
84: 59
2: 65
3: 65
4: 65
5: 65
6: 65
7: 66
8: 66
9: 67
10: 67
11: 68
12: 68
13: 68
14: 69
15: 69
16: 70
17: 70
18: 70
19: 70
20: 70
21: 71
22: 71
23: 71
24: 72
25: 72
26: 72
27: 73
28: 73
29: 73
30: 73
31: 74
32: 74
33: 74
34: 75
35: 75
36: 75
37: 76
38: 76
39: 76
40: 77
41: 77
42: 77
43: 77
44: 77
45: 78
46: 78
47: 79
48: 79
49: 79
50: 79
51: 80
52: 80
53: 81
54: 82
55: 82
56: 82
57: 82
58: 83
59: 83
60: 84
61: 84
62: 84
63: 84
64: 84
segment: [24]
vertex id: label
63: 0
64: 0
65: 0
66: 0
67: 0
68: 4
69: 1
70: 2
71: 1
72: 2
73: 1
74: 1
75: 2
76: 0
77: 0
78: 0
79: 0
80: 0
81: 0
82: 4
0: 5
1: 5
2: 5
3: 5
4: 5
5: 5
6: 5
7: 5
8: 5
9: 5
10: 5
11: 5
12: 5
13: 5
14: 5
15: 5
16: 5
17: 5
18: 5
19: 5
20: 5
21: 5
22: 5
23: 5
24: 5
25: 5
26: 5
27: 5
28: 5
29: 5
30: 5
31: 5
32: 5
33: 5
34: 5
35: 5
36: 5
37: 5
38: 5
39: 5
40: 5
41: 5
42: 5
43: 5
44: 5
45: 5
46: 5
47: 5
48: 5
49: 5
50: 5
51: 5
52: 5
53: 5
54: 5
55: 5
56: 5
57: 5
58: 5
59: 5
60: 5
61: 5
62: 5
edge from: to
63: 0
64: 3
65: 5
66: 8
67: 12
68: 15
69: 5
69: 12
69: 15
69: 16
70: 3
70: 15
70: 17
70: 18
70: 19
71: 23
72: 25
73: 28
74: 28
75: 32
76: 35
76: 36
77: 37
78: 42
79: 43
79: 44
79: 45
80: 46
81: 50
81: 52
81: 53
82: 55
82: 57
1: 63
2: 63
3: 63
4: 64
5: 64
6: 65
7: 65
8: 65
9: 65
10: 66
11: 66
12: 66
13: 66
14: 67
15: 67
16: 68
17: 69
18: 69
19: 69
20: 70
21: 70
22: 70
23: 70
24: 71
25: 71
26: 72
27: 72
28: 72
29: 73
30: 73
31: 74
32: 74
33: 74
34: 74
35: 75
36: 75
37: 75
38: 76
39: 76
40: 77
41: 77
42: 77
43: 77
44: 78
45: 78
46: 79
47: 79
48: 80
49: 80
50: 80
51: 80
52: 80
53: 80
54: 81
55: 81
56: 81
57: 81
58: 81
59: 82
60: 82
61: 82
62: 82
segment: [25]
vertex id: label
58: 0
59: 0
60: 0
61: 0
62: 0
63: 0
64: 0
65: 0
66: 0
67: 0
68: 0
69: 0
70: 0
71: 0
72: 0
73: 0
74: 0
75: 0
76: 0
77: 0
0: 5
1: 5
2: 5
3: 5
4: 5
5: 5
6: 5
7: 5
8: 5
9: 5
10: 5
11: 5
12: 5
13: 5
14: 5
15: 5
16: 5
17: 5
18: 5
19: 5
20: 5
21: 5
22: 5
23: 5
24: 5
25: 5
26: 5
27: 5
28: 5
29: 5
30: 5
31: 5
32: 5
33: 5
34: 5
35: 5
36: 5
37: 5
38: 5
39: 5
40: 5
41: 5
42: 5
43: 5
44: 5
45: 5
46: 5
47: 5
48: 5
49: 5
50: 5
51: 5
52: 5
53: 5
54: 5
55: 5
56: 5
57: 5
edge from: to
58: 0
59: 0
59: 3
60: 4
60: 5
61: 6
61: 7
61: 8
62: 10
62: 11
63: 15
64: 5
64: 13
64: 16
64: 17
65: 1
65: 23
66: 27
66: 28
66: 29
67: 28
67: 30
68: 29
68: 30
68: 31
68: 32
69: 31
69: 33
70: 36
71: 37
72: 40
73: 43
74: 45
74: 47
75: 48
75: 50
75: 51
76: 52
77: 54
1: 58
2: 58
3: 58
4: 59
5: 59
6: 60
7: 60
8: 60
9: 61
10: 61
11: 61
12: 62
13: 62
14: 62
15: 62
16: 63
17: 63
18: 64
19: 64
20: 64
21: 64
22: 64
23: 64
24: 65
25: 65
26: 65
27: 65
28: 65
29: 65
30: 66
31: 67
32: 67
33: 68
34: 69
35: 69
36: 69
37: 69
38: 70
39: 70
40: 71
41: 71
42: 72
43: 72
44: 72
45: 72
46: 73
47: 73
48: 73
49: 74
50: 74
51: 74
52: 75
53: 75
54: 76
55: 76
56: 77
57: 77
segment: [26]
vertex id: label
63: 0
64: 0
65: 0
66: 0
67: 0
68: 0
69: 0
70: 0
71: 0
72: 0
73: 0
74: 0
75: 0
76: 0
77: 0
78: 0
79: 0
80: 0
81: 0
82: 0
0: 5
1: 5
2: 5
3: 5
4: 5
5: 5
6: 5
7: 5
8: 5
9: 5
10: 5
11: 5
12: 5
13: 5
14: 5
15: 5
16: 5
17: 5
18: 5
19: 5
20: 5
21: 5
22: 5
23: 5
24: 5
25: 5
26: 5
27: 5
28: 5
29: 5
30: 5
31: 5
32: 5
33: 5
34: 5
35: 5
36: 5
37: 5
38: 5
39: 5
40: 5
41: 5
42: 5
43: 5
44: 5
45: 5
46: 5
47: 5
48: 5
49: 5
50: 5
51: 5
52: 5
53: 5
54: 5
55: 5
56: 5
57: 5
58: 5
59: 5
60: 5
61: 5
62: 5
edge from: to
63: 0
64: 0
64: 1
65: 4
65: 5
66: 7
67: 11
68: 15
69: 18
70: 23
71: 24
71: 26
72: 27
72: 29
73: 23
73: 28
73: 29
73: 30
74: 10
74: 25
74: 31
74: 33
75: 19
75: 32
75: 34
75: 35
75: 36
76: 38
76: 40
77: 42
78: 47
79: 49
79: 51
80: 52
81: 54
81: 55
81: 56
82: 18
82: 57
82: 59
1: 63
2: 64
3: 64
4: 64
5: 64
6: 65
7: 65
8: 65
9: 66
10: 66
11: 66
12: 67
13: 67
14: 67
15: 67
16: 68
17: 68
18: 68
19: 69
20: 69
21: 69
22: 69
23: 69
24: 70
25: 70
26: 70
27: 71
28: 71
29: 71
30: 72
31: 73
32: 73
33: 73
34: 74
35: 74
36: 74
37: 75
38: 75
39: 75
40: 75
41: 75
42: 76
43: 76
44: 76
45: 77
46: 77
47: 77
48: 77
49: 78
50: 78
51: 78
52: 78
53: 79
54: 80
55: 80
56: 80
57: 80
58: 81
59: 81
60: 81
61: 82
62: 82
segment: [27]
vertex id: label
47: 0
48: 0
49: 0
50: 0
51: 0
52: 0
53: 0
54: 0
55: 0
56: 0
57: 0
58: 0
59: 0
60: 0
61: 0
62: 0
63: 0
64: 0
65: 0
66: 0
0: 5
1: 5
2: 5
3: 5
4: 5
5: 5
6: 5
7: 5
8: 5
9: 5
10: 5
11: 5
12: 5
13: 5
14: 5
15: 5
16: 5
17: 5
18: 5
19: 5
20: 5
21: 5
22: 5
23: 5
24: 5
25: 5
26: 5
27: 5
28: 5
29: 5
30: 5
31: 5
32: 5
33: 5
34: 5
35: 5
36: 5
37: 5
38: 5
39: 5
40: 5
41: 5
42: 5
43: 5
44: 5
45: 5
46: 5
edge from: to
47: 0
47: 1
48: 0
48: 1
48: 2
48: 3
49: 2
49: 4
49: 5
50: 5
51: 9
51: 10
52: 12
53: 15
54: 6
54: 18
54: 19
55: 16
55: 19
55: 20
55: 21
56: 1
56: 21
56: 22
57: 25
58: 27
59: 29
59: 30
60: 10
60: 31
60: 33
61: 10
61: 32
62: 33
62: 35
63: 35
63: 36
63: 37
64: 38
64: 40
65: 40
65: 41
65: 42
65: 43
66: 2
66: 42
66: 44
2: 47
4: 48
5: 48
6: 49
7: 50
8: 50
9: 50
10: 50
11: 51
12: 51
13: 51
14: 52
15: 52
16: 52
17: 53
18: 53
19: 53
20: 53
21: 54
22: 55
23: 56
24: 56
25: 56
26: 57
27: 57
28: 57
29: 57
30: 58
31: 58
32: 59
33: 59
34: 60
35: 61
36: 62
37: 62
38: 63
39: 63
40: 63
41: 63
42: 64
43: 64
44: 65
45: 66
46: 66
segment: [28]
vertex id: label
62: 0
63: 0
64: 0
65: 0
66: 0
67: 0
68: 0
69: 0
70: 0
71: 0
72: 0
73: 0
74: 0
75: 0
76: 0
77: 0
78: 0
79: 0
80: 0
81: 0
0: 5
1: 5
2: 5
3: 5
4: 5
5: 5
6: 5
7: 5
8: 5
9: 5
10: 5
11: 5
12: 5
13: 5
14: 5
15: 5
16: 5
17: 5
18: 5
19: 5
20: 5
21: 5
22: 5
23: 5
24: 5
25: 5
26: 5
27: 5
28: 5
29: 5
30: 5
31: 5
32: 5
33: 5
34: 5
35: 5
36: 5
37: 5
38: 5
39: 5
40: 5
41: 5
42: 5
43: 5
44: 5
45: 5
46: 5
47: 5
48: 5
49: 5
50: 5
51: 5
52: 5
53: 5
54: 5
55: 5
56: 5
57: 5
58: 5
59: 5
60: 5
61: 5
edge from: to
62: 0
62: 1
63: 4
64: 5
64: 6
65: 7
65: 8
65: 9
66: 11
67: 15
68: 19
69: 1
69: 22
70: 22
70: 23
70: 24
71: 25
71: 27
72: 28
73: 33
74: 34
74: 36
75: 35
75: 36
75: 37
76: 36
76: 37
76: 39
77: 37
77: 38
78: 45
79: 48
79: 50
80: 53
80: 54
80: 55
80: 56
81: 55
2: 62
3: 62
4: 62
5: 63
6: 63
7: 64
8: 64
9: 64
10: 65
11: 65
12: 65
13: 66
14: 66
15: 66
16: 67
17: 67
18: 67
19: 67
20: 68
21: 68
22: 68
23: 69
24: 69
25: 70
26: 70
27: 70
28: 71
29: 71
30: 71
31: 72
32: 72
33: 72
34: 72
35: 72
36: 73
37: 74
38: 75
39: 75
40: 76
41: 77
42: 77
43: 77
44: 77
45: 77
46: 77
47: 78
48: 78
49: 78
50: 78
51: 78
52: 79
53: 79
54: 79
55: 79
56: 79
57: 80
58: 80
59: 81
60: 81
61: 81
segment: [29]
vertex id: label
41: 0
42: 0
43: 0
44: 0
45: 0
46: 0
47: 0
48: 0
49: 0
50: 0
51: 0
52: 0
53: 0
54: 0
55: 0
56: 0
57: 0
58: 0
59: 0
60: 0
0: 5
1: 5
2: 5
3: 5
4: 5
5: 5
6: 5
7: 5
8: 5
9: 5
10: 5
11: 5
12: 5
13: 5
14: 5
15: 5
16: 5
17: 5
18: 5
19: 5
20: 5
21: 5
22: 5
23: 5
24: 5
25: 5
26: 5
27: 5
28: 5
29: 5
30: 5
31: 5
32: 5
33: 5
34: 5
35: 5
36: 5
37: 5
38: 5
39: 5
40: 5
edge from: to
41: 0
41: 1
42: 0
42: 4
43: 5
44: 6
45: 7
45: 8
46: 9
46: 10
47: 12
48: 1
48: 13
48: 14
49: 14
49: 15
50: 16
51: 17
51: 18
52: 18
52: 19
53: 23
54: 24
55: 20
55: 24
55: 26
56: 26
56: 28
57: 27
57: 29
58: 24
58: 29
58: 30
58: 31
59: 33
59: 35
60: 29
60: 36
60: 38
2: 41
3: 41
4: 41
5: 42
6: 42
7: 43
8: 44
9: 45
10: 45
11: 46
12: 46
13: 46
14: 47
15: 48
16: 49
17: 49
18: 50
19: 51
20: 51
21: 52
22: 52
23: 52
24: 53
25: 54
26: 54
27: 55
28: 55
29: 56
30: 57
31: 57
32: 58
33: 58
34: 58
35: 58
36: 59
37: 59
38: 59
39: 60
40: 60
segment: [30]
vertex id: label
60: 0
61: 0
62: 0
63: 0
64: 0
65: 0
66: 0
67: 0
68: 0
69: 0
70: 0
71: 0
72: 0
73: 0
74: 0
75: 0
76: 0
77: 0
78: 0
79: 0
0: 5
1: 5
2: 5
3: 5
4: 5
5: 5
6: 5
7: 5
8: 5
9: 5
10: 5
11: 5
12: 5
13: 5
14: 5
15: 5
16: 5
17: 5
18: 5
19: 5
20: 5
21: 5
22: 5
23: 5
24: 5
25: 5
26: 5
27: 5
28: 5
29: 5
30: 5
31: 5
32: 5
33: 5
34: 5
35: 5
36: 5
37: 5
38: 5
39: 5
40: 5
41: 5
42: 5
43: 5
44: 5
45: 5
46: 5
47: 5
48: 5
49: 5
50: 5
51: 5
52: 5
53: 5
54: 5
55: 5
56: 5
57: 5
58: 5
59: 5
edge from: to
60: 0
60: 1
61: 2
61: 4
61: 5
62: 8
63: 3
63: 9
63: 10
64: 11
64: 12
65: 5
65: 15
65: 16
66: 16
67: 17
67: 19
68: 23
69: 24
69: 25
70: 25
70: 27
71: 28
71: 29
71: 30
72: 32
73: 36
74: 38
74: 40
75: 40
75: 42
76: 44
76: 46
77: 47
78: 51
78: 52
79: 52
79: 54
2: 60
3: 60
4: 60
5: 60
6: 61
7: 61
8: 61
9: 61
10: 62
11: 63
12: 63
13: 64
14: 64
15: 64
16: 64
17: 65
18: 66
19: 66
20: 67
21: 67
22: 67
23: 67
24: 68
25: 68
26: 69
27: 69
28: 70
29: 70
30: 70
31: 71
32: 71
33: 71
34: 71
35: 72
36: 72
37: 72
38: 72
39: 73
40: 73
41: 73
42: 74
43: 74
44: 75
45: 75
46: 75
47: 75
48: 76
49: 76
50: 77
51: 77
52: 77
53: 77
54: 77
55: 78
56: 79
57: 79
58: 79
59: 79
segment: [31]
vertex id: label
61: 0
62: 0
63: 0
64: 0
65: 0
66: 0
67: 0
68: 0
69: 0
70: 0
71: 0
72: 0
73: 0
74: 4
75: 1
76: 2
77: 1
78: 2
79: 0
80: 0
0: 5
1: 5
2: 5
3: 5
4: 5
5: 5
6: 5
7: 5
8: 5
9: 5
10: 5
11: 5
12: 5
13: 5
14: 5
15: 5
16: 5
17: 5
18: 5
19: 5
20: 5
21: 5
22: 5
23: 5
24: 5
25: 5
26: 5
27: 5
28: 5
29: 5
30: 5
31: 5
32: 5
33: 5
34: 5
35: 5
36: 5
37: 5
38: 5
39: 5
40: 5
41: 5
42: 5
43: 5
44: 5
45: 5
46: 5
47: 5
48: 5
49: 5
50: 5
51: 5
52: 5
53: 5
54: 5
55: 5
56: 5
57: 5
58: 5
59: 5
60: 5
edge from: to
61: 0
61: 1
62: 0
62: 1
62: 2
62: 3
62: 4
63: 7
64: 10
64: 11
65: 9
65: 11
65: 12
66: 15
67: 16
68: 18
68: 19
69: 22
70: 19
70: 24
70: 25
71: 28
72: 29
72: 30
73: 34
73: 36
74: 36
75: 43
76: 43
76: 45
77: 46
77: 47
78: 50
78: 52
79: 41
79: 51
79: 52
79: 54
80: 51
80: 54
80: 55
80: 56
80: 57
2: 61
3: 61
5: 62
6: 62
7: 62
8: 62
9: 63
10: 63
11: 63
12: 64
13: 65
14: 65
15: 65
16: 66
17: 66
18: 67
19: 67
20: 67
21: 68
22: 68
23: 69
24: 69
25: 69
26: 70
27: 70
28: 70
29: 71
30: 71
31: 71
32: 72
33: 72
34: 72
35: 72
36: 72
37: 73
38: 73
39: 74
40: 74
41: 74
42: 74
43: 74
44: 74
45: 74
46: 75
47: 76
48: 76
49: 76
50: 77
51: 77
52: 77
53: 77
54: 78
55: 79
56: 79
57: 79
58: 80
59: 80
60: 80
segment: [32]
vertex id: label
65: 0
66: 0
67: 0
68: 0
69: 0
70: 0
71: 0
72: 0
73: 0
74: 0
75: 0
76: 0
77: 0
78: 0
79: 0
80: 0
81: 0
82: 0
83: 0
84: 0
0: 5
1: 5
2: 5
3: 5
4: 5
5: 5
6: 5
7: 5
8: 5
9: 5
10: 5
11: 5
12: 5
13: 5
14: 5
15: 5
16: 5
17: 5
18: 5
19: 5
20: 5
21: 5
22: 5
23: 5
24: 5
25: 5
26: 5
27: 5
28: 5
29: 5
30: 5
31: 5
32: 5
33: 5
34: 5
35: 5
36: 5
37: 5
38: 5
39: 5
40: 5
41: 5
42: 5
43: 5
44: 5
45: 5
46: 5
47: 5
48: 5
49: 5
50: 5
51: 5
52: 5
53: 5
54: 5
55: 5
56: 5
57: 5
58: 5
59: 5
60: 5
61: 5
62: 5
63: 5
64: 5
edge from: to
65: 0
66: 0
66: 1
66: 2
66: 3
67: 4
67: 5
68: 7
69: 3
69: 4
69: 8
69: 9
69: 10
70: 13
70: 14
71: 19
72: 1
72: 22
72: 23
73: 2
73: 26
73: 28
74: 28
74: 30
75: 10
75: 32
75: 34
76: 36
76: 38
77: 12
77: 37
77: 38
77: 40
78: 38
78: 40
79: 47
80: 47
80: 48
80: 49
80: 50
81: 50
82: 52
83: 53
83: 55
84: 58
84: 60
1: 65
2: 65
3: 65
4: 66
5: 66
6: 67
7: 67
8: 67
9: 68
10: 68
11: 69
12: 69
13: 69
14: 69
15: 70
16: 70
17: 70
18: 70
19: 70
20: 71
21: 71
22: 71
23: 71
24: 72
25: 72
26: 72
27: 72
28: 72
29: 73
30: 73
31: 74
32: 74
33: 74
34: 74
35: 75
36: 75
37: 75
38: 75
39: 76
40: 76
41: 77
42: 78
43: 78
44: 78
45: 78
46: 78
47: 78
48: 78
49: 79
50: 79
51: 80
52: 81
53: 81
54: 82
55: 82
56: 82
57: 83
58: 83
59: 83
60: 83
61: 83
62: 84
63: 84
64: 84
segment: [33]
vertex id: label
69: 0
70: 0
71: 0
72: 0
73: 0
74: 0
75: 0
76: 0
77: 0
78: 0
79: 0
80: 0
81: 0
82: 0
83: 0
84: 4
85: 1
86: 1
87: 2
88: 1
0: 5
1: 5
2: 5
3: 5
4: 5
5: 5
6: 5
7: 5
8: 5
9: 5
10: 5
11: 5
12: 5
13: 5
14: 5
15: 5
16: 5
17: 5
18: 5
19: 5
20: 5
21: 5
22: 5
23: 5
24: 5
25: 5
26: 5
27: 5
28: 5
29: 5
30: 5
31: 5
32: 5
33: 5
34: 5
35: 5
36: 5
37: 5
38: 5
39: 5
40: 5
41: 5
42: 5
43: 5
44: 5
45: 5
46: 5
47: 5
48: 5
49: 5
50: 5
51: 5
52: 5
53: 5
54: 5
55: 5
56: 5
57: 5
58: 5
59: 5
60: 5
61: 5
62: 5
63: 5
64: 5
65: 5
66: 5
67: 5
68: 5
edge from: to
69: 0
70: 0
70: 3
71: 5
71: 6
72: 8
72: 9
73: 11
74: 18
75: 25
76: 28
77: 28
78: 30
79: 32
80: 37
81: 12
81: 38
81: 40
82: 2
82: 42
83: 43
83: 45
84: 46
84: 47
84: 49
85: 47
85: 49
85: 50
86: 50
86: 52
86: 53
87: 54
87: 56
88: 59
88: 61
1: 69
2: 69
3: 69
4: 70
5: 70
6: 70
7: 71
8: 71
9: 71
10: 72
11: 72
12: 72
13: 73
14: 73
15: 73
16: 73
17: 73
18: 73
19: 74
20: 74
21: 74
22: 74
23: 74
24: 74
25: 74
26: 75
27: 75
28: 75
29: 76
30: 76
31: 77
32: 77
33: 78
34: 78
35: 79
36: 79
37: 79
38: 79
39: 79
40: 80
41: 80
42: 81
43: 81
44: 81
45: 82
46: 83
47: 83
48: 83
49: 83
50: 84
51: 85
52: 85
53: 85
54: 86
55: 86
56: 86
57: 86
58: 87
59: 87
60: 87
61: 87
62: 87
63: 88
64: 88
65: 88
66: 88
67: 88
68: 88
segment: [34]
vertex id: label
63: 0
64: 0
65: 0
66: 0
67: 0
68: 0
69: 0
70: 0
71: 0
72: 0
73: 0
74: 0
75: 0
76: 0
77: 0
78: 0
79: 0
80: 0
81: 0
82: 0
0: 5
1: 5
2: 5
3: 5
4: 5
5: 5
6: 5
7: 5
8: 5
9: 5
10: 5
11: 5
12: 5
13: 5
14: 5
15: 5
16: 5
17: 5
18: 5
19: 5
20: 5
21: 5
22: 5
23: 5
24: 5
25: 5
26: 5
27: 5
28: 5
29: 5
30: 5
31: 5
32: 5
33: 5
34: 5
35: 5
36: 5
37: 5
38: 5
39: 5
40: 5
41: 5
42: 5
43: 5
44: 5
45: 5
46: 5
47: 5
48: 5
49: 5
50: 5
51: 5
52: 5
53: 5
54: 5
55: 5
56: 5
57: 5
58: 5
59: 5
60: 5
61: 5
62: 5
edge from: to
63: 0
64: 0
64: 1
65: 0
65: 1
65: 3
66: 2
66: 5
66: 6
67: 9
67: 10
68: 1
68: 4
68: 12
69: 5
69: 16
69: 17
70: 22
71: 27
72: 30
72: 32
73: 36
74: 40
75: 2
75: 42
75: 44
76: 45
77: 44
77: 46
78: 46
78: 47
79: 52
80: 52
80: 54
80: 55
81: 54
81: 55
81: 56
82: 58
1: 63
2: 64
3: 64
4: 65
5: 65
6: 65
7: 66
8: 66
9: 66
10: 66
11: 67
12: 67
13: 67
14: 68
15: 68
16: 68
17: 68
18: 69
19: 69
20: 69
21: 69
22: 69
23: 70
24: 70
25: 70
26: 70
27: 70
28: 71
29: 71
30: 71
31: 71
32: 71
33: 72
34: 72
35: 72
36: 72
37: 72
38: 73
39: 73
40: 73
41: 73
42: 74
43: 74
44: 74
45: 75
46: 75
47: 76
48: 77
49: 77
50: 78
51: 78
52: 78
53: 78
54: 79
55: 79
56: 80
57: 80
58: 81
59: 81
60: 81
61: 81
62: 82
segment: [35]
vertex id: label
66: 0
67: 0
68: 0
69: 0
70: 0
71: 0
72: 0
73: 0
74: 0
75: 0
76: 0
77: 0
78: 0
79: 0
80: 0
81: 0
82: 0
83: 0
84: 0
85: 0
0: 5
1: 5
2: 5
3: 5
4: 5
5: 5
6: 5
7: 5
8: 5
9: 5
10: 5
11: 5
12: 5
13: 5
14: 5
15: 5
16: 5
17: 5
18: 5
19: 5
20: 5
21: 5
22: 5
23: 5
24: 5
25: 5
26: 5
27: 5
28: 5
29: 5
30: 5
31: 5
32: 5
33: 5
34: 5
35: 5
36: 5
37: 5
38: 5
39: 5
40: 5
41: 5
42: 5
43: 5
44: 5
45: 5
46: 5
47: 5
48: 5
49: 5
50: 5
51: 5
52: 5
53: 5
54: 5
55: 5
56: 5
57: 5
58: 5
59: 5
60: 5
61: 5
62: 5
63: 5
64: 5
65: 5
edge from: to
66: 0
66: 1
66: 2
67: 6
68: 3
68: 9
68: 10
69: 11
69: 12
70: 12
70: 14
70: 15
71: 5
71: 16
72: 14
72: 17
72: 18
73: 23
73: 24
74: 2
74: 26
74: 28
75: 28
75: 29
75: 30
76: 33
77: 37
78: 39
78: 41
79: 45
80: 46
80: 47
81: 48
81: 50
81: 51
82: 52
83: 56
84: 47
84: 59
84: 61
85: 60
85: 61
3: 66
4: 66
5: 66
6: 66
7: 66
8: 67
9: 67
10: 67
11: 68
12: 68
13: 69
14: 69
15: 69
16: 70
17: 70
18: 71
19: 72
20: 72
21: 72
22: 72
23: 72
24: 72
25: 73
26: 73
27: 73
28: 73
29: 74
30: 74
31: 75
32: 75
33: 75
34: 75
35: 75
36: 76
37: 76
38: 76
39: 76
40: 77
41: 77
42: 77
43: 78
44: 78
45: 78
46: 78
47: 79
48: 79
49: 79
50: 80
51: 80
52: 81
53: 81
54: 82
55: 82
56: 82
57: 82
58: 83
59: 83
60: 83
61: 83
62: 83
63: 84
64: 84
65: 85
segment: [36]
vertex id: label
68: 0
69: 0
70: 4
71: 1
72: 1
73: 2
74: 1
75: 2
76: 1
77: 2
78: 2
79: 1
80: 2
81: 4
82: 4
83: 4
84: 1
85: 2
86: 0
87: 0
0: 5
1: 5
2: 5
3: 5
4: 5
5: 5
6: 5
7: 5
8: 5
9: 5
10: 5
11: 5
12: 5
13: 5
14: 5
15: 5
16: 5
17: 5
18: 5
19: 5
20: 5
21: 5
22: 5
23: 5
24: 5
25: 5
26: 5
27: 5
28: 5
29: 5
30: 5
31: 5
32: 5
33: 5
34: 5
35: 5
36: 5
37: 5
38: 5
39: 5
40: 5
41: 5
42: 5
43: 5
44: 5
45: 5
46: 5
47: 5
48: 5
49: 5
50: 5
51: 5
52: 5
53: 5
54: 5
55: 5
56: 5
57: 5
58: 5
59: 5
60: 5
61: 5
62: 5
63: 5
64: 5
65: 5
66: 5
67: 5
edge from: to
68: 0
68: 1
69: 3
70: 2
70: 5
70: 6
71: 11
72: 1
72: 4
72: 12
73: 15
74: 18
74: 19
75: 1
75: 23
76: 25
76: 27
77: 30
77: 31
77: 32
78: 35
78: 36
79: 39
79: 41
79: 42
80: 43
80: 44
80: 45
81: 46
82: 47
82: 49
83: 50
83: 52
84: 53
84: 55
85: 55
85: 56
85: 57
85: 58
86: 59
87: 61
87: 62
2: 68
3: 68
4: 69
5: 69
6: 69
7: 70
8: 70
9: 70
10: 70
11: 70
12: 71
13: 71
14: 72
15: 72
16: 72
17: 73
18: 73
19: 73
20: 73
21: 74
22: 74
23: 74
24: 75
25: 75
26: 75
27: 75
28: 76
29: 76
30: 76
31: 76
32: 76
33: 77
34: 77
35: 77
36: 77
37: 77
38: 78
39: 78
40: 78
41: 78
42: 78
43: 79
44: 79
45: 79
46: 80
47: 80
48: 81
49: 81
50: 81
51: 82
52: 82
53: 82
54: 83
55: 83
56: 83
57: 84
58: 84
59: 85
60: 85
61: 85
62: 85
63: 86
64: 86
65: 86
66: 87
67: 87
segment: [37]
vertex id: label
53: 0
54: 0
55: 0
56: 0
57: 0
58: 0
59: 0
60: 0
61: 0
62: 0
63: 0
64: 0
65: 0
66: 0
67: 0
68: 0
69: 0
70: 0
71: 0
72: 0
0: 5
1: 5
2: 5
3: 5
4: 5
5: 5
6: 5
7: 5
8: 5
9: 5
10: 5
11: 5
12: 5
13: 5
14: 5
15: 5
16: 5
17: 5
18: 5
19: 5
20: 5
21: 5
22: 5
23: 5
24: 5
25: 5
26: 5
27: 5
28: 5
29: 5
30: 5
31: 5
32: 5
33: 5
34: 5
35: 5
36: 5
37: 5
38: 5
39: 5
40: 5
41: 5
42: 5
43: 5
44: 5
45: 5
46: 5
47: 5
48: 5
49: 5
50: 5
51: 5
52: 5
edge from: to
53: 0
53: 1
54: 0
54: 3
55: 0
55: 1
55: 2
55: 3
55: 4
56: 5
56: 6
57: 7
57: 8
58: 8
58: 9
59: 13
59: 14
60: 5
60: 16
61: 6
61: 18
61: 19
62: 19
62: 20
62: 21
63: 23
63: 24
64: 27
65: 30
66: 10
66: 32
67: 35
67: 36
68: 30
68: 36
68: 37
68: 39
69: 12
69: 38
69: 40
70: 2
70: 42
71: 45
72: 47
2: 53
3: 53
4: 54
5: 55
6: 55
7: 56
8: 56
9: 57
10: 58
11: 58
12: 58
13: 58
14: 58
15: 59
16: 59
17: 59
18: 60
19: 60
20: 60
21: 61
22: 62
23: 62
24: 62
25: 63
26: 63
27: 63
28: 63
29: 63
30: 64
31: 64
32: 65
33: 65
34: 65
35: 66
36: 66
37: 66
38: 67
39: 67
40: 68
41: 68
42: 69
43: 69
44: 69
45: 70
46: 70
47: 71
48: 71
49: 71
50: 72
51: 72
52: 72
segment: [38]
vertex id: label
67: 0
68: 0
69: 0
70: 0
71: 0
72: 0
73: 0
74: 0
75: 0
76: 0
77: 0
78: 0
79: 0
80: 0
81: 0
82: 0
83: 0
84: 0
85: 0
86: 0
0: 5
1: 5
2: 5
3: 5
4: 5
5: 5
6: 5
7: 5
8: 5
9: 5
10: 5
11: 5
12: 5
13: 5
14: 5
15: 5
16: 5
17: 5
18: 5
19: 5
20: 5
21: 5
22: 5
23: 5
24: 5
25: 5
26: 5
27: 5
28: 5
29: 5
30: 5
31: 5
32: 5
33: 5
34: 5
35: 5
36: 5
37: 5
38: 5
39: 5
40: 5
41: 5
42: 5
43: 5
44: 5
45: 5
46: 5
47: 5
48: 5
49: 5
50: 5
51: 5
52: 5
53: 5
54: 5
55: 5
56: 5
57: 5
58: 5
59: 5
60: 5
61: 5
62: 5
63: 5
64: 5
65: 5
66: 5
edge from: to
67: 0
67: 1
68: 0
68: 3
69: 2
69: 5
69: 6
70: 8
70: 9
71: 10
71: 11
72: 1
72: 13
72: 14
73: 1
73: 17
73: 21
73: 22
74: 23
75: 25
76: 8
76: 25
76: 27
77: 27
77: 29
78: 32
79: 34
79: 35
79: 36
80: 36
80: 37
81: 2
81: 42
82: 44
82: 45
82: 46
82: 47
83: 50
84: 53
84: 55
85: 56
86: 58
86: 60
2: 67
3: 67
4: 68
5: 68
6: 68
7: 69
8: 69
9: 69
10: 70
11: 70
12: 71
13: 71
14: 71
15: 72
16: 72
17: 72
18: 72
19: 72
20: 72
21: 72
22: 72
23: 73
24: 74
25: 74
26: 75
27: 75
28: 76
29: 76
30: 77
31: 77
32: 77
33: 77
34: 77
35: 78
36: 78
37: 79
38: 79
39: 79
40: 80
41: 80
42: 80
43: 80
44: 80
45: 81
46: 81
47: 81
48: 82
49: 82
50: 82
51: 82
52: 83
53: 83
54: 83
55: 83
56: 83
57: 84
58: 84
59: 84
60: 85
61: 85
62: 86
63: 86
64: 86
65: 86
66: 86
segment: [39]
vertex id: label
58: 0
59: 0
60: 0
61: 0
62: 0
63: 0
64: 0
65: 0
66: 0
67: 0
68: 0
69: 4
70: 4
71: 1
72: 2
73: 0
74: 0
75: 0
76: 0
77: 0
0: 5
1: 5
2: 5
3: 5
4: 5
5: 5
6: 5
7: 5
8: 5
9: 5
10: 5
11: 5
12: 5
13: 5
14: 5
15: 5
16: 5
17: 5
18: 5
19: 5
20: 5
21: 5
22: 5
23: 5
24: 5
25: 5
26: 5
27: 5
28: 5
29: 5
30: 5
31: 5
32: 5
33: 5
34: 5
35: 5
36: 5
37: 5
38: 5
39: 5
40: 5
41: 5
42: 5
43: 5
44: 5
45: 5
46: 5
47: 5
48: 5
49: 5
50: 5
51: 5
52: 5
53: 5
54: 5
55: 5
56: 5
57: 5
edge from: to
58: 0
59: 0
59: 1
60: 0
60: 4
61: 5
61: 6
62: 6
62: 7
63: 8
63: 9
64: 10
64: 11
65: 12
65: 14
65: 15
66: 18
67: 21
68: 8
68: 25
68: 27
69: 30
70: 30
71: 36
71: 38
72: 42
73: 42
74: 43
74: 45
75: 43
75: 45
76: 45
76: 47
77: 52
1: 58
2: 59
3: 59
4: 59
5: 60
6: 60
7: 61
8: 62
9: 62
10: 63
11: 63
12: 64
13: 64
14: 64
15: 64
16: 65
17: 65
18: 65
19: 66
20: 66
21: 66
22: 67
23: 67
24: 67
25: 67
26: 67
27: 67
28: 68
29: 68
30: 68
31: 68
32: 69
33: 70
34: 70
35: 70
36: 70
37: 70
38: 70
39: 71
40: 71
41: 71
42: 71
43: 71
44: 72
45: 73
46: 74
47: 75
48: 75
49: 76
50: 76
51: 76
52: 76
53: 76
54: 77
55: 77
56: 77
57: 77
segment: [40]
vertex id: label
62: 0
63: 0
64: 0
65: 0
66: 0
67: 0
68: 0
69: 0
70: 0
71: 0
72: 0
73: 0
74: 0
75: 0
76: 0
77: 0
78: 0
79: 0
80: 0
81: 0
0: 5
1: 5
2: 5
3: 5
4: 5
5: 5
6: 5
7: 5
8: 5
9: 5
10: 5
11: 5
12: 5
13: 5
14: 5
15: 5
16: 5
17: 5
18: 5
19: 5
20: 5
21: 5
22: 5
23: 5
24: 5
25: 5
26: 5
27: 5
28: 5
29: 5
30: 5
31: 5
32: 5
33: 5
34: 5
35: 5
36: 5
37: 5
38: 5
39: 5
40: 5
41: 5
42: 5
43: 5
44: 5
45: 5
46: 5
47: 5
48: 5
49: 5
50: 5
51: 5
52: 5
53: 5
54: 5
55: 5
56: 5
57: 5
58: 5
59: 5
60: 5
61: 5
edge from: to
62: 0
63: 0
63: 1
63: 3
64: 5
65: 3
65: 9
65: 10
66: 12
67: 15
68: 19
68: 20
68: 21
69: 24
69: 25
70: 25
70: 27
71: 30
72: 36
73: 40
73: 42
74: 43
74: 44
74: 45
75: 46
76: 50
77: 51
78: 50
78: 52
78: 53
79: 53
79: 55
79: 56
80: 54
80: 56
81: 57
81: 59
1: 62
2: 62
3: 62
4: 63
5: 63
6: 63
7: 64
8: 64
9: 64
10: 64
11: 65
12: 65
13: 65
14: 66
15: 66
16: 66
17: 67
18: 67
19: 67
20: 67
21: 67
22: 68
23: 68
24: 68
25: 68
26: 69
27: 69
28: 70
29: 70
30: 70
31: 70
32: 71
33: 71
34: 71
35: 71
36: 71
37: 71
38: 72
39: 72
40: 72
41: 72
42: 72
43: 72
44: 73
45: 73
46: 74
47: 74
48: 75
49: 75
50: 75
51: 75
52: 76
53: 77
54: 78
55: 78
56: 78
57: 79
58: 80
59: 80
60: 80
61: 81
segment: [41]
vertex id: label
67: 0
68: 0
69: 0
70: 0
71: 0
72: 4
73: 1
74: 1
75: 2
76: 1
77: 2
78: 1
79: 2
80: 1
81: 1
82: 1
83: 1
84: 2
85: 1
86: 2
0: 5
1: 5
2: 5
3: 5
4: 5
5: 5
6: 5
7: 5
8: 5
9: 5
10: 5
11: 5
12: 5
13: 5
14: 5
15: 5
16: 5
17: 5
18: 5
19: 5
20: 5
21: 5
22: 5
23: 5
24: 5
25: 5
26: 5
27: 5
28: 5
29: 5
30: 5
31: 5
32: 5
33: 5
34: 5
35: 5
36: 5
37: 5
38: 5
39: 5
40: 5
41: 5
42: 5
43: 5
44: 5
45: 5
46: 5
47: 5
48: 5
49: 5
50: 5
51: 5
52: 5
53: 5
54: 5
55: 5
56: 5
57: 5
58: 5
59: 5
60: 5
61: 5
62: 5
63: 5
64: 5
65: 5
66: 5
edge from: to
67: 0
67: 1
68: 6
69: 9
69: 10
69: 11
70: 14
70: 15
71: 16
72: 17
72: 19
73: 22
74: 26
75: 26
75: 28
76: 28
76: 30
77: 33
78: 33
78: 35
78: 36
78: 37
79: 37
79: 38
79: 40
80: 40
80: 42
81: 2
81: 42
82: 47
83: 51
84: 54
84: 55
84: 56
84: 57
85: 55
85: 57
86: 47
86: 55
86: 59
86: 61
2: 67
3: 67
4: 67
5: 67
6: 67
7: 67
8: 68
9: 68
10: 68
11: 68
12: 69
13: 69
14: 69
15: 69
16: 70
17: 70
18: 71
19: 71
20: 72
21: 72
22: 72
23: 73
24: 73
25: 73
26: 73
27: 74
28: 74
29: 75
30: 75
31: 76
32: 76
33: 76
34: 76
35: 76
36: 77
37: 77
38: 78
39: 78
40: 78
41: 79
42: 79
43: 79
44: 80
45: 81
46: 81
47: 81
48: 81
49: 81
50: 82
51: 82
52: 82
53: 83
54: 83
55: 83
56: 83
57: 83
58: 84
59: 85
60: 85
61: 85
62: 85
63: 86
64: 86
65: 86
66: 86
segment: [42]
vertex id: label
61: 0
62: 0
63: 0
64: 0
65: 0
66: 0
67: 0
68: 0
69: 0
70: 0
71: 0
72: 0
73: 0
74: 0
75: 0
76: 0
77: 0
78: 0
79: 0
80: 0
0: 5
1: 5
2: 5
3: 5
4: 5
5: 5
6: 5
7: 5
8: 5
9: 5
10: 5
11: 5
12: 5
13: 5
14: 5
15: 5
16: 5
17: 5
18: 5
19: 5
20: 5
21: 5
22: 5
23: 5
24: 5
25: 5
26: 5
27: 5
28: 5
29: 5
30: 5
31: 5
32: 5
33: 5
34: 5
35: 5
36: 5
37: 5
38: 5
39: 5
40: 5
41: 5
42: 5
43: 5
44: 5
45: 5
46: 5
47: 5
48: 5
49: 5
50: 5
51: 5
52: 5
53: 5
54: 5
55: 5
56: 5
57: 5
58: 5
59: 5
60: 5
edge from: to
61: 0
62: 0
62: 2
63: 0
63: 3
63: 4
64: 6
64: 7
65: 7
66: 12
67: 14
67: 15
68: 17
68: 19
69: 1
69: 23
70: 26
71: 28
71: 30
72: 34
73: 37
74: 2
74: 42
75: 43
75: 45
76: 45
76: 47
77: 49
78: 48
78: 49
78: 50
78: 51
79: 52
80: 56
1: 61
2: 61
3: 62
4: 62
5: 63
6: 63
7: 63
8: 64
9: 65
10: 65
11: 65
12: 65
13: 65
14: 66
15: 66
16: 67
17: 67
18: 67
19: 67
20: 68
21: 68
22: 68
23: 68
24: 69
25: 69
26: 69
27: 70
28: 70
29: 70
30: 70
31: 71
32: 71
33: 71
34: 71
35: 71
36: 71
37: 72
38: 72
39: 72
40: 73
41: 73
42: 73
43: 73
44: 73
45: 74
46: 75
47: 75
48: 75
49: 76
50: 76
51: 77
52: 78
53: 78
54: 78
55: 79
56: 79
57: 79
58: 80
59: 80
60: 80
segment: [43]
vertex id: label
58: 0
59: 0
60: 0
61: 0
62: 0
63: 0
64: 0
65: 0
66: 0
67: 0
68: 0
69: 0
70: 0
71: 0
72: 0
73: 0
74: 0
75: 0
76: 0
77: 0
0: 5
1: 5
2: 5
3: 5
4: 5
5: 5
6: 5
7: 5
8: 5
9: 5
10: 5
11: 5
12: 5
13: 5
14: 5
15: 5
16: 5
17: 5
18: 5
19: 5
20: 5
21: 5
22: 5
23: 5
24: 5
25: 5
26: 5
27: 5
28: 5
29: 5
30: 5
31: 5
32: 5
33: 5
34: 5
35: 5
36: 5
37: 5
38: 5
39: 5
40: 5
41: 5
42: 5
43: 5
44: 5
45: 5
46: 5
47: 5
48: 5
49: 5
50: 5
51: 5
52: 5
53: 5
54: 5
55: 5
56: 5
57: 5
edge from: to
58: 0
58: 1
58: 2
58: 3
59: 6
59: 7
59: 8
60: 9
60: 10
61: 11
62: 1
62: 11
62: 13
62: 14
63: 5
63: 16
64: 17
64: 19
65: 19
65: 20
65: 21
66: 1
66: 22
66: 23
67: 24
67: 26
68: 26
68: 28
69: 28
70: 31
70: 33
71: 27
71: 33
71: 34
71: 35
72: 36
72: 37
73: 12
73: 38
73: 40
74: 2
74: 42
74: 44
75: 45
75: 47
76: 50
76: 52
77: 53
77: 55
4: 58
5: 58
6: 58
7: 58
8: 58
9: 59
10: 59
11: 60
12: 60
13: 61
14: 61
15: 62
16: 62
17: 62
18: 63
19: 63
20: 64
21: 64
22: 65
23: 65
24: 66
25: 66
26: 66
27: 67
28: 67
29: 68
30: 68
31: 69
32: 69
33: 69
34: 70
35: 70
36: 71
37: 71
38: 71
39: 71
40: 72
41: 72
42: 73
43: 73
44: 73
45: 74
46: 74
47: 74
48: 74
49: 75
50: 75
51: 75
52: 75
53: 75
54: 76
55: 76
56: 76
57: 77
segment: [44]
vertex id: label
58: 0
59: 0
60: 0
61: 0
62: 0
63: 0
64: 0
65: 0
66: 0
67: 0
68: 0
69: 4
70: 1
71: 2
72: 0
73: 0
74: 0
75: 0
76: 0
77: 0
0: 5
1: 5
2: 5
3: 5
4: 5
5: 5
6: 5
7: 5
8: 5
9: 5
10: 5
11: 5
12: 5
13: 5
14: 5
15: 5
16: 5
17: 5
18: 5
19: 5
20: 5
21: 5
22: 5
23: 5
24: 5
25: 5
26: 5
27: 5
28: 5
29: 5
30: 5
31: 5
32: 5
33: 5
34: 5
35: 5
36: 5
37: 5
38: 5
39: 5
40: 5
41: 5
42: 5
43: 5
44: 5
45: 5
46: 5
47: 5
48: 5
49: 5
50: 5
51: 5
52: 5
53: 5
54: 5
55: 5
56: 5
57: 5
edge from: to
58: 0
59: 2
60: 4
61: 7
62: 11
62: 12
63: 15
63: 16
64: 17
64: 18
65: 1
65: 17
65: 21
65: 22
66: 19
66: 24
66: 25
67: 2
67: 26
67: 28
68: 30
68: 31
68: 32
69: 33
70: 35
70: 36
71: 37
72: 39
72: 41
72: 42
73: 43
73: 45
74: 46
74: 47
75: 50
75: 52
76: 51
76: 52
77: 52
77: 54
1: 58
2: 58
3: 59
4: 59
5: 60
6: 60
7: 60
8: 60
9: 61
10: 61
11: 61
12: 61
13: 62
14: 62
15: 62
16: 62
17: 63
18: 63
19: 64
20: 64
21: 64
22: 64
23: 65
24: 65
25: 65
26: 66
27: 66
28: 66
29: 67
30: 67
31: 67
32: 67
33: 68
34: 68
35: 68
36: 69
37: 69
38: 70
39: 70
40: 71
41: 71
42: 71
43: 72
44: 72
45: 72
46: 72
47: 73
48: 73
49: 73
50: 74
51: 74
52: 74
53: 74
54: 75
55: 76
56: 77
57: 77
segment: [45]
vertex id: label
63: 0
64: 0
65: 0
66: 0
67: 0
68: 0
69: 0
70: 0
71: 0
72: 0
73: 0
74: 0
75: 0
76: 0
77: 0
78: 0
79: 0
80: 0
81: 0
82: 0
0: 5
1: 5
2: 5
3: 5
4: 5
5: 5
6: 5
7: 5
8: 5
9: 5
10: 5
11: 5
12: 5
13: 5
14: 5
15: 5
16: 5
17: 5
18: 5
19: 5
20: 5
21: 5
22: 5
23: 5
24: 5
25: 5
26: 5
27: 5
28: 5
29: 5
30: 5
31: 5
32: 5
33: 5
34: 5
35: 5
36: 5
37: 5
38: 5
39: 5
40: 5
41: 5
42: 5
43: 5
44: 5
45: 5
46: 5
47: 5
48: 5
49: 5
50: 5
51: 5
52: 5
53: 5
54: 5
55: 5
56: 5
57: 5
58: 5
59: 5
60: 5
61: 5
62: 5
edge from: to
63: 0
63: 1
63: 2
64: 0
64: 3
65: 6
65: 7
65: 8
66: 11
67: 1
67: 2
67: 4
67: 10
67: 12
68: 15
68: 16
69: 19
70: 1
70: 23
71: 26
72: 27
73: 22
73: 27
73: 28
73: 29
74: 29
74: 30
74: 31
75: 31
75: 33
76: 27
76: 33
76: 35
77: 36
77: 38
78: 38
79: 42
80: 44
80: 45
80: 46
80: 47
81: 48
81: 49
81: 50
81: 51
82: 54
82: 56
3: 63
4: 64
5: 64
6: 64
7: 64
8: 64
9: 65
10: 65
11: 65
12: 66
13: 66
14: 67
15: 67
16: 67
17: 68
18: 68
19: 68
20: 68
21: 69
22: 69
23: 69
24: 70
25: 70
26: 70
27: 71
28: 72
29: 72
30: 73
31: 73
32: 74
33: 74
34: 75
35: 75
36: 76
37: 76
38: 76
39: 77
40: 77
41: 78
42: 78
43: 78
44: 78
45: 79
46: 79
47: 79
48: 80
49: 80
50: 80
51: 80
52: 81
53: 81
54: 81
55: 81
56: 81
57: 81
58: 82
59: 82
60: 82
61: 82
62: 82
segment: [46]
vertex id: label
66: 0
67: 0
68: 0
69: 0
70: 0
71: 0
72: 0
73: 0
74: 0
75: 0
76: 0
77: 0
78: 0
79: 0
80: 0
81: 0
82: 0
83: 0
84: 0
85: 0
0: 5
1: 5
2: 5
3: 5
4: 5
5: 5
6: 5
7: 5
8: 5
9: 5
10: 5
11: 5
12: 5
13: 5
14: 5
15: 5
16: 5
17: 5
18: 5
19: 5
20: 5
21: 5
22: 5
23: 5
24: 5
25: 5
26: 5
27: 5
28: 5
29: 5
30: 5
31: 5
32: 5
33: 5
34: 5
35: 5
36: 5
37: 5
38: 5
39: 5
40: 5
41: 5
42: 5
43: 5
44: 5
45: 5
46: 5
47: 5
48: 5
49: 5
50: 5
51: 5
52: 5
53: 5
54: 5
55: 5
56: 5
57: 5
58: 5
59: 5
60: 5
61: 5
62: 5
63: 5
64: 5
65: 5
edge from: to
66: 0
66: 1
67: 0
67: 3
68: 7
69: 9
69: 11
69: 12
70: 12
71: 14
71: 15
72: 5
72: 16
73: 17
73: 18
74: 22
75: 18
75: 22
75: 23
75: 24
76: 27
77: 36
78: 37
78: 38
78: 40
79: 39
79: 41
79: 42
80: 43
81: 46
81: 47
82: 50
82: 52
83: 54
84: 56
85: 18
85: 57
85: 59
2: 66
3: 66
4: 67
5: 67
6: 67
7: 67
8: 67
9: 68
10: 68
11: 68
12: 68
13: 69
14: 70
15: 70
16: 71
17: 71
18: 72
19: 73
20: 73
21: 73
22: 73
23: 74
24: 74
25: 75
26: 75
27: 75
28: 75
29: 75
30: 76
31: 76
32: 76
33: 76
34: 76
35: 76
36: 76
37: 76
38: 77
39: 77
40: 77
41: 78
42: 78
43: 79
44: 79
45: 79
46: 80
47: 80
48: 80
49: 80
50: 81
51: 81
52: 81
53: 81
54: 82
55: 82
56: 83
57: 83
58: 84
59: 84
60: 84
61: 85
62: 85
63: 85
64: 85
65: 85
segment: [47]
vertex id: label
67: 0
68: 0
69: 0
70: 0
71: 0
72: 0
73: 0
74: 0
75: 4
76: 4
77: 1
78: 1
79: 2
80: 1
81: 2
82: 0
83: 0
84: 0
85: 0
86: 0
0: 5
1: 5
2: 5
3: 5
4: 5
5: 5
6: 5
7: 5
8: 5
9: 5
10: 5
11: 5
12: 5
13: 5
14: 5
15: 5
16: 5
17: 5
18: 5
19: 5
20: 5
21: 5
22: 5
23: 5
24: 5
25: 5
26: 5
27: 5
28: 5
29: 5
30: 5
31: 5
32: 5
33: 5
34: 5
35: 5
36: 5
37: 5
38: 5
39: 5
40: 5
41: 5
42: 5
43: 5
44: 5
45: 5
46: 5
47: 5
48: 5
49: 5
50: 5
51: 5
52: 5
53: 5
54: 5
55: 5
56: 5
57: 5
58: 5
59: 5
60: 5
61: 5
62: 5
63: 5
64: 5
65: 5
66: 5
edge from: to
67: 0
67: 1
68: 3
69: 5
70: 7
70: 8
71: 8
71: 9
72: 15
73: 19
74: 19
74: 21
75: 23
75: 24
76: 20
76: 24
76: 26
77: 27
77: 29
78: 10
78: 25
78: 31
78: 33
79: 33
79: 35
80: 36
81: 42
82: 14
82: 45
82: 47
83: 47
83: 49
84: 52
84: 54
85: 56
86: 58
86: 60
2: 67
3: 67
4: 68
5: 68
6: 68
7: 69
8: 69
9: 70
10: 71
11: 71
12: 71
13: 71
14: 71
15: 71
16: 72
17: 72
18: 72
19: 72
20: 73
21: 73
22: 74
23: 74
24: 74
25: 75
26: 75
27: 76
28: 76
29: 76
30: 77
31: 77
32: 77
33: 77
34: 78
35: 78
36: 79
37: 79
38: 79
39: 80
40: 80
41: 80
42: 80
43: 80
44: 80
45: 81
46: 81
47: 81
48: 81
49: 82
50: 82
51: 83
52: 83
53: 83
54: 83
55: 83
56: 84
57: 84
58: 84
59: 84
60: 85
61: 85
62: 86
63: 86
64: 86
65: 86
66: 86
segment: [48]
vertex id: label
51: 0
52: 0
53: 0
54: 0
55: 0
56: 0
57: 0
58: 0
59: 0
60: 0
61: 0
62: 0
63: 0
64: 0
65: 0
66: 0
67: 0
68: 0
69: 0
70: 0
0: 5
1: 5
2: 5
3: 5
4: 5
5: 5
6: 5
7: 5
8: 5
9: 5
10: 5
11: 5
12: 5
13: 5
14: 5
15: 5
16: 5
17: 5
18: 5
19: 5
20: 5
21: 5
22: 5
23: 5
24: 5
25: 5
26: 5
27: 5
28: 5
29: 5
30: 5
31: 5
32: 5
33: 5
34: 5
35: 5
36: 5
37: 5
38: 5
39: 5
40: 5
41: 5
42: 5
43: 5
44: 5
45: 5
46: 5
47: 5
48: 5
49: 5
50: 5
edge from: to
51: 0
52: 3
53: 0
53: 3
53: 4
54: 3
54: 9
54: 10
55: 9
55: 10
55: 11
56: 4
56: 12
57: 12
57: 14
57: 15
58: 5
58: 16
59: 3
59: 15
59: 17
59: 18
59: 19
60: 19
60: 21
61: 26
62: 27
62: 29
63: 28
63: 30
64: 30
65: 31
66: 32
67: 36
68: 39
68: 41
68: 42
69: 29
69: 40
69: 43
69: 44
69: 45
70: 46
70: 47
70: 49
1: 51
2: 51
3: 51
4: 52
5: 53
6: 53
7: 53
8: 53
9: 53
10: 53
11: 54
12: 55
13: 55
14: 56
15: 56
16: 57
17: 57
18: 58
19: 58
20: 59
21: 59
22: 60
23: 60
24: 60
25: 60
26: 60
27: 61
28: 61
29: 61
30: 62
31: 63
32: 63
33: 64
34: 65
35: 66
36: 66
37: 66
38: 66
39: 67
40: 67
41: 67
42: 67
43: 68
44: 68
45: 68
46: 69
47: 69
48: 69
49: 69
50: 70
segment: [49]
vertex id: label
65: 0
66: 0
67: 0
68: 0
69: 0
70: 0
71: 0
72: 0
73: 0
74: 0
75: 0
76: 0
77: 0
78: 0
79: 0
80: 0
81: 0
82: 0
83: 0
84: 0
0: 5
1: 5
2: 5
3: 5
4: 5
5: 5
6: 5
7: 5
8: 5
9: 5
10: 5
11: 5
12: 5
13: 5
14: 5
15: 5
16: 5
17: 5
18: 5
19: 5
20: 5
21: 5
22: 5
23: 5
24: 5
25: 5
26: 5
27: 5
28: 5
29: 5
30: 5
31: 5
32: 5
33: 5
34: 5
35: 5
36: 5
37: 5
38: 5
39: 5
40: 5
41: 5
42: 5
43: 5
44: 5
45: 5
46: 5
47: 5
48: 5
49: 5
50: 5
51: 5
52: 5
53: 5
54: 5
55: 5
56: 5
57: 5
58: 5
59: 5
60: 5
61: 5
62: 5
63: 5
64: 5
edge from: to
65: 0
65: 1
65: 2
65: 3
66: 5
66: 6
67: 6
68: 6
68: 7
68: 8
69: 11
69: 12
70: 15
71: 18
71: 19
72: 21
73: 24
74: 27
74: 29
75: 30
76: 10
76: 25
76: 31
76: 33
77: 33
78: 36
78: 38
79: 42
80: 43
80: 45
81: 51
81: 52
82: 55
83: 55
84: 59
4: 65
5: 65
6: 65
7: 66
8: 67
9: 68
10: 68
11: 68
12: 68
13: 69
14: 69
15: 69
16: 70
17: 70
18: 70
19: 70
20: 70
21: 71
22: 72
23: 72
24: 72
25: 73
26: 73
27: 73
28: 73
29: 73
30: 74
31: 74
32: 75
33: 75
34: 76
35: 76
36: 77
37: 77
38: 77
39: 78
40: 78
41: 78
42: 78
43: 78
44: 79
45: 79
46: 79
47: 80
48: 80
49: 80
50: 80
51: 80
52: 80
53: 80
54: 80
55: 81
56: 81
57: 82
58: 82
59: 83
60: 83
61: 83
62: 83
63: 84
64: 84
