segment: [0]
vertex id: label
60: 0
61: 2
62: 1
63: 1
64: 1
65: 1
66: 1
67: 1
68: 1
69: 1
70: 1
71: 1
72: 1
73: 1
74: 1
75: 1
76: 1
77: 1
78: 1
79: 1
0: 5
1: 5
2: 5
3: 5
4: 5
5: 5
6: 5
7: 5
8: 5
9: 5
10: 5
11: 5
12: 5
13: 5
14: 5
15: 5
16: 5
17: 5
18: 5
19: 5
20: 5
21: 5
22: 5
23: 5
24: 5
25: 5
26: 5
27: 5
28: 5
29: 5
30: 5
31: 5
32: 5
33: 5
34: 5
35: 5
36: 5
37: 5
38: 5
39: 5
40: 5
41: 5
42: 5
43: 5
44: 5
45: 5
46: 5
47: 5
48: 5
49: 5
50: 5
51: 5
52: 5
53: 5
54: 5
55: 5
56: 5
57: 5
58: 5
59: 5
edge from: to
60: 0
61: 0
61: 3
62: 7
62: 9
63: 10
64: 13
64: 14
65: 3
65: 17
66: 19
66: 20
66: 21
67: 21
67: 22
68: 25
68: 26
68: 27
69: 27
69: 28
70: 27
70: 29
71: 19
71: 30
71: 32
72: 33
73: 1
73: 39
74: 39
74: 41
75: 7
75: 40
75: 43
76: 44
77: 48
77: 50
78: 51
79: 53
79: 56
1: 60
2: 60
3: 60
4: 61
5: 61
6: 61
7: 61
8: 61
9: 61
10: 62
11: 62
12: 63
13: 63
14: 63
15: 64
16: 64
17: 64
18: 64
19: 65
20: 65
21: 65
22: 66
23: 66
24: 67
25: 67
26: 67
27: 67
28: 68
29: 68
30: 69
31: 70
32: 70
33: 70
34: 71
35: 71
36: 71
37: 72
38: 72
39: 72
40: 72
41: 73
42: 73
43: 74
44: 75
45: 75
46: 75
47: 75
48: 76
49: 76
50: 76
51: 76
52: 77
53: 77
54: 77
55: 77
56: 78
57: 78
58: 79
59: 79
segment: [1]
vertex id: label
55: 0
56: 2
57: 1
58: 1
59: 1
60: 1
61: 1
62: 4
63: 1
64: 3
65: 2
66: 1
67: 1
68: 1
69: 1
70: 1
71: 1
72: 1
73: 1
74: 1
0: 5
1: 5
2: 5
3: 5
4: 5
5: 5
6: 5
7: 5
8: 5
9: 5
10: 5
11: 5
12: 5
13: 5
14: 5
15: 5
16: 5
17: 5
18: 5
19: 5
20: 5
21: 5
22: 5
23: 5
24: 5
25: 5
26: 5
27: 5
28: 5
29: 5
30: 5
31: 5
32: 5
33: 5
34: 5
35: 5
36: 5
37: 5
38: 5
39: 5
40: 5
41: 5
42: 5
43: 5
44: 5
45: 5
46: 5
47: 5
48: 5
49: 5
50: 5
51: 5
52: 5
53: 5
54: 5
edge from: to
55: 0
55: 1
56: 0
57: 4
57: 7
58: 9
58: 10
59: 11
60: 13
60: 14
61: 17
62: 18
63: 20
63: 21
64: 24
65: 27
65: 29
65: 30
66: 29
67: 30
68: 33
68: 35
68: 36
69: 1
69: 38
70: 39
70: 41
71: 41
71: 43
72: 43
72: 45
73: 44
73: 46
74: 48
2: 55
3: 55
4: 55
5: 55
6: 56
7: 56
8: 57
9: 57
10: 57
11: 58
12: 58
13: 59
14: 59
15: 60
16: 60
17: 60
18: 60
19: 61
20: 61
21: 62
22: 62
23: 63
24: 63
25: 63
26: 63
27: 64
28: 64
29: 64
30: 64
31: 65
32: 65
33: 66
34: 67
35: 67
36: 67
37: 68
38: 68
39: 68
40: 69
41: 69
42: 69
43: 70
44: 70
45: 71
46: 71
47: 72
48: 73
49: 73
50: 73
51: 73
52: 74
53: 74
54: 74
segment: [2]
vertex id: label
63: 0
64: 2
65: 1
66: 1
67: 1
68: 0
69: 2
70: 1
71: 1
72: 1
73: 1
74: 1
75: 1
76: 1
77: 1
78: 1
79: 1
80: 1
81: 1
82: 1
0: 5
1: 5
2: 5
3: 5
4: 5
5: 5
6: 5
7: 5
8: 5
9: 5
10: 5
11: 5
12: 5
13: 5
14: 5
15: 5
16: 5
17: 5
18: 5
19: 5
20: 5
21: 5
22: 5
23: 5
24: 5
25: 5
26: 5
27: 5
28: 5
29: 5
30: 5
31: 5
32: 5
33: 5
34: 5
35: 5
36: 5
37: 5
38: 5
39: 5
40: 5
41: 5
42: 5
43: 5
44: 5
45: 5
46: 5
47: 5
48: 5
49: 5
50: 5
51: 5
52: 5
53: 5
54: 5
55: 5
56: 5
57: 5
58: 5
59: 5
60: 5
61: 5
62: 5
edge from: to
63: 0
63: 1
63: 2
64: 0
64: 3
65: 9
66: 9
67: 2
67: 7
67: 11
68: 13
68: 14
69: 16
69: 17
70: 4
70: 22
71: 24
71: 25
72: 26
72: 27
73: 27
73: 29
73: 30
74: 30
75: 34
76: 1
76: 39
77: 7
77: 40
78: 43
78: 45
78: 46
79: 47
79: 49
80: 50
80: 53
81: 50
81: 52
81: 55
81: 56
82: 56
3: 63
4: 64
5: 64
6: 64
7: 64
8: 64
9: 64
10: 65
11: 66
12: 66
13: 67
14: 67
15: 68
16: 68
17: 68
18: 69
19: 69
20: 69
21: 69
22: 69
23: 69
24: 69
25: 70
26: 70
27: 71
28: 71
29: 72
30: 72
31: 73
32: 73
33: 73
34: 74
35: 74
36: 74
37: 74
38: 75
39: 75
40: 75
41: 76
42: 76
43: 76
44: 77
45: 77
46: 77
47: 78
48: 78
49: 78
50: 78
51: 79
52: 79
53: 79
54: 79
55: 80
56: 80
57: 81
58: 81
59: 81
60: 81
61: 82
62: 82
segment: [3]
vertex id: label
59: 0
60: 3
61: 2
62: 1
63: 1
64: 1
65: 1
66: 1
67: 4
68: 1
69: 1
70: 1
71: 1
72: 1
73: 1
74: 1
75: 1
76: 1
77: 1
78: 1
0: 5
1: 5
2: 5
3: 5
4: 5
5: 5
6: 5
7: 5
8: 5
9: 5
10: 5
11: 5
12: 5
13: 5
14: 5
15: 5
16: 5
17: 5
18: 5
19: 5
20: 5
21: 5
22: 5
23: 5
24: 5
25: 5
26: 5
27: 5
28: 5
29: 5
30: 5
31: 5
32: 5
33: 5
34: 5
35: 5
36: 5
37: 5
38: 5
39: 5
40: 5
41: 5
42: 5
43: 5
44: 5
45: 5
46: 5
47: 5
48: 5
49: 5
50: 5
51: 5
52: 5
53: 5
54: 5
55: 5
56: 5
57: 5
58: 5
edge from: to
59: 0
60: 0
60: 3
60: 4
61: 0
61: 1
61: 6
62: 4
62: 7
63: 5
63: 8
64: 11
65: 14
66: 17
66: 19
67: 20
67: 21
67: 22
68: 23
69: 27
69: 28
70: 28
70: 30
70: 31
71: 29
71: 31
72: 33
73: 38
74: 7
74: 39
74: 40
74: 43
75: 42
76: 45
77: 29
77: 48
77: 50
77: 51
78: 51
1: 59
2: 59
3: 59
4: 59
5: 60
6: 60
7: 61
8: 62
9: 63
10: 63
11: 63
12: 63
13: 64
14: 64
15: 64
16: 65
17: 65
18: 65
19: 65
20: 66
21: 66
22: 66
23: 67
24: 67
25: 67
26: 68
27: 68
28: 68
29: 68
30: 69
31: 69
32: 70
33: 71
34: 71
35: 71
36: 71
37: 72
38: 72
39: 72
40: 72
41: 72
42: 73
43: 73
44: 74
45: 74
46: 75
47: 75
48: 75
49: 76
50: 76
51: 76
52: 77
53: 77
54: 77
55: 77
56: 78
57: 78
58: 78
segment: [4]
vertex id: label
60: 0
61: 2
62: 1
63: 1
64: 1
65: 1
66: 1
67: 1
68: 1
69: 1
70: 1
71: 1
72: 4
73: 3
74: 2
75: 1
76: 1
77: 1
78: 1
79: 4
0: 5
1: 5
2: 5
3: 5
4: 5
5: 5
6: 5
7: 5
8: 5
9: 5
10: 5
11: 5
12: 5
13: 5
14: 5
15: 5
16: 5
17: 5
18: 5
19: 5
20: 5
21: 5
22: 5
23: 5
24: 5
25: 5
26: 5
27: 5
28: 5
29: 5
30: 5
31: 5
32: 5
33: 5
34: 5
35: 5
36: 5
37: 5
38: 5
39: 5
40: 5
41: 5
42: 5
43: 5
44: 5
45: 5
46: 5
47: 5
48: 5
49: 5
50: 5
51: 5
52: 5
53: 5
54: 5
55: 5
56: 5
57: 5
58: 5
59: 5
edge from: to
60: 0
60: 1
60: 2
61: 0
61: 5
62: 9
63: 11
64: 12
65: 17
66: 17
66: 19
67: 19
67: 20
68: 21
68: 22
69: 25
69: 26
69: 27
70: 28
70: 30
71: 32
71: 34
72: 1
73: 38
74: 40
75: 41
76: 43
76: 45
77: 46
78: 47
78: 49
79: 50
3: 60
4: 60
5: 60
6: 61
7: 61
8: 61
9: 61
10: 61
11: 62
12: 62
13: 63
14: 64
15: 64
16: 64
17: 64
18: 64
19: 65
20: 66
21: 66
22: 67
23: 67
24: 68
25: 68
26: 68
27: 68
28: 69
29: 69
30: 69
31: 69
32: 70
33: 70
34: 70
35: 70
36: 71
37: 71
38: 71
39: 71
40: 72
41: 72
42: 73
43: 73
44: 74
45: 75
46: 75
47: 76
48: 76
49: 76
50: 77
51: 78
52: 78
53: 78
54: 78
55: 79
56: 79
57: 79
58: 79
59: 79
segment: [5]
vertex id: label
59: 0
60: 2
61: 1
62: 1
63: 1
64: 1
65: 1
66: 1
67: 3
68: 2
69: 1
70: 1
71: 1
72: 1
73: 1
74: 1
75: 1
76: 1
77: 1
78: 1
0: 5
1: 5
2: 5
3: 5
4: 5
5: 5
6: 5
7: 5
8: 5
9: 5
10: 5
11: 5
12: 5
13: 5
14: 5
15: 5
16: 5
17: 5
18: 5
19: 5
20: 5
21: 5
22: 5
23: 5
24: 5
25: 5
26: 5
27: 5
28: 5
29: 5
30: 5
31: 5
32: 5
33: 5
34: 5
35: 5
36: 5
37: 5
38: 5
39: 5
40: 5
41: 5
42: 5
43: 5
44: 5
45: 5
46: 5
47: 5
48: 5
49: 5
50: 5
51: 5
52: 5
53: 5
54: 5
55: 5
56: 5
57: 5
58: 5
edge from: to
59: 0
60: 0
61: 8
62: 12
62: 13
63: 13
63: 14
64: 10
64: 16
64: 17
65: 3
65: 17
66: 19
67: 23
67: 24
68: 25
68: 26
69: 26
70: 27
71: 29
71: 31
72: 31
72: 33
72: 34
73: 33
73: 35
73: 36
74: 1
75: 39
75: 41
76: 41
76: 43
77: 47
78: 50
1: 59
2: 59
3: 59
4: 60
5: 60
6: 60
7: 60
8: 60
9: 61
10: 61
11: 61
12: 61
13: 61
14: 62
15: 63
16: 63
17: 63
18: 64
19: 65
20: 65
21: 65
22: 66
23: 66
24: 66
25: 66
26: 67
27: 67
28: 68
29: 69
30: 69
31: 70
32: 70
33: 71
34: 71
35: 72
36: 72
37: 73
38: 73
39: 73
40: 74
41: 74
42: 74
43: 75
44: 75
45: 76
46: 76
47: 76
48: 76
49: 76
50: 76
51: 77
52: 77
53: 77
54: 77
55: 78
56: 78
57: 78
58: 78
segment: [6]
vertex id: label
54: 0
55: 2
56: 1
57: 1
58: 1
59: 1
60: 1
61: 1
62: 1
63: 1
64: 1
65: 1
66: 1
67: 1
68: 1
69: 1
70: 1
71: 1
72: 1
73: 1
0: 5
1: 5
2: 5
3: 5
4: 5
5: 5
6: 5
7: 5
8: 5
9: 5
10: 5
11: 5
12: 5
13: 5
14: 5
15: 5
16: 5
17: 5
18: 5
19: 5
20: 5
21: 5
22: 5
23: 5
24: 5
25: 5
26: 5
27: 5
28: 5
29: 5
30: 5
31: 5
32: 5
33: 5
34: 5
35: 5
36: 5
37: 5
38: 5
39: 5
40: 5
41: 5
42: 5
43: 5
44: 5
45: 5
46: 5
47: 5
48: 5
49: 5
50: 5
51: 5
52: 5
53: 5
edge from: to
54: 0
55: 0
55: 2
56: 0
56: 1
56: 5
56: 6
57: 7
57: 8
57: 9
58: 11
59: 11
59: 12
59: 13
59: 14
60: 14
60: 15
61: 17
62: 18
63: 19
63: 20
64: 27
64: 28
64: 29
65: 27
66: 28
66: 30
67: 19
67: 30
67: 32
67: 33
68: 34
68: 36
69: 38
70: 7
70: 40
71: 42
72: 47
72: 49
73: 48
73: 50
1: 54
2: 54
3: 55
4: 55
5: 55
6: 55
7: 56
8: 56
9: 56
10: 57
11: 57
12: 57
13: 58
14: 58
15: 59
16: 60
17: 60
18: 60
19: 61
20: 61
21: 62
22: 63
23: 63
24: 63
25: 63
26: 63
27: 63
28: 63
29: 63
30: 64
31: 65
32: 66
33: 66
34: 67
35: 67
36: 67
37: 67
38: 68
39: 68
40: 68
41: 68
42: 69
43: 69
44: 70
45: 70
46: 71
47: 71
48: 71
49: 71
50: 71
51: 72
52: 73
53: 73
segment: [7]
vertex id: label
70: 0
71: 2
72: 1
73: 1
74: 1
75: 1
76: 1
77: 1
78: 1
79: 1
80: 1
81: 1
82: 1
83: 1
84: 1
85: 1
86: 1
87: 1
88: 1
89: 1
0: 5
1: 5
2: 5
3: 5
4: 5
5: 5
6: 5
7: 5
8: 5
9: 5
10: 5
11: 5
12: 5
13: 5
14: 5
15: 5
16: 5
17: 5
18: 5
19: 5
20: 5
21: 5
22: 5
23: 5
24: 5
25: 5
26: 5
27: 5
28: 5
29: 5
30: 5
31: 5
32: 5
33: 5
34: 5
35: 5
36: 5
37: 5
38: 5
39: 5
40: 5
41: 5
42: 5
43: 5
44: 5
45: 5
46: 5
47: 5
48: 5
49: 5
50: 5
51: 5
52: 5
53: 5
54: 5
55: 5
56: 5
57: 5
58: 5
59: 5
60: 5
61: 5
62: 5
63: 5
64: 5
65: 5
66: 5
67: 5
68: 5
69: 5
edge from: to
70: 0
70: 1
70: 2
70: 3
71: 0
72: 8
73: 9
73: 10
74: 13
75: 3
75: 17
76: 17
77: 22
78: 27
78: 29
79: 29
80: 31
80: 33
80: 34
81: 32
82: 1
82: 38
83: 42
83: 44
84: 8
84: 28
84: 46
85: 47
85: 49
86: 50
86: 53
87: 52
87: 55
88: 59
88: 62
89: 62
4: 70
5: 70
6: 70
7: 71
8: 71
9: 72
10: 72
11: 73
12: 73
13: 73
14: 73
15: 74
16: 74
17: 74
18: 74
19: 75
20: 76
21: 76
22: 76
23: 76
24: 76
25: 77
26: 77
27: 77
28: 77
29: 77
30: 77
31: 78
32: 78
33: 79
34: 79
35: 80
36: 81
37: 81
38: 81
39: 81
40: 82
41: 82
42: 82
43: 82
44: 82
45: 82
46: 83
47: 83
48: 83
49: 83
50: 84
51: 85
52: 85
53: 85
54: 85
55: 86
56: 86
57: 87
58: 87
59: 87
60: 87
61: 87
62: 87
63: 87
64: 88
65: 88
66: 88
67: 89
68: 89
69: 89
segment: [8]
vertex id: label
65: 0
66: 1
67: 1
68: 1
69: 1
70: 1
71: 1
72: 1
73: 1
74: 1
75: 1
76: 1
77: 1
78: 1
79: 1
80: 1
81: 4
82: 3
83: 2
84: 1
0: 5
1: 5
2: 5
3: 5
4: 5
5: 5
6: 5
7: 5
8: 5
9: 5
10: 5
11: 5
12: 5
13: 5
14: 5
15: 5
16: 5
17: 5
18: 5
19: 5
20: 5
21: 5
22: 5
23: 5
24: 5
25: 5
26: 5
27: 5
28: 5
29: 5
30: 5
31: 5
32: 5
33: 5
34: 5
35: 5
36: 5
37: 5
38: 5
39: 5
40: 5
41: 5
42: 5
43: 5
44: 5
45: 5
46: 5
47: 5
48: 5
49: 5
50: 5
51: 5
52: 5
53: 5
54: 5
55: 5
56: 5
57: 5
58: 5
59: 5
60: 5
61: 5
62: 5
63: 5
64: 5
edge from: to
65: 0
65: 1
66: 5
66: 8
67: 2
67: 7
67: 10
67: 11
68: 14
69: 18
70: 21
71: 24
72: 26
73: 28
73: 30
74: 29
74: 31
75: 31
75: 33
75: 34
76: 33
76: 34
76: 36
76: 37
77: 1
77: 39
78: 39
78: 41
79: 42
79: 44
80: 8
80: 28
80: 39
80: 46
81: 48
81: 50
82: 49
82: 52
83: 52
84: 57
84: 60
2: 65
3: 65
4: 65
5: 65
6: 65
7: 65
8: 65
9: 66
10: 66
11: 66
12: 66
13: 67
14: 67
15: 67
16: 68
17: 68
18: 68
19: 68
20: 68
21: 69
22: 69
23: 69
24: 70
25: 70
26: 70
27: 71
28: 71
29: 72
30: 72
31: 72
32: 73
33: 74
34: 74
35: 75
36: 75
37: 75
38: 76
39: 76
40: 76
41: 77
42: 77
43: 78
44: 78
45: 78
46: 79
47: 79
48: 79
49: 79
50: 80
51: 80
52: 81
53: 81
54: 82
55: 82
56: 82
57: 83
58: 83
59: 83
60: 83
61: 83
62: 84
63: 84
64: 84
segment: [9]
vertex id: label
62: 0
63: 2
64: 1
65: 1
66: 1
67: 1
68: 1
69: 1
70: 1
71: 1
72: 1
73: 1
74: 1
75: 1
76: 1
77: 1
78: 1
79: 1
80: 1
81: 1
0: 5
1: 5
2: 5
3: 5
4: 5
5: 5
6: 5
7: 5
8: 5
9: 5
10: 5
11: 5
12: 5
13: 5
14: 5
15: 5
16: 5
17: 5
18: 5
19: 5
20: 5
21: 5
22: 5
23: 5
24: 5
25: 5
26: 5
27: 5
28: 5
29: 5
30: 5
31: 5
32: 5
33: 5
34: 5
35: 5
36: 5
37: 5
38: 5
39: 5
40: 5
41: 5
42: 5
43: 5
44: 5
45: 5
46: 5
47: 5
48: 5
49: 5
50: 5
51: 5
52: 5
53: 5
54: 5
55: 5
56: 5
57: 5
58: 5
59: 5
60: 5
61: 5
edge from: to
62: 0
63: 0
64: 0
64: 1
65: 7
65: 8
65: 9
66: 9
67: 12
67: 14
67: 15
68: 15
68: 16
69: 16
70: 17
71: 20
71: 21
72: 23
72: 24
73: 28
73: 30
73: 31
74: 30
75: 1
75: 38
75: 39
76: 38
77: 7
77: 40
78: 42
78: 44
78: 45
79: 46
80: 49
80: 52
81: 52
1: 62
2: 62
3: 62
4: 63
5: 63
6: 63
7: 64
8: 64
9: 64
10: 65
11: 66
12: 66
13: 66
14: 66
15: 66
16: 67
17: 68
18: 69
19: 69
20: 70
21: 70
22: 70
23: 71
24: 71
25: 71
26: 72
27: 72
28: 72
29: 72
30: 72
31: 72
32: 73
33: 73
34: 74
35: 74
36: 74
37: 74
38: 74
39: 74
40: 75
41: 75
42: 76
43: 76
44: 77
45: 77
46: 78
47: 78
48: 78
49: 78
50: 79
51: 79
52: 79
53: 79
54: 80
55: 80
56: 80
57: 81
58: 81
59: 81
60: 81
61: 81
segment: [10]
vertex id: label
66: 0
67: 2
68: 1
69: 1
70: 1
71: 4
72: 3
73: 2
74: 1
75: 1
76: 1
77: 1
78: 1
79: 1
80: 1
81: 1
82: 1
83: 1
84: 1
85: 1
0: 5
1: 5
2: 5
3: 5
4: 5
5: 5
6: 5
7: 5
8: 5
9: 5
10: 5
11: 5
12: 5
13: 5
14: 5
15: 5
16: 5
17: 5
18: 5
19: 5
20: 5
21: 5
22: 5
23: 5
24: 5
25: 5
26: 5
27: 5
28: 5
29: 5
30: 5
31: 5
32: 5
33: 5
34: 5
35: 5
36: 5
37: 5
38: 5
39: 5
40: 5
41: 5
42: 5
43: 5
44: 5
45: 5
46: 5
47: 5
48: 5
49: 5
50: 5
51: 5
52: 5
53: 5
54: 5
55: 5
56: 5
57: 5
58: 5
59: 5
60: 5
61: 5
62: 5
63: 5
64: 5
65: 5
edge from: to
66: 0
66: 1
66: 2
67: 5
67: 6
67: 7
67: 8
68: 10
68: 11
69: 12
70: 15
71: 3
71: 17
72: 13
72: 16
72: 18
72: 20
72: 21
72: 22
73: 23
73: 24
74: 25
75: 26
75: 27
76: 20
76: 32
76: 34
77: 34
77: 36
77: 37
78: 24
78: 38
78: 39
78: 41
78: 42
79: 7
79: 40
79: 43
80: 44
81: 47
81: 49
81: 50
82: 50
82: 53
83: 55
83: 58
83: 59
84: 57
85: 50
85: 59
85: 62
85: 63
3: 66
4: 66
5: 66
6: 66
7: 66
8: 66
9: 67
10: 67
11: 67
12: 68
13: 68
14: 69
15: 69
16: 69
17: 70
18: 70
19: 71
20: 71
21: 71
22: 71
23: 72
24: 72
25: 72
26: 73
27: 73
28: 74
29: 75
30: 75
31: 75
32: 75
33: 75
34: 75
35: 75
36: 76
37: 76
38: 77
39: 77
40: 77
41: 77
42: 77
43: 78
44: 79
45: 79
46: 79
47: 79
48: 80
49: 80
50: 80
51: 81
52: 81
53: 81
54: 81
55: 82
56: 82
57: 82
58: 82
59: 82
60: 83
61: 83
62: 84
63: 84
64: 85
65: 85
segment: [11]
vertex id: label
69: 0
70: 2
71: 1
72: 1
73: 1
74: 1
75: 1
76: 1
77: 1
78: 1
79: 1
80: 1
81: 1
82: 1
83: 1
84: 1
85: 1
86: 1
87: 1
88: 1
0: 5
1: 5
2: 5
3: 5
4: 5
5: 5
6: 5
7: 5
8: 5
9: 5
10: 5
11: 5
12: 5
13: 5
14: 5
15: 5
16: 5
17: 5
18: 5
19: 5
20: 5
21: 5
22: 5
23: 5
24: 5
25: 5
26: 5
27: 5
28: 5
29: 5
30: 5
31: 5
32: 5
33: 5
34: 5
35: 5
36: 5
37: 5
38: 5
39: 5
40: 5
41: 5
42: 5
43: 5
44: 5
45: 5
46: 5
47: 5
48: 5
49: 5
50: 5
51: 5
52: 5
53: 5
54: 5
55: 5
56: 5
57: 5
58: 5
59: 5
60: 5
61: 5
62: 5
63: 5
64: 5
65: 5
66: 5
67: 5
68: 5
edge from: to
69: 0
69: 1
70: 0
70: 4
71: 7
72: 9
73: 2
73: 11
74: 14
74: 15
75: 16
76: 21
76: 22
76: 23
77: 4
77: 14
77: 22
78: 27
78: 29
79: 31
79: 33
80: 33
80: 35
81: 1
81: 34
81: 37
81: 38
82: 40
83: 43
84: 47
84: 49
84: 50
85: 51
85: 54
85: 55
86: 55
87: 56
87: 59
88: 59
88: 62
2: 69
3: 69
4: 69
5: 70
6: 70
7: 70
8: 71
9: 71
10: 72
11: 72
12: 72
13: 73
14: 73
15: 73
16: 74
17: 74
18: 75
19: 75
20: 75
21: 75
22: 75
23: 75
24: 76
25: 77
26: 77
27: 77
28: 77
29: 77
30: 77
31: 78
32: 78
33: 78
34: 78
35: 79
36: 79
37: 80
38: 80
39: 81
40: 81
41: 81
42: 81
43: 81
44: 82
45: 82
46: 82
47: 83
48: 83
49: 83
50: 83
51: 84
52: 84
53: 84
54: 84
55: 84
56: 85
57: 85
58: 85
59: 85
60: 86
61: 87
62: 87
63: 87
64: 88
65: 88
66: 88
67: 88
68: 88
segment: [12]
vertex id: label
77: 0
78: 1
79: 4
80: 4
81: 4
82: 3
83: 2
84: 1
85: 1
86: 1
87: 1
88: 1
89: 1
90: 1
91: 1
92: 1
93: 1
94: 1
95: 1
96: 1
0: 5
1: 5
2: 5
3: 5
4: 5
5: 5
6: 5
7: 5
8: 5
9: 5
10: 5
11: 5
12: 5
13: 5
14: 5
15: 5
16: 5
17: 5
18: 5
19: 5
20: 5
21: 5
22: 5
23: 5
24: 5
25: 5
26: 5
27: 5
28: 5
29: 5
30: 5
31: 5
32: 5
33: 5
34: 5
35: 5
36: 5
37: 5
38: 5
39: 5
40: 5
41: 5
42: 5
43: 5
44: 5
45: 5
46: 5
47: 5
48: 5
49: 5
50: 5
51: 5
52: 5
53: 5
54: 5
55: 5
56: 5
57: 5
58: 5
59: 5
60: 5
61: 5
62: 5
63: 5
64: 5
65: 5
66: 5
67: 5
68: 5
69: 5
70: 5
71: 5
72: 5
73: 5
74: 5
75: 5
76: 5
edge from: to
77: 0
77: 1
77: 2
78: 8
79: 12
80: 13
81: 17
82: 19
82: 20
82: 21
83: 22
84: 25
84: 26
85: 28
86: 19
86: 30
86: 32
86: 33
87: 1
87: 38
87: 39
88: 42
89: 8
89: 46
90: 48
91: 52
92: 56
92: 59
92: 60
93: 59
93: 62
93: 63
94: 62
94: 65
95: 64
96: 67
96: 70
3: 77
4: 77
5: 77
6: 77
7: 77
8: 77
9: 78
10: 78
11: 78
12: 78
13: 78
14: 79
15: 80
16: 80
17: 80
18: 80
19: 80
20: 81
21: 81
22: 82
23: 82
24: 82
25: 83
26: 83
27: 83
28: 84
29: 84
30: 84
31: 84
32: 85
33: 85
34: 86
35: 86
36: 86
37: 86
38: 86
39: 86
40: 87
41: 87
42: 87
43: 87
44: 87
45: 87
46: 88
47: 88
48: 88
49: 88
50: 89
51: 89
52: 90
53: 90
54: 90
55: 90
56: 90
57: 91
58: 91
59: 91
60: 91
61: 92
62: 92
63: 92
64: 93
65: 93
66: 93
67: 94
68: 94
69: 94
70: 95
71: 95
72: 95
73: 96
74: 96
75: 96
76: 96
segment: [13]
vertex id: label
58: 0
59: 2
60: 1
61: 1
62: 1
63: 1
64: 1
65: 1
66: 1
67: 1
68: 1
69: 1
70: 1
71: 1
72: 1
73: 1
74: 1
75: 1
76: 1
77: 1
0: 5
1: 5
2: 5
3: 5
4: 5
5: 5
6: 5
7: 5
8: 5
9: 5
10: 5
11: 5
12: 5
13: 5
14: 5
15: 5
16: 5
17: 5
18: 5
19: 5
20: 5
21: 5
22: 5
23: 5
24: 5
25: 5
26: 5
27: 5
28: 5
29: 5
30: 5
31: 5
32: 5
33: 5
34: 5
35: 5
36: 5
37: 5
38: 5
39: 5
40: 5
41: 5
42: 5
43: 5
44: 5
45: 5
46: 5
47: 5
48: 5
49: 5
50: 5
51: 5
52: 5
53: 5
54: 5
55: 5
56: 5
57: 5
edge from: to
58: 0
58: 1
58: 2
59: 8
60: 8
60: 9
60: 10
60: 11
61: 12
61: 13
62: 10
62: 16
62: 17
63: 3
63: 16
63: 17
63: 18
64: 20
65: 4
65: 22
66: 24
67: 26
68: 27
68: 28
69: 29
70: 33
71: 1
72: 24
72: 39
72: 41
73: 42
74: 43
74: 45
75: 44
75: 46
75: 47
76: 48
76: 50
77: 50
77: 53
77: 54
3: 58
4: 58
5: 58
6: 58
7: 58
8: 58
9: 59
10: 59
11: 59
12: 60
13: 60
14: 61
15: 61
16: 61
17: 61
18: 62
19: 63
20: 63
21: 63
22: 63
23: 64
24: 64
25: 65
26: 65
27: 66
28: 66
29: 67
30: 68
31: 68
32: 68
33: 69
34: 69
35: 69
36: 69
37: 70
38: 70
39: 71
40: 71
41: 71
42: 71
43: 72
44: 72
45: 72
46: 73
47: 74
48: 75
49: 75
50: 75
51: 75
52: 76
53: 76
54: 76
55: 77
56: 77
57: 77
segment: [14]
vertex id: label
69: 0
70: 2
71: 1
72: 1
73: 1
74: 1
75: 1
76: 1
77: 1
78: 1
79: 1
80: 1
81: 1
82: 1
83: 4
84: 3
85: 2
86: 1
87: 1
88: 1
0: 5
1: 5
2: 5
3: 5
4: 5
5: 5
6: 5
7: 5
8: 5
9: 5
10: 5
11: 5
12: 5
13: 5
14: 5
15: 5
16: 5
17: 5
18: 5
19: 5
20: 5
21: 5
22: 5
23: 5
24: 5
25: 5
26: 5
27: 5
28: 5
29: 5
30: 5
31: 5
32: 5
33: 5
34: 5
35: 5
36: 5
37: 5
38: 5
39: 5
40: 5
41: 5
42: 5
43: 5
44: 5
45: 5
46: 5
47: 5
48: 5
49: 5
50: 5
51: 5
52: 5
53: 5
54: 5
55: 5
56: 5
57: 5
58: 5
59: 5
60: 5
61: 5
62: 5
63: 5
64: 5
65: 5
66: 5
67: 5
68: 5
edge from: to
69: 0
69: 1
69: 2
69: 3
70: 0
71: 8
72: 2
72: 7
72: 11
73: 14
73: 15
74: 16
75: 18
75: 20
76: 20
76: 21
76: 22
77: 23
77: 24
78: 25
79: 29
80: 34
81: 1
81: 39
82: 40
83: 44
83: 46
84: 47
84: 49
85: 50
86: 53
86: 56
87: 57
87: 60
88: 61
4: 69
5: 69
6: 69
7: 70
8: 70
9: 71
10: 71
11: 71
12: 71
13: 72
14: 72
15: 72
16: 73
17: 73
18: 74
19: 74
20: 74
21: 75
22: 75
23: 76
24: 76
25: 76
26: 77
27: 77
28: 78
29: 78
30: 78
31: 78
32: 78
33: 79
34: 79
35: 79
36: 79
37: 79
38: 80
39: 80
40: 80
41: 81
42: 81
43: 81
44: 82
45: 82
46: 82
47: 82
48: 83
49: 83
50: 83
51: 84
52: 84
53: 84
54: 84
55: 85
56: 85
57: 85
58: 86
59: 86
60: 86
61: 86
62: 87
63: 87
64: 87
65: 87
66: 88
67: 88
68: 88
segment: [15]
vertex id: label
58: 0
59: 2
60: 1
61: 1
62: 1
63: 4
64: 1
65: 0
66: 2
67: 1
68: 1
69: 1
70: 1
71: 1
72: 4
73: 3
74: 3
75: 2
76: 1
77: 1
0: 5
1: 5
2: 5
3: 5
4: 5
5: 5
6: 5
7: 5
8: 5
9: 5
10: 5
11: 5
12: 5
13: 5
14: 5
15: 5
16: 5
17: 5
18: 5
19: 5
20: 5
21: 5
22: 5
23: 5
24: 5
25: 5
26: 5
27: 5
28: 5
29: 5
30: 5
31: 5
32: 5
33: 5
34: 5
35: 5
36: 5
37: 5
38: 5
39: 5
40: 5
41: 5
42: 5
43: 5
44: 5
45: 5
46: 5
47: 5
48: 5
49: 5
50: 5
51: 5
52: 5
53: 5
54: 5
55: 5
56: 5
57: 5
edge from: to
58: 0
58: 1
58: 2
59: 0
59: 4
60: 7
61: 5
61: 8
62: 6
62: 9
62: 10
63: 2
63: 11
64: 13
64: 14
65: 15
66: 17
67: 19
67: 20
68: 21
69: 24
70: 29
70: 31
71: 33
71: 35
72: 1
73: 38
73: 40
74: 41
74: 43
75: 43
75: 45
75: 46
76: 44
76: 46
76: 47
77: 49
77: 52
77: 53
3: 58
4: 58
5: 59
6: 59
7: 59
8: 60
9: 61
10: 61
11: 62
12: 62
13: 63
14: 63
15: 64
16: 64
17: 65
18: 65
19: 65
20: 66
21: 66
22: 67
23: 67
24: 68
25: 68
26: 68
27: 69
28: 69
29: 69
30: 69
31: 69
32: 69
33: 70
34: 70
35: 70
36: 70
37: 71
38: 71
39: 71
40: 72
41: 72
42: 73
43: 73
44: 73
45: 74
46: 74
47: 75
48: 76
49: 76
50: 76
51: 76
52: 76
53: 76
54: 77
55: 77
56: 77
57: 77
segment: [16]
vertex id: label
63: 0
64: 2
65: 1
66: 1
67: 1
68: 1
69: 1
70: 1
71: 1
72: 1
73: 1
74: 1
75: 1
76: 1
77: 1
78: 1
79: 1
80: 1
81: 1
82: 1
0: 5
1: 5
2: 5
3: 5
4: 5
5: 5
6: 5
7: 5
8: 5
9: 5
10: 5
11: 5
12: 5
13: 5
14: 5
15: 5
16: 5
17: 5
18: 5
19: 5
20: 5
21: 5
22: 5
23: 5
24: 5
25: 5
26: 5
27: 5
28: 5
29: 5
30: 5
31: 5
32: 5
33: 5
34: 5
35: 5
36: 5
37: 5
38: 5
39: 5
40: 5
41: 5
42: 5
43: 5
44: 5
45: 5
46: 5
47: 5
48: 5
49: 5
50: 5
51: 5
52: 5
53: 5
54: 5
55: 5
56: 5
57: 5
58: 5
59: 5
60: 5
61: 5
62: 5
edge from: to
63: 0
63: 1
64: 0
64: 3
64: 5
65: 4
65: 6
65: 7
66: 10
67: 12
67: 14
67: 15
68: 19
69: 4
69: 14
69: 22
70: 24
71: 26
71: 27
72: 27
72: 29
72: 30
73: 29
73: 31
73: 32
74: 32
74: 34
75: 1
76: 39
77: 43
78: 45
79: 46
80: 49
80: 52
81: 53
82: 55
82: 58
2: 63
3: 63
4: 63
5: 63
6: 64
7: 64
8: 65
9: 65
10: 65
11: 65
12: 66
13: 66
14: 66
15: 66
16: 67
17: 67
18: 67
19: 67
20: 67
21: 67
22: 68
23: 68
24: 68
25: 69
26: 69
27: 70
28: 70
29: 71
30: 71
31: 72
32: 72
33: 73
34: 73
35: 73
36: 74
37: 74
38: 74
39: 74
40: 75
41: 75
42: 75
43: 76
44: 76
45: 76
46: 76
47: 77
48: 77
49: 78
50: 79
51: 79
52: 79
53: 79
54: 80
55: 80
56: 80
57: 80
58: 81
59: 81
60: 82
61: 82
62: 82
segment: [17]
vertex id: label
60: 0
61: 2
62: 1
63: 1
64: 1
65: 1
66: 4
67: 3
68: 2
69: 1
70: 1
71: 1
72: 1
73: 1
74: 1
75: 1
76: 1
77: 1
78: 1
79: 1
0: 5
1: 5
2: 5
3: 5
4: 5
5: 5
6: 5
7: 5
8: 5
9: 5
10: 5
11: 5
12: 5
13: 5
14: 5
15: 5
16: 5
17: 5
18: 5
19: 5
20: 5
21: 5
22: 5
23: 5
24: 5
25: 5
26: 5
27: 5
28: 5
29: 5
30: 5
31: 5
32: 5
33: 5
34: 5
35: 5
36: 5
37: 5
38: 5
39: 5
40: 5
41: 5
42: 5
43: 5
44: 5
45: 5
46: 5
47: 5
48: 5
49: 5
50: 5
51: 5
52: 5
53: 5
54: 5
55: 5
56: 5
57: 5
58: 5
59: 5
edge from: to
60: 0
60: 1
61: 4
61: 7
62: 0
62: 8
62: 11
62: 12
62: 13
63: 13
63: 15
63: 16
64: 11
64: 17
64: 19
65: 19
65: 20
65: 21
66: 23
67: 25
67: 26
67: 27
68: 27
68: 29
68: 30
69: 29
70: 30
70: 32
71: 20
71: 32
71: 34
72: 1
72: 38
73: 39
73: 41
74: 35
74: 41
74: 43
74: 44
75: 44
75: 46
75: 47
76: 48
77: 49
77: 52
78: 51
78: 54
79: 53
79: 56
79: 57
2: 60
3: 60
4: 60
5: 60
6: 60
7: 60
8: 61
9: 61
10: 61
11: 61
12: 61
13: 61
14: 62
15: 62
16: 62
17: 63
18: 63
19: 63
20: 64
21: 64
22: 65
23: 65
24: 65
25: 65
26: 66
27: 66
28: 67
29: 67
30: 67
31: 68
32: 68
33: 69
34: 70
35: 70
36: 71
37: 71
38: 71
39: 71
40: 72
41: 72
42: 72
43: 73
44: 73
45: 74
46: 74
47: 74
48: 75
49: 75
50: 75
51: 75
52: 76
53: 76
54: 77
55: 77
56: 78
57: 78
58: 79
59: 79
segment: [18]
vertex id: label
62: 0
63: 2
64: 1
65: 1
66: 1
67: 1
68: 1
69: 1
70: 1
71: 1
72: 1
73: 1
74: 1
75: 1
76: 1
77: 1
78: 1
79: 1
80: 1
81: 1
0: 5
1: 5
2: 5
3: 5
4: 5
5: 5
6: 5
7: 5
8: 5
9: 5
10: 5
11: 5
12: 5
13: 5
14: 5
15: 5
16: 5
17: 5
18: 5
19: 5
20: 5
21: 5
22: 5
23: 5
24: 5
25: 5
26: 5
27: 5
28: 5
29: 5
30: 5
31: 5
32: 5
33: 5
34: 5
35: 5
36: 5
37: 5
38: 5
39: 5
40: 5
41: 5
42: 5
43: 5
44: 5
45: 5
46: 5
47: 5
48: 5
49: 5
50: 5
51: 5
52: 5
53: 5
54: 5
55: 5
56: 5
57: 5
58: 5
59: 5
60: 5
61: 5
edge from: to
62: 0
62: 1
63: 0
63: 5
64: 7
64: 8
64: 9
65: 9
65: 10
65: 11
66: 12
67: 13
68: 17
69: 20
70: 23
70: 24
71: 26
72: 20
72: 32
72: 34
73: 33
73: 35
74: 34
75: 39
76: 41
76: 43
77: 48
77: 50
78: 49
78: 51
79: 52
79: 55
80: 53
80: 56
81: 55
81: 58
81: 59
2: 62
3: 62
4: 62
5: 62
6: 63
7: 63
8: 63
9: 63
10: 64
11: 64
12: 65
13: 65
14: 66
15: 67
16: 67
17: 67
18: 67
19: 68
20: 68
21: 68
22: 68
23: 69
24: 69
25: 69
26: 70
27: 70
28: 70
29: 71
30: 71
31: 71
32: 71
33: 71
34: 71
35: 71
36: 72
37: 73
38: 74
39: 74
40: 74
41: 74
42: 74
43: 75
44: 75
45: 76
46: 76
47: 76
48: 76
49: 76
50: 76
51: 76
52: 77
53: 78
54: 78
55: 78
56: 78
57: 79
58: 80
59: 80
60: 81
61: 81
segment: [19]
vertex id: label
63: 0
64: 2
65: 1
66: 1
67: 1
68: 1
69: 1
70: 1
71: 1
72: 1
73: 1
74: 1
75: 0
76: 1
77: 4
78: 3
79: 2
80: 1
81: 1
82: 4
0: 5
1: 5
2: 5
3: 5
4: 5
5: 5
6: 5
7: 5
8: 5
9: 5
10: 5
11: 5
12: 5
13: 5
14: 5
15: 5
16: 5
17: 5
18: 5
19: 5
20: 5
21: 5
22: 5
23: 5
24: 5
25: 5
26: 5
27: 5
28: 5
29: 5
30: 5
31: 5
32: 5
33: 5
34: 5
35: 5
36: 5
37: 5
38: 5
39: 5
40: 5
41: 5
42: 5
43: 5
44: 5
45: 5
46: 5
47: 5
48: 5
49: 5
50: 5
51: 5
52: 5
53: 5
54: 5
55: 5
56: 5
57: 5
58: 5
59: 5
60: 5
61: 5
62: 5
edge from: to
63: 0
63: 1
64: 0
64: 1
64: 2
64: 3
65: 0
65: 1
66: 0
66: 6
66: 8
66: 9
66: 10
67: 11
68: 16
68: 17
69: 19
69: 20
69: 21
70: 21
70: 22
70: 23
71: 23
71: 24
72: 25
72: 26
73: 30
74: 31
74: 33
74: 34
75: 33
76: 1
76: 39
77: 41
77: 43
78: 34
78: 39
78: 42
78: 44
78: 46
78: 47
79: 47
79: 49
80: 29
80: 48
80: 50
81: 52
81: 55
82: 55
82: 58
2: 63
4: 64
5: 64
6: 64
7: 65
8: 65
9: 65
10: 65
11: 66
12: 66
13: 67
14: 67
15: 67
16: 67
17: 67
18: 68
19: 68
20: 68
21: 68
22: 69
23: 69
24: 70
25: 70
26: 71
27: 71
28: 72
29: 72
30: 72
31: 72
32: 72
33: 72
34: 73
35: 74
36: 74
37: 75
38: 75
39: 75
40: 75
41: 76
42: 76
43: 76
44: 76
45: 77
46: 77
47: 77
48: 78
49: 78
50: 78
51: 79
52: 80
53: 80
54: 80
55: 80
56: 80
57: 81
58: 81
59: 81
60: 82
61: 82
62: 82
