segment: [0]
vertex id: label
57: 0
58: 4
59: 3
60: 4
61: 3
62: 4
63: 3
64: 4
65: 3
66: 4
67: 3
68: 4
69: 3
70: 4
71: 3
72: 4
73: 3
74: 4
75: 3
76: 4
0: 5
1: 5
2: 5
3: 5
4: 5
5: 5
6: 5
7: 5
8: 5
9: 5
10: 5
11: 5
12: 5
13: 5
14: 5
15: 5
16: 5
17: 5
18: 5
19: 5
20: 5
21: 5
22: 5
23: 5
24: 5
25: 5
26: 5
27: 5
28: 5
29: 5
30: 5
31: 5
32: 5
33: 5
34: 5
35: 5
36: 5
37: 5
38: 5
39: 5
40: 5
41: 5
42: 5
43: 5
44: 5
45: 5
46: 5
47: 5
48: 5
49: 5
50: 5
51: 5
52: 5
53: 5
54: 5
55: 5
56: 5
edge from: to
57: 0
57: 1
57: 2
57: 3
57: 4
58: 5
58: 7
59: 4
59: 9
60: 10
61: 12
62: 10
62: 14
63: 13
63: 18
63: 19
64: 15
64: 20
64: 21
65: 26
66: 12
66: 19
66: 26
66: 27
67: 21
67: 30
68: 15
69: 20
69: 35
69: 36
70: 39
71: 28
71: 40
72: 40
72: 42
73: 44
74: 44
74: 45
75: 51
76: 37
76: 53
5: 57
6: 57
7: 57
8: 58
9: 58
10: 59
11: 60
12: 60
13: 61
14: 61
15: 62
16: 62
17: 62
18: 62
19: 62
20: 63
21: 63
22: 64
23: 64
24: 64
25: 64
26: 64
27: 65
28: 66
29: 66
30: 66
31: 67
32: 67
33: 67
34: 67
35: 68
36: 68
37: 69
38: 69
39: 69
40: 70
41: 71
42: 71
43: 72
44: 72
45: 73
46: 74
47: 74
48: 74
49: 74
50: 74
51: 74
52: 75
53: 75
54: 76
55: 76
56: 76
segment: [1]
vertex id: label
64: 0
65: 4
66: 3
67: 4
68: 3
69: 4
70: 3
71: 4
72: 3
73: 4
74: 3
75: 4
76: 3
77: 4
78: 3
79: 4
80: 3
81: 4
82: 3
83: 4
0: 5
1: 5
2: 5
3: 5
4: 5
5: 5
6: 5
7: 5
8: 5
9: 5
10: 5
11: 5
12: 5
13: 5
14: 5
15: 5
16: 5
17: 5
18: 5
19: 5
20: 5
21: 5
22: 5
23: 5
24: 5
25: 5
26: 5
27: 5
28: 5
29: 5
30: 5
31: 5
32: 5
33: 5
34: 5
35: 5
36: 5
37: 5
38: 5
39: 5
40: 5
41: 5
42: 5
43: 5
44: 5
45: 5
46: 5
47: 5
48: 5
49: 5
50: 5
51: 5
52: 5
53: 5
54: 5
55: 5
56: 5
57: 5
58: 5
59: 5
60: 5
61: 5
62: 5
63: 5
edge from: to
64: 0
65: 2
65: 3
66: 5
66: 7
67: 7
67: 9
67: 10
68: 16
69: 15
69: 21
70: 24
71: 12
71: 19
72: 28
72: 29
73: 15
73: 24
74: 34
74: 35
75: 18
75: 29
75: 41
76: 40
76: 42
77: 31
77: 43
77: 44
78: 45
79: 21
79: 48
80: 50
81: 37
81: 51
81: 53
82: 24
83: 59
1: 64
2: 64
3: 64
4: 65
5: 65
6: 65
7: 65
8: 66
9: 66
10: 66
11: 67
12: 67
13: 67
14: 67
15: 67
16: 67
17: 68
18: 68
19: 68
20: 68
21: 68
22: 69
23: 69
24: 69
25: 70
26: 70
27: 70
28: 71
29: 71
30: 72
31: 72
32: 72
33: 72
34: 72
35: 73
36: 74
37: 74
38: 74
39: 74
40: 74
41: 74
42: 75
43: 76
44: 76
45: 77
46: 78
47: 78
48: 78
49: 79
50: 79
51: 80
52: 80
53: 80
54: 81
55: 81
56: 82
57: 82
58: 82
59: 82
60: 83
61: 83
62: 83
63: 83
segment: [2]
vertex id: label
55: 0
56: 4
57: 3
58: 4
59: 3
60: 4
61: 3
62: 4
63: 3
64: 4
65: 3
66: 4
67: 3
68: 4
69: 3
70: 4
71: 3
72: 4
73: 3
74: 4
0: 5
1: 5
2: 5
3: 5
4: 5
5: 5
6: 5
7: 5
8: 5
9: 5
10: 5
11: 5
12: 5
13: 5
14: 5
15: 5
16: 5
17: 5
18: 5
19: 5
20: 5
21: 5
22: 5
23: 5
24: 5
25: 5
26: 5
27: 5
28: 5
29: 5
30: 5
31: 5
32: 5
33: 5
34: 5
35: 5
36: 5
37: 5
38: 5
39: 5
40: 5
41: 5
42: 5
43: 5
44: 5
45: 5
46: 5
47: 5
48: 5
49: 5
50: 5
51: 5
52: 5
53: 5
54: 5
edge from: to
55: 0
56: 0
56: 1
57: 3
57: 6
58: 4
59: 7
59: 10
60: 10
60: 14
61: 2
61: 12
61: 17
62: 9
63: 17
63: 23
63: 24
64: 11
64: 25
65: 12
65: 19
65: 26
66: 21
66: 29
66: 30
67: 23
67: 32
67: 33
68: 4
68: 15
68: 24
68: 34
69: 38
69: 39
70: 18
71: 21
72: 47
72: 49
73: 6
73: 51
74: 50
74: 52
1: 55
2: 56
3: 56
4: 56
5: 56
6: 56
7: 57
8: 57
9: 57
10: 58
11: 59
12: 59
13: 59
14: 59
15: 60
16: 60
17: 60
18: 61
19: 61
20: 61
21: 62
22: 62
23: 62
24: 62
25: 63
26: 64
27: 64
28: 65
29: 65
30: 65
31: 66
32: 66
33: 66
34: 67
35: 68
36: 68
37: 68
38: 68
39: 68
40: 69
41: 69
42: 70
43: 70
44: 70
45: 70
46: 70
47: 70
48: 70
49: 71
50: 72
51: 72
52: 73
53: 74
54: 74
segment: [3]
vertex id: label
57: 0
58: 4
59: 3
60: 4
61: 3
62: 4
63: 3
64: 4
65: 3
66: 4
67: 3
68: 4
69: 3
70: 4
71: 3
72: 4
73: 3
74: 4
75: 3
76: 4
0: 5
1: 5
2: 5
3: 5
4: 5
5: 5
6: 5
7: 5
8: 5
9: 5
10: 5
11: 5
12: 5
13: 5
14: 5
15: 5
16: 5
17: 5
18: 5
19: 5
20: 5
21: 5
22: 5
23: 5
24: 5
25: 5
26: 5
27: 5
28: 5
29: 5
30: 5
31: 5
32: 5
33: 5
34: 5
35: 5
36: 5
37: 5
38: 5
39: 5
40: 5
41: 5
42: 5
43: 5
44: 5
45: 5
46: 5
47: 5
48: 5
49: 5
50: 5
51: 5
52: 5
53: 5
54: 5
55: 5
56: 5
edge from: to
57: 0
57: 1
58: 0
58: 1
58: 2
58: 3
59: 4
59: 5
60: 7
61: 4
62: 14
63: 17
64: 9
64: 14
64: 20
65: 23
66: 28
67: 8
67: 21
67: 29
67: 30
68: 23
68: 33
69: 35
70: 37
71: 40
72: 40
72: 42
73: 12
73: 24
73: 44
73: 45
74: 33
74: 45
74: 47
75: 6
75: 51
76: 37
76: 53
2: 57
3: 57
4: 58
5: 58
6: 59
7: 59
8: 60
9: 60
10: 61
11: 61
12: 61
13: 61
14: 61
15: 62
16: 62
17: 62
18: 63
19: 63
20: 63
21: 64
22: 64
23: 64
24: 65
25: 65
26: 65
27: 65
28: 65
29: 66
30: 66
31: 67
32: 67
33: 67
34: 68
35: 68
36: 69
37: 69
38: 70
39: 70
40: 70
41: 71
42: 71
43: 72
44: 72
45: 72
46: 73
47: 73
48: 74
49: 74
50: 74
51: 74
52: 75
53: 75
54: 76
55: 76
56: 76
segment: [4]
vertex id: label
59: 0
60: 4
61: 3
62: 4
63: 3
64: 4
65: 3
66: 4
67: 3
68: 4
69: 3
70: 4
71: 3
72: 4
73: 3
74: 4
75: 3
76: 4
77: 3
78: 4
0: 5
1: 5
2: 5
3: 5
4: 5
5: 5
6: 5
7: 5
8: 5
9: 5
10: 5
11: 5
12: 5
13: 5
14: 5
15: 5
16: 5
17: 5
18: 5
19: 5
20: 5
21: 5
22: 5
23: 5
24: 5
25: 5
26: 5
27: 5
28: 5
29: 5
30: 5
31: 5
32: 5
33: 5
34: 5
35: 5
36: 5
37: 5
38: 5
39: 5
40: 5
41: 5
42: 5
43: 5
44: 5
45: 5
46: 5
47: 5
48: 5
49: 5
50: 5
51: 5
52: 5
53: 5
54: 5
55: 5
56: 5
57: 5
58: 5
edge from: to
59: 0
59: 1
59: 2
60: 2
61: 3
61: 4
61: 5
62: 10
63: 14
64: 8
65: 9
66: 3
66: 8
66: 11
66: 17
66: 25
67: 12
67: 19
67: 26
68: 21
68: 22
68: 30
68: 31
69: 31
69: 32
70: 15
70: 24
71: 36
72: 37
73: 18
74: 43
75: 46
76: 49
77: 53
78: 54
3: 59
4: 59
5: 60
6: 61
7: 61
8: 61
9: 61
10: 61
11: 62
12: 62
13: 62
14: 62
15: 63
16: 63
17: 63
18: 63
19: 64
20: 64
21: 65
22: 65
23: 65
24: 65
25: 65
26: 66
27: 66
28: 67
29: 67
30: 67
31: 67
32: 68
33: 69
34: 69
35: 70
36: 70
37: 71
38: 72
39: 72
40: 72
41: 72
42: 73
43: 73
44: 74
45: 74
46: 74
47: 75
48: 75
49: 75
50: 76
51: 76
52: 76
53: 76
54: 77
55: 78
56: 78
57: 78
58: 78
segment: [5]
vertex id: label
68: 0
69: 4
70: 3
71: 4
72: 3
73: 4
74: 3
75: 4
76: 3
77: 4
78: 3
79: 4
80: 3
81: 4
82: 3
83: 4
84: 3
85: 4
86: 3
87: 4
0: 5
1: 5
2: 5
3: 5
4: 5
5: 5
6: 5
7: 5
8: 5
9: 5
10: 5
11: 5
12: 5
13: 5
14: 5
15: 5
16: 5
17: 5
18: 5
19: 5
20: 5
21: 5
22: 5
23: 5
24: 5
25: 5
26: 5
27: 5
28: 5
29: 5
30: 5
31: 5
32: 5
33: 5
34: 5
35: 5
36: 5
37: 5
38: 5
39: 5
40: 5
41: 5
42: 5
43: 5
44: 5
45: 5
46: 5
47: 5
48: 5
49: 5
50: 5
51: 5
52: 5
53: 5
54: 5
55: 5
56: 5
57: 5
58: 5
59: 5
60: 5
61: 5
62: 5
63: 5
64: 5
65: 5
66: 5
67: 5
edge from: to
68: 0
68: 1
69: 2
69: 3
70: 1
70: 3
70: 4
70: 9
71: 10
72: 6
72: 13
73: 14
74: 8
75: 13
75: 22
75: 23
76: 12
77: 31
77: 32
78: 34
78: 35
79: 18
80: 31
80: 44
81: 21
82: 35
82: 50
83: 50
83: 51
83: 52
84: 39
84: 56
85: 56
85: 57
85: 58
86: 27
86: 62
87: 34
87: 62
87: 64
2: 68
3: 68
4: 68
5: 69
6: 69
7: 69
8: 69
9: 69
10: 70
11: 71
12: 71
13: 71
14: 72
15: 73
16: 73
17: 73
18: 73
19: 74
20: 74
21: 74
22: 74
23: 74
24: 75
25: 75
26: 75
27: 75
28: 76
29: 76
30: 76
31: 76
32: 76
33: 77
34: 77
35: 77
36: 78
37: 78
38: 78
39: 78
40: 78
41: 78
42: 79
43: 79
44: 79
45: 80
46: 80
47: 80
48: 80
49: 81
50: 81
51: 82
52: 82
53: 83
54: 83
55: 83
56: 83
57: 84
58: 84
59: 85
60: 85
61: 85
62: 85
63: 86
64: 86
65: 87
66: 87
67: 87
segment: [6]
vertex id: label
70: 0
71: 4
72: 3
73: 4
74: 3
75: 4
76: 3
77: 4
78: 3
79: 4
80: 3
81: 4
82: 3
83: 4
84: 3
85: 4
86: 3
87: 4
88: 3
89: 4
0: 5
1: 5
2: 5
3: 5
4: 5
5: 5
6: 5
7: 5
8: 5
9: 5
10: 5
11: 5
12: 5
13: 5
14: 5
15: 5
16: 5
17: 5
18: 5
19: 5
20: 5
21: 5
22: 5
23: 5
24: 5
25: 5
26: 5
27: 5
28: 5
29: 5
30: 5
31: 5
32: 5
33: 5
34: 5
35: 5
36: 5
37: 5
38: 5
39: 5
40: 5
41: 5
42: 5
43: 5
44: 5
45: 5
46: 5
47: 5
48: 5
49: 5
50: 5
51: 5
52: 5
53: 5
54: 5
55: 5
56: 5
57: 5
58: 5
59: 5
60: 5
61: 5
62: 5
63: 5
64: 5
65: 5
66: 5
67: 5
68: 5
69: 5
edge from: to
70: 0
70: 1
70: 2
71: 2
71: 3
72: 5
72: 7
73: 8
74: 7
74: 10
75: 4
75: 12
76: 16
77: 9
77: 14
77: 20
78: 11
79: 28
80: 23
80: 33
81: 35
81: 36
82: 40
83: 44
84: 47
84: 49
85: 37
85: 51
85: 53
86: 58
87: 27
87: 60
87: 62
88: 65
89: 66
3: 70
4: 70
5: 71
6: 71
7: 71
8: 72
9: 73
10: 73
11: 74
12: 74
13: 75
14: 75
15: 75
16: 75
17: 76
18: 76
19: 76
20: 76
21: 77
22: 77
23: 77
24: 77
25: 77
26: 78
27: 78
28: 78
29: 79
30: 79
31: 79
32: 79
33: 79
34: 80
35: 80
36: 80
37: 81
38: 81
39: 81
40: 81
41: 82
42: 82
43: 82
44: 82
45: 83
46: 83
47: 83
48: 83
49: 83
50: 84
51: 84
52: 84
53: 84
54: 85
55: 85
56: 85
57: 85
58: 85
59: 86
60: 86
61: 86
62: 86
63: 87
64: 87
65: 87
66: 88
67: 89
68: 89
69: 89
segment: [7]
vertex id: label
57: 0
58: 4
59: 3
60: 4
61: 3
62: 4
63: 3
64: 4
65: 3
66: 4
67: 3
68: 4
69: 3
70: 4
71: 3
72: 4
73: 3
74: 4
75: 3
76: 4
0: 5
1: 5
2: 5
3: 5
4: 5
5: 5
6: 5
7: 5
8: 5
9: 5
10: 5
11: 5
12: 5
13: 5
14: 5
15: 5
16: 5
17: 5
18: 5
19: 5
20: 5
21: 5
22: 5
23: 5
24: 5
25: 5
26: 5
27: 5
28: 5
29: 5
30: 5
31: 5
32: 5
33: 5
34: 5
35: 5
36: 5
37: 5
38: 5
39: 5
40: 5
41: 5
42: 5
43: 5
44: 5
45: 5
46: 5
47: 5
48: 5
49: 5
50: 5
51: 5
52: 5
53: 5
54: 5
55: 5
56: 5
edge from: to
57: 0
57: 1
58: 5
59: 5
59: 7
60: 5
61: 10
61: 14
62: 15
62: 16
63: 2
63: 12
63: 17
64: 8
64: 13
65: 15
65: 21
66: 21
66: 22
67: 13
67: 22
67: 23
68: 26
69: 22
69: 31
70: 15
70: 24
71: 39
72: 43
73: 45
74: 33
74: 45
74: 47
75: 35
75: 48
75: 49
75: 50
76: 54
2: 57
3: 57
4: 57
5: 57
6: 58
7: 58
8: 59
9: 59
10: 59
11: 59
12: 60
13: 60
14: 60
15: 61
16: 61
17: 62
18: 63
19: 64
20: 64
21: 64
22: 65
23: 66
24: 67
25: 67
26: 67
27: 68
28: 68
29: 68
30: 68
31: 68
32: 69
33: 69
34: 69
35: 70
36: 70
37: 70
38: 70
39: 70
40: 71
41: 71
42: 71
43: 71
44: 72
45: 72
46: 73
47: 73
48: 74
49: 74
50: 74
51: 75
52: 75
53: 75
54: 75
55: 76
56: 76
segment: [8]
vertex id: label
64: 0
65: 4
66: 3
67: 4
68: 3
69: 4
70: 3
71: 4
72: 3
73: 4
74: 3
75: 4
76: 3
77: 4
78: 3
79: 4
80: 3
81: 4
82: 3
83: 2
0: 5
1: 5
2: 5
3: 5
4: 5
5: 5
6: 5
7: 5
8: 5
9: 5
10: 5
11: 5
12: 5
13: 5
14: 5
15: 5
16: 5
17: 5
18: 5
19: 5
20: 5
21: 5
22: 5
23: 5
24: 5
25: 5
26: 5
27: 5
28: 5
29: 5
30: 5
31: 5
32: 5
33: 5
34: 5
35: 5
36: 5
37: 5
38: 5
39: 5
40: 5
41: 5
42: 5
43: 5
44: 5
45: 5
46: 5
47: 5
48: 5
49: 5
50: 5
51: 5
52: 5
53: 5
54: 5
55: 5
56: 5
57: 5
58: 5
59: 5
60: 5
61: 5
62: 5
63: 5
edge from: to
64: 0
64: 1
64: 2
65: 5
66: 7
66: 8
66: 9
66: 10
67: 4
67: 12
68: 17
69: 19
70: 7
70: 21
70: 22
71: 12
72: 29
73: 15
74: 20
74: 28
74: 35
74: 36
75: 27
75: 28
75: 39
75: 40
76: 40
76: 42
77: 46
78: 21
79: 35
79: 50
80: 50
80: 52
81: 39
81: 56
82: 58
83: 59
83: 60
83: 61
3: 64
4: 64
5: 64
6: 65
7: 65
8: 65
9: 65
10: 65
11: 66
12: 66
13: 67
14: 67
15: 67
16: 67
17: 67
18: 68
19: 68
20: 69
21: 69
22: 69
23: 70
24: 70
25: 70
26: 70
27: 70
28: 71
29: 71
30: 72
31: 72
32: 72
33: 72
34: 72
35: 73
36: 73
37: 74
38: 74
39: 74
40: 74
41: 75
42: 75
43: 76
44: 76
45: 76
46: 76
47: 77
48: 77
49: 78
50: 78
51: 79
52: 79
53: 80
54: 80
55: 80
56: 80
57: 81
58: 81
59: 82
60: 82
61: 82
62: 83
63: 83
segment: [9]
vertex id: label
64: 0
65: 4
66: 3
67: 4
68: 3
69: 4
70: 3
71: 4
72: 3
73: 4
74: 3
75: 4
76: 3
77: 4
78: 3
79: 4
80: 3
81: 4
82: 3
83: 4
0: 5
1: 5
2: 5
3: 5
4: 5
5: 5
6: 5
7: 5
8: 5
9: 5
10: 5
11: 5
12: 5
13: 5
14: 5
15: 5
16: 5
17: 5
18: 5
19: 5
20: 5
21: 5
22: 5
23: 5
24: 5
25: 5
26: 5
27: 5
28: 5
29: 5
30: 5
31: 5
32: 5
33: 5
34: 5
35: 5
36: 5
37: 5
38: 5
39: 5
40: 5
41: 5
42: 5
43: 5
44: 5
45: 5
46: 5
47: 5
48: 5
49: 5
50: 5
51: 5
52: 5
53: 5
54: 5
55: 5
56: 5
57: 5
58: 5
59: 5
60: 5
61: 5
62: 5
63: 5
edge from: to
64: 0
64: 1
65: 2
65: 3
66: 0
66: 2
66: 3
66: 4
66: 5
66: 6
67: 10
68: 4
68: 12
69: 6
70: 14
71: 16
72: 8
73: 22
74: 24
75: 29
76: 23
76: 31
76: 32
77: 36
78: 39
79: 40
79: 42
80: 6
80: 50
80: 51
81: 56
82: 40
82: 57
83: 61
2: 64
3: 64
4: 64
5: 65
6: 65
7: 66
8: 66
9: 66
10: 66
11: 67
12: 67
13: 68
14: 69
15: 70
16: 70
17: 71
18: 71
19: 72
20: 72
21: 72
22: 72
23: 73
24: 73
25: 74
26: 74
27: 74
28: 74
29: 74
30: 75
31: 75
32: 75
33: 76
34: 76
35: 76
36: 76
37: 77
38: 77
39: 77
40: 78
41: 78
42: 78
43: 79
44: 79
45: 79
46: 79
47: 79
48: 79
49: 79
50: 79
51: 79
52: 80
53: 80
54: 80
55: 80
56: 80
57: 81
58: 82
59: 82
60: 82
61: 82
62: 83
63: 83
