segment: [0]
vertex id: label
59: 0
60: 4
61: 3
62: 4
63: 3
64: 4
65: 3
66: 4
67: 2
68: 0
69: 4
70: 1
71: 1
72: 3
73: 4
74: 3
75: 3
76: 3
77: 4
78: 3
0: 5
1: 5
2: 5
3: 5
4: 5
5: 5
6: 5
7: 5
8: 5
9: 5
10: 5
11: 5
12: 5
13: 5
14: 5
15: 5
16: 5
17: 5
18: 5
19: 5
20: 5
21: 5
22: 5
23: 5
24: 5
25: 5
26: 5
27: 5
28: 5
29: 5
30: 5
31: 5
32: 5
33: 5
34: 5
35: 5
36: 5
37: 5
38: 5
39: 5
40: 5
41: 5
42: 5
43: 5
44: 5
45: 5
46: 5
47: 5
48: 5
49: 5
50: 5
51: 5
52: 5
53: 5
54: 5
55: 5
56: 5
57: 5
58: 5
edge from: to
59: 0
59: 1
60: 1
60: 6
60: 7
61: 9
61: 10
62: 10
63: 1
64: 16
65: 7
65: 18
66: 23
66: 24
66: 25
67: 2
68: 11
68: 29
69: 29
69: 31
70: 30
70: 32
71: 33
71: 34
71: 35
71: 36
72: 35
72: 36
72: 38
73: 37
73: 39
74: 3
75: 41
76: 17
76: 45
77: 48
77: 50
78: 50
2: 59
3: 59
4: 59
5: 59
6: 59
7: 59
8: 60
9: 60
10: 60
11: 61
12: 62
13: 62
14: 63
15: 63
16: 63
17: 63
18: 64
19: 64
20: 65
21: 65
22: 65
23: 65
24: 65
25: 65
26: 66
27: 66
28: 67
29: 67
30: 67
31: 68
32: 69
33: 70
34: 70
35: 70
36: 70
37: 71
38: 71
39: 72
40: 73
41: 73
42: 74
43: 74
44: 75
45: 75
46: 75
47: 75
48: 76
49: 76
50: 76
51: 77
52: 77
53: 78
54: 78
55: 78
56: 78
57: 78
58: 78
segment: [1]
vertex id: label
49: 0
50: 3
51: 4
52: 1
53: 1
54: 3
55: 4
56: 3
57: 4
58: 2
59: 3
60: 3
61: 4
62: 1
63: 1
64: 1
65: 3
66: 1
67: 1
68: 1
0: 5
1: 5
2: 5
3: 5
4: 5
5: 5
6: 5
7: 5
8: 5
9: 5
10: 5
11: 5
12: 5
13: 5
14: 5
15: 5
16: 5
17: 5
18: 5
19: 5
20: 5
21: 5
22: 5
23: 5
24: 5
25: 5
26: 5
27: 5
28: 5
29: 5
30: 5
31: 5
32: 5
33: 5
34: 5
35: 5
36: 5
37: 5
38: 5
39: 5
40: 5
41: 5
42: 5
43: 5
44: 5
45: 5
46: 5
47: 5
48: 5
edge from: to
49: 0
50: 0
51: 0
51: 1
51: 3
52: 4
53: 3
53: 8
54: 1
55: 1
55: 13
55: 14
56: 4
56: 6
56: 15
57: 17
58: 19
59: 19
59: 20
59: 21
60: 18
60: 21
60: 22
60: 23
61: 29
62: 16
62: 24
62: 28
62: 29
62: 30
62: 31
63: 31
64: 33
64: 35
65: 35
66: 38
67: 40
67: 42
68: 17
68: 45
1: 49
2: 50
3: 50
4: 51
5: 52
6: 52
7: 52
8: 52
9: 53
10: 53
11: 53
12: 53
13: 53
14: 54
15: 55
16: 55
17: 56
18: 56
19: 57
20: 57
21: 58
22: 59
23: 59
24: 60
25: 60
26: 60
27: 60
28: 60
29: 60
30: 60
31: 61
32: 62
33: 62
34: 63
35: 63
36: 64
37: 64
38: 65
39: 65
40: 65
41: 66
42: 66
43: 67
44: 67
45: 67
46: 67
47: 67
48: 68
segment: [2]
vertex id: label
56: 0
57: 4
58: 3
59: 4
60: 1
61: 1
62: 1
63: 1
64: 3
65: 4
66: 3
67: 1
68: 3
69: 2
70: 3
71: 3
72: 4
73: 2
74: 3
75: 3
0: 5
1: 5
2: 5
3: 5
4: 5
5: 5
6: 5
7: 5
8: 5
9: 5
10: 5
11: 5
12: 5
13: 5
14: 5
15: 5
16: 5
17: 5
18: 5
19: 5
20: 5
21: 5
22: 5
23: 5
24: 5
25: 5
26: 5
27: 5
28: 5
29: 5
30: 5
31: 5
32: 5
33: 5
34: 5
35: 5
36: 5
37: 5
38: 5
39: 5
40: 5
41: 5
42: 5
43: 5
44: 5
45: 5
46: 5
47: 5
48: 5
49: 5
50: 5
51: 5
52: 5
53: 5
54: 5
55: 5
edge from: to
56: 0
56: 1
56: 2
57: 0
57: 3
57: 5
57: 6
58: 8
59: 3
59: 11
59: 12
60: 1
60: 13
61: 16
61: 17
62: 18
62: 19
62: 20
63: 22
64: 23
65: 24
65: 25
65: 26
66: 29
67: 8
67: 12
67: 31
68: 33
69: 37
69: 38
69: 39
70: 40
70: 42
71: 43
71: 45
72: 17
72: 45
73: 47
74: 49
75: 51
3: 56
4: 56
5: 56
6: 56
7: 57
8: 57
9: 58
10: 58
11: 58
12: 58
13: 59
14: 60
15: 60
16: 60
17: 60
18: 61
19: 61
20: 61
21: 62
22: 62
23: 62
24: 63
25: 64
26: 64
27: 65
28: 65
29: 65
30: 65
31: 66
32: 66
33: 66
34: 67
35: 67
36: 68
37: 68
38: 68
39: 68
40: 69
41: 69
42: 69
43: 70
44: 70
45: 70
46: 71
47: 71
48: 72
49: 72
50: 73
51: 73
52: 74
53: 74
54: 74
55: 75
segment: [3]
vertex id: label
65: 0
66: 4
67: 1
68: 1
69: 1
70: 1
71: 3
72: 4
73: 3
74: 3
75: 4
76: 2
77: 4
78: 3
79: 4
80: 2
81: 3
82: 4
83: 2
84: 3
0: 5
1: 5
2: 5
3: 5
4: 5
5: 5
6: 5
7: 5
8: 5
9: 5
10: 5
11: 5
12: 5
13: 5
14: 5
15: 5
16: 5
17: 5
18: 5
19: 5
20: 5
21: 5
22: 5
23: 5
24: 5
25: 5
26: 5
27: 5
28: 5
29: 5
30: 5
31: 5
32: 5
33: 5
34: 5
35: 5
36: 5
37: 5
38: 5
39: 5
40: 5
41: 5
42: 5
43: 5
44: 5
45: 5
46: 5
47: 5
48: 5
49: 5
50: 5
51: 5
52: 5
53: 5
54: 5
55: 5
56: 5
57: 5
58: 5
59: 5
60: 5
61: 5
62: 5
63: 5
64: 5
edge from: to
65: 0
65: 1
66: 0
66: 1
66: 2
67: 0
67: 1
67: 2
67: 3
68: 0
68: 2
68: 4
68: 5
69: 1
69: 6
69: 7
70: 9
71: 10
71: 11
72: 16
73: 7
73: 18
73: 19
74: 24
75: 24
75: 25
75: 26
76: 2
76: 28
77: 8
77: 12
77: 31
78: 36
78: 38
79: 40
80: 17
80: 45
80: 46
81: 49
81: 50
81: 51
82: 54
83: 57
84: 57
84: 60
2: 65
3: 66
4: 67
5: 67
6: 68
7: 68
8: 69
9: 69
10: 70
11: 70
12: 71
13: 71
14: 71
15: 71
16: 71
17: 71
18: 72
19: 72
20: 73
21: 73
22: 73
23: 73
24: 73
25: 73
26: 74
27: 75
28: 75
29: 76
30: 76
31: 76
32: 76
33: 76
34: 77
35: 77
36: 77
37: 77
38: 77
39: 78
40: 78
41: 78
42: 78
43: 79
44: 79
45: 79
46: 79
47: 79
48: 80
49: 80
50: 80
51: 80
52: 81
53: 81
54: 81
55: 81
56: 81
57: 82
58: 82
59: 82
60: 83
61: 84
62: 84
63: 84
64: 84
segment: [4]
vertex id: label
60: 0
61: 4
62: 3
63: 4
64: 1
65: 1
66: 3
67: 1
68: 2
69: 3
70: 4
71: 3
72: 4
73: 3
74: 4
75: 3
76: 4
77: 2
78: 3
79: 4
0: 5
1: 5
2: 5
3: 5
4: 5
5: 5
6: 5
7: 5
8: 5
9: 5
10: 5
11: 5
12: 5
13: 5
14: 5
15: 5
16: 5
17: 5
18: 5
19: 5
20: 5
21: 5
22: 5
23: 5
24: 5
25: 5
26: 5
27: 5
28: 5
29: 5
30: 5
31: 5
32: 5
33: 5
34: 5
35: 5
36: 5
37: 5
38: 5
39: 5
40: 5
41: 5
42: 5
43: 5
44: 5
45: 5
46: 5
47: 5
48: 5
49: 5
50: 5
51: 5
52: 5
53: 5
54: 5
55: 5
56: 5
57: 5
58: 5
59: 5
edge from: to
60: 0
61: 0
61: 5
61: 6
62: 1
62: 5
62: 6
62: 7
63: 1
64: 16
65: 7
65: 18
65: 19
66: 20
66: 21
66: 22
67: 23
67: 24
68: 28
68: 29
68: 31
69: 29
69: 30
69: 32
70: 8
70: 12
70: 31
71: 32
71: 33
71: 35
72: 36
72: 38
73: 16
73: 42
73: 43
74: 44
74: 45
74: 46
75: 45
76: 46
76: 47
76: 48
77: 48
77: 50
78: 50
78: 52
78: 53
79: 54
79: 56
1: 60
2: 60
3: 60
4: 60
5: 60
6: 60
7: 61
8: 62
9: 62
10: 62
11: 62
12: 62
13: 62
14: 62
15: 63
16: 63
17: 63
18: 64
19: 64
20: 65
21: 65
22: 65
23: 66
24: 66
25: 67
26: 67
27: 67
28: 67
29: 67
30: 67
31: 67
32: 68
33: 69
34: 70
35: 70
36: 71
37: 71
38: 71
39: 72
40: 72
41: 72
42: 72
43: 72
44: 72
45: 73
46: 73
47: 74
48: 75
49: 76
50: 76
51: 77
52: 77
53: 77
54: 78
55: 78
56: 78
57: 79
58: 79
59: 79
segment: [5]
vertex id: label
58: 0
59: 4
60: 3
61: 4
62: 1
63: 1
64: 1
65: 1
66: 1
67: 1
68: 3
69: 4
70: 3
71: 4
72: 1
73: 1
74: 1
75: 1
76: 3
77: 4
0: 5
1: 5
2: 5
3: 5
4: 5
5: 5
6: 5
7: 5
8: 5
9: 5
10: 5
11: 5
12: 5
13: 5
14: 5
15: 5
16: 5
17: 5
18: 5
19: 5
20: 5
21: 5
22: 5
23: 5
24: 5
25: 5
26: 5
27: 5
28: 5
29: 5
30: 5
31: 5
32: 5
33: 5
34: 5
35: 5
36: 5
37: 5
38: 5
39: 5
40: 5
41: 5
42: 5
43: 5
44: 5
45: 5
46: 5
47: 5
48: 5
49: 5
50: 5
51: 5
52: 5
53: 5
54: 5
55: 5
56: 5
57: 5
edge from: to
58: 0
59: 0
59: 1
60: 0
61: 4
62: 8
63: 9
63: 10
64: 11
65: 10
65: 12
65: 14
65: 15
66: 8
66: 14
66: 16
66: 17
66: 18
67: 22
67: 23
68: 2
69: 29
69: 31
70: 31
71: 34
71: 36
72: 3
73: 16
73: 42
74: 46
74: 47
74: 48
75: 48
76: 49
77: 50
77: 53
1: 58
2: 58
3: 59
4: 60
5: 61
6: 61
7: 61
8: 61
9: 62
10: 62
11: 63
12: 63
13: 64
14: 64
15: 64
16: 65
17: 65
18: 65
19: 66
20: 66
21: 66
22: 66
23: 66
24: 67
25: 67
26: 67
27: 67
28: 67
29: 68
30: 68
31: 68
32: 69
33: 69
34: 70
35: 70
36: 70
37: 71
38: 71
39: 71
40: 71
41: 71
42: 72
43: 72
44: 72
45: 73
46: 73
47: 73
48: 73
49: 74
50: 74
51: 75
52: 76
53: 76
54: 77
55: 77
56: 77
57: 77
segment: [6]
vertex id: label
64: 0
65: 4
66: 1
67: 3
68: 4
69: 2
70: 3
71: 3
72: 4
73: 2
74: 3
75: 1
76: 1
77: 1
78: 3
79: 4
80: 3
81: 3
82: 4
83: 2
0: 5
1: 5
2: 5
3: 5
4: 5
5: 5
6: 5
7: 5
8: 5
9: 5
10: 5
11: 5
12: 5
13: 5
14: 5
15: 5
16: 5
17: 5
18: 5
19: 5
20: 5
21: 5
22: 5
23: 5
24: 5
25: 5
26: 5
27: 5
28: 5
29: 5
30: 5
31: 5
32: 5
33: 5
34: 5
35: 5
36: 5
37: 5
38: 5
39: 5
40: 5
41: 5
42: 5
43: 5
44: 5
45: 5
46: 5
47: 5
48: 5
49: 5
50: 5
51: 5
52: 5
53: 5
54: 5
55: 5
56: 5
57: 5
58: 5
59: 5
60: 5
61: 5
62: 5
63: 5
edge from: to
64: 0
64: 1
65: 0
66: 0
66: 2
66: 4
66: 5
67: 3
67: 8
68: 9
69: 3
69: 11
69: 12
70: 14
70: 15
71: 3
71: 19
71: 20
71: 21
72: 24
73: 28
73: 29
73: 31
74: 32
74: 33
74: 34
74: 35
75: 36
75: 38
76: 3
76: 40
76: 41
77: 43
77: 44
77: 45
78: 47
78: 49
79: 49
79: 50
79: 51
80: 4
81: 55
81: 56
81: 57
82: 57
83: 22
83: 58
2: 64
3: 64
4: 65
5: 65
6: 66
7: 66
8: 66
9: 67
10: 68
11: 68
12: 68
13: 69
14: 69
15: 69
16: 70
17: 70
18: 70
19: 70
20: 70
21: 70
22: 71
23: 71
24: 71
25: 71
26: 71
27: 72
28: 72
29: 72
30: 72
31: 72
32: 73
33: 73
34: 73
35: 73
36: 74
37: 74
38: 74
39: 75
40: 75
41: 75
42: 76
43: 76
44: 76
45: 76
46: 77
47: 77
48: 77
49: 77
50: 78
51: 78
52: 79
53: 79
54: 79
55: 79
56: 80
57: 80
58: 81
59: 81
60: 82
61: 82
62: 83
63: 83
segment: [7]
vertex id: label
55: 0
56: 4
57: 3
58: 4
59: 1
60: 1
61: 3
62: 4
63: 1
64: 3
65: 4
66: 3
67: 4
68: 3
69: 4
70: 2
71: 3
72: 4
73: 3
74: 4
0: 5
1: 5
2: 5
3: 5
4: 5
5: 5
6: 5
7: 5
8: 5
9: 5
10: 5
11: 5
12: 5
13: 5
14: 5
15: 5
16: 5
17: 5
18: 5
19: 5
20: 5
21: 5
22: 5
23: 5
24: 5
25: 5
26: 5
27: 5
28: 5
29: 5
30: 5
31: 5
32: 5
33: 5
34: 5
35: 5
36: 5
37: 5
38: 5
39: 5
40: 5
41: 5
42: 5
43: 5
44: 5
45: 5
46: 5
47: 5
48: 5
49: 5
50: 5
51: 5
52: 5
53: 5
54: 5
edge from: to
55: 0
56: 0
56: 1
56: 2
56: 3
56: 4
57: 2
57: 5
58: 6
59: 1
59: 5
59: 6
59: 7
60: 4
60: 10
60: 11
61: 1
61: 13
62: 15
63: 17
64: 21
65: 24
66: 28
67: 30
68: 32
68: 34
69: 32
69: 33
69: 35
70: 37
70: 39
71: 3
71: 40
71: 41
72: 43
72: 45
73: 47
74: 50
1: 55
2: 55
3: 55
4: 55
5: 56
6: 57
7: 58
8: 59
9: 59
10: 59
11: 59
12: 60
13: 60
14: 61
15: 61
16: 61
17: 62
18: 62
19: 63
20: 63
21: 63
22: 63
23: 64
24: 64
25: 64
26: 64
27: 65
28: 65
29: 65
30: 66
31: 66
32: 66
33: 67
34: 67
35: 68
36: 69
37: 69
38: 69
39: 69
40: 70
41: 70
42: 71
43: 71
44: 71
45: 71
46: 72
47: 72
48: 72
49: 72
50: 73
51: 73
52: 73
53: 74
54: 74
segment: [8]
vertex id: label
75: 0
76: 4
77: 3
78: 4
79: 3
80: 4
81: 3
82: 3
83: 4
84: 3
85: 4
86: 3
87: 3
88: 4
89: 1
90: 1
91: 2
92: 3
93: 4
94: 3
0: 5
1: 5
2: 5
3: 5
4: 5
5: 5
6: 5
7: 5
8: 5
9: 5
10: 5
11: 5
12: 5
13: 5
14: 5
15: 5
16: 5
17: 5
18: 5
19: 5
20: 5
21: 5
22: 5
23: 5
24: 5
25: 5
26: 5
27: 5
28: 5
29: 5
30: 5
31: 5
32: 5
33: 5
34: 5
35: 5
36: 5
37: 5
38: 5
39: 5
40: 5
41: 5
42: 5
43: 5
44: 5
45: 5
46: 5
47: 5
48: 5
49: 5
50: 5
51: 5
52: 5
53: 5
54: 5
55: 5
56: 5
57: 5
58: 5
59: 5
60: 5
61: 5
62: 5
63: 5
64: 5
65: 5
66: 5
67: 5
68: 5
69: 5
70: 5
71: 5
72: 5
73: 5
74: 5
edge from: to
75: 0
75: 1
76: 1
76: 4
77: 6
78: 7
78: 8
78: 9
79: 10
79: 11
80: 1
80: 14
81: 15
82: 19
82: 20
82: 21
83: 23
83: 24
84: 28
84: 29
85: 12
85: 31
86: 35
86: 36
86: 37
87: 42
88: 44
89: 47
89: 49
90: 13
90: 51
90: 54
91: 56
92: 57
93: 62
93: 65
94: 5
94: 68
94: 69
2: 75
3: 75
4: 75
5: 76
6: 76
7: 77
8: 77
9: 77
10: 78
11: 78
12: 79
13: 79
14: 79
15: 80
16: 80
17: 81
18: 81
19: 81
20: 81
21: 81
22: 82
23: 82
24: 82
25: 83
26: 83
27: 83
28: 83
29: 83
30: 84
31: 84
32: 84
33: 84
34: 85
35: 85
36: 85
37: 85
38: 86
39: 86
40: 86
41: 86
42: 86
43: 86
44: 86
45: 87
46: 87
47: 88
48: 88
49: 88
50: 89
51: 89
52: 89
53: 89
54: 89
55: 90
56: 90
57: 90
58: 90
59: 91
60: 91
61: 92
62: 92
63: 92
64: 92
65: 92
66: 93
67: 93
68: 93
69: 93
70: 94
71: 94
72: 94
73: 94
74: 94
segment: [9]
vertex id: label
71: 0
72: 4
73: 3
74: 4
75: 3
76: 4
77: 3
78: 4
79: 1
80: 3
81: 4
82: 3
83: 4
84: 1
85: 3
86: 0
87: 4
88: 3
89: 4
90: 1
0: 5
1: 5
2: 5
3: 5
4: 5
5: 5
6: 5
7: 5
8: 5
9: 5
10: 5
11: 5
12: 5
13: 5
14: 5
15: 5
16: 5
17: 5
18: 5
19: 5
20: 5
21: 5
22: 5
23: 5
24: 5
25: 5
26: 5
27: 5
28: 5
29: 5
30: 5
31: 5
32: 5
33: 5
34: 5
35: 5
36: 5
37: 5
38: 5
39: 5
40: 5
41: 5
42: 5
43: 5
44: 5
45: 5
46: 5
47: 5
48: 5
49: 5
50: 5
51: 5
52: 5
53: 5
54: 5
55: 5
56: 5
57: 5
58: 5
59: 5
60: 5
61: 5
62: 5
63: 5
64: 5
65: 5
66: 5
67: 5
68: 5
69: 5
70: 5
edge from: to
71: 0
71: 1
72: 1
72: 4
73: 3
73: 8
74: 9
74: 10
75: 12
75: 14
75: 15
76: 17
76: 18
77: 21
78: 24
79: 2
79: 27
80: 29
81: 30
82: 36
82: 38
83: 3
83: 40
83: 41
84: 40
84: 41
84: 42
85: 46
86: 50
87: 4
88: 22
88: 57
88: 58
88: 60
89: 61
89: 63
89: 64
90: 5
2: 71
3: 71
4: 71
5: 72
6: 72
7: 72
8: 72
9: 73
10: 73
11: 74
12: 74
13: 74
14: 74
15: 74
16: 75
17: 75
18: 75
19: 76
20: 76
21: 76
22: 76
23: 77
24: 77
25: 77
26: 77
27: 78
28: 79
29: 79
30: 79
31: 79
32: 80
33: 81
34: 81
35: 81
36: 81
37: 81
38: 81
39: 82
40: 82
41: 82
42: 83
43: 84
44: 84
45: 84
46: 84
47: 84
48: 84
49: 85
50: 85
51: 85
52: 85
53: 85
54: 86
55: 86
56: 87
57: 87
58: 87
59: 87
60: 87
61: 87
62: 88
63: 88
64: 88
65: 89
66: 89
67: 89
68: 89
69: 89
70: 90
segment: [10]
vertex id: label
64: 0
65: 4
66: 3
67: 4
68: 1
69: 1
70: 3
71: 4
72: 1
73: 1
74: 1
75: 1
76: 3
77: 4
78: 3
79: 4
80: 3
81: 4
82: 2
83: 3
0: 5
1: 5
2: 5
3: 5
4: 5
5: 5
6: 5
7: 5
8: 5
9: 5
10: 5
11: 5
12: 5
13: 5
14: 5
15: 5
16: 5
17: 5
18: 5
19: 5
20: 5
21: 5
22: 5
23: 5
24: 5
25: 5
26: 5
27: 5
28: 5
29: 5
30: 5
31: 5
32: 5
33: 5
34: 5
35: 5
36: 5
37: 5
38: 5
39: 5
40: 5
41: 5
42: 5
43: 5
44: 5
45: 5
46: 5
47: 5
48: 5
49: 5
50: 5
51: 5
52: 5
53: 5
54: 5
55: 5
56: 5
57: 5
58: 5
59: 5
60: 5
61: 5
62: 5
63: 5
edge from: to
64: 0
64: 1
65: 1
65: 4
66: 6
67: 4
67: 10
67: 11
68: 1
68: 14
69: 14
70: 13
70: 14
70: 16
70: 17
71: 19
72: 24
73: 2
73: 26
73: 27
73: 28
74: 29
75: 34
75: 36
76: 35
76: 36
76: 37
76: 38
77: 38
77: 40
78: 43
78: 45
79: 46
79: 48
80: 50
80: 52
81: 4
81: 55
82: 21
82: 56
83: 22
83: 58
2: 64
3: 64
4: 64
5: 65
6: 65
7: 66
8: 66
9: 66
10: 66
11: 66
12: 67
13: 67
14: 67
15: 68
16: 69
17: 69
18: 70
19: 70
20: 70
21: 71
22: 71
23: 71
24: 71
25: 71
26: 72
27: 72
28: 72
29: 73
30: 73
31: 73
32: 74
33: 74
34: 74
35: 74
36: 74
37: 75
38: 75
39: 76
40: 76
41: 77
42: 77
43: 77
44: 77
45: 77
46: 78
47: 78
48: 78
49: 79
50: 79
51: 79
52: 79
53: 80
54: 80
55: 80
56: 81
57: 81
58: 81
59: 82
60: 82
61: 82
62: 83
63: 83
segment: [11]
vertex id: label
68: 0
69: 4
70: 2
71: 3
72: 4
73: 3
74: 4
75: 3
76: 3
77: 0
78: 4
79: 2
80: 4
81: 2
82: 3
83: 4
84: 3
85: 4
86: 3
87: 4
0: 5
1: 5
2: 5
3: 5
4: 5
5: 5
6: 5
7: 5
8: 5
9: 5
10: 5
11: 5
12: 5
13: 5
14: 5
15: 5
16: 5
17: 5
18: 5
19: 5
20: 5
21: 5
22: 5
23: 5
24: 5
25: 5
26: 5
27: 5
28: 5
29: 5
30: 5
31: 5
32: 5
33: 5
34: 5
35: 5
36: 5
37: 5
38: 5
39: 5
40: 5
41: 5
42: 5
43: 5
44: 5
45: 5
46: 5
47: 5
48: 5
49: 5
50: 5
51: 5
52: 5
53: 5
54: 5
55: 5
56: 5
57: 5
58: 5
59: 5
60: 5
61: 5
62: 5
63: 5
64: 5
65: 5
66: 5
67: 5
edge from: to
68: 0
68: 1
68: 2
68: 3
68: 4
69: 6
69: 7
70: 10
70: 11
71: 1
71: 12
71: 13
72: 6
72: 15
73: 18
74: 20
74: 21
75: 22
76: 2
77: 30
77: 32
78: 8
78: 12
78: 31
79: 36
80: 38
81: 40
81: 42
82: 17
82: 45
83: 49
84: 55
84: 56
84: 57
85: 56
86: 60
86: 63
87: 61
87: 64
5: 68
6: 68
7: 68
8: 69
9: 69
10: 69
11: 69
12: 70
13: 70
14: 71
15: 71
16: 71
17: 72
18: 72
19: 72
20: 73
21: 73
22: 74
23: 74
24: 75
25: 75
26: 75
27: 75
28: 75
29: 76
30: 76
31: 76
32: 76
33: 77
34: 78
35: 78
36: 78
37: 78
38: 78
39: 79
40: 79
41: 80
42: 80
43: 81
44: 81
45: 81
46: 81
47: 81
48: 82
49: 82
50: 82
51: 82
52: 83
53: 83
54: 83
55: 83
56: 83
57: 83
58: 84
59: 85
60: 85
61: 85
62: 85
63: 85
64: 86
65: 87
66: 87
67: 87
segment: [12]
vertex id: label
51: 0
52: 4
53: 3
54: 4
55: 3
56: 4
57: 2
58: 3
59: 4
60: 3
61: 4
62: 2
63: 3
64: 4
65: 2
66: 1
67: 1
68: 2
69: 3
70: 4
0: 5
1: 5
2: 5
3: 5
4: 5
5: 5
6: 5
7: 5
8: 5
9: 5
10: 5
11: 5
12: 5
13: 5
14: 5
15: 5
16: 5
17: 5
18: 5
19: 5
20: 5
21: 5
22: 5
23: 5
24: 5
25: 5
26: 5
27: 5
28: 5
29: 5
30: 5
31: 5
32: 5
33: 5
34: 5
35: 5
36: 5
37: 5
38: 5
39: 5
40: 5
41: 5
42: 5
43: 5
44: 5
45: 5
46: 5
47: 5
48: 5
49: 5
50: 5
edge from: to
51: 0
52: 0
52: 1
53: 0
53: 1
53: 4
54: 0
54: 6
55: 1
55: 6
55: 7
56: 4
56: 10
56: 11
57: 1
58: 15
59: 17
60: 19
61: 23
61: 24
62: 24
63: 2
63: 28
64: 11
64: 29
65: 32
66: 34
67: 37
68: 3
69: 16
69: 42
69: 43
70: 46
70: 48
1: 51
2: 52
3: 52
4: 52
5: 53
6: 53
7: 54
8: 55
9: 55
10: 55
11: 55
12: 56
13: 56
14: 56
15: 57
16: 57
17: 58
18: 58
19: 59
20: 59
21: 60
22: 60
23: 60
24: 60
25: 61
26: 61
27: 62
28: 62
29: 63
30: 63
31: 64
32: 64
33: 64
34: 64
35: 65
36: 65
37: 66
38: 66
39: 66
40: 67
41: 67
42: 68
43: 68
44: 68
45: 69
46: 69
47: 69
48: 69
49: 70
50: 70
segment: [13]
vertex id: label
54: 0
55: 4
56: 3
57: 4
58: 3
59: 4
60: 3
61: 4
62: 2
63: 3
64: 4
65: 2
66: 3
67: 4
68: 2
69: 3
70: 3
71: 4
72: 1
73: 1
0: 5
1: 5
2: 5
3: 5
4: 5
5: 5
6: 5
7: 5
8: 5
9: 5
10: 5
11: 5
12: 5
13: 5
14: 5
15: 5
16: 5
17: 5
18: 5
19: 5
20: 5
21: 5
22: 5
23: 5
24: 5
25: 5
26: 5
27: 5
28: 5
29: 5
30: 5
31: 5
32: 5
33: 5
34: 5
35: 5
36: 5
37: 5
38: 5
39: 5
40: 5
41: 5
42: 5
43: 5
44: 5
45: 5
46: 5
47: 5
48: 5
49: 5
50: 5
51: 5
52: 5
53: 5
edge from: to
54: 0
54: 1
55: 0
55: 1
55: 3
56: 6
56: 7
57: 9
58: 3
58: 9
58: 11
58: 12
59: 14
59: 15
60: 17
61: 22
62: 24
62: 25
63: 24
64: 29
65: 32
65: 34
66: 35
67: 38
67: 40
68: 40
68: 42
69: 43
69: 45
70: 46
71: 47
72: 48
73: 50
73: 51
73: 52
2: 54
3: 54
4: 55
5: 55
6: 55
7: 55
8: 56
9: 56
10: 56
11: 57
12: 57
13: 58
14: 58
15: 58
16: 59
17: 59
18: 59
19: 60
20: 60
21: 60
22: 60
23: 60
24: 61
25: 61
26: 62
27: 63
28: 63
29: 63
30: 63
31: 64
32: 64
33: 64
34: 64
35: 65
36: 65
37: 65
38: 66
39: 66
40: 66
41: 67
42: 67
43: 68
44: 68
45: 68
46: 69
47: 69
48: 69
49: 70
50: 71
51: 72
52: 72
53: 73
segment: [14]
vertex id: label
63: 0
64: 4
65: 3
66: 4
67: 3
68: 3
69: 4
70: 2
71: 3
72: 4
73: 3
74: 4
75: 0
76: 4
77: 3
78: 0
79: 4
80: 3
81: 4
82: 3
0: 5
1: 5
2: 5
3: 5
4: 5
5: 5
6: 5
7: 5
8: 5
9: 5
10: 5
11: 5
12: 5
13: 5
14: 5
15: 5
16: 5
17: 5
18: 5
19: 5
20: 5
21: 5
22: 5
23: 5
24: 5
25: 5
26: 5
27: 5
28: 5
29: 5
30: 5
31: 5
32: 5
33: 5
34: 5
35: 5
36: 5
37: 5
38: 5
39: 5
40: 5
41: 5
42: 5
43: 5
44: 5
45: 5
46: 5
47: 5
48: 5
49: 5
50: 5
51: 5
52: 5
53: 5
54: 5
55: 5
56: 5
57: 5
58: 5
59: 5
60: 5
61: 5
62: 5
edge from: to
63: 0
63: 1
63: 2
63: 3
64: 7
65: 5
65: 7
65: 8
65: 9
65: 10
66: 1
66: 13
67: 18
68: 9
68: 23
68: 24
68: 25
69: 2
69: 26
69: 28
70: 29
71: 8
71: 12
71: 31
72: 33
72: 35
73: 36
74: 3
74: 41
75: 41
76: 16
76: 42
77: 44
77: 46
78: 17
78: 45
78: 46
79: 47
80: 49
81: 50
81: 53
82: 56
4: 63
5: 63
6: 63
7: 63
8: 64
9: 64
10: 64
11: 65
12: 65
13: 65
14: 66
15: 66
16: 66
17: 66
18: 66
19: 66
20: 67
21: 67
22: 67
23: 67
24: 67
25: 67
26: 68
27: 68
28: 68
29: 69
30: 69
31: 70
32: 70
33: 70
34: 71
35: 71
36: 72
37: 72
38: 72
39: 73
40: 73
41: 73
42: 74
43: 74
44: 75
45: 76
46: 76
47: 77
48: 78
49: 78
50: 79
51: 79
52: 80
53: 80
54: 81
55: 81
56: 81
57: 81
58: 81
59: 82
60: 82
61: 82
62: 82
segment: [15]
vertex id: label
62: 0
63: 4
64: 3
65: 3
66: 4
67: 3
68: 3
69: 4
70: 3
71: 4
72: 3
73: 4
74: 3
75: 4
76: 2
77: 3
78: 4
79: 3
80: 3
81: 4
0: 5
1: 5
2: 5
3: 5
4: 5
5: 5
6: 5
7: 5
8: 5
9: 5
10: 5
11: 5
12: 5
13: 5
14: 5
15: 5
16: 5
17: 5
18: 5
19: 5
20: 5
21: 5
22: 5
23: 5
24: 5
25: 5
26: 5
27: 5
28: 5
29: 5
30: 5
31: 5
32: 5
33: 5
34: 5
35: 5
36: 5
37: 5
38: 5
39: 5
40: 5
41: 5
42: 5
43: 5
44: 5
45: 5
46: 5
47: 5
48: 5
49: 5
50: 5
51: 5
52: 5
53: 5
54: 5
55: 5
56: 5
57: 5
58: 5
59: 5
60: 5
61: 5
edge from: to
62: 0
62: 1
63: 2
63: 5
64: 9
65: 10
66: 1
67: 16
68: 18
69: 23
69: 24
70: 2
71: 30
71: 32
72: 33
72: 34
72: 35
72: 36
73: 36
73: 37
73: 38
73: 39
73: 40
74: 40
75: 41
75: 43
76: 16
76: 41
76: 42
76: 43
76: 44
77: 44
78: 46
78: 48
79: 50
79: 52
79: 53
80: 4
80: 55
81: 21
81: 56
2: 62
3: 62
4: 62
5: 62
6: 63
7: 63
8: 63
9: 63
10: 64
11: 64
12: 65
13: 65
14: 66
15: 66
16: 66
17: 66
18: 67
19: 67
20: 68
21: 68
22: 68
23: 68
24: 68
25: 69
26: 69
27: 69
28: 69
29: 70
30: 70
31: 70
32: 70
33: 71
34: 71
35: 71
36: 71
37: 72
38: 72
39: 72
40: 72
41: 73
42: 73
43: 74
44: 75
45: 76
46: 76
47: 77
48: 77
49: 78
50: 78
51: 78
52: 78
53: 78
54: 79
55: 79
56: 80
57: 80
58: 80
59: 81
60: 81
61: 81
segment: [16]
vertex id: label
52: 0
53: 4
54: 1
55: 1
56: 1
57: 1
58: 3
59: 4
60: 3
61: 4
62: 3
63: 4
64: 3
65: 4
66: 3
67: 4
68: 3
69: 4
70: 3
71: 4
0: 5
1: 5
2: 5
3: 5
4: 5
5: 5
6: 5
7: 5
8: 5
9: 5
10: 5
11: 5
12: 5
13: 5
14: 5
15: 5
16: 5
17: 5
18: 5
19: 5
20: 5
21: 5
22: 5
23: 5
24: 5
25: 5
26: 5
27: 5
28: 5
29: 5
30: 5
31: 5
32: 5
33: 5
34: 5
35: 5
36: 5
37: 5
38: 5
39: 5
40: 5
41: 5
42: 5
43: 5
44: 5
45: 5
46: 5
47: 5
48: 5
49: 5
50: 5
51: 5
edge from: to
52: 0
53: 0
54: 2
54: 5
55: 6
56: 9
57: 4
57: 10
57: 11
58: 1
59: 14
59: 15
60: 17
60: 18
61: 19
61: 20
62: 20
62: 21
63: 23
63: 24
64: 23
64: 24
64: 25
65: 28
65: 29
66: 29
66: 31
67: 32
67: 33
67: 35
68: 34
68: 35
68: 36
69: 38
69: 40
70: 1
70: 41
70: 42
70: 43
71: 47
71: 49
1: 52
2: 52
3: 53
4: 53
5: 53
6: 54
7: 55
8: 55
9: 55
10: 56
11: 56
12: 57
13: 57
14: 57
15: 58
16: 59
17: 59
18: 59
19: 60
20: 60
21: 61
22: 62
23: 62
24: 62
25: 63
26: 64
27: 64
28: 64
29: 64
30: 65
31: 65
32: 66
33: 66
34: 66
35: 66
36: 67
37: 68
38: 68
39: 68
40: 68
41: 69
42: 69
43: 69
44: 70
45: 70
46: 70
47: 70
48: 70
49: 70
50: 71
51: 71
segment: [17]
vertex id: label
70: 0
71: 4
72: 2
73: 3
74: 4
75: 3
76: 4
77: 1
78: 1
79: 1
80: 3
81: 2
82: 1
83: 3
84: 4
85: 2
86: 3
87: 3
88: 4
89: 1
0: 5
1: 5
2: 5
3: 5
4: 5
5: 5
6: 5
7: 5
8: 5
9: 5
10: 5
11: 5
12: 5
13: 5
14: 5
15: 5
16: 5
17: 5
18: 5
19: 5
20: 5
21: 5
22: 5
23: 5
24: 5
25: 5
26: 5
27: 5
28: 5
29: 5
30: 5
31: 5
32: 5
33: 5
34: 5
35: 5
36: 5
37: 5
38: 5
39: 5
40: 5
41: 5
42: 5
43: 5
44: 5
45: 5
46: 5
47: 5
48: 5
49: 5
50: 5
51: 5
52: 5
53: 5
54: 5
55: 5
56: 5
57: 5
58: 5
59: 5
60: 5
61: 5
62: 5
63: 5
64: 5
65: 5
66: 5
67: 5
68: 5
69: 5
edge from: to
70: 0
70: 1
71: 1
71: 4
72: 9
73: 3
73: 8
73: 9
73: 11
73: 12
74: 1
74: 13
74: 14
75: 6
75: 15
76: 19
76: 20
77: 24
77: 25
78: 2
78: 27
79: 11
79: 29
80: 31
81: 35
81: 37
82: 38
82: 40
83: 40
83: 42
84: 44
84: 45
84: 46
85: 46
85: 47
85: 48
85: 49
86: 49
87: 55
87: 57
88: 57
88: 59
88: 60
89: 62
2: 70
3: 70
4: 70
5: 71
6: 71
7: 71
8: 71
9: 71
10: 71
11: 72
12: 72
13: 73
14: 73
15: 74
16: 74
17: 75
18: 75
19: 75
20: 75
21: 76
22: 76
23: 76
24: 76
25: 76
26: 77
27: 77
28: 78
29: 78
30: 78
31: 79
32: 79
33: 79
34: 80
35: 80
36: 80
37: 80
38: 81
39: 81
40: 81
41: 82
42: 82
43: 83
44: 83
45: 83
46: 83
47: 84
48: 84
49: 84
50: 85
51: 85
52: 86
53: 86
54: 86
55: 86
56: 86
57: 86
58: 87
59: 87
60: 87
61: 88
62: 88
63: 88
64: 88
65: 88
66: 89
67: 89
68: 89
69: 89
segment: [18]
vertex id: label
79: 0
80: 4
81: 3
82: 4
83: 3
84: 3
85: 4
86: 1
87: 3
88: 4
89: 2
90: 3
91: 4
92: 3
93: 4
94: 3
95: 4
96: 2
97: 3
98: 4
0: 5
1: 5
2: 5
3: 5
4: 5
5: 5
6: 5
7: 5
8: 5
9: 5
10: 5
11: 5
12: 5
13: 5
14: 5
15: 5
16: 5
17: 5
18: 5
19: 5
20: 5
21: 5
22: 5
23: 5
24: 5
25: 5
26: 5
27: 5
28: 5
29: 5
30: 5
31: 5
32: 5
33: 5
34: 5
35: 5
36: 5
37: 5
38: 5
39: 5
40: 5
41: 5
42: 5
43: 5
44: 5
45: 5
46: 5
47: 5
48: 5
49: 5
50: 5
51: 5
52: 5
53: 5
54: 5
55: 5
56: 5
57: 5
58: 5
59: 5
60: 5
61: 5
62: 5
63: 5
64: 5
65: 5
66: 5
67: 5
68: 5
69: 5
70: 5
71: 5
72: 5
73: 5
74: 5
75: 5
76: 5
77: 5
78: 5
edge from: to
79: 0
79: 1
79: 2
80: 2
80: 5
81: 8
82: 1
82: 12
82: 13
83: 13
83: 16
83: 17
84: 18
85: 23
85: 24
86: 7
86: 28
86: 29
87: 30
88: 34
88: 35
88: 36
89: 35
89: 36
89: 38
90: 3
90: 40
90: 41
91: 42
92: 47
92: 49
93: 50
93: 53
94: 55
95: 57
95: 60
96: 62
97: 5
98: 72
3: 79
4: 79
5: 79
6: 80
7: 80
8: 80
9: 81
10: 81
11: 81
12: 81
13: 81
14: 82
15: 82
16: 82
17: 82
18: 83
19: 83
20: 84
21: 84
22: 84
23: 84
24: 84
25: 85
26: 85
27: 85
28: 85
29: 85
30: 86
31: 86
32: 86
33: 87
34: 87
35: 87
36: 87
37: 88
38: 88
39: 89
40: 89
41: 89
42: 90
43: 90
44: 90
45: 91
46: 91
47: 91
48: 91
49: 91
50: 92
51: 92
52: 92
53: 92
54: 93
55: 93
56: 93
57: 93
58: 94
59: 94
60: 94
61: 95
62: 95
63: 95
64: 95
65: 95
66: 96
67: 96
68: 96
69: 96
70: 97
71: 97
72: 97
73: 97
74: 97
75: 97
76: 98
77: 98
78: 98
segment: [19]
vertex id: label
55: 0
56: 4
57: 3
58: 4
59: 2
60: 0
61: 4
62: 2
63: 0
64: 4
65: 3
66: 1
67: 1
68: 3
69: 4
70: 3
71: 3
72: 4
73: 3
74: 4
0: 5
1: 5
2: 5
3: 5
4: 5
5: 5
6: 5
7: 5
8: 5
9: 5
10: 5
11: 5
12: 5
13: 5
14: 5
15: 5
16: 5
17: 5
18: 5
19: 5
20: 5
21: 5
22: 5
23: 5
24: 5
25: 5
26: 5
27: 5
28: 5
29: 5
30: 5
31: 5
32: 5
33: 5
34: 5
35: 5
36: 5
37: 5
38: 5
39: 5
40: 5
41: 5
42: 5
43: 5
44: 5
45: 5
46: 5
47: 5
48: 5
49: 5
50: 5
51: 5
52: 5
53: 5
54: 5
edge from: to
55: 0
55: 1
55: 2
56: 0
56: 6
57: 8
57: 9
58: 10
59: 11
60: 1
60: 2
60: 13
60: 14
61: 16
62: 7
62: 18
62: 19
63: 22
64: 23
64: 24
64: 25
65: 2
65: 27
66: 28
67: 30
68: 32
69: 35
70: 38
70: 40
71: 41
71: 43
72: 43
73: 17
73: 45
73: 46
74: 39
74: 46
74: 48
74: 49
74: 50
74: 51
3: 55
4: 55
5: 55
6: 55
7: 56
8: 56
9: 56
10: 57
11: 57
12: 58
13: 59
14: 59
15: 60
16: 60
17: 60
18: 61
19: 61
20: 62
21: 62
22: 62
23: 62
24: 63
25: 63
26: 64
27: 64
28: 65
29: 65
30: 66
31: 66
32: 66
33: 67
34: 67
35: 68
36: 68
37: 68
38: 69
39: 69
40: 69
41: 70
42: 70
43: 70
44: 71
45: 71
46: 72
47: 72
48: 73
49: 73
50: 73
51: 73
52: 74
53: 74
54: 74
segment: [20]
vertex id: label
62: 0
63: 4
64: 3
65: 4
66: 3
67: 4
68: 3
69: 3
70: 4
71: 2
72: 3
73: 4
74: 3
75: 4
76: 3
77: 4
78: 3
79: 4
80: 2
81: 3
0: 5
1: 5
2: 5
3: 5
4: 5
5: 5
6: 5
7: 5
8: 5
9: 5
10: 5
11: 5
12: 5
13: 5
14: 5
15: 5
16: 5
17: 5
18: 5
19: 5
20: 5
21: 5
22: 5
23: 5
24: 5
25: 5
26: 5
27: 5
28: 5
29: 5
30: 5
31: 5
32: 5
33: 5
34: 5
35: 5
36: 5
37: 5
38: 5
39: 5
40: 5
41: 5
42: 5
43: 5
44: 5
45: 5
46: 5
47: 5
48: 5
49: 5
50: 5
51: 5
52: 5
53: 5
54: 5
55: 5
56: 5
57: 5
58: 5
59: 5
60: 5
61: 5
edge from: to
62: 0
63: 0
63: 1
63: 3
63: 4
64: 2
64: 5
65: 3
65: 8
66: 9
67: 3
67: 11
67: 12
68: 14
68: 15
69: 10
69: 18
69: 21
69: 22
69: 23
70: 23
71: 2
71: 28
72: 29
73: 33
74: 35
75: 40
75: 42
76: 43
76: 45
77: 46
77: 47
77: 48
78: 50
79: 51
79: 54
80: 54
80: 56
81: 55
81: 57
1: 62
2: 62
3: 62
4: 62
5: 63
6: 64
7: 64
8: 64
9: 65
10: 65
11: 66
12: 66
13: 67
14: 67
15: 67
16: 68
17: 68
18: 68
19: 68
20: 68
21: 68
22: 68
23: 68
24: 69
25: 70
26: 70
27: 70
28: 70
29: 71
30: 71
31: 71
32: 72
33: 72
34: 72
35: 72
36: 73
37: 73
38: 74
39: 74
40: 74
41: 74
42: 74
43: 75
44: 75
45: 75
46: 76
47: 76
48: 76
49: 77
50: 77
51: 77
52: 77
53: 77
54: 78
55: 79
56: 79
57: 80
58: 81
59: 81
60: 81
61: 81
segment: [21]
vertex id: label
66: 0
67: 4
68: 3
69: 4
70: 3
71: 4
72: 3
73: 4
74: 3
75: 4
76: 3
77: 2
78: 3
79: 4
80: 2
81: 3
82: 4
83: 3
84: 4
85: 3
0: 5
1: 5
2: 5
3: 5
4: 5
5: 5
6: 5
7: 5
8: 5
9: 5
10: 5
11: 5
12: 5
13: 5
14: 5
15: 5
16: 5
17: 5
18: 5
19: 5
20: 5
21: 5
22: 5
23: 5
24: 5
25: 5
26: 5
27: 5
28: 5
29: 5
30: 5
31: 5
32: 5
33: 5
34: 5
35: 5
36: 5
37: 5
38: 5
39: 5
40: 5
41: 5
42: 5
43: 5
44: 5
45: 5
46: 5
47: 5
48: 5
49: 5
50: 5
51: 5
52: 5
53: 5
54: 5
55: 5
56: 5
57: 5
58: 5
59: 5
60: 5
61: 5
62: 5
63: 5
64: 5
65: 5
edge from: to
66: 0
66: 1
66: 2
67: 2
67: 5
68: 6
69: 10
70: 11
70: 12
71: 15
72: 20
73: 24
74: 24
74: 26
75: 29
75: 31
76: 30
76: 32
77: 33
77: 34
77: 35
77: 36
78: 37
78: 39
79: 3
79: 41
80: 47
81: 46
81: 48
81: 49
81: 50
81: 51
82: 50
82: 52
83: 51
84: 57
85: 57
3: 66
4: 66
5: 66
6: 67
7: 68
8: 68
9: 68
10: 68
11: 68
12: 69
13: 70
14: 70
15: 70
16: 70
17: 71
18: 71
19: 71
20: 71
21: 71
22: 72
23: 72
24: 72
25: 72
26: 73
27: 74
28: 74
29: 74
30: 74
31: 74
32: 75
33: 76
34: 76
35: 76
36: 76
37: 77
38: 77
39: 77
40: 78
41: 78
42: 79
43: 79
44: 79
45: 79
46: 79
47: 79
48: 79
49: 79
50: 80
51: 80
52: 81
53: 82
54: 82
55: 83
56: 83
57: 83
58: 83
59: 83
60: 84
61: 85
62: 85
63: 85
64: 85
65: 85
segment: [22]
vertex id: label
63: 0
64: 4
65: 3
66: 3
67: 2
68: 1
69: 1
70: 1
71: 1
72: 1
73: 2
74: 3
75: 1
76: 1
77: 2
78: 3
79: 4
80: 3
81: 3
82: 1
0: 5
1: 5
2: 5
3: 5
4: 5
5: 5
6: 5
7: 5
8: 5
9: 5
10: 5
11: 5
12: 5
13: 5
14: 5
15: 5
16: 5
17: 5
18: 5
19: 5
20: 5
21: 5
22: 5
23: 5
24: 5
25: 5
26: 5
27: 5
28: 5
29: 5
30: 5
31: 5
32: 5
33: 5
34: 5
35: 5
36: 5
37: 5
38: 5
39: 5
40: 5
41: 5
42: 5
43: 5
44: 5
45: 5
46: 5
47: 5
48: 5
49: 5
50: 5
51: 5
52: 5
53: 5
54: 5
55: 5
56: 5
57: 5
58: 5
59: 5
60: 5
61: 5
62: 5
edge from: to
63: 0
63: 1
64: 5
65: 9
66: 1
67: 14
68: 16
68: 17
69: 18
70: 21
70: 22
70: 23
71: 2
71: 25
71: 26
71: 27
72: 11
72: 29
72: 30
73: 12
73: 31
74: 31
74: 32
74: 34
75: 36
75: 38
76: 1
76: 3
76: 40
76: 41
77: 43
78: 47
79: 51
80: 21
80: 56
81: 57
81: 59
82: 57
82: 60
2: 63
3: 63
4: 63
5: 63
6: 64
7: 64
8: 64
9: 64
10: 65
11: 65
12: 65
13: 65
14: 66
15: 66
16: 67
17: 67
18: 68
19: 68
20: 69
21: 69
22: 69
23: 69
24: 70
25: 70
26: 70
27: 70
28: 71
29: 71
30: 71
31: 72
32: 72
33: 72
34: 73
35: 74
36: 74
37: 74
38: 74
39: 75
40: 75
41: 75
42: 76
43: 76
44: 76
45: 76
46: 77
47: 77
48: 77
49: 77
50: 78
51: 78
52: 78
53: 78
54: 78
55: 79
56: 79
57: 79
58: 79
59: 80
60: 81
61: 82
62: 82
segment: [23]
vertex id: label
59: 0
60: 4
61: 3
62: 4
63: 3
64: 4
65: 2
66: 3
67: 1
68: 1
69: 1
70: 3
71: 4
72: 3
73: 4
74: 2
75: 3
76: 3
77: 1
78: 1
0: 5
1: 5
2: 5
3: 5
4: 5
5: 5
6: 5
7: 5
8: 5
9: 5
10: 5
11: 5
12: 5
13: 5
14: 5
15: 5
16: 5
17: 5
18: 5
19: 5
20: 5
21: 5
22: 5
23: 5
24: 5
25: 5
26: 5
27: 5
28: 5
29: 5
30: 5
31: 5
32: 5
33: 5
34: 5
35: 5
36: 5
37: 5
38: 5
39: 5
40: 5
41: 5
42: 5
43: 5
44: 5
45: 5
46: 5
47: 5
48: 5
49: 5
50: 5
51: 5
52: 5
53: 5
54: 5
55: 5
56: 5
57: 5
58: 5
edge from: to
59: 0
59: 1
59: 2
60: 0
60: 1
60: 4
61: 8
62: 4
62: 5
62: 9
62: 10
62: 11
63: 11
64: 6
64: 15
65: 17
65: 18
66: 23
67: 2
68: 7
68: 28
68: 29
69: 30
69: 32
70: 32
70: 33
70: 35
71: 34
72: 37
73: 44
73: 46
74: 45
75: 46
75: 48
76: 49
76: 51
77: 50
77: 52
78: 51
78: 54
3: 59
4: 59
5: 60
6: 60
7: 60
8: 60
9: 61
10: 61
11: 61
12: 62
13: 63
14: 63
15: 63
16: 63
17: 64
18: 64
19: 65
20: 65
21: 65
22: 65
23: 65
24: 65
25: 66
26: 66
27: 66
28: 67
29: 67
30: 68
31: 68
32: 68
33: 69
34: 69
35: 69
36: 70
37: 71
38: 71
39: 71
40: 72
41: 72
42: 72
43: 72
44: 72
45: 72
46: 72
47: 73
48: 74
49: 75
50: 75
51: 75
52: 76
53: 77
54: 77
55: 78
56: 78
57: 78
58: 78
segment: [24]
vertex id: label
62: 0
63: 4
64: 1
65: 3
66: 4
67: 3
68: 4
69: 3
70: 4
71: 3
72: 4
73: 3
74: 3
75: 4
76: 3
77: 3
78: 4
79: 3
80: 3
81: 4
0: 5
1: 5
2: 5
3: 5
4: 5
5: 5
6: 5
7: 5
8: 5
9: 5
10: 5
11: 5
12: 5
13: 5
14: 5
15: 5
16: 5
17: 5
18: 5
19: 5
20: 5
21: 5
22: 5
23: 5
24: 5
25: 5
26: 5
27: 5
28: 5
29: 5
30: 5
31: 5
32: 5
33: 5
34: 5
35: 5
36: 5
37: 5
38: 5
39: 5
40: 5
41: 5
42: 5
43: 5
44: 5
45: 5
46: 5
47: 5
48: 5
49: 5
50: 5
51: 5
52: 5
53: 5
54: 5
55: 5
56: 5
57: 5
58: 5
59: 5
60: 5
61: 5
edge from: to
62: 0
62: 1
62: 2
63: 0
64: 0
64: 3
64: 5
64: 6
65: 8
65: 9
66: 11
66: 12
67: 14
68: 19
69: 21
69: 22
70: 23
70: 24
70: 25
71: 2
72: 8
72: 12
72: 31
73: 32
73: 34
74: 36
74: 38
75: 37
76: 43
76: 44
76: 45
77: 46
78: 50
78: 53
79: 4
79: 55
80: 54
80: 56
81: 57
81: 60
3: 62
4: 63
5: 63
6: 63
7: 64
8: 64
9: 64
10: 65
11: 65
12: 65
13: 66
14: 66
15: 66
16: 67
17: 67
18: 67
19: 67
20: 67
21: 68
22: 68
23: 69
24: 69
25: 69
26: 70
27: 70
28: 70
29: 71
30: 71
31: 71
32: 71
33: 71
34: 72
35: 73
36: 73
37: 73
38: 73
39: 74
40: 75
41: 75
42: 75
43: 75
44: 75
45: 75
46: 76
47: 76
48: 76
49: 77
50: 77
51: 77
52: 77
53: 77
54: 78
55: 78
56: 79
57: 80
58: 80
59: 80
60: 80
61: 81
segment: [25]
vertex id: label
58: 0
59: 4
60: 3
61: 4
62: 1
63: 3
64: 4
65: 1
66: 3
67: 4
68: 3
69: 3
70: 4
71: 3
72: 4
73: 3
74: 4
75: 3
76: 3
77: 4
0: 5
1: 5
2: 5
3: 5
4: 5
5: 5
6: 5
7: 5
8: 5
9: 5
10: 5
11: 5
12: 5
13: 5
14: 5
15: 5
16: 5
17: 5
18: 5
19: 5
20: 5
21: 5
22: 5
23: 5
24: 5
25: 5
26: 5
27: 5
28: 5
29: 5
30: 5
31: 5
32: 5
33: 5
34: 5
35: 5
36: 5
37: 5
38: 5
39: 5
40: 5
41: 5
42: 5
43: 5
44: 5
45: 5
46: 5
47: 5
48: 5
49: 5
50: 5
51: 5
52: 5
53: 5
54: 5
55: 5
56: 5
57: 5
edge from: to
58: 0
58: 1
59: 0
59: 1
59: 3
59: 4
60: 6
60: 7
61: 9
61: 10
62: 1
62: 14
63: 6
63: 15
64: 19
64: 20
65: 20
65: 21
65: 22
66: 23
67: 28
68: 31
69: 34
69: 36
70: 37
71: 41
72: 43
72: 44
72: 45
73: 46
73: 48
74: 48
75: 50
75: 51
75: 52
76: 51
76: 54
77: 54
77: 56
2: 58
3: 58
4: 58
5: 59
6: 59
7: 59
8: 60
9: 60
10: 60
11: 61
12: 61
13: 61
14: 61
15: 62
16: 62
17: 63
18: 63
19: 63
20: 63
21: 64
22: 64
23: 65
24: 65
25: 66
26: 66
27: 66
28: 66
29: 66
30: 67
31: 67
32: 67
33: 67
34: 68
35: 68
36: 68
37: 69
38: 69
39: 69
40: 70
41: 70
42: 70
43: 70
44: 71
45: 71
46: 72
47: 72
48: 72
49: 73
50: 73
51: 74
52: 74
53: 75
54: 75
55: 76
56: 76
57: 77
segment: [26]
vertex id: label
66: 0
67: 4
68: 3
69: 4
70: 3
71: 4
72: 3
73: 4
74: 3
75: 4
76: 2
77: 4
78: 3
79: 1
80: 1
81: 1
82: 2
83: 3
84: 4
85: 3
0: 5
1: 5
2: 5
3: 5
4: 5
5: 5
6: 5
7: 5
8: 5
9: 5
10: 5
11: 5
12: 5
13: 5
14: 5
15: 5
16: 5
17: 5
18: 5
19: 5
20: 5
21: 5
22: 5
23: 5
24: 5
25: 5
26: 5
27: 5
28: 5
29: 5
30: 5
31: 5
32: 5
33: 5
34: 5
35: 5
36: 5
37: 5
38: 5
39: 5
40: 5
41: 5
42: 5
43: 5
44: 5
45: 5
46: 5
47: 5
48: 5
49: 5
50: 5
51: 5
52: 5
53: 5
54: 5
55: 5
56: 5
57: 5
58: 5
59: 5
60: 5
61: 5
62: 5
63: 5
64: 5
65: 5
edge from: to
66: 0
66: 1
66: 2
67: 0
67: 1
67: 3
67: 4
68: 2
68: 5
69: 3
69: 8
70: 15
71: 13
71: 16
71: 17
72: 19
72: 20
72: 21
73: 21
73: 22
73: 23
74: 24
74: 25
74: 26
75: 11
75: 29
76: 33
76: 34
76: 35
76: 36
76: 37
77: 40
77: 42
78: 43
78: 45
79: 12
79: 45
79: 47
79: 48
79: 49
79: 50
80: 50
80: 52
81: 13
81: 51
81: 54
82: 52
82: 54
82: 55
82: 56
83: 57
83: 60
84: 58
84: 59
84: 60
84: 61
84: 62
85: 60
3: 66
4: 66
5: 67
6: 68
7: 68
8: 68
9: 69
10: 69
11: 69
12: 69
13: 69
14: 69
15: 69
16: 69
17: 70
18: 71
19: 71
20: 71
21: 71
22: 72
23: 72
24: 73
25: 73
26: 73
27: 74
28: 74
29: 74
30: 74
31: 75
32: 75
33: 75
34: 75
35: 75
36: 75
37: 75
38: 76
39: 76
40: 76
41: 76
42: 76
43: 77
44: 77
45: 77
46: 78
47: 78
48: 78
49: 78
50: 78
51: 79
52: 79
53: 80
54: 80
55: 81
56: 81
57: 82
58: 82
59: 82
60: 82
61: 83
62: 83
63: 84
64: 85
65: 85
segment: [27]
vertex id: label
67: 0
68: 4
69: 2
70: 3
71: 4
72: 3
73: 3
74: 4
75: 3
76: 4
77: 2
78: 3
79: 4
80: 2
81: 3
82: 4
83: 2
84: 3
85: 4
86: 1
0: 5
1: 5
2: 5
3: 5
4: 5
5: 5
6: 5
7: 5
8: 5
9: 5
10: 5
11: 5
12: 5
13: 5
14: 5
15: 5
16: 5
17: 5
18: 5
19: 5
20: 5
21: 5
22: 5
23: 5
24: 5
25: 5
26: 5
27: 5
28: 5
29: 5
30: 5
31: 5
32: 5
33: 5
34: 5
35: 5
36: 5
37: 5
38: 5
39: 5
40: 5
41: 5
42: 5
43: 5
44: 5
45: 5
46: 5
47: 5
48: 5
49: 5
50: 5
51: 5
52: 5
53: 5
54: 5
55: 5
56: 5
57: 5
58: 5
59: 5
60: 5
61: 5
62: 5
63: 5
64: 5
65: 5
66: 5
edge from: to
67: 0
68: 1
68: 4
69: 0
69: 6
70: 8
70: 9
70: 10
71: 14
71: 15
72: 20
73: 21
73: 22
74: 24
74: 26
75: 11
75: 29
75: 30
76: 31
77: 35
77: 37
78: 38
79: 3
79: 40
79: 41
80: 40
80: 42
81: 16
81: 42
82: 45
83: 50
84: 4
84: 54
84: 55
85: 21
85: 56
86: 61
86: 64
1: 67
2: 67
3: 67
4: 67
5: 68
6: 68
7: 69
8: 69
9: 69
10: 69
11: 70
12: 70
13: 70
14: 70
15: 70
16: 71
17: 71
18: 71
19: 71
20: 71
21: 71
22: 72
23: 73
24: 73
25: 73
26: 73
27: 74
28: 74
29: 74
30: 74
31: 75
32: 75
33: 75
34: 76
35: 76
36: 76
37: 76
38: 77
39: 77
40: 77
41: 78
42: 79
43: 80
44: 80
45: 81
46: 81
47: 81
48: 82
49: 82
50: 82
51: 82
52: 82
53: 82
54: 83
55: 83
56: 84
57: 84
58: 84
59: 85
60: 85
61: 85
62: 85
63: 85
64: 85
65: 86
66: 86
segment: [28]
vertex id: label
56: 0
57: 4
58: 2
59: 3
60: 4
61: 3
62: 4
63: 3
64: 1
65: 1
66: 4
67: 2
68: 3
69: 4
70: 2
71: 3
72: 2
73: 3
74: 4
75: 3
0: 5
1: 5
2: 5
3: 5
4: 5
5: 5
6: 5
7: 5
8: 5
9: 5
10: 5
11: 5
12: 5
13: 5
14: 5
15: 5
16: 5
17: 5
18: 5
19: 5
20: 5
21: 5
22: 5
23: 5
24: 5
25: 5
26: 5
27: 5
28: 5
29: 5
30: 5
31: 5
32: 5
33: 5
34: 5
35: 5
36: 5
37: 5
38: 5
39: 5
40: 5
41: 5
42: 5
43: 5
44: 5
45: 5
46: 5
47: 5
48: 5
49: 5
50: 5
51: 5
52: 5
53: 5
54: 5
55: 5
edge from: to
56: 0
57: 0
57: 1
58: 0
58: 5
58: 6
59: 9
60: 3
60: 9
60: 11
60: 12
61: 6
61: 15
62: 18
63: 22
63: 23
63: 24
64: 24
64: 25
65: 11
65: 29
66: 30
66: 32
67: 12
67: 31
68: 32
69: 35
69: 37
70: 37
71: 41
71: 43
72: 43
73: 44
73: 45
73: 46
74: 48
75: 13
75: 50
75: 51
75: 52
75: 54
1: 56
2: 56
3: 57
4: 57
5: 57
6: 57
7: 58
8: 58
9: 58
10: 58
11: 59
12: 59
13: 60
14: 60
15: 60
16: 60
17: 61
18: 61
19: 61
20: 62
21: 62
22: 62
23: 62
24: 62
25: 63
26: 64
27: 64
28: 64
29: 64
30: 64
31: 65
32: 65
33: 66
34: 67
35: 68
36: 68
37: 68
38: 69
39: 69
40: 70
41: 70
42: 70
43: 70
44: 71
45: 71
46: 72
47: 73
48: 73
49: 73
50: 73
51: 74
52: 74
53: 74
54: 74
55: 75
segment: [29]
vertex id: label
76: 0
77: 4
78: 3
79: 4
80: 3
81: 4
82: 1
83: 3
84: 3
85: 4
86: 3
87: 4
88: 3
89: 4
90: 3
91: 4
92: 1
93: 3
94: 4
95: 3
0: 5
1: 5
2: 5
3: 5
4: 5
5: 5
6: 5
7: 5
8: 5
9: 5
10: 5
11: 5
12: 5
13: 5
14: 5
15: 5
16: 5
17: 5
18: 5
19: 5
20: 5
21: 5
22: 5
23: 5
24: 5
25: 5
26: 5
27: 5
28: 5
29: 5
30: 5
31: 5
32: 5
33: 5
34: 5
35: 5
36: 5
37: 5
38: 5
39: 5
40: 5
41: 5
42: 5
43: 5
44: 5
45: 5
46: 5
47: 5
48: 5
49: 5
50: 5
51: 5
52: 5
53: 5
54: 5
55: 5
56: 5
57: 5
58: 5
59: 5
60: 5
61: 5
62: 5
63: 5
64: 5
65: 5
66: 5
67: 5
68: 5
69: 5
70: 5
71: 5
72: 5
73: 5
74: 5
75: 5
edge from: to
76: 0
76: 1
76: 2
77: 0
77: 6
78: 10
79: 1
80: 13
80: 14
80: 16
80: 17
81: 19
82: 23
82: 24
83: 2
83: 28
84: 31
84: 32
84: 34
85: 34
86: 36
87: 40
87: 42
88: 43
88: 44
88: 45
89: 44
89: 46
90: 49
90: 51
91: 4
91: 55
92: 57
93: 60
93: 63
94: 63
94: 65
94: 66
95: 67
3: 76
4: 76
5: 76
6: 76
7: 77
8: 77
9: 77
10: 77
11: 77
12: 78
13: 78
14: 78
15: 79
16: 79
17: 79
18: 80
19: 80
20: 80
21: 81
22: 81
23: 81
24: 81
25: 82
26: 82
27: 82
28: 82
29: 83
30: 83
31: 83
32: 83
33: 83
34: 83
35: 84
36: 84
37: 85
38: 85
39: 86
40: 86
41: 86
42: 86
43: 87
44: 87
45: 87
46: 88
47: 89
48: 89
49: 89
50: 89
51: 89
52: 90
53: 90
54: 90
55: 90
56: 91
57: 91
58: 91
59: 91
60: 92
61: 92
62: 92
63: 92
64: 93
65: 93
66: 93
67: 94
68: 94
69: 94
70: 94
71: 95
72: 95
73: 95
74: 95
75: 95
