segment: [0]
vertex id: label
66: 0
67: 0
68: 3
69: 4
70: 3
71: 0
72: 3
73: 4
74: 2
75: 3
76: 0
77: 0
78: 3
79: 3
80: 0
81: 3
82: 0
83: 3
84: 0
85: 3
0: 5
1: 5
2: 5
3: 5
4: 5
5: 5
6: 5
7: 5
8: 5
9: 5
10: 5
11: 5
12: 5
13: 5
14: 5
15: 5
16: 5
17: 5
18: 5
19: 5
20: 5
21: 5
22: 5
23: 5
24: 5
25: 5
26: 5
27: 5
28: 5
29: 5
30: 5
31: 5
32: 5
33: 5
34: 5
35: 5
36: 5
37: 5
38: 5
39: 5
40: 5
41: 5
42: 5
43: 5
44: 5
45: 5
46: 5
47: 5
48: 5
49: 5
50: 5
51: 5
52: 5
53: 5
54: 5
55: 5
56: 5
57: 5
58: 5
59: 5
60: 5
61: 5
62: 5
63: 5
64: 5
65: 5
edge from: to
66: 0
66: 1
67: 3
67: 4
67: 5
68: 7
68: 8
69: 6
70: 14
71: 5
71: 15
71: 16
72: 18
72: 19
73: 22
73: 24
74: 15
74: 28
75: 16
75: 30
76: 30
76: 31
77: 18
77: 34
78: 9
78: 14
78: 15
78: 36
78: 37
78: 38
79: 43
80: 42
80: 43
80: 45
81: 45
81: 46
81: 47
82: 46
82: 47
82: 49
83: 28
83: 51
84: 58
84: 59
85: 62
2: 66
3: 66
4: 66
5: 66
6: 67
7: 67
8: 67
9: 68
10: 68
11: 68
12: 69
13: 69
14: 69
15: 70
16: 70
17: 71
18: 71
19: 71
20: 72
21: 72
22: 72
23: 72
24: 72
25: 73
26: 73
27: 73
28: 73
29: 74
30: 74
31: 75
32: 76
33: 76
34: 76
35: 77
36: 77
37: 77
38: 77
39: 78
40: 78
41: 78
42: 78
43: 78
44: 79
45: 79
46: 80
47: 80
48: 81
49: 81
50: 82
51: 82
52: 82
53: 82
54: 83
55: 83
56: 83
57: 83
58: 83
59: 83
60: 84
61: 84
62: 84
63: 85
64: 85
65: 85
segment: [1]
vertex id: label
59: 0
60: 0
61: 3
62: 0
63: 3
64: 4
65: 2
66: 3
67: 0
68: 3
69: 4
70: 3
71: 0
72: 3
73: 4
74: 2
75: 0
76: 1
77: 1
78: 1
0: 5
1: 5
2: 5
3: 5
4: 5
5: 5
6: 5
7: 5
8: 5
9: 5
10: 5
11: 5
12: 5
13: 5
14: 5
15: 5
16: 5
17: 5
18: 5
19: 5
20: 5
21: 5
22: 5
23: 5
24: 5
25: 5
26: 5
27: 5
28: 5
29: 5
30: 5
31: 5
32: 5
33: 5
34: 5
35: 5
36: 5
37: 5
38: 5
39: 5
40: 5
41: 5
42: 5
43: 5
44: 5
45: 5
46: 5
47: 5
48: 5
49: 5
50: 5
51: 5
52: 5
53: 5
54: 5
55: 5
56: 5
57: 5
58: 5
edge from: to
59: 0
59: 1
60: 4
61: 5
61: 6
62: 5
62: 6
62: 8
62: 9
63: 6
64: 8
65: 16
65: 17
66: 21
67: 25
68: 15
68: 26
68: 28
69: 29
70: 17
70: 31
70: 32
71: 33
71: 35
72: 21
72: 34
72: 36
73: 15
73: 37
73: 38
74: 24
74: 40
74: 41
75: 44
76: 46
77: 46
77: 47
77: 49
78: 49
78: 50
78: 52
2: 59
3: 59
4: 59
5: 60
6: 60
7: 61
8: 61
9: 61
10: 62
11: 62
12: 63
13: 63
14: 63
15: 63
16: 64
17: 64
18: 65
19: 65
20: 65
21: 65
22: 66
23: 66
24: 66
25: 66
26: 67
27: 67
28: 67
29: 68
30: 69
31: 69
32: 69
33: 70
34: 70
35: 70
36: 71
37: 72
38: 72
39: 73
40: 73
41: 73
42: 74
43: 74
44: 74
45: 75
46: 75
47: 76
48: 76
49: 76
50: 77
51: 77
52: 77
53: 78
54: 78
55: 78
56: 78
57: 78
58: 78
segment: [2]
vertex id: label
64: 0
65: 3
66: 3
67: 2
68: 3
69: 4
70: 2
71: 3
72: 0
73: 0
74: 0
75: 3
76: 0
77: 3
78: 0
79: 0
80: 3
81: 0
82: 0
83: 1
0: 5
1: 5
2: 5
3: 5
4: 5
5: 5
6: 5
7: 5
8: 5
9: 5
10: 5
11: 5
12: 5
13: 5
14: 5
15: 5
16: 5
17: 5
18: 5
19: 5
20: 5
21: 5
22: 5
23: 5
24: 5
25: 5
26: 5
27: 5
28: 5
29: 5
30: 5
31: 5
32: 5
33: 5
34: 5
35: 5
36: 5
37: 5
38: 5
39: 5
40: 5
41: 5
42: 5
43: 5
44: 5
45: 5
46: 5
47: 5
48: 5
49: 5
50: 5
51: 5
52: 5
53: 5
54: 5
55: 5
56: 5
57: 5
58: 5
59: 5
60: 5
61: 5
62: 5
63: 5
edge from: to
64: 0
65: 4
66: 5
66: 7
66: 8
67: 11
67: 12
68: 11
68: 13
68: 14
69: 19
70: 21
71: 13
71: 22
72: 7
72: 14
72: 17
72: 25
72: 26
73: 16
73: 26
73: 27
74: 25
74: 30
74: 31
75: 10
75: 32
75: 33
76: 37
76: 38
77: 40
77: 41
78: 40
78: 42
79: 41
79: 42
79: 44
80: 48
81: 50
81: 52
82: 29
83: 30
83: 55
83: 57
1: 64
2: 64
3: 64
4: 64
5: 65
6: 65
7: 65
8: 65
9: 66
10: 66
11: 66
12: 66
13: 67
14: 67
15: 68
16: 68
17: 68
18: 68
19: 68
20: 69
21: 69
22: 70
23: 71
24: 71
25: 71
26: 71
27: 72
28: 73
29: 73
30: 73
31: 73
32: 74
33: 74
34: 75
35: 75
36: 75
37: 75
38: 75
39: 76
40: 76
41: 76
42: 77
43: 78
44: 78
45: 79
46: 79
47: 79
48: 79
49: 80
50: 80
51: 80
52: 80
53: 81
54: 81
55: 81
56: 82
57: 82
58: 83
59: 83
60: 83
61: 83
62: 83
63: 83
segment: [3]
vertex id: label
63: 0
64: 3
65: 0
66: 3
67: 0
68: 3
69: 0
70: 0
71: 3
72: 0
73: 0
74: 3
75: 0
76: 3
77: 0
78: 3
79: 0
80: 3
81: 0
82: 3
0: 5
1: 5
2: 5
3: 5
4: 5
5: 5
6: 5
7: 5
8: 5
9: 5
10: 5
11: 5
12: 5
13: 5
14: 5
15: 5
16: 5
17: 5
18: 5
19: 5
20: 5
21: 5
22: 5
23: 5
24: 5
25: 5
26: 5
27: 5
28: 5
29: 5
30: 5
31: 5
32: 5
33: 5
34: 5
35: 5
36: 5
37: 5
38: 5
39: 5
40: 5
41: 5
42: 5
43: 5
44: 5
45: 5
46: 5
47: 5
48: 5
49: 5
50: 5
51: 5
52: 5
53: 5
54: 5
55: 5
56: 5
57: 5
58: 5
59: 5
60: 5
61: 5
62: 5
edge from: to
63: 0
63: 1
63: 2
63: 3
63: 4
63: 5
63: 6
64: 7
64: 8
65: 10
66: 2
66: 4
66: 11
66: 13
66: 14
67: 10
67: 16
67: 17
68: 19
69: 22
69: 23
70: 15
70: 26
70: 28
71: 12
71: 16
71: 28
71: 30
72: 25
72: 30
72: 31
73: 21
73: 36
74: 38
75: 24
75: 40
75: 41
76: 41
76: 43
77: 45
77: 46
77: 47
78: 48
79: 27
79: 50
80: 52
80: 54
81: 55
81: 56
82: 59
82: 60
7: 63
8: 63
9: 64
10: 64
11: 65
12: 65
13: 65
14: 65
15: 66
16: 66
17: 66
18: 67
19: 67
20: 68
21: 68
22: 68
23: 68
24: 69
25: 69
26: 69
27: 69
28: 69
29: 70
30: 70
31: 71
32: 72
33: 72
34: 72
35: 72
36: 72
37: 73
38: 73
39: 74
40: 74
41: 74
42: 75
43: 75
44: 76
45: 76
46: 76
47: 76
48: 77
49: 78
50: 78
51: 78
52: 79
53: 79
54: 79
55: 80
56: 80
57: 81
58: 81
59: 81
60: 81
61: 82
62: 82
segment: [4]
vertex id: label
61: 0
62: 3
63: 0
64: 0
65: 3
66: 4
67: 2
68: 3
69: 0
70: 0
71: 3
72: 2
73: 3
74: 0
75: 3
76: 4
77: 2
78: 3
79: 0
80: 3
0: 5
1: 5
2: 5
3: 5
4: 5
5: 5
6: 5
7: 5
8: 5
9: 5
10: 5
11: 5
12: 5
13: 5
14: 5
15: 5
16: 5
17: 5
18: 5
19: 5
20: 5
21: 5
22: 5
23: 5
24: 5
25: 5
26: 5
27: 5
28: 5
29: 5
30: 5
31: 5
32: 5
33: 5
34: 5
35: 5
36: 5
37: 5
38: 5
39: 5
40: 5
41: 5
42: 5
43: 5
44: 5
45: 5
46: 5
47: 5
48: 5
49: 5
50: 5
51: 5
52: 5
53: 5
54: 5
55: 5
56: 5
57: 5
58: 5
59: 5
60: 5
edge from: to
61: 0
62: 3
62: 4
62: 5
63: 4
63: 6
64: 5
65: 6
66: 8
67: 19
68: 23
69: 9
69: 22
69: 24
70: 14
71: 27
72: 17
72: 29
73: 25
73: 29
73: 30
73: 31
74: 36
75: 39
76: 42
77: 43
77: 45
78: 46
78: 47
78: 49
79: 56
80: 56
80: 58
1: 61
2: 61
3: 61
4: 61
5: 61
6: 62
7: 62
8: 63
9: 63
10: 64
11: 64
12: 65
13: 65
14: 65
15: 65
16: 66
17: 66
18: 66
19: 66
20: 67
21: 67
22: 67
23: 67
24: 68
25: 69
26: 69
27: 70
28: 71
29: 71
30: 72
31: 72
32: 73
33: 73
34: 73
35: 73
36: 73
37: 74
38: 74
39: 74
40: 75
41: 75
42: 75
43: 76
44: 76
45: 76
46: 77
47: 77
48: 77
49: 77
50: 78
51: 78
52: 78
53: 78
54: 78
55: 78
56: 78
57: 79
58: 79
59: 80
60: 80
segment: [5]
vertex id: label
67: 0
68: 3
69: 4
70: 3
71: 3
72: 0
73: 3
74: 0
75: 3
76: 4
77: 0
78: 3
79: 0
80: 3
81: 2
82: 3
83: 4
84: 3
85: 0
86: 0
0: 5
1: 5
2: 5
3: 5
4: 5
5: 5
6: 5
7: 5
8: 5
9: 5
10: 5
11: 5
12: 5
13: 5
14: 5
15: 5
16: 5
17: 5
18: 5
19: 5
20: 5
21: 5
22: 5
23: 5
24: 5
25: 5
26: 5
27: 5
28: 5
29: 5
30: 5
31: 5
32: 5
33: 5
34: 5
35: 5
36: 5
37: 5
38: 5
39: 5
40: 5
41: 5
42: 5
43: 5
44: 5
45: 5
46: 5
47: 5
48: 5
49: 5
50: 5
51: 5
52: 5
53: 5
54: 5
55: 5
56: 5
57: 5
58: 5
59: 5
60: 5
61: 5
62: 5
63: 5
64: 5
65: 5
66: 5
edge from: to
67: 0
67: 1
67: 2
68: 2
69: 3
69: 4
69: 5
70: 6
71: 8
71: 15
72: 19
73: 23
74: 23
74: 24
74: 25
75: 7
75: 14
75: 25
75: 26
76: 16
76: 28
76: 30
77: 18
77: 34
78: 36
78: 37
79: 39
80: 42
80: 44
81: 45
81: 47
82: 15
82: 49
82: 50
83: 52
83: 54
84: 56
84: 58
85: 58
85: 59
85: 60
86: 52
86: 61
86: 64
86: 65
3: 67
4: 68
5: 68
6: 69
7: 69
8: 69
9: 69
10: 69
11: 69
12: 70
13: 70
14: 70
15: 70
16: 71
17: 71
18: 71
19: 71
20: 72
21: 72
22: 72
23: 72
24: 73
25: 73
26: 74
27: 75
28: 75
29: 75
30: 75
31: 76
32: 76
33: 76
34: 76
35: 77
36: 77
37: 77
38: 78
39: 78
40: 79
41: 79
42: 79
43: 79
44: 79
45: 80
46: 80
47: 80
48: 81
49: 81
50: 81
51: 82
52: 82
53: 82
54: 82
55: 83
56: 83
57: 83
58: 83
59: 84
60: 84
61: 85
62: 85
63: 85
64: 85
65: 85
66: 86
segment: [6]
vertex id: label
53: 0
54: 3
55: 0
56: 3
57: 0
58: 0
59: 3
60: 4
61: 2
62: 3
63: 3
64: 4
65: 2
66: 3
67: 3
68: 0
69: 3
70: 0
71: 3
72: 3
0: 5
1: 5
2: 5
3: 5
4: 5
5: 5
6: 5
7: 5
8: 5
9: 5
10: 5
11: 5
12: 5
13: 5
14: 5
15: 5
16: 5
17: 5
18: 5
19: 5
20: 5
21: 5
22: 5
23: 5
24: 5
25: 5
26: 5
27: 5
28: 5
29: 5
30: 5
31: 5
32: 5
33: 5
34: 5
35: 5
36: 5
37: 5
38: 5
39: 5
40: 5
41: 5
42: 5
43: 5
44: 5
45: 5
46: 5
47: 5
48: 5
49: 5
50: 5
51: 5
52: 5
edge from: to
53: 0
53: 1
53: 2
54: 0
54: 1
54: 2
54: 3
55: 4
55: 6
55: 7
56: 2
56: 3
56: 5
56: 7
56: 8
57: 12
58: 15
58: 16
59: 17
60: 13
60: 22
61: 10
61: 20
61: 23
61: 24
61: 25
62: 27
63: 30
63: 31
64: 17
64: 31
64: 32
65: 18
65: 20
65: 34
66: 9
66: 14
66: 15
66: 23
66: 36
66: 37
66: 38
67: 39
68: 42
68: 44
69: 43
69: 45
70: 46
71: 48
72: 50
3: 53
4: 54
5: 54
6: 54
7: 54
8: 55
9: 56
10: 56
11: 56
12: 56
13: 57
14: 57
15: 57
16: 57
17: 58
18: 59
19: 59
20: 59
21: 59
22: 59
23: 60
24: 60
25: 60
26: 61
27: 61
28: 62
29: 62
30: 62
31: 62
32: 63
33: 64
34: 64
35: 65
36: 65
37: 65
38: 65
39: 66
40: 67
41: 67
42: 67
43: 67
44: 67
45: 68
46: 69
47: 70
48: 70
49: 71
50: 71
51: 72
52: 72
segment: [7]
vertex id: label
63: 0
64: 3
65: 4
66: 2
67: 3
68: 0
69: 3
70: 0
71: 3
72: 4
73: 3
74: 0
75: 0
76: 3
77: 0
78: 3
79: 0
80: 3
81: 4
82: 2
0: 5
1: 5
2: 5
3: 5
4: 5
5: 5
6: 5
7: 5
8: 5
9: 5
10: 5
11: 5
12: 5
13: 5
14: 5
15: 5
16: 5
17: 5
18: 5
19: 5
20: 5
21: 5
22: 5
23: 5
24: 5
25: 5
26: 5
27: 5
28: 5
29: 5
30: 5
31: 5
32: 5
33: 5
34: 5
35: 5
36: 5
37: 5
38: 5
39: 5
40: 5
41: 5
42: 5
43: 5
44: 5
45: 5
46: 5
47: 5
48: 5
49: 5
50: 5
51: 5
52: 5
53: 5
54: 5
55: 5
56: 5
57: 5
58: 5
59: 5
60: 5
61: 5
62: 5
edge from: to
63: 0
63: 1
64: 1
64: 4
65: 10
66: 7
67: 13
67: 14
68: 17
68: 18
69: 19
69: 20
70: 23
71: 24
72: 16
72: 27
73: 15
73: 28
74: 16
74: 30
75: 18
75: 20
75: 34
76: 15
76: 37
76: 38
77: 34
77: 39
77: 40
77: 42
78: 45
78: 47
79: 28
79: 46
79: 48
80: 50
81: 30
82: 59
82: 60
2: 63
3: 63
4: 63
5: 64
6: 64
7: 64
8: 64
9: 64
10: 64
11: 65
12: 65
13: 65
14: 66
15: 67
16: 67
17: 67
18: 67
19: 68
20: 68
21: 69
22: 69
23: 69
24: 70
25: 71
26: 71
27: 71
28: 72
29: 73
30: 73
31: 74
32: 74
33: 74
34: 74
35: 75
36: 75
37: 75
38: 75
39: 76
40: 76
41: 76
42: 76
43: 77
44: 77
45: 77
46: 77
47: 77
48: 78
49: 79
50: 79
51: 80
52: 80
53: 80
54: 80
55: 80
56: 80
57: 80
58: 81
59: 81
60: 81
61: 82
62: 82
segment: [8]
vertex id: label
54: 0
55: 3
56: 0
57: 3
58: 0
59: 3
60: 0
61: 3
62: 4
63: 3
64: 4
65: 3
66: 0
67: 0
68: 3
69: 0
70: 3
71: 0
72: 3
73: 0
0: 5
1: 5
2: 5
3: 5
4: 5
5: 5
6: 5
7: 5
8: 5
9: 5
10: 5
11: 5
12: 5
13: 5
14: 5
15: 5
16: 5
17: 5
18: 5
19: 5
20: 5
21: 5
22: 5
23: 5
24: 5
25: 5
26: 5
27: 5
28: 5
29: 5
30: 5
31: 5
32: 5
33: 5
34: 5
35: 5
36: 5
37: 5
38: 5
39: 5
40: 5
41: 5
42: 5
43: 5
44: 5
45: 5
46: 5
47: 5
48: 5
49: 5
50: 5
51: 5
52: 5
53: 5
edge from: to
54: 0
54: 1
54: 2
55: 3
55: 4
55: 5
56: 2
56: 5
56: 6
57: 5
57: 8
57: 11
57: 12
58: 8
58: 9
58: 15
59: 5
59: 15
59: 16
60: 17
61: 19
62: 19
62: 20
63: 13
63: 20
63: 22
64: 23
64: 25
65: 14
66: 30
66: 31
67: 17
68: 18
68: 20
68: 34
69: 15
69: 37
69: 38
70: 38
70: 40
71: 43
72: 44
72: 45
72: 46
73: 49
73: 50
3: 54
4: 54
5: 54
6: 55
7: 56
8: 56
9: 56
10: 56
11: 56
12: 56
13: 57
14: 57
15: 57
16: 58
17: 59
18: 60
19: 60
20: 61
21: 62
22: 62
23: 63
24: 63
25: 63
26: 64
27: 65
28: 65
29: 65
30: 65
31: 65
32: 66
33: 67
34: 67
35: 68
36: 68
37: 68
38: 68
39: 69
40: 69
41: 70
42: 70
43: 70
44: 71
45: 71
46: 71
47: 72
48: 72
49: 72
50: 72
51: 73
52: 73
53: 73
segment: [9]
vertex id: label
63: 0
64: 3
65: 2
66: 3
67: 4
68: 3
69: 4
70: 3
71: 4
72: 2
73: 3
74: 4
75: 3
76: 0
77: 3
78: 4
79: 3
80: 0
81: 3
82: 0
0: 5
1: 5
2: 5
3: 5
4: 5
5: 5
6: 5
7: 5
8: 5
9: 5
10: 5
11: 5
12: 5
13: 5
14: 5
15: 5
16: 5
17: 5
18: 5
19: 5
20: 5
21: 5
22: 5
23: 5
24: 5
25: 5
26: 5
27: 5
28: 5
29: 5
30: 5
31: 5
32: 5
33: 5
34: 5
35: 5
36: 5
37: 5
38: 5
39: 5
40: 5
41: 5
42: 5
43: 5
44: 5
45: 5
46: 5
47: 5
48: 5
49: 5
50: 5
51: 5
52: 5
53: 5
54: 5
55: 5
56: 5
57: 5
58: 5
59: 5
60: 5
61: 5
62: 5
edge from: to
63: 0
63: 1
63: 2
63: 3
64: 2
64: 5
64: 6
65: 5
66: 11
66: 12
67: 17
68: 17
68: 18
69: 19
70: 20
71: 7
71: 22
71: 23
72: 17
72: 27
72: 28
72: 29
73: 31
74: 17
75: 21
75: 36
76: 41
76: 43
77: 43
77: 45
78: 45
78: 46
78: 47
79: 49
80: 49
80: 50
80: 52
81: 30
81: 55
81: 56
81: 57
82: 60
4: 63
5: 63
6: 63
7: 64
8: 64
9: 64
10: 65
11: 65
12: 65
13: 66
14: 66
15: 66
16: 66
17: 66
18: 67
19: 68
20: 69
21: 70
22: 70
23: 70
24: 71
25: 71
26: 71
27: 71
28: 71
29: 71
30: 72
31: 72
32: 73
33: 74
34: 74
35: 74
36: 74
37: 75
38: 75
39: 75
40: 75
41: 75
42: 75
43: 75
44: 76
45: 76
46: 77
47: 77
48: 78
49: 78
50: 79
51: 79
52: 79
53: 80
54: 80
55: 80
56: 80
57: 80
58: 81
59: 81
60: 81
61: 82
62: 82
segment: [10]
vertex id: label
67: 0
68: 3
69: 4
70: 0
71: 0
72: 1
73: 3
74: 0
75: 3
76: 0
77: 3
78: 3
79: 0
80: 3
81: 0
82: 3
83: 3
84: 4
85: 3
86: 3
0: 5
1: 5
2: 5
3: 5
4: 5
5: 5
6: 5
7: 5
8: 5
9: 5
10: 5
11: 5
12: 5
13: 5
14: 5
15: 5
16: 5
17: 5
18: 5
19: 5
20: 5
21: 5
22: 5
23: 5
24: 5
25: 5
26: 5
27: 5
28: 5
29: 5
30: 5
31: 5
32: 5
33: 5
34: 5
35: 5
36: 5
37: 5
38: 5
39: 5
40: 5
41: 5
42: 5
43: 5
44: 5
45: 5
46: 5
47: 5
48: 5
49: 5
50: 5
51: 5
52: 5
53: 5
54: 5
55: 5
56: 5
57: 5
58: 5
59: 5
60: 5
61: 5
62: 5
63: 5
64: 5
65: 5
66: 5
edge from: to
67: 0
67: 1
67: 2
67: 3
67: 4
67: 5
68: 6
68: 10
69: 7
70: 16
70: 17
71: 20
72: 9
72: 22
72: 24
73: 17
73: 19
73: 27
73: 28
73: 29
74: 18
74: 20
74: 34
75: 35
76: 36
77: 15
77: 37
77: 38
78: 12
78: 38
78: 39
78: 40
79: 43
80: 42
80: 43
80: 45
81: 28
81: 46
81: 48
82: 49
82: 50
83: 28
83: 51
84: 56
84: 58
85: 59
85: 61
86: 51
86: 60
86: 63
86: 64
6: 67
7: 67
8: 67
9: 67
10: 67
11: 68
12: 68
13: 68
14: 69
15: 69
16: 69
17: 69
18: 70
19: 70
20: 70
21: 71
22: 71
23: 71
24: 71
25: 72
26: 72
27: 72
28: 72
29: 72
30: 73
31: 73
32: 73
33: 73
34: 73
35: 74
36: 75
37: 76
38: 76
39: 77
40: 77
41: 78
42: 78
43: 78
44: 79
45: 79
46: 80
47: 80
48: 80
49: 81
50: 81
51: 82
52: 82
53: 82
54: 83
55: 83
56: 83
57: 83
58: 83
59: 84
60: 84
61: 84
62: 85
63: 85
64: 85
65: 86
66: 86
segment: [11]
vertex id: label
64: 0
65: 3
66: 0
67: 3
68: 4
69: 2
70: 3
71: 0
72: 3
73: 2
74: 3
75: 4
76: 3
77: 2
78: 3
79: 0
80: 3
81: 0
82: 3
83: 4
0: 5
1: 5
2: 5
3: 5
4: 5
5: 5
6: 5
7: 5
8: 5
9: 5
10: 5
11: 5
12: 5
13: 5
14: 5
15: 5
16: 5
17: 5
18: 5
19: 5
20: 5
21: 5
22: 5
23: 5
24: 5
25: 5
26: 5
27: 5
28: 5
29: 5
30: 5
31: 5
32: 5
33: 5
34: 5
35: 5
36: 5
37: 5
38: 5
39: 5
40: 5
41: 5
42: 5
43: 5
44: 5
45: 5
46: 5
47: 5
48: 5
49: 5
50: 5
51: 5
52: 5
53: 5
54: 5
55: 5
56: 5
57: 5
58: 5
59: 5
60: 5
61: 5
62: 5
63: 5
edge from: to
64: 0
64: 1
65: 3
65: 4
66: 2
66: 4
66: 5
66: 6
67: 5
67: 8
68: 7
69: 13
69: 14
70: 17
70: 18
71: 20
72: 22
72: 24
73: 27
74: 16
75: 17
76: 10
76: 24
76: 36
76: 37
77: 40
77: 41
78: 43
78: 45
79: 28
79: 46
79: 48
80: 27
81: 55
81: 56
82: 30
82: 55
83: 58
83: 59
2: 64
3: 64
4: 64
5: 64
6: 65
7: 66
8: 66
9: 66
10: 67
11: 67
12: 67
13: 67
14: 68
15: 69
16: 69
17: 69
18: 69
19: 70
20: 70
21: 71
22: 71
23: 71
24: 71
25: 72
26: 72
27: 72
28: 73
29: 73
30: 73
31: 74
32: 74
33: 75
34: 75
35: 75
36: 75
37: 75
38: 76
39: 76
40: 76
41: 76
42: 77
43: 77
44: 77
45: 77
46: 78
47: 78
48: 78
49: 79
50: 79
51: 79
52: 80
53: 80
54: 80
55: 80
56: 80
57: 81
58: 82
59: 82
60: 83
61: 83
62: 83
63: 83
segment: [12]
vertex id: label
63: 0
64: 3
65: 4
66: 2
67: 3
68: 0
69: 3
70: 0
71: 3
72: 0
73: 3
74: 3
75: 0
76: 3
77: 4
78: 3
79: 4
80: 2
81: 3
82: 0
0: 5
1: 5
2: 5
3: 5
4: 5
5: 5
6: 5
7: 5
8: 5
9: 5
10: 5
11: 5
12: 5
13: 5
14: 5
15: 5
16: 5
17: 5
18: 5
19: 5
20: 5
21: 5
22: 5
23: 5
24: 5
25: 5
26: 5
27: 5
28: 5
29: 5
30: 5
31: 5
32: 5
33: 5
34: 5
35: 5
36: 5
37: 5
38: 5
39: 5
40: 5
41: 5
42: 5
43: 5
44: 5
45: 5
46: 5
47: 5
48: 5
49: 5
50: 5
51: 5
52: 5
53: 5
54: 5
55: 5
56: 5
57: 5
58: 5
59: 5
60: 5
61: 5
62: 5
edge from: to
63: 0
63: 1
64: 0
64: 1
64: 2
64: 3
65: 3
65: 4
66: 5
66: 7
66: 8
67: 7
68: 15
68: 16
69: 17
70: 15
70: 17
70: 18
70: 19
71: 23
72: 23
72: 25
73: 29
74: 17
75: 10
75: 33
76: 28
76: 33
76: 34
76: 35
77: 40
78: 46
79: 50
80: 54
81: 30
81: 55
82: 58
82: 59
2: 63
3: 63
4: 64
5: 64
6: 65
7: 65
8: 65
9: 66
10: 66
11: 66
12: 66
13: 66
14: 67
15: 67
16: 67
17: 68
18: 69
19: 69
20: 70
21: 70
22: 70
23: 70
24: 71
25: 71
26: 72
27: 72
28: 72
29: 72
30: 73
31: 73
32: 73
33: 74
34: 75
35: 75
36: 76
37: 76
38: 76
39: 76
40: 76
41: 77
42: 77
43: 77
44: 77
45: 77
46: 77
47: 78
48: 78
49: 78
50: 78
51: 79
52: 79
53: 79
54: 79
55: 80
56: 80
57: 80
58: 81
59: 81
60: 82
61: 82
62: 82
segment: [13]
vertex id: label
56: 0
57: 3
58: 3
59: 0
60: 3
61: 0
62: 0
63: 3
64: 0
65: 0
66: 0
67: 3
68: 0
69: 3
70: 0
71: 3
72: 0
73: 0
74: 0
75: 3
0: 5
1: 5
2: 5
3: 5
4: 5
5: 5
6: 5
7: 5
8: 5
9: 5
10: 5
11: 5
12: 5
13: 5
14: 5
15: 5
16: 5
17: 5
18: 5
19: 5
20: 5
21: 5
22: 5
23: 5
24: 5
25: 5
26: 5
27: 5
28: 5
29: 5
30: 5
31: 5
32: 5
33: 5
34: 5
35: 5
36: 5
37: 5
38: 5
39: 5
40: 5
41: 5
42: 5
43: 5
44: 5
45: 5
46: 5
47: 5
48: 5
49: 5
50: 5
51: 5
52: 5
53: 5
54: 5
55: 5
edge from: to
56: 0
57: 2
57: 3
58: 6
59: 4
59: 6
59: 7
60: 5
60: 8
60: 9
61: 6
62: 7
63: 16
64: 19
65: 20
66: 23
66: 24
66: 25
67: 27
68: 25
68: 30
68: 31
69: 9
69: 10
69: 32
69: 33
70: 10
70: 24
70: 36
70: 37
71: 12
71: 38
71: 40
72: 42
72: 44
73: 45
73: 47
74: 46
74: 48
75: 27
1: 56
2: 56
3: 56
4: 57
5: 57
6: 57
7: 58
8: 59
9: 59
10: 60
11: 60
12: 61
13: 61
14: 62
15: 62
16: 62
17: 63
18: 63
19: 63
20: 64
21: 65
22: 65
23: 65
24: 65
25: 65
26: 66
27: 66
28: 67
29: 67
30: 67
31: 67
32: 68
33: 68
34: 69
35: 69
36: 69
37: 69
38: 70
39: 70
40: 70
41: 71
42: 71
43: 71
44: 71
45: 72
46: 72
47: 72
48: 73
49: 74
50: 74
51: 74
52: 75
53: 75
54: 75
55: 75
segment: [14]
vertex id: label
71: 0
72: 3
73: 0
74: 0
75: 3
76: 0
77: 3
78: 4
79: 3
80: 4
81: 2
82: 3
83: 4
84: 2
85: 3
86: 0
87: 3
88: 0
89: 3
90: 4
0: 5
1: 5
2: 5
3: 5
4: 5
5: 5
6: 5
7: 5
8: 5
9: 5
10: 5
11: 5
12: 5
13: 5
14: 5
15: 5
16: 5
17: 5
18: 5
19: 5
20: 5
21: 5
22: 5
23: 5
24: 5
25: 5
26: 5
27: 5
28: 5
29: 5
30: 5
31: 5
32: 5
33: 5
34: 5
35: 5
36: 5
37: 5
38: 5
39: 5
40: 5
41: 5
42: 5
43: 5
44: 5
45: 5
46: 5
47: 5
48: 5
49: 5
50: 5
51: 5
52: 5
53: 5
54: 5
55: 5
56: 5
57: 5
58: 5
59: 5
60: 5
61: 5
62: 5
63: 5
64: 5
65: 5
66: 5
67: 5
68: 5
69: 5
70: 5
edge from: to
71: 0
71: 1
71: 2
72: 1
72: 4
73: 3
73: 5
73: 7
73: 8
74: 11
74: 13
74: 14
75: 18
75: 19
76: 19
76: 21
77: 10
77: 23
77: 24
77: 25
78: 15
78: 28
79: 18
79: 20
79: 33
79: 34
80: 37
81: 14
81: 15
81: 37
81: 38
82: 40
82: 41
82: 42
82: 43
83: 42
83: 44
84: 45
84: 47
85: 27
85: 50
86: 52
87: 55
87: 56
88: 58
89: 62
90: 66
3: 71
4: 71
5: 72
6: 72
7: 72
8: 72
9: 73
10: 73
11: 73
12: 73
13: 73
14: 73
15: 74
16: 74
17: 74
18: 74
19: 74
20: 75
21: 75
22: 76
23: 76
24: 76
25: 76
26: 77
27: 77
28: 77
29: 78
30: 78
31: 78
32: 78
33: 78
34: 78
35: 79
36: 79
37: 79
38: 80
39: 81
40: 81
41: 81
42: 81
43: 81
44: 82
45: 83
46: 83
47: 83
48: 84
49: 84
50: 84
51: 84
52: 85
53: 86
54: 86
55: 86
56: 86
57: 87
58: 87
59: 88
60: 88
61: 88
62: 88
63: 89
64: 89
65: 89
66: 89
67: 90
68: 90
69: 90
70: 90
segment: [15]
vertex id: label
70: 0
71: 3
72: 0
73: 3
74: 0
75: 3
76: 4
77: 0
78: 0
79: 3
80: 0
81: 3
82: 0
83: 0
84: 0
85: 3
86: 0
87: 3
88: 0
89: 3
0: 5
1: 5
2: 5
3: 5
4: 5
5: 5
6: 5
7: 5
8: 5
9: 5
10: 5
11: 5
12: 5
13: 5
14: 5
15: 5
16: 5
17: 5
18: 5
19: 5
20: 5
21: 5
22: 5
23: 5
24: 5
25: 5
26: 5
27: 5
28: 5
29: 5
30: 5
31: 5
32: 5
33: 5
34: 5
35: 5
36: 5
37: 5
38: 5
39: 5
40: 5
41: 5
42: 5
43: 5
44: 5
45: 5
46: 5
47: 5
48: 5
49: 5
50: 5
51: 5
52: 5
53: 5
54: 5
55: 5
56: 5
57: 5
58: 5
59: 5
60: 5
61: 5
62: 5
63: 5
64: 5
65: 5
66: 5
67: 5
68: 5
69: 5
edge from: to
70: 0
70: 1
71: 2
71: 3
72: 5
72: 6
73: 6
74: 4
74: 7
74: 8
74: 12
75: 16
75: 17
76: 13
76: 20
76: 22
77: 25
78: 17
78: 27
78: 28
78: 29
79: 17
79: 31
79: 32
80: 37
80: 38
80: 39
81: 40
81: 42
82: 42
82: 44
83: 44
83: 45
83: 46
84: 46
84: 47
84: 48
84: 49
85: 28
85: 51
85: 53
86: 56
86: 58
87: 59
88: 62
88: 63
89: 67
89: 68
2: 70
3: 70
4: 71
5: 71
6: 71
7: 72
8: 72
9: 72
10: 72
11: 72
12: 73
13: 73
14: 74
15: 74
16: 74
17: 74
18: 75
19: 75
20: 75
21: 75
22: 75
23: 76
24: 76
25: 76
26: 77
27: 77
28: 77
29: 77
30: 78
31: 78
32: 78
33: 79
34: 79
35: 79
36: 79
37: 79
38: 79
39: 79
40: 80
41: 80
42: 80
43: 81
44: 81
45: 82
46: 82
47: 83
48: 83
49: 83
50: 84
51: 84
52: 84
53: 84
54: 85
55: 85
56: 85
57: 85
58: 85
59: 86
60: 87
61: 87
62: 87
63: 87
64: 88
65: 88
66: 88
67: 88
68: 88
69: 89
segment: [16]
vertex id: label
57: 0
58: 0
59: 3
60: 0
61: 3
62: 0
63: 3
64: 3
65: 4
66: 3
67: 4
68: 3
69: 3
70: 0
71: 3
72: 0
73: 2
74: 3
75: 0
76: 3
0: 5
1: 5
2: 5
3: 5
4: 5
5: 5
6: 5
7: 5
8: 5
9: 5
10: 5
11: 5
12: 5
13: 5
14: 5
15: 5
16: 5
17: 5
18: 5
19: 5
20: 5
21: 5
22: 5
23: 5
24: 5
25: 5
26: 5
27: 5
28: 5
29: 5
30: 5
31: 5
32: 5
33: 5
34: 5
35: 5
36: 5
37: 5
38: 5
39: 5
40: 5
41: 5
42: 5
43: 5
44: 5
45: 5
46: 5
47: 5
48: 5
49: 5
50: 5
51: 5
52: 5
53: 5
54: 5
55: 5
56: 5
edge from: to
57: 0
58: 0
58: 1
59: 3
59: 4
60: 8
61: 4
61: 6
61: 9
61: 10
62: 6
62: 10
62: 11
63: 14
64: 17
65: 18
65: 19
66: 21
67: 7
67: 22
67: 23
68: 22
68: 24
69: 27
70: 16
70: 28
70: 30
71: 18
71: 20
71: 33
71: 34
72: 36
72: 37
73: 40
73: 41
74: 45
74: 46
75: 28
75: 46
75: 48
76: 52
1: 57
2: 58
3: 58
4: 58
5: 58
6: 59
7: 59
8: 59
9: 60
10: 60
11: 61
12: 62
13: 62
14: 62
15: 63
16: 63
17: 63
18: 64
19: 64
20: 65
21: 65
22: 66
23: 66
24: 67
25: 68
26: 68
27: 68
28: 69
29: 69
30: 69
31: 70
32: 70
33: 70
34: 70
35: 71
36: 71
37: 71
38: 72
39: 72
40: 72
41: 72
42: 73
43: 73
44: 73
45: 73
46: 73
47: 74
48: 74
49: 75
50: 75
51: 75
52: 75
53: 76
54: 76
55: 76
56: 76
segment: [17]
vertex id: label
62: 0
63: 0
64: 3
65: 0
66: 3
67: 0
68: 3
69: 4
70: 3
71: 0
72: 3
73: 0
74: 3
75: 0
76: 3
77: 4
78: 3
79: 4
80: 1
81: 1
0: 5
1: 5
2: 5
3: 5
4: 5
5: 5
6: 5
7: 5
8: 5
9: 5
10: 5
11: 5
12: 5
13: 5
14: 5
15: 5
16: 5
17: 5
18: 5
19: 5
20: 5
21: 5
22: 5
23: 5
24: 5
25: 5
26: 5
27: 5
28: 5
29: 5
30: 5
31: 5
32: 5
33: 5
34: 5
35: 5
36: 5
37: 5
38: 5
39: 5
40: 5
41: 5
42: 5
43: 5
44: 5
45: 5
46: 5
47: 5
48: 5
49: 5
50: 5
51: 5
52: 5
53: 5
54: 5
55: 5
56: 5
57: 5
58: 5
59: 5
60: 5
61: 5
edge from: to
62: 0
62: 1
63: 4
64: 4
64: 6
64: 9
64: 10
65: 6
65: 10
66: 13
66: 14
67: 19
68: 23
69: 1
69: 9
69: 22
69: 24
70: 16
70: 27
71: 15
72: 30
72: 31
73: 33
73: 35
74: 36
75: 39
76: 43
77: 45
77: 47
78: 15
78: 49
78: 50
79: 27
79: 50
80: 52
80: 53
80: 54
81: 30
2: 62
3: 62
4: 62
5: 63
6: 63
7: 63
8: 63
9: 63
10: 63
11: 64
12: 65
13: 65
14: 65
15: 66
16: 66
17: 66
18: 66
19: 66
20: 67
21: 67
22: 67
23: 67
24: 68
25: 69
26: 69
27: 69
28: 70
29: 71
30: 71
31: 71
32: 72
33: 72
34: 72
35: 72
36: 73
37: 74
38: 74
39: 74
40: 75
41: 75
42: 75
43: 75
44: 76
45: 76
46: 76
47: 76
48: 77
49: 77
50: 77
51: 78
52: 79
53: 79
54: 79
55: 80
56: 80
57: 80
58: 81
59: 81
60: 81
61: 81
segment: [18]
vertex id: label
76: 0
77: 3
78: 4
79: 2
80: 3
81: 0
82: 0
83: 3
84: 4
85: 2
86: 3
87: 0
88: 3
89: 0
90: 3
91: 4
92: 3
93: 4
94: 2
95: 3
0: 5
1: 5
2: 5
3: 5
4: 5
5: 5
6: 5
7: 5
8: 5
9: 5
10: 5
11: 5
12: 5
13: 5
14: 5
15: 5
16: 5
17: 5
18: 5
19: 5
20: 5
21: 5
22: 5
23: 5
24: 5
25: 5
26: 5
27: 5
28: 5
29: 5
30: 5
31: 5
32: 5
33: 5
34: 5
35: 5
36: 5
37: 5
38: 5
39: 5
40: 5
41: 5
42: 5
43: 5
44: 5
45: 5
46: 5
47: 5
48: 5
49: 5
50: 5
51: 5
52: 5
53: 5
54: 5
55: 5
56: 5
57: 5
58: 5
59: 5
60: 5
61: 5
62: 5
63: 5
64: 5
65: 5
66: 5
67: 5
68: 5
69: 5
70: 5
71: 5
72: 5
73: 5
74: 5
75: 5
edge from: to
76: 0
76: 1
76: 2
77: 1
77: 2
77: 3
77: 4
78: 5
79: 7
80: 16
80: 17
81: 8
81: 12
81: 18
81: 19
81: 20
82: 19
82: 21
83: 16
83: 26
83: 27
84: 30
84: 31
85: 33
85: 35
86: 38
87: 39
87: 40
87: 42
88: 45
88: 46
89: 27
89: 50
90: 54
90: 55
90: 56
91: 24
91: 59
91: 60
91: 61
92: 67
93: 68
94: 19
94: 68
94: 70
94: 71
95: 43
95: 73
95: 74
3: 76
4: 76
5: 77
6: 77
7: 77
8: 77
9: 77
10: 78
11: 78
12: 78
13: 78
14: 79
15: 79
16: 79
17: 79
18: 80
19: 80
20: 80
21: 81
22: 82
23: 82
24: 82
25: 82
26: 82
27: 82
28: 83
29: 83
30: 83
31: 83
32: 84
33: 84
34: 84
35: 84
36: 85
37: 85
38: 85
39: 86
40: 86
41: 86
42: 86
43: 87
44: 87
45: 87
46: 87
47: 88
48: 88
49: 88
50: 88
51: 88
52: 89
53: 89
54: 89
55: 89
56: 89
57: 90
58: 90
59: 90
60: 90
61: 90
62: 91
63: 91
64: 91
65: 91
66: 91
67: 91
68: 92
69: 93
70: 93
71: 93
72: 94
73: 94
74: 94
75: 95
segment: [19]
vertex id: label
59: 0
60: 2
61: 0
62: 3
63: 3
64: 0
65: 3
66: 0
67: 3
68: 0
69: 3
70: 3
71: 0
72: 1
73: 1
74: 1
75: 1
76: 4
77: 3
78: 4
0: 5
1: 5
2: 5
3: 5
4: 5
5: 5
6: 5
7: 5
8: 5
9: 5
10: 5
11: 5
12: 5
13: 5
14: 5
15: 5
16: 5
17: 5
18: 5
19: 5
20: 5
21: 5
22: 5
23: 5
24: 5
25: 5
26: 5
27: 5
28: 5
29: 5
30: 5
31: 5
32: 5
33: 5
34: 5
35: 5
36: 5
37: 5
38: 5
39: 5
40: 5
41: 5
42: 5
43: 5
44: 5
45: 5
46: 5
47: 5
48: 5
49: 5
50: 5
51: 5
52: 5
53: 5
54: 5
55: 5
56: 5
57: 5
58: 5
edge from: to
59: 0
59: 1
59: 2
60: 5
60: 6
61: 6
61: 9
61: 10
62: 5
62: 11
62: 12
63: 8
63: 9
63: 15
64: 16
64: 17
65: 15
65: 18
65: 19
66: 20
67: 13
67: 22
68: 22
68: 24
69: 15
70: 18
70: 20
70: 33
70: 34
71: 33
71: 34
71: 35
72: 37
73: 37
73: 38
74: 42
75: 41
75: 42
75: 44
76: 48
77: 15
77: 47
77: 49
77: 50
78: 28
78: 51
78: 53
3: 59
4: 59
5: 59
6: 59
7: 60
8: 60
9: 60
10: 60
11: 61
12: 61
13: 62
14: 62
15: 62
16: 63
17: 63
18: 64
19: 64
20: 65
21: 66
22: 66
23: 67
24: 67
25: 68
26: 68
27: 68
28: 68
29: 69
30: 69
31: 69
32: 69
33: 69
34: 69
35: 70
36: 71
37: 71
38: 72
39: 73
40: 73
41: 73
42: 73
43: 74
44: 74
45: 75
46: 75
47: 75
48: 75
49: 76
50: 76
51: 77
52: 77
53: 77
54: 78
55: 78
56: 78
57: 78
58: 78
