segment: [0]
vertex id: label
65: 0
66: 1
67: 1
68: 4
69: 4
70: 0
71: 4
72: 0
73: 4
74: 3
75: 1
76: 0
77: 1
78: 0
79: 2
80: 3
81: 3
82: 3
83: 4
84: 3
0: 5
1: 5
2: 5
3: 5
4: 5
5: 5
6: 5
7: 5
8: 5
9: 5
10: 5
11: 5
12: 5
13: 5
14: 5
15: 5
16: 5
17: 5
18: 5
19: 5
20: 5
21: 5
22: 5
23: 5
24: 5
25: 5
26: 5
27: 5
28: 5
29: 5
30: 5
31: 5
32: 5
33: 5
34: 5
35: 5
36: 5
37: 5
38: 5
39: 5
40: 5
41: 5
42: 5
43: 5
44: 5
45: 5
46: 5
47: 5
48: 5
49: 5
50: 5
51: 5
52: 5
53: 5
54: 5
55: 5
56: 5
57: 5
58: 5
59: 5
60: 5
61: 5
62: 5
63: 5
64: 5
edge from: to
65: 0
65: 1
65: 2
66: 5
67: 1
67: 7
68: 8
68: 9
68: 10
68: 11
69: 12
69: 13
70: 15
70: 16
71: 2
71: 13
72: 17
72: 21
72: 23
72: 24
73: 25
73: 26
74: 3
74: 20
75: 30
76: 33
77: 25
77: 34
78: 39
78: 40
79: 44
80: 46
80: 48
81: 34
81: 35
81: 47
82: 52
82: 54
83: 56
83: 58
84: 59
3: 65
4: 65
5: 65
6: 66
7: 66
8: 66
9: 66
10: 67
11: 67
12: 68
13: 68
14: 69
15: 69
16: 69
17: 70
18: 70
19: 71
20: 71
21: 71
22: 71
23: 71
24: 71
25: 72
26: 72
27: 73
28: 73
29: 74
30: 74
31: 74
32: 75
33: 75
34: 75
35: 76
36: 77
37: 77
38: 77
39: 77
40: 77
41: 78
42: 78
43: 78
44: 78
45: 78
46: 78
47: 79
48: 79
49: 80
50: 81
51: 81
52: 81
53: 81
54: 81
55: 82
56: 82
57: 82
58: 82
59: 83
60: 83
61: 83
62: 84
63: 84
64: 84
segment: [1]
vertex id: label
69: 0
70: 4
71: 0
72: 3
73: 3
74: 3
75: 3
76: 3
77: 3
78: 1
79: 1
80: 1
81: 0
82: 4
83: 3
84: 3
85: 3
86: 3
87: 1
88: 0
0: 5
1: 5
2: 5
3: 5
4: 5
5: 5
6: 5
7: 5
8: 5
9: 5
10: 5
11: 5
12: 5
13: 5
14: 5
15: 5
16: 5
17: 5
18: 5
19: 5
20: 5
21: 5
22: 5
23: 5
24: 5
25: 5
26: 5
27: 5
28: 5
29: 5
30: 5
31: 5
32: 5
33: 5
34: 5
35: 5
36: 5
37: 5
38: 5
39: 5
40: 5
41: 5
42: 5
43: 5
44: 5
45: 5
46: 5
47: 5
48: 5
49: 5
50: 5
51: 5
52: 5
53: 5
54: 5
55: 5
56: 5
57: 5
58: 5
59: 5
60: 5
61: 5
62: 5
63: 5
64: 5
65: 5
66: 5
67: 5
68: 5
edge from: to
69: 0
69: 1
69: 2
70: 6
70: 7
70: 8
71: 12
71: 13
72: 16
73: 2
74: 16
74: 22
74: 23
75: 18
75: 24
75: 25
76: 21
76: 28
77: 24
77: 30
77: 33
77: 34
78: 34
79: 28
79: 38
80: 39
80: 40
81: 30
81: 41
81: 43
82: 46
83: 50
84: 6
85: 58
86: 44
86: 60
87: 7
87: 45
87: 65
88: 65
3: 69
4: 69
5: 69
6: 69
7: 69
8: 69
9: 70
10: 70
11: 70
12: 70
13: 70
14: 71
15: 71
16: 71
17: 71
18: 72
19: 73
20: 73
21: 73
22: 73
23: 73
24: 74
25: 74
26: 75
27: 75
28: 75
29: 75
30: 76
31: 76
32: 76
33: 76
34: 76
35: 77
36: 78
37: 78
38: 78
39: 78
40: 79
41: 80
42: 80
43: 80
44: 81
45: 81
46: 81
47: 81
48: 81
49: 82
50: 82
51: 82
52: 82
53: 83
54: 83
55: 83
56: 83
57: 84
58: 84
59: 84
60: 84
61: 85
62: 85
63: 86
64: 86
65: 86
66: 87
67: 87
68: 88
segment: [2]
vertex id: label
70: 0
71: 1
72: 4
73: 0
74: 4
75: 0
76: 4
77: 0
78: 1
79: 0
80: 4
81: 0
82: 1
83: 4
84: 0
85: 3
86: 3
87: 4
88: 0
89: 3
0: 5
1: 5
2: 5
3: 5
4: 5
5: 5
6: 5
7: 5
8: 5
9: 5
10: 5
11: 5
12: 5
13: 5
14: 5
15: 5
16: 5
17: 5
18: 5
19: 5
20: 5
21: 5
22: 5
23: 5
24: 5
25: 5
26: 5
27: 5
28: 5
29: 5
30: 5
31: 5
32: 5
33: 5
34: 5
35: 5
36: 5
37: 5
38: 5
39: 5
40: 5
41: 5
42: 5
43: 5
44: 5
45: 5
46: 5
47: 5
48: 5
49: 5
50: 5
51: 5
52: 5
53: 5
54: 5
55: 5
56: 5
57: 5
58: 5
59: 5
60: 5
61: 5
62: 5
63: 5
64: 5
65: 5
66: 5
67: 5
68: 5
69: 5
edge from: to
70: 0
71: 0
72: 5
72: 6
73: 1
74: 13
75: 16
75: 17
76: 22
77: 26
78: 30
79: 35
79: 36
80: 4
80: 37
81: 28
81: 38
82: 41
82: 43
83: 34
83: 35
83: 43
83: 47
84: 52
84: 54
85: 55
85: 57
86: 56
87: 57
88: 44
88: 60
89: 60
89: 66
89: 68
1: 70
2: 70
3: 71
4: 71
5: 71
6: 71
7: 72
8: 72
9: 72
10: 73
11: 73
12: 73
13: 73
14: 74
15: 74
16: 74
17: 74
18: 75
19: 75
20: 75
21: 75
22: 75
23: 75
24: 76
25: 76
26: 76
27: 76
28: 77
29: 77
30: 77
31: 77
32: 78
33: 78
34: 78
35: 78
36: 78
37: 79
38: 80
39: 80
40: 81
41: 81
42: 81
43: 81
44: 82
45: 82
46: 82
47: 82
48: 82
49: 82
50: 83
51: 83
52: 83
53: 83
54: 83
55: 84
56: 84
57: 84
58: 85
59: 86
60: 87
61: 87
62: 87
63: 88
64: 88
65: 88
66: 88
67: 88
68: 88
69: 89
segment: [3]
vertex id: label
58: 0
59: 4
60: 3
61: 3
62: 1
63: 0
64: 3
65: 3
66: 3
67: 3
68: 3
69: 3
70: 1
71: 1
72: 1
73: 1
74: 1
75: 1
76: 4
77: 3
0: 5
1: 5
2: 5
3: 5
4: 5
5: 5
6: 5
7: 5
8: 5
9: 5
10: 5
11: 5
12: 5
13: 5
14: 5
15: 5
16: 5
17: 5
18: 5
19: 5
20: 5
21: 5
22: 5
23: 5
24: 5
25: 5
26: 5
27: 5
28: 5
29: 5
30: 5
31: 5
32: 5
33: 5
34: 5
35: 5
36: 5
37: 5
38: 5
39: 5
40: 5
41: 5
42: 5
43: 5
44: 5
45: 5
46: 5
47: 5
48: 5
49: 5
50: 5
51: 5
52: 5
53: 5
54: 5
55: 5
56: 5
57: 5
edge from: to
58: 0
58: 1
58: 2
59: 2
59: 3
59: 4
60: 6
61: 5
61: 6
61: 7
62: 1
62: 7
63: 1
63: 10
64: 13
65: 2
65: 13
66: 20
67: 22
67: 23
68: 3
68: 20
69: 23
69: 31
70: 32
71: 25
71: 35
71: 36
72: 39
73: 30
73: 40
74: 45
75: 34
75: 35
75: 38
75: 43
75: 47
75: 48
75: 49
76: 50
77: 53
3: 58
4: 58
5: 59
6: 59
7: 60
8: 61
9: 61
10: 62
11: 63
12: 63
13: 63
14: 64
15: 64
16: 64
17: 64
18: 64
19: 65
20: 65
21: 65
22: 66
23: 66
24: 67
25: 67
26: 67
27: 67
28: 67
29: 68
30: 68
31: 68
32: 68
33: 69
34: 70
35: 70
36: 70
37: 71
38: 71
39: 71
40: 71
41: 71
42: 72
43: 73
44: 73
45: 73
46: 73
47: 73
48: 74
49: 74
50: 75
51: 75
52: 75
53: 76
54: 76
55: 76
56: 77
57: 77
segment: [4]
vertex id: label
65: 0
66: 4
67: 0
68: 4
69: 3
70: 3
71: 3
72: 3
73: 3
74: 3
75: 3
76: 3
77: 3
78: 3
79: 3
80: 3
81: 3
82: 3
83: 1
84: 0
0: 5
1: 5
2: 5
3: 5
4: 5
5: 5
6: 5
7: 5
8: 5
9: 5
10: 5
11: 5
12: 5
13: 5
14: 5
15: 5
16: 5
17: 5
18: 5
19: 5
20: 5
21: 5
22: 5
23: 5
24: 5
25: 5
26: 5
27: 5
28: 5
29: 5
30: 5
31: 5
32: 5
33: 5
34: 5
35: 5
36: 5
37: 5
38: 5
39: 5
40: 5
41: 5
42: 5
43: 5
44: 5
45: 5
46: 5
47: 5
48: 5
49: 5
50: 5
51: 5
52: 5
53: 5
54: 5
55: 5
56: 5
57: 5
58: 5
59: 5
60: 5
61: 5
62: 5
63: 5
64: 5
edge from: to
65: 0
66: 4
66: 5
67: 11
68: 13
69: 16
70: 18
71: 22
71: 23
72: 18
72: 24
73: 26
73: 27
74: 21
74: 29
74: 30
75: 27
75: 30
75: 31
76: 24
76: 33
76: 34
77: 35
78: 30
78: 40
79: 43
80: 46
81: 51
81: 53
82: 39
82: 53
83: 55
84: 59
84: 61
1: 65
2: 65
3: 65
4: 65
5: 65
6: 66
7: 66
8: 66
9: 66
10: 66
11: 66
12: 67
13: 67
14: 67
15: 68
16: 68
17: 68
18: 69
19: 69
20: 70
21: 70
22: 70
23: 70
24: 71
25: 71
26: 72
27: 72
28: 73
29: 73
30: 73
31: 74
32: 75
33: 75
34: 75
35: 76
36: 76
37: 77
38: 77
39: 77
40: 77
41: 77
42: 77
43: 78
44: 78
45: 78
46: 79
47: 79
48: 79
49: 80
50: 80
51: 80
52: 80
53: 80
54: 81
55: 81
56: 82
57: 82
58: 83
59: 83
60: 83
61: 83
62: 84
63: 84
64: 84
segment: [5]
vertex id: label
71: 0
72: 4
73: 3
74: 3
75: 3
76: 3
77: 3
78: 4
79: 4
80: 3
81: 3
82: 2
83: 3
84: 1
85: 4
86: 0
87: 2
88: 3
89: 3
90: 3
0: 5
1: 5
2: 5
3: 5
4: 5
5: 5
6: 5
7: 5
8: 5
9: 5
10: 5
11: 5
12: 5
13: 5
14: 5
15: 5
16: 5
17: 5
18: 5
19: 5
20: 5
21: 5
22: 5
23: 5
24: 5
25: 5
26: 5
27: 5
28: 5
29: 5
30: 5
31: 5
32: 5
33: 5
34: 5
35: 5
36: 5
37: 5
38: 5
39: 5
40: 5
41: 5
42: 5
43: 5
44: 5
45: 5
46: 5
47: 5
48: 5
49: 5
50: 5
51: 5
52: 5
53: 5
54: 5
55: 5
56: 5
57: 5
58: 5
59: 5
60: 5
61: 5
62: 5
63: 5
64: 5
65: 5
66: 5
67: 5
68: 5
69: 5
70: 5
edge from: to
71: 0
71: 1
71: 2
71: 3
72: 5
72: 7
73: 12
73: 13
74: 14
75: 14
75: 19
75: 20
76: 15
76: 20
77: 23
78: 29
79: 23
79: 31
79: 32
80: 25
80: 35
80: 36
81: 4
82: 39
83: 30
83: 38
83: 41
83: 43
84: 41
84: 45
84: 47
85: 49
85: 51
86: 53
87: 42
87: 57
88: 43
88: 44
88: 60
89: 56
89: 62
89: 64
90: 65
90: 67
4: 71
5: 71
6: 71
7: 71
8: 72
9: 72
10: 72
11: 72
12: 72
13: 72
14: 73
15: 73
16: 74
17: 74
18: 74
19: 74
20: 74
21: 75
22: 76
23: 76
24: 76
25: 77
26: 77
27: 77
28: 77
29: 77
30: 77
31: 78
32: 78
33: 79
34: 79
35: 79
36: 79
37: 80
38: 81
39: 81
40: 81
41: 82
42: 82
43: 82
44: 83
45: 83
46: 83
47: 83
48: 84
49: 84
50: 84
51: 84
52: 85
53: 85
54: 85
55: 85
56: 86
57: 86
58: 86
59: 86
60: 87
61: 87
62: 87
63: 88
64: 88
65: 89
66: 89
67: 89
68: 90
69: 90
70: 90
segment: [6]
vertex id: label
60: 0
61: 4
62: 4
63: 0
64: 4
65: 0
66: 3
67: 3
68: 3
69: 3
70: 3
71: 3
72: 3
73: 3
74: 3
75: 3
76: 3
77: 3
78: 3
79: 3
0: 5
1: 5
2: 5
3: 5
4: 5
5: 5
6: 5
7: 5
8: 5
9: 5
10: 5
11: 5
12: 5
13: 5
14: 5
15: 5
16: 5
17: 5
18: 5
19: 5
20: 5
21: 5
22: 5
23: 5
24: 5
25: 5
26: 5
27: 5
28: 5
29: 5
30: 5
31: 5
32: 5
33: 5
34: 5
35: 5
36: 5
37: 5
38: 5
39: 5
40: 5
41: 5
42: 5
43: 5
44: 5
45: 5
46: 5
47: 5
48: 5
49: 5
50: 5
51: 5
52: 5
53: 5
54: 5
55: 5
56: 5
57: 5
58: 5
59: 5
edge from: to
60: 0
60: 1
60: 2
61: 2
61: 3
62: 7
63: 11
64: 16
64: 17
65: 19
65: 20
66: 16
66: 21
66: 22
67: 16
67: 18
67: 20
67: 22
67: 23
68: 19
68: 26
68: 27
69: 28
70: 31
71: 33
71: 34
72: 4
73: 41
73: 43
74: 42
75: 32
75: 33
75: 40
75: 44
75: 45
75: 46
76: 46
76: 48
77: 37
77: 44
77: 48
77: 50
78: 47
78: 52
78: 54
79: 39
79: 53
3: 60
4: 61
5: 61
6: 61
7: 61
8: 62
9: 62
10: 62
11: 62
12: 63
13: 63
14: 63
15: 63
16: 63
17: 63
18: 64
19: 64
20: 64
21: 65
22: 65
23: 66
24: 67
25: 67
26: 67
27: 67
28: 68
29: 68
30: 69
31: 69
32: 69
33: 70
34: 70
35: 71
36: 71
37: 71
38: 72
39: 72
40: 72
41: 72
42: 72
43: 72
44: 73
45: 74
46: 74
47: 75
48: 75
49: 76
50: 76
51: 77
52: 77
53: 77
54: 77
55: 78
56: 79
57: 79
58: 79
59: 79
segment: [7]
vertex id: label
61: 0
62: 3
63: 3
64: 3
65: 4
66: 3
67: 3
68: 3
69: 1
70: 4
71: 0
72: 1
73: 0
74: 3
75: 3
76: 4
77: 3
78: 1
79: 1
80: 0
0: 5
1: 5
2: 5
3: 5
4: 5
5: 5
6: 5
7: 5
8: 5
9: 5
10: 5
11: 5
12: 5
13: 5
14: 5
15: 5
16: 5
17: 5
18: 5
19: 5
20: 5
21: 5
22: 5
23: 5
24: 5
25: 5
26: 5
27: 5
28: 5
29: 5
30: 5
31: 5
32: 5
33: 5
34: 5
35: 5
36: 5
37: 5
38: 5
39: 5
40: 5
41: 5
42: 5
43: 5
44: 5
45: 5
46: 5
47: 5
48: 5
49: 5
50: 5
51: 5
52: 5
53: 5
54: 5
55: 5
56: 5
57: 5
58: 5
59: 5
60: 5
edge from: to
61: 0
61: 1
62: 4
63: 5
63: 6
63: 7
64: 8
64: 11
65: 9
65: 12
66: 16
67: 2
68: 20
69: 22
69: 23
70: 17
70: 21
70: 23
70: 24
71: 3
71: 20
71: 28
72: 28
73: 32
74: 25
74: 34
75: 39
75: 41
76: 42
76: 44
77: 45
77: 47
78: 45
78: 49
78: 51
79: 51
80: 50
80: 55
80: 57
2: 61
3: 61
4: 61
5: 62
6: 62
7: 62
8: 63
9: 63
10: 63
11: 63
12: 64
13: 65
14: 65
15: 65
16: 65
17: 65
18: 66
19: 67
20: 67
21: 67
22: 68
23: 68
24: 69
25: 70
26: 70
27: 70
28: 70
29: 71
30: 72
31: 72
32: 72
33: 72
34: 73
35: 73
36: 74
37: 74
38: 74
39: 74
40: 74
41: 74
42: 75
43: 75
44: 75
45: 76
46: 76
47: 76
48: 77
49: 77
50: 77
51: 77
52: 78
53: 78
54: 79
55: 79
56: 79
57: 79
58: 80
59: 80
60: 80
segment: [8]
vertex id: label
66: 0
67: 3
68: 3
69: 3
70: 1
71: 1
72: 1
73: 4
74: 3
75: 3
76: 3
77: 3
78: 3
79: 4
80: 0
81: 4
82: 0
83: 4
84: 0
85: 4
0: 5
1: 5
2: 5
3: 5
4: 5
5: 5
6: 5
7: 5
8: 5
9: 5
10: 5
11: 5
12: 5
13: 5
14: 5
15: 5
16: 5
17: 5
18: 5
19: 5
20: 5
21: 5
22: 5
23: 5
24: 5
25: 5
26: 5
27: 5
28: 5
29: 5
30: 5
31: 5
32: 5
33: 5
34: 5
35: 5
36: 5
37: 5
38: 5
39: 5
40: 5
41: 5
42: 5
43: 5
44: 5
45: 5
46: 5
47: 5
48: 5
49: 5
50: 5
51: 5
52: 5
53: 5
54: 5
55: 5
56: 5
57: 5
58: 5
59: 5
60: 5
61: 5
62: 5
63: 5
64: 5
65: 5
edge from: to
66: 0
67: 2
67: 3
68: 1
69: 5
69: 12
69: 13
70: 10
70: 13
71: 14
72: 18
73: 22
73: 23
74: 26
75: 29
76: 34
77: 27
77: 37
77: 38
78: 41
79: 32
79: 43
80: 46
80: 48
81: 49
81: 51
82: 37
82: 50
83: 56
84: 41
84: 42
84: 52
84: 57
85: 61
85: 63
1: 66
2: 66
3: 66
4: 67
5: 67
6: 67
7: 67
8: 67
9: 67
10: 67
11: 68
12: 68
13: 68
14: 69
15: 70
16: 71
17: 71
18: 71
19: 71
20: 72
21: 72
22: 72
23: 72
24: 73
25: 73
26: 73
27: 73
28: 74
29: 74
30: 74
31: 75
32: 75
33: 75
34: 75
35: 75
36: 76
37: 76
38: 76
39: 77
40: 77
41: 77
42: 77
43: 77
44: 78
45: 78
46: 79
47: 79
48: 79
49: 80
50: 80
51: 80
52: 81
53: 82
54: 82
55: 82
56: 82
57: 82
58: 82
59: 83
60: 84
61: 84
62: 84
63: 84
64: 85
65: 85
segment: [9]
vertex id: label
74: 0
75: 1
76: 1
77: 0
78: 3
79: 4
80: 0
81: 1
82: 0
83: 4
84: 0
85: 3
86: 3
87: 3
88: 3
89: 3
90: 4
91: 3
92: 4
93: 0
0: 5
1: 5
2: 5
3: 5
4: 5
5: 5
6: 5
7: 5
8: 5
9: 5
10: 5
11: 5
12: 5
13: 5
14: 5
15: 5
16: 5
17: 5
18: 5
19: 5
20: 5
21: 5
22: 5
23: 5
24: 5
25: 5
26: 5
27: 5
28: 5
29: 5
30: 5
31: 5
32: 5
33: 5
34: 5
35: 5
36: 5
37: 5
38: 5
39: 5
40: 5
41: 5
42: 5
43: 5
44: 5
45: 5
46: 5
47: 5
48: 5
49: 5
50: 5
51: 5
52: 5
53: 5
54: 5
55: 5
56: 5
57: 5
58: 5
59: 5
60: 5
61: 5
62: 5
63: 5
64: 5
65: 5
66: 5
67: 5
68: 5
69: 5
70: 5
71: 5
72: 5
73: 5
edge from: to
74: 0
74: 1
75: 6
76: 3
76: 6
76: 7
76: 8
77: 9
77: 12
78: 16
78: 17
79: 15
79: 19
79: 20
80: 19
80: 24
80: 26
80: 27
81: 31
82: 25
82: 34
83: 28
83: 38
84: 39
84: 40
85: 44
86: 46
87: 35
87: 47
88: 37
88: 50
88: 52
89: 55
89: 57
90: 57
91: 44
91: 60
92: 62
92: 64
93: 49
93: 67
2: 74
3: 74
4: 74
5: 74
6: 74
7: 75
8: 75
9: 76
10: 76
11: 76
12: 76
13: 77
14: 77
15: 77
16: 77
17: 77
18: 78
19: 78
20: 78
21: 78
22: 79
23: 79
24: 79
25: 79
26: 79
27: 79
28: 80
29: 80
30: 80
31: 80
32: 80
33: 81
34: 81
35: 81
36: 82
37: 82
38: 82
39: 82
40: 83
41: 84
42: 84
43: 84
44: 84
45: 84
46: 84
47: 85
48: 85
49: 86
50: 87
51: 87
52: 87
53: 88
54: 88
55: 88
56: 88
57: 88
58: 89
59: 89
60: 90
61: 90
62: 90
63: 91
64: 91
65: 92
66: 92
67: 92
68: 92
69: 92
70: 93
71: 93
72: 93
73: 93
segment: [10]
vertex id: label
63: 0
64: 4
65: 4
66: 0
67: 1
68: 4
69: 3
70: 3
71: 3
72: 3
73: 4
74: 4
75: 0
76: 4
77: 0
78: 3
79: 3
80: 3
81: 1
82: 4
0: 5
1: 5
2: 5
3: 5
4: 5
5: 5
6: 5
7: 5
8: 5
9: 5
10: 5
11: 5
12: 5
13: 5
14: 5
15: 5
16: 5
17: 5
18: 5
19: 5
20: 5
21: 5
22: 5
23: 5
24: 5
25: 5
26: 5
27: 5
28: 5
29: 5
30: 5
31: 5
32: 5
33: 5
34: 5
35: 5
36: 5
37: 5
38: 5
39: 5
40: 5
41: 5
42: 5
43: 5
44: 5
45: 5
46: 5
47: 5
48: 5
49: 5
50: 5
51: 5
52: 5
53: 5
54: 5
55: 5
56: 5
57: 5
58: 5
59: 5
60: 5
61: 5
62: 5
edge from: to
63: 0
63: 1
63: 2
63: 3
64: 3
64: 4
64: 5
64: 6
65: 8
66: 1
66: 7
67: 12
68: 14
69: 18
70: 23
70: 24
71: 25
71: 26
72: 29
72: 30
73: 30
74: 33
74: 34
75: 35
76: 39
77: 41
78: 34
78: 35
78: 47
79: 37
79: 44
79: 48
79: 50
80: 52
81: 6
81: 40
82: 56
82: 58
4: 63
5: 63
6: 63
7: 64
8: 64
9: 65
10: 66
11: 66
12: 66
13: 67
14: 67
15: 67
16: 68
17: 68
18: 68
19: 68
20: 69
21: 69
22: 69
23: 69
24: 69
25: 70
26: 70
27: 71
28: 71
29: 71
30: 71
31: 72
32: 73
33: 73
34: 73
35: 74
36: 74
37: 75
38: 75
39: 75
40: 75
41: 76
42: 76
43: 76
44: 77
45: 77
46: 77
47: 77
48: 77
49: 77
50: 78
51: 79
52: 79
53: 79
54: 79
55: 80
56: 80
57: 81
58: 81
59: 82
60: 82
61: 82
62: 82
segment: [11]
vertex id: label
57: 0
58: 4
59: 0
60: 1
61: 4
62: 3
63: 3
64: 3
65: 3
66: 1
67: 1
68: 1
69: 1
70: 1
71: 4
72: 0
73: 4
74: 3
75: 4
76: 0
0: 5
1: 5
2: 5
3: 5
4: 5
5: 5
6: 5
7: 5
8: 5
9: 5
10: 5
11: 5
12: 5
13: 5
14: 5
15: 5
16: 5
17: 5
18: 5
19: 5
20: 5
21: 5
22: 5
23: 5
24: 5
25: 5
26: 5
27: 5
28: 5
29: 5
30: 5
31: 5
32: 5
33: 5
34: 5
35: 5
36: 5
37: 5
38: 5
39: 5
40: 5
41: 5
42: 5
43: 5
44: 5
45: 5
46: 5
47: 5
48: 5
49: 5
50: 5
51: 5
52: 5
53: 5
54: 5
55: 5
56: 5
edge from: to
57: 0
57: 1
57: 2
58: 7
59: 12
60: 12
60: 13
61: 11
61: 12
61: 13
61: 14
61: 15
62: 16
62: 17
63: 14
63: 18
64: 22
64: 23
65: 24
66: 26
66: 27
67: 21
67: 28
68: 30
68: 31
69: 31
70: 37
71: 39
71: 40
72: 42
72: 44
73: 44
74: 45
74: 47
75: 49
76: 51
76: 53
3: 57
4: 57
5: 57
6: 57
7: 57
8: 58
9: 58
10: 58
11: 58
12: 58
13: 59
14: 60
15: 60
16: 61
17: 61
18: 62
19: 62
20: 63
21: 63
22: 63
23: 63
24: 64
25: 64
26: 65
27: 65
28: 66
29: 66
30: 67
31: 67
32: 68
33: 69
34: 69
35: 69
36: 69
37: 69
38: 69
39: 70
40: 70
41: 71
42: 71
43: 71
44: 71
45: 72
46: 72
47: 73
48: 74
49: 74
50: 74
51: 74
52: 75
53: 75
54: 76
55: 76
56: 76
segment: [12]
vertex id: label
67: 0
68: 3
69: 3
70: 3
71: 3
72: 3
73: 3
74: 1
75: 4
76: 0
77: 4
78: 0
79: 3
80: 4
81: 3
82: 3
83: 3
84: 3
85: 3
86: 3
0: 5
1: 5
2: 5
3: 5
4: 5
5: 5
6: 5
7: 5
8: 5
9: 5
10: 5
11: 5
12: 5
13: 5
14: 5
15: 5
16: 5
17: 5
18: 5
19: 5
20: 5
21: 5
22: 5
23: 5
24: 5
25: 5
26: 5
27: 5
28: 5
29: 5
30: 5
31: 5
32: 5
33: 5
34: 5
35: 5
36: 5
37: 5
38: 5
39: 5
40: 5
41: 5
42: 5
43: 5
44: 5
45: 5
46: 5
47: 5
48: 5
49: 5
50: 5
51: 5
52: 5
53: 5
54: 5
55: 5
56: 5
57: 5
58: 5
59: 5
60: 5
61: 5
62: 5
63: 5
64: 5
65: 5
66: 5
edge from: to
67: 0
67: 1
68: 0
69: 6
70: 11
71: 10
71: 13
72: 2
72: 13
73: 16
73: 22
73: 23
74: 19
74: 26
74: 27
75: 21
75: 28
76: 32
76: 33
77: 35
77: 36
78: 39
79: 39
80: 39
80: 42
80: 44
81: 35
81: 47
82: 45
82: 49
82: 51
83: 47
83: 52
83: 54
84: 55
85: 59
86: 61
2: 67
3: 68
4: 68
5: 68
6: 68
7: 69
8: 69
9: 69
10: 69
11: 69
12: 70
13: 70
14: 70
15: 71
16: 71
17: 71
18: 71
19: 72
20: 72
21: 72
22: 72
23: 72
24: 73
25: 73
26: 73
27: 73
28: 74
29: 74
30: 75
31: 75
32: 75
33: 75
34: 76
35: 76
36: 76
37: 77
38: 77
39: 77
40: 77
41: 78
42: 79
43: 79
44: 79
45: 80
46: 80
47: 80
48: 80
49: 80
50: 81
51: 81
52: 82
53: 82
54: 82
55: 83
56: 83
57: 83
58: 84
59: 84
60: 84
61: 84
62: 85
63: 85
64: 86
65: 86
66: 86
segment: [13]
vertex id: label
66: 0
67: 3
68: 3
69: 3
70: 3
71: 4
72: 3
73: 3
74: 4
75: 0
76: 4
77: 0
78: 4
79: 0
80: 4
81: 4
82: 0
83: 4
84: 3
85: 3
0: 5
1: 5
2: 5
3: 5
4: 5
5: 5
6: 5
7: 5
8: 5
9: 5
10: 5
11: 5
12: 5
13: 5
14: 5
15: 5
16: 5
17: 5
18: 5
19: 5
20: 5
21: 5
22: 5
23: 5
24: 5
25: 5
26: 5
27: 5
28: 5
29: 5
30: 5
31: 5
32: 5
33: 5
34: 5
35: 5
36: 5
37: 5
38: 5
39: 5
40: 5
41: 5
42: 5
43: 5
44: 5
45: 5
46: 5
47: 5
48: 5
49: 5
50: 5
51: 5
52: 5
53: 5
54: 5
55: 5
56: 5
57: 5
58: 5
59: 5
60: 5
61: 5
62: 5
63: 5
64: 5
65: 5
edge from: to
66: 0
66: 1
66: 2
66: 3
67: 3
67: 5
67: 6
68: 1
68: 7
69: 10
69: 13
70: 2
70: 13
70: 16
71: 20
72: 22
72: 23
73: 26
73: 27
74: 21
74: 28
75: 30
76: 23
76: 32
76: 33
77: 27
77: 37
78: 30
78: 41
78: 43
79: 45
79: 47
80: 35
80: 47
81: 37
81: 50
82: 6
83: 56
83: 58
84: 43
84: 44
84: 60
85: 62
4: 66
5: 66
6: 66
7: 67
8: 67
9: 67
10: 68
11: 68
12: 68
13: 68
14: 68
15: 69
16: 69
17: 69
18: 69
19: 70
20: 70
21: 70
22: 71
23: 71
24: 72
25: 72
26: 72
27: 72
28: 73
29: 73
30: 74
31: 74
32: 75
33: 75
34: 76
35: 76
36: 76
37: 76
38: 76
39: 77
40: 77
41: 77
42: 77
43: 77
44: 78
45: 78
46: 78
47: 78
48: 79
49: 79
50: 80
51: 80
52: 80
53: 81
54: 81
55: 81
56: 81
57: 82
58: 82
59: 83
60: 83
61: 83
62: 83
63: 84
64: 84
65: 85
segment: [14]
vertex id: label
56: 0
57: 1
58: 0
59: 4
60: 3
61: 3
62: 1
63: 0
64: 3
65: 4
66: 0
67: 4
68: 0
69: 4
70: 0
71: 4
72: 0
73: 4
74: 3
75: 1
0: 5
1: 5
2: 5
3: 5
4: 5
5: 5
6: 5
7: 5
8: 5
9: 5
10: 5
11: 5
12: 5
13: 5
14: 5
15: 5
16: 5
17: 5
18: 5
19: 5
20: 5
21: 5
22: 5
23: 5
24: 5
25: 5
26: 5
27: 5
28: 5
29: 5
30: 5
31: 5
32: 5
33: 5
34: 5
35: 5
36: 5
37: 5
38: 5
39: 5
40: 5
41: 5
42: 5
43: 5
44: 5
45: 5
46: 5
47: 5
48: 5
49: 5
50: 5
51: 5
52: 5
53: 5
54: 5
55: 5
edge from: to
56: 0
56: 1
56: 2
57: 2
57: 3
57: 4
58: 6
58: 7
58: 8
59: 1
59: 10
60: 9
60: 10
60: 11
60: 12
61: 11
61: 14
62: 16
62: 17
63: 19
63: 20
64: 20
65: 17
65: 23
65: 24
66: 26
66: 27
67: 28
68: 23
68: 29
68: 32
68: 33
69: 37
70: 28
70: 39
70: 40
71: 30
71: 38
71: 41
71: 42
71: 43
72: 44
73: 45
73: 47
74: 49
74: 51
75: 52
3: 56
4: 56
5: 57
6: 57
7: 57
8: 57
9: 58
10: 58
11: 59
12: 59
13: 60
14: 60
15: 60
16: 61
17: 61
18: 62
19: 62
20: 62
21: 63
22: 64
23: 64
24: 64
25: 65
26: 65
27: 65
28: 66
29: 66
30: 67
31: 67
32: 67
33: 67
34: 68
35: 68
36: 68
37: 68
38: 68
39: 69
40: 69
41: 70
42: 70
43: 70
44: 71
45: 71
46: 71
47: 72
48: 73
49: 73
50: 73
51: 73
52: 74
53: 74
54: 74
55: 75
segment: [15]
vertex id: label
67: 0
68: 1
69: 1
70: 1
71: 4
72: 0
73: 1
74: 1
75: 1
76: 1
77: 0
78: 3
79: 1
80: 4
81: 0
82: 4
83: 3
84: 1
85: 0
86: 3
0: 5
1: 5
2: 5
3: 5
4: 5
5: 5
6: 5
7: 5
8: 5
9: 5
10: 5
11: 5
12: 5
13: 5
14: 5
15: 5
16: 5
17: 5
18: 5
19: 5
20: 5
21: 5
22: 5
23: 5
24: 5
25: 5
26: 5
27: 5
28: 5
29: 5
30: 5
31: 5
32: 5
33: 5
34: 5
35: 5
36: 5
37: 5
38: 5
39: 5
40: 5
41: 5
42: 5
43: 5
44: 5
45: 5
46: 5
47: 5
48: 5
49: 5
50: 5
51: 5
52: 5
53: 5
54: 5
55: 5
56: 5
57: 5
58: 5
59: 5
60: 5
61: 5
62: 5
63: 5
64: 5
65: 5
66: 5
edge from: to
67: 0
67: 1
67: 2
68: 4
68: 5
69: 1
70: 12
70: 13
71: 19
72: 16
72: 22
72: 23
73: 24
74: 26
74: 27
75: 32
75: 33
76: 25
76: 35
76: 36
77: 4
77: 37
78: 40
79: 44
80: 49
80: 51
81: 52
81: 54
82: 39
82: 48
82: 53
82: 55
83: 42
83: 57
84: 58
85: 47
85: 54
85: 59
85: 61
86: 7
3: 67
4: 67
5: 67
6: 68
7: 68
8: 68
9: 68
10: 69
11: 69
12: 69
13: 69
14: 70
15: 70
16: 70
17: 70
18: 70
19: 70
20: 70
21: 71
22: 71
23: 71
24: 72
25: 72
26: 73
27: 73
28: 74
29: 74
30: 74
31: 74
32: 74
33: 74
34: 75
35: 75
36: 75
37: 76
38: 77
39: 77
40: 77
41: 77
42: 77
43: 78
44: 78
45: 78
46: 78
47: 79
48: 79
49: 79
50: 79
51: 79
52: 80
53: 80
54: 80
55: 81
56: 82
57: 82
58: 82
59: 82
60: 83
61: 84
62: 85
63: 85
64: 85
65: 85
66: 86
segment: [16]
vertex id: label
66: 0
67: 1
68: 4
69: 3
70: 3
71: 3
72: 3
73: 1
74: 4
75: 3
76: 4
77: 0
78: 1
79: 4
80: 0
81: 1
82: 1
83: 1
84: 4
85: 0
0: 5
1: 5
2: 5
3: 5
4: 5
5: 5
6: 5
7: 5
8: 5
9: 5
10: 5
11: 5
12: 5
13: 5
14: 5
15: 5
16: 5
17: 5
18: 5
19: 5
20: 5
21: 5
22: 5
23: 5
24: 5
25: 5
26: 5
27: 5
28: 5
29: 5
30: 5
31: 5
32: 5
33: 5
34: 5
35: 5
36: 5
37: 5
38: 5
39: 5
40: 5
41: 5
42: 5
43: 5
44: 5
45: 5
46: 5
47: 5
48: 5
49: 5
50: 5
51: 5
52: 5
53: 5
54: 5
55: 5
56: 5
57: 5
58: 5
59: 5
60: 5
61: 5
62: 5
63: 5
64: 5
65: 5
edge from: to
66: 0
67: 0
67: 2
68: 6
68: 7
68: 8
69: 8
69: 11
70: 10
70: 11
70: 13
70: 14
71: 16
71: 17
72: 14
72: 18
72: 19
73: 16
73: 21
73: 22
74: 23
74: 25
74: 26
75: 29
76: 25
76: 34
77: 27
77: 37
78: 39
78: 41
79: 30
79: 38
79: 41
79: 43
80: 46
80: 48
81: 49
82: 52
82: 54
83: 56
84: 41
84: 42
84: 52
84: 57
85: 59
85: 61
1: 66
2: 66
3: 67
4: 67
5: 67
6: 67
7: 67
8: 67
9: 68
10: 68
11: 68
12: 69
13: 69
14: 69
15: 70
16: 70
17: 70
18: 71
19: 71
20: 72
21: 72
22: 72
23: 73
24: 73
25: 73
26: 73
27: 74
28: 74
29: 74
30: 74
31: 75
32: 75
33: 75
34: 75
35: 75
36: 76
37: 76
38: 76
39: 77
40: 77
41: 77
42: 78
43: 78
44: 79
45: 79
46: 79
47: 79
48: 79
49: 80
50: 80
51: 80
52: 81
53: 81
54: 81
55: 82
56: 82
57: 82
58: 82
59: 83
60: 84
61: 84
62: 85
63: 85
64: 85
65: 85
segment: [17]
vertex id: label
53: 0
54: 4
55: 3
56: 1
57: 1
58: 1
59: 1
60: 4
61: 3
62: 4
63: 4
64: 0
65: 1
66: 1
67: 0
68: 4
69: 3
70: 3
71: 3
72: 4
0: 5
1: 5
2: 5
3: 5
4: 5
5: 5
6: 5
7: 5
8: 5
9: 5
10: 5
11: 5
12: 5
13: 5
14: 5
15: 5
16: 5
17: 5
18: 5
19: 5
20: 5
21: 5
22: 5
23: 5
24: 5
25: 5
26: 5
27: 5
28: 5
29: 5
30: 5
31: 5
32: 5
33: 5
34: 5
35: 5
36: 5
37: 5
38: 5
39: 5
40: 5
41: 5
42: 5
43: 5
44: 5
45: 5
46: 5
47: 5
48: 5
49: 5
50: 5
51: 5
52: 5
edge from: to
53: 0
54: 2
54: 3
55: 4
56: 5
56: 6
57: 1
57: 7
57: 9
58: 8
58: 10
58: 11
59: 12
59: 13
60: 15
61: 18
62: 21
63: 25
63: 26
64: 32
64: 33
65: 33
65: 34
66: 4
66: 37
67: 27
67: 37
67: 38
68: 39
69: 41
69: 43
70: 44
70: 46
71: 42
71: 46
71: 48
72: 48
72: 50
1: 53
2: 53
3: 53
4: 54
5: 55
6: 55
7: 56
8: 56
9: 56
10: 57
11: 57
12: 58
13: 58
14: 59
15: 59
16: 59
17: 60
18: 60
19: 60
20: 61
21: 61
22: 61
23: 62
24: 62
25: 62
26: 62
27: 63
28: 63
29: 63
30: 63
31: 63
32: 63
33: 63
34: 64
35: 65
36: 65
37: 65
38: 66
39: 67
40: 67
41: 68
42: 68
43: 68
44: 69
45: 69
46: 69
47: 70
48: 70
49: 71
50: 71
51: 72
52: 72
segment: [18]
vertex id: label
58: 0
59: 4
60: 0
61: 3
62: 3
63: 3
64: 3
65: 4
66: 3
67: 3
68: 3
69: 3
70: 1
71: 0
72: 4
73: 0
74: 1
75: 1
76: 1
77: 1
0: 5
1: 5
2: 5
3: 5
4: 5
5: 5
6: 5
7: 5
8: 5
9: 5
10: 5
11: 5
12: 5
13: 5
14: 5
15: 5
16: 5
17: 5
18: 5
19: 5
20: 5
21: 5
22: 5
23: 5
24: 5
25: 5
26: 5
27: 5
28: 5
29: 5
30: 5
31: 5
32: 5
33: 5
34: 5
35: 5
36: 5
37: 5
38: 5
39: 5
40: 5
41: 5
42: 5
43: 5
44: 5
45: 5
46: 5
47: 5
48: 5
49: 5
50: 5
51: 5
52: 5
53: 5
54: 5
55: 5
56: 5
57: 5
edge from: to
58: 0
59: 0
59: 1
59: 2
60: 3
61: 6
62: 1
62: 7
62: 10
63: 8
63: 11
64: 13
65: 15
65: 16
66: 20
67: 25
68: 29
68: 30
69: 30
69: 31
70: 33
70: 34
71: 35
72: 37
73: 30
73: 40
73: 42
74: 41
75: 41
75: 45
75: 46
75: 47
76: 51
76: 53
77: 39
77: 53
1: 58
3: 59
4: 60
5: 60
6: 60
7: 61
8: 61
9: 61
10: 61
11: 62
12: 63
13: 63
14: 63
15: 64
16: 64
17: 65
18: 65
19: 65
20: 65
21: 65
22: 66
23: 66
24: 66
25: 66
26: 66
27: 67
28: 67
29: 67
30: 67
31: 68
32: 69
33: 69
34: 69
35: 70
36: 70
37: 71
38: 71
39: 72
40: 72
41: 72
42: 72
43: 73
44: 74
45: 74
46: 74
47: 74
48: 75
49: 75
50: 75
51: 75
52: 75
53: 75
54: 76
55: 76
56: 77
57: 77
segment: [19]
vertex id: label
58: 0
59: 4
60: 0
61: 3
62: 3
63: 3
64: 3
65: 3
66: 3
67: 3
68: 1
69: 0
70: 4
71: 4
72: 0
73: 3
74: 3
75: 3
76: 1
77: 1
0: 5
1: 5
2: 5
3: 5
4: 5
5: 5
6: 5
7: 5
8: 5
9: 5
10: 5
11: 5
12: 5
13: 5
14: 5
15: 5
16: 5
17: 5
18: 5
19: 5
20: 5
21: 5
22: 5
23: 5
24: 5
25: 5
26: 5
27: 5
28: 5
29: 5
30: 5
31: 5
32: 5
33: 5
34: 5
35: 5
36: 5
37: 5
38: 5
39: 5
40: 5
41: 5
42: 5
43: 5
44: 5
45: 5
46: 5
47: 5
48: 5
49: 5
50: 5
51: 5
52: 5
53: 5
54: 5
55: 5
56: 5
57: 5
edge from: to
58: 0
58: 1
58: 2
58: 3
59: 2
59: 4
59: 5
60: 1
60: 7
60: 10
61: 8
61: 9
61: 10
61: 11
62: 12
62: 13
63: 16
64: 14
64: 19
64: 20
65: 21
66: 26
66: 27
67: 29
67: 30
68: 33
69: 35
69: 36
70: 28
70: 39
70: 40
71: 30
71: 40
71: 42
72: 42
72: 44
73: 44
74: 46
75: 44
75: 48
75: 50
76: 39
76: 53
76: 55
77: 6
4: 58
5: 58
6: 59
7: 59
8: 59
9: 59
10: 59
11: 60
12: 61
13: 61
14: 62
15: 62
16: 62
17: 62
18: 63
19: 63
20: 63
21: 64
22: 64
23: 65
24: 65
25: 65
26: 65
27: 65
28: 66
29: 66
30: 66
31: 67
32: 67
33: 67
34: 67
35: 68
36: 68
37: 69
38: 69
39: 69
40: 69
41: 70
42: 70
43: 71
44: 71
45: 72
46: 72
47: 73
48: 73
49: 74
50: 74
51: 75
52: 75
53: 75
54: 75
55: 75
56: 76
57: 77
