segment: [0]
vertex id: label
56: 0
57: 3
58: 3
59: 2
60: 4
61: 4
62: 3
63: 3
64: 0
65: 3
66: 3
67: 3
68: 3
69: 3
70: 3
71: 3
72: 2
73: 4
74: 4
75: 2
0: 5
1: 5
2: 5
3: 5
4: 5
5: 5
6: 5
7: 5
8: 5
9: 5
10: 5
11: 5
12: 5
13: 5
14: 5
15: 5
16: 5
17: 5
18: 5
19: 5
20: 5
21: 5
22: 5
23: 5
24: 5
25: 5
26: 5
27: 5
28: 5
29: 5
30: 5
31: 5
32: 5
33: 5
34: 5
35: 5
36: 5
37: 5
38: 5
39: 5
40: 5
41: 5
42: 5
43: 5
44: 5
45: 5
46: 5
47: 5
48: 5
49: 5
50: 5
51: 5
52: 5
53: 5
54: 5
55: 5
edge from: to
56: 0
56: 1
57: 3
58: 7
59: 5
59: 7
59: 8
60: 10
60: 12
61: 17
62: 12
62: 15
62: 19
63: 21
64: 23
65: 20
65: 26
65: 32
66: 21
66: 27
66: 34
67: 28
67: 35
68: 39
69: 41
70: 43
71: 44
72: 46
73: 29
74: 51
75: 23
75: 52
75: 53
2: 56
3: 56
4: 56
5: 57
6: 57
7: 57
8: 58
9: 59
10: 59
11: 59
12: 59
13: 60
14: 60
15: 60
16: 60
17: 60
18: 61
19: 61
20: 62
21: 62
22: 63
23: 63
24: 64
25: 64
26: 64
27: 64
28: 64
29: 64
30: 64
31: 64
32: 64
33: 65
34: 65
35: 66
36: 67
37: 67
38: 67
39: 67
40: 68
41: 68
42: 69
43: 69
44: 70
45: 71
46: 71
47: 72
48: 73
49: 73
50: 73
51: 73
52: 74
53: 74
54: 75
55: 75
segment: [1]
vertex id: label
62: 0
63: 3
64: 2
65: 4
66: 2
67: 4
68: 4
69: 2
70: 4
71: 4
72: 2
73: 1
74: 0
75: 3
76: 3
77: 3
78: 3
79: 3
80: 3
81: 3
0: 5
1: 5
2: 5
3: 5
4: 5
5: 5
6: 5
7: 5
8: 5
9: 5
10: 5
11: 5
12: 5
13: 5
14: 5
15: 5
16: 5
17: 5
18: 5
19: 5
20: 5
21: 5
22: 5
23: 5
24: 5
25: 5
26: 5
27: 5
28: 5
29: 5
30: 5
31: 5
32: 5
33: 5
34: 5
35: 5
36: 5
37: 5
38: 5
39: 5
40: 5
41: 5
42: 5
43: 5
44: 5
45: 5
46: 5
47: 5
48: 5
49: 5
50: 5
51: 5
52: 5
53: 5
54: 5
55: 5
56: 5
57: 5
58: 5
59: 5
60: 5
61: 5
edge from: to
62: 0
62: 1
62: 2
62: 3
63: 6
63: 7
64: 10
65: 9
65: 14
66: 15
66: 18
67: 12
68: 10
68: 22
69: 21
69: 26
70: 31
71: 3
71: 32
71: 33
72: 17
72: 37
72: 38
73: 33
73: 41
74: 26
74: 42
75: 35
75: 44
76: 29
76: 47
77: 39
77: 48
77: 49
78: 31
78: 41
78: 50
78: 51
79: 52
79: 53
80: 57
81: 22
81: 57
81: 58
4: 62
5: 62
6: 62
7: 62
8: 63
9: 63
10: 63
11: 64
12: 64
13: 64
14: 64
15: 65
16: 65
17: 65
18: 65
19: 66
20: 67
21: 67
22: 67
23: 68
24: 68
25: 68
26: 68
27: 69
28: 69
29: 69
30: 69
31: 69
32: 70
33: 70
34: 71
35: 71
36: 71
37: 71
38: 71
39: 72
40: 72
41: 72
42: 73
43: 74
44: 74
45: 75
46: 75
47: 75
48: 76
49: 76
50: 77
51: 77
52: 78
53: 78
54: 79
55: 79
56: 79
57: 79
58: 80
59: 81
60: 81
61: 81
segment: [2]
vertex id: label
61: 0
62: 3
63: 3
64: 2
65: 4
66: 2
67: 4
68: 4
69: 4
70: 4
71: 4
72: 2
73: 4
74: 4
75: 4
76: 3
77: 3
78: 2
79: 4
80: 2
0: 5
1: 5
2: 5
3: 5
4: 5
5: 5
6: 5
7: 5
8: 5
9: 5
10: 5
11: 5
12: 5
13: 5
14: 5
15: 5
16: 5
17: 5
18: 5
19: 5
20: 5
21: 5
22: 5
23: 5
24: 5
25: 5
26: 5
27: 5
28: 5
29: 5
30: 5
31: 5
32: 5
33: 5
34: 5
35: 5
36: 5
37: 5
38: 5
39: 5
40: 5
41: 5
42: 5
43: 5
44: 5
45: 5
46: 5
47: 5
48: 5
49: 5
50: 5
51: 5
52: 5
53: 5
54: 5
55: 5
56: 5
57: 5
58: 5
59: 5
60: 5
edge from: to
61: 0
62: 1
62: 2
63: 2
64: 1
64: 4
64: 5
65: 6
66: 13
67: 17
68: 10
68: 22
69: 15
70: 4
70: 27
70: 28
71: 33
72: 17
72: 38
73: 31
73: 38
73: 39
74: 26
75: 35
75: 44
76: 45
77: 29
78: 31
78: 50
79: 53
80: 56
80: 57
1: 61
2: 61
3: 62
4: 63
5: 63
6: 64
7: 64
8: 64
9: 64
10: 65
11: 65
12: 65
13: 65
14: 66
15: 66
16: 66
17: 66
18: 67
19: 67
20: 67
21: 67
22: 67
23: 68
24: 68
25: 69
26: 69
27: 69
28: 69
29: 70
30: 70
31: 70
32: 70
33: 70
34: 71
35: 71
36: 71
37: 71
38: 71
39: 72
40: 73
41: 73
42: 73
43: 74
44: 74
45: 75
46: 76
47: 76
48: 77
49: 77
50: 77
51: 78
52: 78
53: 78
54: 79
55: 79
56: 79
57: 79
58: 80
59: 80
60: 80
segment: [3]
vertex id: label
53: 0
54: 0
55: 0
56: 3
57: 3
58: 2
59: 4
60: 4
61: 2
62: 4
63: 4
64: 2
65: 4
66: 2
67: 4
68: 4
69: 2
70: 4
71: 4
72: 3
0: 5
1: 5
2: 5
3: 5
4: 5
5: 5
6: 5
7: 5
8: 5
9: 5
10: 5
11: 5
12: 5
13: 5
14: 5
15: 5
16: 5
17: 5
18: 5
19: 5
20: 5
21: 5
22: 5
23: 5
24: 5
25: 5
26: 5
27: 5
28: 5
29: 5
30: 5
31: 5
32: 5
33: 5
34: 5
35: 5
36: 5
37: 5
38: 5
39: 5
40: 5
41: 5
42: 5
43: 5
44: 5
45: 5
46: 5
47: 5
48: 5
49: 5
50: 5
51: 5
52: 5
edge from: to
53: 0
54: 2
55: 3
55: 4
56: 6
56: 9
57: 10
57: 11
57: 12
58: 13
59: 12
59: 15
60: 18
61: 20
62: 4
62: 22
62: 23
63: 26
64: 18
65: 31
66: 21
66: 27
66: 34
67: 16
67: 29
67: 36
68: 31
68: 39
69: 26
69: 42
70: 20
70: 36
70: 45
71: 29
71: 47
72: 39
72: 48
72: 49
1: 53
2: 53
3: 54
4: 54
5: 54
6: 54
7: 55
8: 55
9: 55
10: 56
11: 56
12: 56
13: 57
14: 58
15: 58
16: 59
17: 59
18: 59
19: 60
20: 60
21: 61
22: 61
23: 61
24: 62
25: 62
26: 62
27: 63
28: 63
29: 63
30: 64
31: 64
32: 65
33: 65
34: 65
35: 66
36: 66
37: 67
38: 67
39: 67
40: 68
41: 68
42: 68
43: 69
44: 69
45: 69
46: 70
47: 70
48: 71
49: 71
50: 72
51: 72
52: 72
segment: [4]
vertex id: label
62: 0
63: 3
64: 2
65: 4
66: 4
67: 2
68: 4
69: 2
70: 4
71: 4
72: 4
73: 2
74: 4
75: 2
76: 4
77: 4
78: 4
79: 2
80: 0
81: 0
0: 5
1: 5
2: 5
3: 5
4: 5
5: 5
6: 5
7: 5
8: 5
9: 5
10: 5
11: 5
12: 5
13: 5
14: 5
15: 5
16: 5
17: 5
18: 5
19: 5
20: 5
21: 5
22: 5
23: 5
24: 5
25: 5
26: 5
27: 5
28: 5
29: 5
30: 5
31: 5
32: 5
33: 5
34: 5
35: 5
36: 5
37: 5
38: 5
39: 5
40: 5
41: 5
42: 5
43: 5
44: 5
45: 5
46: 5
47: 5
48: 5
49: 5
50: 5
51: 5
52: 5
53: 5
54: 5
55: 5
56: 5
57: 5
58: 5
59: 5
60: 5
61: 5
edge from: to
62: 0
62: 1
63: 1
63: 4
63: 5
64: 6
64: 7
65: 5
65: 7
65: 8
66: 5
66: 7
66: 9
67: 3
67: 14
67: 17
68: 10
68: 17
68: 18
68: 21
68: 22
69: 20
69: 25
70: 13
70: 18
71: 25
71: 31
72: 28
72: 34
72: 35
73: 23
73: 37
74: 38
75: 32
75: 40
76: 43
77: 35
77: 43
77: 44
78: 41
78: 50
78: 51
79: 23
79: 32
80: 45
80: 55
80: 56
81: 58
2: 62
3: 62
4: 62
5: 62
6: 63
7: 63
8: 64
9: 65
10: 65
11: 65
12: 66
13: 66
14: 66
15: 66
16: 66
17: 66
18: 67
19: 67
20: 67
21: 67
22: 67
23: 68
24: 68
25: 68
26: 69
27: 69
28: 69
29: 69
30: 70
31: 70
32: 71
33: 71
34: 71
35: 71
36: 72
37: 72
38: 73
39: 74
40: 74
41: 75
42: 75
43: 75
44: 76
45: 77
46: 77
47: 77
48: 77
49: 77
50: 77
51: 77
52: 78
53: 79
54: 79
55: 79
56: 79
57: 80
58: 80
59: 81
60: 81
61: 81
segment: [5]
vertex id: label
54: 0
55: 3
56: 3
57: 2
58: 4
59: 4
60: 2
61: 4
62: 2
63: 4
64: 4
65: 2
66: 4
67: 2
68: 4
69: 2
70: 4
71: 4
72: 2
73: 4
0: 5
1: 5
2: 5
3: 5
4: 5
5: 5
6: 5
7: 5
8: 5
9: 5
10: 5
11: 5
12: 5
13: 5
14: 5
15: 5
16: 5
17: 5
18: 5
19: 5
20: 5
21: 5
22: 5
23: 5
24: 5
25: 5
26: 5
27: 5
28: 5
29: 5
30: 5
31: 5
32: 5
33: 5
34: 5
35: 5
36: 5
37: 5
38: 5
39: 5
40: 5
41: 5
42: 5
43: 5
44: 5
45: 5
46: 5
47: 5
48: 5
49: 5
50: 5
51: 5
52: 5
53: 5
edge from: to
54: 0
55: 0
55: 1
55: 2
56: 2
56: 3
57: 3
57: 4
58: 5
58: 8
59: 12
60: 10
60: 13
60: 16
61: 12
62: 21
63: 15
63: 24
64: 17
64: 27
65: 18
66: 30
67: 21
67: 34
68: 35
69: 17
69: 38
70: 43
71: 44
72: 29
73: 47
73: 48
1: 54
2: 54
3: 55
4: 55
5: 56
6: 56
7: 57
8: 57
9: 58
10: 58
11: 58
12: 58
13: 59
14: 59
15: 59
16: 59
17: 60
18: 60
19: 60
20: 61
21: 61
22: 62
23: 62
24: 62
25: 63
26: 63
27: 63
28: 64
29: 64
30: 65
31: 66
32: 66
33: 66
34: 66
35: 67
36: 68
37: 68
38: 68
39: 69
40: 69
41: 69
42: 69
43: 69
44: 70
45: 71
46: 71
47: 71
48: 72
49: 73
50: 73
51: 73
52: 73
53: 73
segment: [6]
vertex id: label
51: 0
52: 3
53: 2
54: 4
55: 2
56: 4
57: 4
58: 4
59: 2
60: 4
61: 2
62: 4
63: 4
64: 2
65: 4
66: 3
67: 3
68: 2
69: 4
70: 4
0: 5
1: 5
2: 5
3: 5
4: 5
5: 5
6: 5
7: 5
8: 5
9: 5
10: 5
11: 5
12: 5
13: 5
14: 5
15: 5
16: 5
17: 5
18: 5
19: 5
20: 5
21: 5
22: 5
23: 5
24: 5
25: 5
26: 5
27: 5
28: 5
29: 5
30: 5
31: 5
32: 5
33: 5
34: 5
35: 5
36: 5
37: 5
38: 5
39: 5
40: 5
41: 5
42: 5
43: 5
44: 5
45: 5
46: 5
47: 5
48: 5
49: 5
50: 5
edge from: to
51: 0
51: 1
52: 0
52: 1
52: 2
52: 3
53: 3
53: 4
54: 6
54: 9
55: 5
55: 7
56: 9
56: 14
57: 10
57: 16
58: 12
58: 19
59: 20
60: 22
61: 15
61: 24
62: 27
62: 28
63: 25
63: 31
64: 35
65: 23
65: 30
65: 37
66: 39
67: 7
67: 32
67: 40
68: 43
69: 20
69: 36
69: 45
70: 29
70: 46
70: 47
2: 51
3: 51
4: 52
5: 52
6: 52
7: 53
8: 53
9: 53
10: 54
11: 54
12: 55
13: 55
14: 55
15: 56
16: 56
17: 57
18: 57
19: 57
20: 58
21: 59
22: 59
23: 60
24: 60
25: 61
26: 61
27: 61
28: 61
29: 62
30: 62
31: 62
32: 63
33: 63
34: 63
35: 63
36: 64
37: 64
38: 65
39: 65
40: 66
41: 67
42: 67
43: 67
44: 68
45: 68
46: 69
47: 69
48: 70
49: 70
50: 70
segment: [7]
vertex id: label
62: 0
63: 3
64: 3
65: 2
66: 4
67: 2
68: 4
69: 4
70: 2
71: 4
72: 2
73: 4
74: 4
75: 2
76: 4
77: 4
78: 2
79: 4
80: 2
81: 4
0: 5
1: 5
2: 5
3: 5
4: 5
5: 5
6: 5
7: 5
8: 5
9: 5
10: 5
11: 5
12: 5
13: 5
14: 5
15: 5
16: 5
17: 5
18: 5
19: 5
20: 5
21: 5
22: 5
23: 5
24: 5
25: 5
26: 5
27: 5
28: 5
29: 5
30: 5
31: 5
32: 5
33: 5
34: 5
35: 5
36: 5
37: 5
38: 5
39: 5
40: 5
41: 5
42: 5
43: 5
44: 5
45: 5
46: 5
47: 5
48: 5
49: 5
50: 5
51: 5
52: 5
53: 5
54: 5
55: 5
56: 5
57: 5
58: 5
59: 5
60: 5
61: 5
edge from: to
62: 0
62: 1
63: 3
64: 4
64: 5
65: 5
66: 6
66: 9
67: 12
68: 10
69: 12
69: 19
70: 17
70: 21
71: 11
71: 20
71: 24
71: 25
72: 18
73: 33
74: 36
75: 7
75: 32
75: 40
76: 41
77: 35
77: 43
77: 44
78: 46
79: 31
79: 40
79: 50
80: 53
81: 45
81: 56
2: 62
3: 62
4: 62
5: 63
6: 64
7: 64
8: 64
9: 65
10: 66
11: 66
12: 66
13: 67
14: 67
15: 67
16: 67
17: 68
18: 68
19: 68
20: 69
21: 69
22: 70
23: 70
24: 70
25: 70
26: 71
27: 71
28: 71
29: 71
30: 72
31: 72
32: 72
33: 72
34: 73
35: 73
36: 73
37: 74
38: 74
39: 74
40: 74
41: 75
42: 76
43: 76
44: 76
45: 77
46: 77
47: 78
48: 78
49: 78
50: 78
51: 79
52: 79
53: 79
54: 80
55: 80
56: 80
57: 81
58: 81
59: 81
60: 81
61: 81
segment: [8]
vertex id: label
52: 0
53: 3
54: 3
55: 2
56: 0
57: 3
58: 2
59: 4
60: 2
61: 4
62: 2
63: 4
64: 2
65: 0
66: 3
67: 2
68: 4
69: 2
70: 4
71: 2
0: 5
1: 5
2: 5
3: 5
4: 5
5: 5
6: 5
7: 5
8: 5
9: 5
10: 5
11: 5
12: 5
13: 5
14: 5
15: 5
16: 5
17: 5
18: 5
19: 5
20: 5
21: 5
22: 5
23: 5
24: 5
25: 5
26: 5
27: 5
28: 5
29: 5
30: 5
31: 5
32: 5
33: 5
34: 5
35: 5
36: 5
37: 5
38: 5
39: 5
40: 5
41: 5
42: 5
43: 5
44: 5
45: 5
46: 5
47: 5
48: 5
49: 5
50: 5
51: 5
edge from: to
52: 0
52: 1
53: 1
53: 2
53: 3
53: 4
54: 4
54: 5
55: 6
56: 6
56: 11
56: 13
57: 10
57: 16
58: 14
58: 17
59: 12
59: 15
59: 19
60: 10
60: 17
60: 18
60: 21
60: 22
61: 21
61: 26
62: 24
62: 29
62: 30
63: 6
63: 13
63: 21
63: 27
63: 34
64: 36
65: 17
65: 37
65: 38
66: 39
67: 26
67: 41
67: 42
68: 42
68: 43
69: 37
69: 46
70: 29
70: 47
71: 47
71: 48
2: 52
3: 52
4: 52
5: 53
6: 54
7: 54
8: 54
9: 54
10: 55
11: 55
12: 55
13: 55
14: 56
15: 56
16: 56
17: 57
18: 58
19: 58
20: 59
21: 59
22: 59
23: 60
24: 60
25: 60
26: 60
27: 61
28: 61
29: 61
30: 61
31: 62
32: 62
33: 62
34: 62
35: 63
36: 63
37: 64
38: 64
39: 65
40: 66
41: 66
42: 66
43: 67
44: 68
45: 68
46: 68
47: 69
48: 70
49: 71
50: 71
51: 71
segment: [9]
vertex id: label
56: 0
57: 3
58: 3
59: 2
60: 4
61: 4
62: 4
63: 4
64: 2
65: 4
66: 4
67: 4
68: 2
69: 4
70: 4
71: 2
72: 4
73: 4
74: 4
75: 2
0: 5
1: 5
2: 5
3: 5
4: 5
5: 5
6: 5
7: 5
8: 5
9: 5
10: 5
11: 5
12: 5
13: 5
14: 5
15: 5
16: 5
17: 5
18: 5
19: 5
20: 5
21: 5
22: 5
23: 5
24: 5
25: 5
26: 5
27: 5
28: 5
29: 5
30: 5
31: 5
32: 5
33: 5
34: 5
35: 5
36: 5
37: 5
38: 5
39: 5
40: 5
41: 5
42: 5
43: 5
44: 5
45: 5
46: 5
47: 5
48: 5
49: 5
50: 5
51: 5
52: 5
53: 5
54: 5
55: 5
edge from: to
56: 0
56: 1
57: 2
57: 3
58: 2
58: 3
58: 4
59: 4
59: 5
60: 5
60: 8
61: 10
61: 11
61: 12
62: 9
62: 14
63: 10
63: 13
63: 15
63: 16
64: 17
64: 21
65: 25
66: 26
67: 20
68: 23
68: 30
68: 37
69: 39
70: 33
70: 41
71: 35
71: 43
71: 44
72: 29
72: 47
73: 47
73: 48
74: 31
74: 50
75: 51
2: 56
3: 56
4: 57
5: 58
6: 59
7: 59
8: 59
9: 60
10: 60
11: 60
12: 60
13: 61
14: 61
15: 62
16: 62
17: 63
18: 63
19: 63
20: 63
21: 63
22: 64
23: 64
24: 64
25: 64
26: 65
27: 66
28: 66
29: 66
30: 66
31: 66
32: 66
33: 67
34: 67
35: 67
36: 67
37: 67
38: 68
39: 68
40: 69
41: 69
42: 70
43: 70
44: 70
45: 71
46: 71
47: 71
48: 72
49: 73
50: 73
51: 74
52: 75
53: 75
54: 75
55: 75
segment: [10]
vertex id: label
59: 0
60: 3
61: 3
62: 3
63: 3
64: 2
65: 4
66: 4
67: 2
68: 4
69: 2
70: 4
71: 4
72: 2
73: 4
74: 2
75: 4
76: 2
77: 4
78: 2
0: 5
1: 5
2: 5
3: 5
4: 5
5: 5
6: 5
7: 5
8: 5
9: 5
10: 5
11: 5
12: 5
13: 5
14: 5
15: 5
16: 5
17: 5
18: 5
19: 5
20: 5
21: 5
22: 5
23: 5
24: 5
25: 5
26: 5
27: 5
28: 5
29: 5
30: 5
31: 5
32: 5
33: 5
34: 5
35: 5
36: 5
37: 5
38: 5
39: 5
40: 5
41: 5
42: 5
43: 5
44: 5
45: 5
46: 5
47: 5
48: 5
49: 5
50: 5
51: 5
52: 5
53: 5
54: 5
55: 5
56: 5
57: 5
58: 5
edge from: to
59: 0
59: 1
60: 2
61: 7
62: 6
62: 13
63: 15
63: 18
64: 12
64: 19
65: 13
65: 17
65: 20
65: 21
66: 22
67: 17
67: 27
68: 31
69: 16
69: 29
69: 36
70: 17
70: 38
71: 32
71: 40
72: 42
72: 43
73: 20
73: 36
73: 39
73: 43
73: 44
73: 45
74: 37
74: 46
75: 29
76: 31
76: 50
77: 53
78: 45
78: 56
2: 59
3: 59
4: 60
5: 60
6: 60
7: 60
8: 61
9: 61
10: 61
11: 61
12: 61
13: 61
14: 62
15: 62
16: 62
17: 62
18: 62
19: 63
20: 64
21: 64
22: 65
23: 66
24: 66
25: 66
26: 66
27: 66
28: 67
29: 67
30: 67
31: 67
32: 68
33: 68
34: 68
35: 68
36: 68
37: 69
38: 69
39: 70
40: 70
41: 71
42: 71
43: 71
44: 72
45: 72
46: 73
47: 74
48: 75
49: 75
50: 75
51: 76
52: 76
53: 76
54: 77
55: 77
56: 77
57: 78
58: 78
segment: [11]
vertex id: label
57: 0
58: 3
59: 3
60: 3
61: 3
62: 2
63: 4
64: 4
65: 2
66: 4
67: 4
68: 4
69: 2
70: 4
71: 2
72: 4
73: 2
74: 4
75: 2
76: 4
0: 5
1: 5
2: 5
3: 5
4: 5
5: 5
6: 5
7: 5
8: 5
9: 5
10: 5
11: 5
12: 5
13: 5
14: 5
15: 5
16: 5
17: 5
18: 5
19: 5
20: 5
21: 5
22: 5
23: 5
24: 5
25: 5
26: 5
27: 5
28: 5
29: 5
30: 5
31: 5
32: 5
33: 5
34: 5
35: 5
36: 5
37: 5
38: 5
39: 5
40: 5
41: 5
42: 5
43: 5
44: 5
45: 5
46: 5
47: 5
48: 5
49: 5
50: 5
51: 5
52: 5
53: 5
54: 5
55: 5
56: 5
edge from: to
57: 0
58: 1
58: 2
59: 3
60: 6
60: 9
61: 8
61: 10
62: 12
62: 15
63: 17
64: 9
64: 20
65: 21
66: 26
67: 13
67: 18
68: 20
68: 26
68: 32
69: 21
69: 34
70: 36
71: 17
71: 38
72: 43
73: 46
74: 49
75: 23
75: 32
76: 43
76: 54
1: 57
2: 57
3: 58
4: 58
5: 59
6: 59
7: 59
8: 59
9: 59
10: 60
11: 61
12: 61
13: 61
14: 61
15: 61
16: 62
17: 62
18: 63
19: 63
20: 63
21: 64
22: 65
23: 65
24: 65
25: 65
26: 65
27: 66
28: 66
29: 66
30: 67
31: 67
32: 67
33: 68
34: 68
35: 69
36: 69
37: 70
38: 70
39: 71
40: 71
41: 71
42: 71
43: 71
44: 72
45: 72
46: 72
47: 73
48: 73
49: 73
50: 74
51: 74
52: 74
53: 75
54: 75
55: 76
56: 76
segment: [12]
vertex id: label
67: 0
68: 3
69: 2
70: 4
71: 2
72: 4
73: 4
74: 2
75: 4
76: 4
77: 2
78: 4
79: 2
80: 4
81: 4
82: 2
83: 4
84: 4
85: 4
86: 2
0: 5
1: 5
2: 5
3: 5
4: 5
5: 5
6: 5
7: 5
8: 5
9: 5
10: 5
11: 5
12: 5
13: 5
14: 5
15: 5
16: 5
17: 5
18: 5
19: 5
20: 5
21: 5
22: 5
23: 5
24: 5
25: 5
26: 5
27: 5
28: 5
29: 5
30: 5
31: 5
32: 5
33: 5
34: 5
35: 5
36: 5
37: 5
38: 5
39: 5
40: 5
41: 5
42: 5
43: 5
44: 5
45: 5
46: 5
47: 5
48: 5
49: 5
50: 5
51: 5
52: 5
53: 5
54: 5
55: 5
56: 5
57: 5
58: 5
59: 5
60: 5
61: 5
62: 5
63: 5
64: 5
65: 5
66: 5
edge from: to
67: 0
68: 2
68: 3
69: 3
69: 4
70: 10
71: 13
72: 10
73: 9
73: 16
73: 20
74: 15
75: 26
76: 13
76: 18
77: 28
77: 35
78: 31
78: 39
79: 26
80: 35
80: 43
80: 44
81: 48
82: 39
82: 48
82: 49
83: 52
83: 53
84: 57
85: 37
85: 48
85: 60
86: 61
86: 62
1: 67
2: 67
3: 67
4: 68
5: 68
6: 68
7: 69
8: 69
9: 69
10: 69
11: 70
12: 70
13: 70
14: 71
15: 71
16: 71
17: 72
18: 72
19: 72
20: 72
21: 73
22: 73
23: 73
24: 73
25: 74
26: 74
27: 75
28: 75
29: 75
30: 76
31: 76
32: 76
33: 76
34: 76
35: 76
36: 77
37: 77
38: 77
39: 77
40: 78
41: 78
42: 78
43: 79
44: 79
45: 80
46: 80
47: 80
48: 80
49: 81
50: 82
51: 82
52: 82
53: 82
54: 83
55: 83
56: 83
57: 83
58: 84
59: 84
60: 84
61: 85
62: 85
63: 86
64: 86
65: 86
66: 86
segment: [13]
vertex id: label
56: 0
57: 0
58: 3
59: 3
60: 3
61: 2
62: 4
63: 4
64: 4
65: 4
66: 3
67: 3
68: 3
69: 3
70: 3
71: 3
72: 3
73: 3
74: 2
75: 4
0: 5
1: 5
2: 5
3: 5
4: 5
5: 5
6: 5
7: 5
8: 5
9: 5
10: 5
11: 5
12: 5
13: 5
14: 5
15: 5
16: 5
17: 5
18: 5
19: 5
20: 5
21: 5
22: 5
23: 5
24: 5
25: 5
26: 5
27: 5
28: 5
29: 5
30: 5
31: 5
32: 5
33: 5
34: 5
35: 5
36: 5
37: 5
38: 5
39: 5
40: 5
41: 5
42: 5
43: 5
44: 5
45: 5
46: 5
47: 5
48: 5
49: 5
50: 5
51: 5
52: 5
53: 5
54: 5
55: 5
edge from: to
56: 0
56: 1
57: 2
57: 3
58: 3
58: 4
59: 7
60: 5
60: 7
61: 9
61: 11
61: 14
62: 10
63: 20
64: 25
65: 24
65: 30
66: 3
66: 32
66: 33
67: 28
67: 34
67: 35
68: 23
69: 17
69: 38
70: 16
70: 26
70: 41
70: 42
71: 43
72: 35
72: 42
72: 43
72: 44
73: 29
73: 47
74: 48
75: 23
75: 32
2: 56
3: 56
4: 56
5: 57
6: 57
7: 58
8: 59
9: 59
10: 59
11: 59
12: 60
13: 60
14: 60
15: 61
16: 61
17: 62
18: 62
19: 62
20: 62
21: 63
22: 63
23: 63
24: 63
25: 63
26: 64
27: 64
28: 64
29: 64
30: 64
31: 65
32: 65
33: 65
34: 66
35: 66
36: 67
37: 67
38: 68
39: 69
40: 69
41: 69
42: 69
43: 70
44: 71
45: 72
46: 72
47: 72
48: 73
49: 74
50: 74
51: 74
52: 74
53: 75
54: 75
55: 75
segment: [14]
vertex id: label
69: 0
70: 3
71: 3
72: 3
73: 3
74: 3
75: 2
76: 4
77: 4
78: 4
79: 2
80: 4
81: 4
82: 2
83: 4
84: 4
85: 2
86: 4
87: 4
88: 4
0: 5
1: 5
2: 5
3: 5
4: 5
5: 5
6: 5
7: 5
8: 5
9: 5
10: 5
11: 5
12: 5
13: 5
14: 5
15: 5
16: 5
17: 5
18: 5
19: 5
20: 5
21: 5
22: 5
23: 5
24: 5
25: 5
26: 5
27: 5
28: 5
29: 5
30: 5
31: 5
32: 5
33: 5
34: 5
35: 5
36: 5
37: 5
38: 5
39: 5
40: 5
41: 5
42: 5
43: 5
44: 5
45: 5
46: 5
47: 5
48: 5
49: 5
50: 5
51: 5
52: 5
53: 5
54: 5
55: 5
56: 5
57: 5
58: 5
59: 5
60: 5
61: 5
62: 5
63: 5
64: 5
65: 5
66: 5
67: 5
68: 5
edge from: to
69: 0
70: 4
71: 6
71: 9
72: 5
72: 7
73: 10
74: 3
74: 14
74: 17
75: 21
76: 15
77: 25
78: 13
78: 18
79: 3
79: 32
79: 33
80: 28
80: 34
80: 35
81: 17
81: 37
81: 38
82: 33
82: 41
83: 35
83: 44
84: 8
84: 20
84: 28
84: 37
84: 45
84: 46
85: 43
85: 54
86: 56
87: 57
87: 58
88: 64
1: 69
2: 69
3: 69
4: 69
5: 69
6: 69
7: 70
8: 70
9: 70
10: 71
11: 71
12: 72
13: 72
14: 72
15: 72
16: 72
17: 73
18: 74
19: 74
20: 74
21: 74
22: 75
23: 75
24: 75
25: 76
26: 77
27: 77
28: 77
29: 77
30: 78
31: 78
32: 78
33: 78
34: 79
35: 79
36: 80
37: 80
38: 80
39: 81
40: 81
41: 81
42: 82
43: 82
44: 82
45: 83
46: 83
47: 84
48: 84
49: 84
50: 84
51: 84
52: 84
53: 84
54: 84
55: 85
56: 85
57: 86
58: 86
59: 87
60: 87
61: 87
62: 87
63: 87
64: 87
65: 88
66: 88
67: 88
68: 88
segment: [15]
vertex id: label
52: 0
53: 3
54: 3
55: 3
56: 3
57: 3
58: 2
59: 4
60: 4
61: 2
62: 4
63: 2
64: 4
65: 2
66: 4
67: 4
68: 2
69: 4
70: 4
71: 4
0: 5
1: 5
2: 5
3: 5
4: 5
5: 5
6: 5
7: 5
8: 5
9: 5
10: 5
11: 5
12: 5
13: 5
14: 5
15: 5
16: 5
17: 5
18: 5
19: 5
20: 5
21: 5
22: 5
23: 5
24: 5
25: 5
26: 5
27: 5
28: 5
29: 5
30: 5
31: 5
32: 5
33: 5
34: 5
35: 5
36: 5
37: 5
38: 5
39: 5
40: 5
41: 5
42: 5
43: 5
44: 5
45: 5
46: 5
47: 5
48: 5
49: 5
50: 5
51: 5
edge from: to
52: 0
52: 1
53: 3
54: 3
54: 4
55: 10
56: 7
57: 15
58: 10
58: 16
59: 9
59: 20
60: 4
60: 23
61: 25
62: 4
62: 27
62: 28
63: 20
64: 33
65: 21
66: 31
66: 38
66: 39
67: 32
67: 40
68: 41
69: 26
70: 37
70: 46
71: 39
71: 48
71: 49
2: 52
3: 52
4: 52
5: 53
6: 53
7: 54
8: 54
9: 54
10: 54
11: 55
12: 56
13: 56
14: 56
15: 56
16: 57
17: 58
18: 58
19: 58
20: 58
21: 59
22: 59
23: 59
24: 60
25: 60
26: 61
27: 61
28: 61
29: 62
30: 62
31: 62
32: 62
33: 63
34: 64
35: 65
36: 65
37: 65
38: 65
39: 65
40: 66
41: 67
42: 68
43: 69
44: 69
45: 69
46: 69
47: 70
48: 70
49: 70
50: 71
51: 71
segment: [16]
vertex id: label
57: 0
58: 3
59: 3
60: 0
61: 3
62: 3
63: 3
64: 2
65: 4
66: 4
67: 4
68: 4
69: 2
70: 4
71: 2
72: 4
73: 4
74: 4
75: 4
76: 4
0: 5
1: 5
2: 5
3: 5
4: 5
5: 5
6: 5
7: 5
8: 5
9: 5
10: 5
11: 5
12: 5
13: 5
14: 5
15: 5
16: 5
17: 5
18: 5
19: 5
20: 5
21: 5
22: 5
23: 5
24: 5
25: 5
26: 5
27: 5
28: 5
29: 5
30: 5
31: 5
32: 5
33: 5
34: 5
35: 5
36: 5
37: 5
38: 5
39: 5
40: 5
41: 5
42: 5
43: 5
44: 5
45: 5
46: 5
47: 5
48: 5
49: 5
50: 5
51: 5
52: 5
53: 5
54: 5
55: 5
56: 5
edge from: to
57: 0
58: 2
58: 3
59: 3
60: 6
60: 7
60: 9
61: 5
61: 6
61: 11
61: 13
62: 12
62: 14
62: 15
63: 18
64: 9
64: 16
64: 20
65: 4
65: 18
65: 22
65: 23
66: 17
67: 13
67: 18
68: 20
69: 35
70: 23
70: 37
71: 7
71: 32
71: 40
72: 44
73: 47
73: 48
74: 23
74: 32
74: 51
74: 52
75: 53
76: 34
76: 44
76: 55
1: 57
2: 57
3: 57
4: 58
5: 59
6: 59
7: 59
8: 59
9: 59
10: 60
11: 60
12: 60
13: 60
14: 61
15: 61
16: 62
17: 62
18: 62
19: 63
20: 63
21: 64
22: 64
23: 64
24: 65
25: 65
26: 65
27: 65
28: 66
29: 66
30: 67
31: 67
32: 67
33: 68
34: 68
35: 68
36: 69
37: 69
38: 70
39: 70
40: 70
41: 71
42: 71
43: 71
44: 71
45: 72
46: 72
47: 72
48: 72
49: 73
50: 73
51: 73
52: 73
53: 74
54: 75
55: 75
56: 76
segment: [17]
vertex id: label
70: 0
71: 3
72: 3
73: 3
74: 3
75: 0
76: 3
77: 2
78: 4
79: 4
80: 4
81: 2
82: 4
83: 4
84: 2
85: 4
86: 4
87: 2
88: 4
89: 2
0: 5
1: 5
2: 5
3: 5
4: 5
5: 5
6: 5
7: 5
8: 5
9: 5
10: 5
11: 5
12: 5
13: 5
14: 5
15: 5
16: 5
17: 5
18: 5
19: 5
20: 5
21: 5
22: 5
23: 5
24: 5
25: 5
26: 5
27: 5
28: 5
29: 5
30: 5
31: 5
32: 5
33: 5
34: 5
35: 5
36: 5
37: 5
38: 5
39: 5
40: 5
41: 5
42: 5
43: 5
44: 5
45: 5
46: 5
47: 5
48: 5
49: 5
50: 5
51: 5
52: 5
53: 5
54: 5
55: 5
56: 5
57: 5
58: 5
59: 5
60: 5
61: 5
62: 5
63: 5
64: 5
65: 5
66: 5
67: 5
68: 5
69: 5
edge from: to
70: 0
70: 1
71: 3
72: 6
73: 12
74: 9
75: 18
76: 17
76: 21
77: 17
78: 24
78: 29
78: 30
79: 21
79: 34
80: 36
81: 31
81: 39
82: 42
82: 43
83: 29
83: 47
84: 41
84: 50
84: 51
85: 43
85: 54
86: 59
87: 61
87: 62
88: 11
88: 63
89: 40
2: 70
3: 70
4: 70
5: 71
6: 71
7: 71
8: 71
9: 71
10: 72
11: 72
12: 72
13: 73
14: 73
15: 74
16: 74
17: 74
18: 74
19: 75
20: 75
21: 75
22: 76
23: 76
24: 76
25: 76
26: 76
27: 76
28: 77
29: 77
30: 77
31: 78
32: 78
33: 78
34: 78
35: 79
36: 79
37: 80
38: 80
39: 80
40: 81
41: 81
42: 81
43: 81
44: 82
45: 82
46: 82
47: 82
48: 83
49: 83
50: 83
51: 83
52: 84
53: 84
54: 84
55: 85
56: 85
57: 85
58: 85
59: 85
60: 86
61: 86
62: 86
63: 87
64: 88
65: 88
66: 89
67: 89
68: 89
69: 89
segment: [18]
vertex id: label
70: 0
71: 3
72: 3
73: 2
74: 4
75: 4
76: 4
77: 2
78: 1
79: 0
80: 3
81: 3
82: 2
83: 4
84: 2
85: 4
86: 2
87: 4
88: 2
89: 4
0: 5
1: 5
2: 5
3: 5
4: 5
5: 5
6: 5
7: 5
8: 5
9: 5
10: 5
11: 5
12: 5
13: 5
14: 5
15: 5
16: 5
17: 5
18: 5
19: 5
20: 5
21: 5
22: 5
23: 5
24: 5
25: 5
26: 5
27: 5
28: 5
29: 5
30: 5
31: 5
32: 5
33: 5
34: 5
35: 5
36: 5
37: 5
38: 5
39: 5
40: 5
41: 5
42: 5
43: 5
44: 5
45: 5
46: 5
47: 5
48: 5
49: 5
50: 5
51: 5
52: 5
53: 5
54: 5
55: 5
56: 5
57: 5
58: 5
59: 5
60: 5
61: 5
62: 5
63: 5
64: 5
65: 5
66: 5
67: 5
68: 5
69: 5
edge from: to
70: 0
70: 1
71: 7
72: 10
72: 12
73: 12
73: 15
74: 12
75: 10
75: 18
75: 22
76: 23
77: 20
77: 25
78: 28
79: 16
79: 29
79: 36
80: 39
81: 26
81: 42
82: 33
82: 42
82: 43
83: 31
83: 40
83: 50
84: 43
84: 52
84: 53
84: 54
85: 56
86: 47
86: 59
87: 11
87: 62
87: 63
88: 65
88: 66
89: 30
89: 68
2: 70
3: 70
4: 70
5: 70
6: 70
7: 70
8: 71
9: 71
10: 71
11: 71
12: 71
13: 72
14: 72
15: 72
16: 73
17: 73
18: 73
19: 73
20: 74
21: 74
22: 74
23: 75
24: 76
25: 76
26: 77
27: 77
28: 77
29: 78
30: 78
31: 78
32: 78
33: 78
34: 78
35: 78
36: 78
37: 79
38: 79
39: 79
40: 80
41: 80
42: 80
43: 81
44: 82
45: 82
46: 82
47: 82
48: 82
49: 82
50: 82
51: 83
52: 83
53: 83
54: 83
55: 84
56: 84
57: 85
58: 85
59: 85
60: 86
61: 86
62: 86
63: 86
64: 87
65: 87
66: 87
67: 88
68: 88
69: 89
segment: [19]
vertex id: label
62: 0
63: 3
64: 2
65: 4
66: 2
67: 4
68: 4
69: 4
70: 2
71: 4
72: 4
73: 4
74: 4
75: 2
76: 4
77: 2
78: 4
79: 4
80: 4
81: 4
0: 5
1: 5
2: 5
3: 5
4: 5
5: 5
6: 5
7: 5
8: 5
9: 5
10: 5
11: 5
12: 5
13: 5
14: 5
15: 5
16: 5
17: 5
18: 5
19: 5
20: 5
21: 5
22: 5
23: 5
24: 5
25: 5
26: 5
27: 5
28: 5
29: 5
30: 5
31: 5
32: 5
33: 5
34: 5
35: 5
36: 5
37: 5
38: 5
39: 5
40: 5
41: 5
42: 5
43: 5
44: 5
45: 5
46: 5
47: 5
48: 5
49: 5
50: 5
51: 5
52: 5
53: 5
54: 5
55: 5
56: 5
57: 5
58: 5
59: 5
60: 5
61: 5
edge from: to
62: 0
63: 1
63: 2
64: 5
65: 6
65: 7
66: 4
66: 8
66: 9
66: 10
67: 10
67: 12
68: 18
69: 12
69: 19
70: 22
71: 18
72: 5
72: 28
72: 34
72: 35
73: 38
74: 26
75: 35
75: 44
76: 29
77: 39
77: 49
78: 23
78: 32
78: 52
79: 23
79: 52
79: 53
80: 57
81: 37
81: 60
1: 62
2: 62
3: 63
4: 63
5: 63
6: 64
7: 64
8: 65
9: 65
10: 65
11: 66
12: 66
13: 67
14: 67
15: 67
16: 67
17: 67
18: 67
19: 68
20: 69
21: 69
22: 69
23: 70
24: 70
25: 70
26: 70
27: 70
28: 70
29: 70
30: 71
31: 71
32: 71
33: 71
34: 71
35: 71
36: 72
37: 72
38: 72
39: 73
40: 73
41: 73
42: 73
43: 74
44: 74
45: 75
46: 75
47: 75
48: 76
49: 76
50: 77
51: 77
52: 77
53: 78
54: 79
55: 79
56: 79
57: 79
58: 80
59: 80
60: 80
61: 81
segment: [20]
vertex id: label
59: 0
60: 3
61: 3
62: 3
63: 3
64: 3
65: 3
66: 3
67: 3
68: 2
69: 4
70: 4
71: 4
72: 4
73: 4
74: 4
75: 2
76: 4
77: 2
78: 4
0: 5
1: 5
2: 5
3: 5
4: 5
5: 5
6: 5
7: 5
8: 5
9: 5
10: 5
11: 5
12: 5
13: 5
14: 5
15: 5
16: 5
17: 5
18: 5
19: 5
20: 5
21: 5
22: 5
23: 5
24: 5
25: 5
26: 5
27: 5
28: 5
29: 5
30: 5
31: 5
32: 5
33: 5
34: 5
35: 5
36: 5
37: 5
38: 5
39: 5
40: 5
41: 5
42: 5
43: 5
44: 5
45: 5
46: 5
47: 5
48: 5
49: 5
50: 5
51: 5
52: 5
53: 5
54: 5
55: 5
56: 5
57: 5
58: 5
edge from: to
59: 0
59: 1
60: 2
61: 5
62: 1
62: 3
62: 6
62: 7
63: 6
63: 9
64: 10
64: 12
65: 12
65: 15
66: 7
66: 15
66: 18
67: 10
67: 18
67: 22
68: 23
69: 28
70: 18
71: 21
71: 34
72: 35
73: 36
74: 32
74: 40
75: 44
76: 29
76: 47
77: 7
77: 39
77: 47
77: 48
77: 49
78: 43
78: 54
2: 59
3: 59
4: 60
5: 60
6: 61
7: 61
8: 62
9: 62
10: 63
11: 63
12: 63
13: 64
14: 64
15: 64
16: 65
17: 65
18: 65
19: 66
20: 66
21: 66
22: 66
23: 67
24: 68
25: 68
26: 68
27: 68
28: 68
29: 69
30: 70
31: 70
32: 70
33: 70
34: 70
35: 71
36: 72
37: 73
38: 73
39: 73
40: 73
41: 74
42: 74
43: 74
44: 74
45: 75
46: 75
47: 75
48: 76
49: 76
50: 77
51: 77
52: 77
53: 77
54: 77
55: 78
56: 78
57: 78
58: 78
segment: [21]
vertex id: label
61: 0
62: 0
63: 3
64: 3
65: 3
66: 3
67: 3
68: 3
69: 2
70: 4
71: 2
72: 4
73: 2
74: 4
75: 4
76: 4
77: 2
78: 4
79: 4
80: 2
0: 5
1: 5
2: 5
3: 5
4: 5
5: 5
6: 5
7: 5
8: 5
9: 5
10: 5
11: 5
12: 5
13: 5
14: 5
15: 5
16: 5
17: 5
18: 5
19: 5
20: 5
21: 5
22: 5
23: 5
24: 5
25: 5
26: 5
27: 5
28: 5
29: 5
30: 5
31: 5
32: 5
33: 5
34: 5
35: 5
36: 5
37: 5
38: 5
39: 5
40: 5
41: 5
42: 5
43: 5
44: 5
45: 5
46: 5
47: 5
48: 5
49: 5
50: 5
51: 5
52: 5
53: 5
54: 5
55: 5
56: 5
57: 5
58: 5
59: 5
60: 5
edge from: to
61: 0
62: 0
62: 1
63: 3
64: 6
64: 7
65: 4
65: 8
65: 10
66: 13
67: 12
67: 15
67: 19
68: 10
68: 18
68: 22
69: 20
69: 25
70: 21
70: 26
71: 17
72: 28
73: 3
73: 32
73: 33
74: 23
74: 37
75: 7
75: 32
75: 40
76: 20
76: 36
76: 45
77: 46
78: 48
79: 34
79: 55
80: 57
1: 61
2: 62
3: 62
4: 62
5: 63
6: 63
7: 63
8: 64
9: 64
10: 64
11: 65
12: 65
13: 65
14: 66
15: 66
16: 66
17: 66
18: 66
19: 66
20: 67
21: 67
22: 67
23: 68
24: 68
25: 68
26: 69
27: 70
28: 71
29: 72
30: 72
31: 72
32: 72
33: 72
34: 73
35: 73
36: 73
37: 73
38: 74
39: 74
40: 74
41: 75
42: 75
43: 75
44: 75
45: 75
46: 76
47: 77
48: 77
49: 78
50: 78
51: 78
52: 78
53: 78
54: 78
55: 78
56: 79
57: 79
58: 80
59: 80
60: 80
segment: [22]
vertex id: label
63: 0
64: 3
65: 3
66: 0
67: 3
68: 3
69: 3
70: 3
71: 3
72: 0
73: 3
74: 2
75: 4
76: 4
77: 4
78: 2
79: 4
80: 4
81: 4
82: 2
0: 5
1: 5
2: 5
3: 5
4: 5
5: 5
6: 5
7: 5
8: 5
9: 5
10: 5
11: 5
12: 5
13: 5
14: 5
15: 5
16: 5
17: 5
18: 5
19: 5
20: 5
21: 5
22: 5
23: 5
24: 5
25: 5
26: 5
27: 5
28: 5
29: 5
30: 5
31: 5
32: 5
33: 5
34: 5
35: 5
36: 5
37: 5
38: 5
39: 5
40: 5
41: 5
42: 5
43: 5
44: 5
45: 5
46: 5
47: 5
48: 5
49: 5
50: 5
51: 5
52: 5
53: 5
54: 5
55: 5
56: 5
57: 5
58: 5
59: 5
60: 5
61: 5
62: 5
edge from: to
63: 0
64: 2
64: 3
65: 1
65: 3
65: 5
65: 6
65: 7
66: 6
66: 7
66: 9
67: 9
68: 15
68: 18
69: 9
69: 20
70: 10
70: 18
70: 21
70: 22
71: 26
72: 17
73: 31
74: 20
75: 35
76: 17
76: 29
76: 37
76: 38
77: 32
77: 40
78: 46
79: 41
79: 51
80: 23
80: 51
80: 52
80: 53
81: 57
81: 58
82: 37
1: 63
2: 63
3: 63
4: 63
5: 64
6: 64
7: 64
8: 65
9: 65
10: 66
11: 66
12: 66
13: 66
14: 66
15: 67
16: 67
17: 67
18: 67
19: 68
20: 68
21: 69
22: 69
23: 70
24: 70
25: 70
26: 70
27: 71
28: 72
29: 72
30: 72
31: 72
32: 73
33: 74
34: 74
35: 74
36: 75
37: 75
38: 75
39: 76
40: 76
41: 77
42: 77
43: 77
44: 77
45: 77
46: 77
47: 78
48: 78
49: 78
50: 78
51: 78
52: 79
53: 79
54: 80
55: 80
56: 80
57: 80
58: 80
59: 81
60: 81
61: 82
62: 82
segment: [23]
vertex id: label
63: 0
64: 4
65: 2
66: 4
67: 4
68: 2
69: 4
70: 2
71: 4
72: 4
73: 4
74: 2
75: 4
76: 4
77: 4
78: 4
79: 2
80: 4
81: 4
82: 2
0: 5
1: 5
2: 5
3: 5
4: 5
5: 5
6: 5
7: 5
8: 5
9: 5
10: 5
11: 5
12: 5
13: 5
14: 5
15: 5
16: 5
17: 5
18: 5
19: 5
20: 5
21: 5
22: 5
23: 5
24: 5
25: 5
26: 5
27: 5
28: 5
29: 5
30: 5
31: 5
32: 5
33: 5
34: 5
35: 5
36: 5
37: 5
38: 5
39: 5
40: 5
41: 5
42: 5
43: 5
44: 5
45: 5
46: 5
47: 5
48: 5
49: 5
50: 5
51: 5
52: 5
53: 5
54: 5
55: 5
56: 5
57: 5
58: 5
59: 5
60: 5
61: 5
62: 5
edge from: to
63: 0
63: 1
63: 2
63: 3
63: 4
63: 5
64: 3
64: 4
65: 10
66: 12
67: 12
67: 15
68: 10
68: 13
68: 16
69: 20
70: 22
71: 25
72: 13
72: 18
73: 20
73: 32
74: 21
74: 27
74: 34
75: 36
76: 43
77: 37
77: 46
78: 39
78: 49
79: 31
80: 53
81: 56
81: 57
82: 59
6: 63
7: 64
8: 64
9: 64
10: 64
11: 65
12: 65
13: 66
14: 66
15: 66
16: 67
17: 68
18: 68
19: 68
20: 68
21: 69
22: 69
23: 70
24: 70
25: 70
26: 71
27: 71
28: 71
29: 71
30: 72
31: 72
32: 72
33: 73
34: 73
35: 74
36: 74
37: 75
38: 75
39: 75
40: 75
41: 75
42: 75
43: 75
44: 76
45: 76
46: 76
47: 77
48: 77
49: 77
50: 78
51: 79
52: 79
53: 79
54: 80
55: 80
56: 80
57: 80
58: 81
59: 81
60: 82
61: 82
62: 82
segment: [24]
vertex id: label
64: 0
65: 0
66: 3
67: 2
68: 4
69: 2
70: 4
71: 2
72: 4
73: 4
74: 4
75: 4
76: 2
77: 4
78: 2
79: 4
80: 4
81: 2
82: 4
83: 2
0: 5
1: 5
2: 5
3: 5
4: 5
5: 5
6: 5
7: 5
8: 5
9: 5
10: 5
11: 5
12: 5
13: 5
14: 5
15: 5
16: 5
17: 5
18: 5
19: 5
20: 5
21: 5
22: 5
23: 5
24: 5
25: 5
26: 5
27: 5
28: 5
29: 5
30: 5
31: 5
32: 5
33: 5
34: 5
35: 5
36: 5
37: 5
38: 5
39: 5
40: 5
41: 5
42: 5
43: 5
44: 5
45: 5
46: 5
47: 5
48: 5
49: 5
50: 5
51: 5
52: 5
53: 5
54: 5
55: 5
56: 5
57: 5
58: 5
59: 5
60: 5
61: 5
62: 5
63: 5
edge from: to
64: 0
64: 1
65: 3
66: 7
67: 6
67: 9
68: 10
69: 12
69: 19
70: 4
70: 23
71: 21
71: 26
72: 24
72: 30
73: 20
73: 32
74: 28
74: 35
75: 23
75: 37
76: 26
76: 41
76: 42
77: 35
77: 44
78: 8
78: 20
78: 37
78: 46
79: 31
79: 50
80: 54
81: 34
81: 55
82: 55
82: 56
82: 57
83: 37
83: 60
2: 64
3: 64
4: 64
5: 65
6: 65
7: 65
8: 66
9: 66
10: 67
11: 67
12: 67
13: 67
14: 67
15: 67
16: 67
17: 68
18: 68
19: 68
20: 69
21: 69
22: 69
23: 69
24: 70
25: 70
26: 70
27: 71
28: 71
29: 71
30: 71
31: 72
32: 72
33: 73
34: 73
35: 73
36: 74
37: 74
38: 75
39: 75
40: 75
41: 75
42: 75
43: 76
44: 76
45: 77
46: 77
47: 78
48: 78
49: 78
50: 78
51: 79
52: 79
53: 79
54: 79
55: 80
56: 81
57: 81
58: 82
59: 82
60: 82
61: 83
62: 83
63: 83
segment: [25]
vertex id: label
60: 0
61: 0
62: 3
63: 2
64: 4
65: 4
66: 2
67: 4
68: 2
69: 4
70: 2
71: 4
72: 2
73: 4
74: 4
75: 2
76: 4
77: 4
78: 2
79: 4
0: 5
1: 5
2: 5
3: 5
4: 5
5: 5
6: 5
7: 5
8: 5
9: 5
10: 5
11: 5
12: 5
13: 5
14: 5
15: 5
16: 5
17: 5
18: 5
19: 5
20: 5
21: 5
22: 5
23: 5
24: 5
25: 5
26: 5
27: 5
28: 5
29: 5
30: 5
31: 5
32: 5
33: 5
34: 5
35: 5
36: 5
37: 5
38: 5
39: 5
40: 5
41: 5
42: 5
43: 5
44: 5
45: 5
46: 5
47: 5
48: 5
49: 5
50: 5
51: 5
52: 5
53: 5
54: 5
55: 5
56: 5
57: 5
58: 5
59: 5
edge from: to
60: 0
60: 1
60: 2
61: 2
61: 3
62: 1
62: 3
62: 4
62: 5
62: 6
63: 6
63: 7
64: 6
64: 13
65: 10
65: 16
66: 17
66: 21
67: 4
67: 18
67: 22
67: 23
68: 26
69: 27
69: 28
70: 24
70: 29
70: 30
71: 20
72: 16
72: 29
72: 35
72: 36
73: 39
74: 43
75: 37
75: 46
76: 49
77: 41
77: 51
78: 53
79: 57
3: 60
4: 60
5: 61
6: 61
7: 62
8: 63
9: 63
10: 63
11: 63
12: 63
13: 63
14: 64
15: 64
16: 64
17: 65
18: 65
19: 65
20: 65
21: 65
22: 66
23: 66
24: 67
25: 67
26: 67
27: 68
28: 68
29: 69
30: 69
31: 70
32: 70
33: 71
34: 71
35: 71
36: 71
37: 72
38: 72
39: 72
40: 73
41: 73
42: 73
43: 73
44: 74
45: 74
46: 74
47: 75
48: 75
49: 75
50: 76
51: 76
52: 77
53: 77
54: 78
55: 78
56: 78
57: 78
58: 79
59: 79
segment: [26]
vertex id: label
69: 0
70: 3
71: 3
72: 2
73: 4
74: 4
75: 2
76: 4
77: 4
78: 4
79: 2
80: 4
81: 4
82: 2
83: 4
84: 4
85: 4
86: 2
87: 4
88: 2
0: 5
1: 5
2: 5
3: 5
4: 5
5: 5
6: 5
7: 5
8: 5
9: 5
10: 5
11: 5
12: 5
13: 5
14: 5
15: 5
16: 5
17: 5
18: 5
19: 5
20: 5
21: 5
22: 5
23: 5
24: 5
25: 5
26: 5
27: 5
28: 5
29: 5
30: 5
31: 5
32: 5
33: 5
34: 5
35: 5
36: 5
37: 5
38: 5
39: 5
40: 5
41: 5
42: 5
43: 5
44: 5
45: 5
46: 5
47: 5
48: 5
49: 5
50: 5
51: 5
52: 5
53: 5
54: 5
55: 5
56: 5
57: 5
58: 5
59: 5
60: 5
61: 5
62: 5
63: 5
64: 5
65: 5
66: 5
67: 5
68: 5
edge from: to
69: 0
70: 1
71: 2
72: 3
73: 6
73: 7
74: 10
75: 10
75: 12
76: 17
77: 20
78: 4
78: 23
79: 13
79: 18
79: 23
80: 28
80: 34
80: 35
81: 17
81: 38
82: 33
82: 40
82: 41
83: 35
83: 44
84: 46
84: 47
84: 48
85: 23
85: 32
86: 58
87: 59
88: 63
1: 69
2: 70
3: 70
4: 71
5: 72
6: 72
7: 72
8: 73
9: 73
10: 73
11: 74
12: 74
13: 75
14: 75
15: 75
16: 75
17: 75
18: 76
19: 76
20: 76
21: 77
22: 77
23: 77
24: 78
25: 78
26: 78
27: 78
28: 78
29: 78
30: 79
31: 79
32: 79
33: 79
34: 79
35: 79
36: 80
37: 80
38: 80
39: 81
40: 81
41: 81
42: 82
43: 82
44: 82
45: 83
46: 83
47: 83
48: 83
49: 84
50: 84
51: 84
52: 84
53: 85
54: 85
55: 85
56: 85
57: 85
58: 85
59: 86
60: 87
61: 87
62: 87
63: 87
64: 88
65: 88
66: 88
67: 88
68: 88
segment: [27]
vertex id: label
57: 0
58: 0
59: 3
60: 3
61: 3
62: 0
63: 3
64: 2
65: 4
66: 4
67: 4
68: 4
69: 2
70: 4
71: 2
72: 4
73: 4
74: 2
75: 4
76: 2
0: 5
1: 5
2: 5
3: 5
4: 5
5: 5
6: 5
7: 5
8: 5
9: 5
10: 5
11: 5
12: 5
13: 5
14: 5
15: 5
16: 5
17: 5
18: 5
19: 5
20: 5
21: 5
22: 5
23: 5
24: 5
25: 5
26: 5
27: 5
28: 5
29: 5
30: 5
31: 5
32: 5
33: 5
34: 5
35: 5
36: 5
37: 5
38: 5
39: 5
40: 5
41: 5
42: 5
43: 5
44: 5
45: 5
46: 5
47: 5
48: 5
49: 5
50: 5
51: 5
52: 5
53: 5
54: 5
55: 5
56: 5
edge from: to
57: 0
57: 1
57: 2
58: 5
58: 8
59: 6
60: 10
60: 12
61: 15
62: 15
62: 18
63: 22
64: 23
65: 15
65: 24
66: 21
66: 26
67: 4
67: 24
67: 27
67: 28
68: 30
69: 20
69: 32
70: 16
70: 29
70: 35
70: 36
71: 39
72: 42
72: 43
73: 35
73: 44
74: 29
74: 46
74: 47
75: 31
75: 40
75: 50
76: 43
76: 54
3: 57
4: 57
5: 57
6: 57
7: 57
8: 57
9: 58
10: 59
11: 59
12: 59
13: 60
14: 60
15: 60
16: 61
17: 61
18: 61
19: 62
20: 62
21: 62
22: 62
23: 63
24: 64
25: 65
26: 65
27: 66
28: 66
29: 67
30: 67
31: 68
32: 68
33: 69
34: 69
35: 69
36: 69
37: 70
38: 70
39: 70
40: 71
41: 71
42: 71
43: 71
44: 72
45: 73
46: 73
47: 73
48: 74
49: 74
50: 74
51: 75
52: 75
53: 75
54: 75
55: 76
56: 76
segment: [28]
vertex id: label
66: 0
67: 3
68: 2
69: 4
70: 4
71: 4
72: 2
73: 4
74: 2
75: 4
76: 4
77: 4
78: 2
79: 4
80: 2
81: 4
82: 2
83: 4
84: 2
85: 4
0: 5
1: 5
2: 5
3: 5
4: 5
5: 5
6: 5
7: 5
8: 5
9: 5
10: 5
11: 5
12: 5
13: 5
14: 5
15: 5
16: 5
17: 5
18: 5
19: 5
20: 5
21: 5
22: 5
23: 5
24: 5
25: 5
26: 5
27: 5
28: 5
29: 5
30: 5
31: 5
32: 5
33: 5
34: 5
35: 5
36: 5
37: 5
38: 5
39: 5
40: 5
41: 5
42: 5
43: 5
44: 5
45: 5
46: 5
47: 5
48: 5
49: 5
50: 5
51: 5
52: 5
53: 5
54: 5
55: 5
56: 5
57: 5
58: 5
59: 5
60: 5
61: 5
62: 5
63: 5
64: 5
65: 5
edge from: to
66: 0
66: 1
67: 2
68: 2
68: 3
69: 3
69: 4
70: 6
70: 7
71: 5
71: 7
72: 15
73: 12
74: 10
74: 22
75: 20
75: 24
75: 25
76: 17
76: 27
77: 31
78: 36
79: 17
79: 29
79: 37
79: 38
80: 40
81: 20
81: 45
82: 31
82: 50
83: 34
83: 55
84: 57
84: 58
85: 37
85: 60
2: 66
3: 67
4: 67
5: 68
6: 68
7: 69
8: 70
9: 70
10: 70
11: 70
12: 71
13: 71
14: 71
15: 71
16: 72
17: 72
18: 72
19: 72
20: 73
21: 73
22: 73
23: 74
24: 74
25: 74
26: 75
27: 75
28: 76
29: 76
30: 76
31: 76
32: 77
33: 77
34: 77
35: 77
36: 77
37: 78
38: 78
39: 79
40: 79
41: 80
42: 80
43: 80
44: 80
45: 80
46: 81
47: 81
48: 81
49: 81
50: 81
51: 82
52: 82
53: 82
54: 82
55: 82
56: 83
57: 83
58: 83
59: 84
60: 84
61: 85
62: 85
63: 85
64: 85
65: 85
segment: [29]
vertex id: label
64: 0
65: 3
66: 2
67: 4
68: 4
69: 2
70: 4
71: 4
72: 4
73: 4
74: 2
75: 4
76: 4
77: 4
78: 2
79: 4
80: 2
81: 4
82: 2
83: 4
0: 5
1: 5
2: 5
3: 5
4: 5
5: 5
6: 5
7: 5
8: 5
9: 5
10: 5
11: 5
12: 5
13: 5
14: 5
15: 5
16: 5
17: 5
18: 5
19: 5
20: 5
21: 5
22: 5
23: 5
24: 5
25: 5
26: 5
27: 5
28: 5
29: 5
30: 5
31: 5
32: 5
33: 5
34: 5
35: 5
36: 5
37: 5
38: 5
39: 5
40: 5
41: 5
42: 5
43: 5
44: 5
45: 5
46: 5
47: 5
48: 5
49: 5
50: 5
51: 5
52: 5
53: 5
54: 5
55: 5
56: 5
57: 5
58: 5
59: 5
60: 5
61: 5
62: 5
63: 5
edge from: to
64: 0
64: 1
65: 2
66: 5
67: 8
67: 10
68: 13
69: 10
70: 17
70: 21
71: 15
71: 24
72: 28
73: 23
73: 24
73: 26
73: 29
73: 30
74: 20
74: 32
75: 21
76: 23
76: 30
76: 37
77: 38
78: 7
78: 32
78: 40
79: 44
80: 48
81: 41
81: 51
82: 52
82: 53
83: 56
83: 57
2: 64
3: 64
4: 65
5: 65
6: 65
7: 65
8: 65
9: 66
10: 66
11: 67
12: 67
13: 67
14: 68
15: 68
16: 68
17: 69
18: 69
19: 69
20: 69
21: 69
22: 70
23: 70
24: 70
25: 71
26: 71
27: 71
28: 71
29: 72
30: 72
31: 73
32: 73
33: 74
34: 74
35: 75
36: 75
37: 75
38: 76
39: 77
40: 77
41: 78
42: 78
43: 78
44: 78
45: 79
46: 79
47: 79
48: 79
49: 80
50: 80
51: 80
52: 81
53: 81
54: 82
55: 82
56: 82
57: 82
58: 83
59: 83
60: 83
61: 83
62: 83
63: 83
segment: [30]
vertex id: label
57: 0
58: 3
59: 3
60: 2
61: 4
62: 2
63: 4
64: 4
65: 4
66: 3
67: 2
68: 4
69: 2
70: 4
71: 2
72: 4
73: 4
74: 2
75: 4
76: 4
0: 5
1: 5
2: 5
3: 5
4: 5
5: 5
6: 5
7: 5
8: 5
9: 5
10: 5
11: 5
12: 5
13: 5
14: 5
15: 5
16: 5
17: 5
18: 5
19: 5
20: 5
21: 5
22: 5
23: 5
24: 5
25: 5
26: 5
27: 5
28: 5
29: 5
30: 5
31: 5
32: 5
33: 5
34: 5
35: 5
36: 5
37: 5
38: 5
39: 5
40: 5
41: 5
42: 5
43: 5
44: 5
45: 5
46: 5
47: 5
48: 5
49: 5
50: 5
51: 5
52: 5
53: 5
54: 5
55: 5
56: 5
edge from: to
57: 0
57: 1
57: 2
58: 3
59: 5
59: 8
60: 7
61: 13
62: 12
62: 13
62: 14
62: 15
63: 10
63: 13
63: 15
63: 16
64: 18
65: 9
65: 20
66: 21
66: 26
67: 25
67: 31
68: 28
68: 35
69: 36
70: 17
70: 38
71: 40
72: 25
72: 33
72: 40
72: 41
73: 35
73: 44
74: 29
74: 47
75: 41
75: 51
76: 23
76: 32
76: 52
3: 57
4: 57
5: 58
6: 58
7: 58
8: 58
9: 59
10: 59
11: 59
12: 60
13: 60
14: 61
15: 61
16: 62
17: 63
18: 63
19: 64
20: 64
21: 65
22: 65
23: 65
24: 65
25: 65
26: 65
27: 66
28: 66
29: 66
30: 66
31: 66
32: 67
33: 67
34: 67
35: 67
36: 68
37: 69
38: 69
39: 70
40: 70
41: 71
42: 72
43: 72
44: 72
45: 73
46: 73
47: 73
48: 74
49: 74
50: 74
51: 74
52: 75
53: 76
54: 76
55: 76
56: 76
segment: [31]
vertex id: label
69: 0
70: 0
71: 0
72: 3
73: 3
74: 3
75: 2
76: 4
77: 2
78: 4
79: 4
80: 2
81: 4
82: 2
83: 4
84: 2
85: 4
86: 4
87: 4
88: 2
0: 5
1: 5
2: 5
3: 5
4: 5
5: 5
6: 5
7: 5
8: 5
9: 5
10: 5
11: 5
12: 5
13: 5
14: 5
15: 5
16: 5
17: 5
18: 5
19: 5
20: 5
21: 5
22: 5
23: 5
24: 5
25: 5
26: 5
27: 5
28: 5
29: 5
30: 5
31: 5
32: 5
33: 5
34: 5
35: 5
36: 5
37: 5
38: 5
39: 5
40: 5
41: 5
42: 5
43: 5
44: 5
45: 5
46: 5
47: 5
48: 5
49: 5
50: 5
51: 5
52: 5
53: 5
54: 5
55: 5
56: 5
57: 5
58: 5
59: 5
60: 5
61: 5
62: 5
63: 5
64: 5
65: 5
66: 5
67: 5
68: 5
edge from: to
69: 0
69: 1
70: 0
70: 1
70: 2
71: 1
71: 2
71: 3
71: 4
71: 5
71: 6
72: 6
72: 7
72: 9
73: 9
73: 11
73: 14
74: 12
74: 14
74: 15
75: 12
75: 19
76: 23
77: 20
77: 24
77: 25
78: 17
78: 22
78: 27
79: 32
79: 33
80: 36
81: 17
81: 29
81: 36
81: 37
81: 38
82: 25
82: 33
82: 39
82: 40
82: 41
83: 20
83: 36
83: 45
84: 41
84: 51
85: 54
86: 22
86: 57
86: 58
87: 61
87: 62
88: 67
2: 69
3: 70
4: 70
5: 70
6: 70
7: 71
8: 71
9: 71
10: 72
11: 72
12: 72
13: 72
14: 72
15: 73
16: 74
17: 74
18: 74
19: 74
20: 75
21: 75
22: 75
23: 75
24: 76
25: 76
26: 77
27: 77
28: 78
29: 78
30: 78
31: 78
32: 78
33: 78
34: 79
35: 79
36: 79
37: 80
38: 80
39: 81
40: 81
41: 81
42: 82
43: 82
44: 82
45: 82
46: 83
47: 83
48: 83
49: 83
50: 83
51: 83
52: 84
53: 84
54: 84
55: 85
56: 85
57: 85
58: 85
59: 86
60: 86
61: 86
62: 86
63: 87
64: 87
65: 87
66: 87
67: 87
68: 88
segment: [32]
vertex id: label
58: 0
59: 3
60: 3
61: 3
62: 3
63: 3
64: 3
65: 3
66: 3
67: 3
68: 3
69: 3
70: 2
71: 4
72: 4
73: 4
74: 2
75: 1
76: 0
77: 0
0: 5
1: 5
2: 5
3: 5
4: 5
5: 5
6: 5
7: 5
8: 5
9: 5
10: 5
11: 5
12: 5
13: 5
14: 5
15: 5
16: 5
17: 5
18: 5
19: 5
20: 5
21: 5
22: 5
23: 5
24: 5
25: 5
26: 5
27: 5
28: 5
29: 5
30: 5
31: 5
32: 5
33: 5
34: 5
35: 5
36: 5
37: 5
38: 5
39: 5
40: 5
41: 5
42: 5
43: 5
44: 5
45: 5
46: 5
47: 5
48: 5
49: 5
50: 5
51: 5
52: 5
53: 5
54: 5
55: 5
56: 5
57: 5
edge from: to
58: 0
59: 3
59: 4
59: 5
60: 7
61: 5
62: 4
62: 8
62: 10
63: 15
64: 18
65: 9
65: 20
66: 22
67: 20
67: 24
67: 25
68: 13
68: 18
68: 23
69: 21
69: 27
69: 34
70: 23
70: 37
71: 31
71: 38
71: 39
72: 41
73: 42
73: 43
74: 8
74: 37
74: 46
75: 49
76: 52
76: 53
77: 34
77: 44
77: 54
77: 55
1: 58
2: 58
3: 58
4: 58
5: 58
6: 58
7: 59
8: 60
9: 61
10: 61
11: 62
12: 62
13: 62
14: 62
15: 62
16: 63
17: 63
18: 63
19: 64
20: 64
21: 65
22: 65
23: 66
24: 66
25: 66
26: 67
27: 67
28: 67
29: 67
30: 68
31: 68
32: 68
33: 68
34: 68
35: 69
36: 69
37: 69
38: 70
39: 70
40: 71
41: 71
42: 72
43: 72
44: 73
45: 73
46: 73
47: 74
48: 74
49: 74
50: 75
51: 75
52: 75
53: 75
54: 76
55: 76
56: 77
57: 77
segment: [33]
vertex id: label
60: 0
61: 3
62: 3
63: 3
64: 3
65: 3
66: 3
67: 3
68: 3
69: 3
70: 2
71: 4
72: 4
73: 2
74: 4
75: 2
76: 4
77: 2
78: 4
79: 2
0: 5
1: 5
2: 5
3: 5
4: 5
5: 5
6: 5
7: 5
8: 5
9: 5
10: 5
11: 5
12: 5
13: 5
14: 5
15: 5
16: 5
17: 5
18: 5
19: 5
20: 5
21: 5
22: 5
23: 5
24: 5
25: 5
26: 5
27: 5
28: 5
29: 5
30: 5
31: 5
32: 5
33: 5
34: 5
35: 5
36: 5
37: 5
38: 5
39: 5
40: 5
41: 5
42: 5
43: 5
44: 5
45: 5
46: 5
47: 5
48: 5
49: 5
50: 5
51: 5
52: 5
53: 5
54: 5
55: 5
56: 5
57: 5
58: 5
59: 5
edge from: to
60: 0
60: 1
61: 2
61: 3
62: 6
62: 9
63: 8
63: 10
64: 7
65: 13
66: 9
67: 14
67: 17
68: 20
69: 25
70: 21
70: 25
70: 26
71: 17
71: 22
71: 26
71: 27
72: 30
73: 16
73: 36
74: 38
75: 33
75: 41
76: 8
76: 37
76: 46
77: 47
77: 48
78: 53
79: 57
2: 60
3: 60
4: 61
5: 61
6: 61
7: 61
8: 61
9: 61
10: 62
11: 63
12: 64
13: 64
14: 65
15: 66
16: 66
17: 66
18: 67
19: 67
20: 67
21: 68
22: 68
23: 68
24: 68
25: 68
26: 69
27: 70
28: 71
29: 71
30: 71
31: 72
32: 72
33: 72
34: 72
35: 72
36: 72
37: 73
38: 73
39: 74
40: 74
41: 74
42: 75
43: 75
44: 75
45: 75
46: 75
47: 76
48: 76
49: 77
50: 77
51: 77
52: 77
53: 77
54: 78
55: 78
56: 78
57: 78
58: 79
59: 79
segment: [34]
vertex id: label
57: 0
58: 3
59: 3
60: 3
61: 3
62: 3
63: 2
64: 1
65: 0
66: 3
67: 3
68: 2
69: 4
70: 4
71: 4
72: 4
73: 2
74: 4
75: 4
76: 2
0: 5
1: 5
2: 5
3: 5
4: 5
5: 5
6: 5
7: 5
8: 5
9: 5
10: 5
11: 5
12: 5
13: 5
14: 5
15: 5
16: 5
17: 5
18: 5
19: 5
20: 5
21: 5
22: 5
23: 5
24: 5
25: 5
26: 5
27: 5
28: 5
29: 5
30: 5
31: 5
32: 5
33: 5
34: 5
35: 5
36: 5
37: 5
38: 5
39: 5
40: 5
41: 5
42: 5
43: 5
44: 5
45: 5
46: 5
47: 5
48: 5
49: 5
50: 5
51: 5
52: 5
53: 5
54: 5
55: 5
56: 5
edge from: to
57: 0
57: 1
58: 2
58: 3
58: 4
59: 7
60: 6
61: 13
62: 12
62: 15
63: 7
63: 15
63: 18
64: 21
65: 15
65: 24
66: 17
66: 27
67: 24
67: 30
68: 20
69: 21
69: 34
70: 36
71: 23
72: 40
73: 26
73: 42
74: 46
75: 31
75: 40
75: 49
75: 50
76: 23
76: 52
76: 53
2: 57
3: 57
4: 57
5: 58
6: 58
7: 58
8: 59
9: 59
10: 60
11: 60
12: 60
13: 60
14: 61
15: 61
16: 62
17: 62
18: 62
19: 63
20: 63
21: 63
22: 64
23: 64
24: 64
25: 65
26: 65
27: 65
28: 66
29: 66
30: 66
31: 67
32: 67
33: 68
34: 68
35: 69
36: 69
37: 70
38: 71
39: 71
40: 71
41: 72
42: 72
43: 73
44: 73
45: 73
46: 73
47: 74
48: 74
49: 74
50: 74
51: 75
52: 75
53: 75
54: 76
55: 76
56: 76
segment: [35]
vertex id: label
68: 0
69: 3
70: 3
71: 3
72: 3
73: 3
74: 2
75: 4
76: 4
77: 2
78: 4
79: 4
80: 4
81: 2
82: 4
83: 4
84: 2
85: 4
86: 2
87: 4
0: 5
1: 5
2: 5
3: 5
4: 5
5: 5
6: 5
7: 5
8: 5
9: 5
10: 5
11: 5
12: 5
13: 5
14: 5
15: 5
16: 5
17: 5
18: 5
19: 5
20: 5
21: 5
22: 5
23: 5
24: 5
25: 5
26: 5
27: 5
28: 5
29: 5
30: 5
31: 5
32: 5
33: 5
34: 5
35: 5
36: 5
37: 5
38: 5
39: 5
40: 5
41: 5
42: 5
43: 5
44: 5
45: 5
46: 5
47: 5
48: 5
49: 5
50: 5
51: 5
52: 5
53: 5
54: 5
55: 5
56: 5
57: 5
58: 5
59: 5
60: 5
61: 5
62: 5
63: 5
64: 5
65: 5
66: 5
67: 5
edge from: to
68: 0
68: 1
69: 2
70: 5
70: 8
71: 5
71: 7
72: 9
72: 14
73: 15
73: 18
74: 9
74: 16
74: 19
74: 20
75: 23
76: 21
76: 26
77: 24
77: 30
78: 20
78: 32
79: 16
79: 36
80: 23
80: 37
81: 43
82: 20
82: 45
83: 29
83: 47
84: 51
85: 53
86: 59
87: 61
87: 62
2: 68
3: 68
4: 69
5: 69
6: 69
7: 69
8: 69
9: 70
10: 70
11: 70
12: 71
13: 71
14: 71
15: 72
16: 72
17: 72
18: 72
19: 73
20: 73
21: 74
22: 74
23: 74
24: 75
25: 75
26: 75
27: 76
28: 76
29: 76
30: 76
31: 77
32: 77
33: 78
34: 78
35: 78
36: 78
37: 79
38: 80
39: 80
40: 80
41: 80
42: 80
43: 80
44: 81
45: 81
46: 82
47: 82
48: 83
49: 83
50: 83
51: 83
52: 84
53: 84
54: 85
55: 85
56: 85
57: 85
58: 85
59: 85
60: 86
61: 86
62: 86
63: 87
64: 87
65: 87
66: 87
67: 87
segment: [36]
vertex id: label
60: 0
61: 3
62: 2
63: 4
64: 2
65: 4
66: 4
67: 4
68: 4
69: 2
70: 1
71: 0
72: 3
73: 2
74: 4
75: 2
76: 4
77: 2
78: 4
79: 4
0: 5
1: 5
2: 5
3: 5
4: 5
5: 5
6: 5
7: 5
8: 5
9: 5
10: 5
11: 5
12: 5
13: 5
14: 5
15: 5
16: 5
17: 5
18: 5
19: 5
20: 5
21: 5
22: 5
23: 5
24: 5
25: 5
26: 5
27: 5
28: 5
29: 5
30: 5
31: 5
32: 5
33: 5
34: 5
35: 5
36: 5
37: 5
38: 5
39: 5
40: 5
41: 5
42: 5
43: 5
44: 5
45: 5
46: 5
47: 5
48: 5
49: 5
50: 5
51: 5
52: 5
53: 5
54: 5
55: 5
56: 5
57: 5
58: 5
59: 5
edge from: to
60: 0
60: 1
61: 2
61: 3
62: 4
62: 5
63: 8
63: 10
64: 5
64: 7
65: 10
66: 12
66: 15
66: 19
67: 21
68: 15
69: 18
70: 25
70: 31
71: 21
71: 27
71: 34
72: 17
72: 37
72: 38
73: 33
73: 41
74: 35
74: 44
75: 20
75: 36
75: 45
76: 29
77: 51
78: 34
79: 55
79: 56
79: 57
2: 60
3: 60
4: 60
5: 61
6: 62
7: 62
8: 62
9: 62
10: 62
11: 63
12: 64
13: 64
14: 64
15: 64
16: 64
17: 65
18: 65
19: 65
20: 66
21: 66
22: 67
23: 67
24: 67
25: 68
26: 68
27: 68
28: 68
29: 68
30: 69
31: 69
32: 70
33: 70
34: 70
35: 71
36: 71
37: 71
38: 71
39: 72
40: 72
41: 72
42: 73
43: 73
44: 73
45: 74
46: 75
47: 75
48: 76
49: 76
50: 76
51: 76
52: 77
53: 77
54: 77
55: 77
56: 78
57: 78
58: 79
59: 79
segment: [37]
vertex id: label
54: 0
55: 3
56: 2
57: 4
58: 4
59: 4
60: 4
61: 2
62: 4
63: 4
64: 4
65: 4
66: 2
67: 4
68: 4
69: 4
70: 2
71: 4
72: 2
73: 4
0: 5
1: 5
2: 5
3: 5
4: 5
5: 5
6: 5
7: 5
8: 5
9: 5
10: 5
11: 5
12: 5
13: 5
14: 5
15: 5
16: 5
17: 5
18: 5
19: 5
20: 5
21: 5
22: 5
23: 5
24: 5
25: 5
26: 5
27: 5
28: 5
29: 5
30: 5
31: 5
32: 5
33: 5
34: 5
35: 5
36: 5
37: 5
38: 5
39: 5
40: 5
41: 5
42: 5
43: 5
44: 5
45: 5
46: 5
47: 5
48: 5
49: 5
50: 5
51: 5
52: 5
53: 5
edge from: to
54: 0
54: 1
54: 2
55: 3
56: 3
56: 4
57: 8
57: 10
58: 5
58: 7
58: 9
59: 6
59: 13
60: 12
60: 15
61: 15
61: 18
62: 21
63: 28
64: 25
64: 30
64: 31
65: 21
65: 34
66: 28
66: 34
66: 35
67: 17
67: 38
68: 41
69: 26
70: 35
70: 43
70: 44
71: 29
71: 47
72: 7
72: 39
72: 48
72: 49
73: 51
3: 54
4: 54
5: 55
6: 55
7: 56
8: 56
9: 56
10: 56
11: 57
12: 58
13: 58
14: 59
15: 59
16: 60
17: 60
18: 60
19: 61
20: 61
21: 61
22: 62
23: 62
24: 62
25: 62
26: 62
27: 62
28: 62
29: 63
30: 63
31: 63
32: 64
33: 64
34: 64
35: 65
36: 66
37: 66
38: 66
39: 67
40: 67
41: 67
42: 68
43: 69
44: 69
45: 70
46: 70
47: 70
48: 71
49: 71
50: 72
51: 72
52: 73
53: 73
segment: [38]
vertex id: label
69: 0
70: 3
71: 2
72: 4
73: 4
74: 4
75: 4
76: 4
77: 4
78: 0
79: 3
80: 3
81: 3
82: 3
83: 3
84: 3
85: 3
86: 3
87: 3
88: 2
0: 5
1: 5
2: 5
3: 5
4: 5
5: 5
6: 5
7: 5
8: 5
9: 5
10: 5
11: 5
12: 5
13: 5
14: 5
15: 5
16: 5
17: 5
18: 5
19: 5
20: 5
21: 5
22: 5
23: 5
24: 5
25: 5
26: 5
27: 5
28: 5
29: 5
30: 5
31: 5
32: 5
33: 5
34: 5
35: 5
36: 5
37: 5
38: 5
39: 5
40: 5
41: 5
42: 5
43: 5
44: 5
45: 5
46: 5
47: 5
48: 5
49: 5
50: 5
51: 5
52: 5
53: 5
54: 5
55: 5
56: 5
57: 5
58: 5
59: 5
60: 5
61: 5
62: 5
63: 5
64: 5
65: 5
66: 5
67: 5
68: 5
edge from: to
69: 0
69: 1
70: 2
70: 3
70: 4
71: 5
71: 7
71: 8
72: 13
73: 10
73: 16
74: 3
74: 14
74: 17
75: 15
75: 24
76: 4
76: 27
76: 28
77: 24
77: 30
78: 33
79: 36
80: 17
80: 38
81: 32
81: 40
82: 26
82: 41
82: 42
83: 29
83: 36
83: 46
83: 47
84: 31
84: 40
84: 50
85: 32
86: 22
86: 57
86: 58
87: 59
88: 11
88: 62
88: 63
2: 69
3: 69
4: 69
5: 70
6: 70
7: 70
8: 70
9: 71
10: 71
11: 71
12: 71
13: 71
14: 72
15: 72
16: 72
17: 73
18: 74
19: 74
20: 74
21: 74
22: 74
23: 74
24: 74
25: 75
26: 75
27: 75
28: 75
29: 76
30: 76
31: 77
32: 77
33: 77
34: 78
35: 78
36: 78
37: 79
38: 79
39: 80
40: 80
41: 81
42: 81
43: 82
44: 82
45: 82
46: 82
47: 82
48: 83
49: 83
50: 83
51: 84
52: 84
53: 85
54: 85
55: 85
56: 85
57: 85
58: 85
59: 86
60: 87
61: 87
62: 87
63: 87
64: 88
65: 88
66: 88
67: 88
68: 88
segment: [39]
vertex id: label
65: 0
66: 0
67: 3
68: 3
69: 3
70: 3
71: 3
72: 3
73: 2
74: 4
75: 4
76: 2
77: 4
78: 4
79: 3
80: 3
81: 3
82: 0
83: 3
84: 3
0: 5
1: 5
2: 5
3: 5
4: 5
5: 5
6: 5
7: 5
8: 5
9: 5
10: 5
11: 5
12: 5
13: 5
14: 5
15: 5
16: 5
17: 5
18: 5
19: 5
20: 5
21: 5
22: 5
23: 5
24: 5
25: 5
26: 5
27: 5
28: 5
29: 5
30: 5
31: 5
32: 5
33: 5
34: 5
35: 5
36: 5
37: 5
38: 5
39: 5
40: 5
41: 5
42: 5
43: 5
44: 5
45: 5
46: 5
47: 5
48: 5
49: 5
50: 5
51: 5
52: 5
53: 5
54: 5
55: 5
56: 5
57: 5
58: 5
59: 5
60: 5
61: 5
62: 5
63: 5
64: 5
edge from: to
65: 0
66: 2
66: 3
66: 4
67: 1
67: 4
67: 5
68: 6
69: 5
69: 7
70: 6
70: 13
71: 14
71: 17
72: 21
73: 4
73: 18
73: 22
73: 23
74: 28
75: 19
75: 25
75: 30
75: 31
76: 21
76: 34
77: 17
77: 38
78: 33
78: 42
78: 43
79: 20
79: 36
79: 44
79: 45
80: 7
80: 39
80: 47
80: 48
80: 49
81: 41
81: 51
82: 32
83: 34
83: 55
84: 47
84: 59
1: 65
2: 65
3: 65
4: 65
5: 66
6: 67
7: 67
8: 67
9: 67
10: 68
11: 68
12: 69
13: 69
14: 70
15: 70
16: 70
17: 70
18: 71
19: 71
20: 71
21: 71
22: 72
23: 72
24: 73
25: 73
26: 73
27: 73
28: 73
29: 74
30: 74
31: 74
32: 75
33: 75
34: 75
35: 76
36: 76
37: 76
38: 76
39: 77
40: 77
41: 77
42: 77
43: 77
44: 78
45: 78
46: 79
47: 79
48: 79
49: 79
50: 80
51: 80
52: 81
53: 82
54: 82
55: 82
56: 83
57: 83
58: 83
59: 83
60: 84
61: 84
62: 84
63: 84
64: 84
