segment: [0]
vertex id: label
73: 0
74: 2
75: 3
76: 2
77: 3
78: 2
79: 3
80: 2
81: 3
82: 2
83: 3
84: 2
85: 3
86: 2
87: 3
88: 2
89: 3
90: 2
91: 3
92: 2
0: 5
1: 5
2: 5
3: 5
4: 5
5: 5
6: 5
7: 5
8: 5
9: 5
10: 5
11: 5
12: 5
13: 5
14: 5
15: 5
16: 5
17: 5
18: 5
19: 5
20: 5
21: 5
22: 5
23: 5
24: 5
25: 5
26: 5
27: 5
28: 5
29: 5
30: 5
31: 5
32: 5
33: 5
34: 5
35: 5
36: 5
37: 5
38: 5
39: 5
40: 5
41: 5
42: 5
43: 5
44: 5
45: 5
46: 5
47: 5
48: 5
49: 5
50: 5
51: 5
52: 5
53: 5
54: 5
55: 5
56: 5
57: 5
58: 5
59: 5
60: 5
61: 5
62: 5
63: 5
64: 5
65: 5
66: 5
67: 5
68: 5
69: 5
70: 5
71: 5
72: 5
edge from: to
73: 0
74: 4
75: 6
75: 7
76: 4
76: 12
77: 5
77: 15
78: 18
79: 21
79: 22
80: 24
80: 25
80: 27
81: 31
82: 33
83: 12
83: 37
83: 38
83: 39
84: 35
84: 38
84: 39
84: 40
85: 40
85: 41
86: 41
86: 42
86: 43
87: 44
88: 43
88: 45
88: 47
88: 48
88: 49
88: 50
89: 13
89: 55
89: 56
90: 60
91: 57
91: 63
91: 65
91: 66
92: 21
92: 68
1: 73
2: 73
3: 73
4: 73
5: 74
6: 74
7: 74
8: 75
9: 75
10: 75
11: 75
12: 75
13: 75
14: 76
15: 76
16: 76
17: 77
18: 77
19: 77
20: 78
21: 78
22: 78
23: 79
24: 79
25: 79
26: 79
27: 79
28: 80
29: 80
30: 80
31: 80
32: 80
33: 81
34: 81
35: 82
36: 82
37: 82
38: 82
39: 82
40: 83
41: 84
42: 85
43: 85
44: 86
45: 86
46: 87
47: 87
48: 87
49: 87
50: 87
51: 88
52: 88
53: 88
54: 88
55: 88
56: 88
57: 89
58: 89
59: 89
60: 89
61: 89
62: 90
63: 90
64: 90
65: 90
66: 90
67: 91
68: 91
69: 91
70: 92
71: 92
72: 92
segment: [1]
vertex id: label
69: 0
70: 0
71: 0
72: 0
73: 0
74: 0
75: 0
76: 2
77: 3
78: 2
79: 3
80: 2
81: 3
82: 2
83: 3
84: 2
85: 3
86: 2
87: 3
88: 2
0: 5
1: 5
2: 5
3: 5
4: 5
5: 5
6: 5
7: 5
8: 5
9: 5
10: 5
11: 5
12: 5
13: 5
14: 5
15: 5
16: 5
17: 5
18: 5
19: 5
20: 5
21: 5
22: 5
23: 5
24: 5
25: 5
26: 5
27: 5
28: 5
29: 5
30: 5
31: 5
32: 5
33: 5
34: 5
35: 5
36: 5
37: 5
38: 5
39: 5
40: 5
41: 5
42: 5
43: 5
44: 5
45: 5
46: 5
47: 5
48: 5
49: 5
50: 5
51: 5
52: 5
53: 5
54: 5
55: 5
56: 5
57: 5
58: 5
59: 5
60: 5
61: 5
62: 5
63: 5
64: 5
65: 5
66: 5
67: 5
68: 5
edge from: to
69: 0
70: 1
70: 4
70: 5
71: 8
72: 14
73: 4
73: 16
73: 17
74: 5
74: 20
74: 21
75: 22
75: 23
76: 23
76: 24
77: 25
77: 27
78: 9
78: 28
78: 29
79: 30
80: 34
80: 35
81: 35
81: 36
81: 37
82: 42
83: 49
84: 50
85: 55
85: 56
86: 58
87: 58
87: 60
87: 61
88: 61
88: 62
1: 69
2: 69
3: 69
4: 69
5: 69
6: 70
7: 70
8: 70
9: 70
10: 71
11: 71
12: 71
13: 71
14: 71
15: 71
16: 72
17: 72
18: 73
19: 73
20: 73
21: 73
22: 74
23: 74
24: 75
25: 76
26: 76
27: 76
28: 77
29: 77
30: 78
31: 78
32: 79
33: 79
34: 79
35: 79
36: 80
37: 80
38: 81
39: 81
40: 81
41: 81
42: 81
43: 81
44: 82
45: 82
46: 82
47: 82
48: 82
49: 82
50: 82
51: 83
52: 84
53: 84
54: 84
55: 84
56: 84
57: 85
58: 85
59: 85
60: 86
61: 86
62: 87
63: 88
64: 88
65: 88
66: 88
67: 88
68: 88
segment: [2]
vertex id: label
64: 0
65: 0
66: 2
67: 3
68: 2
69: 3
70: 2
71: 3
72: 2
73: 3
74: 2
75: 3
76: 2
77: 3
78: 2
79: 3
80: 2
81: 3
82: 2
83: 3
0: 5
1: 5
2: 5
3: 5
4: 5
5: 5
6: 5
7: 5
8: 5
9: 5
10: 5
11: 5
12: 5
13: 5
14: 5
15: 5
16: 5
17: 5
18: 5
19: 5
20: 5
21: 5
22: 5
23: 5
24: 5
25: 5
26: 5
27: 5
28: 5
29: 5
30: 5
31: 5
32: 5
33: 5
34: 5
35: 5
36: 5
37: 5
38: 5
39: 5
40: 5
41: 5
42: 5
43: 5
44: 5
45: 5
46: 5
47: 5
48: 5
49: 5
50: 5
51: 5
52: 5
53: 5
54: 5
55: 5
56: 5
57: 5
58: 5
59: 5
60: 5
61: 5
62: 5
63: 5
edge from: to
64: 0
64: 1
65: 4
66: 4
67: 7
68: 10
69: 11
69: 12
70: 1
70: 16
70: 17
70: 18
71: 18
71: 19
71: 20
72: 21
72: 23
72: 24
73: 27
74: 30
75: 33
76: 32
76: 35
76: 36
76: 37
77: 40
78: 42
79: 14
79: 44
79: 45
80: 47
80: 48
81: 51
81: 52
82: 55
82: 56
82: 57
83: 58
83: 60
83: 61
2: 64
3: 64
4: 64
5: 65
6: 66
7: 66
8: 66
9: 67
10: 67
11: 67
12: 68
13: 69
14: 69
15: 69
16: 69
17: 69
18: 69
19: 70
20: 70
21: 71
22: 71
23: 71
24: 71
25: 72
26: 72
27: 72
28: 73
29: 73
30: 73
31: 74
32: 74
33: 74
34: 75
35: 75
36: 75
37: 75
38: 76
39: 76
40: 76
41: 76
42: 77
43: 77
44: 78
45: 78
46: 78
47: 79
48: 79
49: 80
50: 80
51: 80
52: 80
53: 81
54: 81
55: 81
56: 81
57: 81
58: 82
59: 82
60: 82
61: 82
62: 83
63: 83
segment: [3]
vertex id: label
61: 0
62: 2
63: 3
64: 2
65: 3
66: 2
67: 3
68: 2
69: 3
70: 2
71: 3
72: 2
73: 3
74: 2
75: 3
76: 2
77: 3
78: 2
79: 3
80: 2
0: 5
1: 5
2: 5
3: 5
4: 5
5: 5
6: 5
7: 5
8: 5
9: 5
10: 5
11: 5
12: 5
13: 5
14: 5
15: 5
16: 5
17: 5
18: 5
19: 5
20: 5
21: 5
22: 5
23: 5
24: 5
25: 5
26: 5
27: 5
28: 5
29: 5
30: 5
31: 5
32: 5
33: 5
34: 5
35: 5
36: 5
37: 5
38: 5
39: 5
40: 5
41: 5
42: 5
43: 5
44: 5
45: 5
46: 5
47: 5
48: 5
49: 5
50: 5
51: 5
52: 5
53: 5
54: 5
55: 5
56: 5
57: 5
58: 5
59: 5
60: 5
edge from: to
61: 0
61: 1
62: 0
62: 1
62: 2
62: 3
63: 8
64: 10
65: 13
66: 14
66: 15
67: 16
67: 17
67: 18
68: 21
69: 20
69: 22
69: 23
70: 21
70: 23
70: 24
71: 28
72: 34
73: 37
74: 38
74: 39
74: 40
75: 3
75: 36
75: 41
75: 42
76: 14
76: 45
77: 46
78: 49
79: 53
79: 54
80: 55
80: 56
80: 57
2: 61
4: 62
5: 62
6: 62
7: 62
8: 62
9: 62
10: 63
11: 63
12: 64
13: 64
14: 64
15: 65
16: 66
17: 66
18: 66
19: 67
20: 67
21: 67
22: 67
23: 68
24: 69
25: 70
26: 70
27: 70
28: 70
29: 70
30: 71
31: 71
32: 71
33: 71
34: 71
35: 71
36: 72
37: 72
38: 72
39: 73
40: 73
41: 74
42: 74
43: 75
44: 75
45: 75
46: 75
47: 76
48: 77
49: 77
50: 77
51: 78
52: 78
53: 78
54: 78
55: 79
56: 79
57: 79
58: 80
59: 80
60: 80
segment: [4]
vertex id: label
64: 0
65: 2
66: 3
67: 2
68: 3
69: 2
70: 3
71: 2
72: 3
73: 2
74: 3
75: 2
76: 3
77: 2
78: 3
79: 2
80: 3
81: 2
82: 3
83: 2
0: 5
1: 5
2: 5
3: 5
4: 5
5: 5
6: 5
7: 5
8: 5
9: 5
10: 5
11: 5
12: 5
13: 5
14: 5
15: 5
16: 5
17: 5
18: 5
19: 5
20: 5
21: 5
22: 5
23: 5
24: 5
25: 5
26: 5
27: 5
28: 5
29: 5
30: 5
31: 5
32: 5
33: 5
34: 5
35: 5
36: 5
37: 5
38: 5
39: 5
40: 5
41: 5
42: 5
43: 5
44: 5
45: 5
46: 5
47: 5
48: 5
49: 5
50: 5
51: 5
52: 5
53: 5
54: 5
55: 5
56: 5
57: 5
58: 5
59: 5
60: 5
61: 5
62: 5
63: 5
edge from: to
64: 0
64: 1
64: 2
65: 6
65: 7
66: 10
66: 11
67: 13
67: 14
67: 15
68: 5
68: 20
68: 21
69: 19
69: 21
69: 22
70: 11
70: 21
70: 22
70: 23
70: 24
71: 24
71: 25
72: 9
72: 25
72: 28
72: 29
73: 7
73: 30
74: 31
74: 32
75: 36
75: 37
76: 39
76: 40
77: 42
78: 44
79: 14
79: 45
80: 48
80: 49
80: 50
81: 52
81: 53
82: 52
82: 54
82: 55
83: 18
83: 58
3: 64
4: 64
5: 64
6: 64
7: 64
8: 65
9: 65
10: 65
11: 65
12: 66
13: 66
14: 66
15: 66
16: 67
17: 67
18: 67
19: 67
20: 67
21: 67
22: 68
23: 69
24: 69
25: 70
26: 71
27: 71
28: 71
29: 71
30: 72
31: 73
32: 73
33: 74
34: 74
35: 74
36: 74
37: 74
38: 75
39: 75
40: 75
41: 76
42: 76
43: 76
44: 77
45: 77
46: 78
47: 79
48: 79
49: 79
50: 79
51: 80
52: 80
53: 80
54: 81
55: 81
56: 82
57: 82
58: 82
59: 82
60: 83
61: 83
62: 83
63: 83
segment: [5]
vertex id: label
66: 0
67: 0
68: 0
69: 2
70: 3
71: 2
72: 3
73: 2
74: 3
75: 2
76: 3
77: 2
78: 3
79: 2
80: 3
81: 2
82: 3
83: 2
84: 3
85: 2
0: 5
1: 5
2: 5
3: 5
4: 5
5: 5
6: 5
7: 5
8: 5
9: 5
10: 5
11: 5
12: 5
13: 5
14: 5
15: 5
16: 5
17: 5
18: 5
19: 5
20: 5
21: 5
22: 5
23: 5
24: 5
25: 5
26: 5
27: 5
28: 5
29: 5
30: 5
31: 5
32: 5
33: 5
34: 5
35: 5
36: 5
37: 5
38: 5
39: 5
40: 5
41: 5
42: 5
43: 5
44: 5
45: 5
46: 5
47: 5
48: 5
49: 5
50: 5
51: 5
52: 5
53: 5
54: 5
55: 5
56: 5
57: 5
58: 5
59: 5
60: 5
61: 5
62: 5
63: 5
64: 5
65: 5
edge from: to
66: 0
66: 1
66: 2
67: 4
67: 5
68: 6
68: 7
69: 2
69: 6
69: 7
69: 8
70: 9
71: 4
71: 12
72: 14
73: 6
73: 18
74: 21
74: 22
75: 27
76: 32
76: 33
77: 11
77: 35
78: 36
79: 39
80: 41
81: 45
82: 49
83: 52
83: 54
83: 55
84: 13
84: 55
84: 56
85: 18
85: 58
3: 66
4: 66
5: 66
6: 67
7: 67
8: 68
9: 69
10: 69
11: 70
12: 70
13: 70
14: 71
15: 71
16: 72
17: 72
18: 72
19: 72
20: 73
21: 73
22: 73
23: 74
24: 74
25: 74
26: 74
27: 74
28: 74
29: 75
30: 75
31: 75
32: 75
33: 75
34: 76
35: 76
36: 76
37: 77
38: 78
39: 78
40: 78
41: 79
42: 79
43: 80
44: 80
45: 80
46: 80
47: 81
48: 81
49: 81
50: 81
51: 82
52: 82
53: 82
54: 82
55: 82
56: 83
57: 84
58: 84
59: 84
60: 85
61: 85
62: 85
63: 85
64: 85
65: 85
segment: [6]
vertex id: label
49: 0
50: 2
51: 3
52: 2
53: 3
54: 2
55: 3
56: 2
57: 3
58: 2
59: 3
60: 2
61: 3
62: 2
63: 3
64: 2
65: 3
66: 2
67: 3
68: 2
0: 5
1: 5
2: 5
3: 5
4: 5
5: 5
6: 5
7: 5
8: 5
9: 5
10: 5
11: 5
12: 5
13: 5
14: 5
15: 5
16: 5
17: 5
18: 5
19: 5
20: 5
21: 5
22: 5
23: 5
24: 5
25: 5
26: 5
27: 5
28: 5
29: 5
30: 5
31: 5
32: 5
33: 5
34: 5
35: 5
36: 5
37: 5
38: 5
39: 5
40: 5
41: 5
42: 5
43: 5
44: 5
45: 5
46: 5
47: 5
48: 5
edge from: to
49: 0
50: 4
51: 6
52: 3
52: 8
52: 9
53: 9
53: 10
53: 11
54: 13
54: 14
54: 15
55: 5
55: 15
55: 16
56: 18
57: 20
58: 21
58: 23
58: 24
59: 25
60: 6
60: 24
60: 25
60: 27
61: 9
61: 28
62: 30
63: 31
64: 8
64: 33
64: 34
65: 36
66: 37
66: 38
67: 41
68: 44
1: 49
2: 49
3: 49
4: 49
5: 50
6: 50
7: 50
8: 51
9: 51
10: 52
11: 52
12: 53
13: 53
14: 53
15: 53
16: 54
17: 55
18: 55
19: 55
20: 56
21: 56
22: 57
23: 57
24: 57
25: 58
26: 58
27: 59
28: 60
29: 60
30: 61
31: 61
32: 62
33: 63
34: 63
35: 64
36: 64
37: 64
38: 65
39: 66
40: 66
41: 66
42: 66
43: 67
44: 67
45: 67
46: 68
47: 68
48: 68
segment: [7]
vertex id: label
64: 0
65: 2
66: 3
67: 2
68: 3
69: 2
70: 3
71: 2
72: 3
73: 2
74: 3
75: 2
76: 3
77: 2
78: 3
79: 2
80: 3
81: 2
82: 3
83: 2
0: 5
1: 5
2: 5
3: 5
4: 5
5: 5
6: 5
7: 5
8: 5
9: 5
10: 5
11: 5
12: 5
13: 5
14: 5
15: 5
16: 5
17: 5
18: 5
19: 5
20: 5
21: 5
22: 5
23: 5
24: 5
25: 5
26: 5
27: 5
28: 5
29: 5
30: 5
31: 5
32: 5
33: 5
34: 5
35: 5
36: 5
37: 5
38: 5
39: 5
40: 5
41: 5
42: 5
43: 5
44: 5
45: 5
46: 5
47: 5
48: 5
49: 5
50: 5
51: 5
52: 5
53: 5
54: 5
55: 5
56: 5
57: 5
58: 5
59: 5
60: 5
61: 5
62: 5
63: 5
edge from: to
64: 0
65: 4
66: 7
66: 8
67: 10
67: 11
68: 4
68: 12
69: 14
70: 17
70: 18
71: 19
71: 20
72: 24
73: 25
74: 30
74: 31
75: 33
75: 34
75: 35
76: 36
76: 37
77: 38
78: 41
79: 44
79: 45
80: 48
81: 53
81: 54
82: 55
82: 56
83: 18
83: 58
1: 64
2: 64
3: 64
4: 64
5: 65
6: 65
7: 65
8: 65
9: 66
10: 66
11: 66
12: 67
13: 67
14: 68
15: 68
16: 69
17: 69
18: 69
19: 70
20: 70
21: 71
22: 71
23: 71
24: 71
25: 72
26: 72
27: 73
28: 73
29: 73
30: 73
31: 73
32: 74
33: 74
34: 74
35: 74
36: 75
37: 75
38: 76
39: 76
40: 77
41: 77
42: 77
43: 78
44: 78
45: 78
46: 79
47: 79
48: 79
49: 79
50: 80
51: 80
52: 80
53: 80
54: 80
55: 81
56: 81
57: 82
58: 82
59: 82
60: 83
61: 83
62: 83
63: 83
segment: [8]
vertex id: label
58: 0
59: 2
60: 3
61: 4
62: 4
63: 4
64: 4
65: 4
66: 4
67: 4
68: 4
69: 4
70: 4
71: 4
72: 4
73: 4
74: 4
75: 4
76: 4
77: 4
0: 5
1: 5
2: 5
3: 5
4: 5
5: 5
6: 5
7: 5
8: 5
9: 5
10: 5
11: 5
12: 5
13: 5
14: 5
15: 5
16: 5
17: 5
18: 5
19: 5
20: 5
21: 5
22: 5
23: 5
24: 5
25: 5
26: 5
27: 5
28: 5
29: 5
30: 5
31: 5
32: 5
33: 5
34: 5
35: 5
36: 5
37: 5
38: 5
39: 5
40: 5
41: 5
42: 5
43: 5
44: 5
45: 5
46: 5
47: 5
48: 5
49: 5
50: 5
51: 5
52: 5
53: 5
54: 5
55: 5
56: 5
57: 5
edge from: to
58: 0
58: 1
59: 0
59: 1
59: 3
60: 4
60: 5
61: 6
61: 7
62: 10
63: 13
63: 14
64: 5
64: 15
65: 17
66: 19
66: 20
67: 21
67: 22
68: 21
68: 23
68: 24
69: 28
70: 29
70: 30
70: 31
71: 33
72: 36
73: 42
73: 43
74: 43
74: 44
74: 45
75: 45
76: 48
77: 53
77: 54
2: 58
3: 58
4: 59
5: 59
6: 60
7: 60
8: 61
9: 61
10: 61
11: 61
12: 62
13: 62
14: 62
15: 63
16: 63
17: 64
18: 64
19: 65
20: 65
21: 66
22: 66
23: 67
24: 67
25: 68
26: 68
27: 68
28: 68
29: 68
30: 69
31: 69
32: 70
33: 70
34: 70
35: 71
36: 71
37: 71
38: 72
39: 72
40: 72
41: 72
42: 72
43: 72
44: 73
45: 73
46: 74
47: 75
48: 75
49: 75
50: 76
51: 76
52: 76
53: 76
54: 76
55: 77
56: 77
57: 77
segment: [9]
vertex id: label
59: 0
60: 0
61: 0
62: 0
63: 0
64: 0
65: 0
66: 2
67: 3
68: 2
69: 3
70: 2
71: 3
72: 2
73: 3
74: 2
75: 3
76: 2
77: 3
78: 2
0: 5
1: 5
2: 5
3: 5
4: 5
5: 5
6: 5
7: 5
8: 5
9: 5
10: 5
11: 5
12: 5
13: 5
14: 5
15: 5
16: 5
17: 5
18: 5
19: 5
20: 5
21: 5
22: 5
23: 5
24: 5
25: 5
26: 5
27: 5
28: 5
29: 5
30: 5
31: 5
32: 5
33: 5
34: 5
35: 5
36: 5
37: 5
38: 5
39: 5
40: 5
41: 5
42: 5
43: 5
44: 5
45: 5
46: 5
47: 5
48: 5
49: 5
50: 5
51: 5
52: 5
53: 5
54: 5
55: 5
56: 5
57: 5
58: 5
edge from: to
59: 0
59: 1
60: 5
61: 2
61: 7
61: 8
62: 10
62: 11
63: 10
63: 11
63: 12
64: 14
65: 17
66: 18
67: 5
67: 18
67: 20
67: 21
68: 12
68: 16
68: 20
68: 22
68: 23
69: 24
70: 27
71: 30
72: 31
72: 32
73: 11
73: 35
74: 39
74: 40
75: 42
76: 44
77: 50
77: 51
78: 51
78: 53
78: 54
2: 59
3: 59
4: 59
5: 59
6: 59
7: 60
8: 60
9: 61
10: 61
11: 61
12: 62
13: 63
14: 63
15: 63
16: 64
17: 64
18: 64
19: 65
20: 66
21: 66
22: 67
23: 67
24: 68
25: 68
26: 69
27: 69
28: 70
29: 70
30: 70
31: 71
32: 71
33: 72
34: 72
35: 72
36: 72
37: 73
38: 73
39: 73
40: 73
41: 74
42: 74
43: 74
44: 75
45: 75
46: 76
47: 76
48: 76
49: 76
50: 76
51: 76
52: 77
53: 77
54: 77
55: 78
56: 78
57: 78
58: 78
segment: [10]
vertex id: label
71: 0
72: 0
73: 2
74: 3
75: 2
76: 3
77: 2
78: 3
79: 2
80: 3
81: 2
82: 3
83: 2
84: 3
85: 2
86: 3
87: 2
88: 3
89: 2
90: 3
0: 5
1: 5
2: 5
3: 5
4: 5
5: 5
6: 5
7: 5
8: 5
9: 5
10: 5
11: 5
12: 5
13: 5
14: 5
15: 5
16: 5
17: 5
18: 5
19: 5
20: 5
21: 5
22: 5
23: 5
24: 5
25: 5
26: 5
27: 5
28: 5
29: 5
30: 5
31: 5
32: 5
33: 5
34: 5
35: 5
36: 5
37: 5
38: 5
39: 5
40: 5
41: 5
42: 5
43: 5
44: 5
45: 5
46: 5
47: 5
48: 5
49: 5
50: 5
51: 5
52: 5
53: 5
54: 5
55: 5
56: 5
57: 5
58: 5
59: 5
60: 5
61: 5
62: 5
63: 5
64: 5
65: 5
66: 5
67: 5
68: 5
69: 5
70: 5
edge from: to
71: 0
71: 1
72: 4
73: 9
73: 10
74: 10
75: 4
75: 11
75: 12
75: 13
76: 17
76: 18
77: 18
78: 20
79: 2
79: 24
79: 27
79: 28
80: 9
80: 28
80: 29
81: 31
81: 32
82: 34
82: 35
83: 38
84: 41
84: 42
85: 45
86: 43
86: 48
86: 49
86: 50
87: 54
87: 55
88: 60
89: 63
90: 21
90: 68
90: 69
2: 71
3: 71
4: 71
5: 72
6: 72
7: 72
8: 72
9: 72
10: 72
11: 73
12: 74
13: 74
14: 75
15: 75
16: 75
17: 75
18: 75
19: 76
20: 77
21: 77
22: 78
23: 78
24: 78
25: 78
26: 78
27: 78
28: 78
29: 79
30: 80
31: 80
32: 80
33: 81
34: 81
35: 81
36: 82
37: 82
38: 82
39: 82
40: 83
41: 83
42: 83
43: 84
44: 84
45: 84
46: 84
47: 85
48: 85
49: 85
50: 85
51: 86
52: 86
53: 86
54: 86
55: 86
56: 87
57: 87
58: 87
59: 87
60: 87
61: 88
62: 88
63: 88
64: 88
65: 89
66: 89
67: 89
68: 89
69: 89
70: 90
segment: [11]
vertex id: label
66: 0
67: 0
68: 2
69: 3
70: 2
71: 3
72: 2
73: 3
74: 4
75: 4
76: 4
77: 4
78: 4
79: 4
80: 4
81: 4
82: 4
83: 4
84: 4
85: 4
0: 5
1: 5
2: 5
3: 5
4: 5
5: 5
6: 5
7: 5
8: 5
9: 5
10: 5
11: 5
12: 5
13: 5
14: 5
15: 5
16: 5
17: 5
18: 5
19: 5
20: 5
21: 5
22: 5
23: 5
24: 5
25: 5
26: 5
27: 5
28: 5
29: 5
30: 5
31: 5
32: 5
33: 5
34: 5
35: 5
36: 5
37: 5
38: 5
39: 5
40: 5
41: 5
42: 5
43: 5
44: 5
45: 5
46: 5
47: 5
48: 5
49: 5
50: 5
51: 5
52: 5
53: 5
54: 5
55: 5
56: 5
57: 5
58: 5
59: 5
60: 5
61: 5
62: 5
63: 5
64: 5
65: 5
edge from: to
66: 0
66: 1
66: 2
67: 2
67: 5
68: 8
69: 13
69: 14
69: 15
70: 16
71: 17
72: 18
73: 24
74: 22
74: 24
74: 25
75: 27
75: 28
76: 30
77: 33
77: 34
78: 38
79: 3
79: 41
79: 42
80: 14
80: 40
80: 44
80: 45
81: 15
81: 48
82: 48
82: 49
82: 50
83: 48
83: 52
83: 54
83: 55
84: 61
84: 62
85: 63
3: 66
4: 66
5: 66
6: 66
7: 67
8: 67
9: 67
10: 68
11: 68
12: 68
13: 68
14: 68
15: 68
16: 69
17: 69
18: 70
19: 71
20: 72
21: 72
22: 72
23: 72
24: 72
25: 73
26: 74
27: 74
28: 74
29: 75
30: 75
31: 75
32: 76
33: 76
34: 76
35: 77
36: 77
37: 77
38: 77
39: 77
40: 78
41: 78
42: 78
43: 79
44: 79
45: 79
46: 79
47: 80
48: 80
49: 80
50: 81
51: 82
52: 82
53: 82
54: 82
55: 82
56: 83
57: 83
58: 83
59: 83
60: 83
61: 83
62: 83
63: 84
64: 84
65: 85
segment: [12]
vertex id: label
60: 0
61: 0
62: 0
63: 0
64: 0
65: 0
66: 2
67: 3
68: 2
69: 3
70: 2
71: 3
72: 2
73: 3
74: 2
75: 3
76: 2
77: 3
78: 2
79: 3
0: 5
1: 5
2: 5
3: 5
4: 5
5: 5
6: 5
7: 5
8: 5
9: 5
10: 5
11: 5
12: 5
13: 5
14: 5
15: 5
16: 5
17: 5
18: 5
19: 5
20: 5
21: 5
22: 5
23: 5
24: 5
25: 5
26: 5
27: 5
28: 5
29: 5
30: 5
31: 5
32: 5
33: 5
34: 5
35: 5
36: 5
37: 5
38: 5
39: 5
40: 5
41: 5
42: 5
43: 5
44: 5
45: 5
46: 5
47: 5
48: 5
49: 5
50: 5
51: 5
52: 5
53: 5
54: 5
55: 5
56: 5
57: 5
58: 5
59: 5
edge from: to
60: 0
61: 4
62: 2
62: 5
63: 6
64: 7
64: 8
65: 8
66: 8
66: 10
66: 11
66: 12
67: 17
67: 18
68: 19
68: 20
69: 22
70: 25
70: 27
71: 28
71: 30
71: 31
71: 32
72: 8
72: 33
72: 34
73: 12
73: 38
73: 39
74: 45
75: 49
75: 50
76: 50
76: 51
77: 52
78: 4
78: 13
78: 55
78: 56
79: 55
79: 56
79: 57
1: 60
2: 60
3: 60
4: 60
5: 61
6: 61
7: 62
8: 63
9: 64
10: 65
11: 65
12: 65
13: 66
14: 66
15: 66
16: 66
17: 66
18: 66
19: 67
20: 67
21: 68
22: 68
23: 68
24: 69
25: 69
26: 69
27: 69
28: 70
29: 70
30: 70
31: 70
32: 70
33: 71
34: 71
35: 72
36: 72
37: 72
38: 72
39: 72
40: 73
41: 73
42: 73
43: 73
44: 73
45: 73
46: 73
47: 74
48: 74
49: 74
50: 74
51: 75
52: 76
53: 76
54: 77
55: 77
56: 77
57: 78
58: 79
59: 79
segment: [13]
vertex id: label
62: 0
63: 0
64: 0
65: 2
66: 3
67: 2
68: 3
69: 2
70: 3
71: 2
72: 3
73: 2
74: 3
75: 2
76: 3
77: 2
78: 3
79: 2
80: 3
81: 2
0: 5
1: 5
2: 5
3: 5
4: 5
5: 5
6: 5
7: 5
8: 5
9: 5
10: 5
11: 5
12: 5
13: 5
14: 5
15: 5
16: 5
17: 5
18: 5
19: 5
20: 5
21: 5
22: 5
23: 5
24: 5
25: 5
26: 5
27: 5
28: 5
29: 5
30: 5
31: 5
32: 5
33: 5
34: 5
35: 5
36: 5
37: 5
38: 5
39: 5
40: 5
41: 5
42: 5
43: 5
44: 5
45: 5
46: 5
47: 5
48: 5
49: 5
50: 5
51: 5
52: 5
53: 5
54: 5
55: 5
56: 5
57: 5
58: 5
59: 5
60: 5
61: 5
edge from: to
62: 0
62: 1
63: 1
63: 4
64: 4
64: 5
65: 7
66: 3
66: 8
66: 9
67: 12
68: 4
68: 12
68: 15
68: 16
68: 17
69: 18
69: 19
69: 20
70: 23
70: 24
71: 25
71: 27
72: 30
73: 11
73: 35
74: 35
74: 36
74: 37
75: 12
75: 38
75: 39
76: 40
77: 45
78: 46
78: 47
78: 48
79: 50
79: 52
79: 53
80: 56
80: 57
81: 50
81: 52
81: 55
81: 56
81: 57
81: 58
2: 62
3: 62
4: 62
5: 63
6: 64
7: 64
8: 64
9: 65
10: 66
11: 66
12: 66
13: 66
14: 67
15: 67
16: 67
17: 67
18: 68
19: 68
20: 68
21: 69
22: 69
23: 69
24: 69
25: 70
26: 70
27: 70
28: 71
29: 71
30: 71
31: 72
32: 72
33: 72
34: 72
35: 72
36: 72
37: 73
38: 74
39: 74
40: 75
41: 75
42: 76
43: 76
44: 76
45: 76
46: 76
47: 77
48: 77
49: 78
50: 78
51: 78
52: 78
53: 78
54: 79
55: 79
56: 79
57: 79
58: 80
59: 81
60: 81
61: 81
segment: [14]
vertex id: label
56: 0
57: 0
58: 2
59: 3
60: 2
61: 3
62: 2
63: 3
64: 2
65: 3
66: 2
67: 3
68: 2
69: 3
70: 2
71: 3
72: 2
73: 3
74: 2
75: 3
0: 5
1: 5
2: 5
3: 5
4: 5
5: 5
6: 5
7: 5
8: 5
9: 5
10: 5
11: 5
12: 5
13: 5
14: 5
15: 5
16: 5
17: 5
18: 5
19: 5
20: 5
21: 5
22: 5
23: 5
24: 5
25: 5
26: 5
27: 5
28: 5
29: 5
30: 5
31: 5
32: 5
33: 5
34: 5
35: 5
36: 5
37: 5
38: 5
39: 5
40: 5
41: 5
42: 5
43: 5
44: 5
45: 5
46: 5
47: 5
48: 5
49: 5
50: 5
51: 5
52: 5
53: 5
54: 5
55: 5
edge from: to
56: 0
57: 3
58: 6
58: 7
59: 7
59: 8
60: 3
60: 8
61: 9
62: 12
63: 16
63: 17
64: 14
64: 18
64: 19
64: 20
65: 20
66: 23
66: 24
67: 27
68: 9
68: 28
69: 31
70: 37
70: 38
71: 38
71: 39
71: 40
72: 3
72: 36
72: 41
72: 42
73: 42
73: 43
73: 44
74: 14
74: 45
75: 51
75: 52
1: 56
2: 56
3: 56
4: 57
5: 57
6: 57
7: 57
8: 58
9: 59
10: 60
11: 61
12: 61
13: 61
14: 62
15: 62
16: 62
17: 62
18: 63
19: 63
20: 63
21: 64
22: 65
23: 65
24: 65
25: 66
26: 66
27: 66
28: 66
29: 67
30: 68
31: 68
32: 68
33: 69
34: 69
35: 69
36: 69
37: 69
38: 69
39: 70
40: 70
41: 71
42: 71
43: 72
44: 72
45: 73
46: 73
47: 74
48: 74
49: 74
50: 74
51: 74
52: 74
53: 75
54: 75
55: 75
segment: [15]
vertex id: label
59: 0
60: 2
61: 3
62: 2
63: 3
64: 2
65: 3
66: 2
67: 3
68: 2
69: 3
70: 2
71: 3
72: 2
73: 3
74: 2
75: 3
76: 2
77: 3
78: 2
0: 5
1: 5
2: 5
3: 5
4: 5
5: 5
6: 5
7: 5
8: 5
9: 5
10: 5
11: 5
12: 5
13: 5
14: 5
15: 5
16: 5
17: 5
18: 5
19: 5
20: 5
21: 5
22: 5
23: 5
24: 5
25: 5
26: 5
27: 5
28: 5
29: 5
30: 5
31: 5
32: 5
33: 5
34: 5
35: 5
36: 5
37: 5
38: 5
39: 5
40: 5
41: 5
42: 5
43: 5
44: 5
45: 5
46: 5
47: 5
48: 5
49: 5
50: 5
51: 5
52: 5
53: 5
54: 5
55: 5
56: 5
57: 5
58: 5
edge from: to
59: 0
59: 1
60: 1
60: 4
61: 7
61: 8
62: 9
62: 10
63: 13
64: 17
64: 18
65: 18
66: 21
67: 24
68: 22
68: 24
68: 25
69: 8
69: 25
70: 7
70: 29
70: 30
71: 32
71: 33
72: 34
72: 35
73: 12
73: 37
73: 38
73: 39
74: 42
74: 43
75: 14
75: 45
76: 51
76: 52
77: 54
77: 55
78: 56
78: 57
2: 59
3: 59
4: 59
5: 60
6: 60
7: 60
8: 60
9: 61
10: 61
11: 62
12: 62
13: 62
14: 62
15: 63
16: 63
17: 63
18: 63
19: 64
20: 65
21: 65
22: 65
23: 66
24: 66
25: 67
26: 68
27: 69
28: 69
29: 69
30: 69
31: 70
32: 70
33: 70
34: 71
35: 71
36: 72
37: 72
38: 72
39: 72
40: 73
41: 73
42: 73
43: 73
44: 74
45: 74
46: 74
47: 75
48: 75
49: 75
50: 75
51: 75
52: 75
53: 76
54: 76
55: 76
56: 77
57: 77
58: 78
segment: [16]
vertex id: label
44: 0
45: 0
46: 2
47: 3
48: 2
49: 3
50: 2
51: 3
52: 2
53: 3
54: 2
55: 3
56: 2
57: 3
58: 2
59: 3
60: 2
61: 3
62: 2
63: 3
0: 5
1: 5
2: 5
3: 5
4: 5
5: 5
6: 5
7: 5
8: 5
9: 5
10: 5
11: 5
12: 5
13: 5
14: 5
15: 5
16: 5
17: 5
18: 5
19: 5
20: 5
21: 5
22: 5
23: 5
24: 5
25: 5
26: 5
27: 5
28: 5
29: 5
30: 5
31: 5
32: 5
33: 5
34: 5
35: 5
36: 5
37: 5
38: 5
39: 5
40: 5
41: 5
42: 5
43: 5
edge from: to
44: 0
44: 1
45: 1
45: 3
46: 4
46: 5
47: 8
48: 9
48: 10
49: 10
50: 11
51: 12
52: 14
52: 15
53: 5
53: 15
54: 17
54: 18
55: 20
56: 19
56: 21
56: 22
57: 24
58: 25
59: 27
60: 31
60: 32
61: 33
61: 34
62: 11
62: 35
63: 39
63: 40
2: 44
3: 44
4: 45
5: 45
6: 46
7: 46
8: 46
9: 46
10: 47
11: 48
12: 49
13: 50
14: 51
15: 51
16: 52
17: 53
18: 53
19: 54
20: 54
21: 54
22: 55
23: 56
24: 56
25: 57
26: 57
27: 58
28: 58
29: 59
30: 59
31: 59
32: 59
33: 60
34: 60
35: 61
36: 61
37: 62
38: 62
39: 62
40: 62
41: 63
42: 63
43: 63
segment: [17]
vertex id: label
52: 0
53: 2
54: 3
55: 2
56: 3
57: 2
58: 3
59: 2
60: 3
61: 2
62: 3
63: 2
64: 3
65: 2
66: 3
67: 2
68: 3
69: 2
70: 3
71: 2
0: 5
1: 5
2: 5
3: 5
4: 5
5: 5
6: 5
7: 5
8: 5
9: 5
10: 5
11: 5
12: 5
13: 5
14: 5
15: 5
16: 5
17: 5
18: 5
19: 5
20: 5
21: 5
22: 5
23: 5
24: 5
25: 5
26: 5
27: 5
28: 5
29: 5
30: 5
31: 5
32: 5
33: 5
34: 5
35: 5
36: 5
37: 5
38: 5
39: 5
40: 5
41: 5
42: 5
43: 5
44: 5
45: 5
46: 5
47: 5
48: 5
49: 5
50: 5
51: 5
edge from: to
52: 0
52: 1
52: 2
53: 4
54: 1
54: 4
54: 5
55: 4
55: 5
55: 6
55: 7
56: 7
56: 8
57: 7
57: 9
57: 10
58: 14
59: 16
60: 19
60: 20
61: 19
61: 20
61: 21
61: 22
62: 25
62: 27
63: 30
64: 33
65: 33
65: 34
66: 35
67: 38
68: 41
69: 45
70: 46
70: 47
71: 49
3: 52
4: 52
5: 53
6: 54
7: 54
8: 55
9: 56
10: 56
11: 57
12: 57
13: 57
14: 57
15: 57
16: 58
17: 58
18: 59
19: 59
20: 59
21: 60
22: 60
23: 61
24: 61
25: 61
26: 61
27: 61
28: 62
29: 62
30: 62
31: 62
32: 63
33: 63
34: 64
35: 65
36: 65
37: 66
38: 66
39: 66
40: 67
41: 67
42: 67
43: 68
44: 68
45: 68
46: 68
47: 69
48: 70
49: 70
50: 70
51: 71
segment: [18]
vertex id: label
67: 0
68: 0
69: 2
70: 3
71: 2
72: 3
73: 2
74: 3
75: 2
76: 3
77: 2
78: 3
79: 2
80: 3
81: 2
82: 3
83: 2
84: 3
85: 2
86: 3
0: 5
1: 5
2: 5
3: 5
4: 5
5: 5
6: 5
7: 5
8: 5
9: 5
10: 5
11: 5
12: 5
13: 5
14: 5
15: 5
16: 5
17: 5
18: 5
19: 5
20: 5
21: 5
22: 5
23: 5
24: 5
25: 5
26: 5
27: 5
28: 5
29: 5
30: 5
31: 5
32: 5
33: 5
34: 5
35: 5
36: 5
37: 5
38: 5
39: 5
40: 5
41: 5
42: 5
43: 5
44: 5
45: 5
46: 5
47: 5
48: 5
49: 5
50: 5
51: 5
52: 5
53: 5
54: 5
55: 5
56: 5
57: 5
58: 5
59: 5
60: 5
61: 5
62: 5
63: 5
64: 5
65: 5
66: 5
edge from: to
67: 0
68: 2
69: 4
69: 5
70: 6
70: 7
71: 7
71: 9
71: 10
72: 14
73: 16
73: 17
73: 18
74: 18
75: 8
75: 25
76: 30
76: 31
77: 30
77: 31
77: 32
78: 34
78: 35
79: 39
80: 44
81: 43
81: 48
81: 49
81: 50
82: 52
83: 13
83: 55
83: 56
84: 56
84: 57
84: 58
85: 60
85: 61
86: 61
86: 63
86: 64
1: 67
2: 67
3: 68
4: 68
5: 68
6: 69
7: 69
8: 70
9: 70
10: 70
11: 71
12: 71
13: 71
14: 71
15: 71
16: 72
17: 72
18: 72
19: 73
20: 74
21: 74
22: 74
23: 74
24: 74
25: 74
26: 74
27: 75
28: 75
29: 75
30: 75
31: 75
32: 76
33: 77
34: 77
35: 77
36: 78
37: 78
38: 78
39: 78
40: 78
41: 79
42: 79
43: 79
44: 79
45: 80
46: 80
47: 80
48: 80
49: 80
50: 80
51: 81
52: 81
53: 81
54: 82
55: 82
56: 82
57: 83
58: 83
59: 84
60: 84
61: 84
62: 85
63: 85
64: 85
65: 86
66: 86
segment: [19]
vertex id: label
62: 0
63: 2
64: 3
65: 2
66: 3
67: 2
68: 3
69: 2
70: 3
71: 2
72: 3
73: 2
74: 3
75: 2
76: 3
77: 2
78: 3
79: 2
80: 3
81: 2
0: 5
1: 5
2: 5
3: 5
4: 5
5: 5
6: 5
7: 5
8: 5
9: 5
10: 5
11: 5
12: 5
13: 5
14: 5
15: 5
16: 5
17: 5
18: 5
19: 5
20: 5
21: 5
22: 5
23: 5
24: 5
25: 5
26: 5
27: 5
28: 5
29: 5
30: 5
31: 5
32: 5
33: 5
34: 5
35: 5
36: 5
37: 5
38: 5
39: 5
40: 5
41: 5
42: 5
43: 5
44: 5
45: 5
46: 5
47: 5
48: 5
49: 5
50: 5
51: 5
52: 5
53: 5
54: 5
55: 5
56: 5
57: 5
58: 5
59: 5
60: 5
61: 5
edge from: to
62: 0
62: 1
63: 4
63: 5
64: 3
64: 8
64: 9
65: 9
65: 10
65: 11
66: 1
66: 12
66: 13
66: 14
67: 5
67: 15
68: 6
68: 18
68: 19
69: 19
70: 22
71: 23
71: 24
72: 27
72: 28
73: 9
73: 28
73: 29
74: 30
74: 31
75: 34
76: 39
77: 43
77: 44
78: 11
78: 45
78: 46
78: 47
79: 43
79: 48
79: 49
79: 50
80: 52
81: 56
81: 57
2: 62
3: 62
4: 62
5: 62
6: 63
7: 63
8: 63
9: 63
10: 64
11: 64
12: 65
13: 65
14: 65
15: 66
16: 66
17: 67
18: 67
19: 67
20: 68
21: 69
22: 69
23: 69
24: 70
25: 71
26: 71
27: 71
28: 71
29: 72
30: 73
31: 73
32: 74
33: 74
34: 74
35: 74
36: 75
37: 75
38: 75
39: 75
40: 75
41: 76
42: 76
43: 76
44: 76
45: 77
46: 77
47: 77
48: 78
49: 78
50: 78
51: 79
52: 79
53: 79
54: 80
55: 80
56: 80
57: 80
58: 81
59: 81
60: 81
61: 81
segment: [20]
vertex id: label
70: 0
71: 0
72: 2
73: 3
74: 2
75: 3
76: 2
77: 3
78: 3
79: 2
80: 3
81: 2
82: 3
83: 2
84: 3
85: 2
86: 3
87: 2
88: 3
89: 2
0: 5
1: 5
2: 5
3: 5
4: 5
5: 5
6: 5
7: 5
8: 5
9: 5
10: 5
11: 5
12: 5
13: 5
14: 5
15: 5
16: 5
17: 5
18: 5
19: 5
20: 5
21: 5
22: 5
23: 5
24: 5
25: 5
26: 5
27: 5
28: 5
29: 5
30: 5
31: 5
32: 5
33: 5
34: 5
35: 5
36: 5
37: 5
38: 5
39: 5
40: 5
41: 5
42: 5
43: 5
44: 5
45: 5
46: 5
47: 5
48: 5
49: 5
50: 5
51: 5
52: 5
53: 5
54: 5
55: 5
56: 5
57: 5
58: 5
59: 5
60: 5
61: 5
62: 5
63: 5
64: 5
65: 5
66: 5
67: 5
68: 5
69: 5
edge from: to
70: 0
70: 1
70: 2
70: 3
70: 4
71: 5
72: 6
73: 9
73: 10
74: 12
75: 17
76: 6
76: 18
77: 21
78: 25
79: 28
80: 30
80: 31
81: 33
82: 34
82: 35
83: 12
83: 38
84: 36
84: 39
84: 40
84: 41
85: 46
86: 52
87: 53
87: 54
88: 60
88: 61
89: 64
89: 65
5: 70
6: 70
7: 71
8: 72
9: 72
10: 72
11: 73
12: 73
13: 73
14: 74
15: 74
16: 74
17: 74
18: 74
19: 75
20: 76
21: 76
22: 76
23: 77
24: 77
25: 77
26: 77
27: 78
28: 78
29: 78
30: 79
31: 79
32: 80
33: 80
34: 81
35: 81
36: 82
37: 82
38: 82
39: 82
40: 83
41: 83
42: 84
43: 84
44: 84
45: 84
46: 84
47: 84
48: 85
49: 85
50: 85
51: 85
52: 85
53: 86
54: 86
55: 87
56: 87
57: 87
58: 87
59: 87
60: 87
61: 87
62: 88
63: 88
64: 88
65: 88
66: 89
67: 89
68: 89
69: 89
segment: [21]
vertex id: label
72: 0
73: 2
74: 3
75: 2
76: 3
77: 2
78: 3
79: 2
80: 3
81: 2
82: 3
83: 2
84: 3
85: 2
86: 3
87: 2
88: 3
89: 3
90: 2
91: 3
0: 5
1: 5
2: 5
3: 5
4: 5
5: 5
6: 5
7: 5
8: 5
9: 5
10: 5
11: 5
12: 5
13: 5
14: 5
15: 5
16: 5
17: 5
18: 5
19: 5
20: 5
21: 5
22: 5
23: 5
24: 5
25: 5
26: 5
27: 5
28: 5
29: 5
30: 5
31: 5
32: 5
33: 5
34: 5
35: 5
36: 5
37: 5
38: 5
39: 5
40: 5
41: 5
42: 5
43: 5
44: 5
45: 5
46: 5
47: 5
48: 5
49: 5
50: 5
51: 5
52: 5
53: 5
54: 5
55: 5
56: 5
57: 5
58: 5
59: 5
60: 5
61: 5
62: 5
63: 5
64: 5
65: 5
66: 5
67: 5
68: 5
69: 5
70: 5
71: 5
edge from: to
72: 0
73: 1
73: 4
74: 5
75: 9
75: 10
75: 11
76: 5
76: 15
76: 16
77: 17
77: 18
78: 20
79: 25
80: 27
81: 32
81: 33
82: 36
83: 39
83: 40
83: 41
84: 42
85: 14
85: 45
86: 47
86: 48
87: 43
87: 45
87: 47
87: 48
87: 49
87: 50
88: 55
88: 56
89: 57
89: 58
90: 59
90: 60
91: 64
91: 65
1: 72
2: 72
3: 72
4: 72
5: 73
6: 73
7: 74
8: 74
9: 74
10: 74
11: 74
12: 75
13: 75
14: 75
15: 75
16: 75
17: 76
18: 76
19: 77
20: 77
21: 77
22: 78
23: 78
24: 78
25: 78
26: 78
27: 79
28: 79
29: 80
30: 80
31: 80
32: 80
33: 80
34: 81
35: 81
36: 81
37: 81
38: 82
39: 82
40: 82
41: 82
42: 83
43: 83
44: 84
45: 84
46: 84
47: 85
48: 85
49: 86
50: 86
51: 87
52: 87
53: 87
54: 87
55: 87
56: 87
57: 88
58: 88
59: 89
60: 89
61: 90
62: 90
63: 90
64: 90
65: 90
66: 91
67: 91
68: 91
69: 91
70: 91
71: 91
segment: [22]
vertex id: label
56: 0
57: 0
58: 0
59: 0
60: 0
61: 2
62: 3
63: 2
64: 3
65: 2
66: 3
67: 2
68: 3
69: 2
70: 3
71: 2
72: 3
73: 2
74: 3
75: 2
0: 5
1: 5
2: 5
3: 5
4: 5
5: 5
6: 5
7: 5
8: 5
9: 5
10: 5
11: 5
12: 5
13: 5
14: 5
15: 5
16: 5
17: 5
18: 5
19: 5
20: 5
21: 5
22: 5
23: 5
24: 5
25: 5
26: 5
27: 5
28: 5
29: 5
30: 5
31: 5
32: 5
33: 5
34: 5
35: 5
36: 5
37: 5
38: 5
39: 5
40: 5
41: 5
42: 5
43: 5
44: 5
45: 5
46: 5
47: 5
48: 5
49: 5
50: 5
51: 5
52: 5
53: 5
54: 5
55: 5
edge from: to
56: 0
57: 1
57: 2
57: 3
57: 4
58: 5
59: 3
59: 8
60: 8
60: 9
60: 10
60: 11
61: 12
62: 16
62: 17
63: 17
64: 5
64: 20
64: 21
65: 22
65: 23
66: 24
67: 28
68: 31
68: 32
69: 34
69: 35
70: 37
71: 38
71: 39
71: 40
72: 43
72: 44
73: 46
73: 47
74: 15
74: 47
74: 48
75: 51
75: 52
1: 56
2: 56
3: 56
4: 56
5: 57
6: 57
7: 58
8: 58
9: 58
10: 59
11: 59
12: 60
13: 60
14: 61
15: 61
16: 61
17: 61
18: 62
19: 63
20: 63
21: 63
22: 64
23: 64
24: 65
25: 65
26: 66
27: 66
28: 66
29: 66
30: 67
31: 67
32: 67
33: 68
34: 68
35: 68
36: 69
37: 69
38: 69
39: 70
40: 70
41: 71
42: 71
43: 71
44: 71
45: 72
46: 72
47: 72
48: 73
49: 73
50: 74
51: 74
52: 74
53: 75
54: 75
55: 75
segment: [23]
vertex id: label
66: 0
67: 0
68: 0
69: 0
70: 0
71: 0
72: 0
73: 0
74: 2
75: 3
76: 2
77: 3
78: 2
79: 3
80: 2
81: 3
82: 2
83: 3
84: 2
85: 3
0: 5
1: 5
2: 5
3: 5
4: 5
5: 5
6: 5
7: 5
8: 5
9: 5
10: 5
11: 5
12: 5
13: 5
14: 5
15: 5
16: 5
17: 5
18: 5
19: 5
20: 5
21: 5
22: 5
23: 5
24: 5
25: 5
26: 5
27: 5
28: 5
29: 5
30: 5
31: 5
32: 5
33: 5
34: 5
35: 5
36: 5
37: 5
38: 5
39: 5
40: 5
41: 5
42: 5
43: 5
44: 5
45: 5
46: 5
47: 5
48: 5
49: 5
50: 5
51: 5
52: 5
53: 5
54: 5
55: 5
56: 5
57: 5
58: 5
59: 5
60: 5
61: 5
62: 5
63: 5
64: 5
65: 5
edge from: to
66: 0
66: 1
67: 1
67: 4
68: 5
68: 6
68: 7
69: 2
69: 7
69: 8
70: 13
70: 14
71: 14
72: 17
72: 18
73: 19
73: 21
73: 22
74: 25
74: 27
75: 31
76: 34
76: 35
77: 36
77: 37
77: 38
78: 40
79: 44
80: 14
80: 44
80: 45
81: 50
81: 51
82: 52
82: 53
83: 55
84: 56
84: 57
84: 58
85: 52
85: 57
85: 59
85: 60
2: 66
3: 66
4: 66
5: 67
6: 67
7: 67
8: 68
9: 69
10: 69
11: 69
12: 69
13: 69
14: 69
15: 70
16: 71
17: 71
18: 71
19: 72
20: 72
21: 72
22: 72
23: 73
24: 73
25: 73
26: 73
27: 73
28: 74
29: 74
30: 74
31: 74
32: 74
33: 75
34: 75
35: 75
36: 76
37: 76
38: 76
39: 77
40: 77
41: 77
42: 78
43: 78
44: 78
45: 79
46: 79
47: 80
48: 80
49: 80
50: 80
51: 80
52: 81
53: 81
54: 82
55: 82
56: 82
57: 83
58: 83
59: 84
60: 84
61: 85
62: 85
63: 85
64: 85
65: 85
segment: [24]
vertex id: label
57: 0
58: 2
59: 3
60: 2
61: 3
62: 2
63: 3
64: 2
65: 3
66: 2
67: 3
68: 2
69: 3
70: 2
71: 3
72: 2
73: 3
74: 2
75: 3
76: 2
0: 5
1: 5
2: 5
3: 5
4: 5
5: 5
6: 5
7: 5
8: 5
9: 5
10: 5
11: 5
12: 5
13: 5
14: 5
15: 5
16: 5
17: 5
18: 5
19: 5
20: 5
21: 5
22: 5
23: 5
24: 5
25: 5
26: 5
27: 5
28: 5
29: 5
30: 5
31: 5
32: 5
33: 5
34: 5
35: 5
36: 5
37: 5
38: 5
39: 5
40: 5
41: 5
42: 5
43: 5
44: 5
45: 5
46: 5
47: 5
48: 5
49: 5
50: 5
51: 5
52: 5
53: 5
54: 5
55: 5
56: 5
edge from: to
57: 0
58: 2
59: 4
60: 2
60: 7
60: 8
61: 10
61: 11
62: 11
63: 13
63: 14
64: 17
65: 19
65: 20
66: 20
66: 21
67: 13
67: 22
67: 24
67: 25
68: 24
68: 25
68: 27
69: 29
69: 30
69: 31
70: 33
71: 38
72: 40
73: 44
74: 47
74: 48
75: 49
75: 50
75: 51
76: 51
76: 52
1: 57
2: 57
3: 58
4: 58
5: 58
6: 59
7: 59
8: 59
9: 60
10: 60
11: 60
12: 61
13: 62
14: 62
15: 63
16: 63
17: 63
18: 63
19: 64
20: 64
21: 65
22: 66
23: 66
24: 66
25: 66
26: 67
27: 67
28: 68
29: 68
30: 68
31: 68
32: 69
33: 69
34: 69
35: 70
36: 70
37: 70
38: 70
39: 70
40: 71
41: 71
42: 72
43: 72
44: 72
45: 73
46: 73
47: 73
48: 73
49: 74
50: 74
51: 74
52: 75
53: 76
54: 76
55: 76
56: 76
segment: [25]
vertex id: label
61: 0
62: 2
63: 3
64: 2
65: 3
66: 2
67: 3
68: 2
69: 3
70: 4
71: 4
72: 4
73: 4
74: 4
75: 4
76: 4
77: 4
78: 4
79: 4
80: 4
0: 5
1: 5
2: 5
3: 5
4: 5
5: 5
6: 5
7: 5
8: 5
9: 5
10: 5
11: 5
12: 5
13: 5
14: 5
15: 5
16: 5
17: 5
18: 5
19: 5
20: 5
21: 5
22: 5
23: 5
24: 5
25: 5
26: 5
27: 5
28: 5
29: 5
30: 5
31: 5
32: 5
33: 5
34: 5
35: 5
36: 5
37: 5
38: 5
39: 5
40: 5
41: 5
42: 5
43: 5
44: 5
45: 5
46: 5
47: 5
48: 5
49: 5
50: 5
51: 5
52: 5
53: 5
54: 5
55: 5
56: 5
57: 5
58: 5
59: 5
60: 5
edge from: to
61: 0
61: 1
62: 1
62: 4
63: 6
64: 10
64: 11
65: 12
66: 15
67: 17
67: 18
68: 21
69: 24
70: 8
70: 25
71: 27
72: 31
73: 33
74: 35
75: 39
75: 40
76: 42
76: 43
77: 11
77: 45
77: 46
77: 47
78: 50
79: 53
79: 54
80: 57
2: 61
3: 61
4: 61
5: 62
6: 62
7: 62
8: 63
9: 63
10: 63
11: 63
12: 64
13: 64
14: 65
15: 65
16: 65
17: 66
18: 66
19: 67
20: 67
21: 67
22: 67
23: 68
24: 68
25: 69
26: 69
27: 70
28: 70
29: 71
30: 71
31: 71
32: 71
33: 72
34: 73
35: 73
36: 73
37: 74
38: 74
39: 74
40: 74
41: 75
42: 75
43: 75
44: 76
45: 76
46: 76
47: 76
48: 77
49: 77
50: 77
51: 77
52: 78
53: 78
54: 78
55: 79
56: 79
57: 79
58: 80
59: 80
60: 80
segment: [26]
vertex id: label
69: 0
70: 0
71: 0
72: 2
73: 3
74: 2
75: 3
76: 2
77: 3
78: 2
79: 3
80: 2
81: 3
82: 2
83: 3
84: 2
85: 3
86: 2
87: 3
88: 2
0: 5
1: 5
2: 5
3: 5
4: 5
5: 5
6: 5
7: 5
8: 5
9: 5
10: 5
11: 5
12: 5
13: 5
14: 5
15: 5
16: 5
17: 5
18: 5
19: 5
20: 5
21: 5
22: 5
23: 5
24: 5
25: 5
26: 5
27: 5
28: 5
29: 5
30: 5
31: 5
32: 5
33: 5
34: 5
35: 5
36: 5
37: 5
38: 5
39: 5
40: 5
41: 5
42: 5
43: 5
44: 5
45: 5
46: 5
47: 5
48: 5
49: 5
50: 5
51: 5
52: 5
53: 5
54: 5
55: 5
56: 5
57: 5
58: 5
59: 5
60: 5
61: 5
62: 5
63: 5
64: 5
65: 5
66: 5
67: 5
68: 5
edge from: to
69: 0
69: 1
70: 0
70: 1
70: 3
71: 6
72: 11
73: 14
74: 18
75: 24
76: 2
76: 27
76: 28
77: 30
77: 31
78: 34
79: 38
80: 41
81: 44
82: 47
82: 48
83: 52
84: 54
85: 58
86: 60
86: 61
87: 63
88: 66
88: 67
2: 69
3: 69
4: 70
5: 70
6: 70
7: 70
8: 71
9: 71
10: 71
11: 71
12: 71
13: 72
14: 72
15: 72
16: 73
17: 73
18: 73
19: 73
20: 74
21: 74
22: 74
23: 74
24: 74
25: 75
26: 75
27: 75
28: 75
29: 76
30: 76
31: 76
32: 77
33: 77
34: 77
35: 77
36: 78
37: 78
38: 78
39: 78
40: 79
41: 79
42: 79
43: 80
44: 80
45: 80
46: 81
47: 81
48: 81
49: 82
50: 82
51: 82
52: 82
53: 82
54: 83
55: 83
56: 84
57: 84
58: 84
59: 84
60: 85
61: 85
62: 86
63: 86
64: 86
65: 87
66: 87
67: 87
68: 88
segment: [27]
vertex id: label
73: 0
74: 0
75: 2
76: 3
77: 2
78: 3
79: 2
80: 3
81: 2
82: 3
83: 2
84: 3
85: 2
86: 3
87: 2
88: 3
89: 2
90: 3
91: 2
92: 3
0: 5
1: 5
2: 5
3: 5
4: 5
5: 5
6: 5
7: 5
8: 5
9: 5
10: 5
11: 5
12: 5
13: 5
14: 5
15: 5
16: 5
17: 5
18: 5
19: 5
20: 5
21: 5
22: 5
23: 5
24: 5
25: 5
26: 5
27: 5
28: 5
29: 5
30: 5
31: 5
32: 5
33: 5
34: 5
35: 5
36: 5
37: 5
38: 5
39: 5
40: 5
41: 5
42: 5
43: 5
44: 5
45: 5
46: 5
47: 5
48: 5
49: 5
50: 5
51: 5
52: 5
53: 5
54: 5
55: 5
56: 5
57: 5
58: 5
59: 5
60: 5
61: 5
62: 5
63: 5
64: 5
65: 5
66: 5
67: 5
68: 5
69: 5
70: 5
71: 5
72: 5
edge from: to
73: 0
73: 1
74: 3
75: 4
76: 3
76: 8
77: 10
77: 11
78: 1
78: 10
78: 12
78: 13
78: 14
79: 17
80: 20
81: 27
81: 28
82: 28
83: 33
83: 34
84: 39
84: 40
84: 41
85: 42
86: 11
86: 46
86: 47
87: 50
87: 51
88: 53
89: 55
89: 56
90: 53
90: 58
90: 60
90: 61
91: 63
91: 64
92: 65
92: 67
92: 68
2: 73
3: 73
4: 74
5: 74
6: 75
7: 75
8: 75
9: 75
10: 76
11: 76
12: 77
13: 77
14: 77
15: 78
16: 78
17: 78
18: 78
19: 79
20: 79
21: 79
22: 80
23: 80
24: 80
25: 80
26: 80
27: 80
28: 80
29: 81
30: 82
31: 82
32: 82
33: 82
34: 82
35: 83
36: 83
37: 83
38: 83
39: 83
40: 83
41: 83
42: 84
43: 84
44: 85
45: 85
46: 85
47: 85
48: 86
49: 86
50: 86
51: 86
52: 87
53: 87
54: 87
55: 88
56: 88
57: 89
58: 89
59: 89
60: 89
61: 89
62: 90
63: 90
64: 90
65: 91
66: 91
67: 91
68: 91
69: 92
70: 92
71: 92
72: 92
segment: [28]
vertex id: label
58: 0
59: 0
60: 4
61: 4
62: 4
63: 4
64: 4
65: 4
66: 4
67: 4
68: 4
69: 4
70: 4
71: 4
72: 4
73: 4
74: 4
75: 4
76: 4
77: 4
0: 5
1: 5
2: 5
3: 5
4: 5
5: 5
6: 5
7: 5
8: 5
9: 5
10: 5
11: 5
12: 5
13: 5
14: 5
15: 5
16: 5
17: 5
18: 5
19: 5
20: 5
21: 5
22: 5
23: 5
24: 5
25: 5
26: 5
27: 5
28: 5
29: 5
30: 5
31: 5
32: 5
33: 5
34: 5
35: 5
36: 5
37: 5
38: 5
39: 5
40: 5
41: 5
42: 5
43: 5
44: 5
45: 5
46: 5
47: 5
48: 5
49: 5
50: 5
51: 5
52: 5
53: 5
54: 5
55: 5
56: 5
57: 5
edge from: to
58: 0
59: 0
59: 1
59: 3
60: 6
60: 7
61: 3
61: 8
61: 9
62: 1
62: 13
62: 14
63: 19
64: 21
65: 22
66: 25
67: 9
67: 28
68: 31
69: 33
70: 11
70: 35
70: 36
71: 38
72: 43
72: 44
73: 15
73: 48
74: 49
74: 50
75: 52
76: 54
76: 55
77: 55
1: 58
2: 58
3: 58
4: 59
5: 59
6: 59
7: 59
8: 60
9: 60
10: 61
11: 61
12: 61
13: 61
14: 61
15: 62
16: 62
17: 62
18: 62
19: 62
20: 62
21: 63
22: 63
23: 64
24: 65
25: 65
26: 65
27: 66
28: 66
29: 66
30: 67
31: 67
32: 67
33: 68
34: 69
35: 69
36: 69
37: 70
38: 70
39: 70
40: 71
41: 71
42: 71
43: 71
44: 71
45: 72
46: 72
47: 72
48: 72
49: 72
50: 73
51: 74
52: 74
53: 75
54: 75
55: 75
56: 76
57: 77
segment: [29]
vertex id: label
68: 0
69: 2
70: 3
71: 2
72: 3
73: 2
74: 3
75: 2
76: 3
77: 2
78: 3
79: 2
80: 3
81: 2
82: 3
83: 2
84: 3
85: 2
86: 3
87: 2
0: 5
1: 5
2: 5
3: 5
4: 5
5: 5
6: 5
7: 5
8: 5
9: 5
10: 5
11: 5
12: 5
13: 5
14: 5
15: 5
16: 5
17: 5
18: 5
19: 5
20: 5
21: 5
22: 5
23: 5
24: 5
25: 5
26: 5
27: 5
28: 5
29: 5
30: 5
31: 5
32: 5
33: 5
34: 5
35: 5
36: 5
37: 5
38: 5
39: 5
40: 5
41: 5
42: 5
43: 5
44: 5
45: 5
46: 5
47: 5
48: 5
49: 5
50: 5
51: 5
52: 5
53: 5
54: 5
55: 5
56: 5
57: 5
58: 5
59: 5
60: 5
61: 5
62: 5
63: 5
64: 5
65: 5
66: 5
67: 5
edge from: to
68: 0
68: 1
69: 6
69: 7
70: 6
70: 8
70: 9
70: 10
70: 11
71: 11
72: 5
72: 15
73: 18
74: 21
74: 22
75: 27
76: 9
76: 28
77: 30
77: 31
78: 34
79: 37
79: 38
80: 40
81: 42
82: 43
82: 44
83: 46
83: 47
83: 48
84: 52
85: 13
85: 55
85: 56
86: 18
86: 58
87: 54
87: 59
87: 61
87: 62
2: 68
3: 68
4: 68
5: 68
6: 68
7: 68
8: 69
9: 69
10: 69
11: 69
12: 70
13: 71
14: 71
15: 71
16: 71
17: 72
18: 72
19: 72
20: 73
21: 73
22: 73
23: 74
24: 74
25: 74
26: 74
27: 74
28: 74
29: 75
30: 76
31: 76
32: 77
33: 77
34: 77
35: 77
36: 78
37: 78
38: 78
39: 79
40: 79
41: 79
42: 80
43: 80
44: 81
45: 82
46: 82
47: 82
48: 82
49: 83
50: 83
51: 83
52: 83
53: 83
54: 84
55: 84
56: 84
57: 85
58: 85
59: 85
60: 86
61: 86
62: 86
63: 87
64: 87
65: 87
66: 87
67: 87
