segment: [0]
vertex id: label
59: 0
60: 1
61: 3
62: 1
63: 3
64: 1
65: 3
66: 1
67: 3
68: 1
69: 3
70: 1
71: 3
72: 0
73: 1
74: 3
75: 1
76: 3
77: 1
78: 3
0: 5
1: 5
2: 5
3: 5
4: 5
5: 5
6: 5
7: 5
8: 5
9: 5
10: 5
11: 5
12: 5
13: 5
14: 5
15: 5
16: 5
17: 5
18: 5
19: 5
20: 5
21: 5
22: 5
23: 5
24: 5
25: 5
26: 5
27: 5
28: 5
29: 5
30: 5
31: 5
32: 5
33: 5
34: 5
35: 5
36: 5
37: 5
38: 5
39: 5
40: 5
41: 5
42: 5
43: 5
44: 5
45: 5
46: 5
47: 5
48: 5
49: 5
50: 5
51: 5
52: 5
53: 5
54: 5
55: 5
56: 5
57: 5
58: 5
edge from: to
59: 0
59: 1
60: 1
60: 2
61: 5
62: 8
63: 7
63: 12
64: 14
65: 16
66: 5
66: 17
67: 11
67: 17
67: 19
68: 23
69: 24
69: 27
70: 29
70: 30
71: 25
71: 29
71: 31
71: 32
71: 33
72: 33
72: 34
73: 21
73: 32
73: 36
73: 37
74: 40
74: 41
75: 42
76: 42
76: 47
76: 48
77: 45
77: 50
77: 51
78: 12
78: 54
2: 59
3: 60
4: 60
5: 60
6: 61
7: 61
8: 61
9: 62
10: 62
11: 62
12: 62
13: 63
14: 63
15: 64
16: 64
17: 65
18: 66
19: 66
20: 67
21: 67
22: 67
23: 67
24: 68
25: 68
26: 68
27: 68
28: 69
29: 69
30: 69
31: 70
32: 70
33: 70
34: 71
35: 72
36: 72
37: 72
38: 73
39: 73
40: 73
41: 73
42: 74
43: 74
44: 75
45: 75
46: 75
47: 75
48: 75
49: 76
50: 76
51: 76
52: 77
53: 77
54: 77
55: 78
56: 78
57: 78
58: 78
segment: [1]
vertex id: label
55: 0
56: 1
57: 3
58: 1
59: 3
60: 1
61: 2
62: 0
63: 1
64: 3
65: 1
66: 3
67: 1
68: 3
69: 1
70: 3
71: 1
72: 3
73: 1
74: 3
0: 5
1: 5
2: 5
3: 5
4: 5
5: 5
6: 5
7: 5
8: 5
9: 5
10: 5
11: 5
12: 5
13: 5
14: 5
15: 5
16: 5
17: 5
18: 5
19: 5
20: 5
21: 5
22: 5
23: 5
24: 5
25: 5
26: 5
27: 5
28: 5
29: 5
30: 5
31: 5
32: 5
33: 5
34: 5
35: 5
36: 5
37: 5
38: 5
39: 5
40: 5
41: 5
42: 5
43: 5
44: 5
45: 5
46: 5
47: 5
48: 5
49: 5
50: 5
51: 5
52: 5
53: 5
54: 5
edge from: to
55: 0
55: 1
56: 1
56: 3
56: 4
57: 5
57: 6
58: 2
58: 9
59: 10
59: 11
60: 8
60: 12
60: 14
61: 16
61: 18
62: 5
62: 22
63: 25
64: 24
64: 27
65: 29
66: 7
66: 27
66: 31
67: 30
67: 33
67: 34
68: 34
69: 37
70: 34
70: 38
70: 39
71: 25
71: 43
71: 44
72: 46
73: 48
74: 50
74: 51
2: 55
3: 55
4: 55
5: 56
6: 56
7: 57
8: 57
9: 57
10: 58
11: 58
12: 59
13: 59
14: 59
15: 60
16: 60
17: 60
18: 60
19: 61
20: 61
21: 61
22: 61
23: 62
24: 62
25: 62
26: 63
27: 63
28: 64
29: 64
30: 65
31: 65
32: 66
33: 66
34: 66
35: 67
36: 68
37: 68
38: 68
39: 69
40: 70
41: 70
42: 70
43: 70
44: 70
45: 71
46: 71
47: 71
48: 72
49: 72
50: 73
51: 73
52: 74
53: 74
54: 74
segment: [2]
vertex id: label
60: 0
61: 1
62: 3
63: 1
64: 3
65: 1
66: 3
67: 1
68: 3
69: 0
70: 1
71: 3
72: 1
73: 3
74: 1
75: 3
76: 1
77: 3
78: 1
79: 3
0: 5
1: 5
2: 5
3: 5
4: 5
5: 5
6: 5
7: 5
8: 5
9: 5
10: 5
11: 5
12: 5
13: 5
14: 5
15: 5
16: 5
17: 5
18: 5
19: 5
20: 5
21: 5
22: 5
23: 5
24: 5
25: 5
26: 5
27: 5
28: 5
29: 5
30: 5
31: 5
32: 5
33: 5
34: 5
35: 5
36: 5
37: 5
38: 5
39: 5
40: 5
41: 5
42: 5
43: 5
44: 5
45: 5
46: 5
47: 5
48: 5
49: 5
50: 5
51: 5
52: 5
53: 5
54: 5
55: 5
56: 5
57: 5
58: 5
59: 5
edge from: to
60: 0
61: 1
62: 5
62: 6
62: 7
62: 8
63: 7
63: 12
64: 3
65: 14
65: 16
66: 18
66: 20
67: 21
68: 5
68: 22
69: 25
70: 28
71: 29
72: 32
73: 33
74: 37
74: 38
75: 42
76: 10
77: 47
77: 48
78: 50
79: 49
79: 54
79: 55
79: 56
1: 60
2: 60
3: 60
4: 60
5: 61
6: 61
7: 61
8: 61
9: 62
10: 62
11: 62
12: 62
13: 63
14: 64
15: 64
16: 64
17: 65
18: 65
19: 65
20: 65
21: 66
22: 67
23: 68
24: 68
25: 68
26: 69
27: 69
28: 69
29: 70
30: 70
31: 71
32: 71
33: 72
34: 72
35: 73
36: 73
37: 73
38: 73
39: 74
40: 74
41: 74
42: 74
43: 74
44: 75
45: 75
46: 76
47: 76
48: 76
49: 77
50: 77
51: 77
52: 78
53: 78
54: 78
55: 78
56: 78
57: 79
58: 79
59: 79
segment: [3]
vertex id: label
61: 0
62: 1
63: 3
64: 1
65: 3
66: 1
67: 3
68: 1
69: 3
70: 1
71: 3
72: 1
73: 3
74: 1
75: 3
76: 1
77: 3
78: 1
79: 3
80: 1
0: 5
1: 5
2: 5
3: 5
4: 5
5: 5
6: 5
7: 5
8: 5
9: 5
10: 5
11: 5
12: 5
13: 5
14: 5
15: 5
16: 5
17: 5
18: 5
19: 5
20: 5
21: 5
22: 5
23: 5
24: 5
25: 5
26: 5
27: 5
28: 5
29: 5
30: 5
31: 5
32: 5
33: 5
34: 5
35: 5
36: 5
37: 5
38: 5
39: 5
40: 5
41: 5
42: 5
43: 5
44: 5
45: 5
46: 5
47: 5
48: 5
49: 5
50: 5
51: 5
52: 5
53: 5
54: 5
55: 5
56: 5
57: 5
58: 5
59: 5
60: 5
edge from: to
61: 0
62: 1
62: 2
63: 10
64: 8
64: 12
64: 14
65: 15
66: 18
67: 11
67: 19
68: 5
69: 2
69: 21
69: 24
70: 26
71: 7
72: 28
72: 32
73: 10
73: 20
73: 31
73: 34
74: 8
74: 36
75: 38
76: 43
77: 10
77: 45
78: 42
78: 47
78: 48
79: 50
80: 55
80: 56
1: 61
2: 61
3: 62
4: 62
5: 62
6: 62
7: 62
8: 62
9: 62
10: 62
11: 63
12: 63
13: 63
14: 63
15: 64
16: 65
17: 65
18: 65
19: 66
20: 67
21: 67
22: 67
23: 68
24: 68
25: 69
26: 69
27: 70
28: 70
29: 70
30: 70
31: 70
32: 71
33: 72
34: 72
35: 72
36: 73
37: 74
38: 74
39: 74
40: 75
41: 75
42: 75
43: 75
44: 75
45: 76
46: 77
47: 77
48: 77
49: 78
50: 78
51: 78
52: 79
53: 79
54: 79
55: 79
56: 79
57: 80
58: 80
59: 80
60: 80
segment: [4]
vertex id: label
62: 0
63: 1
64: 3
65: 1
66: 3
67: 0
68: 1
69: 3
70: 1
71: 3
72: 1
73: 3
74: 1
75: 3
76: 1
77: 3
78: 1
79: 3
80: 1
81: 3
0: 5
1: 5
2: 5
3: 5
4: 5
5: 5
6: 5
7: 5
8: 5
9: 5
10: 5
11: 5
12: 5
13: 5
14: 5
15: 5
16: 5
17: 5
18: 5
19: 5
20: 5
21: 5
22: 5
23: 5
24: 5
25: 5
26: 5
27: 5
28: 5
29: 5
30: 5
31: 5
32: 5
33: 5
34: 5
35: 5
36: 5
37: 5
38: 5
39: 5
40: 5
41: 5
42: 5
43: 5
44: 5
45: 5
46: 5
47: 5
48: 5
49: 5
50: 5
51: 5
52: 5
53: 5
54: 5
55: 5
56: 5
57: 5
58: 5
59: 5
60: 5
61: 5
edge from: to
62: 0
63: 1
63: 3
64: 7
65: 3
65: 10
66: 15
67: 5
67: 17
68: 6
68: 12
68: 19
68: 21
69: 22
69: 24
69: 25
70: 26
71: 8
71: 16
71: 25
71: 28
72: 28
72: 32
73: 33
74: 34
75: 21
75: 36
75: 37
76: 42
77: 10
77: 45
78: 45
79: 47
79: 48
80: 52
80: 53
81: 58
1: 62
2: 62
3: 62
4: 63
5: 63
6: 63
7: 63
8: 64
9: 64
10: 64
11: 65
12: 65
13: 65
14: 65
15: 65
16: 66
17: 66
18: 67
19: 67
20: 67
21: 67
22: 68
23: 68
24: 68
25: 68
26: 69
27: 70
28: 70
29: 71
30: 71
31: 71
32: 71
33: 72
34: 72
35: 73
36: 74
37: 74
38: 75
39: 75
40: 75
41: 75
42: 75
43: 75
44: 76
45: 76
46: 77
47: 78
48: 78
49: 79
50: 79
51: 79
52: 79
53: 79
54: 80
55: 80
56: 80
57: 80
58: 80
59: 80
60: 81
61: 81
