segment: [0]
vertex id: label
57: 0
58: 2
59: 2
60: 4
61: 3
62: 3
63: 3
64: 3
65: 2
66: 3
67: 3
68: 3
69: 3
70: 3
71: 3
72: 3
73: 3
74: 3
75: 3
76: 3
0: 5
1: 5
2: 5
3: 5
4: 5
5: 5
6: 5
7: 5
8: 5
9: 5
10: 5
11: 5
12: 5
13: 5
14: 5
15: 5
16: 5
17: 5
18: 5
19: 5
20: 5
21: 5
22: 5
23: 5
24: 5
25: 5
26: 5
27: 5
28: 5
29: 5
30: 5
31: 5
32: 5
33: 5
34: 5
35: 5
36: 5
37: 5
38: 5
39: 5
40: 5
41: 5
42: 5
43: 5
44: 5
45: 5
46: 5
47: 5
48: 5
49: 5
50: 5
51: 5
52: 5
53: 5
54: 5
55: 5
56: 5
edge from: to
57: 0
57: 1
58: 4
59: 3
59: 6
60: 4
60: 7
60: 8
60: 9
61: 10
61: 11
62: 12
63: 15
63: 17
63: 18
64: 9
64: 17
64: 21
65: 21
66: 21
66: 25
67: 23
68: 28
68: 33
69: 31
69: 37
70: 33
71: 36
72: 37
72: 44
73: 41
73: 45
73: 46
74: 43
74: 47
75: 46
75: 52
76: 44
76: 53
2: 57
3: 57
4: 57
5: 57
6: 58
7: 58
8: 59
9: 59
10: 60
11: 60
12: 60
13: 61
14: 61
15: 62
16: 62
17: 62
18: 62
19: 63
20: 63
21: 63
22: 64
23: 64
24: 64
25: 64
26: 65
27: 66
28: 66
29: 67
30: 67
31: 67
32: 67
33: 67
34: 67
35: 68
36: 68
37: 68
38: 68
39: 69
40: 69
41: 70
42: 70
43: 70
44: 70
45: 71
46: 72
47: 73
48: 74
49: 74
50: 74
51: 74
52: 74
53: 75
54: 75
55: 76
56: 76
segment: [1]
vertex id: label
61: 0
62: 3
63: 3
64: 3
65: 3
66: 3
67: 3
68: 3
69: 2
70: 2
71: 2
72: 3
73: 3
74: 3
75: 3
76: 1
77: 3
78: 3
79: 3
80: 3
0: 5
1: 5
2: 5
3: 5
4: 5
5: 5
6: 5
7: 5
8: 5
9: 5
10: 5
11: 5
12: 5
13: 5
14: 5
15: 5
16: 5
17: 5
18: 5
19: 5
20: 5
21: 5
22: 5
23: 5
24: 5
25: 5
26: 5
27: 5
28: 5
29: 5
30: 5
31: 5
32: 5
33: 5
34: 5
35: 5
36: 5
37: 5
38: 5
39: 5
40: 5
41: 5
42: 5
43: 5
44: 5
45: 5
46: 5
47: 5
48: 5
49: 5
50: 5
51: 5
52: 5
53: 5
54: 5
55: 5
56: 5
57: 5
58: 5
59: 5
60: 5
edge from: to
61: 0
61: 1
62: 2
62: 4
63: 3
63: 6
64: 3
64: 10
64: 11
64: 12
65: 15
65: 17
66: 16
66: 18
66: 19
67: 19
67: 22
68: 21
68: 24
69: 25
70: 31
71: 14
71: 27
71: 33
72: 32
72: 35
72: 36
73: 31
74: 38
74: 40
74: 41
75: 35
75: 42
76: 37
77: 43
77: 47
78: 41
79: 45
80: 53
80: 58
2: 61
3: 61
4: 61
5: 62
6: 62
7: 62
8: 63
9: 63
10: 63
11: 63
12: 63
13: 64
14: 64
15: 64
16: 64
17: 64
18: 64
19: 65
20: 66
21: 66
22: 66
23: 66
24: 67
25: 67
26: 68
27: 68
28: 68
29: 68
30: 68
31: 69
32: 70
33: 70
34: 71
35: 71
36: 71
37: 72
38: 72
39: 73
40: 73
41: 73
42: 74
43: 74
44: 75
45: 75
46: 76
47: 76
48: 77
49: 77
50: 77
51: 78
52: 78
53: 78
54: 78
55: 78
56: 79
57: 79
58: 79
59: 80
60: 80
segment: [2]
vertex id: label
74: 0
75: 3
76: 3
77: 3
78: 3
79: 3
80: 3
81: 3
82: 3
83: 3
84: 3
85: 0
86: 3
87: 2
88: 2
89: 0
90: 3
91: 1
92: 3
93: 3
0: 5
1: 5
2: 5
3: 5
4: 5
5: 5
6: 5
7: 5
8: 5
9: 5
10: 5
11: 5
12: 5
13: 5
14: 5
15: 5
16: 5
17: 5
18: 5
19: 5
20: 5
21: 5
22: 5
23: 5
24: 5
25: 5
26: 5
27: 5
28: 5
29: 5
30: 5
31: 5
32: 5
33: 5
34: 5
35: 5
36: 5
37: 5
38: 5
39: 5
40: 5
41: 5
42: 5
43: 5
44: 5
45: 5
46: 5
47: 5
48: 5
49: 5
50: 5
51: 5
52: 5
53: 5
54: 5
55: 5
56: 5
57: 5
58: 5
59: 5
60: 5
61: 5
62: 5
63: 5
64: 5
65: 5
66: 5
67: 5
68: 5
69: 5
70: 5
71: 5
72: 5
73: 5
edge from: to
74: 0
74: 1
74: 2
74: 3
75: 7
76: 3
76: 10
76: 11
76: 12
77: 12
77: 14
78: 14
78: 16
79: 19
80: 22
81: 25
81: 30
82: 28
83: 32
83: 36
83: 39
84: 35
84: 42
84: 43
85: 47
86: 46
86: 52
87: 45
87: 55
88: 49
88: 60
89: 62
90: 52
91: 54
91: 59
91: 60
91: 66
92: 62
92: 68
93: 58
93: 65
93: 71
4: 74
5: 74
6: 74
7: 74
8: 74
9: 75
10: 75
11: 75
12: 75
13: 76
14: 76
15: 76
16: 77
17: 77
18: 78
19: 78
20: 78
21: 78
22: 78
23: 78
24: 79
25: 79
26: 79
27: 79
28: 80
29: 80
30: 80
31: 81
32: 81
33: 81
34: 81
35: 82
36: 82
37: 82
38: 82
39: 82
40: 83
41: 83
42: 83
43: 83
44: 84
45: 84
46: 84
47: 84
48: 85
49: 85
50: 85
51: 85
52: 85
53: 86
54: 86
55: 86
56: 87
57: 87
58: 87
59: 87
60: 87
61: 88
62: 88
63: 89
64: 89
65: 90
66: 90
67: 91
68: 91
69: 92
70: 92
71: 92
72: 93
73: 93
segment: [3]
vertex id: label
62: 0
63: 3
64: 3
65: 3
66: 3
67: 3
68: 2
69: 4
70: 0
71: 3
72: 3
73: 3
74: 3
75: 2
76: 3
77: 3
78: 3
79: 3
80: 4
81: 3
0: 5
1: 5
2: 5
3: 5
4: 5
5: 5
6: 5
7: 5
8: 5
9: 5
10: 5
11: 5
12: 5
13: 5
14: 5
15: 5
16: 5
17: 5
18: 5
19: 5
20: 5
21: 5
22: 5
23: 5
24: 5
25: 5
26: 5
27: 5
28: 5
29: 5
30: 5
31: 5
32: 5
33: 5
34: 5
35: 5
36: 5
37: 5
38: 5
39: 5
40: 5
41: 5
42: 5
43: 5
44: 5
45: 5
46: 5
47: 5
48: 5
49: 5
50: 5
51: 5
52: 5
53: 5
54: 5
55: 5
56: 5
57: 5
58: 5
59: 5
60: 5
61: 5
edge from: to
62: 0
63: 3
64: 4
64: 5
65: 10
65: 11
66: 12
67: 16
68: 20
68: 24
69: 22
70: 24
70: 28
70: 29
71: 26
72: 27
73: 28
74: 30
74: 36
74: 37
75: 31
75: 37
76: 33
77: 37
78: 39
79: 41
79: 50
80: 45
80: 55
81: 58
1: 62
2: 62
3: 62
4: 63
5: 63
6: 64
7: 64
8: 64
9: 64
10: 64
11: 64
12: 64
13: 65
14: 65
15: 66
16: 66
17: 66
18: 66
19: 66
20: 67
21: 67
22: 67
23: 67
24: 67
25: 68
26: 68
27: 68
28: 69
29: 69
30: 70
31: 70
32: 70
33: 71
34: 72
35: 73
36: 73
37: 73
38: 74
39: 75
40: 75
41: 76
42: 76
43: 76
44: 76
45: 76
46: 77
47: 77
48: 77
49: 78
50: 78
51: 79
52: 79
53: 79
54: 79
55: 79
56: 80
57: 80
58: 80
59: 81
60: 81
61: 81
segment: [4]
vertex id: label
87: 0
88: 3
89: 3
90: 3
91: 3
92: 4
93: 0
94: 3
95: 3
96: 3
97: 3
98: 3
99: 3
100: 3
101: 3
102: 2
103: 2
104: 3
105: 3
106: 3
0: 5
1: 5
2: 5
3: 5
4: 5
5: 5
6: 5
7: 5
8: 5
9: 5
10: 5
11: 5
12: 5
13: 5
14: 5
15: 5
16: 5
17: 5
18: 5
19: 5
20: 5
21: 5
22: 5
23: 5
24: 5
25: 5
26: 5
27: 5
28: 5
29: 5
30: 5
31: 5
32: 5
33: 5
34: 5
35: 5
36: 5
37: 5
38: 5
39: 5
40: 5
41: 5
42: 5
43: 5
44: 5
45: 5
46: 5
47: 5
48: 5
49: 5
50: 5
51: 5
52: 5
53: 5
54: 5
55: 5
56: 5
57: 5
58: 5
59: 5
60: 5
61: 5
62: 5
63: 5
64: 5
65: 5
66: 5
67: 5
68: 5
69: 5
70: 5
71: 5
72: 5
73: 5
74: 5
75: 5
76: 5
77: 5
78: 5
79: 5
80: 5
81: 5
82: 5
83: 5
84: 5
85: 5
86: 5
edge from: to
87: 0
87: 1
87: 2
88: 5
88: 6
89: 4
89: 8
90: 12
90: 14
90: 15
91: 15
91: 17
91: 18
92: 18
92: 19
92: 20
93: 21
94: 24
94: 28
95: 27
96: 31
96: 37
96: 38
97: 32
97: 35
97: 36
97: 39
98: 35
98: 37
98: 38
98: 42
98: 43
99: 37
99: 44
100: 40
101: 46
101: 55
102: 50
102: 60
103: 16
103: 61
103: 62
103: 65
103: 68
104: 65
104: 67
104: 73
105: 62
105: 69
105: 76
106: 65
3: 87
4: 87
5: 87
6: 87
7: 88
8: 88
9: 88
10: 89
11: 89
12: 89
13: 89
14: 89
15: 89
16: 90
17: 90
18: 90
19: 91
20: 91
21: 92
22: 92
23: 92
24: 92
25: 92
26: 93
27: 93
28: 93
29: 93
30: 94
31: 94
32: 94
33: 94
34: 95
35: 95
36: 95
37: 95
38: 95
39: 96
40: 97
41: 97
42: 97
43: 97
44: 98
45: 98
46: 99
47: 99
48: 99
49: 99
50: 100
51: 100
52: 100
53: 100
54: 100
55: 100
56: 100
57: 101
58: 101
59: 101
60: 101
61: 101
62: 102
63: 102
64: 102
65: 102
66: 102
67: 102
68: 102
69: 103
70: 103
71: 103
72: 103
73: 103
74: 104
75: 104
76: 104
77: 105
78: 105
79: 105
80: 105
81: 106
82: 106
83: 106
84: 106
85: 106
86: 106
segment: [5]
vertex id: label
68: 0
69: 3
70: 3
71: 3
72: 3
73: 2
74: 0
75: 0
76: 3
77: 3
78: 3
79: 2
80: 2
81: 3
82: 2
83: 4
84: 1
85: 1
86: 1
87: 0
0: 5
1: 5
2: 5
3: 5
4: 5
5: 5
6: 5
7: 5
8: 5
9: 5
10: 5
11: 5
12: 5
13: 5
14: 5
15: 5
16: 5
17: 5
18: 5
19: 5
20: 5
21: 5
22: 5
23: 5
24: 5
25: 5
26: 5
27: 5
28: 5
29: 5
30: 5
31: 5
32: 5
33: 5
34: 5
35: 5
36: 5
37: 5
38: 5
39: 5
40: 5
41: 5
42: 5
43: 5
44: 5
45: 5
46: 5
47: 5
48: 5
49: 5
50: 5
51: 5
52: 5
53: 5
54: 5
55: 5
56: 5
57: 5
58: 5
59: 5
60: 5
61: 5
62: 5
63: 5
64: 5
65: 5
66: 5
67: 5
edge from: to
68: 0
69: 4
69: 5
70: 2
70: 7
70: 8
71: 10
72: 12
72: 14
73: 7
73: 13
73: 15
74: 16
75: 21
76: 23
77: 24
77: 26
77: 28
77: 29
78: 27
78: 33
79: 31
80: 41
81: 36
81: 39
81: 44
82: 42
83: 47
83: 50
83: 52
83: 53
84: 44
84: 53
84: 54
85: 52
85: 53
85: 58
86: 49
86: 60
87: 63
1: 68
2: 68
3: 68
4: 68
5: 68
6: 69
7: 69
8: 69
9: 70
10: 70
11: 70
12: 70
13: 71
14: 71
15: 71
16: 72
17: 73
18: 73
19: 73
20: 74
21: 74
22: 74
23: 74
24: 74
25: 74
26: 74
27: 75
28: 75
29: 76
30: 77
31: 77
32: 77
33: 77
34: 78
35: 78
36: 78
37: 78
38: 78
39: 79
40: 79
41: 79
42: 80
43: 80
44: 80
45: 81
46: 81
47: 81
48: 81
49: 81
50: 81
51: 81
52: 82
53: 82
54: 83
55: 84
56: 84
57: 84
58: 84
59: 85
60: 85
61: 86
62: 86
63: 86
64: 87
65: 87
66: 87
67: 87
segment: [6]
vertex id: label
61: 0
62: 3
63: 3
64: 2
65: 4
66: 0
67: 3
68: 2
69: 4
70: 3
71: 3
72: 3
73: 3
74: 3
75: 3
76: 3
77: 2
78: 3
79: 3
80: 2
0: 5
1: 5
2: 5
3: 5
4: 5
5: 5
6: 5
7: 5
8: 5
9: 5
10: 5
11: 5
12: 5
13: 5
14: 5
15: 5
16: 5
17: 5
18: 5
19: 5
20: 5
21: 5
22: 5
23: 5
24: 5
25: 5
26: 5
27: 5
28: 5
29: 5
30: 5
31: 5
32: 5
33: 5
34: 5
35: 5
36: 5
37: 5
38: 5
39: 5
40: 5
41: 5
42: 5
43: 5
44: 5
45: 5
46: 5
47: 5
48: 5
49: 5
50: 5
51: 5
52: 5
53: 5
54: 5
55: 5
56: 5
57: 5
58: 5
59: 5
60: 5
edge from: to
61: 0
61: 1
62: 4
63: 3
63: 6
63: 7
64: 9
65: 11
66: 12
66: 14
67: 15
67: 17
68: 20
69: 18
69: 21
69: 22
70: 21
70: 24
71: 24
71: 28
72: 29
72: 31
72: 34
72: 35
73: 33
73: 39
74: 42
75: 36
76: 43
76: 47
77: 41
77: 46
77: 50
78: 42
78: 50
78: 51
79: 44
79: 53
80: 46
2: 61
3: 61
4: 61
5: 62
6: 62
7: 62
8: 63
9: 63
10: 63
11: 63
12: 64
13: 64
14: 65
15: 65
16: 66
17: 66
18: 66
19: 67
20: 67
21: 68
22: 68
23: 69
24: 69
25: 69
26: 70
27: 70
28: 70
29: 70
30: 71
31: 71
32: 71
33: 71
34: 71
35: 71
36: 72
37: 72
38: 72
39: 72
40: 72
41: 73
42: 73
43: 74
44: 74
45: 75
46: 75
47: 75
48: 76
49: 76
50: 76
51: 77
52: 78
53: 78
54: 78
55: 79
56: 79
57: 80
58: 80
59: 80
60: 80
segment: [7]
vertex id: label
69: 0
70: 3
71: 3
72: 3
73: 3
74: 3
75: 3
76: 3
77: 3
78: 3
79: 3
80: 3
81: 3
82: 3
83: 3
84: 3
85: 3
86: 2
87: 3
88: 3
0: 5
1: 5
2: 5
3: 5
4: 5
5: 5
6: 5
7: 5
8: 5
9: 5
10: 5
11: 5
12: 5
13: 5
14: 5
15: 5
16: 5
17: 5
18: 5
19: 5
20: 5
21: 5
22: 5
23: 5
24: 5
25: 5
26: 5
27: 5
28: 5
29: 5
30: 5
31: 5
32: 5
33: 5
34: 5
35: 5
36: 5
37: 5
38: 5
39: 5
40: 5
41: 5
42: 5
43: 5
44: 5
45: 5
46: 5
47: 5
48: 5
49: 5
50: 5
51: 5
52: 5
53: 5
54: 5
55: 5
56: 5
57: 5
58: 5
59: 5
60: 5
61: 5
62: 5
63: 5
64: 5
65: 5
66: 5
67: 5
68: 5
edge from: to
69: 0
69: 1
70: 3
71: 8
72: 11
72: 12
73: 13
74: 18
74: 19
74: 20
75: 20
75: 24
76: 14
76: 27
76: 33
77: 29
78: 32
79: 37
79: 42
80: 36
80: 44
81: 43
81: 47
82: 42
82: 50
83: 53
84: 46
84: 55
85: 48
85: 58
86: 50
86: 60
87: 52
88: 53
88: 58
88: 65
2: 69
3: 69
4: 70
5: 70
6: 70
7: 70
8: 70
9: 70
10: 70
11: 71
12: 71
13: 71
14: 72
15: 72
16: 72
17: 73
18: 73
19: 73
20: 73
21: 74
22: 74
23: 74
24: 74
25: 75
26: 75
27: 75
28: 75
29: 75
30: 75
31: 75
32: 75
33: 75
34: 76
35: 76
36: 77
37: 77
38: 77
39: 77
40: 78
41: 78
42: 78
43: 79
44: 79
45: 80
46: 80
47: 80
48: 81
49: 81
50: 81
51: 81
52: 82
53: 82
54: 83
55: 83
56: 83
57: 84
58: 84
59: 84
60: 85
61: 85
62: 86
63: 86
64: 86
65: 87
66: 88
67: 88
68: 88
segment: [8]
vertex id: label
45: 0
46: 3
47: 2
48: 2
49: 4
50: 3
51: 3
52: 3
53: 3
54: 3
55: 3
56: 3
57: 3
58: 3
59: 2
60: 3
61: 3
62: 3
63: 3
64: 2
0: 5
1: 5
2: 5
3: 5
4: 5
5: 5
6: 5
7: 5
8: 5
9: 5
10: 5
11: 5
12: 5
13: 5
14: 5
15: 5
16: 5
17: 5
18: 5
19: 5
20: 5
21: 5
22: 5
23: 5
24: 5
25: 5
26: 5
27: 5
28: 5
29: 5
30: 5
31: 5
32: 5
33: 5
34: 5
35: 5
36: 5
37: 5
38: 5
39: 5
40: 5
41: 5
42: 5
43: 5
44: 5
edge from: to
45: 0
46: 1
46: 2
47: 5
47: 6
48: 7
49: 4
49: 5
49: 7
49: 8
49: 9
50: 9
51: 12
52: 12
52: 14
52: 15
53: 14
54: 16
54: 18
55: 19
55: 20
56: 18
56: 21
57: 21
57: 25
58: 22
58: 24
58: 27
59: 23
60: 26
61: 27
62: 32
62: 36
63: 32
63: 39
64: 35
1: 45
2: 45
3: 46
4: 46
5: 46
6: 46
7: 47
8: 47
9: 48
10: 49
11: 49
12: 50
13: 50
14: 50
15: 51
16: 52
17: 52
18: 53
19: 53
20: 54
21: 55
22: 55
23: 56
24: 56
25: 56
26: 56
27: 57
28: 58
29: 59
30: 59
31: 59
32: 59
33: 60
34: 61
35: 61
36: 61
37: 62
38: 62
39: 62
40: 63
41: 63
42: 63
43: 63
44: 64
segment: [9]
vertex id: label
59: 0
60: 3
61: 3
62: 3
63: 3
64: 3
65: 3
66: 3
67: 3
68: 3
69: 3
70: 3
71: 3
72: 3
73: 2
74: 3
75: 3
76: 3
77: 3
78: 3
0: 5
1: 5
2: 5
3: 5
4: 5
5: 5
6: 5
7: 5
8: 5
9: 5
10: 5
11: 5
12: 5
13: 5
14: 5
15: 5
16: 5
17: 5
18: 5
19: 5
20: 5
21: 5
22: 5
23: 5
24: 5
25: 5
26: 5
27: 5
28: 5
29: 5
30: 5
31: 5
32: 5
33: 5
34: 5
35: 5
36: 5
37: 5
38: 5
39: 5
40: 5
41: 5
42: 5
43: 5
44: 5
45: 5
46: 5
47: 5
48: 5
49: 5
50: 5
51: 5
52: 5
53: 5
54: 5
55: 5
56: 5
57: 5
58: 5
edge from: to
59: 0
59: 1
59: 2
59: 3
60: 3
60: 6
61: 8
62: 10
63: 13
64: 15
65: 16
66: 19
66: 22
67: 21
67: 24
68: 22
68: 27
69: 23
69: 27
70: 26
70: 31
71: 32
71: 36
72: 31
72: 35
72: 37
72: 38
73: 40
73: 41
74: 36
74: 44
75: 39
76: 41
77: 45
77: 55
78: 57
4: 59
5: 59
6: 59
7: 59
8: 60
9: 60
10: 61
11: 61
12: 61
13: 62
14: 62
15: 62
16: 62
17: 63
18: 63
19: 64
20: 65
21: 65
22: 65
23: 65
24: 66
25: 66
26: 67
27: 67
28: 68
29: 69
30: 69
31: 69
32: 69
33: 70
34: 70
35: 70
36: 70
37: 71
38: 71
39: 72
40: 72
41: 72
42: 73
43: 73
44: 73
45: 74
46: 74
47: 74
48: 74
49: 75
50: 75
51: 76
52: 76
53: 76
54: 76
55: 76
56: 77
57: 77
58: 78
