segment: [0]
vertex id: label
59: 0
60: 4
61: 1
62: 3
63: 2
64: 0
65: 4
66: 3
67: 2
68: 0
69: 4
70: 3
71: 2
72: 0
73: 4
74: 3
75: 2
76: 0
77: 4
78: 2
0: 5
1: 5
2: 5
3: 5
4: 5
5: 5
6: 5
7: 5
8: 5
9: 5
10: 5
11: 5
12: 5
13: 5
14: 5
15: 5
16: 5
17: 5
18: 5
19: 5
20: 5
21: 5
22: 5
23: 5
24: 5
25: 5
26: 5
27: 5
28: 5
29: 5
30: 5
31: 5
32: 5
33: 5
34: 5
35: 5
36: 5
37: 5
38: 5
39: 5
40: 5
41: 5
42: 5
43: 5
44: 5
45: 5
46: 5
47: 5
48: 5
49: 5
50: 5
51: 5
52: 5
53: 5
54: 5
55: 5
56: 5
57: 5
58: 5
edge from: to
59: 0
60: 1
61: 1
61: 3
61: 5
61: 6
62: 4
63: 12
64: 14
64: 15
65: 16
65: 17
66: 8
66: 20
66: 21
67: 24
68: 26
68: 27
69: 11
70: 30
71: 33
72: 14
72: 36
73: 38
73: 39
74: 37
74: 38
74: 41
74: 42
74: 43
75: 46
76: 50
77: 52
77: 53
78: 57
1: 59
2: 59
3: 60
4: 60
5: 60
6: 60
7: 61
8: 61
9: 61
10: 61
11: 62
12: 62
13: 63
14: 63
15: 63
16: 64
17: 64
18: 65
19: 65
20: 65
21: 65
22: 66
23: 66
24: 66
25: 67
26: 67
27: 67
28: 68
29: 68
30: 69
31: 70
32: 70
33: 70
34: 71
35: 71
36: 71
37: 71
38: 72
39: 72
40: 73
41: 73
42: 73
43: 73
44: 74
45: 74
46: 74
47: 75
48: 75
49: 75
50: 75
51: 76
52: 76
53: 76
54: 77
55: 77
56: 77
57: 77
58: 78
segment: [1]
vertex id: label
59: 0
60: 4
61: 1
62: 3
63: 2
64: 0
65: 2
66: 0
67: 4
68: 1
69: 3
70: 2
71: 0
72: 2
73: 0
74: 4
75: 1
76: 1
77: 3
78: 2
0: 5
1: 5
2: 5
3: 5
4: 5
5: 5
6: 5
7: 5
8: 5
9: 5
10: 5
11: 5
12: 5
13: 5
14: 5
15: 5
16: 5
17: 5
18: 5
19: 5
20: 5
21: 5
22: 5
23: 5
24: 5
25: 5
26: 5
27: 5
28: 5
29: 5
30: 5
31: 5
32: 5
33: 5
34: 5
35: 5
36: 5
37: 5
38: 5
39: 5
40: 5
41: 5
42: 5
43: 5
44: 5
45: 5
46: 5
47: 5
48: 5
49: 5
50: 5
51: 5
52: 5
53: 5
54: 5
55: 5
56: 5
57: 5
58: 5
edge from: to
59: 0
59: 1
59: 2
60: 6
61: 8
62: 5
62: 12
62: 13
63: 14
64: 6
64: 15
64: 16
65: 18
65: 19
66: 21
66: 22
67: 25
67: 26
68: 23
68: 24
68: 26
68: 27
69: 32
70: 33
71: 4
71: 33
71: 34
72: 14
73: 32
73: 38
73: 39
74: 38
74: 42
74: 43
75: 9
75: 37
75: 44
75: 45
76: 18
76: 47
76: 48
77: 50
77: 51
78: 21
78: 55
3: 59
4: 59
5: 59
6: 59
7: 60
8: 60
9: 61
10: 61
11: 61
12: 61
13: 61
14: 62
15: 63
16: 63
17: 64
18: 64
19: 64
20: 65
21: 65
22: 65
23: 66
24: 66
25: 66
26: 66
27: 67
28: 68
29: 68
30: 68
31: 68
32: 68
33: 69
34: 70
35: 71
36: 71
37: 71
38: 72
39: 72
40: 73
41: 73
42: 73
43: 73
44: 74
45: 74
46: 75
47: 75
48: 75
49: 76
50: 76
51: 76
52: 77
53: 77
54: 77
55: 77
56: 77
57: 78
58: 78
segment: [2]
vertex id: label
58: 0
59: 4
60: 3
61: 2
62: 0
63: 2
64: 0
65: 2
66: 0
67: 4
68: 3
69: 1
70: 3
71: 2
72: 0
73: 2
74: 0
75: 2
76: 0
77: 4
0: 5
1: 5
2: 5
3: 5
4: 5
5: 5
6: 5
7: 5
8: 5
9: 5
10: 5
11: 5
12: 5
13: 5
14: 5
15: 5
16: 5
17: 5
18: 5
19: 5
20: 5
21: 5
22: 5
23: 5
24: 5
25: 5
26: 5
27: 5
28: 5
29: 5
30: 5
31: 5
32: 5
33: 5
34: 5
35: 5
36: 5
37: 5
38: 5
39: 5
40: 5
41: 5
42: 5
43: 5
44: 5
45: 5
46: 5
47: 5
48: 5
49: 5
50: 5
51: 5
52: 5
53: 5
54: 5
55: 5
56: 5
57: 5
edge from: to
58: 0
58: 1
58: 2
59: 5
59: 6
60: 9
61: 12
62: 14
63: 16
64: 2
64: 16
64: 17
65: 4
65: 10
65: 19
65: 20
66: 23
66: 24
67: 23
67: 24
67: 26
67: 27
68: 11
69: 12
69: 32
69: 33
70: 14
71: 15
71: 39
72: 42
73: 38
73: 43
73: 44
74: 9
74: 37
74: 44
74: 45
75: 47
75: 48
75: 49
76: 53
77: 21
77: 55
77: 56
3: 58
4: 58
5: 58
6: 58
7: 59
8: 59
9: 59
10: 60
11: 60
12: 60
13: 61
14: 61
15: 62
16: 62
17: 63
18: 64
19: 64
20: 64
21: 65
22: 65
23: 65
24: 65
25: 66
26: 66
27: 66
28: 67
29: 67
30: 68
31: 68
32: 68
33: 68
34: 69
35: 69
36: 69
37: 69
38: 70
39: 70
40: 70
41: 71
42: 71
43: 72
44: 72
45: 73
46: 74
47: 74
48: 74
49: 74
50: 75
51: 75
52: 75
53: 75
54: 76
55: 76
56: 76
57: 77
segment: [3]
vertex id: label
48: 0
49: 4
50: 1
51: 3
52: 2
53: 0
54: 4
55: 3
56: 1
57: 3
58: 2
59: 0
60: 2
61: 2
62: 0
63: 2
64: 0
65: 4
66: 3
67: 2
0: 5
1: 5
2: 5
3: 5
4: 5
5: 5
6: 5
7: 5
8: 5
9: 5
10: 5
11: 5
12: 5
13: 5
14: 5
15: 5
16: 5
17: 5
18: 5
19: 5
20: 5
21: 5
22: 5
23: 5
24: 5
25: 5
26: 5
27: 5
28: 5
29: 5
30: 5
31: 5
32: 5
33: 5
34: 5
35: 5
36: 5
37: 5
38: 5
39: 5
40: 5
41: 5
42: 5
43: 5
44: 5
45: 5
46: 5
47: 5
edge from: to
48: 0
49: 0
49: 1
50: 1
51: 2
51: 4
51: 5
52: 7
52: 8
53: 9
54: 11
54: 12
55: 5
56: 3
56: 14
56: 15
57: 7
57: 17
58: 8
59: 23
60: 23
60: 24
61: 26
61: 27
62: 15
62: 29
62: 30
63: 33
63: 34
64: 14
65: 38
65: 39
66: 42
67: 43
1: 48
2: 49
3: 50
4: 50
5: 50
6: 51
7: 51
8: 51
9: 52
10: 53
11: 53
12: 53
13: 54
14: 55
15: 55
16: 56
17: 56
18: 56
19: 57
20: 57
21: 57
22: 58
23: 58
24: 59
25: 60
26: 60
27: 60
28: 61
29: 61
30: 61
31: 62
32: 62
33: 62
34: 62
35: 63
36: 63
37: 63
38: 64
39: 64
40: 65
41: 65
42: 65
43: 66
44: 67
45: 67
46: 67
47: 67
segment: [4]
vertex id: label
65: 0
66: 4
67: 3
68: 2
69: 0
70: 4
71: 1
72: 3
73: 2
74: 0
75: 4
76: 1
77: 3
78: 2
79: 0
80: 2
81: 0
82: 4
83: 2
84: 0
0: 5
1: 5
2: 5
3: 5
4: 5
5: 5
6: 5
7: 5
8: 5
9: 5
10: 5
11: 5
12: 5
13: 5
14: 5
15: 5
16: 5
17: 5
18: 5
19: 5
20: 5
21: 5
22: 5
23: 5
24: 5
25: 5
26: 5
27: 5
28: 5
29: 5
30: 5
31: 5
32: 5
33: 5
34: 5
35: 5
36: 5
37: 5
38: 5
39: 5
40: 5
41: 5
42: 5
43: 5
44: 5
45: 5
46: 5
47: 5
48: 5
49: 5
50: 5
51: 5
52: 5
53: 5
54: 5
55: 5
56: 5
57: 5
58: 5
59: 5
60: 5
61: 5
62: 5
63: 5
64: 5
edge from: to
65: 0
65: 1
66: 2
67: 8
68: 8
68: 9
69: 5
69: 12
70: 2
70: 16
70: 17
71: 20
72: 23
72: 24
73: 13
73: 25
73: 26
74: 6
74: 15
74: 25
74: 29
74: 30
75: 33
76: 35
76: 36
77: 38
77: 39
78: 41
78: 42
79: 45
80: 46
81: 49
81: 50
82: 58
83: 60
84: 60
84: 61
2: 65
3: 65
4: 65
5: 65
6: 66
7: 66
8: 66
9: 67
10: 68
11: 68
12: 68
13: 68
14: 69
15: 69
16: 69
17: 69
18: 70
19: 70
20: 70
21: 71
22: 71
23: 71
24: 71
25: 72
26: 72
27: 73
28: 73
29: 73
30: 73
31: 74
32: 74
33: 74
34: 75
35: 75
36: 75
37: 76
38: 76
39: 76
40: 77
41: 77
42: 77
43: 78
44: 78
45: 78
46: 79
47: 80
48: 80
49: 80
50: 80
51: 81
52: 81
53: 81
54: 81
55: 81
56: 81
57: 81
58: 81
59: 82
60: 82
61: 83
62: 84
63: 84
64: 84
segment: [5]
vertex id: label
53: 0
54: 2
55: 0
56: 4
57: 3
58: 2
59: 0
60: 2
61: 0
62: 4
63: 3
64: 3
65: 2
66: 0
67: 2
68: 0
69: 2
70: 0
71: 4
72: 1
0: 5
1: 5
2: 5
3: 5
4: 5
5: 5
6: 5
7: 5
8: 5
9: 5
10: 5
11: 5
12: 5
13: 5
14: 5
15: 5
16: 5
17: 5
18: 5
19: 5
20: 5
21: 5
22: 5
23: 5
24: 5
25: 5
26: 5
27: 5
28: 5
29: 5
30: 5
31: 5
32: 5
33: 5
34: 5
35: 5
36: 5
37: 5
38: 5
39: 5
40: 5
41: 5
42: 5
43: 5
44: 5
45: 5
46: 5
47: 5
48: 5
49: 5
50: 5
51: 5
52: 5
edge from: to
53: 0
54: 1
55: 3
56: 2
56: 4
57: 7
58: 9
59: 10
59: 11
60: 14
61: 3
61: 14
61: 15
62: 20
63: 23
64: 12
64: 20
64: 23
64: 24
65: 25
65: 26
66: 27
66: 28
67: 4
67: 17
67: 33
67: 34
68: 38
69: 15
70: 42
71: 44
71: 45
72: 49
1: 53
2: 53
3: 54
4: 55
5: 55
6: 56
7: 56
8: 57
9: 57
10: 58
11: 58
12: 59
13: 59
14: 59
15: 60
16: 61
17: 61
18: 61
19: 61
20: 61
21: 62
22: 62
23: 62
24: 63
25: 64
26: 64
27: 65
28: 65
29: 66
30: 66
31: 66
32: 66
33: 66
34: 66
35: 67
36: 67
37: 67
38: 67
39: 68
40: 68
41: 69
42: 69
43: 70
44: 70
45: 70
46: 71
47: 71
48: 71
49: 71
50: 72
51: 72
52: 72
segment: [6]
vertex id: label
57: 0
58: 4
59: 1
60: 3
61: 2
62: 0
63: 4
64: 1
65: 3
66: 2
67: 0
68: 4
69: 3
70: 2
71: 0
72: 4
73: 3
74: 2
75: 0
76: 4
0: 5
1: 5
2: 5
3: 5
4: 5
5: 5
6: 5
7: 5
8: 5
9: 5
10: 5
11: 5
12: 5
13: 5
14: 5
15: 5
16: 5
17: 5
18: 5
19: 5
20: 5
21: 5
22: 5
23: 5
24: 5
25: 5
26: 5
27: 5
28: 5
29: 5
30: 5
31: 5
32: 5
33: 5
34: 5
35: 5
36: 5
37: 5
38: 5
39: 5
40: 5
41: 5
42: 5
43: 5
44: 5
45: 5
46: 5
47: 5
48: 5
49: 5
50: 5
51: 5
52: 5
53: 5
54: 5
55: 5
56: 5
edge from: to
57: 0
57: 1
57: 2
58: 2
58: 4
59: 9
60: 12
61: 15
62: 16
63: 7
63: 16
63: 18
63: 19
64: 21
64: 22
65: 27
65: 28
66: 30
67: 16
67: 31
67: 32
68: 35
69: 15
70: 42
70: 43
71: 44
72: 46
72: 47
73: 48
73: 49
74: 18
74: 49
74: 50
75: 50
75: 52
76: 54
3: 57
4: 57
5: 57
6: 58
7: 58
8: 58
9: 58
10: 59
11: 59
12: 59
13: 60
14: 60
15: 60
16: 61
17: 62
18: 62
19: 62
20: 63
21: 63
22: 63
23: 64
24: 64
25: 64
26: 64
27: 64
28: 64
29: 65
30: 65
31: 66
32: 66
33: 67
34: 67
35: 67
36: 68
37: 68
38: 68
39: 68
40: 68
41: 69
42: 69
43: 69
44: 70
45: 71
46: 71
47: 71
48: 72
49: 72
50: 73
51: 74
52: 74
53: 75
54: 75
55: 76
56: 76
segment: [7]
vertex id: label
61: 0
62: 4
63: 1
64: 3
65: 2
66: 0
67: 4
68: 1
69: 3
70: 2
71: 0
72: 4
73: 3
74: 2
75: 0
76: 2
77: 0
78: 2
79: 0
80: 4
0: 5
1: 5
2: 5
3: 5
4: 5
5: 5
6: 5
7: 5
8: 5
9: 5
10: 5
11: 5
12: 5
13: 5
14: 5
15: 5
16: 5
17: 5
18: 5
19: 5
20: 5
21: 5
22: 5
23: 5
24: 5
25: 5
26: 5
27: 5
28: 5
29: 5
30: 5
31: 5
32: 5
33: 5
34: 5
35: 5
36: 5
37: 5
38: 5
39: 5
40: 5
41: 5
42: 5
43: 5
44: 5
45: 5
46: 5
47: 5
48: 5
49: 5
50: 5
51: 5
52: 5
53: 5
54: 5
55: 5
56: 5
57: 5
58: 5
59: 5
60: 5
edge from: to
61: 0
61: 1
62: 2
62: 4
62: 5
63: 8
64: 4
64: 9
65: 2
65: 16
65: 17
66: 21
66: 22
67: 25
68: 26
68: 27
69: 14
69: 27
69: 28
70: 31
70: 32
71: 7
71: 34
71: 35
72: 19
72: 33
72: 37
72: 38
73: 43
74: 46
74: 47
75: 47
75: 48
75: 49
76: 50
76: 51
77: 50
77: 52
78: 53
79: 21
79: 55
80: 58
2: 61
3: 61
4: 61
5: 61
6: 62
7: 62
8: 62
9: 63
10: 63
11: 64
12: 64
13: 64
14: 64
15: 64
16: 64
17: 64
18: 65
19: 65
20: 65
21: 65
22: 65
23: 66
24: 66
25: 66
26: 67
27: 67
28: 68
29: 69
30: 69
31: 69
32: 69
33: 70
34: 70
35: 70
36: 71
37: 71
38: 71
39: 72
40: 72
41: 72
42: 72
43: 72
44: 73
45: 73
46: 73
47: 73
48: 74
49: 74
50: 75
51: 75
52: 76
53: 77
54: 78
55: 78
56: 78
57: 79
58: 79
59: 80
60: 80
segment: [8]
vertex id: label
80: 0
81: 2
82: 0
83: 2
84: 0
85: 2
86: 0
87: 4
88: 3
89: 2
90: 0
91: 4
92: 1
93: 3
94: 2
95: 0
96: 4
97: 3
98: 2
99: 0
0: 5
1: 5
2: 5
3: 5
4: 5
5: 5
6: 5
7: 5
8: 5
9: 5
10: 5
11: 5
12: 5
13: 5
14: 5
15: 5
16: 5
17: 5
18: 5
19: 5
20: 5
21: 5
22: 5
23: 5
24: 5
25: 5
26: 5
27: 5
28: 5
29: 5
30: 5
31: 5
32: 5
33: 5
34: 5
35: 5
36: 5
37: 5
38: 5
39: 5
40: 5
41: 5
42: 5
43: 5
44: 5
45: 5
46: 5
47: 5
48: 5
49: 5
50: 5
51: 5
52: 5
53: 5
54: 5
55: 5
56: 5
57: 5
58: 5
59: 5
60: 5
61: 5
62: 5
63: 5
64: 5
65: 5
66: 5
67: 5
68: 5
69: 5
70: 5
71: 5
72: 5
73: 5
74: 5
75: 5
76: 5
77: 5
78: 5
79: 5
edge from: to
80: 0
80: 1
81: 6
81: 7
82: 11
83: 13
83: 14
84: 16
84: 17
85: 19
85: 20
86: 19
86: 22
86: 23
87: 11
87: 28
88: 35
89: 15
89: 39
90: 5
90: 35
90: 41
90: 42
91: 45
92: 18
92: 46
92: 47
92: 48
93: 52
93: 53
93: 54
94: 21
94: 55
95: 7
95: 58
95: 59
96: 60
96: 61
96: 62
97: 64
97: 65
98: 69
99: 72
99: 73
2: 80
3: 80
4: 80
5: 80
6: 80
7: 80
8: 81
9: 81
10: 81
11: 81
12: 82
13: 82
14: 82
15: 83
16: 83
17: 83
18: 84
19: 84
20: 84
21: 85
22: 85
23: 85
24: 86
25: 86
26: 86
27: 86
28: 86
29: 86
30: 87
31: 87
32: 87
33: 87
34: 87
35: 87
36: 88
37: 88
38: 88
39: 88
40: 88
41: 89
42: 89
43: 90
44: 90
45: 90
46: 91
47: 91
48: 91
49: 92
50: 92
51: 92
52: 92
53: 92
54: 92
55: 93
56: 93
57: 94
58: 94
59: 94
60: 95
61: 95
62: 95
63: 96
64: 96
65: 96
66: 97
67: 97
68: 97
69: 97
70: 98
71: 98
72: 98
73: 98
74: 99
75: 99
76: 99
77: 99
78: 99
79: 99
segment: [9]
vertex id: label
62: 0
63: 4
64: 3
65: 2
66: 0
67: 2
68: 0
69: 0
70: 4
71: 2
72: 0
73: 4
74: 3
75: 2
76: 0
77: 2
78: 0
79: 2
80: 0
81: 4
0: 5
1: 5
2: 5
3: 5
4: 5
5: 5
6: 5
7: 5
8: 5
9: 5
10: 5
11: 5
12: 5
13: 5
14: 5
15: 5
16: 5
17: 5
18: 5
19: 5
20: 5
21: 5
22: 5
23: 5
24: 5
25: 5
26: 5
27: 5
28: 5
29: 5
30: 5
31: 5
32: 5
33: 5
34: 5
35: 5
36: 5
37: 5
38: 5
39: 5
40: 5
41: 5
42: 5
43: 5
44: 5
45: 5
46: 5
47: 5
48: 5
49: 5
50: 5
51: 5
52: 5
53: 5
54: 5
55: 5
56: 5
57: 5
58: 5
59: 5
60: 5
61: 5
edge from: to
62: 0
62: 1
62: 2
63: 2
63: 4
63: 5
64: 7
65: 4
66: 5
66: 12
67: 15
67: 16
68: 19
69: 24
69: 25
70: 13
70: 22
70: 25
70: 26
71: 31
72: 36
73: 15
73: 39
74: 5
74: 41
74: 42
75: 38
75: 42
75: 43
75: 44
76: 46
77: 18
77: 47
77: 48
78: 18
78: 49
78: 50
79: 54
80: 48
80: 53
80: 54
80: 55
81: 58
81: 59
3: 62
4: 62
5: 62
6: 63
7: 63
8: 64
9: 64
10: 64
11: 65
12: 65
13: 65
14: 66
15: 66
16: 66
17: 67
18: 67
19: 67
20: 68
21: 68
22: 68
23: 68
24: 68
25: 68
26: 69
27: 70
28: 70
29: 70
30: 70
31: 70
32: 71
33: 71
34: 71
35: 71
36: 71
37: 72
38: 72
39: 72
40: 72
41: 73
42: 73
43: 74
44: 74
45: 75
46: 75
47: 76
48: 76
49: 77
50: 77
51: 78
52: 78
53: 78
54: 78
55: 79
56: 80
57: 80
58: 80
59: 80
60: 81
61: 81
segment: [10]
vertex id: label
66: 0
67: 2
68: 0
69: 4
70: 3
71: 2
72: 0
73: 2
74: 0
75: 2
76: 0
77: 4
78: 3
79: 2
80: 0
81: 2
82: 0
83: 2
84: 0
85: 2
0: 5
1: 5
2: 5
3: 5
4: 5
5: 5
6: 5
7: 5
8: 5
9: 5
10: 5
11: 5
12: 5
13: 5
14: 5
15: 5
16: 5
17: 5
18: 5
19: 5
20: 5
21: 5
22: 5
23: 5
24: 5
25: 5
26: 5
27: 5
28: 5
29: 5
30: 5
31: 5
32: 5
33: 5
34: 5
35: 5
36: 5
37: 5
38: 5
39: 5
40: 5
41: 5
42: 5
43: 5
44: 5
45: 5
46: 5
47: 5
48: 5
49: 5
50: 5
51: 5
52: 5
53: 5
54: 5
55: 5
56: 5
57: 5
58: 5
59: 5
60: 5
61: 5
62: 5
63: 5
64: 5
65: 5
edge from: to
66: 0
66: 1
66: 2
67: 4
68: 5
68: 12
69: 7
70: 19
71: 25
72: 28
73: 34
74: 34
74: 35
75: 35
75: 36
76: 39
77: 15
78: 5
78: 41
78: 42
79: 48
79: 49
80: 50
80: 51
81: 55
82: 56
82: 57
82: 58
83: 58
83: 59
84: 60
84: 62
85: 62
85: 63
3: 66
4: 66
5: 66
6: 66
7: 66
8: 66
9: 66
10: 66
11: 67
12: 67
13: 67
14: 68
15: 68
16: 68
17: 68
18: 68
19: 69
20: 70
21: 70
22: 70
23: 70
24: 70
25: 70
26: 71
27: 71
28: 71
29: 72
30: 72
31: 72
32: 72
33: 72
34: 72
35: 73
36: 74
37: 75
38: 75
39: 75
40: 76
41: 77
42: 77
43: 78
44: 78
45: 78
46: 78
47: 78
48: 78
49: 78
50: 79
51: 79
52: 80
53: 80
54: 80
55: 80
56: 81
57: 81
58: 81
59: 82
60: 83
61: 83
62: 83
63: 84
64: 85
65: 85
segment: [11]
vertex id: label
73: 0
74: 2
75: 0
76: 4
77: 2
78: 0
79: 2
80: 0
81: 4
82: 1
83: 3
84: 2
85: 0
86: 4
87: 3
88: 2
89: 2
90: 0
91: 2
92: 0
0: 5
1: 5
2: 5
3: 5
4: 5
5: 5
6: 5
7: 5
8: 5
9: 5
10: 5
11: 5
12: 5
13: 5
14: 5
15: 5
16: 5
17: 5
18: 5
19: 5
20: 5
21: 5
22: 5
23: 5
24: 5
25: 5
26: 5
27: 5
28: 5
29: 5
30: 5
31: 5
32: 5
33: 5
34: 5
35: 5
36: 5
37: 5
38: 5
39: 5
40: 5
41: 5
42: 5
43: 5
44: 5
45: 5
46: 5
47: 5
48: 5
49: 5
50: 5
51: 5
52: 5
53: 5
54: 5
55: 5
56: 5
57: 5
58: 5
59: 5
60: 5
61: 5
62: 5
63: 5
64: 5
65: 5
66: 5
67: 5
68: 5
69: 5
70: 5
71: 5
72: 5
edge from: to
73: 0
73: 1
73: 2
73: 3
74: 1
74: 2
74: 4
74: 5
75: 7
76: 8
76: 9
77: 11
77: 12
78: 14
78: 15
79: 8
80: 23
81: 26
82: 29
82: 30
83: 16
83: 31
83: 32
84: 34
85: 14
85: 36
86: 43
87: 50
87: 51
88: 53
88: 54
89: 57
90: 61
91: 64
92: 68
4: 73
5: 73
6: 74
7: 74
8: 75
9: 75
10: 76
11: 76
12: 76
13: 77
14: 77
15: 77
16: 78
17: 78
18: 78
19: 78
20: 78
21: 78
22: 79
23: 79
24: 80
25: 80
26: 80
27: 81
28: 81
29: 81
30: 81
31: 82
32: 82
33: 83
34: 83
35: 84
36: 84
37: 84
38: 85
39: 85
40: 85
41: 85
42: 85
43: 85
44: 86
45: 86
46: 86
47: 86
48: 86
49: 86
50: 86
51: 86
52: 87
53: 87
54: 87
55: 88
56: 88
57: 88
58: 89
59: 89
60: 89
61: 89
62: 90
63: 90
64: 90
65: 91
66: 91
67: 91
68: 91
69: 92
70: 92
71: 92
72: 92
segment: [12]
vertex id: label
75: 0
76: 4
77: 3
78: 1
79: 3
80: 2
81: 0
82: 4
83: 3
84: 2
85: 0
86: 4
87: 3
88: 1
89: 3
90: 2
91: 0
92: 2
93: 0
94: 2
0: 5
1: 5
2: 5
3: 5
4: 5
5: 5
6: 5
7: 5
8: 5
9: 5
10: 5
11: 5
12: 5
13: 5
14: 5
15: 5
16: 5
17: 5
18: 5
19: 5
20: 5
21: 5
22: 5
23: 5
24: 5
25: 5
26: 5
27: 5
28: 5
29: 5
30: 5
31: 5
32: 5
33: 5
34: 5
35: 5
36: 5
37: 5
38: 5
39: 5
40: 5
41: 5
42: 5
43: 5
44: 5
45: 5
46: 5
47: 5
48: 5
49: 5
50: 5
51: 5
52: 5
53: 5
54: 5
55: 5
56: 5
57: 5
58: 5
59: 5
60: 5
61: 5
62: 5
63: 5
64: 5
65: 5
66: 5
67: 5
68: 5
69: 5
70: 5
71: 5
72: 5
73: 5
74: 5
edge from: to
75: 0
75: 1
75: 2
76: 2
76: 4
77: 1
77: 6
77: 7
78: 4
79: 13
79: 14
80: 17
81: 8
81: 20
82: 19
82: 20
82: 21
82: 22
82: 23
83: 26
83: 27
84: 30
84: 31
85: 34
85: 35
86: 14
86: 36
87: 44
88: 18
88: 47
88: 48
89: 50
90: 52
91: 21
92: 63
93: 63
93: 64
93: 65
94: 67
94: 68
3: 75
4: 75
5: 76
6: 76
7: 76
8: 77
9: 77
10: 77
11: 78
12: 78
13: 78
14: 78
15: 79
16: 79
17: 79
18: 80
19: 80
20: 80
21: 80
22: 81
23: 81
24: 82
25: 82
26: 82
27: 82
28: 83
29: 83
30: 83
31: 83
32: 84
33: 84
34: 84
35: 84
36: 85
37: 85
38: 86
39: 86
40: 86
41: 86
42: 86
43: 86
44: 86
45: 87
46: 87
47: 87
48: 87
49: 88
50: 88
51: 89
52: 89
53: 90
54: 90
55: 90
56: 90
57: 91
58: 91
59: 91
60: 91
61: 91
62: 91
63: 91
64: 92
65: 92
66: 93
67: 93
68: 93
69: 94
70: 94
71: 94
72: 94
73: 94
74: 94
segment: [13]
vertex id: label
64: 0
65: 2
66: 2
67: 2
68: 0
69: 2
70: 0
71: 2
72: 0
73: 4
74: 1
75: 3
76: 2
77: 0
78: 4
79: 3
80: 2
81: 0
82: 2
83: 2
0: 5
1: 5
2: 5
3: 5
4: 5
5: 5
6: 5
7: 5
8: 5
9: 5
10: 5
11: 5
12: 5
13: 5
14: 5
15: 5
16: 5
17: 5
18: 5
19: 5
20: 5
21: 5
22: 5
23: 5
24: 5
25: 5
26: 5
27: 5
28: 5
29: 5
30: 5
31: 5
32: 5
33: 5
34: 5
35: 5
36: 5
37: 5
38: 5
39: 5
40: 5
41: 5
42: 5
43: 5
44: 5
45: 5
46: 5
47: 5
48: 5
49: 5
50: 5
51: 5
52: 5
53: 5
54: 5
55: 5
56: 5
57: 5
58: 5
59: 5
60: 5
61: 5
62: 5
63: 5
edge from: to
64: 0
64: 1
64: 2
64: 3
65: 0
65: 1
65: 2
65: 3
65: 4
66: 1
66: 3
66: 5
66: 6
67: 9
68: 5
69: 17
70: 20
71: 23
72: 12
72: 20
72: 23
72: 24
73: 13
73: 25
73: 26
74: 23
74: 24
74: 26
74: 27
75: 30
76: 14
76: 31
76: 32
76: 36
76: 37
77: 5
77: 35
77: 41
77: 42
78: 45
78: 46
79: 49
79: 50
80: 52
80: 53
81: 53
81: 54
82: 57
83: 60
4: 64
5: 65
6: 65
7: 66
8: 66
9: 66
10: 67
11: 67
12: 67
13: 67
14: 68
15: 68
16: 68
17: 68
18: 69
19: 69
20: 69
21: 70
22: 70
23: 70
24: 71
25: 72
26: 72
27: 73
28: 74
29: 74
30: 74
31: 75
32: 75
33: 75
34: 75
35: 75
36: 75
37: 75
38: 76
39: 76
40: 76
41: 76
42: 76
43: 77
44: 77
45: 77
46: 77
47: 78
48: 78
49: 78
50: 78
51: 79
52: 79
53: 79
54: 80
55: 81
56: 81
57: 81
58: 82
59: 82
60: 82
61: 83
62: 83
63: 83
segment: [14]
vertex id: label
52: 0
53: 4
54: 1
55: 3
56: 2
57: 0
58: 2
59: 0
60: 4
61: 1
62: 3
63: 2
64: 0
65: 4
66: 1
67: 3
68: 2
69: 0
70: 2
71: 0
0: 5
1: 5
2: 5
3: 5
4: 5
5: 5
6: 5
7: 5
8: 5
9: 5
10: 5
11: 5
12: 5
13: 5
14: 5
15: 5
16: 5
17: 5
18: 5
19: 5
20: 5
21: 5
22: 5
23: 5
24: 5
25: 5
26: 5
27: 5
28: 5
29: 5
30: 5
31: 5
32: 5
33: 5
34: 5
35: 5
36: 5
37: 5
38: 5
39: 5
40: 5
41: 5
42: 5
43: 5
44: 5
45: 5
46: 5
47: 5
48: 5
49: 5
50: 5
51: 5
edge from: to
52: 0
52: 1
52: 2
53: 3
54: 1
54: 6
54: 7
55: 10
55: 11
56: 5
57: 3
57: 14
57: 15
58: 16
58: 17
59: 8
60: 23
60: 24
61: 25
61: 26
62: 28
63: 31
63: 32
64: 12
64: 32
64: 33
65: 34
65: 35
66: 14
66: 36
67: 37
67: 38
68: 41
68: 42
69: 43
69: 44
70: 44
70: 45
71: 18
3: 52
4: 53
5: 53
6: 53
7: 53
8: 54
9: 54
10: 54
11: 54
12: 55
13: 55
14: 56
15: 56
16: 57
17: 57
18: 58
19: 58
20: 58
21: 58
22: 59
23: 59
24: 59
25: 60
26: 60
27: 61
28: 61
29: 62
30: 62
31: 62
32: 62
33: 63
34: 64
35: 64
36: 65
37: 65
38: 66
39: 67
40: 67
41: 67
42: 67
43: 68
44: 68
45: 69
46: 70
47: 70
48: 70
49: 71
50: 71
51: 71
segment: [15]
vertex id: label
64: 0
65: 2
66: 0
67: 4
68: 3
69: 2
70: 0
71: 2
72: 0
73: 2
74: 0
75: 4
76: 2
77: 0
78: 2
79: 0
80: 4
81: 2
82: 0
83: 2
0: 5
1: 5
2: 5
3: 5
4: 5
5: 5
6: 5
7: 5
8: 5
9: 5
10: 5
11: 5
12: 5
13: 5
14: 5
15: 5
16: 5
17: 5
18: 5
19: 5
20: 5
21: 5
22: 5
23: 5
24: 5
25: 5
26: 5
27: 5
28: 5
29: 5
30: 5
31: 5
32: 5
33: 5
34: 5
35: 5
36: 5
37: 5
38: 5
39: 5
40: 5
41: 5
42: 5
43: 5
44: 5
45: 5
46: 5
47: 5
48: 5
49: 5
50: 5
51: 5
52: 5
53: 5
54: 5
55: 5
56: 5
57: 5
58: 5
59: 5
60: 5
61: 5
62: 5
63: 5
edge from: to
64: 0
64: 1
65: 4
66: 2
66: 4
66: 5
67: 6
68: 4
68: 9
68: 10
68: 11
69: 5
69: 12
70: 15
70: 16
71: 19
72: 8
72: 11
72: 18
72: 21
72: 22
73: 23
74: 26
75: 14
75: 27
75: 28
76: 31
77: 34
77: 35
78: 38
79: 38
79: 43
79: 44
80: 17
80: 45
80: 46
80: 47
81: 52
82: 53
82: 54
82: 55
83: 58
2: 64
3: 64
4: 64
5: 65
6: 66
7: 67
8: 67
9: 67
10: 67
11: 67
12: 68
13: 68
14: 69
15: 69
16: 69
17: 70
18: 70
19: 70
20: 71
21: 71
22: 71
23: 72
24: 73
25: 73
26: 73
27: 74
28: 74
29: 75
30: 75
31: 75
32: 76
33: 76
34: 76
35: 76
36: 77
37: 77
38: 77
39: 78
40: 78
41: 78
42: 78
43: 78
44: 78
45: 79
46: 79
47: 79
48: 80
49: 80
50: 80
51: 80
52: 80
53: 81
54: 81
55: 81
56: 82
57: 82
58: 82
59: 83
60: 83
61: 83
62: 83
63: 83
segment: [16]
vertex id: label
50: 0
51: 2
52: 0
53: 4
54: 3
55: 2
56: 0
57: 4
58: 1
59: 3
60: 2
61: 0
62: 4
63: 3
64: 2
65: 0
66: 2
67: 0
68: 4
69: 2
0: 5
1: 5
2: 5
3: 5
4: 5
5: 5
6: 5
7: 5
8: 5
9: 5
10: 5
11: 5
12: 5
13: 5
14: 5
15: 5
16: 5
17: 5
18: 5
19: 5
20: 5
21: 5
22: 5
23: 5
24: 5
25: 5
26: 5
27: 5
28: 5
29: 5
30: 5
31: 5
32: 5
33: 5
34: 5
35: 5
36: 5
37: 5
38: 5
39: 5
40: 5
41: 5
42: 5
43: 5
44: 5
45: 5
46: 5
47: 5
48: 5
49: 5
edge from: to
50: 0
51: 1
51: 2
52: 4
53: 6
53: 7
54: 8
54: 9
55: 4
55: 9
55: 10
56: 5
57: 14
57: 15
58: 8
59: 25
60: 23
60: 24
60: 26
60: 27
61: 11
61: 28
62: 31
62: 32
63: 4
63: 33
63: 34
64: 7
64: 34
64: 35
65: 39
66: 38
66: 42
66: 43
67: 43
67: 44
68: 44
68: 45
69: 18
69: 47
1: 50
2: 50
3: 51
4: 51
5: 52
6: 52
7: 52
8: 53
9: 53
10: 54
11: 55
12: 55
13: 55
14: 56
15: 56
16: 57
17: 57
18: 57
19: 57
20: 57
21: 57
22: 58
23: 58
24: 58
25: 58
26: 59
27: 59
28: 60
29: 60
30: 61
31: 61
32: 61
33: 62
34: 62
35: 63
36: 64
37: 64
38: 64
39: 64
40: 65
41: 65
42: 65
43: 65
44: 66
45: 67
46: 68
47: 68
48: 68
49: 69
segment: [17]
vertex id: label
70: 0
71: 2
72: 0
73: 4
74: 1
75: 3
76: 2
77: 0
78: 2
79: 0
80: 2
81: 0
82: 2
83: 0
84: 4
85: 2
86: 0
87: 2
88: 0
89: 4
0: 5
1: 5
2: 5
3: 5
4: 5
5: 5
6: 5
7: 5
8: 5
9: 5
10: 5
11: 5
12: 5
13: 5
14: 5
15: 5
16: 5
17: 5
18: 5
19: 5
20: 5
21: 5
22: 5
23: 5
24: 5
25: 5
26: 5
27: 5
28: 5
29: 5
30: 5
31: 5
32: 5
33: 5
34: 5
35: 5
36: 5
37: 5
38: 5
39: 5
40: 5
41: 5
42: 5
43: 5
44: 5
45: 5
46: 5
47: 5
48: 5
49: 5
50: 5
51: 5
52: 5
53: 5
54: 5
55: 5
56: 5
57: 5
58: 5
59: 5
60: 5
61: 5
62: 5
63: 5
64: 5
65: 5
66: 5
67: 5
68: 5
69: 5
edge from: to
70: 0
70: 1
71: 0
71: 1
71: 2
72: 2
72: 4
73: 9
74: 5
74: 12
74: 13
75: 17
76: 8
76: 20
77: 23
77: 24
78: 28
79: 31
80: 4
80: 33
80: 34
81: 14
82: 40
82: 41
83: 46
84: 18
84: 49
84: 50
85: 21
85: 55
85: 56
86: 3
86: 51
86: 52
86: 58
86: 59
86: 60
87: 60
87: 61
87: 62
88: 65
89: 25
2: 70
3: 71
4: 71
5: 71
6: 72
7: 72
8: 72
9: 72
10: 73
11: 73
12: 73
13: 73
14: 74
15: 74
16: 74
17: 74
18: 75
19: 75
20: 75
21: 75
22: 76
23: 76
24: 76
25: 77
26: 77
27: 77
28: 77
29: 78
30: 78
31: 78
32: 79
33: 79
34: 79
35: 80
36: 80
37: 80
38: 81
39: 81
40: 81
41: 81
42: 82
43: 82
44: 82
45: 82
46: 82
47: 83
48: 83
49: 83
50: 83
51: 84
52: 84
53: 84
54: 84
55: 84
56: 84
57: 85
58: 85
59: 85
60: 85
61: 86
62: 86
63: 87
64: 87
65: 87
66: 88
67: 88
68: 89
69: 89
segment: [18]
vertex id: label
63: 0
64: 4
65: 1
66: 3
67: 1
68: 3
69: 2
70: 0
71: 4
72: 1
73: 3
74: 2
75: 0
76: 2
77: 2
78: 0
79: 2
80: 0
81: 2
82: 0
0: 5
1: 5
2: 5
3: 5
4: 5
5: 5
6: 5
7: 5
8: 5
9: 5
10: 5
11: 5
12: 5
13: 5
14: 5
15: 5
16: 5
17: 5
18: 5
19: 5
20: 5
21: 5
22: 5
23: 5
24: 5
25: 5
26: 5
27: 5
28: 5
29: 5
30: 5
31: 5
32: 5
33: 5
34: 5
35: 5
36: 5
37: 5
38: 5
39: 5
40: 5
41: 5
42: 5
43: 5
44: 5
45: 5
46: 5
47: 5
48: 5
49: 5
50: 5
51: 5
52: 5
53: 5
54: 5
55: 5
56: 5
57: 5
58: 5
59: 5
60: 5
61: 5
62: 5
edge from: to
63: 0
63: 1
63: 2
63: 3
64: 4
64: 9
65: 5
65: 11
65: 12
65: 13
66: 2
66: 14
66: 16
66: 17
67: 7
68: 8
68: 20
69: 3
69: 24
69: 25
70: 27
71: 6
71: 30
71: 31
72: 35
73: 38
74: 42
75: 42
75: 43
76: 44
77: 46
78: 47
78: 48
78: 49
79: 6
79: 50
79: 51
80: 53
80: 54
81: 21
82: 61
4: 63
5: 63
6: 63
7: 63
8: 63
9: 63
10: 63
11: 64
12: 64
13: 64
14: 65
15: 65
16: 65
17: 65
18: 66
19: 67
20: 67
21: 67
22: 68
23: 68
24: 68
25: 68
26: 69
27: 69
28: 70
29: 70
30: 70
31: 70
32: 71
33: 71
34: 71
35: 71
36: 72
37: 72
38: 72
39: 73
40: 73
41: 73
42: 73
43: 74
44: 75
45: 76
46: 76
47: 77
48: 77
49: 77
50: 78
51: 78
52: 79
53: 79
54: 79
55: 80
56: 80
57: 81
58: 81
59: 81
60: 81
61: 81
62: 82
segment: [19]
vertex id: label
60: 0
61: 4
62: 3
63: 2
64: 4
65: 3
66: 2
67: 0
68: 2
69: 0
70: 4
71: 2
72: 0
73: 4
74: 1
75: 3
76: 2
77: 0
78: 0
79: 2
0: 5
1: 5
2: 5
3: 5
4: 5
5: 5
6: 5
7: 5
8: 5
9: 5
10: 5
11: 5
12: 5
13: 5
14: 5
15: 5
16: 5
17: 5
18: 5
19: 5
20: 5
21: 5
22: 5
23: 5
24: 5
25: 5
26: 5
27: 5
28: 5
29: 5
30: 5
31: 5
32: 5
33: 5
34: 5
35: 5
36: 5
37: 5
38: 5
39: 5
40: 5
41: 5
42: 5
43: 5
44: 5
45: 5
46: 5
47: 5
48: 5
49: 5
50: 5
51: 5
52: 5
53: 5
54: 5
55: 5
56: 5
57: 5
58: 5
59: 5
edge from: to
60: 0
61: 2
61: 4
62: 1
62: 3
62: 5
62: 6
63: 6
63: 7
64: 11
65: 15
65: 16
66: 7
66: 17
66: 18
67: 22
68: 24
68: 26
68: 27
69: 16
69: 31
69: 32
70: 33
70: 34
71: 32
71: 38
71: 39
72: 39
72: 40
72: 41
73: 41
73: 42
74: 38
74: 43
74: 44
75: 44
75: 45
76: 17
76: 46
76: 47
77: 49
77: 50
78: 54
79: 54
79: 55
1: 60
2: 60
3: 60
4: 60
5: 61
6: 61
7: 62
8: 63
9: 63
10: 63
11: 63
12: 64
13: 64
14: 64
15: 64
16: 64
17: 65
18: 65
19: 66
20: 66
21: 66
22: 66
23: 67
24: 67
25: 67
26: 67
27: 67
28: 68
29: 68
30: 68
31: 68
32: 68
33: 69
34: 69
35: 70
36: 70
37: 70
38: 70
39: 70
40: 71
41: 71
42: 72
43: 73
44: 73
45: 74
46: 75
47: 75
48: 76
49: 76
50: 76
51: 77
52: 77
53: 77
54: 77
55: 78
56: 79
57: 79
58: 79
59: 79
segment: [20]
vertex id: label
59: 0
60: 2
61: 0
62: 4
63: 3
64: 2
65: 0
66: 2
67: 0
68: 4
69: 3
70: 2
71: 0
72: 4
73: 3
74: 2
75: 0
76: 4
77: 1
78: 3
0: 5
1: 5
2: 5
3: 5
4: 5
5: 5
6: 5
7: 5
8: 5
9: 5
10: 5
11: 5
12: 5
13: 5
14: 5
15: 5
16: 5
17: 5
18: 5
19: 5
20: 5
21: 5
22: 5
23: 5
24: 5
25: 5
26: 5
27: 5
28: 5
29: 5
30: 5
31: 5
32: 5
33: 5
34: 5
35: 5
36: 5
37: 5
38: 5
39: 5
40: 5
41: 5
42: 5
43: 5
44: 5
45: 5
46: 5
47: 5
48: 5
49: 5
50: 5
51: 5
52: 5
53: 5
54: 5
55: 5
56: 5
57: 5
58: 5
edge from: to
59: 0
59: 1
59: 2
59: 3
60: 2
60: 4
60: 5
61: 6
61: 7
62: 10
62: 11
63: 16
63: 17
64: 8
65: 3
65: 5
65: 24
65: 25
66: 26
66: 27
67: 11
67: 28
68: 29
68: 30
69: 33
70: 14
70: 36
71: 37
71: 38
72: 15
73: 40
73: 41
74: 43
75: 46
75: 47
76: 49
76: 50
77: 54
78: 54
78: 55
4: 59
5: 59
6: 60
7: 60
8: 61
9: 61
10: 61
11: 61
12: 62
13: 62
14: 62
15: 62
16: 62
17: 62
18: 63
19: 63
20: 63
21: 63
22: 64
23: 64
24: 64
25: 64
26: 65
27: 65
28: 66
29: 66
30: 67
31: 68
32: 68
33: 68
34: 69
35: 69
36: 69
37: 69
38: 70
39: 71
40: 71
41: 72
42: 73
43: 73
44: 74
45: 74
46: 74
47: 74
48: 75
49: 75
50: 75
51: 76
52: 76
53: 76
54: 76
55: 77
56: 78
57: 78
58: 78
segment: [21]
vertex id: label
60: 0
61: 0
62: 0
63: 4
64: 3
65: 2
66: 0
67: 4
68: 1
69: 3
70: 2
71: 0
72: 2
73: 0
74: 2
75: 0
76: 2
77: 0
78: 2
79: 0
0: 5
1: 5
2: 5
3: 5
4: 5
5: 5
6: 5
7: 5
8: 5
9: 5
10: 5
11: 5
12: 5
13: 5
14: 5
15: 5
16: 5
17: 5
18: 5
19: 5
20: 5
21: 5
22: 5
23: 5
24: 5
25: 5
26: 5
27: 5
28: 5
29: 5
30: 5
31: 5
32: 5
33: 5
34: 5
35: 5
36: 5
37: 5
38: 5
39: 5
40: 5
41: 5
42: 5
43: 5
44: 5
45: 5
46: 5
47: 5
48: 5
49: 5
50: 5
51: 5
52: 5
53: 5
54: 5
55: 5
56: 5
57: 5
58: 5
59: 5
edge from: to
60: 0
60: 1
61: 4
62: 2
62: 4
63: 1
63: 3
63: 4
63: 7
63: 8
64: 4
64: 10
64: 11
65: 12
66: 14
66: 15
67: 19
67: 22
67: 23
68: 24
68: 26
68: 27
69: 29
69: 30
70: 34
70: 35
71: 37
71: 38
72: 41
73: 42
73: 43
74: 46
74: 47
75: 43
75: 47
75: 48
75: 49
76: 50
77: 50
77: 51
77: 52
78: 53
78: 54
78: 55
79: 57
79: 58
2: 60
3: 60
4: 60
5: 61
6: 62
7: 62
8: 62
9: 63
10: 63
11: 63
12: 64
13: 65
14: 65
15: 65
16: 66
17: 66
18: 66
19: 66
20: 66
21: 66
22: 66
23: 66
24: 67
25: 67
26: 67
27: 67
28: 68
29: 68
30: 68
31: 69
32: 69
33: 69
34: 69
35: 69
36: 70
37: 70
38: 70
39: 71
40: 71
41: 71
42: 72
43: 72
44: 73
45: 73
46: 73
47: 73
48: 74
49: 74
50: 75
51: 76
52: 76
53: 77
54: 77
55: 77
56: 78
57: 78
58: 78
59: 79
segment: [22]
vertex id: label
56: 0
57: 2
58: 0
59: 2
60: 0
61: 4
62: 3
63: 2
64: 0
65: 4
66: 3
67: 2
68: 0
69: 2
70: 0
71: 4
72: 2
73: 0
74: 4
75: 3
0: 5
1: 5
2: 5
3: 5
4: 5
5: 5
6: 5
7: 5
8: 5
9: 5
10: 5
11: 5
12: 5
13: 5
14: 5
15: 5
16: 5
17: 5
18: 5
19: 5
20: 5
21: 5
22: 5
23: 5
24: 5
25: 5
26: 5
27: 5
28: 5
29: 5
30: 5
31: 5
32: 5
33: 5
34: 5
35: 5
36: 5
37: 5
38: 5
39: 5
40: 5
41: 5
42: 5
43: 5
44: 5
45: 5
46: 5
47: 5
48: 5
49: 5
50: 5
51: 5
52: 5
53: 5
54: 5
55: 5
edge from: to
56: 0
56: 1
56: 2
56: 3
56: 4
57: 2
57: 4
58: 8
59: 4
59: 9
60: 10
60: 11
61: 3
61: 14
61: 15
62: 7
63: 8
63: 20
64: 23
65: 24
65: 26
65: 27
66: 6
66: 26
66: 30
66: 31
67: 12
67: 32
67: 33
68: 34
68: 35
69: 14
69: 36
69: 37
70: 19
70: 33
70: 37
70: 38
71: 15
72: 43
73: 46
74: 49
75: 51
5: 56
6: 57
7: 57
8: 57
9: 58
10: 58
11: 59
12: 60
13: 60
14: 60
15: 60
16: 61
17: 61
18: 61
19: 62
20: 62
21: 62
22: 63
23: 63
24: 64
25: 64
26: 64
27: 64
28: 65
29: 65
30: 65
31: 65
32: 66
33: 66
34: 67
35: 67
36: 68
37: 68
38: 69
39: 70
40: 70
41: 71
42: 71
43: 71
44: 72
45: 72
46: 72
47: 73
48: 73
49: 73
50: 74
51: 74
52: 75
53: 75
54: 75
55: 75
segment: [23]
vertex id: label
57: 0
58: 4
59: 2
60: 0
61: 2
62: 0
63: 2
64: 0
65: 2
66: 0
67: 4
68: 1
69: 3
70: 2
71: 0
72: 4
73: 2
74: 0
75: 2
76: 0
0: 5
1: 5
2: 5
3: 5
4: 5
5: 5
6: 5
7: 5
8: 5
9: 5
10: 5
11: 5
12: 5
13: 5
14: 5
15: 5
16: 5
17: 5
18: 5
19: 5
20: 5
21: 5
22: 5
23: 5
24: 5
25: 5
26: 5
27: 5
28: 5
29: 5
30: 5
31: 5
32: 5
33: 5
34: 5
35: 5
36: 5
37: 5
38: 5
39: 5
40: 5
41: 5
42: 5
43: 5
44: 5
45: 5
46: 5
47: 5
48: 5
49: 5
50: 5
51: 5
52: 5
53: 5
54: 5
55: 5
56: 5
edge from: to
57: 0
57: 1
58: 7
59: 4
59: 9
60: 5
61: 16
62: 7
62: 9
62: 15
62: 17
62: 18
63: 21
63: 22
64: 23
65: 24
65: 26
65: 27
66: 28
67: 11
67: 28
68: 30
68: 31
69: 16
69: 31
69: 32
70: 7
70: 34
70: 35
71: 14
71: 36
72: 41
73: 43
73: 44
74: 47
75: 18
75: 47
76: 50
2: 57
3: 57
4: 57
5: 57
6: 57
7: 57
8: 58
9: 58
10: 58
11: 59
12: 59
13: 59
14: 60
15: 60
16: 60
17: 61
18: 61
19: 62
20: 62
21: 62
22: 62
23: 63
24: 64
25: 64
26: 64
27: 64
28: 65
29: 66
30: 67
31: 67
32: 68
33: 69
34: 69
35: 69
36: 70
37: 70
38: 71
39: 71
40: 71
41: 71
42: 72
43: 72
44: 72
45: 73
46: 73
47: 73
48: 74
49: 75
50: 75
51: 76
52: 76
53: 76
54: 76
55: 76
56: 76
segment: [24]
vertex id: label
64: 0
65: 4
66: 3
67: 2
68: 0
69: 4
70: 3
71: 2
72: 0
73: 2
74: 0
75: 4
76: 3
77: 2
78: 0
79: 4
80: 3
81: 2
82: 0
83: 4
0: 5
1: 5
2: 5
3: 5
4: 5
5: 5
6: 5
7: 5
8: 5
9: 5
10: 5
11: 5
12: 5
13: 5
14: 5
15: 5
16: 5
17: 5
18: 5
19: 5
20: 5
21: 5
22: 5
23: 5
24: 5
25: 5
26: 5
27: 5
28: 5
29: 5
30: 5
31: 5
32: 5
33: 5
34: 5
35: 5
36: 5
37: 5
38: 5
39: 5
40: 5
41: 5
42: 5
43: 5
44: 5
45: 5
46: 5
47: 5
48: 5
49: 5
50: 5
51: 5
52: 5
53: 5
54: 5
55: 5
56: 5
57: 5
58: 5
59: 5
60: 5
61: 5
62: 5
63: 5
edge from: to
64: 0
64: 1
65: 3
66: 6
66: 7
67: 9
68: 11
68: 12
69: 13
69: 14
70: 20
71: 19
71: 22
71: 23
72: 26
73: 30
73: 31
74: 31
74: 32
75: 33
75: 34
76: 14
76: 36
77: 37
77: 38
78: 38
78: 43
78: 44
79: 47
80: 52
81: 53
81: 54
82: 55
82: 57
83: 7
83: 51
83: 58
83: 59
2: 64
3: 64
4: 65
5: 65
6: 65
7: 65
8: 66
9: 66
10: 67
11: 67
12: 67
13: 68
14: 68
15: 69
16: 69
17: 69
18: 69
19: 69
20: 69
21: 70
22: 70
23: 70
24: 71
25: 71
26: 71
27: 72
28: 72
29: 72
30: 72
31: 72
32: 73
33: 74
34: 74
35: 75
36: 75
37: 75
38: 76
39: 77
40: 77
41: 77
42: 77
43: 77
44: 77
45: 78
46: 78
47: 78
48: 79
49: 79
50: 79
51: 79
52: 79
53: 80
54: 80
55: 81
56: 81
57: 81
58: 82
59: 82
60: 83
61: 83
62: 83
63: 83
segment: [25]
vertex id: label
81: 0
82: 4
83: 3
84: 2
85: 0
86: 2
87: 0
88: 4
89: 3
90: 1
91: 3
92: 2
93: 0
94: 4
95: 3
96: 2
97: 0
98: 2
99: 0
100: 4
0: 5
1: 5
2: 5
3: 5
4: 5
5: 5
6: 5
7: 5
8: 5
9: 5
10: 5
11: 5
12: 5
13: 5
14: 5
15: 5
16: 5
17: 5
18: 5
19: 5
20: 5
21: 5
22: 5
23: 5
24: 5
25: 5
26: 5
27: 5
28: 5
29: 5
30: 5
31: 5
32: 5
33: 5
34: 5
35: 5
36: 5
37: 5
38: 5
39: 5
40: 5
41: 5
42: 5
43: 5
44: 5
45: 5
46: 5
47: 5
48: 5
49: 5
50: 5
51: 5
52: 5
53: 5
54: 5
55: 5
56: 5
57: 5
58: 5
59: 5
60: 5
61: 5
62: 5
63: 5
64: 5
65: 5
66: 5
67: 5
68: 5
69: 5
70: 5
71: 5
72: 5
73: 5
74: 5
75: 5
76: 5
77: 5
78: 5
79: 5
80: 5
edge from: to
81: 0
81: 1
81: 2
82: 6
82: 7
83: 10
83: 11
84: 16
85: 2
85: 16
85: 17
86: 19
87: 22
87: 23
88: 27
88: 28
89: 30
89: 31
90: 31
90: 32
91: 7
91: 34
91: 35
92: 42
93: 46
94: 50
94: 51
95: 21
96: 57
96: 58
97: 62
98: 68
98: 69
99: 72
99: 73
99: 74
100: 76
3: 81
4: 81
5: 81
6: 81
7: 81
8: 82
9: 82
10: 82
11: 82
12: 83
13: 83
14: 83
15: 83
16: 83
17: 84
18: 85
19: 85
20: 86
21: 86
22: 86
23: 86
24: 87
25: 87
26: 87
27: 87
28: 87
29: 88
30: 88
31: 88
32: 89
33: 90
34: 90
35: 90
36: 91
37: 91
38: 91
39: 91
40: 91
41: 91
42: 91
43: 92
44: 92
45: 92
46: 92
47: 93
48: 93
49: 93
50: 93
51: 93
52: 94
53: 94
54: 94
55: 94
56: 94
57: 95
58: 95
59: 96
60: 96
61: 96
62: 96
63: 97
64: 97
65: 97
66: 97
67: 97
68: 97
69: 97
70: 98
71: 98
72: 98
73: 98
74: 98
75: 99
76: 99
77: 100
78: 100
79: 100
80: 100
segment: [26]
vertex id: label
56: 0
57: 4
58: 1
59: 3
60: 2
61: 0
62: 4
63: 3
64: 2
65: 0
66: 2
67: 0
68: 4
69: 3
70: 2
71: 0
72: 4
73: 2
74: 0
75: 4
0: 5
1: 5
2: 5
3: 5
4: 5
5: 5
6: 5
7: 5
8: 5
9: 5
10: 5
11: 5
12: 5
13: 5
14: 5
15: 5
16: 5
17: 5
18: 5
19: 5
20: 5
21: 5
22: 5
23: 5
24: 5
25: 5
26: 5
27: 5
28: 5
29: 5
30: 5
31: 5
32: 5
33: 5
34: 5
35: 5
36: 5
37: 5
38: 5
39: 5
40: 5
41: 5
42: 5
43: 5
44: 5
45: 5
46: 5
47: 5
48: 5
49: 5
50: 5
51: 5
52: 5
53: 5
54: 5
55: 5
edge from: to
56: 0
57: 2
58: 3
58: 7
58: 8
59: 10
59: 11
60: 15
60: 16
61: 18
61: 19
62: 20
63: 22
64: 12
64: 23
64: 24
65: 13
65: 22
65: 25
65: 26
66: 14
66: 27
66: 28
67: 6
67: 15
67: 29
67: 30
68: 34
68: 35
69: 39
70: 5
70: 35
70: 36
70: 37
70: 40
70: 41
70: 42
71: 44
72: 46
72: 47
73: 49
74: 51
75: 51
75: 52
75: 53
1: 56
2: 56
3: 56
4: 56
5: 56
6: 57
7: 57
8: 57
9: 58
10: 58
11: 58
12: 59
13: 59
14: 59
15: 59
16: 59
17: 60
18: 60
19: 60
20: 61
21: 62
22: 62
23: 63
24: 63
25: 64
26: 64
27: 65
28: 65
29: 66
30: 66
31: 67
32: 67
33: 67
34: 67
35: 67
36: 68
37: 68
38: 68
39: 68
40: 69
41: 69
42: 69
43: 70
44: 70
45: 71
46: 71
47: 71
48: 72
49: 72
50: 73
51: 73
52: 74
53: 74
54: 75
55: 75
segment: [27]
vertex id: label
52: 0
53: 2
54: 0
55: 2
56: 0
57: 4
58: 3
59: 1
60: 3
61: 2
62: 0
63: 2
64: 0
65: 4
66: 2
67: 0
68: 2
69: 0
70: 4
71: 2
0: 5
1: 5
2: 5
3: 5
4: 5
5: 5
6: 5
7: 5
8: 5
9: 5
10: 5
11: 5
12: 5
13: 5
14: 5
15: 5
16: 5
17: 5
18: 5
19: 5
20: 5
21: 5
22: 5
23: 5
24: 5
25: 5
26: 5
27: 5
28: 5
29: 5
30: 5
31: 5
32: 5
33: 5
34: 5
35: 5
36: 5
37: 5
38: 5
39: 5
40: 5
41: 5
42: 5
43: 5
44: 5
45: 5
46: 5
47: 5
48: 5
49: 5
50: 5
51: 5
edge from: to
52: 0
53: 1
54: 0
54: 1
54: 2
54: 3
54: 4
55: 6
56: 6
56: 7
57: 4
57: 9
58: 14
59: 16
60: 19
61: 8
61: 20
62: 13
62: 25
62: 26
63: 11
64: 31
65: 4
65: 33
65: 34
66: 36
67: 15
67: 39
68: 41
68: 42
69: 38
69: 43
69: 44
70: 46
70: 47
71: 48
71: 49
1: 52
2: 53
3: 53
4: 53
5: 54
6: 54
7: 55
8: 56
9: 56
10: 56
11: 57
12: 57
13: 57
14: 57
15: 58
16: 58
17: 59
18: 59
19: 59
20: 60
21: 60
22: 61
23: 61
24: 61
25: 61
26: 61
27: 62
28: 62
29: 62
30: 63
31: 63
32: 64
33: 64
34: 64
35: 65
36: 65
37: 66
38: 66
39: 66
40: 66
41: 67
42: 67
43: 68
44: 68
45: 69
46: 69
47: 69
48: 70
49: 70
50: 71
51: 71
segment: [28]
vertex id: label
57: 0
58: 4
59: 3
60: 2
61: 0
62: 2
63: 0
64: 2
65: 0
66: 2
67: 0
68: 4
69: 1
70: 3
71: 2
72: 2
73: 0
74: 4
75: 2
76: 0
0: 5
1: 5
2: 5
3: 5
4: 5
5: 5
6: 5
7: 5
8: 5
9: 5
10: 5
11: 5
12: 5
13: 5
14: 5
15: 5
16: 5
17: 5
18: 5
19: 5
20: 5
21: 5
22: 5
23: 5
24: 5
25: 5
26: 5
27: 5
28: 5
29: 5
30: 5
31: 5
32: 5
33: 5
34: 5
35: 5
36: 5
37: 5
38: 5
39: 5
40: 5
41: 5
42: 5
43: 5
44: 5
45: 5
46: 5
47: 5
48: 5
49: 5
50: 5
51: 5
52: 5
53: 5
54: 5
55: 5
56: 5
edge from: to
57: 0
57: 1
58: 1
58: 2
59: 3
60: 2
61: 5
61: 6
62: 9
63: 5
63: 12
64: 3
64: 14
64: 15
65: 19
66: 8
66: 20
67: 24
68: 11
69: 32
70: 35
70: 36
71: 38
72: 15
73: 44
73: 45
74: 18
74: 46
74: 47
74: 48
75: 52
76: 46
76: 47
76: 51
76: 52
76: 53
76: 54
2: 57
3: 58
4: 59
5: 59
6: 60
7: 61
8: 61
9: 61
10: 62
11: 62
12: 62
13: 62
14: 63
15: 63
16: 64
17: 64
18: 64
19: 64
20: 65
21: 65
22: 66
23: 66
24: 66
25: 67
26: 67
27: 67
28: 67
29: 67
30: 68
31: 68
32: 68
33: 69
34: 69
35: 69
36: 69
37: 70
38: 70
39: 71
40: 71
41: 72
42: 72
43: 72
44: 72
45: 72
46: 73
47: 73
48: 73
49: 74
50: 74
51: 74
52: 74
53: 75
54: 75
55: 76
56: 76
segment: [29]
vertex id: label
55: 0
56: 4
57: 2
58: 0
59: 2
60: 0
61: 4
62: 3
63: 1
64: 3
65: 2
66: 0
67: 2
68: 0
69: 2
70: 0
71: 2
72: 0
73: 4
74: 1
0: 5
1: 5
2: 5
3: 5
4: 5
5: 5
6: 5
7: 5
8: 5
9: 5
10: 5
11: 5
12: 5
13: 5
14: 5
15: 5
16: 5
17: 5
18: 5
19: 5
20: 5
21: 5
22: 5
23: 5
24: 5
25: 5
26: 5
27: 5
28: 5
29: 5
30: 5
31: 5
32: 5
33: 5
34: 5
35: 5
36: 5
37: 5
38: 5
39: 5
40: 5
41: 5
42: 5
43: 5
44: 5
45: 5
46: 5
47: 5
48: 5
49: 5
50: 5
51: 5
52: 5
53: 5
54: 5
edge from: to
55: 0
55: 1
56: 5
56: 6
57: 7
57: 8
58: 11
59: 11
59: 12
60: 13
60: 14
61: 16
61: 17
62: 8
62: 20
63: 19
63: 22
63: 23
64: 25
65: 27
66: 11
66: 28
66: 29
67: 16
67: 31
67: 32
68: 35
69: 14
70: 39
71: 41
71: 42
72: 9
72: 44
72: 45
73: 18
73: 47
74: 50
74: 51
74: 52
2: 55
3: 55
4: 55
5: 55
6: 55
7: 56
8: 56
9: 57
10: 57
11: 57
12: 58
13: 59
14: 59
15: 60
16: 60
17: 60
18: 61
19: 61
20: 61
21: 61
22: 62
23: 62
24: 63
25: 63
26: 64
27: 64
28: 65
29: 65
30: 66
31: 66
32: 66
33: 67
34: 67
35: 67
36: 68
37: 68
38: 69
39: 69
40: 70
41: 70
42: 70
43: 71
44: 71
45: 71
46: 72
47: 72
48: 72
49: 73
50: 73
51: 73
52: 73
53: 74
54: 74
