segment: [0]
vertex id: label
65: 0
66: 4
67: 4
68: 3
69: 1
70: 1
71: 1
72: 1
73: 1
74: 1
75: 1
76: 1
77: 1
78: 1
79: 1
80: 1
81: 1
82: 1
83: 1
84: 1
0: 5
1: 5
2: 5
3: 5
4: 5
5: 5
6: 5
7: 5
8: 5
9: 5
10: 5
11: 5
12: 5
13: 5
14: 5
15: 5
16: 5
17: 5
18: 5
19: 5
20: 5
21: 5
22: 5
23: 5
24: 5
25: 5
26: 5
27: 5
28: 5
29: 5
30: 5
31: 5
32: 5
33: 5
34: 5
35: 5
36: 5
37: 5
38: 5
39: 5
40: 5
41: 5
42: 5
43: 5
44: 5
45: 5
46: 5
47: 5
48: 5
49: 5
50: 5
51: 5
52: 5
53: 5
54: 5
55: 5
56: 5
57: 5
58: 5
59: 5
60: 5
61: 5
62: 5
63: 5
64: 5
edge from: to
65: 0
65: 1
66: 5
67: 8
68: 12
69: 13
70: 16
70: 17
71: 18
72: 23
72: 24
73: 25
73: 27
74: 27
74: 29
75: 29
75: 31
76: 32
76: 34
77: 36
78: 2
78: 42
79: 42
79: 44
80: 46
81: 49
82: 53
82: 55
82: 56
83: 56
83: 59
84: 58
2: 65
3: 65
4: 65
5: 65
6: 66
7: 66
8: 66
9: 67
10: 67
11: 67
12: 67
13: 67
14: 68
15: 69
16: 69
17: 69
18: 70
19: 70
20: 70
21: 71
22: 71
23: 71
24: 71
25: 72
26: 72
27: 72
28: 73
29: 73
30: 74
31: 74
32: 75
33: 75
34: 75
35: 76
36: 76
37: 76
38: 76
39: 76
40: 77
41: 77
42: 77
43: 78
44: 78
45: 79
46: 79
47: 79
48: 79
49: 79
50: 80
51: 80
52: 80
53: 81
54: 81
55: 81
56: 81
57: 82
58: 82
59: 82
60: 83
61: 83
62: 84
63: 84
64: 84
segment: [1]
vertex id: label
65: 0
66: 4
67: 4
68: 4
69: 3
70: 0
71: 4
72: 3
73: 4
74: 4
75: 3
76: 4
77: 4
78: 4
79: 4
80: 4
81: 4
82: 4
83: 4
84: 4
0: 5
1: 5
2: 5
3: 5
4: 5
5: 5
6: 5
7: 5
8: 5
9: 5
10: 5
11: 5
12: 5
13: 5
14: 5
15: 5
16: 5
17: 5
18: 5
19: 5
20: 5
21: 5
22: 5
23: 5
24: 5
25: 5
26: 5
27: 5
28: 5
29: 5
30: 5
31: 5
32: 5
33: 5
34: 5
35: 5
36: 5
37: 5
38: 5
39: 5
40: 5
41: 5
42: 5
43: 5
44: 5
45: 5
46: 5
47: 5
48: 5
49: 5
50: 5
51: 5
52: 5
53: 5
54: 5
55: 5
56: 5
57: 5
58: 5
59: 5
60: 5
61: 5
62: 5
63: 5
64: 5
edge from: to
65: 0
66: 0
67: 3
67: 4
67: 5
68: 8
69: 9
70: 11
70: 12
71: 14
71: 15
72: 17
73: 1
73: 9
73: 20
74: 24
74: 25
75: 25
76: 28
77: 30
78: 36
79: 42
80: 46
80: 49
81: 48
81: 51
82: 23
82: 52
83: 58
84: 59
1: 65
2: 65
3: 65
4: 65
5: 66
6: 67
7: 67
8: 67
9: 68
10: 68
11: 69
12: 69
13: 70
14: 70
15: 70
16: 71
17: 71
18: 71
19: 72
20: 72
21: 72
22: 73
23: 73
24: 73
25: 73
26: 74
27: 74
28: 75
29: 75
30: 75
31: 76
32: 76
33: 77
34: 77
35: 77
36: 77
37: 77
38: 77
39: 78
40: 78
41: 78
42: 78
43: 78
44: 78
45: 79
46: 79
47: 79
48: 79
49: 79
50: 80
51: 80
52: 81
53: 81
54: 81
55: 81
56: 82
57: 82
58: 82
59: 82
60: 82
61: 82
62: 83
63: 84
64: 84
segment: [2]
vertex id: label
71: 0
72: 4
73: 4
74: 4
75: 3
76: 0
77: 2
78: 2
79: 0
80: 4
81: 3
82: 4
83: 4
84: 4
85: 4
86: 4
87: 4
88: 4
89: 4
90: 4
0: 5
1: 5
2: 5
3: 5
4: 5
5: 5
6: 5
7: 5
8: 5
9: 5
10: 5
11: 5
12: 5
13: 5
14: 5
15: 5
16: 5
17: 5
18: 5
19: 5
20: 5
21: 5
22: 5
23: 5
24: 5
25: 5
26: 5
27: 5
28: 5
29: 5
30: 5
31: 5
32: 5
33: 5
34: 5
35: 5
36: 5
37: 5
38: 5
39: 5
40: 5
41: 5
42: 5
43: 5
44: 5
45: 5
46: 5
47: 5
48: 5
49: 5
50: 5
51: 5
52: 5
53: 5
54: 5
55: 5
56: 5
57: 5
58: 5
59: 5
60: 5
61: 5
62: 5
63: 5
64: 5
65: 5
66: 5
67: 5
68: 5
69: 5
70: 5
edge from: to
71: 0
71: 1
71: 2
72: 4
72: 5
73: 9
74: 12
74: 13
75: 1
75: 14
75: 15
76: 12
76: 16
76: 17
76: 18
77: 1
77: 21
77: 22
78: 22
78: 24
78: 25
79: 28
79: 29
79: 30
80: 31
81: 33
82: 36
83: 38
83: 41
84: 43
84: 45
84: 46
85: 45
85: 48
86: 17
86: 50
86: 52
86: 53
87: 54
88: 58
88: 60
88: 61
89: 3
90: 65
90: 68
3: 71
4: 71
5: 71
6: 72
7: 72
8: 72
9: 72
10: 72
11: 73
12: 73
13: 73
14: 74
15: 74
16: 75
17: 75
18: 75
19: 76
20: 76
21: 76
22: 76
23: 77
24: 77
25: 77
26: 78
27: 78
28: 78
29: 78
30: 78
31: 79
32: 79
33: 79
34: 80
35: 80
36: 81
37: 81
38: 81
39: 82
40: 82
41: 82
42: 83
43: 83
44: 83
45: 83
46: 83
47: 84
48: 84
49: 85
50: 85
51: 85
52: 85
53: 85
54: 86
55: 86
56: 86
57: 86
58: 87
59: 87
60: 87
61: 87
62: 88
63: 88
64: 88
65: 89
66: 89
67: 89
68: 89
69: 90
70: 90
segment: [3]
vertex id: label
66: 0
67: 4
68: 4
69: 4
70: 4
71: 4
72: 4
73: 4
74: 4
75: 3
76: 0
77: 4
78: 3
79: 4
80: 3
81: 0
82: 4
83: 4
84: 4
85: 4
0: 5
1: 5
2: 5
3: 5
4: 5
5: 5
6: 5
7: 5
8: 5
9: 5
10: 5
11: 5
12: 5
13: 5
14: 5
15: 5
16: 5
17: 5
18: 5
19: 5
20: 5
21: 5
22: 5
23: 5
24: 5
25: 5
26: 5
27: 5
28: 5
29: 5
30: 5
31: 5
32: 5
33: 5
34: 5
35: 5
36: 5
37: 5
38: 5
39: 5
40: 5
41: 5
42: 5
43: 5
44: 5
45: 5
46: 5
47: 5
48: 5
49: 5
50: 5
51: 5
52: 5
53: 5
54: 5
55: 5
56: 5
57: 5
58: 5
59: 5
60: 5
61: 5
62: 5
63: 5
64: 5
65: 5
edge from: to
66: 0
66: 1
66: 2
66: 3
67: 3
67: 7
68: 9
69: 11
70: 7
70: 15
71: 17
71: 18
72: 1
73: 1
73: 22
74: 22
74: 24
74: 25
75: 28
75: 30
76: 32
76: 34
77: 34
78: 36
79: 38
80: 2
80: 18
80: 42
81: 43
82: 21
82: 47
83: 50
83: 53
84: 54
85: 56
85: 58
85: 59
4: 66
5: 66
6: 66
7: 66
8: 67
9: 67
10: 67
11: 68
12: 68
13: 69
14: 69
15: 69
16: 69
17: 70
18: 70
19: 71
20: 71
21: 71
22: 72
23: 73
24: 73
25: 73
26: 74
27: 74
28: 74
29: 74
30: 74
31: 75
32: 75
33: 75
34: 75
35: 76
36: 76
37: 77
38: 77
39: 77
40: 78
41: 78
42: 79
43: 79
44: 80
45: 80
46: 81
47: 81
48: 81
49: 81
50: 81
51: 82
52: 82
53: 82
54: 83
55: 83
56: 83
57: 83
58: 84
59: 84
60: 85
61: 85
62: 85
63: 85
64: 85
65: 85
segment: [4]
vertex id: label
61: 0
62: 4
63: 4
64: 4
65: 4
66: 4
67: 4
68: 4
69: 4
70: 4
71: 4
72: 4
73: 4
74: 4
75: 3
76: 1
77: 2
78: 3
79: 0
80: 4
0: 5
1: 5
2: 5
3: 5
4: 5
5: 5
6: 5
7: 5
8: 5
9: 5
10: 5
11: 5
12: 5
13: 5
14: 5
15: 5
16: 5
17: 5
18: 5
19: 5
20: 5
21: 5
22: 5
23: 5
24: 5
25: 5
26: 5
27: 5
28: 5
29: 5
30: 5
31: 5
32: 5
33: 5
34: 5
35: 5
36: 5
37: 5
38: 5
39: 5
40: 5
41: 5
42: 5
43: 5
44: 5
45: 5
46: 5
47: 5
48: 5
49: 5
50: 5
51: 5
52: 5
53: 5
54: 5
55: 5
56: 5
57: 5
58: 5
59: 5
60: 5
edge from: to
61: 0
61: 1
62: 0
62: 2
63: 4
63: 5
64: 8
65: 9
66: 11
66: 12
66: 13
67: 7
67: 14
67: 15
67: 16
68: 17
68: 19
69: 1
69: 21
69: 22
70: 11
70: 24
70: 25
71: 25
71: 26
71: 27
72: 31
73: 16
73: 36
73: 37
73: 38
74: 38
74: 41
75: 42
76: 44
77: 45
78: 49
78: 51
78: 52
79: 23
79: 52
80: 54
80: 57
2: 61
3: 61
4: 61
5: 62
6: 63
7: 63
8: 63
9: 64
10: 64
11: 65
12: 65
13: 65
14: 66
15: 66
16: 66
17: 67
18: 67
19: 67
20: 68
21: 68
22: 68
23: 69
24: 69
25: 69
26: 69
27: 70
28: 71
29: 71
30: 71
31: 71
32: 71
33: 71
34: 72
35: 72
36: 72
37: 72
38: 72
39: 73
40: 73
41: 73
42: 74
43: 74
44: 74
45: 75
46: 75
47: 75
48: 76
49: 77
50: 77
51: 77
52: 77
53: 78
54: 78
55: 78
56: 79
57: 79
58: 80
59: 80
60: 80
segment: [5]
vertex id: label
49: 0
50: 4
51: 3
52: 4
53: 4
54: 3
55: 4
56: 4
57: 4
58: 4
59: 4
60: 4
61: 4
62: 3
63: 4
64: 4
65: 4
66: 4
67: 4
68: 4
0: 5
1: 5
2: 5
3: 5
4: 5
5: 5
6: 5
7: 5
8: 5
9: 5
10: 5
11: 5
12: 5
13: 5
14: 5
15: 5
16: 5
17: 5
18: 5
19: 5
20: 5
21: 5
22: 5
23: 5
24: 5
25: 5
26: 5
27: 5
28: 5
29: 5
30: 5
31: 5
32: 5
33: 5
34: 5
35: 5
36: 5
37: 5
38: 5
39: 5
40: 5
41: 5
42: 5
43: 5
44: 5
45: 5
46: 5
47: 5
48: 5
edge from: to
49: 0
50: 4
50: 5
51: 9
51: 10
52: 11
52: 12
53: 13
54: 15
55: 17
55: 18
56: 18
56: 19
56: 20
57: 1
58: 23
59: 24
60: 25
60: 27
61: 27
62: 30
63: 33
63: 35
64: 35
64: 37
65: 36
65: 38
65: 39
66: 38
66: 41
67: 2
67: 18
67: 42
68: 43
68: 45
1: 49
2: 49
3: 49
4: 49
5: 49
6: 50
7: 50
8: 50
9: 50
10: 50
11: 51
12: 51
13: 52
14: 52
15: 53
16: 53
17: 54
18: 54
19: 55
20: 55
21: 56
22: 57
23: 57
24: 57
25: 58
26: 59
27: 59
28: 60
29: 60
30: 61
31: 61
32: 61
33: 62
34: 62
35: 62
36: 63
37: 63
38: 64
39: 64
40: 65
41: 65
42: 66
43: 66
44: 67
45: 67
46: 68
47: 68
48: 68
segment: [6]
vertex id: label
65: 0
66: 4
67: 3
68: 4
69: 3
70: 1
71: 1
72: 1
73: 1
74: 1
75: 1
76: 1
77: 1
78: 1
79: 1
80: 1
81: 1
82: 1
83: 1
84: 1
0: 5
1: 5
2: 5
3: 5
4: 5
5: 5
6: 5
7: 5
8: 5
9: 5
10: 5
11: 5
12: 5
13: 5
14: 5
15: 5
16: 5
17: 5
18: 5
19: 5
20: 5
21: 5
22: 5
23: 5
24: 5
25: 5
26: 5
27: 5
28: 5
29: 5
30: 5
31: 5
32: 5
33: 5
34: 5
35: 5
36: 5
37: 5
38: 5
39: 5
40: 5
41: 5
42: 5
43: 5
44: 5
45: 5
46: 5
47: 5
48: 5
49: 5
50: 5
51: 5
52: 5
53: 5
54: 5
55: 5
56: 5
57: 5
58: 5
59: 5
60: 5
61: 5
62: 5
63: 5
64: 5
edge from: to
65: 0
65: 1
66: 0
67: 5
68: 2
68: 5
68: 6
69: 4
69: 7
69: 8
70: 12
70: 13
71: 8
71: 15
71: 16
71: 17
72: 1
73: 22
73: 24
73: 25
74: 25
75: 28
75: 29
75: 30
76: 33
77: 37
77: 40
78: 2
78: 42
79: 43
80: 21
80: 47
81: 49
82: 53
83: 55
84: 57
84: 58
84: 60
84: 61
2: 65
3: 65
4: 66
5: 66
6: 67
7: 68
8: 68
9: 69
10: 69
11: 69
12: 69
13: 69
14: 70
15: 70
16: 70
17: 70
18: 71
19: 71
20: 71
21: 71
22: 72
23: 72
24: 72
25: 72
26: 73
27: 73
28: 74
29: 74
30: 74
31: 75
32: 75
33: 75
34: 75
35: 75
36: 76
37: 76
38: 76
39: 76
40: 76
41: 77
42: 77
43: 78
44: 78
45: 78
46: 78
47: 79
48: 79
49: 79
50: 79
51: 80
52: 80
53: 81
54: 81
55: 81
56: 81
57: 82
58: 82
59: 83
60: 83
61: 83
62: 84
63: 84
64: 84
segment: [7]
vertex id: label
42: 0
43: 4
44: 4
45: 3
46: 0
47: 4
48: 3
49: 4
50: 3
51: 1
52: 1
53: 1
54: 1
55: 1
56: 1
57: 1
58: 1
59: 1
60: 1
61: 1
0: 5
1: 5
2: 5
3: 5
4: 5
5: 5
6: 5
7: 5
8: 5
9: 5
10: 5
11: 5
12: 5
13: 5
14: 5
15: 5
16: 5
17: 5
18: 5
19: 5
20: 5
21: 5
22: 5
23: 5
24: 5
25: 5
26: 5
27: 5
28: 5
29: 5
30: 5
31: 5
32: 5
33: 5
34: 5
35: 5
36: 5
37: 5
38: 5
39: 5
40: 5
41: 5
edge from: to
42: 0
43: 0
43: 1
43: 2
44: 0
44: 2
45: 5
45: 6
46: 8
47: 9
48: 1
48: 6
48: 13
49: 15
50: 15
50: 16
50: 17
51: 9
51: 17
51: 18
51: 19
52: 22
53: 23
54: 24
55: 26
56: 28
56: 30
57: 31
58: 32
58: 34
59: 20
59: 32
59: 34
59: 35
59: 36
60: 35
60: 36
60: 37
61: 37
1: 42
3: 43
4: 43
5: 44
6: 44
7: 45
8: 45
9: 46
10: 46
11: 47
12: 47
13: 47
14: 47
15: 48
16: 48
17: 49
18: 50
19: 50
20: 51
21: 51
22: 51
23: 51
24: 52
25: 53
26: 53
27: 54
28: 54
29: 55
30: 55
31: 56
32: 56
33: 56
34: 57
35: 58
36: 58
37: 59
38: 60
39: 60
40: 60
41: 61
segment: [8]
vertex id: label
62: 0
63: 2
64: 3
65: 4
66: 3
67: 1
68: 1
69: 1
70: 1
71: 1
72: 1
73: 1
74: 1
75: 1
76: 1
77: 1
78: 1
79: 1
80: 1
81: 1
0: 5
1: 5
2: 5
3: 5
4: 5
5: 5
6: 5
7: 5
8: 5
9: 5
10: 5
11: 5
12: 5
13: 5
14: 5
15: 5
16: 5
17: 5
18: 5
19: 5
20: 5
21: 5
22: 5
23: 5
24: 5
25: 5
26: 5
27: 5
28: 5
29: 5
30: 5
31: 5
32: 5
33: 5
34: 5
35: 5
36: 5
37: 5
38: 5
39: 5
40: 5
41: 5
42: 5
43: 5
44: 5
45: 5
46: 5
47: 5
48: 5
49: 5
50: 5
51: 5
52: 5
53: 5
54: 5
55: 5
56: 5
57: 5
58: 5
59: 5
60: 5
61: 5
edge from: to
62: 0
62: 1
63: 0
64: 4
64: 5
65: 6
65: 8
65: 9
65: 10
66: 10
67: 1
67: 6
67: 13
67: 14
68: 16
69: 1
69: 9
70: 24
71: 25
72: 28
73: 30
73: 32
74: 33
74: 35
75: 34
75: 36
76: 36
77: 2
77: 18
77: 42
78: 42
78: 44
79: 44
79: 47
80: 51
81: 54
2: 62
3: 62
4: 62
5: 63
6: 64
7: 64
8: 64
9: 64
10: 64
11: 65
12: 66
13: 66
14: 66
15: 67
16: 67
17: 67
18: 68
19: 68
20: 68
21: 68
22: 69
23: 69
24: 69
25: 69
26: 70
27: 70
28: 71
29: 71
30: 71
31: 72
32: 72
33: 73
34: 73
35: 73
36: 74
37: 75
38: 75
39: 75
40: 76
41: 76
42: 76
43: 76
44: 77
45: 78
46: 78
47: 78
48: 79
49: 79
50: 79
51: 79
52: 79
53: 79
54: 79
55: 80
56: 80
57: 80
58: 81
59: 81
60: 81
61: 81
segment: [9]
vertex id: label
59: 0
60: 4
61: 3
62: 4
63: 3
64: 1
65: 1
66: 1
67: 1
68: 1
69: 1
70: 1
71: 1
72: 1
73: 1
74: 1
75: 1
76: 1
77: 1
78: 1
0: 5
1: 5
2: 5
3: 5
4: 5
5: 5
6: 5
7: 5
8: 5
9: 5
10: 5
11: 5
12: 5
13: 5
14: 5
15: 5
16: 5
17: 5
18: 5
19: 5
20: 5
21: 5
22: 5
23: 5
24: 5
25: 5
26: 5
27: 5
28: 5
29: 5
30: 5
31: 5
32: 5
33: 5
34: 5
35: 5
36: 5
37: 5
38: 5
39: 5
40: 5
41: 5
42: 5
43: 5
44: 5
45: 5
46: 5
47: 5
48: 5
49: 5
50: 5
51: 5
52: 5
53: 5
54: 5
55: 5
56: 5
57: 5
58: 5
edge from: to
59: 0
59: 1
60: 0
60: 1
61: 2
61: 3
61: 5
61: 6
62: 10
63: 1
63: 14
63: 15
64: 16
65: 17
65: 19
66: 1
66: 22
67: 26
68: 28
68: 30
69: 14
69: 31
70: 33
71: 35
72: 16
72: 36
73: 38
74: 2
74: 18
74: 42
75: 19
75: 43
75: 44
75: 45
76: 43
77: 48
77: 50
77: 51
78: 23
78: 52
2: 59
3: 60
4: 60
5: 60
6: 60
7: 61
8: 61
9: 61
10: 61
11: 61
12: 62
13: 62
14: 62
15: 62
16: 63
17: 63
18: 64
19: 64
20: 65
21: 65
22: 65
23: 66
24: 66
25: 66
26: 66
27: 66
28: 66
29: 67
30: 67
31: 68
32: 68
33: 68
34: 69
35: 69
36: 70
37: 70
38: 71
39: 72
40: 72
41: 72
42: 73
43: 73
44: 74
45: 74
46: 75
47: 76
48: 76
49: 76
50: 76
51: 76
52: 77
53: 77
54: 77
55: 77
56: 78
57: 78
58: 78
