segment: [0]
vertex id: label
51: 0
52: 2
53: 4
54: 1
55: 3
56: 3
57: 3
58: 3
59: 3
60: 3
61: 3
62: 3
63: 3
64: 3
65: 3
66: 3
67: 3
68: 3
69: 3
70: 3
0: 5
1: 5
2: 5
3: 5
4: 5
5: 5
6: 5
7: 5
8: 5
9: 5
10: 5
11: 5
12: 5
13: 5
14: 5
15: 5
16: 5
17: 5
18: 5
19: 5
20: 5
21: 5
22: 5
23: 5
24: 5
25: 5
26: 5
27: 5
28: 5
29: 5
30: 5
31: 5
32: 5
33: 5
34: 5
35: 5
36: 5
37: 5
38: 5
39: 5
40: 5
41: 5
42: 5
43: 5
44: 5
45: 5
46: 5
47: 5
48: 5
49: 5
50: 5
edge from: to
51: 0
51: 1
51: 2
52: 0
52: 4
53: 0
53: 4
53: 5
53: 7
54: 0
55: 0
55: 6
56: 11
57: 5
57: 8
57: 14
57: 15
58: 15
59: 19
60: 13
60: 21
61: 22
62: 25
62: 27
63: 27
63: 29
64: 30
64: 32
64: 33
65: 31
66: 34
67: 36
68: 24
68: 39
69: 40
69: 44
70: 25
70: 29
70: 41
70: 45
3: 51
4: 51
5: 52
6: 52
7: 52
8: 53
9: 53
10: 54
11: 55
12: 55
13: 56
14: 56
15: 56
16: 57
17: 58
18: 58
19: 58
20: 58
21: 58
22: 59
23: 59
24: 60
25: 61
26: 61
27: 61
28: 62
29: 62
30: 63
31: 63
32: 63
33: 63
34: 64
35: 65
36: 65
37: 65
38: 66
39: 66
40: 67
41: 67
42: 67
43: 67
44: 68
45: 69
46: 70
47: 70
48: 70
49: 70
50: 70
segment: [1]
vertex id: label
66: 0
67: 2
68: 4
69: 1
70: 3
71: 3
72: 3
73: 3
74: 3
75: 3
76: 3
77: 3
78: 3
79: 3
80: 3
81: 3
82: 3
83: 3
84: 3
85: 3
0: 5
1: 5
2: 5
3: 5
4: 5
5: 5
6: 5
7: 5
8: 5
9: 5
10: 5
11: 5
12: 5
13: 5
14: 5
15: 5
16: 5
17: 5
18: 5
19: 5
20: 5
21: 5
22: 5
23: 5
24: 5
25: 5
26: 5
27: 5
28: 5
29: 5
30: 5
31: 5
32: 5
33: 5
34: 5
35: 5
36: 5
37: 5
38: 5
39: 5
40: 5
41: 5
42: 5
43: 5
44: 5
45: 5
46: 5
47: 5
48: 5
49: 5
50: 5
51: 5
52: 5
53: 5
54: 5
55: 5
56: 5
57: 5
58: 5
59: 5
60: 5
61: 5
62: 5
63: 5
64: 5
65: 5
edge from: to
66: 0
66: 1
67: 0
67: 4
68: 0
68: 8
69: 0
69: 9
70: 0
70: 6
70: 11
71: 13
72: 16
72: 17
73: 12
73: 13
73: 19
73: 21
74: 16
74: 24
74: 26
75: 27
76: 29
76: 30
76: 32
76: 33
77: 34
78: 36
78: 39
79: 23
79: 40
79: 44
80: 41
81: 45
81: 49
82: 46
82: 50
83: 48
84: 50
85: 55
85: 57
85: 60
2: 66
3: 66
4: 66
5: 67
6: 67
7: 67
8: 67
9: 68
10: 69
11: 69
12: 70
13: 70
14: 70
15: 71
16: 71
17: 71
18: 72
19: 72
20: 72
21: 72
22: 73
23: 73
24: 73
25: 73
26: 73
27: 74
28: 74
29: 74
30: 74
31: 75
32: 75
33: 75
34: 76
35: 76
36: 76
37: 76
38: 77
39: 77
40: 78
41: 78
42: 78
43: 78
44: 78
45: 79
46: 80
47: 80
48: 80
49: 80
50: 81
51: 82
52: 82
53: 83
54: 83
55: 83
56: 84
57: 84
58: 84
59: 84
60: 84
61: 85
62: 85
63: 85
64: 85
65: 85
segment: [2]
vertex id: label
70: 0
71: 2
72: 4
73: 1
74: 3
75: 3
76: 3
77: 3
78: 3
79: 3
80: 3
81: 3
82: 3
83: 3
84: 3
85: 3
86: 3
87: 3
88: 3
89: 3
0: 5
1: 5
2: 5
3: 5
4: 5
5: 5
6: 5
7: 5
8: 5
9: 5
10: 5
11: 5
12: 5
13: 5
14: 5
15: 5
16: 5
17: 5
18: 5
19: 5
20: 5
21: 5
22: 5
23: 5
24: 5
25: 5
26: 5
27: 5
28: 5
29: 5
30: 5
31: 5
32: 5
33: 5
34: 5
35: 5
36: 5
37: 5
38: 5
39: 5
40: 5
41: 5
42: 5
43: 5
44: 5
45: 5
46: 5
47: 5
48: 5
49: 5
50: 5
51: 5
52: 5
53: 5
54: 5
55: 5
56: 5
57: 5
58: 5
59: 5
60: 5
61: 5
62: 5
63: 5
64: 5
65: 5
66: 5
67: 5
68: 5
69: 5
edge from: to
70: 0
70: 1
71: 0
71: 2
72: 0
73: 7
73: 11
73: 12
74: 13
75: 9
75: 15
76: 22
76: 24
77: 24
77: 26
78: 27
78: 29
79: 29
80: 33
80: 36
81: 23
81: 38
82: 24
82: 39
83: 43
83: 45
83: 47
84: 46
85: 29
85: 48
85: 52
86: 30
86: 50
87: 51
88: 59
89: 36
89: 60
2: 70
3: 70
4: 71
5: 71
6: 71
7: 71
8: 71
9: 72
10: 72
11: 72
12: 72
13: 73
14: 73
15: 74
16: 74
17: 75
18: 75
19: 75
20: 75
21: 75
22: 75
23: 75
24: 75
25: 76
26: 76
27: 77
28: 77
29: 77
30: 78
31: 78
32: 78
33: 79
34: 79
35: 79
36: 79
37: 80
38: 80
39: 80
40: 80
41: 80
42: 81
43: 81
44: 82
45: 82
46: 82
47: 82
48: 83
49: 83
50: 83
51: 84
52: 84
53: 85
54: 85
55: 86
56: 86
57: 87
58: 87
59: 87
60: 87
61: 87
62: 87
63: 87
64: 87
65: 88
66: 89
67: 89
68: 89
69: 89
segment: [3]
vertex id: label
55: 0
56: 2
57: 4
58: 1
59: 3
60: 3
61: 3
62: 3
63: 3
64: 3
65: 3
66: 3
67: 3
68: 3
69: 3
70: 3
71: 3
72: 3
73: 3
74: 3
0: 5
1: 5
2: 5
3: 5
4: 5
5: 5
6: 5
7: 5
8: 5
9: 5
10: 5
11: 5
12: 5
13: 5
14: 5
15: 5
16: 5
17: 5
18: 5
19: 5
20: 5
21: 5
22: 5
23: 5
24: 5
25: 5
26: 5
27: 5
28: 5
29: 5
30: 5
31: 5
32: 5
33: 5
34: 5
35: 5
36: 5
37: 5
38: 5
39: 5
40: 5
41: 5
42: 5
43: 5
44: 5
45: 5
46: 5
47: 5
48: 5
49: 5
50: 5
51: 5
52: 5
53: 5
54: 5
edge from: to
55: 0
55: 1
56: 0
56: 6
57: 0
57: 4
58: 0
58: 6
59: 8
59: 13
60: 16
60: 17
61: 18
62: 20
63: 21
64: 16
64: 24
64: 26
65: 18
65: 26
65: 28
66: 28
67: 31
68: 20
68: 35
68: 37
68: 38
69: 24
69: 25
69: 36
69: 39
70: 23
70: 38
70: 41
71: 39
72: 42
73: 44
73: 48
74: 45
74: 49
2: 55
3: 55
4: 55
5: 55
6: 55
7: 56
8: 57
9: 57
10: 57
11: 58
12: 58
13: 58
14: 58
15: 59
16: 59
17: 59
18: 60
19: 60
20: 60
21: 61
22: 61
23: 62
24: 63
25: 63
26: 63
27: 64
28: 64
29: 65
30: 65
31: 65
32: 66
33: 66
34: 66
35: 67
36: 67
37: 67
38: 67
39: 68
40: 69
41: 69
42: 70
43: 70
44: 71
45: 71
46: 71
47: 72
48: 72
49: 73
50: 74
51: 74
52: 74
53: 74
54: 74
segment: [4]
vertex id: label
63: 0
64: 2
65: 4
66: 1
67: 3
68: 3
69: 3
70: 3
71: 3
72: 3
73: 3
74: 3
75: 3
76: 3
77: 3
78: 3
79: 3
80: 3
81: 3
82: 3
0: 5
1: 5
2: 5
3: 5
4: 5
5: 5
6: 5
7: 5
8: 5
9: 5
10: 5
11: 5
12: 5
13: 5
14: 5
15: 5
16: 5
17: 5
18: 5
19: 5
20: 5
21: 5
22: 5
23: 5
24: 5
25: 5
26: 5
27: 5
28: 5
29: 5
30: 5
31: 5
32: 5
33: 5
34: 5
35: 5
36: 5
37: 5
38: 5
39: 5
40: 5
41: 5
42: 5
43: 5
44: 5
45: 5
46: 5
47: 5
48: 5
49: 5
50: 5
51: 5
52: 5
53: 5
54: 5
55: 5
56: 5
57: 5
58: 5
59: 5
60: 5
61: 5
62: 5
edge from: to
63: 0
63: 1
63: 2
63: 3
63: 4
64: 0
64: 6
65: 0
65: 8
66: 0
66: 6
66: 7
66: 11
67: 11
68: 16
69: 12
69: 19
69: 21
70: 21
71: 22
71: 24
72: 24
72: 26
73: 25
74: 27
74: 29
74: 30
75: 32
75: 35
76: 23
76: 38
77: 44
77: 46
77: 48
78: 46
79: 6
79: 47
79: 50
79: 51
80: 51
81: 53
81: 55
81: 58
82: 55
82: 60
5: 63
6: 63
7: 64
8: 64
9: 65
10: 65
11: 65
12: 66
13: 67
14: 67
15: 67
16: 67
17: 67
18: 68
19: 68
20: 68
21: 68
22: 69
23: 69
24: 70
25: 71
26: 71
27: 72
28: 73
29: 73
30: 73
31: 74
32: 74
33: 74
34: 74
35: 74
36: 75
37: 75
38: 75
39: 75
40: 75
41: 75
42: 76
43: 76
44: 76
45: 76
46: 76
47: 76
48: 76
49: 77
50: 77
51: 78
52: 79
53: 79
54: 79
55: 79
56: 79
57: 80
58: 80
59: 81
60: 81
61: 82
62: 82
segment: [5]
vertex id: label
59: 0
60: 2
61: 4
62: 1
63: 3
64: 3
65: 3
66: 3
67: 3
68: 3
69: 3
70: 3
71: 3
72: 3
73: 3
74: 3
75: 3
76: 3
77: 3
78: 3
0: 5
1: 5
2: 5
3: 5
4: 5
5: 5
6: 5
7: 5
8: 5
9: 5
10: 5
11: 5
12: 5
13: 5
14: 5
15: 5
16: 5
17: 5
18: 5
19: 5
20: 5
21: 5
22: 5
23: 5
24: 5
25: 5
26: 5
27: 5
28: 5
29: 5
30: 5
31: 5
32: 5
33: 5
34: 5
35: 5
36: 5
37: 5
38: 5
39: 5
40: 5
41: 5
42: 5
43: 5
44: 5
45: 5
46: 5
47: 5
48: 5
49: 5
50: 5
51: 5
52: 5
53: 5
54: 5
55: 5
56: 5
57: 5
58: 5
edge from: to
59: 0
59: 1
60: 0
60: 3
61: 0
62: 0
63: 0
64: 13
65: 17
65: 18
66: 19
67: 21
68: 24
69: 26
69: 28
70: 27
71: 18
71: 29
72: 31
73: 33
74: 38
75: 40
75: 44
76: 9
76: 44
76: 46
76: 48
77: 29
77: 48
78: 18
78: 50
78: 52
78: 55
2: 59
3: 59
4: 59
5: 59
6: 60
7: 61
8: 62
9: 62
10: 62
11: 62
12: 63
13: 63
14: 63
15: 64
16: 64
17: 64
18: 64
19: 65
20: 65
21: 65
22: 66
23: 66
24: 67
25: 67
26: 67
27: 68
28: 68
29: 69
30: 69
31: 70
32: 70
33: 71
34: 71
35: 72
36: 72
37: 73
38: 73
39: 73
40: 73
41: 73
42: 74
43: 74
44: 74
45: 75
46: 75
47: 75
48: 75
49: 76
50: 76
51: 76
52: 76
53: 77
54: 77
55: 77
56: 78
57: 78
58: 78
segment: [6]
vertex id: label
61: 0
62: 2
63: 4
64: 1
65: 3
66: 3
67: 3
68: 3
69: 3
70: 3
71: 3
72: 3
73: 3
74: 3
75: 3
76: 3
77: 3
78: 3
79: 3
80: 3
0: 5
1: 5
2: 5
3: 5
4: 5
5: 5
6: 5
7: 5
8: 5
9: 5
10: 5
11: 5
12: 5
13: 5
14: 5
15: 5
16: 5
17: 5
18: 5
19: 5
20: 5
21: 5
22: 5
23: 5
24: 5
25: 5
26: 5
27: 5
28: 5
29: 5
30: 5
31: 5
32: 5
33: 5
34: 5
35: 5
36: 5
37: 5
38: 5
39: 5
40: 5
41: 5
42: 5
43: 5
44: 5
45: 5
46: 5
47: 5
48: 5
49: 5
50: 5
51: 5
52: 5
53: 5
54: 5
55: 5
56: 5
57: 5
58: 5
59: 5
60: 5
edge from: to
61: 0
61: 1
61: 2
61: 3
61: 4
62: 0
63: 0
63: 2
63: 4
63: 5
63: 7
64: 0
64: 6
64: 7
64: 11
65: 7
65: 11
66: 14
66: 15
67: 17
67: 18
68: 12
68: 19
68: 21
69: 24
69: 26
70: 27
70: 30
71: 32
72: 24
72: 34
72: 37
73: 21
73: 37
73: 40
74: 39
75: 41
76: 42
76: 46
77: 30
77: 45
77: 49
78: 50
78: 55
79: 52
80: 53
80: 58
5: 61
6: 62
7: 62
8: 63
9: 63
10: 63
11: 63
12: 64
13: 65
14: 65
15: 65
16: 66
17: 66
18: 66
19: 67
20: 67
21: 67
22: 68
23: 68
24: 68
25: 68
26: 68
27: 69
28: 69
29: 69
30: 69
31: 70
32: 70
33: 70
34: 70
35: 70
36: 71
37: 71
38: 72
39: 72
40: 72
41: 73
42: 73
43: 73
44: 74
45: 74
46: 75
47: 76
48: 76
49: 76
50: 77
51: 77
52: 77
53: 77
54: 77
55: 77
56: 78
57: 78
58: 79
59: 80
60: 80
segment: [7]
vertex id: label
68: 0
69: 2
70: 4
71: 1
72: 3
73: 3
74: 3
75: 3
76: 3
77: 3
78: 3
79: 3
80: 3
81: 3
82: 3
83: 3
84: 3
85: 3
86: 3
87: 3
0: 5
1: 5
2: 5
3: 5
4: 5
5: 5
6: 5
7: 5
8: 5
9: 5
10: 5
11: 5
12: 5
13: 5
14: 5
15: 5
16: 5
17: 5
18: 5
19: 5
20: 5
21: 5
22: 5
23: 5
24: 5
25: 5
26: 5
27: 5
28: 5
29: 5
30: 5
31: 5
32: 5
33: 5
34: 5
35: 5
36: 5
37: 5
38: 5
39: 5
40: 5
41: 5
42: 5
43: 5
44: 5
45: 5
46: 5
47: 5
48: 5
49: 5
50: 5
51: 5
52: 5
53: 5
54: 5
55: 5
56: 5
57: 5
58: 5
59: 5
60: 5
61: 5
62: 5
63: 5
64: 5
65: 5
66: 5
67: 5
edge from: to
68: 0
68: 1
68: 2
69: 0
69: 3
70: 0
71: 0
71: 6
71: 7
71: 11
72: 8
72: 13
73: 17
73: 18
74: 19
75: 13
75: 21
76: 25
76: 27
77: 18
77: 19
77: 21
77: 31
77: 34
78: 34
78: 37
79: 37
80: 39
81: 43
82: 47
82: 51
83: 50
83: 55
84: 54
84: 59
85: 56
86: 59
87: 36
87: 60
3: 68
4: 68
5: 68
6: 69
7: 69
8: 69
9: 69
10: 70
11: 70
12: 71
13: 71
14: 71
15: 72
16: 72
17: 72
18: 72
19: 73
20: 73
21: 73
22: 74
23: 74
24: 75
25: 75
26: 75
27: 75
28: 76
29: 76
30: 76
31: 76
32: 76
33: 76
34: 76
35: 77
36: 77
37: 77
38: 78
39: 78
40: 78
41: 79
42: 79
43: 79
44: 80
45: 80
46: 80
47: 80
48: 81
49: 81
50: 81
51: 81
52: 82
53: 82
54: 82
55: 82
56: 83
57: 83
58: 83
59: 83
60: 84
61: 84
62: 85
63: 85
64: 85
65: 86
66: 87
67: 87
segment: [8]
vertex id: label
69: 0
70: 2
71: 4
72: 1
73: 3
74: 3
75: 3
76: 3
77: 3
78: 3
79: 3
80: 3
81: 3
82: 3
83: 3
84: 3
85: 3
86: 3
87: 3
88: 3
0: 5
1: 5
2: 5
3: 5
4: 5
5: 5
6: 5
7: 5
8: 5
9: 5
10: 5
11: 5
12: 5
13: 5
14: 5
15: 5
16: 5
17: 5
18: 5
19: 5
20: 5
21: 5
22: 5
23: 5
24: 5
25: 5
26: 5
27: 5
28: 5
29: 5
30: 5
31: 5
32: 5
33: 5
34: 5
35: 5
36: 5
37: 5
38: 5
39: 5
40: 5
41: 5
42: 5
43: 5
44: 5
45: 5
46: 5
47: 5
48: 5
49: 5
50: 5
51: 5
52: 5
53: 5
54: 5
55: 5
56: 5
57: 5
58: 5
59: 5
60: 5
61: 5
62: 5
63: 5
64: 5
65: 5
66: 5
67: 5
68: 5
edge from: to
69: 0
69: 1
69: 2
70: 0
71: 0
71: 3
71: 5
72: 0
73: 0
73: 6
73: 10
74: 12
74: 13
75: 17
75: 18
76: 20
76: 22
77: 22
77: 24
78: 26
78: 28
79: 28
79: 31
80: 32
81: 37
81: 40
82: 25
82: 41
83: 46
83: 50
84: 49
84: 53
85: 52
85: 57
86: 56
87: 35
87: 58
88: 61
3: 69
4: 69
5: 70
6: 71
7: 71
8: 71
9: 72
10: 72
11: 73
12: 73
13: 73
14: 74
15: 74
16: 74
17: 74
18: 74
19: 75
20: 75
21: 75
22: 75
23: 76
24: 76
25: 77
26: 77
27: 77
28: 77
29: 78
30: 78
31: 78
32: 79
33: 79
34: 79
35: 79
36: 80
37: 80
38: 80
39: 80
40: 80
41: 81
42: 81
43: 81
44: 81
45: 81
46: 82
47: 82
48: 82
49: 82
50: 82
51: 83
52: 83
53: 83
54: 84
55: 84
56: 84
57: 84
58: 85
59: 85
60: 85
61: 85
62: 86
63: 86
64: 87
65: 87
66: 87
67: 88
68: 88
segment: [9]
vertex id: label
61: 0
62: 2
63: 4
64: 1
65: 3
66: 3
67: 3
68: 3
69: 3
70: 3
71: 3
72: 3
73: 3
74: 3
75: 3
76: 3
77: 3
78: 3
79: 3
80: 3
0: 5
1: 5
2: 5
3: 5
4: 5
5: 5
6: 5
7: 5
8: 5
9: 5
10: 5
11: 5
12: 5
13: 5
14: 5
15: 5
16: 5
17: 5
18: 5
19: 5
20: 5
21: 5
22: 5
23: 5
24: 5
25: 5
26: 5
27: 5
28: 5
29: 5
30: 5
31: 5
32: 5
33: 5
34: 5
35: 5
36: 5
37: 5
38: 5
39: 5
40: 5
41: 5
42: 5
43: 5
44: 5
45: 5
46: 5
47: 5
48: 5
49: 5
50: 5
51: 5
52: 5
53: 5
54: 5
55: 5
56: 5
57: 5
58: 5
59: 5
60: 5
edge from: to
61: 0
61: 1
61: 2
62: 0
62: 3
63: 11
64: 8
64: 9
64: 13
64: 14
65: 16
65: 17
66: 19
67: 15
67: 22
67: 24
68: 23
69: 26
69: 28
70: 27
71: 27
71: 30
72: 28
73: 30
74: 20
74: 35
74: 38
75: 37
76: 40
76: 44
77: 43
77: 47
78: 47
79: 30
79: 50
80: 51
80: 56
3: 61
4: 61
5: 61
6: 62
7: 62
8: 62
9: 62
10: 62
11: 62
12: 62
13: 63
14: 63
15: 64
16: 64
17: 64
18: 65
19: 65
20: 65
21: 65
22: 66
23: 66
24: 66
25: 67
26: 68
27: 68
28: 68
29: 69
30: 70
31: 71
32: 72
33: 72
34: 73
35: 73
36: 73
37: 73
38: 73
39: 74
40: 74
41: 75
42: 75
43: 75
44: 75
45: 76
46: 76
47: 76
48: 77
49: 77
50: 77
51: 77
52: 78
53: 78
54: 78
55: 79
56: 79
57: 80
58: 80
59: 80
60: 80
segment: [10]
vertex id: label
50: 0
51: 2
52: 4
53: 1
54: 3
55: 3
56: 3
57: 3
58: 3
59: 3
60: 3
61: 3
62: 3
63: 3
64: 3
65: 3
66: 3
67: 3
68: 3
69: 3
0: 5
1: 5
2: 5
3: 5
4: 5
5: 5
6: 5
7: 5
8: 5
9: 5
10: 5
11: 5
12: 5
13: 5
14: 5
15: 5
16: 5
17: 5
18: 5
19: 5
20: 5
21: 5
22: 5
23: 5
24: 5
25: 5
26: 5
27: 5
28: 5
29: 5
30: 5
31: 5
32: 5
33: 5
34: 5
35: 5
36: 5
37: 5
38: 5
39: 5
40: 5
41: 5
42: 5
43: 5
44: 5
45: 5
46: 5
47: 5
48: 5
49: 5
edge from: to
50: 0
51: 0
52: 0
52: 3
53: 0
53: 4
53: 5
53: 7
54: 0
54: 8
55: 0
56: 11
57: 12
57: 13
58: 14
58: 15
59: 17
60: 12
60: 19
61: 8
61: 15
61: 22
61: 24
62: 18
62: 26
62: 28
63: 27
64: 28
64: 31
65: 34
65: 37
66: 37
66: 40
67: 23
67: 38
68: 24
68: 39
68: 41
68: 43
69: 41
1: 50
2: 51
3: 51
4: 51
5: 51
6: 52
7: 52
8: 53
9: 54
10: 54
11: 55
12: 55
13: 56
14: 57
15: 57
16: 58
17: 58
18: 58
19: 59
20: 59
21: 59
22: 60
23: 60
24: 60
25: 61
26: 61
27: 61
28: 61
29: 62
30: 63
31: 63
32: 64
33: 64
34: 64
35: 64
36: 64
37: 64
38: 65
39: 65
40: 65
41: 66
42: 67
43: 67
44: 68
45: 68
46: 69
47: 69
48: 69
49: 69
segment: [11]
vertex id: label
67: 0
68: 2
69: 4
70: 1
71: 3
72: 3
73: 3
74: 3
75: 3
76: 3
77: 3
78: 3
79: 3
80: 3
81: 3
82: 3
83: 3
84: 3
85: 3
86: 3
0: 5
1: 5
2: 5
3: 5
4: 5
5: 5
6: 5
7: 5
8: 5
9: 5
10: 5
11: 5
12: 5
13: 5
14: 5
15: 5
16: 5
17: 5
18: 5
19: 5
20: 5
21: 5
22: 5
23: 5
24: 5
25: 5
26: 5
27: 5
28: 5
29: 5
30: 5
31: 5
32: 5
33: 5
34: 5
35: 5
36: 5
37: 5
38: 5
39: 5
40: 5
41: 5
42: 5
43: 5
44: 5
45: 5
46: 5
47: 5
48: 5
49: 5
50: 5
51: 5
52: 5
53: 5
54: 5
55: 5
56: 5
57: 5
58: 5
59: 5
60: 5
61: 5
62: 5
63: 5
64: 5
65: 5
66: 5
edge from: to
67: 0
67: 1
68: 0
68: 1
69: 0
69: 2
69: 4
69: 6
70: 0
70: 5
70: 8
71: 0
71: 2
71: 6
71: 10
72: 7
72: 12
72: 13
73: 16
74: 18
74: 20
75: 23
76: 27
77: 18
77: 23
77: 29
77: 31
77: 32
78: 33
79: 36
80: 24
80: 39
80: 43
81: 42
81: 44
81: 46
82: 46
83: 34
83: 49
83: 50
83: 53
84: 51
85: 54
86: 35
86: 58
2: 67
3: 68
4: 68
5: 68
6: 68
7: 69
8: 69
9: 70
10: 70
11: 71
12: 71
13: 71
14: 72
15: 72
16: 72
17: 72
18: 73
19: 73
20: 73
21: 74
22: 74
23: 74
24: 74
25: 74
26: 75
27: 75
28: 75
29: 75
30: 76
31: 76
32: 76
33: 77
34: 77
35: 77
36: 77
37: 78
38: 78
39: 78
40: 79
41: 79
42: 79
43: 79
44: 80
45: 80
46: 80
47: 81
48: 81
49: 81
50: 81
51: 82
52: 82
53: 82
54: 83
55: 83
56: 83
57: 84
58: 84
59: 84
60: 85
61: 85
62: 85
63: 85
64: 86
65: 86
66: 86
segment: [12]
vertex id: label
53: 0
54: 2
55: 2
56: 4
57: 1
58: 3
59: 3
60: 3
61: 3
62: 3
63: 3
64: 3
65: 3
66: 3
67: 3
68: 3
69: 3
70: 3
71: 3
72: 3
0: 5
1: 5
2: 5
3: 5
4: 5
5: 5
6: 5
7: 5
8: 5
9: 5
10: 5
11: 5
12: 5
13: 5
14: 5
15: 5
16: 5
17: 5
18: 5
19: 5
20: 5
21: 5
22: 5
23: 5
24: 5
25: 5
26: 5
27: 5
28: 5
29: 5
30: 5
31: 5
32: 5
33: 5
34: 5
35: 5
36: 5
37: 5
38: 5
39: 5
40: 5
41: 5
42: 5
43: 5
44: 5
45: 5
46: 5
47: 5
48: 5
49: 5
50: 5
51: 5
52: 5
edge from: to
53: 0
54: 0
54: 1
55: 0
56: 0
56: 6
57: 0
58: 0
59: 8
59: 13
59: 14
60: 16
60: 17
61: 17
62: 13
62: 21
63: 14
63: 23
63: 25
64: 25
65: 27
66: 29
67: 30
68: 32
69: 34
70: 23
70: 38
70: 41
71: 38
72: 44
72: 46
72: 48
1: 53
2: 54
3: 55
4: 55
5: 55
6: 55
7: 56
8: 56
9: 56
10: 57
11: 58
12: 58
13: 58
14: 58
15: 59
16: 59
17: 59
18: 60
19: 60
20: 61
21: 61
22: 61
23: 61
24: 62
25: 62
26: 63
27: 63
28: 64
29: 64
30: 65
31: 65
32: 65
33: 66
34: 67
35: 67
36: 68
37: 68
38: 69
39: 69
40: 69
41: 69
42: 70
43: 71
44: 71
45: 71
46: 71
47: 71
48: 71
49: 72
50: 72
51: 72
52: 72
segment: [13]
vertex id: label
68: 0
69: 2
70: 4
71: 1
72: 3
73: 3
74: 3
75: 3
76: 3
77: 3
78: 3
79: 3
80: 3
81: 3
82: 3
83: 3
84: 3
85: 3
86: 3
87: 3
0: 5
1: 5
2: 5
3: 5
4: 5
5: 5
6: 5
7: 5
8: 5
9: 5
10: 5
11: 5
12: 5
13: 5
14: 5
15: 5
16: 5
17: 5
18: 5
19: 5
20: 5
21: 5
22: 5
23: 5
24: 5
25: 5
26: 5
27: 5
28: 5
29: 5
30: 5
31: 5
32: 5
33: 5
34: 5
35: 5
36: 5
37: 5
38: 5
39: 5
40: 5
41: 5
42: 5
43: 5
44: 5
45: 5
46: 5
47: 5
48: 5
49: 5
50: 5
51: 5
52: 5
53: 5
54: 5
55: 5
56: 5
57: 5
58: 5
59: 5
60: 5
61: 5
62: 5
63: 5
64: 5
65: 5
66: 5
67: 5
edge from: to
68: 0
69: 0
70: 0
70: 8
71: 0
71: 6
71: 10
72: 8
72: 13
73: 9
73: 16
73: 17
74: 13
74: 21
75: 16
75: 24
75: 26
76: 25
77: 19
77: 28
77: 31
78: 30
79: 32
80: 36
81: 24
81: 39
81: 41
81: 43
82: 25
82: 41
82: 45
83: 33
83: 42
83: 44
83: 45
83: 46
84: 32
84: 46
84: 48
84: 49
84: 50
85: 18
85: 50
85: 55
86: 51
87: 54
1: 68
2: 69
3: 69
4: 69
5: 69
6: 69
7: 69
8: 69
9: 70
10: 70
11: 71
12: 71
13: 71
14: 71
15: 72
16: 72
17: 72
18: 73
19: 73
20: 73
21: 73
22: 73
23: 73
24: 74
25: 74
26: 74
27: 75
28: 76
29: 76
30: 76
31: 76
32: 77
33: 77
34: 78
35: 78
36: 79
37: 79
38: 79
39: 79
40: 80
41: 80
42: 80
43: 80
44: 81
45: 81
46: 82
47: 83
48: 83
49: 83
50: 83
51: 84
52: 84
53: 84
54: 84
55: 84
56: 85
57: 86
58: 86
59: 86
60: 87
61: 87
62: 87
63: 87
64: 87
65: 87
66: 87
67: 87
segment: [14]
vertex id: label
58: 0
59: 2
60: 4
61: 1
62: 3
63: 3
64: 3
65: 3
66: 3
67: 3
68: 3
69: 3
70: 3
71: 3
72: 3
73: 3
74: 3
75: 3
76: 3
77: 3
0: 5
1: 5
2: 5
3: 5
4: 5
5: 5
6: 5
7: 5
8: 5
9: 5
10: 5
11: 5
12: 5
13: 5
14: 5
15: 5
16: 5
17: 5
18: 5
19: 5
20: 5
21: 5
22: 5
23: 5
24: 5
25: 5
26: 5
27: 5
28: 5
29: 5
30: 5
31: 5
32: 5
33: 5
34: 5
35: 5
36: 5
37: 5
38: 5
39: 5
40: 5
41: 5
42: 5
43: 5
44: 5
45: 5
46: 5
47: 5
48: 5
49: 5
50: 5
51: 5
52: 5
53: 5
54: 5
55: 5
56: 5
57: 5
edge from: to
58: 0
58: 1
58: 2
59: 0
59: 4
59: 7
60: 0
60: 5
60: 9
61: 12
61: 13
62: 8
62: 13
63: 15
64: 17
65: 17
65: 19
66: 14
66: 23
67: 24
68: 27
69: 28
70: 29
70: 30
70: 32
70: 33
71: 32
72: 36
73: 38
73: 42
74: 42
75: 45
75: 49
76: 46
76: 50
77: 47
3: 58
4: 58
5: 58
6: 58
7: 58
8: 59
9: 59
10: 60
11: 60
12: 60
13: 60
14: 61
15: 62
16: 62
17: 63
18: 63
19: 64
20: 65
21: 65
22: 65
23: 65
24: 65
25: 65
26: 66
27: 67
28: 67
29: 67
30: 67
31: 68
32: 69
33: 69
34: 70
35: 70
36: 71
37: 71
38: 71
39: 71
40: 72
41: 72
42: 72
43: 73
44: 73
45: 73
46: 73
47: 74
48: 74
49: 74
50: 75
51: 76
52: 77
53: 77
54: 77
55: 77
56: 77
57: 77
segment: [15]
vertex id: label
63: 0
64: 2
65: 4
66: 1
67: 3
68: 3
69: 3
70: 3
71: 3
72: 3
73: 3
74: 3
75: 3
76: 3
77: 3
78: 3
79: 3
80: 3
81: 3
82: 3
0: 5
1: 5
2: 5
3: 5
4: 5
5: 5
6: 5
7: 5
8: 5
9: 5
10: 5
11: 5
12: 5
13: 5
14: 5
15: 5
16: 5
17: 5
18: 5
19: 5
20: 5
21: 5
22: 5
23: 5
24: 5
25: 5
26: 5
27: 5
28: 5
29: 5
30: 5
31: 5
32: 5
33: 5
34: 5
35: 5
36: 5
37: 5
38: 5
39: 5
40: 5
41: 5
42: 5
43: 5
44: 5
45: 5
46: 5
47: 5
48: 5
49: 5
50: 5
51: 5
52: 5
53: 5
54: 5
55: 5
56: 5
57: 5
58: 5
59: 5
60: 5
61: 5
62: 5
edge from: to
63: 0
64: 0
64: 3
64: 4
65: 0
65: 2
65: 4
65: 5
65: 6
65: 7
66: 0
67: 7
67: 12
67: 13
68: 8
68: 14
68: 15
69: 17
69: 18
70: 20
70: 22
71: 22
71: 24
72: 26
73: 19
73: 28
73: 31
74: 30
74: 33
75: 33
76: 20
76: 35
76: 37
76: 38
77: 38
78: 40
79: 43
80: 46
81: 18
81: 50
81: 52
81: 55
82: 53
1: 63
2: 63
3: 63
4: 63
5: 64
6: 64
7: 64
8: 65
9: 65
10: 65
11: 66
12: 66
13: 66
14: 67
15: 67
16: 68
17: 68
18: 68
19: 69
20: 69
21: 69
22: 69
23: 70
24: 70
25: 71
26: 71
27: 71
28: 71
29: 72
30: 72
31: 72
32: 73
33: 73
34: 74
35: 74
36: 74
37: 75
38: 75
39: 76
40: 76
41: 76
42: 76
43: 77
44: 77
45: 78
46: 78
47: 78
48: 79
49: 79
50: 79
51: 80
52: 80
53: 80
54: 80
55: 80
56: 81
57: 81
58: 81
59: 82
60: 82
61: 82
62: 82
segment: [16]
vertex id: label
57: 0
58: 2
59: 4
60: 1
61: 3
62: 3
63: 3
64: 3
65: 3
66: 3
67: 3
68: 3
69: 3
70: 3
71: 3
72: 3
73: 3
74: 3
75: 3
76: 3
0: 5
1: 5
2: 5
3: 5
4: 5
5: 5
6: 5
7: 5
8: 5
9: 5
10: 5
11: 5
12: 5
13: 5
14: 5
15: 5
16: 5
17: 5
18: 5
19: 5
20: 5
21: 5
22: 5
23: 5
24: 5
25: 5
26: 5
27: 5
28: 5
29: 5
30: 5
31: 5
32: 5
33: 5
34: 5
35: 5
36: 5
37: 5
38: 5
39: 5
40: 5
41: 5
42: 5
43: 5
44: 5
45: 5
46: 5
47: 5
48: 5
49: 5
50: 5
51: 5
52: 5
53: 5
54: 5
55: 5
56: 5
edge from: to
57: 0
57: 1
58: 0
58: 1
58: 2
59: 0
59: 6
60: 0
60: 4
61: 12
62: 13
63: 14
63: 15
64: 15
65: 6
65: 17
65: 18
66: 20
67: 21
68: 28
69: 30
70: 38
71: 24
71: 39
72: 40
73: 43
74: 45
75: 48
76: 50
2: 57
3: 57
4: 58
5: 58
6: 58
7: 59
8: 60
9: 60
10: 60
11: 60
12: 60
13: 60
14: 61
15: 62
16: 63
17: 64
18: 64
19: 65
20: 65
21: 65
22: 65
23: 66
24: 67
25: 67
26: 67
27: 67
28: 67
29: 67
30: 67
31: 67
32: 68
33: 68
34: 69
35: 69
36: 69
37: 69
38: 69
39: 69
40: 69
41: 69
42: 70
43: 70
44: 71
45: 72
46: 72
47: 72
48: 73
49: 73
50: 74
51: 74
52: 74
53: 75
54: 75
55: 76
56: 76
segment: [17]
vertex id: label
69: 0
70: 2
71: 2
72: 4
73: 1
74: 0
75: 2
76: 4
77: 1
78: 3
79: 3
80: 3
81: 3
82: 3
83: 3
84: 3
85: 3
86: 3
87: 3
88: 3
0: 5
1: 5
2: 5
3: 5
4: 5
5: 5
6: 5
7: 5
8: 5
9: 5
10: 5
11: 5
12: 5
13: 5
14: 5
15: 5
16: 5
17: 5
18: 5
19: 5
20: 5
21: 5
22: 5
23: 5
24: 5
25: 5
26: 5
27: 5
28: 5
29: 5
30: 5
31: 5
32: 5
33: 5
34: 5
35: 5
36: 5
37: 5
38: 5
39: 5
40: 5
41: 5
42: 5
43: 5
44: 5
45: 5
46: 5
47: 5
48: 5
49: 5
50: 5
51: 5
52: 5
53: 5
54: 5
55: 5
56: 5
57: 5
58: 5
59: 5
60: 5
61: 5
62: 5
63: 5
64: 5
65: 5
66: 5
67: 5
68: 5
edge from: to
69: 0
70: 0
70: 1
70: 2
71: 0
71: 6
72: 0
72: 6
73: 12
73: 13
74: 9
74: 16
74: 17
75: 12
75: 17
75: 19
76: 20
76: 22
77: 8
77: 16
77: 17
77: 24
77: 25
77: 26
78: 25
79: 27
80: 34
80: 37
81: 38
82: 24
82: 39
83: 33
83: 42
83: 44
83: 46
84: 44
85: 47
85: 51
86: 52
86: 57
87: 39
87: 56
87: 61
88: 62
88: 67
1: 69
2: 69
3: 69
4: 70
5: 70
6: 70
7: 71
8: 71
9: 71
10: 71
11: 72
12: 72
13: 72
14: 73
15: 73
16: 73
17: 73
18: 74
19: 74
20: 75
21: 75
22: 75
23: 76
24: 76
25: 76
26: 76
27: 77
28: 78
29: 78
30: 78
31: 79
32: 79
33: 79
34: 79
35: 79
36: 79
37: 79
38: 80
39: 80
40: 80
41: 80
42: 80
43: 81
44: 82
45: 82
46: 82
47: 83
48: 83
49: 84
50: 84
51: 84
52: 85
53: 85
54: 85
55: 85
56: 85
57: 85
58: 86
59: 86
60: 86
61: 86
62: 87
63: 87
64: 87
65: 87
66: 87
67: 87
68: 88
segment: [18]
vertex id: label
85: 0
86: 2
87: 4
88: 1
89: 3
90: 3
91: 3
92: 3
93: 3
94: 3
95: 3
96: 3
97: 3
98: 3
99: 3
100: 3
101: 3
102: 3
103: 3
104: 3
0: 5
1: 5
2: 5
3: 5
4: 5
5: 5
6: 5
7: 5
8: 5
9: 5
10: 5
11: 5
12: 5
13: 5
14: 5
15: 5
16: 5
17: 5
18: 5
19: 5
20: 5
21: 5
22: 5
23: 5
24: 5
25: 5
26: 5
27: 5
28: 5
29: 5
30: 5
31: 5
32: 5
33: 5
34: 5
35: 5
36: 5
37: 5
38: 5
39: 5
40: 5
41: 5
42: 5
43: 5
44: 5
45: 5
46: 5
47: 5
48: 5
49: 5
50: 5
51: 5
52: 5
53: 5
54: 5
55: 5
56: 5
57: 5
58: 5
59: 5
60: 5
61: 5
62: 5
63: 5
64: 5
65: 5
66: 5
67: 5
68: 5
69: 5
70: 5
71: 5
72: 5
73: 5
74: 5
75: 5
76: 5
77: 5
78: 5
79: 5
80: 5
81: 5
82: 5
83: 5
84: 5
edge from: to
85: 0
85: 1
86: 0
86: 6
87: 0
87: 1
87: 2
87: 3
87: 6
87: 10
88: 0
88: 6
88: 11
89: 18
89: 20
90: 22
90: 24
91: 27
91: 29
92: 32
92: 35
93: 37
94: 42
95: 30
95: 45
95: 49
96: 49
97: 52
98: 55
98: 60
99: 57
100: 35
100: 62
100: 67
101: 63
102: 37
102: 65
102: 71
103: 41
103: 68
103: 70
103: 72
103: 73
103: 74
104: 74
104: 80
2: 85
3: 85
4: 85
5: 85
6: 85
7: 86
8: 86
9: 86
10: 86
11: 87
12: 88
13: 88
14: 88
15: 88
16: 88
17: 88
18: 88
19: 88
20: 88
21: 89
22: 89
23: 89
24: 89
25: 90
26: 90
27: 90
28: 90
29: 90
30: 91
31: 91
32: 91
33: 91
34: 91
35: 91
36: 92
37: 92
38: 92
39: 92
40: 92
41: 93
42: 93
43: 93
44: 93
45: 93
46: 93
47: 94
48: 94
49: 94
50: 95
51: 95
52: 95
53: 95
54: 96
55: 96
56: 96
57: 96
58: 97
59: 97
60: 97
61: 98
62: 98
63: 99
64: 99
65: 99
66: 99
67: 99
68: 100
69: 100
70: 101
71: 101
72: 102
73: 102
74: 102
75: 103
76: 103
77: 103
78: 103
79: 103
80: 103
81: 104
82: 104
83: 104
84: 104
segment: [19]
vertex id: label
61: 0
62: 2
63: 2
64: 4
65: 1
66: 3
67: 3
68: 3
69: 3
70: 3
71: 3
72: 3
73: 3
74: 3
75: 3
76: 3
77: 3
78: 3
79: 3
80: 3
0: 5
1: 5
2: 5
3: 5
4: 5
5: 5
6: 5
7: 5
8: 5
9: 5
10: 5
11: 5
12: 5
13: 5
14: 5
15: 5
16: 5
17: 5
18: 5
19: 5
20: 5
21: 5
22: 5
23: 5
24: 5
25: 5
26: 5
27: 5
28: 5
29: 5
30: 5
31: 5
32: 5
33: 5
34: 5
35: 5
36: 5
37: 5
38: 5
39: 5
40: 5
41: 5
42: 5
43: 5
44: 5
45: 5
46: 5
47: 5
48: 5
49: 5
50: 5
51: 5
52: 5
53: 5
54: 5
55: 5
56: 5
57: 5
58: 5
59: 5
60: 5
edge from: to
61: 0
61: 1
62: 0
62: 2
63: 0
64: 7
64: 11
64: 12
65: 15
66: 17
66: 18
67: 20
67: 22
68: 25
69: 27
69: 29
70: 28
71: 19
71: 31
72: 34
73: 21
73: 37
73: 38
73: 40
74: 23
74: 38
75: 39
76: 43
76: 45
76: 46
76: 47
77: 46
77: 50
78: 47
79: 50
80: 53
2: 61
3: 61
4: 62
5: 62
6: 62
7: 63
8: 63
9: 63
10: 63
11: 63
12: 63
13: 64
14: 64
15: 64
16: 64
17: 65
18: 65
19: 66
20: 66
21: 66
22: 66
23: 67
24: 67
25: 67
26: 67
27: 67
28: 68
29: 68
30: 69
31: 69
32: 70
33: 70
34: 70
35: 71
36: 71
37: 71
38: 72
39: 72
40: 72
41: 73
42: 74
43: 74
44: 75
45: 75
46: 75
47: 75
48: 76
49: 76
50: 76
51: 77
52: 78
53: 78
54: 78
55: 79
56: 79
57: 79
58: 79
59: 80
60: 80
segment: [20]
vertex id: label
65: 0
66: 2
67: 4
68: 1
69: 3
70: 3
71: 3
72: 3
73: 3
74: 3
75: 3
76: 3
77: 3
78: 3
79: 3
80: 3
81: 3
82: 3
83: 3
84: 3
0: 5
1: 5
2: 5
3: 5
4: 5
5: 5
6: 5
7: 5
8: 5
9: 5
10: 5
11: 5
12: 5
13: 5
14: 5
15: 5
16: 5
17: 5
18: 5
19: 5
20: 5
21: 5
22: 5
23: 5
24: 5
25: 5
26: 5
27: 5
28: 5
29: 5
30: 5
31: 5
32: 5
33: 5
34: 5
35: 5
36: 5
37: 5
38: 5
39: 5
40: 5
41: 5
42: 5
43: 5
44: 5
45: 5
46: 5
47: 5
48: 5
49: 5
50: 5
51: 5
52: 5
53: 5
54: 5
55: 5
56: 5
57: 5
58: 5
59: 5
60: 5
61: 5
62: 5
63: 5
64: 5
edge from: to
65: 0
66: 0
66: 1
66: 2
67: 0
67: 5
67: 8
68: 12
68: 13
69: 9
69: 15
69: 16
70: 12
70: 13
70: 19
70: 21
71: 13
71: 15
71: 21
71: 23
72: 24
73: 27
74: 30
74: 33
75: 19
75: 33
75: 35
75: 36
76: 35
76: 38
77: 37
77: 40
78: 38
78: 42
79: 40
80: 44
81: 46
81: 50
82: 48
83: 52
84: 57
1: 65
2: 65
3: 65
4: 66
5: 66
6: 66
7: 66
8: 66
9: 67
10: 67
11: 67
12: 67
13: 67
14: 68
15: 68
16: 68
17: 69
18: 69
19: 69
20: 69
21: 69
22: 70
23: 70
24: 71
25: 71
26: 71
27: 72
28: 72
29: 72
30: 73
31: 73
32: 73
33: 73
34: 74
35: 74
36: 74
37: 75
38: 75
39: 76
40: 76
41: 77
42: 77
43: 78
44: 78
45: 79
46: 79
47: 79
48: 79
49: 80
50: 80
51: 81
52: 81
53: 82
54: 82
55: 82
56: 82
57: 82
58: 83
59: 83
60: 83
61: 83
62: 83
63: 84
64: 84
segment: [21]
vertex id: label
55: 0
56: 2
57: 4
58: 1
59: 3
60: 3
61: 3
62: 3
63: 3
64: 3
65: 3
66: 3
67: 3
68: 3
69: 3
70: 3
71: 3
72: 3
73: 3
74: 3
0: 5
1: 5
2: 5
3: 5
4: 5
5: 5
6: 5
7: 5
8: 5
9: 5
10: 5
11: 5
12: 5
13: 5
14: 5
15: 5
16: 5
17: 5
18: 5
19: 5
20: 5
21: 5
22: 5
23: 5
24: 5
25: 5
26: 5
27: 5
28: 5
29: 5
30: 5
31: 5
32: 5
33: 5
34: 5
35: 5
36: 5
37: 5
38: 5
39: 5
40: 5
41: 5
42: 5
43: 5
44: 5
45: 5
46: 5
47: 5
48: 5
49: 5
50: 5
51: 5
52: 5
53: 5
54: 5
edge from: to
55: 0
55: 1
55: 2
56: 0
56: 3
57: 0
57: 8
58: 11
59: 12
60: 8
60: 13
61: 12
61: 17
61: 19
62: 19
63: 20
64: 24
64: 26
65: 25
65: 27
66: 27
67: 19
67: 28
67: 31
68: 32
68: 34
68: 35
69: 24
69: 34
69: 37
70: 23
70: 38
71: 39
72: 41
73: 44
74: 47
74: 51
3: 55
4: 55
5: 55
6: 56
7: 56
8: 56
9: 57
10: 57
11: 57
12: 57
13: 58
14: 59
15: 60
16: 60
17: 60
18: 60
19: 60
20: 61
21: 61
22: 62
23: 63
24: 63
25: 63
26: 63
27: 64
28: 65
29: 65
30: 65
31: 66
32: 67
33: 67
34: 67
35: 67
36: 68
37: 68
38: 69
39: 69
40: 69
41: 69
42: 70
43: 70
44: 71
45: 71
46: 72
47: 72
48: 72
49: 73
50: 73
51: 73
52: 74
53: 74
54: 74
segment: [22]
vertex id: label
53: 0
54: 2
55: 0
56: 2
57: 4
58: 1
59: 3
60: 3
61: 3
62: 3
63: 3
64: 3
65: 3
66: 3
67: 3
68: 3
69: 3
70: 3
71: 3
72: 3
0: 5
1: 5
2: 5
3: 5
4: 5
5: 5
6: 5
7: 5
8: 5
9: 5
10: 5
11: 5
12: 5
13: 5
14: 5
15: 5
16: 5
17: 5
18: 5
19: 5
20: 5
21: 5
22: 5
23: 5
24: 5
25: 5
26: 5
27: 5
28: 5
29: 5
30: 5
31: 5
32: 5
33: 5
34: 5
35: 5
36: 5
37: 5
38: 5
39: 5
40: 5
41: 5
42: 5
43: 5
44: 5
45: 5
46: 5
47: 5
48: 5
49: 5
50: 5
51: 5
52: 5
edge from: to
53: 0
53: 1
54: 0
54: 1
54: 2
55: 0
55: 4
55: 6
56: 0
57: 0
58: 0
59: 12
59: 13
60: 17
60: 18
61: 16
61: 20
61: 21
61: 22
62: 23
63: 26
64: 27
65: 18
65: 29
65: 32
66: 32
67: 34
67: 37
68: 37
69: 23
69: 38
70: 25
70: 41
71: 45
71: 49
72: 6
72: 47
72: 50
72: 51
2: 53
3: 53
4: 54
5: 54
6: 54
7: 55
8: 55
9: 56
10: 57
11: 57
12: 58
13: 58
14: 59
15: 59
16: 59
17: 59
18: 59
19: 60
20: 60
21: 60
22: 60
23: 61
24: 61
25: 61
26: 62
27: 62
28: 62
29: 63
30: 63
31: 64
32: 64
33: 65
34: 65
35: 65
36: 66
37: 66
38: 67
39: 67
40: 67
41: 68
42: 69
43: 69
44: 69
45: 69
46: 70
47: 70
48: 70
49: 70
50: 71
51: 71
52: 72
segment: [23]
vertex id: label
48: 0
49: 2
50: 4
51: 1
52: 3
53: 3
54: 3
55: 3
56: 3
57: 3
58: 3
59: 3
60: 3
61: 3
62: 3
63: 3
64: 3
65: 3
66: 3
67: 3
0: 5
1: 5
2: 5
3: 5
4: 5
5: 5
6: 5
7: 5
8: 5
9: 5
10: 5
11: 5
12: 5
13: 5
14: 5
15: 5
16: 5
17: 5
18: 5
19: 5
20: 5
21: 5
22: 5
23: 5
24: 5
25: 5
26: 5
27: 5
28: 5
29: 5
30: 5
31: 5
32: 5
33: 5
34: 5
35: 5
36: 5
37: 5
38: 5
39: 5
40: 5
41: 5
42: 5
43: 5
44: 5
45: 5
46: 5
47: 5
edge from: to
48: 0
49: 0
49: 1
50: 0
51: 0
51: 5
51: 7
51: 8
52: 0
52: 6
52: 10
53: 14
54: 6
54: 12
54: 17
54: 18
55: 13
55: 21
55: 23
56: 14
56: 23
57: 25
57: 27
58: 18
58: 26
58: 27
58: 28
59: 19
59: 28
59: 31
60: 30
61: 19
61: 31
62: 32
62: 35
63: 34
64: 36
65: 37
66: 23
66: 38
67: 39
1: 48
2: 48
3: 49
4: 49
5: 49
6: 50
7: 50
8: 50
9: 51
10: 51
11: 52
12: 52
13: 52
14: 52
15: 52
16: 53
17: 53
18: 53
19: 54
20: 54
21: 54
22: 54
23: 54
24: 55
25: 55
26: 56
27: 56
28: 57
29: 58
30: 58
31: 58
32: 59
33: 59
34: 60
35: 61
36: 62
37: 62
38: 63
39: 63
40: 64
41: 65
42: 66
43: 66
44: 67
45: 67
46: 67
47: 67
segment: [24]
vertex id: label
62: 0
63: 2
64: 2
65: 4
66: 1
67: 3
68: 3
69: 3
70: 3
71: 3
72: 3
73: 3
74: 3
75: 3
76: 3
77: 3
78: 3
79: 3
80: 3
81: 3
0: 5
1: 5
2: 5
3: 5
4: 5
5: 5
6: 5
7: 5
8: 5
9: 5
10: 5
11: 5
12: 5
13: 5
14: 5
15: 5
16: 5
17: 5
18: 5
19: 5
20: 5
21: 5
22: 5
23: 5
24: 5
25: 5
26: 5
27: 5
28: 5
29: 5
30: 5
31: 5
32: 5
33: 5
34: 5
35: 5
36: 5
37: 5
38: 5
39: 5
40: 5
41: 5
42: 5
43: 5
44: 5
45: 5
46: 5
47: 5
48: 5
49: 5
50: 5
51: 5
52: 5
53: 5
54: 5
55: 5
56: 5
57: 5
58: 5
59: 5
60: 5
61: 5
edge from: to
62: 0
62: 1
63: 0
63: 8
64: 0
65: 7
65: 11
65: 12
66: 12
66: 13
67: 15
68: 20
68: 22
69: 14
69: 23
69: 25
70: 18
70: 26
70: 27
70: 28
71: 28
72: 33
72: 36
73: 35
74: 23
74: 38
75: 23
75: 27
75: 40
75: 44
76: 43
76: 45
76: 47
77: 9
77: 44
77: 46
77: 48
78: 29
78: 48
79: 51
79: 56
80: 53
80: 58
81: 55
81: 57
81: 60
2: 62
3: 62
4: 62
5: 62
6: 62
7: 62
8: 62
9: 63
10: 63
11: 64
12: 64
13: 65
14: 66
15: 66
16: 66
17: 67
18: 67
19: 67
20: 67
21: 67
22: 67
23: 68
24: 68
25: 68
26: 69
27: 69
28: 69
29: 70
30: 70
31: 70
32: 71
33: 71
34: 71
35: 71
36: 71
37: 72
38: 72
39: 73
40: 73
41: 73
42: 74
43: 74
44: 74
45: 75
46: 75
47: 75
48: 76
49: 77
50: 77
51: 77
52: 77
53: 78
54: 78
55: 78
56: 78
57: 79
58: 79
59: 80
60: 80
61: 81
segment: [25]
vertex id: label
64: 0
65: 2
66: 2
67: 0
68: 2
69: 4
70: 1
71: 3
72: 3
73: 3
74: 3
75: 3
76: 3
77: 3
78: 3
79: 3
80: 3
81: 3
82: 3
83: 3
0: 5
1: 5
2: 5
3: 5
4: 5
5: 5
6: 5
7: 5
8: 5
9: 5
10: 5
11: 5
12: 5
13: 5
14: 5
15: 5
16: 5
17: 5
18: 5
19: 5
20: 5
21: 5
22: 5
23: 5
24: 5
25: 5
26: 5
27: 5
28: 5
29: 5
30: 5
31: 5
32: 5
33: 5
34: 5
35: 5
36: 5
37: 5
38: 5
39: 5
40: 5
41: 5
42: 5
43: 5
44: 5
45: 5
46: 5
47: 5
48: 5
49: 5
50: 5
51: 5
52: 5
53: 5
54: 5
55: 5
56: 5
57: 5
58: 5
59: 5
60: 5
61: 5
62: 5
63: 5
edge from: to
64: 0
64: 1
65: 0
65: 2
66: 0
66: 2
66: 4
66: 6
67: 0
67: 5
67: 9
68: 0
69: 14
70: 16
71: 18
72: 13
72: 21
73: 26
73: 28
74: 18
74: 27
74: 29
75: 27
75: 29
75: 30
76: 19
76: 31
77: 34
77: 37
78: 38
78: 42
79: 41
80: 46
80: 50
81: 6
81: 47
81: 51
82: 52
83: 55
83: 60
2: 64
3: 64
4: 65
5: 65
6: 65
7: 66
8: 66
9: 66
10: 67
11: 67
12: 68
13: 68
14: 68
15: 68
16: 69
17: 69
18: 70
19: 70
20: 70
21: 71
22: 71
23: 71
24: 72
25: 72
26: 72
27: 72
28: 72
29: 73
30: 74
31: 75
32: 75
33: 75
34: 75
35: 76
36: 76
37: 76
38: 77
39: 77
40: 77
41: 77
42: 77
43: 78
44: 78
45: 78
46: 79
47: 79
48: 79
49: 79
50: 79
51: 80
52: 81
53: 81
54: 81
55: 81
56: 81
57: 81
58: 82
59: 82
60: 82
61: 83
62: 83
63: 83
segment: [26]
vertex id: label
55: 0
56: 2
57: 4
58: 1
59: 3
60: 3
61: 3
62: 3
63: 3
64: 3
65: 3
66: 3
67: 3
68: 3
69: 3
70: 0
71: 2
72: 2
73: 4
74: 1
0: 5
1: 5
2: 5
3: 5
4: 5
5: 5
6: 5
7: 5
8: 5
9: 5
10: 5
11: 5
12: 5
13: 5
14: 5
15: 5
16: 5
17: 5
18: 5
19: 5
20: 5
21: 5
22: 5
23: 5
24: 5
25: 5
26: 5
27: 5
28: 5
29: 5
30: 5
31: 5
32: 5
33: 5
34: 5
35: 5
36: 5
37: 5
38: 5
39: 5
40: 5
41: 5
42: 5
43: 5
44: 5
45: 5
46: 5
47: 5
48: 5
49: 5
50: 5
51: 5
52: 5
53: 5
54: 5
edge from: to
55: 0
55: 1
56: 0
57: 0
58: 0
59: 7
59: 11
60: 15
61: 6
61: 17
61: 18
62: 13
62: 21
63: 24
64: 25
65: 28
65: 31
66: 29
67: 31
68: 34
68: 37
69: 35
69: 38
70: 38
71: 24
71: 39
72: 42
73: 43
73: 47
74: 46
74: 50
2: 55
3: 55
4: 56
5: 56
6: 56
7: 57
8: 57
9: 57
10: 57
11: 58
12: 58
13: 59
14: 59
15: 59
16: 59
17: 60
18: 60
19: 61
20: 61
21: 61
22: 61
23: 61
24: 62
25: 62
26: 62
27: 63
28: 64
29: 64
30: 64
31: 64
32: 65
33: 66
34: 66
35: 67
36: 67
37: 67
38: 68
39: 69
40: 69
41: 69
42: 70
43: 70
44: 71
45: 71
46: 71
47: 72
48: 73
49: 73
50: 73
51: 74
52: 74
53: 74
54: 74
segment: [27]
vertex id: label
66: 0
67: 2
68: 4
69: 1
70: 3
71: 3
72: 3
73: 3
74: 3
75: 3
76: 3
77: 3
78: 3
79: 3
80: 3
81: 3
82: 3
83: 3
84: 3
85: 3
0: 5
1: 5
2: 5
3: 5
4: 5
5: 5
6: 5
7: 5
8: 5
9: 5
10: 5
11: 5
12: 5
13: 5
14: 5
15: 5
16: 5
17: 5
18: 5
19: 5
20: 5
21: 5
22: 5
23: 5
24: 5
25: 5
26: 5
27: 5
28: 5
29: 5
30: 5
31: 5
32: 5
33: 5
34: 5
35: 5
36: 5
37: 5
38: 5
39: 5
40: 5
41: 5
42: 5
43: 5
44: 5
45: 5
46: 5
47: 5
48: 5
49: 5
50: 5
51: 5
52: 5
53: 5
54: 5
55: 5
56: 5
57: 5
58: 5
59: 5
60: 5
61: 5
62: 5
63: 5
64: 5
65: 5
edge from: to
66: 0
66: 1
66: 2
67: 0
67: 4
67: 5
67: 7
68: 0
68: 2
68: 6
68: 10
69: 12
69: 13
70: 17
71: 20
71: 22
72: 22
72: 24
73: 16
73: 24
73: 26
74: 18
74: 27
74: 29
75: 18
75: 29
76: 32
76: 35
77: 37
78: 40
79: 43
80: 46
81: 47
82: 30
82: 50
83: 53
83: 55
83: 58
84: 54
84: 59
85: 39
85: 56
85: 61
3: 66
4: 66
5: 66
6: 66
7: 66
8: 67
9: 67
10: 67
11: 68
12: 68
13: 68
14: 69
15: 69
16: 69
17: 69
18: 69
19: 69
20: 70
21: 70
22: 70
23: 71
24: 71
25: 72
26: 72
27: 73
28: 73
29: 73
30: 74
31: 74
32: 74
33: 75
34: 75
35: 75
36: 76
37: 76
38: 76
39: 76
40: 76
41: 77
42: 77
43: 77
44: 77
45: 78
46: 78
47: 78
48: 79
49: 79
50: 79
51: 80
52: 81
53: 81
54: 81
55: 82
56: 82
57: 82
58: 82
59: 83
60: 84
61: 84
62: 85
63: 85
64: 85
65: 85
segment: [28]
vertex id: label
60: 0
61: 2
62: 4
63: 1
64: 3
65: 3
66: 3
67: 3
68: 3
69: 3
70: 3
71: 3
72: 3
73: 3
74: 3
75: 3
76: 3
77: 3
78: 3
79: 3
0: 5
1: 5
2: 5
3: 5
4: 5
5: 5
6: 5
7: 5
8: 5
9: 5
10: 5
11: 5
12: 5
13: 5
14: 5
15: 5
16: 5
17: 5
18: 5
19: 5
20: 5
21: 5
22: 5
23: 5
24: 5
25: 5
26: 5
27: 5
28: 5
29: 5
30: 5
31: 5
32: 5
33: 5
34: 5
35: 5
36: 5
37: 5
38: 5
39: 5
40: 5
41: 5
42: 5
43: 5
44: 5
45: 5
46: 5
47: 5
48: 5
49: 5
50: 5
51: 5
52: 5
53: 5
54: 5
55: 5
56: 5
57: 5
58: 5
59: 5
edge from: to
60: 0
60: 1
61: 0
62: 0
62: 9
63: 14
63: 15
64: 16
64: 17
65: 18
66: 13
66: 21
66: 23
67: 24
67: 26
68: 25
69: 18
69: 29
69: 32
70: 19
70: 31
71: 33
72: 36
72: 39
73: 38
74: 25
74: 41
75: 43
75: 47
76: 46
77: 49
78: 18
78: 50
78: 52
78: 55
79: 53
79: 55
79: 56
79: 58
2: 60
3: 60
4: 60
5: 60
6: 61
7: 61
8: 61
9: 61
10: 62
11: 62
12: 62
13: 62
14: 62
15: 62
16: 63
17: 63
18: 64
19: 64
20: 64
21: 65
22: 65
23: 65
24: 66
25: 66
26: 66
27: 67
28: 68
29: 68
30: 68
31: 68
32: 68
33: 69
34: 69
35: 70
36: 70
37: 71
38: 71
39: 71
40: 72
41: 72
42: 73
43: 73
44: 73
45: 73
46: 74
47: 74
48: 75
49: 75
50: 75
51: 76
52: 76
53: 76
54: 77
55: 77
56: 78
57: 78
58: 78
59: 79
segment: [29]
vertex id: label
49: 0
50: 2
51: 0
52: 2
53: 2
54: 4
55: 4
56: 1
57: 3
58: 3
59: 3
60: 3
61: 3
62: 3
63: 3
64: 3
65: 3
66: 3
67: 3
68: 3
0: 5
1: 5
2: 5
3: 5
4: 5
5: 5
6: 5
7: 5
8: 5
9: 5
10: 5
11: 5
12: 5
13: 5
14: 5
15: 5
16: 5
17: 5
18: 5
19: 5
20: 5
21: 5
22: 5
23: 5
24: 5
25: 5
26: 5
27: 5
28: 5
29: 5
30: 5
31: 5
32: 5
33: 5
34: 5
35: 5
36: 5
37: 5
38: 5
39: 5
40: 5
41: 5
42: 5
43: 5
44: 5
45: 5
46: 5
47: 5
48: 5
edge from: to
49: 0
49: 1
50: 0
50: 1
51: 0
52: 0
53: 0
54: 0
55: 9
55: 15
56: 17
56: 18
57: 18
57: 20
58: 12
58: 19
59: 13
59: 21
60: 22
60: 24
61: 14
61: 23
62: 26
62: 28
63: 29
64: 31
65: 35
66: 36
67: 38
67: 42
68: 42
68: 46
2: 49
3: 50
4: 51
5: 51
6: 52
7: 52
8: 52
9: 53
10: 53
11: 54
12: 54
13: 54
14: 54
15: 54
16: 54
17: 55
18: 55
19: 56
20: 56
21: 57
22: 58
23: 58
24: 59
25: 60
26: 61
27: 61
28: 61
29: 62
30: 62
31: 62
32: 62
33: 63
34: 63
35: 64
36: 64
37: 64
38: 64
39: 65
40: 66
41: 66
42: 66
43: 67
44: 67
45: 67
46: 67
47: 68
48: 68
segment: [30]
vertex id: label
70: 0
71: 2
72: 4
73: 0
74: 2
75: 4
76: 1
77: 3
78: 3
79: 3
80: 3
81: 3
82: 3
83: 3
84: 3
85: 3
86: 3
87: 3
88: 3
89: 3
0: 5
1: 5
2: 5
3: 5
4: 5
5: 5
6: 5
7: 5
8: 5
9: 5
10: 5
11: 5
12: 5
13: 5
14: 5
15: 5
16: 5
17: 5
18: 5
19: 5
20: 5
21: 5
22: 5
23: 5
24: 5
25: 5
26: 5
27: 5
28: 5
29: 5
30: 5
31: 5
32: 5
33: 5
34: 5
35: 5
36: 5
37: 5
38: 5
39: 5
40: 5
41: 5
42: 5
43: 5
44: 5
45: 5
46: 5
47: 5
48: 5
49: 5
50: 5
51: 5
52: 5
53: 5
54: 5
55: 5
56: 5
57: 5
58: 5
59: 5
60: 5
61: 5
62: 5
63: 5
64: 5
65: 5
66: 5
67: 5
68: 5
69: 5
edge from: to
70: 0
70: 1
71: 0
71: 3
71: 4
71: 5
72: 4
72: 7
72: 11
72: 12
73: 8
73: 14
73: 15
74: 17
74: 18
75: 13
75: 18
75: 20
76: 23
77: 25
78: 18
78: 27
78: 28
78: 29
79: 27
80: 32
81: 36
81: 39
82: 24
82: 39
82: 43
83: 43
83: 45
83: 46
83: 47
84: 46
85: 50
86: 52
87: 55
87: 57
87: 60
88: 57
88: 62
89: 61
2: 70
3: 70
4: 70
5: 70
6: 71
7: 71
8: 71
9: 71
10: 71
11: 71
12: 71
13: 72
14: 72
15: 72
16: 73
17: 73
18: 73
19: 74
20: 74
21: 75
22: 75
23: 75
24: 75
25: 75
26: 76
27: 76
28: 77
29: 77
30: 78
31: 79
32: 79
33: 79
34: 79
35: 79
36: 80
37: 80
38: 80
39: 80
40: 81
41: 81
42: 81
43: 81
44: 82
45: 82
46: 82
47: 82
48: 83
49: 83
50: 83
51: 84
52: 84
53: 84
54: 84
55: 85
56: 85
57: 85
58: 86
59: 86
60: 86
61: 87
62: 87
63: 88
64: 88
65: 88
66: 88
67: 89
68: 89
69: 89
segment: [31]
vertex id: label
56: 0
57: 2
58: 4
59: 1
60: 3
61: 3
62: 3
63: 3
64: 3
65: 3
66: 3
67: 3
68: 3
69: 3
70: 2
71: 4
72: 4
73: 1
74: 3
75: 3
0: 5
1: 5
2: 5
3: 5
4: 5
5: 5
6: 5
7: 5
8: 5
9: 5
10: 5
11: 5
12: 5
13: 5
14: 5
15: 5
16: 5
17: 5
18: 5
19: 5
20: 5
21: 5
22: 5
23: 5
24: 5
25: 5
26: 5
27: 5
28: 5
29: 5
30: 5
31: 5
32: 5
33: 5
34: 5
35: 5
36: 5
37: 5
38: 5
39: 5
40: 5
41: 5
42: 5
43: 5
44: 5
45: 5
46: 5
47: 5
48: 5
49: 5
50: 5
51: 5
52: 5
53: 5
54: 5
55: 5
edge from: to
56: 0
57: 0
57: 2
58: 0
58: 4
59: 0
59: 8
60: 0
60: 6
61: 7
61: 11
62: 9
62: 15
63: 6
63: 12
63: 17
63: 18
64: 12
64: 19
65: 13
65: 21
66: 24
67: 27
67: 30
68: 30
68: 33
69: 32
69: 35
70: 36
71: 40
71: 44
72: 41
73: 45
74: 49
75: 30
75: 50
1: 56
2: 56
3: 56
4: 57
5: 57
6: 57
7: 57
8: 58
9: 59
10: 59
11: 60
12: 60
13: 61
14: 61
15: 61
16: 61
17: 62
18: 62
19: 63
20: 63
21: 63
22: 64
23: 64
24: 65
25: 65
26: 65
27: 66
28: 66
29: 66
30: 66
31: 67
32: 67
33: 67
34: 68
35: 68
36: 69
37: 69
38: 69
39: 69
40: 70
41: 70
42: 70
43: 70
44: 70
45: 71
46: 72
47: 72
48: 72
49: 72
50: 73
51: 73
52: 73
53: 73
54: 74
55: 75
segment: [32]
vertex id: label
69: 0
70: 2
71: 4
72: 4
73: 1
74: 0
75: 2
76: 4
77: 1
78: 3
79: 3
80: 3
81: 3
82: 3
83: 3
84: 3
85: 3
86: 3
87: 3
88: 3
0: 5
1: 5
2: 5
3: 5
4: 5
5: 5
6: 5
7: 5
8: 5
9: 5
10: 5
11: 5
12: 5
13: 5
14: 5
15: 5
16: 5
17: 5
18: 5
19: 5
20: 5
21: 5
22: 5
23: 5
24: 5
25: 5
26: 5
27: 5
28: 5
29: 5
30: 5
31: 5
32: 5
33: 5
34: 5
35: 5
36: 5
37: 5
38: 5
39: 5
40: 5
41: 5
42: 5
43: 5
44: 5
45: 5
46: 5
47: 5
48: 5
49: 5
50: 5
51: 5
52: 5
53: 5
54: 5
55: 5
56: 5
57: 5
58: 5
59: 5
60: 5
61: 5
62: 5
63: 5
64: 5
65: 5
66: 5
67: 5
68: 5
edge from: to
69: 0
69: 1
70: 0
71: 0
72: 7
72: 12
72: 13
73: 16
73: 17
74: 20
74: 22
75: 24
75: 26
76: 26
76: 28
77: 27
77: 29
78: 28
79: 31
80: 33
80: 36
81: 20
81: 35
81: 38
82: 23
82: 38
83: 46
83: 50
84: 30
84: 50
85: 52
86: 36
86: 54
86: 56
86: 59
87: 35
87: 58
88: 61
88: 66
2: 69
3: 69
4: 70
5: 70
6: 70
7: 70
8: 71
9: 71
10: 71
11: 71
12: 71
13: 71
14: 72
15: 72
16: 72
17: 72
18: 73
19: 73
20: 73
21: 73
22: 73
23: 74
24: 74
25: 74
26: 74
27: 75
28: 75
29: 76
30: 77
31: 77
32: 78
33: 78
34: 78
35: 79
36: 79
37: 80
38: 80
39: 81
40: 81
41: 81
42: 82
43: 82
44: 82
45: 82
46: 82
47: 82
48: 82
49: 82
50: 82
51: 83
52: 83
53: 83
54: 83
55: 84
56: 84
57: 84
58: 85
59: 85
60: 86
61: 86
62: 86
63: 86
64: 87
65: 87
66: 87
67: 88
68: 88
segment: [33]
vertex id: label
68: 0
69: 2
70: 4
71: 4
72: 1
73: 3
74: 3
75: 3
76: 3
77: 3
78: 3
79: 3
80: 3
81: 3
82: 3
83: 3
84: 3
85: 3
86: 3
87: 3
0: 5
1: 5
2: 5
3: 5
4: 5
5: 5
6: 5
7: 5
8: 5
9: 5
10: 5
11: 5
12: 5
13: 5
14: 5
15: 5
16: 5
17: 5
18: 5
19: 5
20: 5
21: 5
22: 5
23: 5
24: 5
25: 5
26: 5
27: 5
28: 5
29: 5
30: 5
31: 5
32: 5
33: 5
34: 5
35: 5
36: 5
37: 5
38: 5
39: 5
40: 5
41: 5
42: 5
43: 5
44: 5
45: 5
46: 5
47: 5
48: 5
49: 5
50: 5
51: 5
52: 5
53: 5
54: 5
55: 5
56: 5
57: 5
58: 5
59: 5
60: 5
61: 5
62: 5
63: 5
64: 5
65: 5
66: 5
67: 5
edge from: to
68: 0
69: 0
69: 3
70: 0
71: 0
72: 8
72: 13
72: 14
73: 16
74: 17
74: 18
75: 18
75: 20
76: 20
76: 22
77: 21
78: 27
79: 30
80: 20
80: 35
80: 38
81: 38
82: 25
82: 41
82: 45
83: 44
84: 6
84: 47
84: 51
85: 49
86: 54
87: 36
87: 60
1: 68
2: 68
3: 68
4: 68
5: 68
6: 69
7: 69
8: 69
9: 70
10: 70
11: 71
12: 71
13: 71
14: 71
15: 72
16: 72
17: 72
18: 73
19: 74
20: 74
21: 75
22: 75
23: 76
24: 77
25: 77
26: 77
27: 77
28: 77
29: 77
30: 78
31: 78
32: 78
33: 78
34: 79
35: 79
36: 79
37: 79
38: 79
39: 80
40: 80
41: 80
42: 80
43: 81
44: 81
45: 81
46: 82
47: 82
48: 82
49: 83
50: 83
51: 83
52: 84
53: 84
54: 85
55: 85
56: 85
57: 85
58: 85
59: 85
60: 86
61: 86
62: 86
63: 86
64: 86
65: 86
66: 87
67: 87
segment: [34]
vertex id: label
63: 0
64: 2
65: 0
66: 2
67: 4
68: 1
69: 3
70: 3
71: 3
72: 3
73: 3
74: 3
75: 3
76: 3
77: 3
78: 3
79: 3
80: 3
81: 3
82: 3
0: 5
1: 5
2: 5
3: 5
4: 5
5: 5
6: 5
7: 5
8: 5
9: 5
10: 5
11: 5
12: 5
13: 5
14: 5
15: 5
16: 5
17: 5
18: 5
19: 5
20: 5
21: 5
22: 5
23: 5
24: 5
25: 5
26: 5
27: 5
28: 5
29: 5
30: 5
31: 5
32: 5
33: 5
34: 5
35: 5
36: 5
37: 5
38: 5
39: 5
40: 5
41: 5
42: 5
43: 5
44: 5
45: 5
46: 5
47: 5
48: 5
49: 5
50: 5
51: 5
52: 5
53: 5
54: 5
55: 5
56: 5
57: 5
58: 5
59: 5
60: 5
61: 5
62: 5
edge from: to
63: 0
64: 0
64: 1
65: 0
65: 3
66: 0
66: 2
66: 4
66: 6
67: 0
68: 9
68: 15
69: 12
69: 17
69: 18
69: 19
70: 13
70: 21
71: 14
71: 23
72: 26
73: 27
73: 29
73: 30
74: 28
74: 31
75: 33
75: 36
76: 36
76: 39
77: 37
78: 24
78: 39
78: 41
78: 43
79: 44
80: 47
80: 51
81: 51
81: 56
82: 55
82: 60
1: 63
2: 63
3: 64
4: 64
5: 64
6: 65
7: 66
8: 66
9: 67
10: 67
11: 67
12: 67
13: 67
14: 67
15: 67
16: 67
17: 68
18: 68
19: 68
20: 69
21: 69
22: 69
23: 69
24: 70
25: 70
26: 71
27: 71
28: 71
29: 72
30: 72
31: 73
32: 74
33: 74
34: 74
35: 74
36: 74
37: 75
38: 75
39: 75
40: 76
41: 77
42: 77
43: 77
44: 78
45: 78
46: 78
47: 78
48: 78
49: 79
50: 79
51: 79
52: 80
53: 80
54: 80
55: 80
56: 80
57: 81
58: 81
59: 81
60: 81
61: 82
62: 82
segment: [35]
vertex id: label
54: 0
55: 2
56: 0
57: 2
58: 4
59: 1
60: 3
61: 3
62: 3
63: 3
64: 3
65: 3
66: 3
67: 3
68: 3
69: 3
70: 3
71: 3
72: 3
73: 3
0: 5
1: 5
2: 5
3: 5
4: 5
5: 5
6: 5
7: 5
8: 5
9: 5
10: 5
11: 5
12: 5
13: 5
14: 5
15: 5
16: 5
17: 5
18: 5
19: 5
20: 5
21: 5
22: 5
23: 5
24: 5
25: 5
26: 5
27: 5
28: 5
29: 5
30: 5
31: 5
32: 5
33: 5
34: 5
35: 5
36: 5
37: 5
38: 5
39: 5
40: 5
41: 5
42: 5
43: 5
44: 5
45: 5
46: 5
47: 5
48: 5
49: 5
50: 5
51: 5
52: 5
53: 5
edge from: to
54: 0
54: 1
55: 0
55: 1
56: 0
57: 0
57: 6
57: 11
58: 8
58: 13
58: 14
59: 14
59: 15
60: 9
60: 16
60: 17
61: 6
61: 17
61: 18
62: 19
63: 13
63: 21
63: 23
64: 24
65: 18
65: 27
65: 29
66: 30
66: 33
67: 31
68: 35
69: 22
69: 38
69: 42
70: 42
70: 46
71: 44
71: 48
72: 45
72: 49
73: 48
2: 54
3: 55
4: 55
5: 55
6: 56
7: 56
8: 56
9: 56
10: 56
11: 56
12: 57
13: 57
14: 57
15: 58
16: 59
17: 59
18: 60
19: 61
20: 61
21: 61
22: 62
23: 62
24: 63
25: 63
26: 63
27: 64
28: 64
29: 64
30: 65
31: 65
32: 65
33: 65
34: 66
35: 67
36: 67
37: 67
38: 67
39: 68
40: 68
41: 68
42: 68
43: 69
44: 69
45: 69
46: 69
47: 70
48: 70
49: 71
50: 72
51: 72
52: 72
53: 73
segment: [36]
vertex id: label
63: 0
64: 2
65: 4
66: 1
67: 3
68: 3
69: 3
70: 3
71: 3
72: 3
73: 3
74: 3
75: 3
76: 3
77: 3
78: 3
79: 3
80: 3
81: 3
82: 3
0: 5
1: 5
2: 5
3: 5
4: 5
5: 5
6: 5
7: 5
8: 5
9: 5
10: 5
11: 5
12: 5
13: 5
14: 5
15: 5
16: 5
17: 5
18: 5
19: 5
20: 5
21: 5
22: 5
23: 5
24: 5
25: 5
26: 5
27: 5
28: 5
29: 5
30: 5
31: 5
32: 5
33: 5
34: 5
35: 5
36: 5
37: 5
38: 5
39: 5
40: 5
41: 5
42: 5
43: 5
44: 5
45: 5
46: 5
47: 5
48: 5
49: 5
50: 5
51: 5
52: 5
53: 5
54: 5
55: 5
56: 5
57: 5
58: 5
59: 5
60: 5
61: 5
62: 5
edge from: to
63: 0
63: 1
63: 2
63: 3
64: 0
65: 7
65: 8
65: 12
65: 13
66: 14
67: 9
67: 16
67: 17
68: 18
68: 20
69: 16
69: 20
69: 21
69: 22
70: 24
70: 26
71: 27
72: 18
72: 29
72: 32
73: 24
73: 34
73: 37
74: 36
74: 39
75: 23
75: 38
76: 25
76: 41
77: 43
77: 47
78: 44
78: 46
78: 48
79: 47
80: 34
80: 49
80: 50
80: 53
81: 52
82: 53
82: 58
4: 63
5: 63
6: 64
7: 64
8: 64
9: 64
10: 64
11: 64
12: 64
13: 64
14: 65
15: 65
16: 66
17: 66
18: 67
19: 67
20: 67
21: 68
22: 68
23: 69
24: 69
25: 69
26: 69
27: 70
28: 70
29: 70
30: 71
31: 71
32: 71
33: 72
34: 72
35: 72
36: 72
37: 72
38: 73
39: 73
40: 74
41: 74
42: 75
43: 75
44: 75
45: 75
46: 76
47: 76
48: 77
49: 78
50: 78
51: 78
52: 79
53: 79
54: 80
55: 80
56: 80
57: 80
58: 81
59: 82
60: 82
61: 82
62: 82
segment: [37]
vertex id: label
54: 0
55: 2
56: 4
57: 1
58: 3
59: 3
60: 3
61: 3
62: 3
63: 3
64: 3
65: 3
66: 3
67: 3
68: 3
69: 3
70: 3
71: 3
72: 3
73: 3
0: 5
1: 5
2: 5
3: 5
4: 5
5: 5
6: 5
7: 5
8: 5
9: 5
10: 5
11: 5
12: 5
13: 5
14: 5
15: 5
16: 5
17: 5
18: 5
19: 5
20: 5
21: 5
22: 5
23: 5
24: 5
25: 5
26: 5
27: 5
28: 5
29: 5
30: 5
31: 5
32: 5
33: 5
34: 5
35: 5
36: 5
37: 5
38: 5
39: 5
40: 5
41: 5
42: 5
43: 5
44: 5
45: 5
46: 5
47: 5
48: 5
49: 5
50: 5
51: 5
52: 5
53: 5
edge from: to
54: 0
55: 0
56: 0
56: 3
56: 5
57: 0
58: 0
59: 12
60: 14
60: 15
61: 16
61: 17
62: 17
62: 19
63: 20
63: 22
64: 22
64: 24
65: 27
66: 28
66: 31
67: 19
67: 31
68: 33
68: 36
69: 35
70: 37
71: 39
72: 42
72: 46
73: 45
73: 49
1: 54
2: 55
3: 55
4: 55
5: 55
6: 56
7: 57
8: 57
9: 57
10: 58
11: 58
12: 58
13: 58
14: 59
15: 59
16: 60
17: 60
18: 61
19: 61
20: 62
21: 62
22: 62
23: 63
24: 63
25: 64
26: 64
27: 64
28: 64
29: 64
30: 65
31: 65
32: 66
33: 66
34: 66
35: 67
36: 67
37: 68
38: 68
39: 69
40: 69
41: 70
42: 70
43: 70
44: 71
45: 71
46: 71
47: 72
48: 72
49: 72
50: 73
51: 73
52: 73
53: 73
segment: [38]
vertex id: label
60: 0
61: 2
62: 4
63: 1
64: 0
65: 2
66: 4
67: 4
68: 1
69: 3
70: 3
71: 3
72: 3
73: 3
74: 3
75: 3
76: 3
77: 3
78: 3
79: 3
0: 5
1: 5
2: 5
3: 5
4: 5
5: 5
6: 5
7: 5
8: 5
9: 5
10: 5
11: 5
12: 5
13: 5
14: 5
15: 5
16: 5
17: 5
18: 5
19: 5
20: 5
21: 5
22: 5
23: 5
24: 5
25: 5
26: 5
27: 5
28: 5
29: 5
30: 5
31: 5
32: 5
33: 5
34: 5
35: 5
36: 5
37: 5
38: 5
39: 5
40: 5
41: 5
42: 5
43: 5
44: 5
45: 5
46: 5
47: 5
48: 5
49: 5
50: 5
51: 5
52: 5
53: 5
54: 5
55: 5
56: 5
57: 5
58: 5
59: 5
edge from: to
60: 0
60: 1
61: 0
61: 2
62: 0
62: 8
63: 7
63: 11
64: 17
64: 18
65: 19
66: 20
67: 13
67: 21
68: 22
69: 25
70: 18
70: 29
71: 33
71: 36
72: 35
73: 38
74: 24
74: 39
75: 25
75: 41
76: 30
76: 45
76: 49
77: 30
77: 50
78: 36
78: 51
78: 53
78: 54
78: 56
79: 52
79: 54
79: 57
2: 60
3: 60
4: 61
5: 61
6: 61
7: 61
8: 61
9: 62
10: 62
11: 62
12: 62
13: 63
14: 63
15: 63
16: 63
17: 63
18: 63
19: 64
20: 64
21: 64
22: 65
23: 66
24: 67
25: 68
26: 68
27: 68
28: 69
29: 69
30: 69
31: 69
32: 69
33: 70
34: 70
35: 70
36: 70
37: 71
38: 71
39: 72
40: 72
41: 72
42: 73
43: 73
44: 74
45: 74
46: 75
47: 75
48: 75
49: 75
50: 76
51: 76
52: 76
53: 76
54: 76
55: 77
56: 77
57: 78
58: 79
59: 79
segment: [39]
vertex id: label
54: 0
55: 2
56: 4
57: 1
58: 3
59: 3
60: 3
61: 3
62: 3
63: 3
64: 3
65: 3
66: 3
67: 3
68: 3
69: 3
70: 3
71: 3
72: 3
73: 3
0: 5
1: 5
2: 5
3: 5
4: 5
5: 5
6: 5
7: 5
8: 5
9: 5
10: 5
11: 5
12: 5
13: 5
14: 5
15: 5
16: 5
17: 5
18: 5
19: 5
20: 5
21: 5
22: 5
23: 5
24: 5
25: 5
26: 5
27: 5
28: 5
29: 5
30: 5
31: 5
32: 5
33: 5
34: 5
35: 5
36: 5
37: 5
38: 5
39: 5
40: 5
41: 5
42: 5
43: 5
44: 5
45: 5
46: 5
47: 5
48: 5
49: 5
50: 5
51: 5
52: 5
53: 5
edge from: to
54: 0
55: 0
55: 1
55: 2
55: 3
56: 0
56: 4
57: 0
57: 5
57: 8
58: 0
58: 11
59: 9
59: 15
59: 16
60: 17
61: 18
61: 20
62: 12
62: 19
63: 20
63: 22
64: 3
64: 14
64: 23
64: 25
65: 25
66: 27
66: 30
67: 28
67: 31
68: 31
69: 34
69: 37
70: 35
70: 38
71: 40
71: 44
72: 44
73: 47
1: 54
2: 54
4: 55
5: 55
6: 55
7: 55
8: 56
9: 57
10: 57
11: 57
12: 58
13: 58
14: 58
15: 58
16: 58
17: 59
18: 59
19: 60
20: 60
21: 61
22: 62
23: 63
24: 63
25: 63
26: 64
27: 64
28: 65
29: 65
30: 65
31: 66
32: 67
33: 67
34: 67
35: 68
36: 68
37: 68
38: 69
39: 70
40: 70
41: 70
42: 70
43: 70
44: 70
45: 71
46: 71
47: 71
48: 71
49: 72
50: 72
51: 72
52: 73
53: 73
segment: [40]
vertex id: label
72: 0
73: 2
74: 4
75: 1
76: 3
77: 3
78: 3
79: 3
80: 3
81: 3
82: 3
83: 3
84: 3
85: 3
86: 3
87: 3
88: 3
89: 3
90: 3
91: 3
0: 5
1: 5
2: 5
3: 5
4: 5
5: 5
6: 5
7: 5
8: 5
9: 5
10: 5
11: 5
12: 5
13: 5
14: 5
15: 5
16: 5
17: 5
18: 5
19: 5
20: 5
21: 5
22: 5
23: 5
24: 5
25: 5
26: 5
27: 5
28: 5
29: 5
30: 5
31: 5
32: 5
33: 5
34: 5
35: 5
36: 5
37: 5
38: 5
39: 5
40: 5
41: 5
42: 5
43: 5
44: 5
45: 5
46: 5
47: 5
48: 5
49: 5
50: 5
51: 5
52: 5
53: 5
54: 5
55: 5
56: 5
57: 5
58: 5
59: 5
60: 5
61: 5
62: 5
63: 5
64: 5
65: 5
66: 5
67: 5
68: 5
69: 5
70: 5
71: 5
edge from: to
72: 0
73: 0
73: 2
73: 4
73: 6
74: 0
74: 9
75: 0
76: 7
76: 8
76: 12
76: 13
77: 16
78: 17
79: 24
79: 26
80: 26
81: 28
82: 19
82: 33
82: 35
82: 36
83: 38
84: 24
84: 39
84: 41
84: 43
85: 25
85: 41
86: 44
87: 46
88: 29
88: 48
89: 52
89: 57
90: 54
91: 61
91: 66
1: 72
2: 72
3: 72
4: 72
5: 72
6: 72
7: 73
8: 73
9: 73
10: 74
11: 74
12: 75
13: 75
14: 76
15: 76
16: 76
17: 76
18: 77
19: 77
20: 78
21: 78
22: 78
23: 78
24: 78
25: 78
26: 78
27: 79
28: 79
29: 80
30: 80
31: 80
32: 81
33: 81
34: 81
35: 81
36: 81
37: 82
38: 82
39: 82
40: 82
41: 82
42: 83
43: 83
44: 84
45: 84
46: 85
47: 85
48: 85
49: 86
50: 86
51: 87
52: 87
53: 88
54: 88
55: 88
56: 88
57: 88
58: 89
59: 89
60: 90
61: 90
62: 90
63: 90
64: 90
65: 90
66: 90
67: 91
68: 91
69: 91
70: 91
71: 91
segment: [41]
vertex id: label
57: 0
58: 2
59: 4
60: 1
61: 3
62: 3
63: 3
64: 3
65: 3
66: 3
67: 3
68: 3
69: 3
70: 3
71: 3
72: 3
73: 3
74: 3
75: 3
76: 3
0: 5
1: 5
2: 5
3: 5
4: 5
5: 5
6: 5
7: 5
8: 5
9: 5
10: 5
11: 5
12: 5
13: 5
14: 5
15: 5
16: 5
17: 5
18: 5
19: 5
20: 5
21: 5
22: 5
23: 5
24: 5
25: 5
26: 5
27: 5
28: 5
29: 5
30: 5
31: 5
32: 5
33: 5
34: 5
35: 5
36: 5
37: 5
38: 5
39: 5
40: 5
41: 5
42: 5
43: 5
44: 5
45: 5
46: 5
47: 5
48: 5
49: 5
50: 5
51: 5
52: 5
53: 5
54: 5
55: 5
56: 5
edge from: to
57: 0
57: 1
57: 2
58: 0
58: 4
58: 6
59: 0
60: 11
61: 14
61: 15
62: 16
62: 17
63: 18
63: 20
64: 7
64: 12
64: 13
64: 19
64: 21
65: 13
65: 21
65: 23
66: 24
67: 26
67: 28
68: 28
69: 18
69: 29
69: 32
70: 30
70: 33
71: 32
71: 34
71: 35
72: 35
72: 38
73: 24
73: 39
74: 43
75: 47
75: 51
76: 49
76: 53
3: 57
4: 57
5: 57
6: 57
7: 58
8: 58
9: 58
10: 59
11: 59
12: 59
13: 60
14: 60
15: 60
16: 61
17: 61
18: 62
19: 62
20: 62
21: 63
22: 64
23: 64
24: 65
25: 65
26: 65
27: 66
28: 66
29: 67
30: 67
31: 67
32: 68
33: 69
34: 70
35: 70
36: 71
37: 71
38: 71
39: 72
40: 72
41: 72
42: 72
43: 72
44: 73
45: 73
46: 73
47: 73
48: 74
49: 74
50: 74
51: 74
52: 75
53: 75
54: 76
55: 76
56: 76
segment: [42]
vertex id: label
55: 0
56: 2
57: 4
58: 1
59: 3
60: 3
61: 3
62: 3
63: 3
64: 3
65: 3
66: 3
67: 3
68: 3
69: 3
70: 3
71: 3
72: 3
73: 3
74: 3
0: 5
1: 5
2: 5
3: 5
4: 5
5: 5
6: 5
7: 5
8: 5
9: 5
10: 5
11: 5
12: 5
13: 5
14: 5
15: 5
16: 5
17: 5
18: 5
19: 5
20: 5
21: 5
22: 5
23: 5
24: 5
25: 5
26: 5
27: 5
28: 5
29: 5
30: 5
31: 5
32: 5
33: 5
34: 5
35: 5
36: 5
37: 5
38: 5
39: 5
40: 5
41: 5
42: 5
43: 5
44: 5
45: 5
46: 5
47: 5
48: 5
49: 5
50: 5
51: 5
52: 5
53: 5
54: 5
edge from: to
55: 0
56: 0
56: 1
57: 0
58: 0
59: 0
59: 11
60: 8
60: 14
60: 15
61: 9
61: 16
61: 17
62: 20
62: 22
63: 23
64: 25
64: 27
65: 27
66: 18
66: 29
66: 32
67: 35
67: 38
68: 24
68: 25
68: 36
68: 39
69: 38
69: 42
70: 40
71: 42
72: 44
72: 48
73: 45
73: 49
74: 47
74: 51
1: 55
2: 56
3: 56
4: 56
5: 57
6: 57
7: 57
8: 58
9: 58
10: 58
11: 58
12: 59
13: 59
14: 59
15: 59
16: 60
17: 60
18: 61
19: 61
20: 61
21: 61
22: 61
23: 62
24: 62
25: 62
26: 63
27: 63
28: 64
29: 64
30: 65
31: 65
32: 65
33: 66
34: 66
35: 66
36: 66
37: 66
38: 66
39: 67
40: 68
41: 68
42: 68
43: 69
44: 69
45: 70
46: 70
47: 71
48: 71
49: 72
50: 73
51: 73
52: 74
53: 74
54: 74
segment: [43]
vertex id: label
64: 0
65: 2
66: 4
67: 1
68: 3
69: 3
70: 3
71: 3
72: 3
73: 3
74: 3
75: 3
76: 3
77: 3
78: 3
79: 3
80: 3
81: 3
82: 3
83: 3
0: 5
1: 5
2: 5
3: 5
4: 5
5: 5
6: 5
7: 5
8: 5
9: 5
10: 5
11: 5
12: 5
13: 5
14: 5
15: 5
16: 5
17: 5
18: 5
19: 5
20: 5
21: 5
22: 5
23: 5
24: 5
25: 5
26: 5
27: 5
28: 5
29: 5
30: 5
31: 5
32: 5
33: 5
34: 5
35: 5
36: 5
37: 5
38: 5
39: 5
40: 5
41: 5
42: 5
43: 5
44: 5
45: 5
46: 5
47: 5
48: 5
49: 5
50: 5
51: 5
52: 5
53: 5
54: 5
55: 5
56: 5
57: 5
58: 5
59: 5
60: 5
61: 5
62: 5
63: 5
edge from: to
64: 0
65: 0
66: 0
66: 6
67: 0
68: 11
69: 17
69: 18
70: 3
70: 14
70: 23
70: 25
71: 26
72: 27
72: 29
73: 29
74: 31
75: 36
75: 39
76: 24
76: 39
77: 40
78: 42
78: 46
79: 45
80: 29
80: 48
81: 50
81: 55
82: 36
82: 51
82: 56
83: 53
83: 58
1: 64
2: 64
3: 64
4: 64
5: 65
6: 65
7: 66
8: 66
9: 67
10: 67
11: 67
12: 67
13: 68
14: 68
15: 68
16: 68
17: 68
18: 68
19: 69
20: 69
21: 69
22: 69
23: 69
24: 69
25: 69
26: 70
27: 70
28: 70
29: 71
30: 72
31: 72
32: 72
33: 73
34: 73
35: 74
36: 74
37: 74
38: 74
39: 74
40: 75
41: 75
42: 75
43: 75
44: 76
45: 77
46: 77
47: 78
48: 78
49: 78
50: 79
51: 79
52: 79
53: 80
54: 80
55: 80
56: 81
57: 82
58: 82
59: 83
60: 83
61: 83
62: 83
63: 83
segment: [44]
vertex id: label
52: 0
53: 2
54: 4
55: 1
56: 3
57: 3
58: 3
59: 3
60: 3
61: 3
62: 3
63: 3
64: 3
65: 3
66: 3
67: 3
68: 3
69: 3
70: 3
71: 3
0: 5
1: 5
2: 5
3: 5
4: 5
5: 5
6: 5
7: 5
8: 5
9: 5
10: 5
11: 5
12: 5
13: 5
14: 5
15: 5
16: 5
17: 5
18: 5
19: 5
20: 5
21: 5
22: 5
23: 5
24: 5
25: 5
26: 5
27: 5
28: 5
29: 5
30: 5
31: 5
32: 5
33: 5
34: 5
35: 5
36: 5
37: 5
38: 5
39: 5
40: 5
41: 5
42: 5
43: 5
44: 5
45: 5
46: 5
47: 5
48: 5
49: 5
50: 5
51: 5
edge from: to
52: 0
52: 1
53: 0
53: 4
54: 0
54: 4
54: 7
55: 0
56: 11
57: 7
57: 12
57: 13
58: 15
59: 17
59: 19
60: 20
60: 21
60: 22
61: 15
61: 22
61: 24
62: 24
63: 27
64: 27
64: 30
65: 29
66: 30
67: 19
67: 31
68: 20
68: 35
68: 38
69: 38
69: 42
70: 42
71: 44
71: 48
2: 52
3: 52
4: 52
5: 53
6: 53
7: 53
8: 54
9: 54
10: 54
11: 55
12: 55
13: 56
14: 57
15: 57
16: 57
17: 58
18: 58
19: 58
20: 59
21: 59
22: 59
23: 60
24: 60
25: 61
26: 61
27: 62
28: 62
29: 62
30: 63
31: 64
32: 64
33: 65
34: 66
35: 67
36: 67
37: 67
38: 67
39: 68
40: 68
41: 68
42: 68
43: 69
44: 69
45: 69
46: 69
47: 70
48: 70
49: 71
50: 71
51: 71
segment: [45]
vertex id: label
63: 0
64: 2
65: 4
66: 1
67: 3
68: 3
69: 3
70: 3
71: 3
72: 3
73: 3
74: 3
75: 3
76: 3
77: 3
78: 3
79: 3
80: 3
81: 3
82: 3
0: 5
1: 5
2: 5
3: 5
4: 5
5: 5
6: 5
7: 5
8: 5
9: 5
10: 5
11: 5
12: 5
13: 5
14: 5
15: 5
16: 5
17: 5
18: 5
19: 5
20: 5
21: 5
22: 5
23: 5
24: 5
25: 5
26: 5
27: 5
28: 5
29: 5
30: 5
31: 5
32: 5
33: 5
34: 5
35: 5
36: 5
37: 5
38: 5
39: 5
40: 5
41: 5
42: 5
43: 5
44: 5
45: 5
46: 5
47: 5
48: 5
49: 5
50: 5
51: 5
52: 5
53: 5
54: 5
55: 5
56: 5
57: 5
58: 5
59: 5
60: 5
61: 5
62: 5
edge from: to
63: 0
63: 1
64: 0
64: 4
65: 0
66: 0
67: 13
68: 9
68: 15
69: 17
69: 19
70: 19
71: 13
71: 21
71: 23
72: 22
73: 25
73: 27
74: 27
74: 30
75: 28
75: 31
76: 19
76: 31
77: 33
78: 38
79: 43
80: 47
80: 51
81: 52
81: 57
82: 54
2: 63
3: 63
4: 63
5: 63
6: 63
7: 63
8: 64
9: 64
10: 65
11: 65
12: 66
13: 66
14: 66
15: 67
16: 67
17: 68
18: 68
19: 68
20: 69
21: 69
22: 70
23: 70
24: 71
25: 72
26: 72
27: 72
28: 73
29: 73
30: 73
31: 74
32: 75
33: 75
34: 75
35: 76
36: 76
37: 77
38: 77
39: 77
40: 77
41: 77
42: 77
43: 78
44: 78
45: 78
46: 78
47: 78
48: 79
49: 79
50: 79
51: 79
52: 80
53: 80
54: 80
55: 80
56: 80
57: 80
58: 81
59: 81
60: 82
61: 82
62: 82
segment: [46]
vertex id: label
51: 0
52: 2
53: 2
54: 2
55: 4
56: 1
57: 3
58: 3
59: 3
60: 3
61: 3
62: 3
63: 3
64: 3
65: 3
66: 3
67: 3
68: 3
69: 3
70: 3
0: 5
1: 5
2: 5
3: 5
4: 5
5: 5
6: 5
7: 5
8: 5
9: 5
10: 5
11: 5
12: 5
13: 5
14: 5
15: 5
16: 5
17: 5
18: 5
19: 5
20: 5
21: 5
22: 5
23: 5
24: 5
25: 5
26: 5
27: 5
28: 5
29: 5
30: 5
31: 5
32: 5
33: 5
34: 5
35: 5
36: 5
37: 5
38: 5
39: 5
40: 5
41: 5
42: 5
43: 5
44: 5
45: 5
46: 5
47: 5
48: 5
49: 5
50: 5
edge from: to
51: 0
51: 1
52: 0
53: 0
53: 4
53: 5
53: 7
54: 0
54: 11
55: 12
56: 13
57: 15
58: 16
59: 18
60: 13
60: 21
61: 8
61: 15
61: 22
61: 24
62: 26
63: 27
64: 29
65: 33
66: 37
66: 40
67: 38
67: 42
68: 24
68: 39
69: 41
70: 45
70: 49
2: 51
3: 51
4: 51
5: 51
6: 52
7: 52
8: 53
9: 53
10: 53
11: 53
12: 54
13: 54
14: 55
15: 56
16: 56
17: 57
18: 58
19: 58
20: 58
21: 59
22: 59
23: 59
24: 60
25: 61
26: 61
27: 61
28: 61
29: 62
30: 62
31: 63
32: 63
33: 64
34: 64
35: 64
36: 64
37: 65
38: 65
39: 65
40: 65
41: 66
42: 66
43: 67
44: 68
45: 68
46: 69
47: 69
48: 69
49: 69
50: 70
segment: [47]
vertex id: label
54: 0
55: 2
56: 0
57: 2
58: 4
59: 4
60: 1
61: 3
62: 3
63: 3
64: 3
65: 3
66: 3
67: 3
68: 3
69: 3
70: 3
71: 3
72: 3
73: 3
0: 5
1: 5
2: 5
3: 5
4: 5
5: 5
6: 5
7: 5
8: 5
9: 5
10: 5
11: 5
12: 5
13: 5
14: 5
15: 5
16: 5
17: 5
18: 5
19: 5
20: 5
21: 5
22: 5
23: 5
24: 5
25: 5
26: 5
27: 5
28: 5
29: 5
30: 5
31: 5
32: 5
33: 5
34: 5
35: 5
36: 5
37: 5
38: 5
39: 5
40: 5
41: 5
42: 5
43: 5
44: 5
45: 5
46: 5
47: 5
48: 5
49: 5
50: 5
51: 5
52: 5
53: 5
edge from: to
54: 0
54: 1
54: 2
55: 0
55: 3
56: 0
56: 5
56: 9
57: 0
57: 11
58: 11
59: 14
59: 15
60: 9
60: 10
60: 14
60: 15
60: 16
61: 17
62: 18
62: 20
63: 14
63: 23
63: 25
64: 27
65: 31
66: 20
66: 35
66: 38
67: 37
68: 39
69: 25
69: 41
70: 43
70: 47
71: 45
72: 46
73: 17
73: 29
73: 48
73: 52
3: 54
4: 54
5: 54
6: 55
7: 55
8: 55
9: 55
10: 56
11: 56
12: 57
13: 58
14: 58
15: 58
16: 59
17: 60
18: 60
19: 61
20: 61
21: 62
22: 62
23: 62
24: 62
25: 62
26: 63
27: 63
28: 63
29: 63
30: 63
31: 64
32: 64
33: 64
34: 64
35: 65
36: 65
37: 65
38: 65
39: 66
40: 66
41: 67
42: 67
43: 67
44: 68
45: 68
46: 69
47: 69
48: 70
49: 70
50: 71
51: 72
52: 72
53: 73
segment: [48]
vertex id: label
62: 0
63: 2
64: 4
65: 1
66: 3
67: 3
68: 3
69: 3
70: 3
71: 3
72: 3
73: 3
74: 3
75: 3
76: 3
77: 3
78: 3
79: 3
80: 3
81: 3
0: 5
1: 5
2: 5
3: 5
4: 5
5: 5
6: 5
7: 5
8: 5
9: 5
10: 5
11: 5
12: 5
13: 5
14: 5
15: 5
16: 5
17: 5
18: 5
19: 5
20: 5
21: 5
22: 5
23: 5
24: 5
25: 5
26: 5
27: 5
28: 5
29: 5
30: 5
31: 5
32: 5
33: 5
34: 5
35: 5
36: 5
37: 5
38: 5
39: 5
40: 5
41: 5
42: 5
43: 5
44: 5
45: 5
46: 5
47: 5
48: 5
49: 5
50: 5
51: 5
52: 5
53: 5
54: 5
55: 5
56: 5
57: 5
58: 5
59: 5
60: 5
61: 5
edge from: to
62: 0
63: 0
64: 0
64: 5
64: 6
64: 9
65: 7
65: 11
66: 13
67: 8
67: 14
67: 15
68: 16
69: 17
69: 18
70: 20
71: 14
71: 23
71: 25
72: 18
72: 26
72: 27
72: 28
73: 32
74: 36
74: 39
75: 39
76: 40
77: 30
77: 45
77: 49
78: 47
78: 51
79: 30
79: 50
80: 50
81: 54
1: 62
2: 62
3: 62
4: 62
5: 62
6: 62
7: 63
8: 63
9: 63
10: 64
11: 64
12: 64
13: 65
14: 65
15: 66
16: 67
17: 67
18: 68
19: 69
20: 69
21: 69
22: 69
23: 70
24: 70
25: 70
26: 71
27: 71
28: 71
29: 72
30: 72
31: 72
32: 72
33: 72
34: 72
35: 72
36: 73
37: 73
38: 73
39: 73
40: 74
41: 74
42: 74
43: 74
44: 75
45: 76
46: 76
47: 76
48: 76
49: 76
50: 77
51: 77
52: 78
53: 78
54: 78
55: 79
56: 80
57: 80
58: 80
59: 80
60: 81
61: 81
segment: [49]
vertex id: label
70: 0
71: 2
72: 4
73: 1
74: 0
75: 2
76: 4
77: 1
78: 3
79: 3
80: 3
81: 3
82: 3
83: 3
84: 3
85: 3
86: 3
87: 3
88: 3
89: 3
0: 5
1: 5
2: 5
3: 5
4: 5
5: 5
6: 5
7: 5
8: 5
9: 5
10: 5
11: 5
12: 5
13: 5
14: 5
15: 5
16: 5
17: 5
18: 5
19: 5
20: 5
21: 5
22: 5
23: 5
24: 5
25: 5
26: 5
27: 5
28: 5
29: 5
30: 5
31: 5
32: 5
33: 5
34: 5
35: 5
36: 5
37: 5
38: 5
39: 5
40: 5
41: 5
42: 5
43: 5
44: 5
45: 5
46: 5
47: 5
48: 5
49: 5
50: 5
51: 5
52: 5
53: 5
54: 5
55: 5
56: 5
57: 5
58: 5
59: 5
60: 5
61: 5
62: 5
63: 5
64: 5
65: 5
66: 5
67: 5
68: 5
69: 5
edge from: to
70: 0
71: 0
71: 2
72: 0
72: 5
72: 8
73: 13
74: 6
74: 17
74: 18
75: 13
75: 21
76: 14
76: 23
77: 25
77: 27
78: 26
79: 19
79: 20
79: 28
79: 31
80: 34
81: 21
81: 37
81: 40
82: 38
83: 24
83: 39
84: 43
84: 47
85: 46
86: 34
86: 49
86: 53
87: 36
87: 51
87: 56
88: 56
89: 61
89: 66
1: 70
2: 70
3: 70
4: 71
5: 71
6: 71
7: 71
8: 71
9: 72
10: 72
11: 72
12: 72
13: 72
14: 72
15: 73
16: 73
17: 73
18: 73
19: 74
20: 74
21: 74
22: 74
23: 74
24: 75
25: 75
26: 76
27: 76
28: 77
29: 78
30: 78
31: 78
32: 79
33: 79
34: 79
35: 79
36: 79
37: 79
38: 80
39: 80
40: 80
41: 81
42: 81
43: 82
44: 83
45: 83
46: 83
47: 83
48: 84
49: 84
50: 84
51: 85
52: 85
53: 85
54: 86
55: 86
56: 86
57: 87
58: 87
59: 87
60: 87
61: 87
62: 88
63: 88
64: 88
65: 88
66: 88
67: 89
68: 89
69: 89
