segment: [0]
vertex id: label
69: 0
70: 0
71: 0
72: 0
73: 0
74: 0
75: 0
76: 0
77: 0
78: 0
79: 0
80: 0
81: 0
82: 0
83: 0
84: 0
85: 0
86: 0
87: 0
88: 0
0: 5
1: 5
2: 5
3: 5
4: 5
5: 5
6: 5
7: 5
8: 5
9: 5
10: 5
11: 5
12: 5
13: 5
14: 5
15: 5
16: 5
17: 5
18: 5
19: 5
20: 5
21: 5
22: 5
23: 5
24: 5
25: 5
26: 5
27: 5
28: 5
29: 5
30: 5
31: 5
32: 5
33: 5
34: 5
35: 5
36: 5
37: 5
38: 5
39: 5
40: 5
41: 5
42: 5
43: 5
44: 5
45: 5
46: 5
47: 5
48: 5
49: 5
50: 5
51: 5
52: 5
53: 5
54: 5
55: 5
56: 5
57: 5
58: 5
59: 5
60: 5
61: 5
62: 5
63: 5
64: 5
65: 5
66: 5
67: 5
68: 5
edge from: to
69: 0
70: 0
70: 2
70: 3
70: 4
71: 3
71: 6
71: 7
72: 10
73: 11
73: 12
73: 13
74: 13
74: 14
75: 17
76: 18
76: 19
76: 20
76: 21
76: 22
77: 20
78: 23
78: 25
78: 27
79: 28
80: 31
81: 35
82: 39
82: 43
83: 40
83: 42
83: 47
83: 49
84: 44
85: 46
85: 49
85: 55
85: 57
86: 50
86: 53
86: 59
86: 62
87: 55
87: 61
88: 53
88: 56
88: 63
1: 69
2: 69
3: 69
4: 69
5: 70
6: 70
7: 70
8: 71
9: 71
10: 71
11: 71
12: 72
13: 72
14: 73
15: 73
16: 74
17: 74
18: 74
19: 74
20: 74
21: 75
22: 75
23: 76
24: 76
25: 77
26: 77
27: 77
28: 77
29: 77
30: 78
31: 78
32: 78
33: 78
34: 79
35: 79
36: 79
37: 79
38: 80
39: 80
40: 80
41: 80
42: 81
43: 81
44: 81
45: 81
46: 81
47: 82
48: 82
49: 82
50: 82
51: 83
52: 83
53: 84
54: 84
55: 84
56: 84
57: 84
58: 84
59: 85
60: 85
61: 85
62: 85
63: 85
64: 86
65: 86
66: 87
67: 87
68: 88
segment: [1]
vertex id: label
60: 0
61: 0
62: 0
63: 0
64: 0
65: 0
66: 0
67: 0
68: 0
69: 0
70: 0
71: 0
72: 0
73: 0
74: 0
75: 0
76: 0
77: 0
78: 0
79: 0
0: 5
1: 5
2: 5
3: 5
4: 5
5: 5
6: 5
7: 5
8: 5
9: 5
10: 5
11: 5
12: 5
13: 5
14: 5
15: 5
16: 5
17: 5
18: 5
19: 5
20: 5
21: 5
22: 5
23: 5
24: 5
25: 5
26: 5
27: 5
28: 5
29: 5
30: 5
31: 5
32: 5
33: 5
34: 5
35: 5
36: 5
37: 5
38: 5
39: 5
40: 5
41: 5
42: 5
43: 5
44: 5
45: 5
46: 5
47: 5
48: 5
49: 5
50: 5
51: 5
52: 5
53: 5
54: 5
55: 5
56: 5
57: 5
58: 5
59: 5
edge from: to
60: 0
60: 1
61: 0
61: 1
61: 3
62: 0
62: 5
63: 6
63: 7
64: 8
64: 9
65: 10
66: 14
66: 15
67: 15
68: 19
69: 20
69: 21
69: 23
69: 24
70: 24
71: 26
72: 28
73: 32
74: 34
74: 37
75: 39
75: 42
76: 38
76: 42
77: 21
77: 38
77: 45
77: 47
77: 48
78: 45
78: 49
79: 47
79: 53
2: 60
3: 60
4: 61
5: 61
6: 62
7: 62
8: 63
9: 63
10: 64
11: 64
12: 65
13: 65
14: 65
15: 65
16: 65
17: 66
18: 66
19: 67
20: 67
21: 67
22: 67
23: 68
24: 68
25: 68
26: 69
27: 69
28: 69
29: 70
30: 70
31: 70
32: 71
33: 71
34: 72
35: 72
36: 72
37: 72
38: 72
39: 73
40: 73
41: 74
42: 74
43: 75
44: 75
45: 75
46: 76
47: 76
48: 76
49: 77
50: 77
51: 77
52: 77
53: 77
54: 78
55: 78
56: 78
57: 79
58: 79
59: 79
segment: [2]
vertex id: label
56: 0
57: 0
58: 0
59: 0
60: 0
61: 0
62: 0
63: 0
64: 0
65: 0
66: 0
67: 0
68: 0
69: 0
70: 0
71: 0
72: 0
73: 0
74: 0
75: 0
0: 5
1: 5
2: 5
3: 5
4: 5
5: 5
6: 5
7: 5
8: 5
9: 5
10: 5
11: 5
12: 5
13: 5
14: 5
15: 5
16: 5
17: 5
18: 5
19: 5
20: 5
21: 5
22: 5
23: 5
24: 5
25: 5
26: 5
27: 5
28: 5
29: 5
30: 5
31: 5
32: 5
33: 5
34: 5
35: 5
36: 5
37: 5
38: 5
39: 5
40: 5
41: 5
42: 5
43: 5
44: 5
45: 5
46: 5
47: 5
48: 5
49: 5
50: 5
51: 5
52: 5
53: 5
54: 5
55: 5
edge from: to
56: 0
57: 4
58: 3
58: 6
58: 7
59: 7
59: 8
60: 9
60: 10
61: 14
61: 15
62: 15
63: 17
63: 18
64: 18
65: 20
65: 21
65: 23
66: 22
67: 25
67: 27
68: 27
68: 30
69: 28
69: 31
70: 29
71: 30
71: 32
71: 36
72: 39
73: 42
73: 47
74: 44
74: 49
75: 45
1: 56
2: 56
3: 56
4: 56
5: 57
6: 57
7: 57
8: 58
9: 59
10: 59
11: 59
12: 60
13: 60
14: 60
15: 60
16: 60
17: 61
18: 61
19: 62
20: 62
21: 63
22: 64
23: 64
24: 65
25: 65
26: 65
27: 66
28: 66
29: 66
30: 67
31: 67
32: 67
33: 68
34: 69
35: 70
36: 70
37: 70
38: 70
39: 71
40: 71
41: 71
42: 71
43: 71
44: 71
45: 71
46: 71
47: 72
48: 72
49: 72
50: 72
51: 73
52: 73
53: 74
54: 75
55: 75
segment: [3]
vertex id: label
68: 0
69: 0
70: 0
71: 0
72: 0
73: 0
74: 0
75: 0
76: 0
77: 0
78: 0
79: 0
80: 0
81: 0
82: 0
83: 2
84: 1
85: 3
86: 3
87: 3
0: 5
1: 5
2: 5
3: 5
4: 5
5: 5
6: 5
7: 5
8: 5
9: 5
10: 5
11: 5
12: 5
13: 5
14: 5
15: 5
16: 5
17: 5
18: 5
19: 5
20: 5
21: 5
22: 5
23: 5
24: 5
25: 5
26: 5
27: 5
28: 5
29: 5
30: 5
31: 5
32: 5
33: 5
34: 5
35: 5
36: 5
37: 5
38: 5
39: 5
40: 5
41: 5
42: 5
43: 5
44: 5
45: 5
46: 5
47: 5
48: 5
49: 5
50: 5
51: 5
52: 5
53: 5
54: 5
55: 5
56: 5
57: 5
58: 5
59: 5
60: 5
61: 5
62: 5
63: 5
64: 5
65: 5
66: 5
67: 5
edge from: to
68: 0
69: 3
70: 5
71: 8
72: 12
72: 13
73: 14
73: 15
74: 15
74: 17
75: 18
76: 22
76: 24
77: 24
78: 26
78: 29
79: 29
79: 32
80: 31
80: 33
80: 36
81: 37
82: 40
82: 44
82: 47
83: 41
83: 46
84: 45
85: 54
86: 57
86: 59
86: 60
87: 52
87: 59
1: 68
2: 68
3: 68
4: 69
5: 69
6: 70
7: 70
8: 70
9: 70
10: 71
11: 71
12: 71
13: 71
14: 71
15: 72
16: 72
17: 73
18: 73
19: 74
20: 74
21: 74
22: 75
23: 75
24: 75
25: 75
26: 75
27: 76
28: 76
29: 77
30: 77
31: 77
32: 78
33: 78
34: 78
35: 79
36: 79
37: 79
38: 79
39: 79
40: 80
41: 80
42: 80
43: 80
44: 80
45: 81
46: 81
47: 81
48: 82
49: 82
50: 83
51: 83
52: 83
53: 83
54: 84
55: 85
56: 85
57: 85
58: 85
59: 85
60: 85
61: 86
62: 86
63: 87
64: 87
65: 87
66: 87
67: 87
segment: [4]
vertex id: label
68: 0
69: 0
70: 0
71: 0
72: 0
73: 0
74: 0
75: 0
76: 0
77: 0
78: 0
79: 0
80: 0
81: 0
82: 0
83: 0
84: 0
85: 0
86: 0
87: 0
0: 5
1: 5
2: 5
3: 5
4: 5
5: 5
6: 5
7: 5
8: 5
9: 5
10: 5
11: 5
12: 5
13: 5
14: 5
15: 5
16: 5
17: 5
18: 5
19: 5
20: 5
21: 5
22: 5
23: 5
24: 5
25: 5
26: 5
27: 5
28: 5
29: 5
30: 5
31: 5
32: 5
33: 5
34: 5
35: 5
36: 5
37: 5
38: 5
39: 5
40: 5
41: 5
42: 5
43: 5
44: 5
45: 5
46: 5
47: 5
48: 5
49: 5
50: 5
51: 5
52: 5
53: 5
54: 5
55: 5
56: 5
57: 5
58: 5
59: 5
60: 5
61: 5
62: 5
63: 5
64: 5
65: 5
66: 5
67: 5
edge from: to
68: 0
69: 0
69: 2
70: 5
71: 6
72: 8
73: 11
74: 14
74: 15
74: 16
75: 16
75: 17
75: 18
75: 20
76: 20
76: 22
77: 23
77: 25
77: 27
78: 26
79: 30
80: 35
80: 38
80: 41
81: 22
81: 36
81: 38
81: 41
81: 42
81: 44
81: 45
82: 39
82: 43
83: 44
84: 47
84: 53
84: 56
85: 60
86: 53
86: 59
87: 55
1: 68
2: 68
3: 69
4: 69
5: 69
6: 70
7: 70
8: 71
9: 71
10: 72
11: 72
12: 72
13: 72
14: 73
15: 73
16: 73
17: 73
18: 74
19: 74
20: 74
21: 75
22: 75
23: 75
24: 75
25: 76
26: 76
27: 76
28: 76
29: 76
30: 77
31: 77
32: 78
33: 78
34: 78
35: 78
36: 78
37: 79
38: 79
39: 79
40: 79
41: 79
42: 80
43: 80
44: 80
45: 80
46: 81
47: 82
48: 82
49: 82
50: 82
51: 82
52: 82
53: 83
54: 83
55: 83
56: 83
57: 84
58: 84
59: 84
60: 84
61: 85
62: 85
63: 85
64: 86
65: 86
66: 87
67: 87
segment: [5]
vertex id: label
52: 0
53: 0
54: 0
55: 0
56: 0
57: 0
58: 0
59: 0
60: 0
61: 0
62: 0
63: 0
64: 0
65: 0
66: 0
67: 0
68: 0
69: 0
70: 0
71: 0
0: 5
1: 5
2: 5
3: 5
4: 5
5: 5
6: 5
7: 5
8: 5
9: 5
10: 5
11: 5
12: 5
13: 5
14: 5
15: 5
16: 5
17: 5
18: 5
19: 5
20: 5
21: 5
22: 5
23: 5
24: 5
25: 5
26: 5
27: 5
28: 5
29: 5
30: 5
31: 5
32: 5
33: 5
34: 5
35: 5
36: 5
37: 5
38: 5
39: 5
40: 5
41: 5
42: 5
43: 5
44: 5
45: 5
46: 5
47: 5
48: 5
49: 5
50: 5
51: 5
edge from: to
52: 0
53: 1
54: 3
55: 1
55: 5
55: 6
56: 4
56: 7
56: 8
57: 2
57: 9
57: 10
58: 11
58: 12
58: 13
59: 15
59: 17
60: 16
60: 17
61: 16
61: 17
61: 18
62: 20
63: 21
64: 23
64: 25
64: 27
65: 26
65: 29
66: 27
66: 30
67: 30
68: 32
68: 36
69: 32
69: 34
69: 37
70: 35
70: 37
70: 41
71: 41
1: 52
2: 53
3: 53
4: 54
5: 54
6: 54
7: 55
8: 55
9: 56
10: 56
11: 56
12: 57
13: 57
14: 58
15: 58
16: 58
17: 58
18: 58
19: 59
20: 60
21: 61
22: 61
23: 61
24: 62
25: 62
26: 63
27: 63
28: 63
29: 63
30: 64
31: 64
32: 65
33: 66
34: 66
35: 66
36: 67
37: 67
38: 67
39: 68
40: 68
41: 69
42: 69
43: 69
44: 69
45: 70
46: 70
47: 70
48: 70
49: 70
50: 71
51: 71
segment: [6]
vertex id: label
57: 0
58: 0
59: 0
60: 0
61: 0
62: 0
63: 0
64: 0
65: 0
66: 0
67: 0
68: 0
69: 0
70: 0
71: 0
72: 0
73: 0
74: 0
75: 0
76: 0
0: 5
1: 5
2: 5
3: 5
4: 5
5: 5
6: 5
7: 5
8: 5
9: 5
10: 5
11: 5
12: 5
13: 5
14: 5
15: 5
16: 5
17: 5
18: 5
19: 5
20: 5
21: 5
22: 5
23: 5
24: 5
25: 5
26: 5
27: 5
28: 5
29: 5
30: 5
31: 5
32: 5
33: 5
34: 5
35: 5
36: 5
37: 5
38: 5
39: 5
40: 5
41: 5
42: 5
43: 5
44: 5
45: 5
46: 5
47: 5
48: 5
49: 5
50: 5
51: 5
52: 5
53: 5
54: 5
55: 5
56: 5
edge from: to
57: 0
57: 1
58: 3
59: 5
60: 3
60: 6
60: 7
61: 7
61: 8
61: 9
62: 9
62: 10
63: 12
64: 14
64: 15
65: 18
65: 19
66: 20
66: 21
67: 21
68: 26
68: 29
69: 28
69: 31
70: 32
70: 36
71: 35
72: 36
72: 40
73: 39
73: 43
74: 40
75: 43
76: 45
2: 57
3: 57
4: 58
5: 58
6: 59
7: 59
8: 60
9: 60
10: 61
11: 61
12: 62
13: 62
14: 62
15: 63
16: 63
17: 64
18: 64
19: 64
20: 64
21: 64
22: 65
23: 65
24: 66
25: 66
26: 67
27: 67
28: 67
29: 67
30: 67
31: 67
32: 68
33: 68
34: 69
35: 69
36: 69
37: 69
38: 69
39: 70
40: 70
41: 70
42: 71
43: 71
44: 72
45: 72
46: 72
47: 73
48: 74
49: 74
50: 74
51: 74
52: 75
53: 75
54: 76
55: 76
56: 76
segment: [7]
vertex id: label
59: 0
60: 0
61: 0
62: 0
63: 0
64: 0
65: 0
66: 0
67: 0
68: 0
69: 0
70: 0
71: 0
72: 0
73: 0
74: 2
75: 1
76: 0
77: 0
78: 0
0: 5
1: 5
2: 5
3: 5
4: 5
5: 5
6: 5
7: 5
8: 5
9: 5
10: 5
11: 5
12: 5
13: 5
14: 5
15: 5
16: 5
17: 5
18: 5
19: 5
20: 5
21: 5
22: 5
23: 5
24: 5
25: 5
26: 5
27: 5
28: 5
29: 5
30: 5
31: 5
32: 5
33: 5
34: 5
35: 5
36: 5
37: 5
38: 5
39: 5
40: 5
41: 5
42: 5
43: 5
44: 5
45: 5
46: 5
47: 5
48: 5
49: 5
50: 5
51: 5
52: 5
53: 5
54: 5
55: 5
56: 5
57: 5
58: 5
edge from: to
59: 0
60: 3
61: 0
61: 1
61: 4
61: 5
62: 6
63: 10
64: 11
64: 12
65: 14
66: 15
66: 17
66: 18
67: 20
68: 20
68: 21
68: 23
68: 24
69: 25
69: 28
70: 27
70: 30
70: 31
70: 32
71: 31
72: 35
72: 38
73: 37
74: 39
74: 43
75: 42
76: 43
77: 2
77: 43
77: 53
77: 54
78: 48
78: 54
1: 59
2: 59
3: 59
4: 60
5: 60
6: 61
7: 61
8: 62
9: 62
10: 62
11: 62
12: 62
13: 63
14: 64
15: 64
16: 64
17: 65
18: 65
19: 66
20: 66
21: 66
22: 66
23: 66
24: 66
25: 67
26: 68
27: 68
28: 68
29: 68
30: 68
31: 69
32: 69
33: 70
34: 70
35: 70
36: 70
37: 70
38: 71
39: 71
40: 71
41: 71
42: 72
43: 72
44: 72
45: 73
46: 73
47: 74
48: 74
49: 74
50: 74
51: 75
52: 76
53: 76
54: 76
55: 77
56: 77
57: 77
58: 78
segment: [8]
vertex id: label
57: 0
58: 0
59: 0
60: 0
61: 0
62: 0
63: 0
64: 0
65: 0
66: 0
67: 0
68: 0
69: 0
70: 0
71: 2
72: 1
73: 3
74: 3
75: 3
76: 3
0: 5
1: 5
2: 5
3: 5
4: 5
5: 5
6: 5
7: 5
8: 5
9: 5
10: 5
11: 5
12: 5
13: 5
14: 5
15: 5
16: 5
17: 5
18: 5
19: 5
20: 5
21: 5
22: 5
23: 5
24: 5
25: 5
26: 5
27: 5
28: 5
29: 5
30: 5
31: 5
32: 5
33: 5
34: 5
35: 5
36: 5
37: 5
38: 5
39: 5
40: 5
41: 5
42: 5
43: 5
44: 5
45: 5
46: 5
47: 5
48: 5
49: 5
50: 5
51: 5
52: 5
53: 5
54: 5
55: 5
56: 5
edge from: to
57: 0
58: 4
59: 6
60: 4
60: 7
60: 8
60: 9
61: 11
61: 12
62: 12
63: 15
63: 17
64: 18
65: 20
65: 21
65: 23
66: 23
67: 28
67: 31
68: 29
68: 32
69: 30
70: 32
70: 36
71: 42
72: 37
72: 41
73: 39
74: 43
74: 48
75: 45
76: 54
1: 57
2: 57
3: 57
4: 57
5: 58
6: 58
7: 58
8: 59
9: 59
10: 60
11: 60
12: 60
13: 60
14: 61
15: 62
16: 62
17: 62
18: 62
19: 63
20: 63
21: 63
22: 64
23: 64
24: 64
25: 64
26: 65
27: 65
28: 66
29: 66
30: 66
31: 66
32: 66
33: 66
34: 67
35: 68
36: 68
37: 69
38: 69
39: 70
40: 70
41: 70
42: 70
43: 71
44: 71
45: 72
46: 72
47: 73
48: 73
49: 73
50: 73
51: 73
52: 74
53: 74
54: 75
55: 76
56: 76
segment: [9]
vertex id: label
63: 0
64: 0
65: 0
66: 0
67: 0
68: 0
69: 0
70: 0
71: 0
72: 0
73: 0
74: 0
75: 0
76: 0
77: 0
78: 0
79: 0
80: 0
81: 0
82: 0
0: 5
1: 5
2: 5
3: 5
4: 5
5: 5
6: 5
7: 5
8: 5
9: 5
10: 5
11: 5
12: 5
13: 5
14: 5
15: 5
16: 5
17: 5
18: 5
19: 5
20: 5
21: 5
22: 5
23: 5
24: 5
25: 5
26: 5
27: 5
28: 5
29: 5
30: 5
31: 5
32: 5
33: 5
34: 5
35: 5
36: 5
37: 5
38: 5
39: 5
40: 5
41: 5
42: 5
43: 5
44: 5
45: 5
46: 5
47: 5
48: 5
49: 5
50: 5
51: 5
52: 5
53: 5
54: 5
55: 5
56: 5
57: 5
58: 5
59: 5
60: 5
61: 5
62: 5
edge from: to
63: 0
64: 0
64: 5
65: 6
65: 7
66: 10
67: 13
67: 14
68: 14
69: 15
69: 17
69: 18
70: 17
71: 19
71: 20
71: 22
72: 25
73: 25
73: 26
73: 29
74: 28
74: 31
74: 33
75: 31
75: 35
75: 36
75: 37
76: 34
76: 37
77: 39
77: 41
77: 42
78: 37
78: 41
79: 48
80: 43
80: 48
81: 46
82: 50
1: 63
2: 63
3: 63
4: 63
5: 63
6: 64
7: 64
8: 65
9: 65
10: 65
11: 65
12: 65
13: 66
14: 66
15: 66
16: 67
17: 68
18: 68
19: 69
20: 69
21: 70
22: 70
23: 70
24: 70
25: 71
26: 71
27: 71
28: 71
29: 71
30: 71
31: 72
32: 73
33: 73
34: 74
35: 74
36: 74
37: 74
38: 75
39: 75
40: 75
41: 76
42: 76
43: 77
44: 77
45: 78
46: 78
47: 78
48: 78
49: 79
50: 79
51: 79
52: 80
53: 80
54: 80
55: 80
56: 81
57: 81
58: 81
59: 81
60: 82
61: 82
62: 82
segment: [10]
vertex id: label
58: 0
59: 0
60: 2
61: 1
62: 0
63: 0
64: 0
65: 0
66: 0
67: 0
68: 0
69: 0
70: 0
71: 0
72: 0
73: 0
74: 0
75: 0
76: 0
77: 0
0: 5
1: 5
2: 5
3: 5
4: 5
5: 5
6: 5
7: 5
8: 5
9: 5
10: 5
11: 5
12: 5
13: 5
14: 5
15: 5
16: 5
17: 5
18: 5
19: 5
20: 5
21: 5
22: 5
23: 5
24: 5
25: 5
26: 5
27: 5
28: 5
29: 5
30: 5
31: 5
32: 5
33: 5
34: 5
35: 5
36: 5
37: 5
38: 5
39: 5
40: 5
41: 5
42: 5
43: 5
44: 5
45: 5
46: 5
47: 5
48: 5
49: 5
50: 5
51: 5
52: 5
53: 5
54: 5
55: 5
56: 5
57: 5
edge from: to
58: 0
58: 1
59: 0
59: 5
60: 7
60: 8
60: 9
61: 11
62: 15
62: 16
62: 17
63: 18
64: 20
64: 21
64: 23
65: 20
65: 21
65: 23
66: 1
66: 24
67: 25
68: 29
69: 30
70: 32
70: 36
71: 33
71: 36
72: 34
73: 36
73: 40
74: 39
74: 43
75: 41
75: 46
76: 9
76: 43
76: 48
76: 51
77: 44
77: 49
77: 52
2: 58
3: 58
4: 58
5: 58
6: 59
7: 59
8: 59
9: 59
10: 60
11: 60
12: 60
13: 60
14: 61
15: 61
16: 61
17: 61
18: 61
19: 61
20: 62
21: 62
22: 63
23: 63
24: 64
25: 64
26: 65
27: 65
28: 65
29: 66
30: 66
31: 67
32: 67
33: 67
34: 67
35: 68
36: 68
37: 69
38: 69
39: 70
40: 71
41: 72
42: 72
43: 72
44: 73
45: 73
46: 73
47: 74
48: 74
49: 74
50: 75
51: 75
52: 76
53: 77
54: 77
55: 77
56: 77
57: 77
segment: [11]
vertex id: label
65: 0
66: 0
67: 0
68: 0
69: 0
70: 0
71: 0
72: 0
73: 0
74: 0
75: 0
76: 0
77: 0
78: 0
79: 0
80: 0
81: 0
82: 0
83: 0
84: 0
0: 5
1: 5
2: 5
3: 5
4: 5
5: 5
6: 5
7: 5
8: 5
9: 5
10: 5
11: 5
12: 5
13: 5
14: 5
15: 5
16: 5
17: 5
18: 5
19: 5
20: 5
21: 5
22: 5
23: 5
24: 5
25: 5
26: 5
27: 5
28: 5
29: 5
30: 5
31: 5
32: 5
33: 5
34: 5
35: 5
36: 5
37: 5
38: 5
39: 5
40: 5
41: 5
42: 5
43: 5
44: 5
45: 5
46: 5
47: 5
48: 5
49: 5
50: 5
51: 5
52: 5
53: 5
54: 5
55: 5
56: 5
57: 5
58: 5
59: 5
60: 5
61: 5
62: 5
63: 5
64: 5
edge from: to
65: 0
65: 1
66: 4
67: 0
67: 5
68: 8
68: 9
69: 12
69: 13
70: 15
70: 16
71: 18
72: 20
73: 21
74: 1
74: 23
75: 27
75: 30
76: 28
76: 30
76: 33
77: 33
77: 36
78: 18
78: 35
78: 38
78: 40
78: 41
79: 36
80: 40
81: 43
81: 48
81: 51
82: 49
83: 50
84: 53
84: 59
2: 65
3: 65
4: 65
5: 66
6: 67
7: 67
8: 67
9: 67
10: 68
11: 68
12: 68
13: 68
14: 68
15: 69
16: 69
17: 69
18: 70
19: 70
20: 70
21: 70
22: 71
23: 71
24: 72
25: 72
26: 73
27: 73
28: 74
29: 74
30: 74
31: 74
32: 74
33: 75
34: 75
35: 75
36: 76
37: 76
38: 76
39: 76
40: 77
41: 77
42: 78
43: 78
44: 79
45: 79
46: 79
47: 79
48: 80
49: 80
50: 80
51: 80
52: 81
53: 81
54: 81
55: 81
56: 81
57: 81
58: 81
59: 82
60: 83
61: 83
62: 83
63: 83
64: 84
segment: [12]
vertex id: label
59: 0
60: 0
61: 0
62: 0
63: 0
64: 0
65: 0
66: 0
67: 0
68: 0
69: 0
70: 0
71: 0
72: 0
73: 0
74: 0
75: 2
76: 0
77: 0
78: 0
0: 5
1: 5
2: 5
3: 5
4: 5
5: 5
6: 5
7: 5
8: 5
9: 5
10: 5
11: 5
12: 5
13: 5
14: 5
15: 5
16: 5
17: 5
18: 5
19: 5
20: 5
21: 5
22: 5
23: 5
24: 5
25: 5
26: 5
27: 5
28: 5
29: 5
30: 5
31: 5
32: 5
33: 5
34: 5
35: 5
36: 5
37: 5
38: 5
39: 5
40: 5
41: 5
42: 5
43: 5
44: 5
45: 5
46: 5
47: 5
48: 5
49: 5
50: 5
51: 5
52: 5
53: 5
54: 5
55: 5
56: 5
57: 5
58: 5
edge from: to
59: 0
59: 1
60: 0
60: 1
60: 3
61: 5
62: 8
63: 9
63: 10
64: 10
64: 11
65: 12
66: 14
66: 15
67: 17
67: 18
67: 19
67: 20
67: 21
68: 20
69: 23
70: 25
71: 27
72: 28
72: 31
72: 32
72: 33
73: 31
73: 35
73: 37
74: 33
75: 35
75: 38
75: 41
76: 41
77: 44
77: 49
78: 47
2: 59
3: 59
4: 60
5: 60
6: 61
7: 61
8: 61
9: 61
10: 62
11: 62
12: 63
13: 64
14: 64
15: 65
16: 65
17: 66
18: 66
19: 66
20: 66
21: 66
22: 67
23: 67
24: 67
25: 68
26: 68
27: 68
28: 69
29: 69
30: 70
31: 70
32: 70
33: 71
34: 72
35: 72
36: 72
37: 72
38: 73
39: 73
40: 74
41: 74
42: 75
43: 75
44: 75
45: 75
46: 75
47: 75
48: 75
49: 75
50: 76
51: 76
52: 76
53: 77
54: 77
55: 77
56: 77
57: 78
58: 78
segment: [13]
vertex id: label
58: 0
59: 0
60: 0
61: 0
62: 0
63: 0
64: 0
65: 0
66: 0
67: 0
68: 0
69: 0
70: 0
71: 0
72: 0
73: 0
74: 0
75: 0
76: 0
77: 0
0: 5
1: 5
2: 5
3: 5
4: 5
5: 5
6: 5
7: 5
8: 5
9: 5
10: 5
11: 5
12: 5
13: 5
14: 5
15: 5
16: 5
17: 5
18: 5
19: 5
20: 5
21: 5
22: 5
23: 5
24: 5
25: 5
26: 5
27: 5
28: 5
29: 5
30: 5
31: 5
32: 5
33: 5
34: 5
35: 5
36: 5
37: 5
38: 5
39: 5
40: 5
41: 5
42: 5
43: 5
44: 5
45: 5
46: 5
47: 5
48: 5
49: 5
50: 5
51: 5
52: 5
53: 5
54: 5
55: 5
56: 5
57: 5
edge from: to
58: 0
58: 1
58: 2
59: 0
59: 5
60: 6
61: 8
61: 9
62: 9
62: 10
63: 12
64: 15
64: 16
65: 16
66: 9
66: 16
66: 17
66: 18
66: 20
67: 20
68: 23
69: 24
70: 23
70: 25
70: 27
71: 28
71: 31
72: 30
73: 35
74: 36
74: 40
75: 38
75: 45
75: 48
76: 41
77: 45
77: 49
3: 58
4: 58
5: 58
6: 59
7: 59
8: 60
9: 60
10: 61
11: 61
12: 62
13: 62
14: 62
15: 63
16: 63
17: 63
18: 64
19: 64
20: 65
21: 66
22: 66
23: 66
24: 66
25: 67
26: 67
27: 67
28: 68
29: 69
30: 70
31: 70
32: 70
33: 70
34: 71
35: 71
36: 72
37: 72
38: 72
39: 72
40: 72
41: 72
42: 73
43: 73
44: 74
45: 74
46: 74
47: 74
48: 74
49: 75
50: 76
51: 76
52: 76
53: 76
54: 77
55: 77
56: 77
57: 77
segment: [14]
vertex id: label
64: 0
65: 2
66: 1
67: 3
68: 3
69: 3
70: 3
71: 3
72: 3
73: 3
74: 3
75: 3
76: 3
77: 3
78: 3
79: 3
80: 3
81: 3
82: 3
83: 3
0: 5
1: 5
2: 5
3: 5
4: 5
5: 5
6: 5
7: 5
8: 5
9: 5
10: 5
11: 5
12: 5
13: 5
14: 5
15: 5
16: 5
17: 5
18: 5
19: 5
20: 5
21: 5
22: 5
23: 5
24: 5
25: 5
26: 5
27: 5
28: 5
29: 5
30: 5
31: 5
32: 5
33: 5
34: 5
35: 5
36: 5
37: 5
38: 5
39: 5
40: 5
41: 5
42: 5
43: 5
44: 5
45: 5
46: 5
47: 5
48: 5
49: 5
50: 5
51: 5
52: 5
53: 5
54: 5
55: 5
56: 5
57: 5
58: 5
59: 5
60: 5
61: 5
62: 5
63: 5
edge from: to
64: 0
65: 0
65: 1
66: 3
67: 5
68: 8
68: 9
69: 2
69: 9
69: 10
70: 12
71: 15
71: 17
71: 18
72: 20
72: 21
72: 23
73: 1
73: 24
74: 25
75: 28
75: 31
76: 30
77: 33
77: 36
78: 38
78: 42
79: 45
79: 48
80: 43
81: 2
81: 46
82: 47
82: 53
83: 49
83: 52
83: 59
1: 64
2: 65
3: 65
4: 66
5: 66
6: 66
7: 67
8: 67
9: 67
10: 68
11: 68
12: 69
13: 69
14: 69
15: 70
16: 70
17: 70
18: 70
19: 71
20: 71
21: 71
22: 71
23: 71
24: 72
25: 72
26: 72
27: 72
28: 72
29: 73
30: 73
31: 74
32: 74
33: 74
34: 75
35: 75
36: 75
37: 76
38: 76
39: 76
40: 77
41: 77
42: 77
43: 77
44: 77
45: 77
46: 78
47: 78
48: 78
49: 79
50: 79
51: 79
52: 80
53: 80
54: 80
55: 80
56: 81
57: 82
58: 82
59: 82
60: 82
61: 82
62: 82
63: 83
segment: [15]
vertex id: label
68: 0
69: 0
70: 0
71: 0
72: 0
73: 0
74: 0
75: 0
76: 0
77: 0
78: 0
79: 0
80: 0
81: 0
82: 0
83: 0
84: 0
85: 0
86: 0
87: 0
0: 5
1: 5
2: 5
3: 5
4: 5
5: 5
6: 5
7: 5
8: 5
9: 5
10: 5
11: 5
12: 5
13: 5
14: 5
15: 5
16: 5
17: 5
18: 5
19: 5
20: 5
21: 5
22: 5
23: 5
24: 5
25: 5
26: 5
27: 5
28: 5
29: 5
30: 5
31: 5
32: 5
33: 5
34: 5
35: 5
36: 5
37: 5
38: 5
39: 5
40: 5
41: 5
42: 5
43: 5
44: 5
45: 5
46: 5
47: 5
48: 5
49: 5
50: 5
51: 5
52: 5
53: 5
54: 5
55: 5
56: 5
57: 5
58: 5
59: 5
60: 5
61: 5
62: 5
63: 5
64: 5
65: 5
66: 5
67: 5
edge from: to
68: 0
68: 1
68: 2
69: 5
70: 5
71: 9
72: 12
72: 13
73: 3
73: 14
73: 15
73: 16
74: 18
75: 21
75: 23
76: 25
77: 28
78: 31
78: 35
79: 39
79: 42
80: 37
81: 48
82: 42
82: 47
83: 44
84: 2
84: 46
84: 55
85: 49
86: 51
86: 58
87: 55
87: 61
3: 68
4: 68
5: 68
6: 69
7: 70
8: 70
9: 70
10: 70
11: 71
12: 71
13: 71
14: 71
15: 72
16: 72
17: 72
18: 73
19: 73
20: 73
21: 73
22: 74
23: 74
24: 74
25: 74
26: 75
27: 75
28: 75
29: 75
30: 75
31: 76
32: 76
33: 76
34: 77
35: 77
36: 77
37: 77
38: 78
39: 78
40: 78
41: 78
42: 78
43: 79
44: 79
45: 80
46: 80
47: 80
48: 80
49: 81
50: 81
51: 82
52: 82
53: 83
54: 83
55: 83
56: 84
57: 84
58: 84
59: 85
60: 85
61: 85
62: 86
63: 86
64: 86
65: 86
66: 87
67: 87
segment: [16]
vertex id: label
68: 0
69: 0
70: 0
71: 0
72: 0
73: 0
74: 0
75: 0
76: 0
77: 0
78: 0
79: 0
80: 0
81: 0
82: 0
83: 0
84: 0
85: 0
86: 0
87: 0
0: 5
1: 5
2: 5
3: 5
4: 5
5: 5
6: 5
7: 5
8: 5
9: 5
10: 5
11: 5
12: 5
13: 5
14: 5
15: 5
16: 5
17: 5
18: 5
19: 5
20: 5
21: 5
22: 5
23: 5
24: 5
25: 5
26: 5
27: 5
28: 5
29: 5
30: 5
31: 5
32: 5
33: 5
34: 5
35: 5
36: 5
37: 5
38: 5
39: 5
40: 5
41: 5
42: 5
43: 5
44: 5
45: 5
46: 5
47: 5
48: 5
49: 5
50: 5
51: 5
52: 5
53: 5
54: 5
55: 5
56: 5
57: 5
58: 5
59: 5
60: 5
61: 5
62: 5
63: 5
64: 5
65: 5
66: 5
67: 5
edge from: to
68: 0
68: 1
69: 0
69: 3
70: 3
70: 6
70: 7
71: 11
72: 16
73: 18
73: 19
73: 20
74: 20
74: 21
74: 23
75: 24
76: 28
76: 31
76: 33
77: 30
77: 33
78: 32
79: 35
80: 39
80: 41
80: 42
81: 37
81: 41
82: 48
83: 44
83: 49
83: 51
83: 52
84: 47
84: 53
85: 47
85: 50
85: 56
86: 51
87: 53
2: 68
3: 68
4: 69
5: 69
6: 69
7: 69
8: 70
9: 70
10: 70
11: 70
12: 70
13: 70
14: 71
15: 71
16: 71
17: 71
18: 71
19: 71
20: 72
21: 72
22: 72
23: 73
24: 73
25: 73
26: 74
27: 74
28: 74
29: 75
30: 75
31: 75
32: 75
33: 75
34: 76
35: 76
36: 77
37: 77
38: 77
39: 78
40: 78
41: 78
42: 79
43: 80
44: 80
45: 81
46: 81
47: 81
48: 81
49: 82
50: 82
51: 82
52: 82
53: 83
54: 83
55: 83
56: 83
57: 84
58: 84
59: 84
60: 85
61: 85
62: 86
63: 86
64: 87
65: 87
66: 87
67: 87
segment: [17]
vertex id: label
51: 0
52: 0
53: 0
54: 0
55: 0
56: 0
57: 0
58: 0
59: 0
60: 0
61: 0
62: 0
63: 0
64: 0
65: 0
66: 0
67: 0
68: 0
69: 0
70: 0
0: 5
1: 5
2: 5
3: 5
4: 5
5: 5
6: 5
7: 5
8: 5
9: 5
10: 5
11: 5
12: 5
13: 5
14: 5
15: 5
16: 5
17: 5
18: 5
19: 5
20: 5
21: 5
22: 5
23: 5
24: 5
25: 5
26: 5
27: 5
28: 5
29: 5
30: 5
31: 5
32: 5
33: 5
34: 5
35: 5
36: 5
37: 5
38: 5
39: 5
40: 5
41: 5
42: 5
43: 5
44: 5
45: 5
46: 5
47: 5
48: 5
49: 5
50: 5
edge from: to
51: 0
51: 1
52: 5
53: 7
53: 8
54: 9
55: 6
55: 11
55: 12
55: 13
56: 13
56: 14
57: 14
57: 15
57: 16
58: 15
59: 16
60: 16
60: 17
60: 18
60: 20
61: 20
62: 19
62: 20
62: 22
63: 1
63: 23
63: 27
64: 25
64: 27
65: 28
65: 31
66: 29
66: 30
66: 34
66: 35
67: 31
67: 35
67: 36
67: 37
68: 34
68: 37
69: 39
69: 42
70: 7
70: 39
70: 40
70: 43
70: 45
70: 46
2: 51
3: 51
4: 51
5: 51
6: 52
7: 52
8: 52
9: 53
10: 53
11: 54
12: 54
13: 54
14: 55
15: 55
16: 56
17: 56
18: 57
19: 58
20: 59
21: 60
22: 60
23: 60
24: 61
25: 62
26: 62
27: 62
28: 63
29: 63
30: 64
31: 64
32: 64
33: 64
34: 65
35: 65
36: 65
37: 66
38: 67
39: 67
40: 67
41: 68
42: 68
43: 69
44: 69
45: 69
46: 69
47: 70
48: 70
49: 70
50: 70
segment: [18]
vertex id: label
58: 0
59: 0
60: 0
61: 0
62: 0
63: 0
64: 0
65: 0
66: 0
67: 0
68: 0
69: 0
70: 0
71: 0
72: 0
73: 0
74: 0
75: 0
76: 0
77: 0
0: 5
1: 5
2: 5
3: 5
4: 5
5: 5
6: 5
7: 5
8: 5
9: 5
10: 5
11: 5
12: 5
13: 5
14: 5
15: 5
16: 5
17: 5
18: 5
19: 5
20: 5
21: 5
22: 5
23: 5
24: 5
25: 5
26: 5
27: 5
28: 5
29: 5
30: 5
31: 5
32: 5
33: 5
34: 5
35: 5
36: 5
37: 5
38: 5
39: 5
40: 5
41: 5
42: 5
43: 5
44: 5
45: 5
46: 5
47: 5
48: 5
49: 5
50: 5
51: 5
52: 5
53: 5
54: 5
55: 5
56: 5
57: 5
edge from: to
58: 0
59: 0
59: 4
60: 5
61: 8
62: 13
63: 15
63: 16
64: 9
64: 16
64: 17
64: 18
64: 20
65: 20
66: 22
66: 24
67: 25
67: 26
67: 29
68: 27
68: 30
68: 32
69: 29
69: 32
70: 29
70: 30
70: 34
71: 31
71: 35
71: 37
72: 36
72: 40
73: 45
73: 48
74: 41
74: 46
75: 44
76: 42
76: 45
76: 49
76: 52
77: 2
77: 46
1: 58
2: 58
3: 58
4: 58
5: 59
6: 59
7: 60
8: 60
9: 60
10: 61
11: 61
12: 61
13: 61
14: 61
15: 61
16: 62
17: 62
18: 63
19: 63
20: 63
21: 64
22: 64
23: 64
24: 65
25: 65
26: 65
27: 66
28: 66
29: 66
30: 66
31: 66
32: 67
33: 68
34: 68
35: 69
36: 69
37: 70
38: 71
39: 71
40: 71
41: 71
42: 71
43: 71
44: 72
45: 72
46: 72
47: 72
48: 72
49: 73
50: 74
51: 74
52: 74
53: 75
54: 76
55: 76
56: 77
57: 77
segment: [19]
vertex id: label
70: 0
71: 0
72: 0
73: 2
74: 1
75: 0
76: 0
77: 0
78: 0
79: 0
80: 0
81: 0
82: 0
83: 0
84: 0
85: 0
86: 2
87: 1
88: 3
89: 3
0: 5
1: 5
2: 5
3: 5
4: 5
5: 5
6: 5
7: 5
8: 5
9: 5
10: 5
11: 5
12: 5
13: 5
14: 5
15: 5
16: 5
17: 5
18: 5
19: 5
20: 5
21: 5
22: 5
23: 5
24: 5
25: 5
26: 5
27: 5
28: 5
29: 5
30: 5
31: 5
32: 5
33: 5
34: 5
35: 5
36: 5
37: 5
38: 5
39: 5
40: 5
41: 5
42: 5
43: 5
44: 5
45: 5
46: 5
47: 5
48: 5
49: 5
50: 5
51: 5
52: 5
53: 5
54: 5
55: 5
56: 5
57: 5
58: 5
59: 5
60: 5
61: 5
62: 5
63: 5
64: 5
65: 5
66: 5
67: 5
68: 5
69: 5
edge from: to
70: 0
70: 1
70: 2
70: 3
71: 4
72: 6
73: 4
73: 5
73: 8
73: 9
73: 10
74: 15
75: 17
75: 18
76: 20
76: 21
77: 21
78: 25
79: 28
80: 30
81: 31
81: 33
81: 36
82: 35
83: 36
83: 38
83: 42
84: 40
84: 44
84: 47
85: 40
85: 42
85: 47
86: 46
87: 60
88: 51
89: 52
4: 70
5: 71
6: 71
7: 71
8: 72
9: 72
10: 72
11: 73
12: 73
13: 73
14: 73
15: 73
16: 73
17: 73
18: 74
19: 74
20: 74
21: 75
22: 75
23: 75
24: 76
25: 76
26: 77
27: 77
28: 77
29: 77
30: 78
31: 78
32: 78
33: 78
34: 79
35: 79
36: 79
37: 80
38: 80
39: 80
40: 81
41: 81
42: 82
43: 82
44: 82
45: 82
46: 83
47: 83
48: 84
49: 84
50: 84
51: 85
52: 85
53: 85
54: 85
55: 85
56: 86
57: 86
58: 86
59: 86
60: 86
61: 87
62: 88
63: 89
64: 89
65: 89
66: 89
67: 89
68: 89
69: 89
segment: [20]
vertex id: label
65: 0
66: 0
67: 0
68: 0
69: 0
70: 0
71: 0
72: 0
73: 0
74: 0
75: 0
76: 0
77: 0
78: 0
79: 0
80: 0
81: 0
82: 0
83: 0
84: 0
0: 5
1: 5
2: 5
3: 5
4: 5
5: 5
6: 5
7: 5
8: 5
9: 5
10: 5
11: 5
12: 5
13: 5
14: 5
15: 5
16: 5
17: 5
18: 5
19: 5
20: 5
21: 5
22: 5
23: 5
24: 5
25: 5
26: 5
27: 5
28: 5
29: 5
30: 5
31: 5
32: 5
33: 5
34: 5
35: 5
36: 5
37: 5
38: 5
39: 5
40: 5
41: 5
42: 5
43: 5
44: 5
45: 5
46: 5
47: 5
48: 5
49: 5
50: 5
51: 5
52: 5
53: 5
54: 5
55: 5
56: 5
57: 5
58: 5
59: 5
60: 5
61: 5
62: 5
63: 5
64: 5
edge from: to
65: 0
66: 0
66: 1
66: 3
67: 5
67: 6
68: 7
68: 8
69: 9
70: 13
71: 17
72: 19
72: 20
73: 22
74: 25
75: 26
76: 28
76: 31
77: 33
78: 35
78: 38
78: 41
79: 39
79: 43
80: 41
80: 46
81: 42
81: 45
81: 49
82: 48
82: 54
83: 50
83: 56
84: 52
1: 65
2: 65
3: 65
4: 66
5: 66
6: 66
7: 67
8: 67
9: 68
10: 68
11: 69
12: 69
13: 69
14: 69
15: 69
16: 70
17: 70
18: 70
19: 70
20: 70
21: 71
22: 71
23: 72
24: 72
25: 72
26: 72
27: 73
28: 73
29: 73
30: 74
31: 74
32: 75
33: 75
34: 76
35: 76
36: 76
37: 76
38: 76
39: 76
40: 77
41: 77
42: 78
43: 78
44: 78
45: 78
46: 78
47: 79
48: 79
49: 79
50: 80
51: 80
52: 80
53: 80
54: 81
55: 81
56: 81
57: 81
58: 82
59: 82
60: 83
61: 83
62: 83
63: 84
64: 84
segment: [21]
vertex id: label
51: 0
52: 0
53: 0
54: 0
55: 0
56: 0
57: 0
58: 0
59: 0
60: 0
61: 0
62: 0
63: 0
64: 0
65: 0
66: 0
67: 0
68: 0
69: 0
70: 0
0: 5
1: 5
2: 5
3: 5
4: 5
5: 5
6: 5
7: 5
8: 5
9: 5
10: 5
11: 5
12: 5
13: 5
14: 5
15: 5
16: 5
17: 5
18: 5
19: 5
20: 5
21: 5
22: 5
23: 5
24: 5
25: 5
26: 5
27: 5
28: 5
29: 5
30: 5
31: 5
32: 5
33: 5
34: 5
35: 5
36: 5
37: 5
38: 5
39: 5
40: 5
41: 5
42: 5
43: 5
44: 5
45: 5
46: 5
47: 5
48: 5
49: 5
50: 5
edge from: to
51: 0
51: 1
51: 2
52: 3
53: 5
54: 5
55: 8
56: 9
56: 10
57: 6
57: 11
57: 12
57: 13
58: 14
59: 16
59: 17
60: 20
61: 1
61: 23
62: 25
62: 28
63: 27
64: 27
64: 29
64: 32
65: 29
65: 30
65: 34
66: 32
67: 33
67: 36
68: 36
69: 38
69: 42
70: 39
3: 51
4: 52
5: 52
6: 53
7: 54
8: 54
9: 54
10: 55
11: 55
12: 56
13: 56
14: 57
15: 57
16: 57
17: 58
18: 58
19: 58
20: 59
21: 59
22: 59
23: 59
24: 60
25: 60
26: 60
27: 60
28: 61
29: 61
30: 61
31: 62
32: 62
33: 63
34: 63
35: 64
36: 64
37: 65
38: 65
39: 66
40: 67
41: 67
42: 67
43: 67
44: 68
45: 68
46: 69
47: 70
48: 70
49: 70
50: 70
segment: [22]
vertex id: label
58: 0
59: 0
60: 0
61: 0
62: 0
63: 0
64: 0
65: 0
66: 0
67: 0
68: 0
69: 0
70: 0
71: 0
72: 0
73: 0
74: 0
75: 0
76: 0
77: 0
0: 5
1: 5
2: 5
3: 5
4: 5
5: 5
6: 5
7: 5
8: 5
9: 5
10: 5
11: 5
12: 5
13: 5
14: 5
15: 5
16: 5
17: 5
18: 5
19: 5
20: 5
21: 5
22: 5
23: 5
24: 5
25: 5
26: 5
27: 5
28: 5
29: 5
30: 5
31: 5
32: 5
33: 5
34: 5
35: 5
36: 5
37: 5
38: 5
39: 5
40: 5
41: 5
42: 5
43: 5
44: 5
45: 5
46: 5
47: 5
48: 5
49: 5
50: 5
51: 5
52: 5
53: 5
54: 5
55: 5
56: 5
57: 5
edge from: to
58: 0
59: 0
59: 3
59: 4
60: 7
60: 8
61: 8
61: 9
62: 8
62: 9
62: 10
63: 2
63: 5
63: 9
63: 10
64: 11
64: 12
65: 14
65: 15
66: 19
67: 20
68: 1
68: 23
68: 27
69: 24
69: 25
69: 28
69: 29
70: 28
70: 30
70: 33
70: 34
71: 32
71: 34
71: 37
72: 35
72: 38
73: 35
73: 37
73: 41
74: 40
74: 42
74: 47
75: 43
75: 48
76: 45
76: 49
77: 2
77: 54
1: 58
2: 58
3: 58
4: 58
5: 59
6: 59
7: 59
8: 59
9: 60
10: 61
11: 62
12: 63
13: 63
14: 64
15: 64
16: 64
17: 65
18: 65
19: 65
20: 65
21: 65
22: 65
23: 66
24: 66
25: 67
26: 67
27: 67
28: 68
29: 68
30: 68
31: 69
32: 69
33: 69
34: 69
35: 69
36: 70
37: 70
38: 70
39: 70
40: 70
41: 71
42: 72
43: 72
44: 72
45: 73
46: 73
47: 73
48: 73
49: 73
50: 73
51: 74
52: 75
53: 75
54: 76
55: 77
56: 77
57: 77
segment: [23]
vertex id: label
70: 0
71: 0
72: 0
73: 0
74: 0
75: 0
76: 0
77: 0
78: 0
79: 0
80: 0
81: 0
82: 0
83: 0
84: 0
85: 0
86: 0
87: 0
88: 0
89: 0
0: 5
1: 5
2: 5
3: 5
4: 5
5: 5
6: 5
7: 5
8: 5
9: 5
10: 5
11: 5
12: 5
13: 5
14: 5
15: 5
16: 5
17: 5
18: 5
19: 5
20: 5
21: 5
22: 5
23: 5
24: 5
25: 5
26: 5
27: 5
28: 5
29: 5
30: 5
31: 5
32: 5
33: 5
34: 5
35: 5
36: 5
37: 5
38: 5
39: 5
40: 5
41: 5
42: 5
43: 5
44: 5
45: 5
46: 5
47: 5
48: 5
49: 5
50: 5
51: 5
52: 5
53: 5
54: 5
55: 5
56: 5
57: 5
58: 5
59: 5
60: 5
61: 5
62: 5
63: 5
64: 5
65: 5
66: 5
67: 5
68: 5
69: 5
edge from: to
70: 0
70: 1
70: 2
71: 0
71: 4
72: 6
73: 9
73: 10
74: 13
74: 14
75: 15
75: 17
76: 18
76: 19
77: 20
77: 21
77: 23
78: 25
79: 27
80: 30
81: 35
81: 38
82: 39
83: 48
84: 44
84: 49
85: 47
85: 53
85: 56
86: 48
86: 54
87: 46
87: 49
87: 55
88: 53
88: 59
89: 62
89: 66
3: 70
4: 70
5: 71
6: 71
7: 71
8: 72
9: 72
10: 72
11: 72
12: 73
13: 73
14: 73
15: 73
16: 74
17: 74
18: 74
19: 75
20: 75
21: 75
22: 76
23: 76
24: 77
25: 77
26: 77
27: 77
28: 77
29: 77
30: 78
31: 78
32: 78
33: 79
34: 79
35: 79
36: 79
37: 80
38: 80
39: 80
40: 80
41: 80
42: 81
43: 81
44: 81
45: 81
46: 81
47: 82
48: 82
49: 83
50: 83
51: 83
52: 83
53: 84
54: 84
55: 84
56: 84
57: 85
58: 86
59: 87
60: 87
61: 87
62: 87
63: 87
64: 88
65: 88
66: 88
67: 89
68: 89
69: 89
segment: [24]
vertex id: label
58: 0
59: 0
60: 0
61: 0
62: 0
63: 0
64: 0
65: 0
66: 0
67: 0
68: 0
69: 0
70: 0
71: 0
72: 0
73: 0
74: 0
75: 0
76: 0
77: 0
0: 5
1: 5
2: 5
3: 5
4: 5
5: 5
6: 5
7: 5
8: 5
9: 5
10: 5
11: 5
12: 5
13: 5
14: 5
15: 5
16: 5
17: 5
18: 5
19: 5
20: 5
21: 5
22: 5
23: 5
24: 5
25: 5
26: 5
27: 5
28: 5
29: 5
30: 5
31: 5
32: 5
33: 5
34: 5
35: 5
36: 5
37: 5
38: 5
39: 5
40: 5
41: 5
42: 5
43: 5
44: 5
45: 5
46: 5
47: 5
48: 5
49: 5
50: 5
51: 5
52: 5
53: 5
54: 5
55: 5
56: 5
57: 5
edge from: to
58: 0
58: 1
59: 0
59: 2
60: 0
60: 2
60: 3
60: 4
61: 5
62: 2
62: 9
62: 10
63: 12
64: 12
64: 13
64: 14
65: 15
65: 17
66: 18
67: 22
68: 1
68: 24
69: 27
70: 30
71: 33
71: 36
72: 39
72: 42
73: 38
73: 42
74: 38
74: 45
74: 48
75: 43
75: 48
76: 45
77: 46
2: 58
3: 59
4: 59
5: 60
6: 61
7: 61
8: 61
9: 61
10: 61
11: 61
12: 62
13: 62
14: 62
15: 63
16: 64
17: 64
18: 64
19: 65
20: 65
21: 65
22: 66
23: 66
24: 66
25: 66
26: 66
27: 67
28: 67
29: 68
30: 68
31: 68
32: 68
33: 69
34: 69
35: 69
36: 69
37: 70
38: 70
39: 70
40: 71
41: 71
42: 71
43: 72
44: 72
45: 72
46: 73
47: 73
48: 73
49: 74
50: 74
51: 74
52: 75
53: 75
54: 76
55: 76
56: 77
57: 77
segment: [25]
vertex id: label
64: 0
65: 0
66: 0
67: 0
68: 0
69: 0
70: 0
71: 0
72: 0
73: 0
74: 0
75: 0
76: 0
77: 0
78: 0
79: 0
80: 0
81: 0
82: 0
83: 0
0: 5
1: 5
2: 5
3: 5
4: 5
5: 5
6: 5
7: 5
8: 5
9: 5
10: 5
11: 5
12: 5
13: 5
14: 5
15: 5
16: 5
17: 5
18: 5
19: 5
20: 5
21: 5
22: 5
23: 5
24: 5
25: 5
26: 5
27: 5
28: 5
29: 5
30: 5
31: 5
32: 5
33: 5
34: 5
35: 5
36: 5
37: 5
38: 5
39: 5
40: 5
41: 5
42: 5
43: 5
44: 5
45: 5
46: 5
47: 5
48: 5
49: 5
50: 5
51: 5
52: 5
53: 5
54: 5
55: 5
56: 5
57: 5
58: 5
59: 5
60: 5
61: 5
62: 5
63: 5
edge from: to
64: 0
64: 1
65: 0
65: 5
66: 5
66: 6
67: 8
68: 10
69: 11
69: 12
70: 15
71: 16
71: 17
71: 18
72: 19
72: 20
72: 22
72: 23
73: 23
73: 25
73: 27
73: 28
74: 27
75: 29
76: 30
76: 34
77: 31
77: 35
78: 32
78: 34
78: 37
79: 36
79: 38
79: 42
80: 41
81: 45
81: 49
82: 2
82: 46
83: 52
2: 64
3: 64
4: 64
5: 64
6: 65
7: 66
8: 66
9: 66
10: 67
11: 67
12: 68
13: 68
14: 69
15: 69
16: 69
17: 69
18: 69
19: 70
20: 70
21: 71
22: 71
23: 71
24: 71
25: 72
26: 72
27: 72
28: 72
29: 72
30: 73
31: 73
32: 73
33: 74
34: 74
35: 75
36: 75
37: 76
38: 77
39: 77
40: 77
41: 78
42: 78
43: 78
44: 78
45: 78
46: 79
47: 79
48: 79
49: 79
50: 80
51: 80
52: 80
53: 80
54: 81
55: 81
56: 82
57: 82
58: 82
59: 82
60: 82
61: 82
62: 82
63: 83
segment: [26]
vertex id: label
58: 0
59: 0
60: 0
61: 0
62: 0
63: 0
64: 0
65: 0
66: 0
67: 0
68: 0
69: 0
70: 0
71: 0
72: 0
73: 0
74: 0
75: 0
76: 0
77: 0
0: 5
1: 5
2: 5
3: 5
4: 5
5: 5
6: 5
7: 5
8: 5
9: 5
10: 5
11: 5
12: 5
13: 5
14: 5
15: 5
16: 5
17: 5
18: 5
19: 5
20: 5
21: 5
22: 5
23: 5
24: 5
25: 5
26: 5
27: 5
28: 5
29: 5
30: 5
31: 5
32: 5
33: 5
34: 5
35: 5
36: 5
37: 5
38: 5
39: 5
40: 5
41: 5
42: 5
43: 5
44: 5
45: 5
46: 5
47: 5
48: 5
49: 5
50: 5
51: 5
52: 5
53: 5
54: 5
55: 5
56: 5
57: 5
edge from: to
58: 0
59: 2
60: 0
60: 3
61: 7
61: 8
62: 10
63: 11
63: 12
64: 15
64: 16
65: 16
65: 17
66: 19
66: 20
67: 23
68: 25
69: 29
69: 32
70: 34
70: 37
71: 39
71: 42
72: 35
72: 37
72: 40
72: 41
72: 43
72: 44
73: 38
73: 45
73: 48
74: 42
74: 47
75: 44
75: 49
76: 2
76: 43
76: 54
77: 47
1: 58
2: 58
3: 59
4: 60
5: 60
6: 60
7: 60
8: 60
9: 61
10: 61
11: 61
12: 61
13: 62
14: 63
15: 63
16: 63
17: 63
18: 64
19: 64
20: 65
21: 65
22: 65
23: 66
24: 66
25: 66
26: 66
27: 66
28: 67
29: 67
30: 67
31: 68
32: 68
33: 68
34: 68
35: 69
36: 69
37: 69
38: 69
39: 69
40: 69
41: 70
42: 70
43: 71
44: 71
45: 72
46: 72
47: 72
48: 72
49: 73
50: 73
51: 74
52: 74
53: 75
54: 75
55: 76
56: 76
57: 77
segment: [27]
vertex id: label
57: 0
58: 0
59: 0
60: 0
61: 0
62: 0
63: 0
64: 0
65: 0
66: 0
67: 0
68: 0
69: 0
70: 0
71: 0
72: 0
73: 0
74: 0
75: 0
76: 0
0: 5
1: 5
2: 5
3: 5
4: 5
5: 5
6: 5
7: 5
8: 5
9: 5
10: 5
11: 5
12: 5
13: 5
14: 5
15: 5
16: 5
17: 5
18: 5
19: 5
20: 5
21: 5
22: 5
23: 5
24: 5
25: 5
26: 5
27: 5
28: 5
29: 5
30: 5
31: 5
32: 5
33: 5
34: 5
35: 5
36: 5
37: 5
38: 5
39: 5
40: 5
41: 5
42: 5
43: 5
44: 5
45: 5
46: 5
47: 5
48: 5
49: 5
50: 5
51: 5
52: 5
53: 5
54: 5
55: 5
56: 5
edge from: to
57: 0
57: 1
58: 7
58: 8
59: 9
60: 12
60: 13
60: 14
61: 15
62: 18
62: 19
63: 22
63: 24
64: 23
64: 25
64: 27
64: 28
64: 29
65: 28
65: 31
65: 33
66: 30
66: 33
67: 30
67: 34
68: 31
68: 35
69: 33
70: 34
71: 35
72: 38
73: 41
73: 46
74: 43
74: 48
75: 2
75: 54
76: 46
2: 57
3: 57
4: 57
5: 57
6: 57
7: 57
8: 57
9: 58
10: 58
11: 59
12: 59
13: 59
14: 59
15: 59
16: 60
17: 60
18: 60
19: 61
20: 61
21: 61
22: 62
23: 62
24: 62
25: 62
26: 62
27: 63
28: 63
29: 63
30: 64
31: 64
32: 64
33: 64
34: 65
35: 65
36: 66
37: 67
38: 68
39: 68
40: 69
41: 70
42: 71
43: 71
44: 71
45: 71
46: 72
47: 72
48: 72
49: 72
50: 73
51: 73
52: 74
53: 74
54: 74
55: 75
56: 76
segment: [28]
vertex id: label
57: 0
58: 0
59: 0
60: 0
61: 0
62: 0
63: 0
64: 0
65: 0
66: 0
67: 0
68: 0
69: 0
70: 0
71: 0
72: 0
73: 0
74: 0
75: 0
76: 0
0: 5
1: 5
2: 5
3: 5
4: 5
5: 5
6: 5
7: 5
8: 5
9: 5
10: 5
11: 5
12: 5
13: 5
14: 5
15: 5
16: 5
17: 5
18: 5
19: 5
20: 5
21: 5
22: 5
23: 5
24: 5
25: 5
26: 5
27: 5
28: 5
29: 5
30: 5
31: 5
32: 5
33: 5
34: 5
35: 5
36: 5
37: 5
38: 5
39: 5
40: 5
41: 5
42: 5
43: 5
44: 5
45: 5
46: 5
47: 5
48: 5
49: 5
50: 5
51: 5
52: 5
53: 5
54: 5
55: 5
56: 5
edge from: to
57: 0
57: 1
57: 2
58: 3
59: 6
60: 8
61: 11
62: 12
62: 13
63: 15
63: 17
64: 19
65: 20
65: 22
66: 21
66: 23
67: 1
67: 23
67: 27
68: 26
68: 29
69: 27
70: 28
70: 31
71: 31
72: 31
72: 33
72: 36
73: 35
73: 37
73: 41
74: 38
74: 42
75: 41
75: 46
76: 42
76: 47
3: 57
4: 58
5: 58
6: 58
7: 58
8: 59
9: 59
10: 60
11: 60
12: 60
13: 60
14: 61
15: 62
16: 62
17: 62
18: 62
19: 63
20: 63
21: 63
22: 63
23: 64
24: 64
25: 65
26: 66
27: 66
28: 67
29: 67
30: 67
31: 67
32: 68
33: 69
34: 70
35: 70
36: 70
37: 70
38: 71
39: 71
40: 72
41: 72
42: 72
43: 72
44: 72
45: 73
46: 74
47: 74
48: 74
49: 74
50: 75
51: 76
52: 76
53: 76
54: 76
55: 76
56: 76
segment: [29]
vertex id: label
61: 0
62: 0
63: 0
64: 0
65: 0
66: 0
67: 0
68: 0
69: 0
70: 0
71: 0
72: 0
73: 0
74: 0
75: 0
76: 0
77: 0
78: 0
79: 0
80: 0
0: 5
1: 5
2: 5
3: 5
4: 5
5: 5
6: 5
7: 5
8: 5
9: 5
10: 5
11: 5
12: 5
13: 5
14: 5
15: 5
16: 5
17: 5
18: 5
19: 5
20: 5
21: 5
22: 5
23: 5
24: 5
25: 5
26: 5
27: 5
28: 5
29: 5
30: 5
31: 5
32: 5
33: 5
34: 5
35: 5
36: 5
37: 5
38: 5
39: 5
40: 5
41: 5
42: 5
43: 5
44: 5
45: 5
46: 5
47: 5
48: 5
49: 5
50: 5
51: 5
52: 5
53: 5
54: 5
55: 5
56: 5
57: 5
58: 5
59: 5
60: 5
edge from: to
61: 0
62: 5
62: 6
63: 2
63: 9
63: 10
64: 11
65: 13
66: 15
67: 18
67: 19
67: 20
68: 23
69: 25
70: 26
71: 29
71: 32
72: 28
72: 30
72: 33
73: 29
73: 30
73: 34
74: 32
74: 36
75: 42
76: 37
76: 41
77: 40
77: 44
77: 47
78: 43
79: 42
79: 45
79: 49
79: 52
80: 48
80: 54
1: 61
2: 61
3: 61
4: 61
5: 61
6: 61
7: 62
8: 62
9: 62
10: 62
11: 62
12: 63
13: 63
14: 64
15: 64
16: 65
17: 65
18: 65
19: 66
20: 66
21: 66
22: 66
23: 67
24: 67
25: 67
26: 67
27: 67
28: 68
29: 68
30: 69
31: 69
32: 70
33: 70
34: 70
35: 71
36: 72
37: 73
38: 73
39: 74
40: 74
41: 74
42: 74
43: 75
44: 75
45: 76
46: 76
47: 76
48: 77
49: 77
50: 77
51: 77
52: 78
53: 78
54: 79
55: 79
56: 79
57: 79
58: 80
59: 80
60: 80
