segment: [0]
vertex id: label
71: 0
72: 2
73: 3
74: 0
75: 2
76: 3
77: 0
78: 2
79: 3
80: 0
81: 3
82: 0
83: 2
84: 3
85: 0
86: 2
87: 3
88: 4
89: 3
90: 0
0: 5
1: 5
2: 5
3: 5
4: 5
5: 5
6: 5
7: 5
8: 5
9: 5
10: 5
11: 5
12: 5
13: 5
14: 5
15: 5
16: 5
17: 5
18: 5
19: 5
20: 5
21: 5
22: 5
23: 5
24: 5
25: 5
26: 5
27: 5
28: 5
29: 5
30: 5
31: 5
32: 5
33: 5
34: 5
35: 5
36: 5
37: 5
38: 5
39: 5
40: 5
41: 5
42: 5
43: 5
44: 5
45: 5
46: 5
47: 5
48: 5
49: 5
50: 5
51: 5
52: 5
53: 5
54: 5
55: 5
56: 5
57: 5
58: 5
59: 5
60: 5
61: 5
62: 5
63: 5
64: 5
65: 5
66: 5
67: 5
68: 5
69: 5
70: 5
edge from: to
71: 0
72: 2
73: 4
73: 5
74: 11
75: 0
75: 13
76: 13
76: 18
77: 1
77: 8
77: 18
77: 20
78: 15
78: 19
79: 28
79: 31
80: 19
81: 39
82: 17
82: 24
82: 30
83: 41
83: 45
84: 48
85: 50
86: 50
86: 54
87: 57
88: 59
89: 45
89: 63
90: 66
1: 71
2: 71
3: 71
4: 72
5: 72
6: 72
7: 72
8: 73
9: 73
10: 73
11: 73
12: 74
13: 74
14: 75
15: 75
16: 75
17: 75
18: 75
19: 76
20: 76
21: 77
22: 77
23: 77
24: 77
25: 77
26: 77
27: 78
28: 78
29: 78
30: 78
31: 78
32: 79
33: 79
34: 80
35: 80
36: 80
37: 80
38: 80
39: 80
40: 81
41: 81
42: 81
43: 82
44: 82
45: 82
46: 83
47: 83
48: 83
49: 84
50: 84
51: 85
52: 85
53: 85
54: 85
55: 86
56: 86
57: 86
58: 87
59: 87
60: 88
61: 88
62: 88
63: 88
64: 89
65: 89
66: 89
67: 90
68: 90
69: 90
70: 90
segment: [1]
vertex id: label
68: 0
69: 2
70: 4
71: 3
72: 0
73: 3
74: 0
75: 2
76: 3
77: 0
78: 2
79: 3
80: 3
81: 0
82: 2
83: 3
84: 0
85: 0
86: 2
87: 3
0: 5
1: 5
2: 5
3: 5
4: 5
5: 5
6: 5
7: 5
8: 5
9: 5
10: 5
11: 5
12: 5
13: 5
14: 5
15: 5
16: 5
17: 5
18: 5
19: 5
20: 5
21: 5
22: 5
23: 5
24: 5
25: 5
26: 5
27: 5
28: 5
29: 5
30: 5
31: 5
32: 5
33: 5
34: 5
35: 5
36: 5
37: 5
38: 5
39: 5
40: 5
41: 5
42: 5
43: 5
44: 5
45: 5
46: 5
47: 5
48: 5
49: 5
50: 5
51: 5
52: 5
53: 5
54: 5
55: 5
56: 5
57: 5
58: 5
59: 5
60: 5
61: 5
62: 5
63: 5
64: 5
65: 5
66: 5
67: 5
edge from: to
68: 0
68: 1
69: 4
70: 0
70: 5
70: 6
70: 7
70: 8
71: 11
72: 7
73: 10
73: 14
74: 10
74: 17
75: 11
75: 14
75: 19
76: 23
77: 16
78: 19
78: 33
79: 20
80: 15
80: 34
80: 37
81: 40
82: 25
83: 33
83: 42
83: 46
84: 50
85: 38
85: 53
86: 57
87: 59
87: 61
87: 63
87: 64
2: 68
3: 68
4: 68
5: 69
6: 69
7: 69
8: 69
9: 70
10: 70
11: 70
12: 71
13: 72
14: 72
15: 73
16: 73
17: 73
18: 74
19: 74
20: 75
21: 75
22: 75
23: 75
24: 76
25: 76
26: 76
27: 76
28: 76
29: 77
30: 77
31: 77
32: 77
33: 77
34: 78
35: 78
36: 79
37: 79
38: 80
39: 80
40: 80
41: 81
42: 81
43: 81
44: 81
45: 82
46: 82
47: 83
48: 83
49: 83
50: 83
51: 84
52: 84
53: 84
54: 85
55: 85
56: 85
57: 85
58: 86
59: 86
60: 86
61: 86
62: 86
63: 86
64: 86
65: 87
66: 87
67: 87
segment: [2]
vertex id: label
54: 0
55: 2
56: 3
57: 0
58: 2
59: 3
60: 0
61: 2
62: 3
63: 0
64: 2
65: 3
66: 0
67: 0
68: 2
69: 3
70: 0
71: 2
72: 4
73: 2
0: 5
1: 5
2: 5
3: 5
4: 5
5: 5
6: 5
7: 5
8: 5
9: 5
10: 5
11: 5
12: 5
13: 5
14: 5
15: 5
16: 5
17: 5
18: 5
19: 5
20: 5
21: 5
22: 5
23: 5
24: 5
25: 5
26: 5
27: 5
28: 5
29: 5
30: 5
31: 5
32: 5
33: 5
34: 5
35: 5
36: 5
37: 5
38: 5
39: 5
40: 5
41: 5
42: 5
43: 5
44: 5
45: 5
46: 5
47: 5
48: 5
49: 5
50: 5
51: 5
52: 5
53: 5
edge from: to
54: 0
54: 1
55: 2
55: 3
56: 0
56: 2
56: 3
56: 4
57: 0
57: 6
58: 4
58: 5
59: 0
59: 7
59: 9
60: 11
61: 11
61: 15
62: 11
63: 16
63: 22
64: 25
65: 11
65: 27
66: 30
67: 19
68: 15
68: 37
69: 28
69: 36
69: 39
70: 38
70: 40
70: 41
71: 41
71: 45
72: 33
72: 46
73: 43
73: 44
73: 45
73: 47
73: 48
2: 54
3: 54
4: 55
5: 55
6: 56
7: 57
8: 58
9: 58
10: 59
11: 59
12: 60
13: 60
14: 60
15: 60
16: 61
17: 61
18: 61
19: 61
20: 62
21: 62
22: 62
23: 63
24: 63
25: 63
26: 64
27: 64
28: 65
29: 65
30: 65
31: 66
32: 66
33: 66
34: 67
35: 67
36: 67
37: 67
38: 68
39: 68
40: 69
41: 69
42: 70
43: 70
44: 70
45: 70
46: 71
47: 72
48: 72
49: 73
50: 73
51: 73
52: 73
53: 73
segment: [3]
vertex id: label
57: 0
58: 2
59: 3
60: 0
61: 2
62: 4
63: 3
64: 4
65: 4
66: 2
67: 4
68: 4
69: 3
70: 4
71: 4
72: 3
73: 0
74: 3
75: 2
76: 3
0: 5
1: 5
2: 5
3: 5
4: 5
5: 5
6: 5
7: 5
8: 5
9: 5
10: 5
11: 5
12: 5
13: 5
14: 5
15: 5
16: 5
17: 5
18: 5
19: 5
20: 5
21: 5
22: 5
23: 5
24: 5
25: 5
26: 5
27: 5
28: 5
29: 5
30: 5
31: 5
32: 5
33: 5
34: 5
35: 5
36: 5
37: 5
38: 5
39: 5
40: 5
41: 5
42: 5
43: 5
44: 5
45: 5
46: 5
47: 5
48: 5
49: 5
50: 5
51: 5
52: 5
53: 5
54: 5
55: 5
56: 5
edge from: to
57: 0
57: 1
58: 1
59: 2
59: 3
60: 5
61: 7
62: 0
62: 13
63: 10
64: 11
64: 14
65: 23
66: 11
66: 27
67: 27
67: 29
67: 30
68: 31
68: 33
68: 34
69: 35
69: 37
69: 38
70: 40
71: 8
71: 31
71: 39
71: 43
72: 41
72: 45
73: 47
74: 28
74: 35
75: 10
75: 50
75: 54
76: 50
76: 54
76: 55
2: 57
3: 58
4: 59
5: 59
6: 59
7: 59
8: 59
9: 60
10: 60
11: 60
12: 60
13: 61
14: 62
15: 62
16: 62
17: 62
18: 63
19: 63
20: 64
21: 64
22: 64
23: 64
24: 65
25: 65
26: 65
27: 65
28: 66
29: 66
30: 66
31: 67
32: 67
33: 67
34: 67
35: 68
36: 68
37: 68
38: 68
39: 69
40: 69
41: 70
42: 70
43: 70
44: 71
45: 71
46: 72
47: 72
48: 73
49: 73
50: 74
51: 74
52: 74
53: 74
54: 74
55: 75
56: 76
segment: [4]
vertex id: label
61: 0
62: 2
63: 4
64: 4
65: 4
66: 2
67: 4
68: 2
69: 3
70: 0
71: 2
72: 3
73: 0
74: 4
75: 4
76: 3
77: 0
78: 2
79: 3
80: 0
0: 5
1: 5
2: 5
3: 5
4: 5
5: 5
6: 5
7: 5
8: 5
9: 5
10: 5
11: 5
12: 5
13: 5
14: 5
15: 5
16: 5
17: 5
18: 5
19: 5
20: 5
21: 5
22: 5
23: 5
24: 5
25: 5
26: 5
27: 5
28: 5
29: 5
30: 5
31: 5
32: 5
33: 5
34: 5
35: 5
36: 5
37: 5
38: 5
39: 5
40: 5
41: 5
42: 5
43: 5
44: 5
45: 5
46: 5
47: 5
48: 5
49: 5
50: 5
51: 5
52: 5
53: 5
54: 5
55: 5
56: 5
57: 5
58: 5
59: 5
60: 5
edge from: to
61: 0
61: 1
61: 2
62: 5
63: 6
63: 10
64: 13
65: 13
65: 18
66: 11
66: 14
67: 4
67: 15
67: 19
67: 21
68: 21
68: 23
69: 11
69: 25
69: 27
70: 16
71: 28
71: 30
71: 31
72: 19
73: 34
74: 15
74: 34
74: 36
74: 37
75: 40
76: 25
76: 40
76: 44
77: 50
78: 21
78: 48
78: 52
79: 50
79: 55
80: 23
80: 52
80: 56
80: 57
3: 61
4: 61
5: 61
6: 61
7: 61
8: 61
9: 62
10: 62
11: 63
12: 63
13: 63
14: 64
15: 64
16: 64
17: 64
18: 64
19: 65
20: 66
21: 66
22: 67
23: 67
24: 68
25: 68
26: 68
27: 68
28: 69
29: 70
30: 70
31: 70
32: 71
33: 71
34: 72
35: 73
36: 73
37: 73
38: 74
39: 74
40: 74
41: 75
42: 75
43: 75
44: 75
45: 76
46: 76
47: 76
48: 76
49: 76
50: 76
51: 77
52: 77
53: 78
54: 78
55: 78
56: 79
57: 79
58: 80
59: 80
60: 80
