segment: [0]
vertex id: label
62: 0
63: 2
64: 2
65: 2
66: 2
67: 2
68: 2
69: 2
70: 2
71: 2
72: 2
73: 2
74: 1
75: 3
76: 2
77: 2
78: 1
79: 3
80: 2
81: 2
0: 5
1: 5
2: 5
3: 5
4: 5
5: 5
6: 5
7: 5
8: 5
9: 5
10: 5
11: 5
12: 5
13: 5
14: 5
15: 5
16: 5
17: 5
18: 5
19: 5
20: 5
21: 5
22: 5
23: 5
24: 5
25: 5
26: 5
27: 5
28: 5
29: 5
30: 5
31: 5
32: 5
33: 5
34: 5
35: 5
36: 5
37: 5
38: 5
39: 5
40: 5
41: 5
42: 5
43: 5
44: 5
45: 5
46: 5
47: 5
48: 5
49: 5
50: 5
51: 5
52: 5
53: 5
54: 5
55: 5
56: 5
57: 5
58: 5
59: 5
60: 5
61: 5
edge from: to
62: 0
63: 3
64: 6
65: 9
65: 11
66: 9
66: 11
66: 13
67: 11
67: 13
68: 16
68: 19
69: 15
69: 18
69: 21
70: 3
70: 21
71: 24
71: 29
72: 31
72: 32
73: 20
73: 22
73: 29
73: 32
73: 33
74: 38
75: 33
75: 39
75: 41
76: 34
76: 41
77: 46
78: 39
78: 42
78: 47
78: 49
79: 43
79: 52
79: 54
80: 49
80: 55
80: 56
80: 57
81: 46
1: 62
2: 62
3: 62
4: 63
5: 63
6: 63
7: 63
8: 64
9: 64
10: 64
11: 64
12: 65
13: 65
14: 66
15: 67
16: 67
17: 67
18: 67
19: 67
20: 67
21: 68
22: 68
23: 69
24: 69
25: 69
26: 69
27: 70
28: 70
29: 70
30: 70
31: 71
32: 71
33: 72
34: 73
35: 73
36: 73
37: 73
38: 73
39: 74
40: 74
41: 74
42: 75
43: 75
44: 76
45: 76
46: 76
47: 77
48: 77
49: 77
50: 78
51: 78
52: 78
53: 78
54: 78
55: 79
56: 79
57: 79
58: 80
59: 81
60: 81
61: 81
segment: [1]
vertex id: label
67: 0
68: 2
69: 2
70: 2
71: 2
72: 1
73: 3
74: 2
75: 2
76: 2
77: 2
78: 2
79: 2
80: 2
81: 2
82: 2
83: 2
84: 2
85: 2
86: 2
0: 5
1: 5
2: 5
3: 5
4: 5
5: 5
6: 5
7: 5
8: 5
9: 5
10: 5
11: 5
12: 5
13: 5
14: 5
15: 5
16: 5
17: 5
18: 5
19: 5
20: 5
21: 5
22: 5
23: 5
24: 5
25: 5
26: 5
27: 5
28: 5
29: 5
30: 5
31: 5
32: 5
33: 5
34: 5
35: 5
36: 5
37: 5
38: 5
39: 5
40: 5
41: 5
42: 5
43: 5
44: 5
45: 5
46: 5
47: 5
48: 5
49: 5
50: 5
51: 5
52: 5
53: 5
54: 5
55: 5
56: 5
57: 5
58: 5
59: 5
60: 5
61: 5
62: 5
63: 5
64: 5
65: 5
66: 5
edge from: to
67: 0
67: 1
67: 2
67: 3
67: 4
68: 7
69: 8
69: 10
70: 13
71: 16
72: 17
73: 22
74: 23
75: 24
75: 29
76: 31
76: 32
77: 27
77: 33
77: 34
78: 4
78: 28
79: 31
80: 33
80: 39
80: 41
81: 46
82: 39
82: 47
83: 43
84: 55
84: 57
85: 52
85: 58
85: 60
86: 50
86: 61
5: 67
6: 67
7: 67
8: 67
9: 67
10: 68
11: 69
12: 69
13: 69
14: 69
15: 69
16: 69
17: 70
18: 70
19: 70
20: 70
21: 71
22: 72
23: 72
24: 72
25: 72
26: 72
27: 72
28: 73
29: 73
30: 74
31: 75
32: 75
33: 76
34: 76
35: 77
36: 78
37: 78
38: 78
39: 78
40: 79
41: 79
42: 80
43: 80
44: 80
45: 80
46: 80
47: 81
48: 81
49: 81
50: 82
51: 82
52: 82
53: 82
54: 82
55: 83
56: 83
57: 83
58: 84
59: 84
60: 84
61: 85
62: 85
63: 85
64: 86
65: 86
66: 86
segment: [2]
vertex id: label
63: 0
64: 2
65: 2
66: 2
67: 2
68: 2
69: 2
70: 2
71: 1
72: 3
73: 2
74: 2
75: 1
76: 3
77: 2
78: 2
79: 2
80: 2
81: 1
82: 3
0: 5
1: 5
2: 5
3: 5
4: 5
5: 5
6: 5
7: 5
8: 5
9: 5
10: 5
11: 5
12: 5
13: 5
14: 5
15: 5
16: 5
17: 5
18: 5
19: 5
20: 5
21: 5
22: 5
23: 5
24: 5
25: 5
26: 5
27: 5
28: 5
29: 5
30: 5
31: 5
32: 5
33: 5
34: 5
35: 5
36: 5
37: 5
38: 5
39: 5
40: 5
41: 5
42: 5
43: 5
44: 5
45: 5
46: 5
47: 5
48: 5
49: 5
50: 5
51: 5
52: 5
53: 5
54: 5
55: 5
56: 5
57: 5
58: 5
59: 5
60: 5
61: 5
62: 5
edge from: to
63: 0
63: 1
63: 2
64: 2
64: 3
64: 4
65: 8
66: 9
66: 10
66: 11
67: 10
68: 13
68: 15
69: 2
69: 14
70: 17
70: 20
71: 22
71: 23
72: 16
72: 19
72: 23
73: 22
74: 23
74: 28
74: 29
75: 32
76: 31
76: 38
77: 34
77: 41
77: 43
78: 47
79: 51
80: 42
80: 51
81: 49
81: 55
81: 57
82: 60
3: 63
4: 63
5: 64
6: 64
7: 64
8: 64
9: 64
10: 64
11: 65
12: 66
13: 67
14: 67
15: 67
16: 67
17: 68
18: 69
19: 69
20: 69
21: 69
22: 70
23: 70
24: 71
25: 72
26: 72
27: 72
28: 73
29: 73
30: 74
31: 74
32: 74
33: 75
34: 75
35: 75
36: 75
37: 75
38: 75
39: 75
40: 76
41: 76
42: 76
43: 76
44: 77
45: 77
46: 77
47: 77
48: 78
49: 78
50: 78
51: 78
52: 79
53: 79
54: 80
55: 80
56: 80
57: 80
58: 81
59: 81
60: 81
61: 82
62: 82
segment: [3]
vertex id: label
73: 0
74: 2
75: 2
76: 2
77: 2
78: 2
79: 2
80: 2
81: 2
82: 2
83: 2
84: 2
85: 1
86: 3
87: 2
88: 2
89: 2
90: 2
91: 1
92: 3
0: 5
1: 5
2: 5
3: 5
4: 5
5: 5
6: 5
7: 5
8: 5
9: 5
10: 5
11: 5
12: 5
13: 5
14: 5
15: 5
16: 5
17: 5
18: 5
19: 5
20: 5
21: 5
22: 5
23: 5
24: 5
25: 5
26: 5
27: 5
28: 5
29: 5
30: 5
31: 5
32: 5
33: 5
34: 5
35: 5
36: 5
37: 5
38: 5
39: 5
40: 5
41: 5
42: 5
43: 5
44: 5
45: 5
46: 5
47: 5
48: 5
49: 5
50: 5
51: 5
52: 5
53: 5
54: 5
55: 5
56: 5
57: 5
58: 5
59: 5
60: 5
61: 5
62: 5
63: 5
64: 5
65: 5
66: 5
67: 5
68: 5
69: 5
70: 5
71: 5
72: 5
edge from: to
73: 0
74: 4
75: 7
76: 11
77: 2
77: 14
78: 16
78: 17
78: 19
78: 20
79: 23
80: 24
81: 27
81: 33
82: 4
82: 28
83: 32
83: 36
83: 37
84: 32
85: 5
85: 35
86: 47
87: 40
88: 44
88: 53
89: 47
90: 60
90: 62
91: 51
91: 62
92: 13
92: 45
92: 54
92: 66
92: 68
1: 73
2: 73
3: 73
4: 73
5: 73
6: 74
7: 74
8: 74
9: 74
10: 75
11: 75
12: 75
13: 75
14: 75
15: 76
16: 76
17: 76
18: 77
19: 77
20: 77
21: 78
22: 78
23: 78
24: 79
25: 79
26: 79
27: 79
28: 79
29: 79
30: 79
31: 80
32: 80
33: 80
34: 80
35: 81
36: 82
37: 82
38: 83
39: 83
40: 83
41: 84
42: 84
43: 84
44: 84
45: 85
46: 85
47: 85
48: 86
49: 86
50: 86
51: 87
52: 87
53: 87
54: 87
55: 87
56: 88
57: 88
58: 88
59: 88
60: 89
61: 89
62: 89
63: 90
64: 90
65: 91
66: 91
67: 91
68: 91
69: 92
70: 92
71: 92
72: 92
segment: [4]
vertex id: label
67: 0
68: 1
69: 3
70: 2
71: 2
72: 2
73: 2
74: 2
75: 1
76: 3
77: 2
78: 2
79: 2
80: 2
81: 2
82: 2
83: 1
84: 3
85: 2
86: 2
0: 5
1: 5
2: 5
3: 5
4: 5
5: 5
6: 5
7: 5
8: 5
9: 5
10: 5
11: 5
12: 5
13: 5
14: 5
15: 5
16: 5
17: 5
18: 5
19: 5
20: 5
21: 5
22: 5
23: 5
24: 5
25: 5
26: 5
27: 5
28: 5
29: 5
30: 5
31: 5
32: 5
33: 5
34: 5
35: 5
36: 5
37: 5
38: 5
39: 5
40: 5
41: 5
42: 5
43: 5
44: 5
45: 5
46: 5
47: 5
48: 5
49: 5
50: 5
51: 5
52: 5
53: 5
54: 5
55: 5
56: 5
57: 5
58: 5
59: 5
60: 5
61: 5
62: 5
63: 5
64: 5
65: 5
66: 5
edge from: to
67: 0
68: 2
68: 3
68: 4
69: 5
69: 6
70: 7
71: 7
71: 8
71: 10
72: 11
73: 11
73: 13
73: 14
73: 15
73: 16
74: 16
74: 19
75: 18
75: 21
76: 20
77: 22
77: 26
78: 24
78: 29
79: 36
79: 37
80: 5
80: 35
80: 44
81: 46
82: 39
82: 42
82: 47
82: 49
83: 43
83: 52
84: 46
84: 56
85: 61
86: 50
86: 61
1: 67
2: 67
3: 67
4: 67
5: 68
6: 68
7: 69
8: 69
9: 70
10: 70
11: 71
12: 71
13: 71
14: 71
15: 72
16: 72
17: 73
18: 73
19: 73
20: 73
21: 74
22: 74
23: 75
24: 75
25: 75
26: 76
27: 76
28: 77
29: 77
30: 77
31: 78
32: 78
33: 78
34: 78
35: 78
36: 78
37: 78
38: 79
39: 79
40: 79
41: 79
42: 79
43: 79
44: 79
45: 80
46: 80
47: 81
48: 81
49: 81
50: 82
51: 82
52: 82
53: 82
54: 82
55: 83
56: 83
57: 83
58: 83
59: 84
60: 84
61: 84
62: 85
63: 85
64: 86
65: 86
66: 86
